{
  "Total": [
    {
      "Marginal Workers Agricultural Labourers - Persons": 2732,
      "Marginal Workers Other - Females": 3723,
      "Marginal Workers Other worked for 0 - 3 moths during last year - Females": 1012,
      "Upper Primary Schools with boys toilet in percentage DISE": 0,
      "Total Population": 146850,
      "Households with electricity as main source of lighting in percentage Houselisting and Housing Census Data Tables- District Level , Census of India": 91.20875488,
      "Primary Girl's Enrolment in percentage DISE": 45.9,
      "Marginal Workers worked for 3 - 6 moths during last year - Males": 6613,
      "Prevalence of Acute illness in percentage DLHS-4": 10.2,
      "Main Workers - Persons": 50898,
      "Main Workers Cultivators - Females": 8761,
      "Marginal Workers Agricultural Labourers worked for 3 - 6 moths during last year - Females": 995,
      "Marginal Workers Other worked for 0 - 3 moths during last year - Males": 1150,
      "Upper Primary Schools with drinking water facility in percentage DISE": 0,
      "Primary Schools with girls toilet in percentage DISE": 99.5,
      "Marginal Workers worked for 3 - 6 moths during last year - Persons": 16082,
      "Upper Primary Drop Out Rate in percentage DISE": 4.92,
      "Prevalence of Anaemia in pregnant women aged 15-49years in percentage DLHS-4": 88.2,
      "Current use of any modern method of family planning in percentage DLHS-4": 53,
      "Marginal Workers Agricultural Labourers - Males": 1174,
      "Upper Primary Female Teachers in percentage DISE": 0,
      "Marginal Workers - Females": 13826,
      "Marginal Workers Other worked for 3 - 6 moths during last year - Persons": 5526,
      "Main Workers Agricultural Labourers - Females": 514,
      "Marginal Workers Cultivators worked for 3 - 6 moths during last year - Females": 5571,
      "Households with no lighting  Houselisting and Housing Census Data Tables- District Level , Census of India__5": 123,
      "Prevalence of Severe Anaemia  in percentage DLHS-4": 21,
      "Total unmet need for family planning in percentage DLHS-4": 18.8,
      "Main Workers Other - Males": 17848,
      "Children who received full vaccination in percentage DLHS-4": 83.3,
      "Marginal Workers Household Industry - Persons": 559,
      "Primary Pupil-Teacher Ratio in percentage DISE": 6,
      "Marginal Workers Agricultural Labourers worked for 3 - 6 moths during last year - Males": 724,
      "Scheduled Caste Females": 2995,
      "Marginal Workers Cultivators - Males": 4643,
      "Marginal Workers - Males": 10029,
      "Marginal Workers worked for 0 - 3 moths during last year - Females": 4357,
      "Households with main source of drinking water within premises in percentage Houselisting and Housing Census Data Tables- District Level , Census of India": 60.48072472,
      "Marginal Workers Household Industry worked for 3 - 6 moths during last year - Persons": 342,
      "Upper Primary Girl's Enrolment in percentage DISE": 0,
      "Prevalence of Severe Anaemia in women aged 15-49years in percentage DLHS-4": 15.7,
      "Marginal Workers Agricultural Labourers worked for 0 - 3 moths during last year - Males": 450,
      "Households with electricity as main source of lighting  Houselisting and Housing Census Data Tables- District Level , Census of India__3": 27587,
      "Households with computer or laptop with internet connection in percentage": 1.95,
      "PHCs functioning on a 24x7hours basis in percentage DLHS-4": 100,
      "Non Workers - Males": 31370,
      "Total Households in District Houselisting and Housing Census Data Tables- District Level , Census of India": 30246,
      "Upper Primary Schools with girls toilet in percentage DISE": 0,
      "Households with mobile phone in percentage": 66.44,
      "Households receiving untreated tap water within premises in percentage Houselisting and Housing Census Data Tables- District Level , Census of India__2": 39.84328506,
      "Marginal Workers Cultivators worked for 3 - 6 moths during last year - Males": 2924,
      "Prevalence of Anaemia  in percentage DLHS-4": 82.9,
      "Prevalence of Chronic illness in percentage DLHS-4": 6.5,
      "Households with solar energy as main source of lighting in percentage Houselisting and Housing Census Data Tables- District Level , Census of India__1": 0.102492892,
      "Marginal Workers Agricultural Labourers worked for 0 - 3 moths during last year - Females": 563,
      "Main Workers - Males": 35271,
      "Female": 75.82,
      "Sno": 1547,
      "Marginal Workers Other worked for 3 - 6 moths during last year - Females": 2711,
      "Marginal Workers Cultivators worked for 0 - 3 moths during last year - Females": 2662,
      "Scheduled Tribe Males": 21556,
      "Male Illiterates": 17313,
      "Prevalence of Severe Anaemia in pregnant women aged 15-49years in percentage DLHS-4": 13.7,
      "0-6 Age Group Persons": 15744,
      "Upper Primary Student-Classroom Ratio in percentage DISE": 0,
      "Currently married men married below 21years of age in percentage DLHS-4": 18.6,
      "Male Literates": 59357,
      "Households with no lighting in percentage Houselisting and Housing Census Data Tables- District Level , Census of India__2": 0.406665344,
      "Primary Drop Out Rate in percentage DISE": 4.3,
      "Marginal Workers Household Industry - Males": 247,
      "Female Illiterates": 22796,
      "Main Workers Other - Females": 6223,
      "Marginal Workers Cultivators - Persons": 12876,
      "Upper Primary Gross Enrolment Ratio in percentage DISE": 119.8,
      "Scheduled Caste Persons": 6053,
      "Marginal Workers Cultivators worked for 3 - 6 moths during last year - Persons": 8495,
      "Households with landline phone in percentage": 1.44,
      "Total Households in District  Houselisting and Housing Census Data Tables- District Level , Census of India": 30246,
      "Upper Primary Pupil-Teacher Ratio in percentage DISE": 0,
      "Primary Student-Classroom Ratio in percentage DISE": 7,
      "Primary Schools with boys toilet in percentage DISE": 88.1,
      "Mean number of children ever born to women aged 40-49years  DLHS-4": 2.9,
      "Households receiving untreated tap water within premises  Houselisting and Housing Census Data Tables- District Level , Census of India__5": 12051,
      "Marginal Workers Household Industry worked for 0 - 3 moths during last year - Persons": 217,
      "Total Male Population": 76670,
      "Non Workers - Females": 40727,
      "Current use of family planning methods in percentage DLHS-4": 67.4,
      "Households with main source of drinking water within premises  Houselisting and Housing Census Data Tables- District Level , Census of India__3": 18293,
      "Main Workers Agricultural Labourers - Males": 942,
      "Marginal Workers Other worked for 0 - 3 moths during last year - Persons": 2162,
      "Currently married women married below 18years of age in percentage DLHS-4": 12.3,
      "Person Illiterates": 40109,
      "Main Workers Household Industry - Females": 129,
      "Female Literates": 47384,
      "Marginal Workers Cultivators worked for 0 - 3 moths during last year - Males": 1719,
      "Male": 86.52,
      "Households with improved source of drinking water in percentage DLHS-4": 82.1,
      "Upper Primary Schools with electricity in percentage DISE": 0,
      "Households with electricity in percentage DLHS-4": 96,
      "Villages with Primary Health Centre within 10km in percentage DLHS-4": 64.7,
      "Births to women aged 15-19years out of Total births in percentage DLHS-4": 6.8,
      "Prevalence of Anaemia in women aged 15-49years in percentage DLHS-4": 82.7,
      "Marginal Workers Agricultural Labourers worked for 3 - 6 moths during last year - Persons": 1719,
      "Main Workers Household Industry - Males": 316,
      "Scheduled Tribe Females": 19836,
      "Marginal Workers worked for 0 - 3 moths during last year - Males": 3416,
      "Marginal Workers Other worked for 3 - 6 moths during last year - Males": 2815,
      "Primary Net Enrolment Ratio in percentage DISE": 93.8,
      "Total": 81.42,
      "Mean age at marriage for boys DLHS-4": 25.1,
      "Number of District Hospitals  DLHS-4": 1,
      "0-6 Age Group Females": 7681,
      "Marginal Workers Agricultural Labourers worked for 0 - 3 moths during last year - Persons": 1013,
      "Marginal Workers Household Industry worked for 0 - 3 moths during last year - Males": 97,
      "Total Workers  Females": 29453,
      "Marginal Workers worked for 3 - 6 moths during last year - Females": 9469,
      "Institutional Deliveries in percentage DLHS-4": 81.3,
      "Marginal Workers Other - Males": 3965,
      "Total Workers  Males": 45300,
      "Main Workers - Females": 15627,
      "Primary Gross Enrolment Ratio in percentage DISE": 135.5,
      "Main Workers Cultivators - Persons": 24926,
      "Marginal Workers Household Industry worked for 0 - 3 moths during last year - Females": 120,
      "Upper Primary Net Enrolment Ratio in percentage DISE": 53.3,
      "Primary New Government Schools since 2003 in percentage DISE": 11,
      "Tier": "Total",
      "Marginal Workers Household Industry - Females": 312,
      "Primary Schools with electricity in percentage DISE": 53.1,
      "Main Workers Other - Persons": 24071,
      "Marginal Workers Household Industry worked for 3 - 6 moths during last year - Females": 192,
      "Main Workers Cultivators - Males": 16165,
      "Main Workers Household Industry - Persons": 445,
      "Marginal Workers Cultivators worked for 0 - 3 moths during last year - Persons": 4381,
      "Scheduled Caste Males": 3058,
      "Marginal Workers - Persons": 23855,
      "Deliveries at home conducted by skilled health personnel in percentage DLHS-4": 2,
      "Villages with Sub-Health Centres within 3km in percentage DLHS-4": 82.3,
      "Upper Primary New Government Schools since 2003 in percentage DISE": 0,
      "0-6 Age Group Males": 8063,
      "Primary Schools with drinking water facility in percentage DISE": 91.2,
      "Non Workers - Persons": 72097,
      "Person Literates": 106741,
      "State": "SIKKIM",
      "Total Female Population": 70180,
      "Marginal Workers worked for 0 - 3 moths during last year - Persons": 7773,
      "Marginal Workers Cultivators - Females": 8233,
      "Marginal Workers Other - Persons": 7688,
      "Sex Ratio": 915,
      "Scheduled Tribe Persons": 41392,
      "Marginal Workers Household Industry worked for 3 - 6 moths during last year - Males": 150,
      "Marginal Workers Agricultural Labourers - Females": 1558,
      "Mean age at marriage for girls DLHS-4": 22,
      "Households with solar energy as main source of lighting  Houselisting and Housing Census Data Tables- District Level , Census of India__4": 31,
      "District": "SOUTH",
      "Households receiving treated tap water within premises in percentage Houselisting and Housing Census Data Tables- District Level , Census of India__1": 20.5547841,
      "Total Workers  Persons": 74753,
      "Households receiving treated tap water within premises  Houselisting and Housing Census Data Tables- District Level , Census of India__4": 6217,
      "Primary Female Teachers in percentage DISE": 49.3,
      "Number of Households": 30543,
      "Main Workers Agricultural Labourers - Persons": 1456
    }
  ],
  "Rural": [
    {
      "Marginal Workers Agricultural Labourers - Persons": 2707,
      "Marginal Workers Other - Females": 3531,
      "Marginal Workers Other worked for 0 - 3 moths during last year - Females": 989,
      "Upper Primary Schools with boys toilet in percentage DISE": "NA",
      "Total Population": 125651,
      "Households with electricity as main source of lighting in percentage Houselisting and Housing Census Data Tables- District Level , Census of India": 89.81394253,
      "Primary Girl's Enrolment in percentage DISE": "NA",
      "Marginal Workers worked for 3 - 6 moths during last year - Males": 6374,
      "Prevalence of Acute illness in percentage DLHS-4": 10.8,
      "Main Workers - Persons": 43543,
      "Main Workers Cultivators - Females": 8692,
      "Marginal Workers Agricultural Labourers worked for 3 - 6 moths during last year - Females": 978,
      "Marginal Workers Other worked for 0 - 3 moths during last year - Males": 1097,
      "Upper Primary Schools with drinking water facility in percentage DISE": "NA",
      "Primary Schools with girls toilet in percentage DISE": "NA",
      "Marginal Workers worked for 3 - 6 moths during last year - Persons": 15579,
      "Upper Primary Drop Out Rate in percentage DISE": "NA",
      "Prevalence of Anaemia in pregnant women aged 15-49years in percentage DLHS-4": 87.8,
      "Current use of any modern method of family planning in percentage DLHS-4": 54.5,
      "Marginal Workers Agricultural Labourers - Males": 1168,
      "Upper Primary Female Teachers in percentage DISE": "NA",
      "Marginal Workers - Females": 13530,
      "Marginal Workers Other worked for 3 - 6 moths during last year - Persons": 5140,
      "Main Workers Agricultural Labourers - Females": 506,
      "Marginal Workers Cultivators worked for 3 - 6 moths during last year - Females": 5504,
      "Households with no lighting  Houselisting and Housing Census Data Tables- District Level , Census of India__5": 113,
      "Prevalence of Severe Anaemia  in percentage DLHS-4": 21.5,
      "Total unmet need for family planning in percentage DLHS-4": 17.8,
      "Main Workers Other - Males": 12707,
      "Children who received full vaccination in percentage DLHS-4": 84.6,
      "Marginal Workers Household Industry - Persons": 540,
      "Primary Pupil-Teacher Ratio in percentage DISE": "NA",
      "Marginal Workers Agricultural Labourers worked for 3 - 6 moths during last year - Males": 719,
      "Scheduled Caste Females": 2473,
      "Marginal Workers Cultivators - Males": 4628,
      "Marginal Workers - Males": 9734,
      "Marginal Workers worked for 0 - 3 moths during last year - Females": 4325,
      "Households with main source of drinking water within premises in percentage Houselisting and Housing Census Data Tables- District Level , Census of India": 57.57575758,
      "Marginal Workers Household Industry worked for 3 - 6 moths during last year - Persons": 327,
      "Upper Primary Girl's Enrolment in percentage DISE": "NA",
      "Prevalence of Severe Anaemia in women aged 15-49years in percentage DLHS-4": 14.4,
      "Marginal Workers Agricultural Labourers worked for 0 - 3 moths during last year - Males": 449,
      "Households with electricity as main source of lighting  Houselisting and Housing Census Data Tables- District Level , Census of India__3": 22881,
      "Households with computer or laptop with internet connection in percentage": 1.16,
      "PHCs functioning on a 24x7hours basis in percentage DLHS-4": "Not applicable",
      "Non Workers - Males": 26203,
      "Total Households in District Houselisting and Housing Census Data Tables- District Level , Census of India": 25476,
      "Upper Primary Schools with girls toilet in percentage DISE": "NA",
      "Households with mobile phone in percentage": 63.25,
      "Households receiving untreated tap water within premises in percentage Houselisting and Housing Census Data Tables- District Level , Census of India__2": 46.80483592,
      "Marginal Workers Cultivators worked for 3 - 6 moths during last year - Males": 2911,
      "Prevalence of Anaemia  in percentage DLHS-4": 82.8,
      "Prevalence of Chronic illness in percentage DLHS-4": 6.4,
      "Households with solar energy as main source of lighting in percentage Houselisting and Housing Census Data Tables- District Level , Census of India__1": 0.102056838,
      "Marginal Workers Agricultural Labourers worked for 0 - 3 moths during last year - Females": 561,
      "Main Workers - Males": 29911,
      "Female": "NA",
      "Sno": 1546,
      "Marginal Workers Other worked for 3 - 6 moths during last year - Females": 2542,
      "Marginal Workers Cultivators worked for 0 - 3 moths during last year - Females": 2659,
      "Scheduled Tribe Males": 19365,
      "Male Illiterates": 15509,
      "Prevalence of Severe Anaemia in pregnant women aged 15-49years in percentage DLHS-4": 14.4,
      "0-6 Age Group Persons": 13736,
      "Upper Primary Student-Classroom Ratio in percentage DISE": "NA",
      "Currently married men married below 21years of age in percentage DLHS-4": 20,
      "Male Literates": 50339,
      "Households with no lighting in percentage Houselisting and Housing Census Data Tables- District Level , Census of India__2": 0.443554718,
      "Primary Drop Out Rate in percentage DISE": "NA",
      "Marginal Workers Household Industry - Males": 243,
      "Female Illiterates": 20376,
      "Main Workers Other - Females": 4315,
      "Marginal Workers Cultivators - Persons": 12791,
      "Upper Primary Gross Enrolment Ratio in percentage DISE": "NA",
      "Scheduled Caste Persons": 5042,
      "Marginal Workers Cultivators worked for 3 - 6 moths during last year - Persons": 8415,
      "Households with landline phone in percentage": 1.06,
      "Total Households in District  Houselisting and Housing Census Data Tables- District Level , Census of India": 25476,
      "Upper Primary Pupil-Teacher Ratio in percentage DISE": "NA",
      "Primary Student-Classroom Ratio in percentage DISE": "NA",
      "Primary Schools with boys toilet in percentage DISE": "NA",
      "Mean number of children ever born to women aged 40-49years  DLHS-4": 3,
      "Households receiving untreated tap water within premises  Houselisting and Housing Census Data Tables- District Level , Census of India__5": 11924,
      "Marginal Workers Household Industry worked for 0 - 3 moths during last year - Persons": 213,
      "Total Male Population": 65848,
      "Non Workers - Females": 32641,
      "Current use of family planning methods in percentage DLHS-4": 68.6,
      "Households with main source of drinking water within premises  Houselisting and Housing Census Data Tables- District Level , Census of India__3": 14668,
      "Main Workers Agricultural Labourers - Males": 909,
      "Marginal Workers Other worked for 0 - 3 moths during last year - Persons": 2086,
      "Currently married women married below 18years of age in percentage DLHS-4": 12.9,
      "Person Illiterates": 35885,
      "Main Workers Household Industry - Females": 119,
      "Female Literates": 39427,
      "Marginal Workers Cultivators worked for 0 - 3 moths during last year - Males": 1717,
      "Male": "NA",
      "Households with improved source of drinking water in percentage DLHS-4": 80.8,
      "Upper Primary Schools with electricity in percentage DISE": "NA",
      "Households with electricity in percentage DLHS-4": 95.6,
      "Villages with Primary Health Centre within 10km in percentage DLHS-4": "Not applicable",
      "Births to women aged 15-19years out of Total births in percentage DLHS-4": 6.1,
      "Prevalence of Anaemia in women aged 15-49years in percentage DLHS-4": 81.5,
      "Marginal Workers Agricultural Labourers worked for 3 - 6 moths during last year - Persons": 1697,
      "Main Workers Household Industry - Males": 251,
      "Scheduled Tribe Females": 17544,
      "Marginal Workers worked for 0 - 3 moths during last year - Males": 3360,
      "Marginal Workers Other worked for 3 - 6 moths during last year - Males": 2598,
      "Primary Net Enrolment Ratio in percentage DISE": "NA",
      "Total": "NA",
      "Mean age at marriage for boys DLHS-4": 25,
      "Number of District Hospitals  DLHS-4": "Not applicable",
      "0-6 Age Group Females": 6712,
      "Marginal Workers Agricultural Labourers worked for 0 - 3 moths during last year - Persons": 1010,
      "Marginal Workers Household Industry worked for 0 - 3 moths during last year - Males": 97,
      "Total Workers  Females": 27162,
      "Marginal Workers worked for 3 - 6 moths during last year - Females": 9205,
      "Institutional Deliveries in percentage DLHS-4": 80,
      "Marginal Workers Other - Males": 3695,
      "Total Workers  Males": 39645,
      "Main Workers - Females": 13632,
      "Primary Gross Enrolment Ratio in percentage DISE": "NA",
      "Main Workers Cultivators - Persons": 24736,
      "Marginal Workers Household Industry worked for 0 - 3 moths during last year - Females": 116,
      "Upper Primary Net Enrolment Ratio in percentage DISE": "NA",
      "Primary New Government Schools since 2003 in percentage DISE": "NA",
      "Tier": "Rural",
      "Marginal Workers Household Industry - Females": 297,
      "Primary Schools with electricity in percentage DISE": "NA",
      "Main Workers Other - Persons": 17022,
      "Marginal Workers Household Industry worked for 3 - 6 moths during last year - Females": 181,
      "Main Workers Cultivators - Males": 16044,
      "Main Workers Household Industry - Persons": 370,
      "Marginal Workers Cultivators worked for 0 - 3 moths during last year - Persons": 4376,
      "Scheduled Caste Males": 2569,
      "Marginal Workers - Persons": 23264,
      "Deliveries at home conducted by skilled health personnel in percentage DLHS-4": 2.3,
      "Villages with Sub-Health Centres within 3km in percentage DLHS-4": "Not applicable",
      "Upper Primary New Government Schools since 2003 in percentage DISE": "NA",
      "0-6 Age Group Males": 7024,
      "Primary Schools with drinking water facility in percentage DISE": "NA",
      "Non Workers - Persons": 58844,
      "Person Literates": 89766,
      "State": "SIKKIM",
      "Total Female Population": 59803,
      "Marginal Workers worked for 0 - 3 moths during last year - Persons": 7685,
      "Marginal Workers Cultivators - Females": 8163,
      "Marginal Workers Other - Persons": 7226,
      "Sex Ratio": 908,
      "Scheduled Tribe Persons": 36909,
      "Marginal Workers Household Industry worked for 3 - 6 moths during last year - Males": 146,
      "Marginal Workers Agricultural Labourers - Females": 1539,
      "Mean age at marriage for girls DLHS-4": 22,
      "Households with solar energy as main source of lighting  Houselisting and Housing Census Data Tables- District Level , Census of India__4": 26,
      "District": "SOUTH",
      "Households receiving treated tap water within premises in percentage Houselisting and Housing Census Data Tables- District Level , Census of India__1": 10.67279008,
      "Total Workers  Persons": 66807,
      "Households receiving treated tap water within premises  Houselisting and Housing Census Data Tables- District Level , Census of India__4": 2719,
      "Primary Female Teachers in percentage DISE": "NA",
      "Number of Households": 25703,
      "Main Workers Agricultural Labourers - Persons": 1415
    }
  ],
  "Urban": [
    {
      "Marginal Workers Agricultural Labourers - Persons": 25,
      "Marginal Workers Other - Females": 192,
      "Marginal Workers Other worked for 0 - 3 moths during last year - Females": 23,
      "Upper Primary Schools with boys toilet in percentage DISE": "NA",
      "Total Population": 21199,
      "Households with electricity as main source of lighting in percentage Houselisting and Housing Census Data Tables- District Level , Census of India": 98.65828092,
      "Primary Girl's Enrolment in percentage DISE": "NA",
      "Marginal Workers worked for 3 - 6 moths during last year - Males": 239,
      "Prevalence of Acute illness in percentage DLHS-4": "Not available",
      "Main Workers - Persons": 7355,
      "Main Workers Cultivators - Females": 69,
      "Marginal Workers Agricultural Labourers worked for 3 - 6 moths during last year - Females": 17,
      "Marginal Workers Other worked for 0 - 3 moths during last year - Males": 53,
      "Upper Primary Schools with drinking water facility in percentage DISE": "NA",
      "Primary Schools with girls toilet in percentage DISE": "NA",
      "Marginal Workers worked for 3 - 6 moths during last year - Persons": 503,
      "Upper Primary Drop Out Rate in percentage DISE": "NA",
      "Prevalence of Anaemia in pregnant women aged 15-49years in percentage DLHS-4": "Not available",
      "Current use of any modern method of family planning in percentage DLHS-4": "Not available",
      "Marginal Workers Agricultural Labourers - Males": 6,
      "Upper Primary Female Teachers in percentage DISE": "NA",
      "Marginal Workers - Females": 296,
      "Marginal Workers Other worked for 3 - 6 moths during last year - Persons": 386,
      "Main Workers Agricultural Labourers - Females": 8,
      "Marginal Workers Cultivators worked for 3 - 6 moths during last year - Females": 67,
      "Households with no lighting  Houselisting and Housing Census Data Tables- District Level , Census of India__5": 10,
      "Prevalence of Severe Anaemia  in percentage DLHS-4": "Not available",
      "Total unmet need for family planning in percentage DLHS-4": "Not available",
      "Main Workers Other - Males": 5141,
      "Children who received full vaccination in percentage DLHS-4": "Not available",
      "Marginal Workers Household Industry - Persons": 19,
      "Primary Pupil-Teacher Ratio in percentage DISE": "NA",
      "Marginal Workers Agricultural Labourers worked for 3 - 6 moths during last year - Males": 5,
      "Scheduled Caste Females": 522,
      "Marginal Workers Cultivators - Males": 15,
      "Marginal Workers - Males": 295,
      "Marginal Workers worked for 0 - 3 moths during last year - Females": 32,
      "Households with main source of drinking water within premises in percentage Houselisting and Housing Census Data Tables- District Level , Census of India": 75.99580713,
      "Marginal Workers Household Industry worked for 3 - 6 moths during last year - Persons": 15,
      "Upper Primary Girl's Enrolment in percentage DISE": "NA",
      "Prevalence of Severe Anaemia in women aged 15-49years in percentage DLHS-4": "Not available",
      "Marginal Workers Agricultural Labourers worked for 0 - 3 moths during last year - Males": 1,
      "Households with electricity as main source of lighting  Houselisting and Housing Census Data Tables- District Level , Census of India__3": 4706,
      "Households with computer or laptop with internet connection in percentage": 6.18,
      "PHCs functioning on a 24x7hours basis in percentage DLHS-4": 0,
      "Non Workers - Males": 5167,
      "Total Households in District Houselisting and Housing Census Data Tables- District Level , Census of India": 4770,
      "Upper Primary Schools with girls toilet in percentage DISE": "NA",
      "Households with mobile phone in percentage": 83.46,
      "Households receiving untreated tap water within premises in percentage Houselisting and Housing Census Data Tables- District Level , Census of India__2": 2.662473795,
      "Marginal Workers Cultivators worked for 3 - 6 moths during last year - Males": 13,
      "Prevalence of Anaemia  in percentage DLHS-4": "Not available",
      "Prevalence of Chronic illness in percentage DLHS-4": "Not available",
      "Households with solar energy as main source of lighting in percentage Houselisting and Housing Census Data Tables- District Level , Census of India__1": 0.104821803,
      "Marginal Workers Agricultural Labourers worked for 0 - 3 moths during last year - Females": 2,
      "Main Workers - Males": 5360,
      "Female": "NA",
      "Sno": 1548,
      "Marginal Workers Other worked for 3 - 6 moths during last year - Females": 169,
      "Marginal Workers Cultivators worked for 0 - 3 moths during last year - Females": 3,
      "Scheduled Tribe Males": 2191,
      "Male Illiterates": 1804,
      "Prevalence of Severe Anaemia in pregnant women aged 15-49years in percentage DLHS-4": "Not available",
      "0-6 Age Group Persons": 2008,
      "Upper Primary Student-Classroom Ratio in percentage DISE": "NA",
      "Currently married men married below 21years of age in percentage DLHS-4": "Not available",
      "Male Literates": 9018,
      "Households with no lighting in percentage Houselisting and Housing Census Data Tables- District Level , Census of India__2": 0.209643606,
      "Primary Drop Out Rate in percentage DISE": "NA",
      "Marginal Workers Household Industry - Males": 4,
      "Female Illiterates": 2420,
      "Main Workers Other - Females": 1908,
      "Marginal Workers Cultivators - Persons": 85,
      "Upper Primary Gross Enrolment Ratio in percentage DISE": "NA",
      "Scheduled Caste Persons": 1011,
      "Marginal Workers Cultivators worked for 3 - 6 moths during last year - Persons": 80,
      "Households with landline phone in percentage": 3.48,
      "Total Households in District  Houselisting and Housing Census Data Tables- District Level , Census of India": 4770,
      "Upper Primary Pupil-Teacher Ratio in percentage DISE": "NA",
      "Primary Student-Classroom Ratio in percentage DISE": "NA",
      "Primary Schools with boys toilet in percentage DISE": "NA",
      "Mean number of children ever born to women aged 40-49years  DLHS-4": "Not available",
      "Households receiving untreated tap water within premises  Houselisting and Housing Census Data Tables- District Level , Census of India__5": 127,
      "Marginal Workers Household Industry worked for 0 - 3 moths during last year - Persons": 4,
      "Total Male Population": 10822,
      "Non Workers - Females": 8086,
      "Current use of family planning methods in percentage DLHS-4": "Not available",
      "Households with main source of drinking water within premises  Houselisting and Housing Census Data Tables- District Level , Census of India__3": 3625,
      "Main Workers Agricultural Labourers - Males": 33,
      "Marginal Workers Other worked for 0 - 3 moths during last year - Persons": 76,
      "Currently married women married below 18years of age in percentage DLHS-4": "Not available",
      "Person Illiterates": 4224,
      "Main Workers Household Industry - Females": 10,
      "Female Literates": 7957,
      "Marginal Workers Cultivators worked for 0 - 3 moths during last year - Males": 2,
      "Male": "NA",
      "Households with improved source of drinking water in percentage DLHS-4": "Not available",
      "Upper Primary Schools with electricity in percentage DISE": "NA",
      "Households with electricity in percentage DLHS-4": "Not avaialble",
      "Villages with Primary Health Centre within 10km in percentage DLHS-4": 0,
      "Births to women aged 15-19years out of Total births in percentage DLHS-4": "Not available",
      "Prevalence of Anaemia in women aged 15-49years in percentage DLHS-4": "Not available",
      "Marginal Workers Agricultural Labourers worked for 3 - 6 moths during last year - Persons": 22,
      "Main Workers Household Industry - Males": 65,
      "Scheduled Tribe Females": 2292,
      "Marginal Workers worked for 0 - 3 moths during last year - Males": 56,
      "Marginal Workers Other worked for 3 - 6 moths during last year - Males": 217,
      "Primary Net Enrolment Ratio in percentage DISE": "NA",
      "Total": "NA",
      "Mean age at marriage for boys DLHS-4": "Not available",
      "Number of District Hospitals  DLHS-4": 0,
      "0-6 Age Group Females": 969,
      "Marginal Workers Agricultural Labourers worked for 0 - 3 moths during last year - Persons": 3,
      "Marginal Workers Household Industry worked for 0 - 3 moths during last year - Males": 0,
      "Total Workers  Females": 2291,
      "Marginal Workers worked for 3 - 6 moths during last year - Females": 264,
      "Institutional Deliveries in percentage DLHS-4": "Not available",
      "Marginal Workers Other - Males": 270,
      "Total Workers  Males": 5655,
      "Main Workers - Females": 1995,
      "Primary Gross Enrolment Ratio in percentage DISE": "NA",
      "Main Workers Cultivators - Persons": 190,
      "Marginal Workers Household Industry worked for 0 - 3 moths during last year - Females": 4,
      "Upper Primary Net Enrolment Ratio in percentage DISE": "NA",
      "Primary New Government Schools since 2003 in percentage DISE": "NA",
      "Tier": "Urban",
      "Marginal Workers Household Industry - Females": 15,
      "Primary Schools with electricity in percentage DISE": "NA",
      "Main Workers Other - Persons": 7049,
      "Marginal Workers Household Industry worked for 3 - 6 moths during last year - Females": 11,
      "Main Workers Cultivators - Males": 121,
      "Main Workers Household Industry - Persons": 75,
      "Marginal Workers Cultivators worked for 0 - 3 moths during last year - Persons": 5,
      "Scheduled Caste Males": 489,
      "Marginal Workers - Persons": 591,
      "Deliveries at home conducted by skilled health personnel in percentage DLHS-4": "Not available",
      "Villages with Sub-Health Centres within 3km in percentage DLHS-4": 0,
      "Upper Primary New Government Schools since 2003 in percentage DISE": "NA",
      "0-6 Age Group Males": 1039,
      "Primary Schools with drinking water facility in percentage DISE": "NA",
      "Non Workers - Persons": 13253,
      "Person Literates": 16975,
      "State": "SIKKIM",
      "Total Female Population": 10377,
      "Marginal Workers worked for 0 - 3 moths during last year - Persons": 88,
      "Marginal Workers Cultivators - Females": 70,
      "Marginal Workers Other - Persons": 462,
      "Sex Ratio": 959,
      "Scheduled Tribe Persons": 4483,
      "Marginal Workers Household Industry worked for 3 - 6 moths during last year - Males": 4,
      "Marginal Workers Agricultural Labourers - Females": 19,
      "Mean age at marriage for girls DLHS-4": "Not available",
      "Households with solar energy as main source of lighting  Houselisting and Housing Census Data Tables- District Level , Census of India__4": 5,
      "District": "SOUTH",
      "Households receiving treated tap water within premises in percentage Houselisting and Housing Census Data Tables- District Level , Census of India__1": 73.33333333,
      "Total Workers  Persons": 7946,
      "Households receiving treated tap water within premises  Houselisting and Housing Census Data Tables- District Level , Census of India__4": 3498,
      "Primary Female Teachers in percentage DISE": "NA",
      "Number of Households": 4840,
      "Main Workers Agricultural Labourers - Persons": 41
    }
  ]
}