{
  "Marginal Workers Agricultural Labourers - Persons": "4319453",
  "Marginal Workers Agricultural Labourers worked for 3 - 6 moths during last year - Females": "2108062",
  "Main Workers - Females": "1913130",
  "Total Population": "41974218",
  "Households with electricity as main source of lighting in percentage Houselisting and Housing Census Data Tables- District Level , Census of India": "1175",
  "Primary Girl's Enrolment in percentage DISE": "49.09",
  "Marginal Workers worked for 3 - 6 moths during last year - Males": "87020.87",
  "Prevalence of Acute illness in percentage DLHS-4": "N/A",
  "Main Workers - Persons": "10707543",
  "Main Workers Cultivators - Females": "355232",
  "Marginal Workers Other worked for 0 - 3 moths during last year - Males": "135762",
  "Marginal Workers Cultivators worked for 3 - 6 moths during last year - Persons": "667541",
  "Currently married women married below 18years of age in percentage DLHS-4": "4.96",
  "Primary Schools with girls toilet in percentage DISE": "82.61",
  "Marginal Workers worked for 3 - 6 moths during last year - Persons": "5597143",
  "Upper Primary Drop Out Rate in percentage DISE": "4.10",
  "Prevalence of Anaemia in pregnant women aged 15-49years in percentage DLHS-4": "N/A",
  "Current use of any modern method of family planning in percentage DLHS-4": "45.32",
  "Marginal Workers Other - Males": "798385",
  "Upper Primary Female Teachers in percentage DISE": "35.25",
  "Marginal Workers - Females": "3725804",
  "Marginal Workers Household Industry - Persons": "11386.47",
  "Marginal Workers Cultivators worked for 3 - 6 moths during last year - Females": "287509",
  "Households with no lighting  Houselisting and Housing Census Data Tables- District Level , Census of India__5": "103140",
  "Mean age at marriage for girls DLHS-4": "21.93",
  "Total unmet need for family planning in percentage DLHS-4": "21.91",
  "Marginal Workers Other - Females": "550394",
  "Children who received full vaccination in percentage DLHS-4": "N/A",
  "Households with main source of drinking water within premises  Houselisting and Housing Census Data Tables- District Level , Census of India__3": "2150660",
  "Primary Pupil-Teacher Ratio in percentage DISE": "21.83",
  "Marginal Workers Agricultural Labourers worked for 3 - 6 moths during last year - Males": "1468309",
  "Marginal Workers worked for 0 - 3 moths during last year - Persons": "1236903",
  "Scheduled Caste Females": "3570655",
  "Marginal Workers Cultivators - Males": "450813",
  "Marginal Workers Agricultural Labourers - Males": "57833.50",
  "Marginal Workers worked for 0 - 3 moths during last year - Females": "24642.90",
  "Households with main source of drinking water within premises in percentage Houselisting and Housing Census Data Tables- District Level , Census of India": "20.09",
  "Marginal Workers worked for 0 - 3 moths during last year - Males": "497616",
  "Female Literates": "11652914",
  "working population": "N/A",
  "Upper Primary Girl's Enrolment in percentage DISE": "48.32",
  "Prevalence of Severe Anaemia in women aged 15-49years in percentage DLHS-4": "N/A",
  "Marginal Workers Agricultural Labourers worked for 0 - 3 moths during last year - Males": "266696",
  "Marginal Workers Household Industry worked for 0 - 3 moths during last year - Males": "24377",
  "Marginal Workers Household Industry - Females": "217555",
  "Current use of family planning methods in percentage DLHS-4": "59.63",
  "Non Workers - Males": "9309481",
  "Total Households in District Houselisting and Housing Census Data Tables- District Level , Census of India": "9508631",
  "Upper Primary Schools with girls toilet in percentage DISE": "86.10",
  "Primary Schools with drinking water facility in percentage DISE": "96.03",
  "Upper Primary Schools with boys toilet in percentage DISE": "73.22",
  "Households receiving untreated tap water within premises in percentage Houselisting and Housing Census Data Tables- District Level , Census of India__2": "22",
  "Marginal Workers Cultivators worked for 3 - 6 moths during last year - Males": "380032",
  "Prevalence of Anaemia  in percentage DLHS-4": "N/A",
  "Prevalence of Chronic illness in percentage DLHS-4": "N/A",
  "Households with solar energy as main source of lighting in percentage Houselisting and Housing Census Data Tables- District Level , Census of India__1": "10",
  "Marginal Workers Agricultural Labourers worked for 0 - 3 moths during last year - Females": "15879.53",
  "Female": "1782",
  "Total Male Population": "21212136",
  "Marginal Workers Cultivators worked for 0 - 3 moths during last year - Females": "85898",
  "Scheduled Tribe Males": "4727732",
  "Male Illiterates": "6122455",
  "Prevalence of Severe Anaemia in pregnant women aged 15-49years in percentage DLHS-4": "N/A",
  "0-6 Age Group Persons": "5273194",
  "Marginal Workers - Persons": "6834046",
  "Currently married men married below 21years of age in percentage DLHS-4": "7.25",
  "Male Literates": "15089681",
  "Households with improved source of drinking water in percentage DLHS-4": "N/A",
  "Primary Drop Out Rate in percentage DISE": "4.18",
  "Marginal Workers Household Industry - Males": "124039",
  "Female Illiterates": "9109168",
  "Main Workers Other - Females": "25262.63",
  "Upper Primary Gross Enrolment Ratio in percentage DISE": "84.77",
  "Scheduled Caste Persons": "239615.43",
  "Upper Primary Schools with electricity in percentage DISE": "985",
  "Number of Households": "9637820",
  "Marginal Workers - Males": "3108242",
  "Total Households in District  Houselisting and Housing Census Data Tables- District Level , Census of India": "9508631",
  "Upper Primary Pupil-Teacher Ratio in percentage DISE": "30.90",
  "Primary Student-Classroom Ratio in percentage DISE": "20.79",
  "Primary Schools with boys toilet in percentage DISE": "75.14",
  "Mean number of children ever born to women aged 40-49years  DLHS-4": "N/A",
  "Households receiving untreated tap water within premises  Houselisting and Housing Census Data Tables- District Level , Census of India__5": "79184",
  "Marginal Workers Household Industry worked for 0 - 3 moths during last year - Persons": "75415",
  "Marginal Workers Household Industry worked for 3 - 6 moths during last year - Persons": "8872.63",
  "sexratio": "N/A",
  "Marginal Workers Cultivators - Persons": "27474.00",
  "Marginal Workers Other worked for 3 - 6 moths during last year - Females": "424429",
  "Main Workers Agricultural Labourers - Males": "1746831",
  "Upper Primary Schools with drinking water facility in percentage DISE": "96.83",
  "Main Workers Agricultural Labourers - Persons": "2420540",
  "Person Illiterates": "15231623",
  "Main Workers Household Industry - Females": "126310",
  "Primary Net Enrolment Ratio in percentage DISE": "89.93",
  "Marginal Workers Cultivators worked for 0 - 3 moths during last year - Males": "70781",
  "Male": "2312",
  "Households with no lighting in percentage Houselisting and Housing Census Data Tables- District Level , Census of India__2": "30",
  "Main Workers Other - Males": "3807869",
  "Marginal Workers Other worked for 3 - 6 moths during last year - Persons": "36235.07",
  "Households with electricity in percentage DLHS-4": "N/A",
  "Villages with Primary Health Centre within 10km in percentage DLHS-4": "N/A",
  "Births to women aged 15-19years out of Total births in percentage DLHS-4": "N/A",
  "Prevalence of Anaemia in women aged 15-49years in percentage DLHS-4": "N/A",
  "Main Workers Household Industry - Males": "10505.87",
  "Scheduled Tribe Females": "4863024",
  "PHCs functioning on a 24x7hours basis in percentage DLHS-4": "N/A",
  "Marginal Workers Other worked for 3 - 6 moths during last year - Males": "662623",
  "Marginal Workers Other worked for 0 - 3 moths during last year - Females": "125965",
  "Households with computer/laptop with internet connection in percentage": "N/A",
  "enrollment rate of education": "N/A",
  "Mean age at marriage for boys DLHS-4": "26.58",
  "Number of District Hospitals  DLHS-4": "N/A",
  "0-6 Age Group Females": "85223.23",
  "Total": "2050",
  "Households with electricity as main source of lighting  Houselisting and Housing Census Data Tables- District Level , Census of India__3": "4105858",
  "Total Workers  Females": "5638934",
  "Marginal Workers Agricultural Labourers worked for 0 - 3 moths during last year - Persons": "743082",
  "Marginal Workers worked for 3 - 6 moths during last year - Females": "2986517",
  "Institutional Deliveries in percentage DLHS-4": "78.58",
  "Upper Primary Net Enrolment Ratio in percentage DISE": "63.20",
  "Marginal Workers Agricultural Labourers worked for 3 - 6 moths during last year - Persons": "3576371",
  "Total Workers  Males": "11902655",
  "Primary Gross Enrolment Ratio in percentage DISE": "108.36",
  "Main Workers Cultivators - Persons": "3279769",
  "Marginal Workers Household Industry worked for 0 - 3 moths during last year - Females": "51038",
  "Households with landline phone in percentage": "49",
  "Primary New Government Schools since 2003 in percentage DISE": "28.10",
  "Tier": "N/A",
  "Households with mobile phone in percentage": "965",
  "Primary Schools with electricity in percentage DISE": "11.31",
  "Main Workers Other - Persons": "152191.60",
  "Marginal Workers Household Industry worked for 3 - 6 moths during last year - Females": "166517",
  "Households receiving treated tap water within premises in percentage Houselisting and Housing Census Data Tables- District Level , Census of India__1": "136",
  "Main Workers Agricultural Labourers - Females": "673709",
  "Marginal Workers Cultivators worked for 0 - 3 moths during last year - Persons": "156679",
  "Scheduled Caste Males": "3617808",
  "Marginal Workers Other worked for 0 - 3 moths during last year - Persons": "261727",
  "Deliveries at home conducted by skilled health personnel in percentage DLHS-4": "23.98",
  "Villages with Sub-Health Centres within 3km in percentage DLHS-4": "N/A",
  "Upper Primary New Government Schools since 2003 in percentage DISE": "1.42",
  "0-6 Age Group Males": "2716497",
  "Non Workers - Females": "15123148",
  "Non Workers - Persons": "24432629",
  "Person Literates": "26742595",
  "enrolment rate": "N/A",
  "State": "N/A",
  "Main Workers - Males": "8794413",
  "Total Female Population": "20762082",
  "Marginal Workers Cultivators - Females": "12446.90",
  "Marginal Workers Other - Persons": "44959.30",
  "Sex Ratio": "984.76",
  "Scheduled Tribe Persons": "9590756",
  "Marginal Workers Household Industry worked for 3 - 6 moths during last year - Males": "3322.07",
  "Marginal Workers Agricultural Labourers - Females": "2584448",
  "Prevalence of Severe Anaemia  in percentage DLHS-4": "N/A",
  "Upper Primary Student-Classroom Ratio in percentage DISE": "31.76",
  "Main Workers Household Industry - Persons": "14716.20",
  "Households with solar energy as main source of lighting  Houselisting and Housing Census Data Tables- District Level , Census of India__4": "33905",
  "District": "N/A",
  "Main Workers Cultivators - Males": "2924537",
  "Total Workers  Persons": "17541589",
  "Households receiving treated tap water within premises  Houselisting and Housing Census Data Tables- District Level , Census of India__4": "525876",
  "Primary Female Teachers in percentage DISE": "42.36"
}