{
  "Total": [
    {
      "Marginal Workers Agricultural Labourers - Persons": 69441,
      "Marginal Workers Other - Females": 5526,
      "Marginal Workers Other worked for 0 - 3 moths during last year - Females": 1434,
      "Upper Primary Schools with boys toilet in percentage DISE": 100,
      "Total Population": 441162,
      "Households with electricity as main source of lighting in percentage Houselisting and Housing Census Data Tables- District Level , Census of India": 17.81447548,
      "Primary Girl's Enrolment in percentage DISE": 50,
      "Marginal Workers worked for 3 - 6 moths during last year - Males": 28440,
      "Prevalence of Acute illness in percentage DLHS-4": "Not available",
      "Main Workers - Persons": 123724,
      "Main Workers Cultivators - Females": 8255,
      "Marginal Workers Agricultural Labourers worked for 3 - 6 moths during last year - Females": 42422,
      "Marginal Workers Other worked for 0 - 3 moths during last year - Males": 1152,
      "Upper Primary Schools with drinking water facility in percentage DISE": 100,
      "Primary Schools with girls toilet in percentage DISE": 100,
      "Marginal Workers worked for 3 - 6 moths during last year - Persons": 81488,
      "Upper Primary Drop Out Rate in percentage DISE": 7.99,
      "Prevalence of Anaemia in pregnant women aged 15-49years in percentage DLHS-4": "Not available",
      "Current use of any modern method of family planning in percentage DLHS-4": 31.4,
      "Marginal Workers Agricultural Labourers - Males": 20626,
      "Upper Primary Female Teachers in percentage DISE": 23.3,
      "Marginal Workers - Females": 62538,
      "Marginal Workers Other worked for 3 - 6 moths during last year - Persons": 8752,
      "Main Workers Agricultural Labourers - Females": 14527,
      "Marginal Workers Cultivators worked for 3 - 6 moths during last year - Females": 4299,
      "Households with no lighting  Houselisting and Housing Census Data Tables- District Level , Census of India__5": 780,
      "Prevalence of Severe Anaemia  in percentage DLHS-4": "Not available",
      "Total unmet need for family planning in percentage DLHS-4": 48.4,
      "Main Workers Other - Males": 21761,
      "Children who received full vaccination in percentage DLHS-4": "Not available",
      "Marginal Workers Household Industry - Persons": 4423,
      "Primary Pupil-Teacher Ratio in percentage DISE": 19,
      "Marginal Workers Agricultural Labourers worked for 3 - 6 moths during last year - Males": 18087,
      "Scheduled Caste Females": 52437,
      "Marginal Workers Cultivators - Males": 5342,
      "Marginal Workers - Males": 33195,
      "Marginal Workers worked for 0 - 3 moths during last year - Females": 9490,
      "Households with main source of drinking water within premises in percentage Houselisting and Housing Census Data Tables- District Level , Census of India": 8.375801795,
      "Marginal Workers Household Industry worked for 3 - 6 moths during last year - Persons": 3367,
      "Upper Primary Girl's Enrolment in percentage DISE": 45.6,
      "Prevalence of Severe Anaemia in women aged 15-49years in percentage DLHS-4": "Not available",
      "Marginal Workers Agricultural Labourers worked for 0 - 3 moths during last year - Males": 2539,
      "Households with electricity as main source of lighting  Houselisting and Housing Census Data Tables- District Level , Census of India__3": 19191,
      "Households with computer or laptop with internet connection in percentage": 0.23,
      "PHCs functioning on a 24x7hours basis in percentage DLHS-4": "Not available",
      "Non Workers - Males": 95998,
      "Total Households in District Houselisting and Housing Census Data Tables- District Level , Census of India": 107727,
      "Upper Primary Schools with girls toilet in percentage DISE": 100,
      "Households with mobile phone in percentage": 21.08,
      "Households receiving untreated tap water within premises in percentage Houselisting and Housing Census Data Tables- District Level , Census of India__2": 0.052,
      "Marginal Workers Cultivators worked for 3 - 6 moths during last year - Males": 4561,
      "Prevalence of Anaemia  in percentage DLHS-4": "Not available",
      "Prevalence of Chronic illness in percentage DLHS-4": "Not available",
      "Households with solar energy as main source of lighting in percentage Houselisting and Housing Census Data Tables- District Level , Census of India__1": 0.262701087,
      "Marginal Workers Agricultural Labourers worked for 0 - 3 moths during last year - Females": 6393,
      "Main Workers - Males": 92432,
      "Female": 59.79,
      "Sno": 1286,
      "Marginal Workers Other worked for 3 - 6 moths during last year - Females": 4092,
      "Marginal Workers Cultivators worked for 0 - 3 moths during last year - Females": 890,
      "Scheduled Tribe Males": 27362,
      "Male Illiterates": 62977,
      "Prevalence of Severe Anaemia in pregnant women aged 15-49years in percentage DLHS-4": "Not available",
      "0-6 Age Group Persons": 61847,
      "Upper Primary Student-Classroom Ratio in percentage DISE": 40,
      "Currently married men married below 21years of age in percentage DLHS-4": 8.6,
      "Male Literates": 158648,
      "Households with no lighting in percentage Houselisting and Housing Census Data Tables- District Level , Census of India__2": 0.724052466,
      "Primary Drop Out Rate in percentage DISE": 2.8,
      "Marginal Workers Household Industry - Males": 1415,
      "Female Illiterates": 106573,
      "Main Workers Other - Females": 6342,
      "Marginal Workers Cultivators - Persons": 10531,
      "Upper Primary Gross Enrolment Ratio in percentage DISE": 86.2,
      "Scheduled Caste Persons": 104934,
      "Marginal Workers Cultivators worked for 3 - 6 moths during last year - Persons": 8860,
      "Households with landline phone in percentage": 0.69,
      "Total Households in District  Houselisting and Housing Census Data Tables- District Level , Census of India": 107727,
      "Upper Primary Pupil-Teacher Ratio in percentage DISE": 42,
      "Primary Student-Classroom Ratio in percentage DISE": 18,
      "Primary Schools with boys toilet in percentage DISE": 99.8,
      "Mean number of children ever born to women aged 40-49years  DLHS-4": "Not available",
      "Households receiving untreated tap water within premises  Houselisting and Housing Census Data Tables- District Level , Census of India__5": 56,
      "Marginal Workers Household Industry worked for 0 - 3 moths during last year - Persons": 1056,
      "Total Male Population": 221625,
      "Non Workers - Females": 125707,
      "Current use of family planning methods in percentage DLHS-4": 32.5,
      "Households with main source of drinking water within premises  Houselisting and Housing Census Data Tables- District Level , Census of India__3": 9023,
      "Main Workers Agricultural Labourers - Males": 20717,
      "Marginal Workers Other worked for 0 - 3 moths during last year - Persons": 2586,
      "Currently married women married below 18years of age in percentage DLHS-4": 5.7,
      "Person Illiterates": 169550,
      "Main Workers Household Industry - Females": 2168,
      "Female Literates": 112964,
      "Marginal Workers Cultivators worked for 0 - 3 moths during last year - Males": 781,
      "Male": 83.34,
      "Households with improved source of drinking water in percentage DLHS-4": "Not available",
      "Upper Primary Schools with electricity in percentage DISE": 37.9,
      "Households with electricity in percentage DLHS-4": "Not available",
      "Villages with Primary Health Centre within 10km in percentage DLHS-4": "Not available",
      "Births to women aged 15-19years out of Total births in percentage DLHS-4": "Not available",
      "Prevalence of Anaemia in women aged 15-49years in percentage DLHS-4": "Not available",
      "Marginal Workers Agricultural Labourers worked for 3 - 6 moths during last year - Persons": 60509,
      "Main Workers Household Industry - Males": 5083,
      "Scheduled Tribe Females": 28002,
      "Marginal Workers worked for 0 - 3 moths during last year - Males": 4755,
      "Marginal Workers Other worked for 3 - 6 moths during last year - Males": 4660,
      "Primary Net Enrolment Ratio in percentage DISE": 90.7,
      "Total": 71.61,
      "Mean age at marriage for boys DLHS-4": 25.4,
      "Number of District Hospitals  DLHS-4": "Not available",
      "0-6 Age Group Females": 30587,
      "Marginal Workers Agricultural Labourers worked for 0 - 3 moths during last year - Persons": 8932,
      "Marginal Workers Household Industry worked for 0 - 3 moths during last year - Males": 283,
      "Total Workers  Females": 93830,
      "Marginal Workers worked for 3 - 6 moths during last year - Females": 53048,
      "Institutional Deliveries in percentage DLHS-4": 67.6,
      "Marginal Workers Other - Males": 5812,
      "Total Workers  Males": 125627,
      "Main Workers - Females": 31292,
      "Primary Gross Enrolment Ratio in percentage DISE": 103.2,
      "Main Workers Cultivators - Persons": 53126,
      "Marginal Workers Household Industry worked for 0 - 3 moths during last year - Females": 773,
      "Upper Primary Net Enrolment Ratio in percentage DISE": 68.3,
      "Primary New Government Schools since 2003 in percentage DISE": 27,
      "Tier": "Total",
      "Marginal Workers Household Industry - Females": 3008,
      "Primary Schools with electricity in percentage DISE": 7.5,
      "Main Workers Other - Persons": 28103,
      "Marginal Workers Household Industry worked for 3 - 6 moths during last year - Females": 2235,
      "Main Workers Cultivators - Males": 44871,
      "Main Workers Household Industry - Persons": 7251,
      "Marginal Workers Cultivators worked for 0 - 3 moths during last year - Persons": 1671,
      "Scheduled Caste Males": 52497,
      "Marginal Workers - Persons": 95733,
      "Deliveries at home conducted by skilled health personnel in percentage DLHS-4": 15,
      "Villages with Sub-Health Centres within 3km in percentage DLHS-4": "Not available",
      "Upper Primary New Government Schools since 2003 in percentage DISE": 0,
      "0-6 Age Group Males": 31260,
      "Primary Schools with drinking water facility in percentage DISE": 100,
      "Non Workers - Persons": 221705,
      "Person Literates": 271612,
      "State": "ODISHA",
      "Total Female Population": 219537,
      "Marginal Workers worked for 0 - 3 moths during last year - Persons": 14245,
      "Marginal Workers Cultivators - Females": 5189,
      "Marginal Workers Other - Persons": 11338,
      "Sex Ratio": 991,
      "Scheduled Tribe Persons": 55364,
      "Marginal Workers Household Industry worked for 3 - 6 moths during last year - Males": 1132,
      "Marginal Workers Agricultural Labourers - Females": 48815,
      "Mean age at marriage for girls DLHS-4": 21.1,
      "Households with solar energy as main source of lighting  Houselisting and Housing Census Data Tables- District Level , Census of India__4": 283,
      "District": "BAUDH",
      "Households receiving treated tap water within premises in percentage Houselisting and Housing Census Data Tables- District Level , Census of India__1": 1.112070326,
      "Total Workers  Persons": 219457,
      "Households receiving treated tap water within premises  Houselisting and Housing Census Data Tables- District Level , Census of India__4": 1198,
      "Primary Female Teachers in percentage DISE": 28,
      "Number of Households": 106961,
      "Main Workers Agricultural Labourers - Persons": 35244
    }
  ],
  "Rural": [
    {
      "Marginal Workers Agricultural Labourers - Persons": 69299,
      "Marginal Workers Other - Females": 5286,
      "Marginal Workers Other worked for 0 - 3 moths during last year - Females": 1410,
      "Upper Primary Schools with boys toilet in percentage DISE": "NA",
      "Total Population": 420738,
      "Households with electricity as main source of lighting in percentage Houselisting and Housing Census Data Tables- District Level , Census of India": 15.33528996,
      "Primary Girl's Enrolment in percentage DISE": "NA",
      "Marginal Workers worked for 3 - 6 moths during last year - Males": 27913,
      "Prevalence of Acute illness in percentage DLHS-4": "Not available",
      "Main Workers - Persons": 117656,
      "Main Workers Cultivators - Females": 8226,
      "Marginal Workers Agricultural Labourers worked for 3 - 6 moths during last year - Females": 42318,
      "Marginal Workers Other worked for 0 - 3 moths during last year - Males": 1105,
      "Upper Primary Schools with drinking water facility in percentage DISE": "NA",
      "Primary Schools with girls toilet in percentage DISE": "NA",
      "Marginal Workers worked for 3 - 6 moths during last year - Persons": 80518,
      "Upper Primary Drop Out Rate in percentage DISE": "NA",
      "Prevalence of Anaemia in pregnant women aged 15-49years in percentage DLHS-4": "Not available",
      "Current use of any modern method of family planning in percentage DLHS-4": 30.7,
      "Marginal Workers Agricultural Labourers - Males": 20598,
      "Upper Primary Female Teachers in percentage DISE": "NA",
      "Marginal Workers - Females": 62058,
      "Marginal Workers Other worked for 3 - 6 moths during last year - Persons": 8102,
      "Main Workers Agricultural Labourers - Females": 14480,
      "Marginal Workers Cultivators worked for 3 - 6 moths during last year - Females": 4263,
      "Households with no lighting  Houselisting and Housing Census Data Tables- District Level , Census of India__5": 707,
      "Prevalence of Severe Anaemia  in percentage DLHS-4": "Not available",
      "Total unmet need for family planning in percentage DLHS-4": 49.1,
      "Main Workers Other - Males": 17870,
      "Children who received full vaccination in percentage DLHS-4": "Not available",
      "Marginal Workers Household Industry - Persons": 4276,
      "Primary Pupil-Teacher Ratio in percentage DISE": "NA",
      "Marginal Workers Agricultural Labourers worked for 3 - 6 moths during last year - Males": 18062,
      "Scheduled Caste Females": 49745,
      "Marginal Workers Cultivators - Males": 5322,
      "Marginal Workers - Males": 32609,
      "Marginal Workers worked for 0 - 3 moths during last year - Females": 9453,
      "Households with main source of drinking water within premises in percentage Houselisting and Housing Census Data Tables- District Level , Census of India": 7.260821976,
      "Marginal Workers Household Industry worked for 3 - 6 moths during last year - Persons": 3232,
      "Upper Primary Girl's Enrolment in percentage DISE": "NA",
      "Prevalence of Severe Anaemia in women aged 15-49years in percentage DLHS-4": "Not available",
      "Marginal Workers Agricultural Labourers worked for 0 - 3 moths during last year - Males": 2536,
      "Households with electricity as main source of lighting  Houselisting and Housing Census Data Tables- District Level , Census of India__3": 15832,
      "Households with computer or laptop with internet connection in percentage": 0.13,
      "PHCs functioning on a 24x7hours basis in percentage DLHS-4": "Not available",
      "Non Workers - Males": 90942,
      "Total Households in District Houselisting and Housing Census Data Tables- District Level , Census of India": 103239,
      "Upper Primary Schools with girls toilet in percentage DISE": "NA",
      "Households with mobile phone in percentage": 19.4,
      "Households receiving untreated tap water within premises in percentage Houselisting and Housing Census Data Tables- District Level , Census of India__2": 0.0426,
      "Marginal Workers Cultivators worked for 3 - 6 moths during last year - Males": 4541,
      "Prevalence of Anaemia  in percentage DLHS-4": "Not available",
      "Prevalence of Chronic illness in percentage DLHS-4": "Not available",
      "Households with solar energy as main source of lighting in percentage Houselisting and Housing Census Data Tables- District Level , Census of India__1": 0.264434952,
      "Marginal Workers Agricultural Labourers worked for 0 - 3 moths during last year - Females": 6383,
      "Main Workers - Males": 87582,
      "Female": "NA",
      "Sno": 1285,
      "Marginal Workers Other worked for 3 - 6 moths during last year - Females": 3876,
      "Marginal Workers Cultivators worked for 0 - 3 moths during last year - Females": 890,
      "Scheduled Tribe Males": 27092,
      "Male Illiterates": 61269,
      "Prevalence of Severe Anaemia in pregnant women aged 15-49years in percentage DLHS-4": "Not available",
      "0-6 Age Group Persons": 59737,
      "Upper Primary Student-Classroom Ratio in percentage DISE": "NA",
      "Currently married men married below 21years of age in percentage DLHS-4": 8.9,
      "Male Literates": 149864,
      "Households with no lighting in percentage Houselisting and Housing Census Data Tables- District Level , Census of India__2": 0.684818722,
      "Primary Drop Out Rate in percentage DISE": "NA",
      "Marginal Workers Household Industry - Males": 1358,
      "Female Illiterates": 103753,
      "Main Workers Other - Females": 5423,
      "Marginal Workers Cultivators - Persons": 10475,
      "Upper Primary Gross Enrolment Ratio in percentage DISE": "NA",
      "Scheduled Caste Persons": 99438,
      "Marginal Workers Cultivators worked for 3 - 6 moths during last year - Persons": 8804,
      "Households with landline phone in percentage": 0.64,
      "Total Households in District  Houselisting and Housing Census Data Tables- District Level , Census of India": 103239,
      "Upper Primary Pupil-Teacher Ratio in percentage DISE": "NA",
      "Primary Student-Classroom Ratio in percentage DISE": "NA",
      "Primary Schools with boys toilet in percentage DISE": "NA",
      "Mean number of children ever born to women aged 40-49years  DLHS-4": "Not available",
      "Households receiving untreated tap water within premises  Houselisting and Housing Census Data Tables- District Level , Census of India__5": 44,
      "Marginal Workers Household Industry worked for 0 - 3 moths during last year - Persons": 1044,
      "Total Male Population": 211133,
      "Non Workers - Females": 117473,
      "Current use of family planning methods in percentage DLHS-4": 31.8,
      "Households with main source of drinking water within premises  Houselisting and Housing Census Data Tables- District Level , Census of India__3": 7496,
      "Main Workers Agricultural Labourers - Males": 20629,
      "Marginal Workers Other worked for 0 - 3 moths during last year - Persons": 2515,
      "Currently married women married below 18years of age in percentage DLHS-4": 5.9,
      "Person Illiterates": 165022,
      "Main Workers Household Industry - Females": 1945,
      "Female Literates": 105852,
      "Marginal Workers Cultivators worked for 0 - 3 moths during last year - Males": 781,
      "Male": "NA",
      "Households with improved source of drinking water in percentage DLHS-4": "Not available",
      "Upper Primary Schools with electricity in percentage DISE": "NA",
      "Households with electricity in percentage DLHS-4": "Not available",
      "Villages with Primary Health Centre within 10km in percentage DLHS-4": "Not available",
      "Births to women aged 15-19years out of Total births in percentage DLHS-4": "Not available",
      "Prevalence of Anaemia in women aged 15-49years in percentage DLHS-4": "Not available",
      "Marginal Workers Agricultural Labourers worked for 3 - 6 moths during last year - Persons": 60380,
      "Main Workers Household Industry - Males": 4548,
      "Scheduled Tribe Females": 27775,
      "Marginal Workers worked for 0 - 3 moths during last year - Males": 4696,
      "Marginal Workers Other worked for 3 - 6 moths during last year - Males": 4226,
      "Primary Net Enrolment Ratio in percentage DISE": "NA",
      "Total": "NA",
      "Mean age at marriage for boys DLHS-4": 25.2,
      "Number of District Hospitals  DLHS-4": "Not available",
      "0-6 Age Group Females": 29553,
      "Marginal Workers Agricultural Labourers worked for 0 - 3 moths during last year - Persons": 8919,
      "Marginal Workers Household Industry worked for 0 - 3 moths during last year - Males": 274,
      "Total Workers  Females": 92132,
      "Marginal Workers worked for 3 - 6 moths during last year - Females": 52605,
      "Institutional Deliveries in percentage DLHS-4": 67.1,
      "Marginal Workers Other - Males": 5331,
      "Total Workers  Males": 120191,
      "Main Workers - Females": 30074,
      "Primary Gross Enrolment Ratio in percentage DISE": "NA",
      "Main Workers Cultivators - Persons": 52761,
      "Marginal Workers Household Industry worked for 0 - 3 moths during last year - Females": 770,
      "Upper Primary Net Enrolment Ratio in percentage DISE": "NA",
      "Primary New Government Schools since 2003 in percentage DISE": "NA",
      "Tier": "Rural",
      "Marginal Workers Household Industry - Females": 2918,
      "Primary Schools with electricity in percentage DISE": "NA",
      "Main Workers Other - Persons": 23293,
      "Marginal Workers Household Industry worked for 3 - 6 moths during last year - Females": 2148,
      "Main Workers Cultivators - Males": 44535,
      "Main Workers Household Industry - Persons": 6493,
      "Marginal Workers Cultivators worked for 0 - 3 moths during last year - Persons": 1671,
      "Scheduled Caste Males": 49693,
      "Marginal Workers - Persons": 94667,
      "Deliveries at home conducted by skilled health personnel in percentage DLHS-4": 15.1,
      "Villages with Sub-Health Centres within 3km in percentage DLHS-4": "Not available",
      "Upper Primary New Government Schools since 2003 in percentage DISE": "NA",
      "0-6 Age Group Males": 30184,
      "Primary Schools with drinking water facility in percentage DISE": "NA",
      "Non Workers - Persons": 208415,
      "Person Literates": 255716,
      "State": "ODISHA",
      "Total Female Population": 209605,
      "Marginal Workers worked for 0 - 3 moths during last year - Persons": 14149,
      "Marginal Workers Cultivators - Females": 5153,
      "Marginal Workers Other - Persons": 10617,
      "Sex Ratio": 993,
      "Scheduled Tribe Persons": 54867,
      "Marginal Workers Household Industry worked for 3 - 6 moths during last year - Males": 1084,
      "Marginal Workers Agricultural Labourers - Females": 48701,
      "Mean age at marriage for girls DLHS-4": 21,
      "Households with solar energy as main source of lighting  Houselisting and Housing Census Data Tables- District Level , Census of India__4": 273,
      "District": "BAUDH",
      "Households receiving treated tap water within premises in percentage Houselisting and Housing Census Data Tables- District Level , Census of India__1": 0.113329265,
      "Total Workers  Persons": 212323,
      "Households receiving treated tap water within premises  Houselisting and Housing Census Data Tables- District Level , Census of India__4": 117,
      "Primary Female Teachers in percentage DISE": "NA",
      "Number of Households": 102402,
      "Main Workers Agricultural Labourers - Persons": 35109
    }
  ],
  "Urban": [
    {
      "Marginal Workers Agricultural Labourers - Persons": 142,
      "Marginal Workers Other - Females": 240,
      "Marginal Workers Other worked for 0 - 3 moths during last year - Females": 24,
      "Upper Primary Schools with boys toilet in percentage DISE": "NA",
      "Total Population": 20424,
      "Households with electricity as main source of lighting in percentage Houselisting and Housing Census Data Tables- District Level , Census of India": 74.84402852,
      "Primary Girl's Enrolment in percentage DISE": "NA",
      "Marginal Workers worked for 3 - 6 moths during last year - Males": 527,
      "Prevalence of Acute illness in percentage DLHS-4": "Not available",
      "Main Workers - Persons": 6068,
      "Main Workers Cultivators - Females": 29,
      "Marginal Workers Agricultural Labourers worked for 3 - 6 moths during last year - Females": 104,
      "Marginal Workers Other worked for 0 - 3 moths during last year - Males": 47,
      "Upper Primary Schools with drinking water facility in percentage DISE": "NA",
      "Primary Schools with girls toilet in percentage DISE": "NA",
      "Marginal Workers worked for 3 - 6 moths during last year - Persons": 970,
      "Upper Primary Drop Out Rate in percentage DISE": "NA",
      "Prevalence of Anaemia in pregnant women aged 15-49years in percentage DLHS-4": "Not available",
      "Current use of any modern method of family planning in percentage DLHS-4": "Not available",
      "Marginal Workers Agricultural Labourers - Males": 28,
      "Upper Primary Female Teachers in percentage DISE": "NA",
      "Marginal Workers - Females": 480,
      "Marginal Workers Other worked for 3 - 6 moths during last year - Persons": 650,
      "Main Workers Agricultural Labourers - Females": 47,
      "Marginal Workers Cultivators worked for 3 - 6 moths during last year - Females": 36,
      "Households with no lighting  Houselisting and Housing Census Data Tables- District Level , Census of India__5": 73,
      "Prevalence of Severe Anaemia  in percentage DLHS-4": "Not available",
      "Total unmet need for family planning in percentage DLHS-4": "Not available",
      "Main Workers Other - Males": 3891,
      "Children who received full vaccination in percentage DLHS-4": "Not available",
      "Marginal Workers Household Industry - Persons": 147,
      "Primary Pupil-Teacher Ratio in percentage DISE": "NA",
      "Marginal Workers Agricultural Labourers worked for 3 - 6 moths during last year - Males": 25,
      "Scheduled Caste Females": 2692,
      "Marginal Workers Cultivators - Males": 20,
      "Marginal Workers - Males": 586,
      "Marginal Workers worked for 0 - 3 moths during last year - Females": 37,
      "Households with main source of drinking water within premises in percentage Houselisting and Housing Census Data Tables- District Level , Census of India": 34.02406417,
      "Marginal Workers Household Industry worked for 3 - 6 moths during last year - Persons": 135,
      "Upper Primary Girl's Enrolment in percentage DISE": "NA",
      "Prevalence of Severe Anaemia in women aged 15-49years in percentage DLHS-4": "Not available",
      "Marginal Workers Agricultural Labourers worked for 0 - 3 moths during last year - Males": 3,
      "Households with electricity as main source of lighting  Houselisting and Housing Census Data Tables- District Level , Census of India__3": 3359,
      "Households with computer or laptop with internet connection in percentage": 2.43,
      "PHCs functioning on a 24x7hours basis in percentage DLHS-4": "Not available",
      "Non Workers - Males": 5056,
      "Total Households in District Houselisting and Housing Census Data Tables- District Level , Census of India": 4488,
      "Upper Primary Schools with girls toilet in percentage DISE": "NA",
      "Households with mobile phone in percentage": 59.78,
      "Households receiving untreated tap water within premises in percentage Houselisting and Housing Census Data Tables- District Level , Census of India__2": 0.267379679,
      "Marginal Workers Cultivators worked for 3 - 6 moths during last year - Males": 20,
      "Prevalence of Anaemia  in percentage DLHS-4": "Not available",
      "Prevalence of Chronic illness in percentage DLHS-4": "Not available",
      "Households with solar energy as main source of lighting in percentage Houselisting and Housing Census Data Tables- District Level , Census of India__1": 0.222816399,
      "Marginal Workers Agricultural Labourers worked for 0 - 3 moths during last year - Females": 10,
      "Main Workers - Males": 4850,
      "Female": "NA",
      "Sno": 1287,
      "Marginal Workers Other worked for 3 - 6 moths during last year - Females": 216,
      "Marginal Workers Cultivators worked for 0 - 3 moths during last year - Females": 0,
      "Scheduled Tribe Males": 270,
      "Male Illiterates": 1708,
      "Prevalence of Severe Anaemia in pregnant women aged 15-49years in percentage DLHS-4": "Not available",
      "0-6 Age Group Persons": 2110,
      "Upper Primary Student-Classroom Ratio in percentage DISE": "NA",
      "Currently married men married below 21years of age in percentage DLHS-4": "Not available",
      "Male Literates": 8784,
      "Households with no lighting in percentage Houselisting and Housing Census Data Tables- District Level , Census of India__2": 1.626559715,
      "Primary Drop Out Rate in percentage DISE": "NA",
      "Marginal Workers Household Industry - Males": 57,
      "Female Illiterates": 2820,
      "Main Workers Other - Females": 919,
      "Marginal Workers Cultivators - Persons": 56,
      "Upper Primary Gross Enrolment Ratio in percentage DISE": "NA",
      "Scheduled Caste Persons": 5496,
      "Marginal Workers Cultivators worked for 3 - 6 moths during last year - Persons": 56,
      "Households with landline phone in percentage": 1.69,
      "Total Households in District  Houselisting and Housing Census Data Tables- District Level , Census of India": 4488,
      "Upper Primary Pupil-Teacher Ratio in percentage DISE": "NA",
      "Primary Student-Classroom Ratio in percentage DISE": "NA",
      "Primary Schools with boys toilet in percentage DISE": "NA",
      "Mean number of children ever born to women aged 40-49years  DLHS-4": "Not available",
      "Households receiving untreated tap water within premises  Houselisting and Housing Census Data Tables- District Level , Census of India__5": 12,
      "Marginal Workers Household Industry worked for 0 - 3 moths during last year - Persons": 12,
      "Total Male Population": 10492,
      "Non Workers - Females": 8234,
      "Current use of family planning methods in percentage DLHS-4": "Not available",
      "Households with main source of drinking water within premises  Houselisting and Housing Census Data Tables- District Level , Census of India__3": 1527,
      "Main Workers Agricultural Labourers - Males": 88,
      "Marginal Workers Other worked for 0 - 3 moths during last year - Persons": 71,
      "Currently married women married below 18years of age in percentage DLHS-4": "Not available",
      "Person Illiterates": 4528,
      "Main Workers Household Industry - Females": 223,
      "Female Literates": 7112,
      "Marginal Workers Cultivators worked for 0 - 3 moths during last year - Males": 0,
      "Male": "NA",
      "Households with improved source of drinking water in percentage DLHS-4": "Not available",
      "Upper Primary Schools with electricity in percentage DISE": "NA",
      "Households with electricity in percentage DLHS-4": "Not available",
      "Villages with Primary Health Centre within 10km in percentage DLHS-4": "Not available",
      "Births to women aged 15-19years out of Total births in percentage DLHS-4": "Not available",
      "Prevalence of Anaemia in women aged 15-49years in percentage DLHS-4": "Not available",
      "Marginal Workers Agricultural Labourers worked for 3 - 6 moths during last year - Persons": 129,
      "Main Workers Household Industry - Males": 535,
      "Scheduled Tribe Females": 227,
      "Marginal Workers worked for 0 - 3 moths during last year - Males": 59,
      "Marginal Workers Other worked for 3 - 6 moths during last year - Males": 434,
      "Primary Net Enrolment Ratio in percentage DISE": "NA",
      "Total": "NA",
      "Mean age at marriage for boys DLHS-4": "Not available",
      "Number of District Hospitals  DLHS-4": "Not available",
      "0-6 Age Group Females": 1034,
      "Marginal Workers Agricultural Labourers worked for 0 - 3 moths during last year - Persons": 13,
      "Marginal Workers Household Industry worked for 0 - 3 moths during last year - Males": 9,
      "Total Workers  Females": 1698,
      "Marginal Workers worked for 3 - 6 moths during last year - Females": 443,
      "Institutional Deliveries in percentage DLHS-4": "Not available",
      "Marginal Workers Other - Males": 481,
      "Total Workers  Males": 5436,
      "Main Workers - Females": 1218,
      "Primary Gross Enrolment Ratio in percentage DISE": "NA",
      "Main Workers Cultivators - Persons": 365,
      "Marginal Workers Household Industry worked for 0 - 3 moths during last year - Females": 3,
      "Upper Primary Net Enrolment Ratio in percentage DISE": "NA",
      "Primary New Government Schools since 2003 in percentage DISE": "NA",
      "Tier": "Urban",
      "Marginal Workers Household Industry - Females": 90,
      "Primary Schools with electricity in percentage DISE": "NA",
      "Main Workers Other - Persons": 4810,
      "Marginal Workers Household Industry worked for 3 - 6 moths during last year - Females": 87,
      "Main Workers Cultivators - Males": 336,
      "Main Workers Household Industry - Persons": 758,
      "Marginal Workers Cultivators worked for 0 - 3 moths during last year - Persons": 0,
      "Scheduled Caste Males": 2804,
      "Marginal Workers - Persons": 1066,
      "Deliveries at home conducted by skilled health personnel in percentage DLHS-4": "Not available",
      "Villages with Sub-Health Centres within 3km in percentage DLHS-4": "Not available",
      "Upper Primary New Government Schools since 2003 in percentage DISE": "NA",
      "0-6 Age Group Males": 1076,
      "Primary Schools with drinking water facility in percentage DISE": "NA",
      "Non Workers - Persons": 13290,
      "Person Literates": 15896,
      "State": "ODISHA",
      "Total Female Population": 9932,
      "Marginal Workers worked for 0 - 3 moths during last year - Persons": 96,
      "Marginal Workers Cultivators - Females": 36,
      "Marginal Workers Other - Persons": 721,
      "Sex Ratio": 947,
      "Scheduled Tribe Persons": 497,
      "Marginal Workers Household Industry worked for 3 - 6 moths during last year - Males": 48,
      "Marginal Workers Agricultural Labourers - Females": 114,
      "Mean age at marriage for girls DLHS-4": "Not available",
      "Households with solar energy as main source of lighting  Houselisting and Housing Census Data Tables- District Level , Census of India__4": 10,
      "District": "BAUDH",
      "Households receiving treated tap water within premises in percentage Houselisting and Housing Census Data Tables- District Level , Census of India__1": 24.08645276,
      "Total Workers  Persons": 7134,
      "Households receiving treated tap water within premises  Houselisting and Housing Census Data Tables- District Level , Census of India__4": 1081,
      "Primary Female Teachers in percentage DISE": "NA",
      "Number of Households": 4559,
      "Main Workers Agricultural Labourers - Persons": 135
    }
  ]
}