{
  "Total": [
    {
      "Marginal Workers Agricultural Labourers - Persons": 76057,
      "Marginal Workers Other - Females": 11160,
      "Marginal Workers Other worked for 0 - 3 moths during last year - Females": 1866,
      "Upper Primary Schools with boys toilet in percentage DISE": 100,
      "Total Population": 1506337,
      "Households with electricity as main source of lighting in percentage Houselisting and Housing Census Data Tables- District Level , Census of India": 53.18954405,
      "Primary Girl's Enrolment in percentage DISE": 48.7,
      "Marginal Workers worked for 3 - 6 moths during last year - Males": 88612,
      "Prevalence of Acute illness in percentage DLHS-4": "Not available",
      "Main Workers - Persons": 328097,
      "Main Workers Cultivators - Females": 4073,
      "Marginal Workers Agricultural Labourers worked for 3 - 6 moths during last year - Females": 11526,
      "Marginal Workers Other worked for 0 - 3 moths during last year - Males": 3608,
      "Upper Primary Schools with drinking water facility in percentage DISE": 100,
      "Primary Schools with girls toilet in percentage DISE": 100,
      "Marginal Workers worked for 3 - 6 moths during last year - Persons": 114225,
      "Upper Primary Drop Out Rate in percentage DISE": 3.73,
      "Prevalence of Anaemia in pregnant women aged 15-49years in percentage DLHS-4": "Not available",
      "Current use of any modern method of family planning in percentage DLHS-4": 54.5,
      "Marginal Workers Agricultural Labourers - Males": 60437,
      "Upper Primary Female Teachers in percentage DISE": 28.4,
      "Marginal Workers - Females": 33929,
      "Marginal Workers Other worked for 3 - 6 moths during last year - Persons": 27809,
      "Main Workers Agricultural Labourers - Females": 5602,
      "Marginal Workers Cultivators worked for 3 - 6 moths during last year - Females": 3183,
      "Households with no lighting  Houselisting and Housing Census Data Tables- District Level , Census of India__5": 3175,
      "Prevalence of Severe Anaemia  in percentage DLHS-4": "Not available",
      "Total unmet need for family planning in percentage DLHS-4": 17.6,
      "Main Workers Other - Males": 99230,
      "Children who received full vaccination in percentage DLHS-4": "Not available",
      "Marginal Workers Household Industry - Persons": 5803,
      "Primary Pupil-Teacher Ratio in percentage DISE": 24,
      "Marginal Workers Agricultural Labourers worked for 3 - 6 moths during last year - Males": 50327,
      "Scheduled Caste Females": 166209,
      "Marginal Workers Cultivators - Males": 20620,
      "Marginal Workers - Males": 106573,
      "Marginal Workers worked for 0 - 3 moths during last year - Females": 8316,
      "Households with main source of drinking water within premises in percentage Houselisting and Housing Census Data Tables- District Level , Census of India": 35.16268371,
      "Marginal Workers Household Industry worked for 3 - 6 moths during last year - Persons": 4424,
      "Upper Primary Girl's Enrolment in percentage DISE": 49.4,
      "Prevalence of Severe Anaemia in women aged 15-49years in percentage DLHS-4": "Not available",
      "Marginal Workers Agricultural Labourers worked for 0 - 3 moths during last year - Males": 10110,
      "Households with electricity as main source of lighting  Houselisting and Housing Census Data Tables- District Level , Census of India__3": 164636,
      "Households with computer or laptop with internet connection in percentage": 0.85,
      "PHCs functioning on a 24x7hours basis in percentage DLHS-4": "Not available",
      "Non Workers - Males": 350701,
      "Total Households in District Houselisting and Housing Census Data Tables- District Level , Census of India": 309527,
      "Upper Primary Schools with girls toilet in percentage DISE": 100,
      "Households with mobile phone in percentage": 49.18,
      "Households receiving untreated tap water within premises in percentage Houselisting and Housing Census Data Tables- District Level , Census of India__2": 0.416118788,
      "Marginal Workers Cultivators worked for 3 - 6 moths during last year - Males": 16956,
      "Prevalence of Anaemia  in percentage DLHS-4": "Not available",
      "Prevalence of Chronic illness in percentage DLHS-4": "Not available",
      "Households with solar energy as main source of lighting in percentage Houselisting and Housing Census Data Tables- District Level , Census of India__1": 0.299489221,
      "Marginal Workers Agricultural Labourers worked for 0 - 3 moths during last year - Females": 4094,
      "Main Workers - Males": 302986,
      "Female": 75.83,
      "Sno": 1289,
      "Marginal Workers Other worked for 3 - 6 moths during last year - Females": 9294,
      "Marginal Workers Cultivators worked for 0 - 3 moths during last year - Females": 1556,
      "Scheduled Tribe Males": 15361,
      "Male Illiterates": 163991,
      "Prevalence of Severe Anaemia in pregnant women aged 15-49years in percentage DLHS-4": "Not available",
      "0-6 Age Group Persons": 184560,
      "Upper Primary Student-Classroom Ratio in percentage DISE": 35,
      "Currently married men married below 21years of age in percentage DLHS-4": 1.9,
      "Male Literates": 596269,
      "Households with no lighting in percentage Houselisting and Housing Census Data Tables- District Level , Census of India__2": 1.025758658,
      "Primary Drop Out Rate in percentage DISE": 2.9,
      "Marginal Workers Household Industry - Males": 3393,
      "Female Illiterates": 248206,
      "Main Workers Other - Females": 14302,
      "Marginal Workers Cultivators - Persons": 25359,
      "Upper Primary Gross Enrolment Ratio in percentage DISE": 94.6,
      "Scheduled Caste Persons": 334896,
      "Marginal Workers Cultivators worked for 3 - 6 moths during last year - Persons": 20139,
      "Households with landline phone in percentage": 2.24,
      "Total Households in District  Houselisting and Housing Census Data Tables- District Level , Census of India": 309527,
      "Upper Primary Pupil-Teacher Ratio in percentage DISE": 32,
      "Primary Student-Classroom Ratio in percentage DISE": 24,
      "Primary Schools with boys toilet in percentage DISE": 100.1,
      "Mean number of children ever born to women aged 40-49years  DLHS-4": "Not available",
      "Households receiving untreated tap water within premises  Houselisting and Housing Census Data Tables- District Level , Census of India__5": 1288,
      "Marginal Workers Household Industry worked for 0 - 3 moths during last year - Persons": 1379,
      "Total Male Population": 760260,
      "Non Workers - Females": 687037,
      "Current use of family planning methods in percentage DLHS-4": 66.9,
      "Households with main source of drinking water within premises  Houselisting and Housing Census Data Tables- District Level , Census of India__3": 108838,
      "Main Workers Agricultural Labourers - Males": 69718,
      "Marginal Workers Other worked for 0 - 3 moths during last year - Persons": 5474,
      "Currently married women married below 18years of age in percentage DLHS-4": 1.1,
      "Person Illiterates": 412197,
      "Main Workers Household Industry - Females": 1134,
      "Female Literates": 497871,
      "Marginal Workers Cultivators worked for 0 - 3 moths during last year - Males": 3664,
      "Male": 89.64,
      "Households with improved source of drinking water in percentage DLHS-4": "Not available",
      "Upper Primary Schools with electricity in percentage DISE": 54.1,
      "Households with electricity in percentage DLHS-4": "Not available",
      "Villages with Primary Health Centre within 10km in percentage DLHS-4": "Not available",
      "Births to women aged 15-19years out of Total births in percentage DLHS-4": "Not available",
      "Prevalence of Anaemia in women aged 15-49years in percentage DLHS-4": "Not available",
      "Marginal Workers Agricultural Labourers worked for 3 - 6 moths during last year - Persons": 61853,
      "Main Workers Household Industry - Males": 7514,
      "Scheduled Tribe Females": 15067,
      "Marginal Workers worked for 0 - 3 moths during last year - Males": 17961,
      "Marginal Workers Other worked for 3 - 6 moths during last year - Males": 18515,
      "Primary Net Enrolment Ratio in percentage DISE": 100,
      "Total": 82.78,
      "Mean age at marriage for boys DLHS-4": 27.7,
      "Number of District Hospitals  DLHS-4": "Not available",
      "0-6 Age Group Females": 89512,
      "Marginal Workers Agricultural Labourers worked for 0 - 3 moths during last year - Persons": 14204,
      "Marginal Workers Household Industry worked for 0 - 3 moths during last year - Males": 579,
      "Total Workers  Females": 59040,
      "Marginal Workers worked for 3 - 6 moths during last year - Females": 25613,
      "Institutional Deliveries in percentage DLHS-4": 81.9,
      "Marginal Workers Other - Males": 22123,
      "Total Workers  Males": 409559,
      "Main Workers - Females": 25111,
      "Primary Gross Enrolment Ratio in percentage DISE": 113.1,
      "Main Workers Cultivators - Persons": 130597,
      "Marginal Workers Household Industry worked for 0 - 3 moths during last year - Females": 800,
      "Upper Primary Net Enrolment Ratio in percentage DISE": 75.2,
      "Primary New Government Schools since 2003 in percentage DISE": 34.7,
      "Tier": "Total",
      "Marginal Workers Household Industry - Females": 2410,
      "Primary Schools with electricity in percentage DISE": 47.3,
      "Main Workers Other - Persons": 113532,
      "Marginal Workers Household Industry worked for 3 - 6 moths during last year - Females": 1610,
      "Main Workers Cultivators - Males": 126524,
      "Main Workers Household Industry - Persons": 8648,
      "Marginal Workers Cultivators worked for 0 - 3 moths during last year - Persons": 5220,
      "Scheduled Caste Males": 168687,
      "Marginal Workers - Persons": 140502,
      "Deliveries at home conducted by skilled health personnel in percentage DLHS-4": 25.9,
      "Villages with Sub-Health Centres within 3km in percentage DLHS-4": "Not available",
      "Upper Primary New Government Schools since 2003 in percentage DISE": 0,
      "0-6 Age Group Males": 95048,
      "Primary Schools with drinking water facility in percentage DISE": 100,
      "Non Workers - Persons": 1037738,
      "Person Literates": 1094140,
      "State": "ODISHA",
      "Total Female Population": 746077,
      "Marginal Workers worked for 0 - 3 moths during last year - Persons": 26277,
      "Marginal Workers Cultivators - Females": 4739,
      "Marginal Workers Other - Persons": 33283,
      "Sex Ratio": 981,
      "Scheduled Tribe Persons": 30428,
      "Marginal Workers Household Industry worked for 3 - 6 moths during last year - Males": 2814,
      "Marginal Workers Agricultural Labourers - Females": 15620,
      "Mean age at marriage for girls DLHS-4": 23,
      "Households with solar energy as main source of lighting  Houselisting and Housing Census Data Tables- District Level , Census of India__4": 927,
      "District": "BHADRAK",
      "Households receiving treated tap water within premises in percentage Houselisting and Housing Census Data Tables- District Level , Census of India__1": 1.237371861,
      "Total Workers  Persons": 468599,
      "Households receiving treated tap water within premises  Houselisting and Housing Census Data Tables- District Level , Census of India__4": 3830,
      "Primary Female Teachers in percentage DISE": 49.5,
      "Number of Households": 306333,
      "Main Workers Agricultural Labourers - Persons": 75320
    }
  ],
  "Rural": [
    {
      "Marginal Workers Agricultural Labourers - Persons": 72593,
      "Marginal Workers Other - Females": 9353,
      "Marginal Workers Other worked for 0 - 3 moths during last year - Females": 1641,
      "Upper Primary Schools with boys toilet in percentage DISE": "NA",
      "Total Population": 1320499,
      "Households with electricity as main source of lighting in percentage Houselisting and Housing Census Data Tables- District Level , Census of India": 50.35905628,
      "Primary Girl's Enrolment in percentage DISE": "NA",
      "Marginal Workers worked for 3 - 6 moths during last year - Males": 81309,
      "Prevalence of Acute illness in percentage DLHS-4": "Not available",
      "Main Workers - Persons": 282414,
      "Main Workers Cultivators - Females": 3965,
      "Marginal Workers Agricultural Labourers worked for 3 - 6 moths during last year - Females": 11064,
      "Marginal Workers Other worked for 0 - 3 moths during last year - Males": 2576,
      "Upper Primary Schools with drinking water facility in percentage DISE": "NA",
      "Primary Schools with girls toilet in percentage DISE": "NA",
      "Marginal Workers worked for 3 - 6 moths during last year - Persons": 104613,
      "Upper Primary Drop Out Rate in percentage DISE": "NA",
      "Prevalence of Anaemia in pregnant women aged 15-49years in percentage DLHS-4": "Not available",
      "Current use of any modern method of family planning in percentage DLHS-4": 54.5,
      "Marginal Workers Agricultural Labourers - Males": 57641,
      "Upper Primary Female Teachers in percentage DISE": "NA",
      "Marginal Workers - Females": 31068,
      "Marginal Workers Other worked for 3 - 6 moths during last year - Persons": 22046,
      "Main Workers Agricultural Labourers - Females": 5045,
      "Marginal Workers Cultivators worked for 3 - 6 moths during last year - Females": 3033,
      "Households with no lighting  Houselisting and Housing Census Data Tables- District Level , Census of India__5": 2523,
      "Prevalence of Severe Anaemia  in percentage DLHS-4": "Not available",
      "Total unmet need for family planning in percentage DLHS-4": 17.6,
      "Main Workers Other - Males": 69368,
      "Children who received full vaccination in percentage DLHS-4": "Not available",
      "Marginal Workers Household Industry - Persons": 5345,
      "Primary Pupil-Teacher Ratio in percentage DISE": "NA",
      "Marginal Workers Agricultural Labourers worked for 3 - 6 moths during last year - Males": 47912,
      "Scheduled Caste Females": 156953,
      "Marginal Workers Cultivators - Males": 20022,
      "Marginal Workers - Males": 97672,
      "Marginal Workers worked for 0 - 3 moths during last year - Females": 7764,
      "Households with main source of drinking water within premises in percentage Houselisting and Housing Census Data Tables- District Level , Census of India": 31.72533015,
      "Marginal Workers Household Industry worked for 3 - 6 moths during last year - Persons": 4079,
      "Upper Primary Girl's Enrolment in percentage DISE": "NA",
      "Prevalence of Severe Anaemia in women aged 15-49years in percentage DLHS-4": "Not available",
      "Marginal Workers Agricultural Labourers worked for 0 - 3 moths during last year - Males": 9729,
      "Households with electricity as main source of lighting  Houselisting and Housing Census Data Tables- District Level , Census of India__3": 138080,
      "Households with computer or laptop with internet connection in percentage": 0.58,
      "PHCs functioning on a 24x7hours basis in percentage DLHS-4": "Not available",
      "Non Workers - Males": 305367,
      "Total Households in District Houselisting and Housing Census Data Tables- District Level , Census of India": 274191,
      "Upper Primary Schools with girls toilet in percentage DISE": "NA",
      "Households with mobile phone in percentage": 48.19,
      "Households receiving untreated tap water within premises in percentage Houselisting and Housing Census Data Tables- District Level , Census of India__2": 0.274626082,
      "Marginal Workers Cultivators worked for 3 - 6 moths during last year - Males": 16479,
      "Prevalence of Anaemia  in percentage DLHS-4": "Not available",
      "Prevalence of Chronic illness in percentage DLHS-4": "Not available",
      "Households with solar energy as main source of lighting in percentage Houselisting and Housing Census Data Tables- District Level , Census of India__1": 0.307085207,
      "Marginal Workers Agricultural Labourers worked for 0 - 3 moths during last year - Females": 3888,
      "Main Workers - Males": 262216,
      "Female": "NA",
      "Sno": 1288,
      "Marginal Workers Other worked for 3 - 6 moths during last year - Females": 7712,
      "Marginal Workers Cultivators worked for 0 - 3 moths during last year - Females": 1484,
      "Scheduled Tribe Males": 12335,
      "Male Illiterates": 139536,
      "Prevalence of Severe Anaemia in pregnant women aged 15-49years in percentage DLHS-4": "Not available",
      "0-6 Age Group Persons": 161574,
      "Upper Primary Student-Classroom Ratio in percentage DISE": "NA",
      "Currently married men married below 21years of age in percentage DLHS-4": 1.9,
      "Male Literates": 525719,
      "Households with no lighting in percentage Houselisting and Housing Census Data Tables- District Level , Census of India__2": 0.920161493,
      "Primary Drop Out Rate in percentage DISE": "NA",
      "Marginal Workers Household Industry - Males": 3099,
      "Female Illiterates": 216250,
      "Main Workers Other - Females": 10374,
      "Marginal Workers Cultivators - Persons": 24539,
      "Upper Primary Gross Enrolment Ratio in percentage DISE": "NA",
      "Scheduled Caste Persons": 316246,
      "Marginal Workers Cultivators worked for 3 - 6 moths during last year - Persons": 19512,
      "Households with landline phone in percentage": 2.09,
      "Total Households in District  Houselisting and Housing Census Data Tables- District Level , Census of India": 274191,
      "Upper Primary Pupil-Teacher Ratio in percentage DISE": "NA",
      "Primary Student-Classroom Ratio in percentage DISE": "NA",
      "Primary Schools with boys toilet in percentage DISE": "NA",
      "Mean number of children ever born to women aged 40-49years  DLHS-4": "Not available",
      "Households receiving untreated tap water within premises  Houselisting and Housing Census Data Tables- District Level , Census of India__5": 753,
      "Marginal Workers Household Industry worked for 0 - 3 moths during last year - Persons": 1266,
      "Total Male Population": 665255,
      "Non Workers - Females": 603978,
      "Current use of family planning methods in percentage DLHS-4": 67.3,
      "Households with main source of drinking water within premises  Houselisting and Housing Census Data Tables- District Level , Census of India__3": 86988,
      "Main Workers Agricultural Labourers - Males": 65378,
      "Marginal Workers Other worked for 0 - 3 moths during last year - Persons": 4217,
      "Currently married women married below 18years of age in percentage DLHS-4": 1.2,
      "Person Illiterates": 355786,
      "Main Workers Household Industry - Females": 814,
      "Female Literates": 438994,
      "Marginal Workers Cultivators worked for 0 - 3 moths during last year - Males": 3543,
      "Male": "NA",
      "Households with improved source of drinking water in percentage DLHS-4": "Not available",
      "Upper Primary Schools with electricity in percentage DISE": "NA",
      "Households with electricity in percentage DLHS-4": "Not available",
      "Villages with Primary Health Centre within 10km in percentage DLHS-4": "Not available",
      "Births to women aged 15-19years out of Total births in percentage DLHS-4": "Not available",
      "Prevalence of Anaemia in women aged 15-49years in percentage DLHS-4": "Not available",
      "Marginal Workers Agricultural Labourers worked for 3 - 6 moths during last year - Persons": 58976,
      "Main Workers Household Industry - Males": 5905,
      "Scheduled Tribe Females": 12012,
      "Marginal Workers worked for 0 - 3 moths during last year - Males": 16363,
      "Marginal Workers Other worked for 3 - 6 moths during last year - Males": 14334,
      "Primary Net Enrolment Ratio in percentage DISE": "NA",
      "Total": "NA",
      "Mean age at marriage for boys DLHS-4": 27.6,
      "Number of District Hospitals  DLHS-4": "Not available",
      "0-6 Age Group Females": 78386,
      "Marginal Workers Agricultural Labourers worked for 0 - 3 moths during last year - Persons": 13617,
      "Marginal Workers Household Industry worked for 0 - 3 moths during last year - Males": 515,
      "Total Workers  Females": 51266,
      "Marginal Workers worked for 3 - 6 moths during last year - Females": 23304,
      "Institutional Deliveries in percentage DLHS-4": 82.6,
      "Marginal Workers Other - Males": 16910,
      "Total Workers  Males": 359888,
      "Main Workers - Females": 20198,
      "Primary Gross Enrolment Ratio in percentage DISE": "NA",
      "Main Workers Cultivators - Persons": 125530,
      "Marginal Workers Household Industry worked for 0 - 3 moths during last year - Females": 751,
      "Upper Primary Net Enrolment Ratio in percentage DISE": "NA",
      "Primary New Government Schools since 2003 in percentage DISE": "NA",
      "Tier": "Rural",
      "Marginal Workers Household Industry - Females": 2246,
      "Primary Schools with electricity in percentage DISE": "NA",
      "Main Workers Other - Persons": 79742,
      "Marginal Workers Household Industry worked for 3 - 6 moths during last year - Females": 1495,
      "Main Workers Cultivators - Males": 121565,
      "Main Workers Household Industry - Persons": 6719,
      "Marginal Workers Cultivators worked for 0 - 3 moths during last year - Persons": 5027,
      "Scheduled Caste Males": 159293,
      "Marginal Workers - Persons": 128740,
      "Deliveries at home conducted by skilled health personnel in percentage DLHS-4": 25.6,
      "Villages with Sub-Health Centres within 3km in percentage DLHS-4": "Not available",
      "Upper Primary New Government Schools since 2003 in percentage DISE": "NA",
      "0-6 Age Group Males": 83188,
      "Primary Schools with drinking water facility in percentage DISE": "NA",
      "Non Workers - Persons": 909345,
      "Person Literates": 964713,
      "State": "ODISHA",
      "Total Female Population": 655244,
      "Marginal Workers worked for 0 - 3 moths during last year - Persons": 24127,
      "Marginal Workers Cultivators - Females": 4517,
      "Marginal Workers Other - Persons": 26263,
      "Sex Ratio": 985,
      "Scheduled Tribe Persons": 24347,
      "Marginal Workers Household Industry worked for 3 - 6 moths during last year - Males": 2584,
      "Marginal Workers Agricultural Labourers - Females": 14952,
      "Mean age at marriage for girls DLHS-4": 23,
      "Households with solar energy as main source of lighting  Houselisting and Housing Census Data Tables- District Level , Census of India__4": 842,
      "District": "BHADRAK",
      "Households receiving treated tap water within premises in percentage Houselisting and Housing Census Data Tables- District Level , Census of India__1": 0.732336218,
      "Total Workers  Persons": 411154,
      "Households receiving treated tap water within premises  Houselisting and Housing Census Data Tables- District Level , Census of India__4": 2008,
      "Primary Female Teachers in percentage DISE": "NA",
      "Number of Households": 270791,
      "Main Workers Agricultural Labourers - Persons": 70423
    }
  ],
  "Urban": [
    {
      "Marginal Workers Agricultural Labourers - Persons": 3464,
      "Marginal Workers Other - Females": 1807,
      "Marginal Workers Other worked for 0 - 3 moths during last year - Females": 225,
      "Upper Primary Schools with boys toilet in percentage DISE": "NA",
      "Total Population": 185838,
      "Households with electricity as main source of lighting in percentage Houselisting and Housing Census Data Tables- District Level , Census of India": 75.15281866,
      "Primary Girl's Enrolment in percentage DISE": "NA",
      "Marginal Workers worked for 3 - 6 moths during last year - Males": 7303,
      "Prevalence of Acute illness in percentage DLHS-4": "Not available",
      "Main Workers - Persons": 45683,
      "Main Workers Cultivators - Females": 108,
      "Marginal Workers Agricultural Labourers worked for 3 - 6 moths during last year - Females": 462,
      "Marginal Workers Other worked for 0 - 3 moths during last year - Males": 1032,
      "Upper Primary Schools with drinking water facility in percentage DISE": "NA",
      "Primary Schools with girls toilet in percentage DISE": "NA",
      "Marginal Workers worked for 3 - 6 moths during last year - Persons": 9612,
      "Upper Primary Drop Out Rate in percentage DISE": "NA",
      "Prevalence of Anaemia in pregnant women aged 15-49years in percentage DLHS-4": "Not available",
      "Current use of any modern method of family planning in percentage DLHS-4": 54,
      "Marginal Workers Agricultural Labourers - Males": 2796,
      "Upper Primary Female Teachers in percentage DISE": "NA",
      "Marginal Workers - Females": 2861,
      "Marginal Workers Other worked for 3 - 6 moths during last year - Persons": 5763,
      "Main Workers Agricultural Labourers - Females": 557,
      "Marginal Workers Cultivators worked for 3 - 6 moths during last year - Females": 150,
      "Households with no lighting  Houselisting and Housing Census Data Tables- District Level , Census of India__5": 652,
      "Prevalence of Severe Anaemia  in percentage DLHS-4": "Not available",
      "Total unmet need for family planning in percentage DLHS-4": 17.8,
      "Main Workers Other - Males": 29862,
      "Children who received full vaccination in percentage DLHS-4": "Not available",
      "Marginal Workers Household Industry - Persons": 458,
      "Primary Pupil-Teacher Ratio in percentage DISE": "NA",
      "Marginal Workers Agricultural Labourers worked for 3 - 6 moths during last year - Males": 2415,
      "Scheduled Caste Females": 9256,
      "Marginal Workers Cultivators - Males": 598,
      "Marginal Workers - Males": 8901,
      "Marginal Workers worked for 0 - 3 moths during last year - Females": 552,
      "Households with main source of drinking water within premises in percentage Houselisting and Housing Census Data Tables- District Level , Census of India": 100,
      "Marginal Workers Household Industry worked for 3 - 6 moths during last year - Persons": 345,
      "Upper Primary Girl's Enrolment in percentage DISE": "NA",
      "Prevalence of Severe Anaemia in women aged 15-49years in percentage DLHS-4": "Not available",
      "Marginal Workers Agricultural Labourers worked for 0 - 3 moths during last year - Males": 381,
      "Households with electricity as main source of lighting  Houselisting and Housing Census Data Tables- District Level , Census of India__3": 26556,
      "Households with computer or laptop with internet connection in percentage": 2.95,
      "PHCs functioning on a 24x7hours basis in percentage DLHS-4": "Not available",
      "Non Workers - Males": 45334,
      "Total Households in District Houselisting and Housing Census Data Tables- District Level , Census of India": 21850,
      "Upper Primary Schools with girls toilet in percentage DISE": "NA",
      "Households with mobile phone in percentage": 56.86,
      "Households receiving untreated tap water within premises in percentage Houselisting and Housing Census Data Tables- District Level , Census of India__2": 2.448512586,
      "Marginal Workers Cultivators worked for 3 - 6 moths during last year - Males": 477,
      "Prevalence of Anaemia  in percentage DLHS-4": "Not available",
      "Prevalence of Chronic illness in percentage DLHS-4": "Not available",
      "Households with solar energy as main source of lighting in percentage Houselisting and Housing Census Data Tables- District Level , Census of India__1": 0.240547883,
      "Marginal Workers Agricultural Labourers worked for 0 - 3 moths during last year - Females": 206,
      "Main Workers - Males": 40770,
      "Female": "NA",
      "Sno": 1290,
      "Marginal Workers Other worked for 3 - 6 moths during last year - Females": 1582,
      "Marginal Workers Cultivators worked for 0 - 3 moths during last year - Females": 72,
      "Scheduled Tribe Males": 3026,
      "Male Illiterates": 24455,
      "Prevalence of Severe Anaemia in pregnant women aged 15-49years in percentage DLHS-4": "Not available",
      "0-6 Age Group Persons": 22986,
      "Upper Primary Student-Classroom Ratio in percentage DISE": "NA",
      "Currently married men married below 21years of age in percentage DLHS-4": 2.2,
      "Male Literates": 70550,
      "Households with no lighting in percentage Houselisting and Housing Census Data Tables- District Level , Census of India__2": 1.845143763,
      "Primary Drop Out Rate in percentage DISE": "NA",
      "Marginal Workers Household Industry - Males": 294,
      "Female Illiterates": 31956,
      "Main Workers Other - Females": 3928,
      "Marginal Workers Cultivators - Persons": 820,
      "Upper Primary Gross Enrolment Ratio in percentage DISE": "NA",
      "Scheduled Caste Persons": 18650,
      "Marginal Workers Cultivators worked for 3 - 6 moths during last year - Persons": 627,
      "Households with landline phone in percentage": 3.46,
      "Total Households in District  Houselisting and Housing Census Data Tables- District Level , Census of India": 35336,
      "Upper Primary Pupil-Teacher Ratio in percentage DISE": "NA",
      "Primary Student-Classroom Ratio in percentage DISE": "NA",
      "Primary Schools with boys toilet in percentage DISE": "NA",
      "Mean number of children ever born to women aged 40-49years  DLHS-4": "Not available",
      "Households receiving untreated tap water within premises  Houselisting and Housing Census Data Tables- District Level , Census of India__5": 535,
      "Marginal Workers Household Industry worked for 0 - 3 moths during last year - Persons": 113,
      "Total Male Population": 95005,
      "Non Workers - Females": 83059,
      "Current use of family planning methods in percentage DLHS-4": 64.3,
      "Households with main source of drinking water within premises  Houselisting and Housing Census Data Tables- District Level , Census of India__3": 21850,
      "Main Workers Agricultural Labourers - Males": 4340,
      "Marginal Workers Other worked for 0 - 3 moths during last year - Persons": 1257,
      "Currently married women married below 18years of age in percentage DLHS-4": 0.6,
      "Person Illiterates": 56411,
      "Main Workers Household Industry - Females": 320,
      "Female Literates": 58877,
      "Marginal Workers Cultivators worked for 0 - 3 moths during last year - Males": 121,
      "Male": "NA",
      "Households with improved source of drinking water in percentage DLHS-4": "Not available",
      "Upper Primary Schools with electricity in percentage DISE": "NA",
      "Households with electricity in percentage DLHS-4": "Not available",
      "Villages with Primary Health Centre within 10km in percentage DLHS-4": "Not available",
      "Births to women aged 15-19years out of Total births in percentage DLHS-4": "Not available",
      "Prevalence of Anaemia in women aged 15-49years in percentage DLHS-4": "Not available",
      "Marginal Workers Agricultural Labourers worked for 3 - 6 moths during last year - Persons": 2877,
      "Main Workers Household Industry - Males": 1609,
      "Scheduled Tribe Females": 3055,
      "Marginal Workers worked for 0 - 3 moths during last year - Males": 1598,
      "Marginal Workers Other worked for 3 - 6 moths during last year - Males": 4181,
      "Primary Net Enrolment Ratio in percentage DISE": "NA",
      "Total": "NA",
      "Mean age at marriage for boys DLHS-4": 27.9,
      "Number of District Hospitals  DLHS-4": "Not available",
      "0-6 Age Group Females": 11126,
      "Marginal Workers Agricultural Labourers worked for 0 - 3 moths during last year - Persons": 587,
      "Marginal Workers Household Industry worked for 0 - 3 moths during last year - Males": 64,
      "Total Workers  Females": 7774,
      "Marginal Workers worked for 3 - 6 moths during last year - Females": 2309,
      "Institutional Deliveries in percentage DLHS-4": 78,
      "Marginal Workers Other - Males": 5213,
      "Total Workers  Males": 49671,
      "Main Workers - Females": 4913,
      "Primary Gross Enrolment Ratio in percentage DISE": "NA",
      "Main Workers Cultivators - Persons": 5067,
      "Marginal Workers Household Industry worked for 0 - 3 moths during last year - Females": 49,
      "Upper Primary Net Enrolment Ratio in percentage DISE": "NA",
      "Primary New Government Schools since 2003 in percentage DISE": "NA",
      "Tier": "Urban",
      "Marginal Workers Household Industry - Females": 164,
      "Primary Schools with electricity in percentage DISE": "NA",
      "Main Workers Other - Persons": 33790,
      "Marginal Workers Household Industry worked for 3 - 6 moths during last year - Females": 115,
      "Main Workers Cultivators - Males": 4959,
      "Main Workers Household Industry - Persons": 1929,
      "Marginal Workers Cultivators worked for 0 - 3 moths during last year - Persons": 193,
      "Scheduled Caste Males": 9394,
      "Marginal Workers - Persons": 11762,
      "Deliveries at home conducted by skilled health personnel in percentage DLHS-4": 27.8,
      "Villages with Sub-Health Centres within 3km in percentage DLHS-4": "Not available",
      "Upper Primary New Government Schools since 2003 in percentage DISE": "NA",
      "0-6 Age Group Males": 11860,
      "Primary Schools with drinking water facility in percentage DISE": "NA",
      "Non Workers - Persons": 128393,
      "Person Literates": 129427,
      "State": "ODISHA",
      "Total Female Population": 90833,
      "Marginal Workers worked for 0 - 3 moths during last year - Persons": 2150,
      "Marginal Workers Cultivators - Females": 222,
      "Marginal Workers Other - Persons": 7020,
      "Sex Ratio": 956,
      "Scheduled Tribe Persons": 6081,
      "Marginal Workers Household Industry worked for 3 - 6 moths during last year - Males": 230,
      "Marginal Workers Agricultural Labourers - Females": 668,
      "Mean age at marriage for girls DLHS-4": 22.9,
      "Households with solar energy as main source of lighting  Houselisting and Housing Census Data Tables- District Level , Census of India__4": 85,
      "District": "BHADRAK",
      "Households receiving treated tap water within premises in percentage Houselisting and Housing Census Data Tables- District Level , Census of India__1": 8.338672769,
      "Total Workers  Persons": 57445,
      "Households receiving treated tap water within premises  Houselisting and Housing Census Data Tables- District Level , Census of India__4": 1822,
      "Primary Female Teachers in percentage DISE": "NA",
      "Number of Households": 35542,
      "Main Workers Agricultural Labourers - Persons": 4897
    }
  ]
}