{
  "Total": [
    {
      "Marginal Workers Agricultural Labourers - Persons": 79774,
      "Marginal Workers Other - Females": 10867,
      "Marginal Workers Other worked for 0 - 3 moths during last year - Females": 1721,
      "Upper Primary Schools with boys toilet in percentage DISE": 70.7,
      "Total Population": 1827192,
      "Households with electricity as main source of lighting in percentage Houselisting and Housing Census Data Tables- District Level , Census of India": 47.1693345,
      "Primary Girl's Enrolment in percentage DISE": 48.8,
      "Marginal Workers worked for 3 - 6 moths during last year - Males": 94388,
      "Prevalence of Acute illness in percentage DLHS-4": "Not available",
      "Main Workers - Persons": 407564,
      "Main Workers Cultivators - Females": 3569,
      "Marginal Workers Agricultural Labourers worked for 3 - 6 moths during last year - Females": 14236,
      "Marginal Workers Other worked for 0 - 3 moths during last year - Males": 4716,
      "Upper Primary Schools with drinking water facility in percentage DISE": 100,
      "Primary Schools with girls toilet in percentage DISE": 45.6,
      "Marginal Workers worked for 3 - 6 moths during last year - Persons": 122147,
      "Upper Primary Drop Out Rate in percentage DISE": 3.1,
      "Prevalence of Anaemia in pregnant women aged 15-49years in percentage DLHS-4": "Not available",
      "Current use of any modern method of family planning in percentage DLHS-4": 45.3,
      "Marginal Workers Agricultural Labourers - Males": 62028,
      "Upper Primary Female Teachers in percentage DISE": 23.7,
      "Marginal Workers - Females": 34036,
      "Marginal Workers Other worked for 3 - 6 moths during last year - Persons": 36946,
      "Main Workers Agricultural Labourers - Females": 7661,
      "Marginal Workers Cultivators worked for 3 - 6 moths during last year - Females": 2788,
      "Households with no lighting  Houselisting and Housing Census Data Tables- District Level , Census of India__5": 5442,
      "Prevalence of Severe Anaemia  in percentage DLHS-4": "Not available",
      "Total unmet need for family planning in percentage DLHS-4": 9.6,
      "Main Workers Other - Males": 161429,
      "Children who received full vaccination in percentage DLHS-4": "Not available",
      "Marginal Workers Household Industry - Persons": 6871,
      "Primary Pupil-Teacher Ratio in percentage DISE": 24,
      "Marginal Workers Agricultural Labourers worked for 3 - 6 moths during last year - Males": 52776,
      "Scheduled Caste Females": 212834,
      "Marginal Workers Cultivators - Males": 11268,
      "Marginal Workers - Males": 110634,
      "Marginal Workers worked for 0 - 3 moths during last year - Females": 6277,
      "Households with main source of drinking water within premises in percentage Houselisting and Housing Census Data Tables- District Level , Census of India": 34.26707428,
      "Marginal Workers Household Industry worked for 3 - 6 moths during last year - Persons": 5591,
      "Upper Primary Girl's Enrolment in percentage DISE": 49.8,
      "Prevalence of Severe Anaemia in women aged 15-49years in percentage DLHS-4": "Not available",
      "Marginal Workers Agricultural Labourers worked for 0 - 3 moths during last year - Males": 9252,
      "Households with electricity as main source of lighting  Houselisting and Housing Census Data Tables- District Level , Census of India__3": 192249,
      "Households with computer or laptop with internet connection in percentage": 0.94,
      "PHCs functioning on a 24x7hours basis in percentage DLHS-4": "Not available",
      "Non Workers - Males": 439943,
      "Total Households in District Houselisting and Housing Census Data Tables- District Level , Census of India": 407572,
      "Upper Primary Schools with girls toilet in percentage DISE": 39.3,
      "Households with mobile phone in percentage": 39.01,
      "Households receiving untreated tap water within premises in percentage Houselisting and Housing Census Data Tables- District Level , Census of India__2": 0.790780525,
      "Marginal Workers Cultivators worked for 3 - 6 moths during last year - Males": 9810,
      "Prevalence of Anaemia  in percentage DLHS-4": "Not available",
      "Prevalence of Chronic illness in percentage DLHS-4": "Not available",
      "Households with solar energy as main source of lighting in percentage Houselisting and Housing Census Data Tables- District Level , Census of India__1": 0.254188217,
      "Marginal Workers Agricultural Labourers worked for 0 - 3 moths during last year - Females": 3510,
      "Main Workers - Males": 375457,
      "Female": 73.29,
      "Sno": 1310,
      "Marginal Workers Other worked for 3 - 6 moths during last year - Females": 9146,
      "Marginal Workers Cultivators worked for 0 - 3 moths during last year - Females": 586,
      "Scheduled Tribe Males": 76048,
      "Male Illiterates": 219638,
      "Prevalence of Severe Anaemia in pregnant women aged 15-49years in percentage DLHS-4": "Not available",
      "0-6 Age Group Persons": 216804,
      "Upper Primary Student-Classroom Ratio in percentage DISE": 26,
      "Currently married men married below 21years of age in percentage DLHS-4": 3.1,
      "Male Literates": 706396,
      "Households with no lighting in percentage Houselisting and Housing Census Data Tables- District Level , Census of India__2": 1.335224206,
      "Primary Drop Out Rate in percentage DISE": 3,
      "Marginal Workers Household Industry - Males": 4822,
      "Female Illiterates": 317099,
      "Main Workers Other - Females": 19582,
      "Marginal Workers Cultivators - Persons": 14642,
      "Upper Primary Gross Enrolment Ratio in percentage DISE": 91.6,
      "Scheduled Caste Persons": 433387,
      "Marginal Workers Cultivators worked for 3 - 6 moths during last year - Persons": 12598,
      "Households with landline phone in percentage": 2.07,
      "Total Households in District  Houselisting and Housing Census Data Tables- District Level , Census of India": 407572,
      "Upper Primary Pupil-Teacher Ratio in percentage DISE": 26,
      "Primary Student-Classroom Ratio in percentage DISE": 24,
      "Primary Schools with boys toilet in percentage DISE": 76.8,
      "Mean number of children ever born to women aged 40-49years  DLHS-4": "Not available",
      "Households receiving untreated tap water within premises  Houselisting and Housing Census Data Tables- District Level , Census of India__5": 3223,
      "Marginal Workers Household Industry worked for 0 - 3 moths during last year - Persons": 1280,
      "Total Male Population": 926034,
      "Non Workers - Females": 835015,
      "Current use of family planning methods in percentage DLHS-4": 74.2,
      "Households with main source of drinking water within premises  Houselisting and Housing Census Data Tables- District Level , Census of India__3": 139663,
      "Main Workers Agricultural Labourers - Males": 98586,
      "Marginal Workers Other worked for 0 - 3 moths during last year - Persons": 6437,
      "Currently married women married below 18years of age in percentage DLHS-4": 2.3,
      "Person Illiterates": 536737,
      "Main Workers Household Industry - Females": 1295,
      "Female Literates": 584059,
      "Marginal Workers Cultivators worked for 0 - 3 moths during last year - Males": 1458,
      "Male": 86.84,
      "Households with improved source of drinking water in percentage DLHS-4": "Not available",
      "Upper Primary Schools with electricity in percentage DISE": 14.1,
      "Households with electricity in percentage DLHS-4": "Not available",
      "Villages with Primary Health Centre within 10km in percentage DLHS-4": "Not available",
      "Births to women aged 15-19years out of Total births in percentage DLHS-4": "Not available",
      "Prevalence of Anaemia in women aged 15-49years in percentage DLHS-4": "Not available",
      "Marginal Workers Agricultural Labourers worked for 3 - 6 moths during last year - Persons": 67012,
      "Main Workers Household Industry - Males": 12772,
      "Scheduled Tribe Females": 75384,
      "Marginal Workers worked for 0 - 3 moths during last year - Males": 16246,
      "Marginal Workers Other worked for 3 - 6 moths during last year - Males": 27800,
      "Primary Net Enrolment Ratio in percentage DISE": 92.2,
      "Total": 80.13,
      "Mean age at marriage for boys DLHS-4": 28,
      "Number of District Hospitals  DLHS-4": "Not available",
      "0-6 Age Group Females": 104246,
      "Marginal Workers Agricultural Labourers worked for 0 - 3 moths during last year - Persons": 12762,
      "Marginal Workers Household Industry worked for 0 - 3 moths during last year - Males": 820,
      "Total Workers  Females": 66143,
      "Marginal Workers worked for 3 - 6 moths during last year - Females": 27759,
      "Institutional Deliveries in percentage DLHS-4": 88.6,
      "Marginal Workers Other - Males": 32516,
      "Total Workers  Males": 486091,
      "Main Workers - Females": 32107,
      "Primary Gross Enrolment Ratio in percentage DISE": 110.5,
      "Main Workers Cultivators - Persons": 106239,
      "Marginal Workers Household Industry worked for 0 - 3 moths during last year - Females": 460,
      "Upper Primary Net Enrolment Ratio in percentage DISE": 61.1,
      "Primary New Government Schools since 2003 in percentage DISE": 30.8,
      "Tier": "Total",
      "Marginal Workers Household Industry - Females": 2049,
      "Primary Schools with electricity in percentage DISE": 9,
      "Main Workers Other - Persons": 181011,
      "Marginal Workers Household Industry worked for 3 - 6 moths during last year - Females": 1589,
      "Main Workers Cultivators - Males": 102670,
      "Main Workers Household Industry - Persons": 14067,
      "Marginal Workers Cultivators worked for 0 - 3 moths during last year - Persons": 2044,
      "Scheduled Caste Males": 220553,
      "Marginal Workers - Persons": 144670,
      "Deliveries at home conducted by skilled health personnel in percentage DLHS-4": 14.2,
      "Villages with Sub-Health Centres within 3km in percentage DLHS-4": "Not available",
      "Upper Primary New Government Schools since 2003 in percentage DISE": 0,
      "0-6 Age Group Males": 112558,
      "Primary Schools with drinking water facility in percentage DISE": 100,
      "Non Workers - Persons": 1274958,
      "Person Literates": 1290455,
      "State": "ODISHA",
      "Total Female Population": 901158,
      "Marginal Workers worked for 0 - 3 moths during last year - Persons": 22523,
      "Marginal Workers Cultivators - Females": 3374,
      "Marginal Workers Other - Persons": 43383,
      "Sex Ratio": 973,
      "Scheduled Tribe Persons": 151432,
      "Marginal Workers Household Industry worked for 3 - 6 moths during last year - Males": 4002,
      "Marginal Workers Agricultural Labourers - Females": 17746,
      "Mean age at marriage for girls DLHS-4": 23.3,
      "Households with solar energy as main source of lighting  Houselisting and Housing Census Data Tables- District Level , Census of India__4": 1036,
      "District": "JAJAPUR",
      "Households receiving treated tap water within premises in percentage Houselisting and Housing Census Data Tables- District Level , Census of India__1": 2.071290471,
      "Total Workers  Persons": 552234,
      "Households receiving treated tap water within premises  Houselisting and Housing Census Data Tables- District Level , Census of India__4": 8442,
      "Primary Female Teachers in percentage DISE": 46.3,
      "Number of Households": 407851,
      "Main Workers Agricultural Labourers - Persons": 106247
    }
  ],
  "Rural": [
    {
      "Marginal Workers Agricultural Labourers - Persons": 78578,
      "Marginal Workers Other - Females": 9994,
      "Marginal Workers Other worked for 0 - 3 moths during last year - Females": 1621,
      "Upper Primary Schools with boys toilet in percentage DISE": "NA",
      "Total Population": 1692095,
      "Households with electricity as main source of lighting in percentage Houselisting and Housing Census Data Tables- District Level , Census of India": 44.70228887,
      "Primary Girl's Enrolment in percentage DISE": "NA",
      "Marginal Workers worked for 3 - 6 moths during last year - Males": 90793,
      "Prevalence of Acute illness in percentage DLHS-4": "Not available",
      "Main Workers - Persons": 372543,
      "Main Workers Cultivators - Females": 3514,
      "Marginal Workers Agricultural Labourers worked for 3 - 6 moths during last year - Females": 14044,
      "Marginal Workers Other worked for 0 - 3 moths during last year - Males": 4353,
      "Upper Primary Schools with drinking water facility in percentage DISE": "NA",
      "Primary Schools with girls toilet in percentage DISE": "NA",
      "Marginal Workers worked for 3 - 6 moths during last year - Persons": 117326,
      "Upper Primary Drop Out Rate in percentage DISE": "NA",
      "Prevalence of Anaemia in pregnant women aged 15-49years in percentage DLHS-4": "Not available",
      "Current use of any modern method of family planning in percentage DLHS-4": 45.3,
      "Marginal Workers Agricultural Labourers - Males": 61153,
      "Upper Primary Female Teachers in percentage DISE": "NA",
      "Marginal Workers - Females": 32559,
      "Marginal Workers Other worked for 3 - 6 moths during last year - Persons": 33821,
      "Main Workers Agricultural Labourers - Females": 7415,
      "Marginal Workers Cultivators worked for 3 - 6 moths during last year - Females": 2751,
      "Households with no lighting  Houselisting and Housing Census Data Tables- District Level , Census of India__5": 5032,
      "Prevalence of Severe Anaemia  in percentage DLHS-4": "Not available",
      "Total unmet need for family planning in percentage DLHS-4": 9.5,
      "Main Workers Other - Males": 135911,
      "Children who received full vaccination in percentage DLHS-4": "Not available",
      "Marginal Workers Household Industry - Persons": 6288,
      "Primary Pupil-Teacher Ratio in percentage DISE": "NA",
      "Marginal Workers Agricultural Labourers worked for 3 - 6 moths during last year - Males": 52016,
      "Scheduled Caste Females": 204131,
      "Marginal Workers Cultivators - Males": 11064,
      "Marginal Workers - Males": 106503,
      "Marginal Workers worked for 0 - 3 moths during last year - Females": 6026,
      "Households with main source of drinking water within premises in percentage Houselisting and Housing Census Data Tables- District Level , Census of India": 32.30116228,
      "Marginal Workers Household Industry worked for 3 - 6 moths during last year - Persons": 5079,
      "Upper Primary Girl's Enrolment in percentage DISE": "NA",
      "Prevalence of Severe Anaemia in women aged 15-49years in percentage DLHS-4": "Not available",
      "Marginal Workers Agricultural Labourers worked for 0 - 3 moths during last year - Males": 9137,
      "Households with electricity as main source of lighting  Houselisting and Housing Census Data Tables- District Level , Census of India__3": 169035,
      "Households with computer or laptop with internet connection in percentage": 0.71,
      "PHCs functioning on a 24x7hours basis in percentage DLHS-4": "Not available",
      "Non Workers - Males": 406181,
      "Total Households in District Houselisting and Housing Census Data Tables- District Level , Census of India": 378135,
      "Upper Primary Schools with girls toilet in percentage DISE": "NA",
      "Households with mobile phone in percentage": 37.4,
      "Households receiving untreated tap water within premises in percentage Houselisting and Housing Census Data Tables- District Level , Census of India__2": 0.428153966,
      "Marginal Workers Cultivators worked for 3 - 6 moths during last year - Males": 9615,
      "Prevalence of Anaemia  in percentage DLHS-4": "Not available",
      "Prevalence of Chronic illness in percentage DLHS-4": "Not available",
      "Households with solar energy as main source of lighting in percentage Houselisting and Housing Census Data Tables- District Level , Census of India__1": 0.262869081,
      "Marginal Workers Agricultural Labourers worked for 0 - 3 moths during last year - Females": 3381,
      "Main Workers - Males": 343855,
      "Female": "NA",
      "Sno": 1309,
      "Marginal Workers Other worked for 3 - 6 moths during last year - Females": 8373,
      "Marginal Workers Cultivators worked for 0 - 3 moths during last year - Females": 586,
      "Scheduled Tribe Males": 69976,
      "Male Illiterates": 205386,
      "Prevalence of Severe Anaemia in pregnant women aged 15-49years in percentage DLHS-4": "Not available",
      "0-6 Age Group Persons": 200284,
      "Upper Primary Student-Classroom Ratio in percentage DISE": "NA",
      "Currently married men married below 21years of age in percentage DLHS-4": 3.3,
      "Male Literates": 651153,
      "Households with no lighting in percentage Houselisting and Housing Census Data Tables- District Level , Census of India__2": 1.330741666,
      "Primary Drop Out Rate in percentage DISE": "NA",
      "Marginal Workers Household Industry - Males": 4485,
      "Female Illiterates": 298226,
      "Main Workers Other - Females": 16613,
      "Marginal Workers Cultivators - Persons": 14401,
      "Upper Primary Gross Enrolment Ratio in percentage DISE": "NA",
      "Scheduled Caste Persons": 415652,
      "Marginal Workers Cultivators worked for 3 - 6 moths during last year - Persons": 12366,
      "Households with landline phone in percentage": 1.96,
      "Total Households in District  Houselisting and Housing Census Data Tables- District Level , Census of India": 378135,
      "Upper Primary Pupil-Teacher Ratio in percentage DISE": "NA",
      "Primary Student-Classroom Ratio in percentage DISE": "NA",
      "Primary Schools with boys toilet in percentage DISE": "NA",
      "Mean number of children ever born to women aged 40-49years  DLHS-4": "Not available",
      "Households receiving untreated tap water within premises  Houselisting and Housing Census Data Tables- District Level , Census of India__5": 1619,
      "Marginal Workers Household Industry worked for 0 - 3 moths during last year - Persons": 1209,
      "Total Male Population": 856539,
      "Non Workers - Females": 774309,
      "Current use of family planning methods in percentage DLHS-4": 74.1,
      "Households with main source of drinking water within premises  Houselisting and Housing Census Data Tables- District Level , Census of India__3": 122142,
      "Main Workers Agricultural Labourers - Males": 96167,
      "Marginal Workers Other worked for 0 - 3 moths during last year - Persons": 5974,
      "Currently married women married below 18years of age in percentage DLHS-4": 2.4,
      "Person Illiterates": 503612,
      "Main Workers Household Industry - Females": 1146,
      "Female Literates": 537330,
      "Marginal Workers Cultivators worked for 0 - 3 moths during last year - Males": 1449,
      "Male": "NA",
      "Households with improved source of drinking water in percentage DLHS-4": "Not available",
      "Upper Primary Schools with electricity in percentage DISE": "NA",
      "Households with electricity in percentage DLHS-4": "Not available",
      "Villages with Primary Health Centre within 10km in percentage DLHS-4": "Not available",
      "Births to women aged 15-19years out of Total births in percentage DLHS-4": "Not available",
      "Prevalence of Anaemia in women aged 15-49years in percentage DLHS-4": "Not available",
      "Marginal Workers Agricultural Labourers worked for 3 - 6 moths during last year - Persons": 66060,
      "Main Workers Household Industry - Males": 11398,
      "Scheduled Tribe Females": 69233,
      "Marginal Workers worked for 0 - 3 moths during last year - Males": 15710,
      "Marginal Workers Other worked for 3 - 6 moths during last year - Males": 25448,
      "Primary Net Enrolment Ratio in percentage DISE": "NA",
      "Total": "NA",
      "Mean age at marriage for boys DLHS-4": 27.9,
      "Number of District Hospitals  DLHS-4": "Not available",
      "0-6 Age Group Females": 96284,
      "Marginal Workers Agricultural Labourers worked for 0 - 3 moths during last year - Persons": 12518,
      "Marginal Workers Household Industry worked for 0 - 3 moths during last year - Males": 771,
      "Total Workers  Females": 61247,
      "Marginal Workers worked for 3 - 6 moths during last year - Females": 26533,
      "Institutional Deliveries in percentage DLHS-4": 88.5,
      "Marginal Workers Other - Males": 29801,
      "Total Workers  Males": 450358,
      "Main Workers - Females": 28688,
      "Primary Gross Enrolment Ratio in percentage DISE": "NA",
      "Main Workers Cultivators - Persons": 103893,
      "Marginal Workers Household Industry worked for 0 - 3 moths during last year - Females": 438,
      "Upper Primary Net Enrolment Ratio in percentage DISE": "NA",
      "Primary New Government Schools since 2003 in percentage DISE": "NA",
      "Tier": "Rural",
      "Marginal Workers Household Industry - Females": 1803,
      "Primary Schools with electricity in percentage DISE": "NA",
      "Main Workers Other - Persons": 152524,
      "Marginal Workers Household Industry worked for 3 - 6 moths during last year - Females": 1365,
      "Main Workers Cultivators - Males": 100379,
      "Main Workers Household Industry - Persons": 12544,
      "Marginal Workers Cultivators worked for 0 - 3 moths during last year - Persons": 2035,
      "Scheduled Caste Males": 211521,
      "Marginal Workers - Persons": 139062,
      "Deliveries at home conducted by skilled health personnel in percentage DLHS-4": 14.1,
      "Villages with Sub-Health Centres within 3km in percentage DLHS-4": "Not available",
      "Upper Primary New Government Schools since 2003 in percentage DISE": "NA",
      "0-6 Age Group Males": 104000,
      "Primary Schools with drinking water facility in percentage DISE": "NA",
      "Non Workers - Persons": 1180490,
      "Person Literates": 1188483,
      "State": "ODISHA",
      "Total Female Population": 835556,
      "Marginal Workers worked for 0 - 3 moths during last year - Persons": 21736,
      "Marginal Workers Cultivators - Females": 3337,
      "Marginal Workers Other - Persons": 39795,
      "Sex Ratio": 976,
      "Scheduled Tribe Persons": 139209,
      "Marginal Workers Household Industry worked for 3 - 6 moths during last year - Males": 3714,
      "Marginal Workers Agricultural Labourers - Females": 17425,
      "Mean age at marriage for girls DLHS-4": 23.3,
      "Households with solar energy as main source of lighting  Houselisting and Housing Census Data Tables- District Level , Census of India__4": 994,
      "District": "JAJAPUR",
      "Households receiving treated tap water within premises in percentage Houselisting and Housing Census Data Tables- District Level , Census of India__1": 0.625702461,
      "Total Workers  Persons": 511605,
      "Households receiving treated tap water within premises  Houselisting and Housing Census Data Tables- District Level , Census of India__4": 2366,
      "Primary Female Teachers in percentage DISE": "NA",
      "Number of Households": 378645,
      "Main Workers Agricultural Labourers - Persons": 103582
    }
  ],
  "Urban": [
    {
      "Marginal Workers Agricultural Labourers - Persons": 1196,
      "Marginal Workers Other - Females": 873,
      "Marginal Workers Other worked for 0 - 3 moths during last year - Females": 100,
      "Upper Primary Schools with boys toilet in percentage DISE": "NA",
      "Total Population": 135097,
      "Households with electricity as main source of lighting in percentage Houselisting and Housing Census Data Tables- District Level , Census of India": 78.85993817,
      "Primary Girl's Enrolment in percentage DISE": "NA",
      "Marginal Workers worked for 3 - 6 moths during last year - Males": 3595,
      "Prevalence of Acute illness in percentage DLHS-4": "Not available",
      "Main Workers - Persons": 35021,
      "Main Workers Cultivators - Females": 55,
      "Marginal Workers Agricultural Labourers worked for 3 - 6 moths during last year - Females": 192,
      "Marginal Workers Other worked for 0 - 3 moths during last year - Males": 363,
      "Upper Primary Schools with drinking water facility in percentage DISE": "NA",
      "Primary Schools with girls toilet in percentage DISE": "NA",
      "Marginal Workers worked for 3 - 6 moths during last year - Persons": 4821,
      "Upper Primary Drop Out Rate in percentage DISE": "NA",
      "Prevalence of Anaemia in pregnant women aged 15-49years in percentage DLHS-4": "Not available",
      "Current use of any modern method of family planning in percentage DLHS-4": "Not available",
      "Marginal Workers Agricultural Labourers - Males": 875,
      "Upper Primary Female Teachers in percentage DISE": "NA",
      "Marginal Workers - Females": 1477,
      "Marginal Workers Other worked for 3 - 6 moths during last year - Persons": 3125,
      "Main Workers Agricultural Labourers - Females": 246,
      "Marginal Workers Cultivators worked for 3 - 6 moths during last year - Females": 37,
      "Households with no lighting  Houselisting and Housing Census Data Tables- District Level , Census of India__5": 410,
      "Prevalence of Severe Anaemia  in percentage DLHS-4": "Not available",
      "Total unmet need for family planning in percentage DLHS-4": "Not available",
      "Main Workers Other - Males": 25518,
      "Children who received full vaccination in percentage DLHS-4": "Not available",
      "Marginal Workers Household Industry - Persons": 583,
      "Primary Pupil-Teacher Ratio in percentage DISE": "NA",
      "Marginal Workers Agricultural Labourers worked for 3 - 6 moths during last year - Males": 760,
      "Scheduled Caste Females": 8703,
      "Marginal Workers Cultivators - Males": 204,
      "Marginal Workers - Males": 4131,
      "Marginal Workers worked for 0 - 3 moths during last year - Females": 251,
      "Households with main source of drinking water within premises in percentage Houselisting and Housing Census Data Tables- District Level , Census of India": 59.52033156,
      "Marginal Workers Household Industry worked for 3 - 6 moths during last year - Persons": 512,
      "Upper Primary Girl's Enrolment in percentage DISE": "NA",
      "Prevalence of Severe Anaemia in women aged 15-49years in percentage DLHS-4": "Not available",
      "Marginal Workers Agricultural Labourers worked for 0 - 3 moths during last year - Males": 115,
      "Households with electricity as main source of lighting  Houselisting and Housing Census Data Tables- District Level , Census of India__3": 23214,
      "Households with computer or laptop with internet connection in percentage": 3.84,
      "PHCs functioning on a 24x7hours basis in percentage DLHS-4": "Not available",
      "Non Workers - Males": 33762,
      "Total Households in District Houselisting and Housing Census Data Tables- District Level , Census of India": 29437,
      "Upper Primary Schools with girls toilet in percentage DISE": "NA",
      "Households with mobile phone in percentage": 59.69,
      "Households receiving untreated tap water within premises in percentage Houselisting and Housing Census Data Tables- District Level , Census of India__2": 5.448924823,
      "Marginal Workers Cultivators worked for 3 - 6 moths during last year - Males": 195,
      "Prevalence of Anaemia  in percentage DLHS-4": "Not available",
      "Prevalence of Chronic illness in percentage DLHS-4": "Not available",
      "Households with solar energy as main source of lighting in percentage Houselisting and Housing Census Data Tables- District Level , Census of India__1": 0.142677583,
      "Marginal Workers Agricultural Labourers worked for 0 - 3 moths during last year - Females": 129,
      "Main Workers - Males": 31602,
      "Female": "NA",
      "Sno": 1311,
      "Marginal Workers Other worked for 3 - 6 moths during last year - Females": 773,
      "Marginal Workers Cultivators worked for 0 - 3 moths during last year - Females": 0,
      "Scheduled Tribe Males": 6072,
      "Male Illiterates": 14252,
      "Prevalence of Severe Anaemia in pregnant women aged 15-49years in percentage DLHS-4": "Not available",
      "0-6 Age Group Persons": 16520,
      "Upper Primary Student-Classroom Ratio in percentage DISE": "NA",
      "Currently married men married below 21years of age in percentage DLHS-4": "Not available",
      "Male Literates": 55243,
      "Households with no lighting in percentage Houselisting and Housing Census Data Tables- District Level , Census of India__2": 1.392804973,
      "Primary Drop Out Rate in percentage DISE": "NA",
      "Marginal Workers Household Industry - Males": 337,
      "Female Illiterates": 18873,
      "Main Workers Other - Females": 2969,
      "Marginal Workers Cultivators - Persons": 241,
      "Upper Primary Gross Enrolment Ratio in percentage DISE": "NA",
      "Scheduled Caste Persons": 17735,
      "Marginal Workers Cultivators worked for 3 - 6 moths during last year - Persons": 232,
      "Households with landline phone in percentage": 3.47,
      "Total Households in District  Houselisting and Housing Census Data Tables- District Level , Census of India": 29437,
      "Upper Primary Pupil-Teacher Ratio in percentage DISE": "NA",
      "Primary Student-Classroom Ratio in percentage DISE": "NA",
      "Primary Schools with boys toilet in percentage DISE": "NA",
      "Mean number of children ever born to women aged 40-49years  DLHS-4": "Not available",
      "Households receiving untreated tap water within premises  Houselisting and Housing Census Data Tables- District Level , Census of India__5": 1604,
      "Marginal Workers Household Industry worked for 0 - 3 moths during last year - Persons": 71,
      "Total Male Population": 69495,
      "Non Workers - Females": 60706,
      "Current use of family planning methods in percentage DLHS-4": "Not available",
      "Households with main source of drinking water within premises  Houselisting and Housing Census Data Tables- District Level , Census of India__3": 17521,
      "Main Workers Agricultural Labourers - Males": 2419,
      "Marginal Workers Other worked for 0 - 3 moths during last year - Persons": 463,
      "Currently married women married below 18years of age in percentage DLHS-4": "Not available",
      "Person Illiterates": 33125,
      "Main Workers Household Industry - Females": 149,
      "Female Literates": 46729,
      "Marginal Workers Cultivators worked for 0 - 3 moths during last year - Males": 9,
      "Male": "NA",
      "Households with improved source of drinking water in percentage DLHS-4": "Not available",
      "Upper Primary Schools with electricity in percentage DISE": "NA",
      "Households with electricity in percentage DLHS-4": "Not available",
      "Villages with Primary Health Centre within 10km in percentage DLHS-4": "Not available",
      "Births to women aged 15-19years out of Total births in percentage DLHS-4": "Not available",
      "Prevalence of Anaemia in women aged 15-49years in percentage DLHS-4": "Not available",
      "Marginal Workers Agricultural Labourers worked for 3 - 6 moths during last year - Persons": 952,
      "Main Workers Household Industry - Males": 1374,
      "Scheduled Tribe Females": 6151,
      "Marginal Workers worked for 0 - 3 moths during last year - Males": 536,
      "Marginal Workers Other worked for 3 - 6 moths during last year - Males": 2352,
      "Primary Net Enrolment Ratio in percentage DISE": "NA",
      "Total": "NA",
      "Mean age at marriage for boys DLHS-4": "Not available",
      "Number of District Hospitals  DLHS-4": "Not available",
      "0-6 Age Group Females": 7962,
      "Marginal Workers Agricultural Labourers worked for 0 - 3 moths during last year - Persons": 244,
      "Marginal Workers Household Industry worked for 0 - 3 moths during last year - Males": 49,
      "Total Workers  Females": 4896,
      "Marginal Workers worked for 3 - 6 moths during last year - Females": 1226,
      "Institutional Deliveries in percentage DLHS-4": "Not available",
      "Marginal Workers Other - Males": 2715,
      "Total Workers  Males": 35733,
      "Main Workers - Females": 3419,
      "Primary Gross Enrolment Ratio in percentage DISE": "NA",
      "Main Workers Cultivators - Persons": 2346,
      "Marginal Workers Household Industry worked for 0 - 3 moths during last year - Females": 22,
      "Upper Primary Net Enrolment Ratio in percentage DISE": "NA",
      "Primary New Government Schools since 2003 in percentage DISE": "NA",
      "Tier": "Urban",
      "Marginal Workers Household Industry - Females": 246,
      "Primary Schools with electricity in percentage DISE": "NA",
      "Main Workers Other - Persons": 28487,
      "Marginal Workers Household Industry worked for 3 - 6 moths during last year - Females": 224,
      "Main Workers Cultivators - Males": 2291,
      "Main Workers Household Industry - Persons": 1523,
      "Marginal Workers Cultivators worked for 0 - 3 moths during last year - Persons": 9,
      "Scheduled Caste Males": 9032,
      "Marginal Workers - Persons": 5608,
      "Deliveries at home conducted by skilled health personnel in percentage DLHS-4": "Not available",
      "Villages with Sub-Health Centres within 3km in percentage DLHS-4": "Not available",
      "Upper Primary New Government Schools since 2003 in percentage DISE": "NA",
      "0-6 Age Group Males": 8558,
      "Primary Schools with drinking water facility in percentage DISE": "NA",
      "Non Workers - Persons": 94468,
      "Person Literates": 101972,
      "State": "ODISHA",
      "Total Female Population": 65602,
      "Marginal Workers worked for 0 - 3 moths during last year - Persons": 787,
      "Marginal Workers Cultivators - Females": 37,
      "Marginal Workers Other - Persons": 3588,
      "Sex Ratio": 944,
      "Scheduled Tribe Persons": 12223,
      "Marginal Workers Household Industry worked for 3 - 6 moths during last year - Males": 288,
      "Marginal Workers Agricultural Labourers - Females": 321,
      "Mean age at marriage for girls DLHS-4": "Not available",
      "Households with solar energy as main source of lighting  Houselisting and Housing Census Data Tables- District Level , Census of India__4": 42,
      "District": "JAJAPUR",
      "Households receiving treated tap water within premises in percentage Houselisting and Housing Census Data Tables- District Level , Census of India__1": 20.64069029,
      "Total Workers  Persons": 40629,
      "Households receiving treated tap water within premises  Houselisting and Housing Census Data Tables- District Level , Census of India__4": 6076,
      "Primary Female Teachers in percentage DISE": "NA",
      "Number of Households": 29206,
      "Main Workers Agricultural Labourers - Persons": 2665
    }
  ]
}