{
  "Total": [
    {
      "Marginal Workers Agricultural Labourers - Persons": 292860,
      "Marginal Workers Other - Females": 18403,
      "Marginal Workers Other worked for 0 - 3 moths during last year - Females": 4352,
      "Upper Primary Schools with boys toilet in percentage DISE": 100,
      "Total Population": 1576869,
      "Households with electricity as main source of lighting in percentage Houselisting and Housing Census Data Tables- District Level , Census of India": 22.52170132,
      "Primary Girl's Enrolment in percentage DISE": 49.2,
      "Marginal Workers worked for 3 - 6 moths during last year - Males": 126046,
      "Prevalence of Acute illness in percentage DLHS-4": "Not available",
      "Main Workers - Persons": 376757,
      "Main Workers Cultivators - Females": 10890,
      "Marginal Workers Agricultural Labourers worked for 3 - 6 moths during last year - Females": 153859,
      "Marginal Workers Other worked for 0 - 3 moths during last year - Males": 4401,
      "Upper Primary Schools with drinking water facility in percentage DISE": 95.7,
      "Primary Schools with girls toilet in percentage DISE": 59.7,
      "Marginal Workers worked for 3 - 6 moths during last year - Persons": 309753,
      "Upper Primary Drop Out Rate in percentage DISE": 4.52,
      "Prevalence of Anaemia in pregnant women aged 15-49years in percentage DLHS-4": "Not available",
      "Current use of any modern method of family planning in percentage DLHS-4": 42.4,
      "Marginal Workers Agricultural Labourers - Males": 104218,
      "Upper Primary Female Teachers in percentage DISE": 23.1,
      "Marginal Workers - Females": 227718,
      "Marginal Workers Other worked for 3 - 6 moths during last year - Persons": 32211,
      "Main Workers Agricultural Labourers - Females": 43497,
      "Marginal Workers Cultivators worked for 3 - 6 moths during last year - Females": 11604,
      "Households with no lighting  Houselisting and Housing Census Data Tables- District Level , Census of India__5": 3696,
      "Prevalence of Severe Anaemia  in percentage DLHS-4": "Not available",
      "Total unmet need for family planning in percentage DLHS-4": 34.8,
      "Main Workers Other - Males": 90372,
      "Children who received full vaccination in percentage DLHS-4": "Not available",
      "Marginal Workers Household Industry - Persons": 9255,
      "Primary Pupil-Teacher Ratio in percentage DISE": 26,
      "Marginal Workers Agricultural Labourers worked for 3 - 6 moths during last year - Males": 89928,
      "Scheduled Caste Females": 144447,
      "Marginal Workers Cultivators - Males": 17000,
      "Marginal Workers - Males": 147455,
      "Marginal Workers worked for 0 - 3 moths during last year - Females": 44011,
      "Households with main source of drinking water within premises in percentage Houselisting and Housing Census Data Tables- District Level , Census of India": 8.4829082,
      "Marginal Workers Household Industry worked for 3 - 6 moths during last year - Persons": 7196,
      "Upper Primary Girl's Enrolment in percentage DISE": 50.1,
      "Prevalence of Severe Anaemia in women aged 15-49years in percentage DLHS-4": "Not available",
      "Marginal Workers Agricultural Labourers worked for 0 - 3 moths during last year - Males": 14290,
      "Households with electricity as main source of lighting  Houselisting and Housing Census Data Tables- District Level , Census of India__3": 91171,
      "Households with computer or laptop with internet connection in percentage": 0.48,
      "PHCs functioning on a 24x7hours basis in percentage DLHS-4": "Not available",
      "Non Workers - Males": 339811,
      "Total Households in District Houselisting and Housing Census Data Tables- District Level , Census of India": 404814,
      "Upper Primary Schools with girls toilet in percentage DISE": 59,
      "Households with mobile phone in percentage": 21.75,
      "Households receiving untreated tap water within premises in percentage Houselisting and Housing Census Data Tables- District Level , Census of India__2": 0.373504869,
      "Marginal Workers Cultivators worked for 3 - 6 moths during last year - Males": 14955,
      "Prevalence of Anaemia  in percentage DLHS-4": "Not available",
      "Prevalence of Chronic illness in percentage DLHS-4": "Not available",
      "Households with solar energy as main source of lighting in percentage Houselisting and Housing Census Data Tables- District Level , Census of India__1": 0.844832442,
      "Marginal Workers Agricultural Labourers worked for 0 - 3 moths during last year - Females": 34783,
      "Main Workers - Males": 299835,
      "Female": 46.68,
      "Sno": 1316,
      "Marginal Workers Other worked for 3 - 6 moths during last year - Females": 14051,
      "Marginal Workers Cultivators worked for 0 - 3 moths during last year - Females": 3490,
      "Scheduled Tribe Males": 221171,
      "Male Illiterates": 302924,
      "Prevalence of Severe Anaemia in pregnant women aged 15-49years in percentage DLHS-4": "Not available",
      "0-6 Age Group Persons": 222570,
      "Upper Primary Student-Classroom Ratio in percentage DISE": 41,
      "Currently married men married below 21years of age in percentage DLHS-4": 9.1,
      "Male Literates": 484177,
      "Households with no lighting in percentage Houselisting and Housing Census Data Tables- District Level , Census of India__2": 0.913011902,
      "Primary Drop Out Rate in percentage DISE": 4.2,
      "Marginal Workers Household Industry - Males": 3676,
      "Female Illiterates": 471909,
      "Main Workers Other - Females": 20417,
      "Marginal Workers Cultivators - Persons": 32094,
      "Upper Primary Gross Enrolment Ratio in percentage DISE": 83.8,
      "Scheduled Caste Persons": 286580,
      "Marginal Workers Cultivators worked for 3 - 6 moths during last year - Persons": 26559,
      "Households with landline phone in percentage": 0.86,
      "Total Households in District  Houselisting and Housing Census Data Tables- District Level , Census of India": 404814,
      "Upper Primary Pupil-Teacher Ratio in percentage DISE": 39,
      "Primary Student-Classroom Ratio in percentage DISE": 25,
      "Primary Schools with boys toilet in percentage DISE": 100,
      "Mean number of children ever born to women aged 40-49years  DLHS-4": "Not available",
      "Households receiving untreated tap water within premises  Houselisting and Housing Census Data Tables- District Level , Census of India__5": 1512,
      "Marginal Workers Household Industry worked for 0 - 3 moths during last year - Persons": 2059,
      "Total Male Population": 787101,
      "Non Workers - Females": 485128,
      "Current use of family planning methods in percentage DLHS-4": 42.9,
      "Households with main source of drinking water within premises  Houselisting and Housing Census Data Tables- District Level , Census of India__3": 34340,
      "Main Workers Agricultural Labourers - Males": 100376,
      "Marginal Workers Other worked for 0 - 3 moths during last year - Persons": 8753,
      "Currently married women married below 18years of age in percentage DLHS-4": 3.6,
      "Person Illiterates": 774833,
      "Main Workers Household Industry - Females": 2118,
      "Female Literates": 317859,
      "Marginal Workers Cultivators worked for 0 - 3 moths during last year - Males": 2045,
      "Male": 71.9,
      "Households with improved source of drinking water in percentage DLHS-4": "Not available",
      "Upper Primary Schools with electricity in percentage DISE": 23.9,
      "Households with electricity in percentage DLHS-4": "Not available",
      "Villages with Primary Health Centre within 10km in percentage DLHS-4": "Not available",
      "Births to women aged 15-19years out of Total births in percentage DLHS-4": "Not available",
      "Prevalence of Anaemia in women aged 15-49years in percentage DLHS-4": "Not available",
      "Marginal Workers Agricultural Labourers worked for 3 - 6 moths during last year - Persons": 243787,
      "Main Workers Household Industry - Males": 7080,
      "Scheduled Tribe Females": 228285,
      "Marginal Workers worked for 0 - 3 moths during last year - Males": 21409,
      "Marginal Workers Other worked for 3 - 6 moths during last year - Males": 18160,
      "Primary Net Enrolment Ratio in percentage DISE": 96.6,
      "Total": 59.22,
      "Mean age at marriage for boys DLHS-4": 25.4,
      "Number of District Hospitals  DLHS-4": "Not available",
      "0-6 Age Group Females": 108844,
      "Marginal Workers Agricultural Labourers worked for 0 - 3 moths during last year - Persons": 49073,
      "Marginal Workers Household Industry worked for 0 - 3 moths during last year - Males": 673,
      "Total Workers  Females": 304640,
      "Marginal Workers worked for 3 - 6 moths during last year - Females": 183707,
      "Institutional Deliveries in percentage DLHS-4": 67,
      "Marginal Workers Other - Males": 22561,
      "Total Workers  Males": 447290,
      "Main Workers - Females": 76922,
      "Primary Gross Enrolment Ratio in percentage DISE": 114,
      "Main Workers Cultivators - Persons": 112897,
      "Marginal Workers Household Industry worked for 0 - 3 moths during last year - Females": 1386,
      "Upper Primary Net Enrolment Ratio in percentage DISE": 64.2,
      "Primary New Government Schools since 2003 in percentage DISE": 36.2,
      "Tier": "Total",
      "Marginal Workers Household Industry - Females": 5579,
      "Primary Schools with electricity in percentage DISE": 4.4,
      "Main Workers Other - Persons": 110789,
      "Marginal Workers Household Industry worked for 3 - 6 moths during last year - Females": 4193,
      "Main Workers Cultivators - Males": 102007,
      "Main Workers Household Industry - Persons": 9198,
      "Marginal Workers Cultivators worked for 0 - 3 moths during last year - Persons": 5535,
      "Scheduled Caste Males": 142133,
      "Marginal Workers - Persons": 375173,
      "Deliveries at home conducted by skilled health personnel in percentage DLHS-4": 21.8,
      "Villages with Sub-Health Centres within 3km in percentage DLHS-4": "Not available",
      "Upper Primary New Government Schools since 2003 in percentage DISE": 0,
      "0-6 Age Group Males": 113726,
      "Primary Schools with drinking water facility in percentage DISE": 91.7,
      "Non Workers - Persons": 824939,
      "Person Literates": 802036,
      "State": "ODISHA",
      "Total Female Population": 789768,
      "Marginal Workers worked for 0 - 3 moths during last year - Persons": 65420,
      "Marginal Workers Cultivators - Females": 15094,
      "Marginal Workers Other - Persons": 40964,
      "Sex Ratio": 1003,
      "Scheduled Tribe Persons": 449456,
      "Marginal Workers Household Industry worked for 3 - 6 moths during last year - Males": 3003,
      "Marginal Workers Agricultural Labourers - Females": 188642,
      "Mean age at marriage for girls DLHS-4": 21.6,
      "Households with solar energy as main source of lighting  Houselisting and Housing Census Data Tables- District Level , Census of India__4": 3420,
      "District": "KALAHANDI",
      "Households receiving treated tap water within premises in percentage Houselisting and Housing Census Data Tables- District Level , Census of India__1": 1.300350284,
      "Total Workers  Persons": 751930,
      "Households receiving treated tap water within premises  Houselisting and Housing Census Data Tables- District Level , Census of India__4": 5264,
      "Primary Female Teachers in percentage DISE": 26.6,
      "Number of Households": 401251,
      "Main Workers Agricultural Labourers - Persons": 143873
    }
  ],
  "Rural": [
    {
      "Marginal Workers Agricultural Labourers - Persons": 291147,
      "Marginal Workers Other - Females": 16343,
      "Marginal Workers Other worked for 0 - 3 moths during last year - Females": 4077,
      "Upper Primary Schools with boys toilet in percentage DISE": "NA",
      "Total Population": 1454882,
      "Households with electricity as main source of lighting in percentage Houselisting and Housing Census Data Tables- District Level , Census of India": 18.60260318,
      "Primary Girl's Enrolment in percentage DISE": "NA",
      "Marginal Workers worked for 3 - 6 moths during last year - Males": 122649,
      "Prevalence of Acute illness in percentage DLHS-4": "Not available",
      "Main Workers - Persons": 341282,
      "Main Workers Cultivators - Females": 10773,
      "Marginal Workers Agricultural Labourers worked for 3 - 6 moths during last year - Females": 153142,
      "Marginal Workers Other worked for 0 - 3 moths during last year - Males": 3922,
      "Upper Primary Schools with drinking water facility in percentage DISE": "NA",
      "Primary Schools with girls toilet in percentage DISE": "NA",
      "Marginal Workers worked for 3 - 6 moths during last year - Persons": 303702,
      "Upper Primary Drop Out Rate in percentage DISE": "NA",
      "Prevalence of Anaemia in pregnant women aged 15-49years in percentage DLHS-4": "Not available",
      "Current use of any modern method of family planning in percentage DLHS-4": 41.6,
      "Marginal Workers Agricultural Labourers - Males": 103442,
      "Upper Primary Female Teachers in percentage DISE": "NA",
      "Marginal Workers - Females": 224546,
      "Marginal Workers Other worked for 3 - 6 moths during last year - Persons": 28023,
      "Main Workers Agricultural Labourers - Females": 42992,
      "Marginal Workers Cultivators worked for 3 - 6 moths during last year - Females": 11541,
      "Households with no lighting  Houselisting and Housing Census Data Tables- District Level , Census of India__5": 3130,
      "Prevalence of Severe Anaemia  in percentage DLHS-4": "Not available",
      "Total unmet need for family planning in percentage DLHS-4": 35.4,
      "Main Workers Other - Males": 64576,
      "Children who received full vaccination in percentage DLHS-4": "Not available",
      "Marginal Workers Household Industry - Persons": 8966,
      "Primary Pupil-Teacher Ratio in percentage DISE": "NA",
      "Marginal Workers Agricultural Labourers worked for 3 - 6 moths during last year - Males": 89247,
      "Scheduled Caste Females": 133500,
      "Marginal Workers Cultivators - Males": 16829,
      "Marginal Workers - Males": 143448,
      "Marginal Workers worked for 0 - 3 moths during last year - Females": 43493,
      "Households with main source of drinking water within premises in percentage Houselisting and Housing Census Data Tables- District Level , Census of India": 5.959400638,
      "Marginal Workers Household Industry worked for 3 - 6 moths during last year - Persons": 6959,
      "Upper Primary Girl's Enrolment in percentage DISE": "NA",
      "Prevalence of Severe Anaemia in women aged 15-49years in percentage DLHS-4": "Not available",
      "Marginal Workers Agricultural Labourers worked for 0 - 3 moths during last year - Males": 14195,
      "Households with electricity as main source of lighting  Houselisting and Housing Census Data Tables- District Level , Census of India__3": 70132,
      "Households with computer or laptop with internet connection in percentage": 0.26,
      "PHCs functioning on a 24x7hours basis in percentage DLHS-4": "Not available",
      "Non Workers - Males": 310760,
      "Total Households in District Houselisting and Housing Census Data Tables- District Level , Census of India": 377001,
      "Upper Primary Schools with girls toilet in percentage DISE": "NA",
      "Households with mobile phone in percentage": 19.02,
      "Households receiving untreated tap water within premises in percentage Houselisting and Housing Census Data Tables- District Level , Census of India__2": 0.289123902,
      "Marginal Workers Cultivators worked for 3 - 6 moths during last year - Males": 14790,
      "Prevalence of Anaemia  in percentage DLHS-4": "Not available",
      "Prevalence of Chronic illness in percentage DLHS-4": "Not available",
      "Households with solar energy as main source of lighting in percentage Houselisting and Housing Census Data Tables- District Level , Census of India__1": 0.8870003,
      "Marginal Workers Agricultural Labourers worked for 0 - 3 moths during last year - Females": 34563,
      "Main Workers - Males": 270438,
      "Female": "NA",
      "Sno": 1315,
      "Marginal Workers Other worked for 3 - 6 moths during last year - Females": 12266,
      "Marginal Workers Cultivators worked for 0 - 3 moths during last year - Females": 3489,
      "Scheduled Tribe Males": 216883,
      "Male Illiterates": 289316,
      "Prevalence of Severe Anaemia in pregnant women aged 15-49years in percentage DLHS-4": "Not available",
      "0-6 Age Group Persons": 208763,
      "Upper Primary Student-Classroom Ratio in percentage DISE": "NA",
      "Currently married men married below 21years of age in percentage DLHS-4": 9.8,
      "Male Literates": 435330,
      "Households with no lighting in percentage Houselisting and Housing Census Data Tables- District Level , Census of India__2": 0.830236525,
      "Primary Drop Out Rate in percentage DISE": "NA",
      "Marginal Workers Household Industry - Males": 3498,
      "Female Illiterates": 451804,
      "Main Workers Other - Females": 15208,
      "Marginal Workers Cultivators - Persons": 31859,
      "Upper Primary Gross Enrolment Ratio in percentage DISE": "NA",
      "Scheduled Caste Persons": 264974,
      "Marginal Workers Cultivators worked for 3 - 6 moths during last year - Persons": 26331,
      "Households with landline phone in percentage": 0.75,
      "Total Households in District  Houselisting and Housing Census Data Tables- District Level , Census of India": 377001,
      "Upper Primary Pupil-Teacher Ratio in percentage DISE": "NA",
      "Primary Student-Classroom Ratio in percentage DISE": "NA",
      "Primary Schools with boys toilet in percentage DISE": "NA",
      "Mean number of children ever born to women aged 40-49years  DLHS-4": "Not available",
      "Households receiving untreated tap water within premises  Houselisting and Housing Census Data Tables- District Level , Census of India__5": 1090,
      "Marginal Workers Household Industry worked for 0 - 3 moths during last year - Persons": 2007,
      "Total Male Population": 724646,
      "Non Workers - Females": 434846,
      "Current use of family planning methods in percentage DLHS-4": 42,
      "Households with main source of drinking water within premises  Houselisting and Housing Census Data Tables- District Level , Census of India__3": 22467,
      "Main Workers Agricultural Labourers - Males": 99024,
      "Marginal Workers Other worked for 0 - 3 moths during last year - Persons": 7999,
      "Currently married women married below 18years of age in percentage DLHS-4": 4,
      "Person Illiterates": 741120,
      "Main Workers Household Industry - Females": 1871,
      "Female Literates": 278432,
      "Marginal Workers Cultivators worked for 0 - 3 moths during last year - Males": 2039,
      "Male": "NA",
      "Households with improved source of drinking water in percentage DLHS-4": "Not available",
      "Upper Primary Schools with electricity in percentage DISE": "NA",
      "Households with electricity in percentage DLHS-4": "Not available",
      "Villages with Primary Health Centre within 10km in percentage DLHS-4": "Not available",
      "Births to women aged 15-19years out of Total births in percentage DLHS-4": "Not available",
      "Prevalence of Anaemia in women aged 15-49years in percentage DLHS-4": "Not available",
      "Marginal Workers Agricultural Labourers worked for 3 - 6 moths during last year - Persons": 242389,
      "Main Workers Household Industry - Males": 5911,
      "Scheduled Tribe Females": 223892,
      "Marginal Workers worked for 0 - 3 moths during last year - Males": 20799,
      "Marginal Workers Other worked for 3 - 6 moths during last year - Males": 15757,
      "Primary Net Enrolment Ratio in percentage DISE": "NA",
      "Total": "NA",
      "Mean age at marriage for boys DLHS-4": 25.1,
      "Number of District Hospitals  DLHS-4": "Not available",
      "0-6 Age Group Females": 102220,
      "Marginal Workers Agricultural Labourers worked for 0 - 3 moths during last year - Persons": 48758,
      "Marginal Workers Household Industry worked for 0 - 3 moths during last year - Males": 643,
      "Total Workers  Females": 295390,
      "Marginal Workers worked for 3 - 6 moths during last year - Females": 181053,
      "Institutional Deliveries in percentage DLHS-4": 65.3,
      "Marginal Workers Other - Males": 19679,
      "Total Workers  Males": 413886,
      "Main Workers - Females": 70844,
      "Primary Gross Enrolment Ratio in percentage DISE": "NA",
      "Main Workers Cultivators - Persons": 111700,
      "Marginal Workers Household Industry worked for 0 - 3 moths during last year - Females": 1364,
      "Upper Primary Net Enrolment Ratio in percentage DISE": "NA",
      "Primary New Government Schools since 2003 in percentage DISE": "NA",
      "Tier": "Rural",
      "Marginal Workers Household Industry - Females": 5468,
      "Primary Schools with electricity in percentage DISE": "NA",
      "Main Workers Other - Persons": 79784,
      "Marginal Workers Household Industry worked for 3 - 6 moths during last year - Females": 4104,
      "Main Workers Cultivators - Males": 100927,
      "Main Workers Household Industry - Persons": 7782,
      "Marginal Workers Cultivators worked for 0 - 3 moths during last year - Persons": 5528,
      "Scheduled Caste Males": 131474,
      "Marginal Workers - Persons": 367994,
      "Deliveries at home conducted by skilled health personnel in percentage DLHS-4": 21.1,
      "Villages with Sub-Health Centres within 3km in percentage DLHS-4": "Not available",
      "Upper Primary New Government Schools since 2003 in percentage DISE": "NA",
      "0-6 Age Group Males": 106543,
      "Primary Schools with drinking water facility in percentage DISE": "NA",
      "Non Workers - Persons": 745606,
      "Person Literates": 713762,
      "State": "ODISHA",
      "Total Female Population": 730236,
      "Marginal Workers worked for 0 - 3 moths during last year - Persons": 64292,
      "Marginal Workers Cultivators - Females": 15030,
      "Marginal Workers Other - Persons": 36022,
      "Sex Ratio": 1008,
      "Scheduled Tribe Persons": 440775,
      "Marginal Workers Household Industry worked for 3 - 6 moths during last year - Males": 2855,
      "Marginal Workers Agricultural Labourers - Females": 187705,
      "Mean age at marriage for girls DLHS-4": 21.4,
      "Households with solar energy as main source of lighting  Houselisting and Housing Census Data Tables- District Level , Census of India__4": 3344,
      "District": "KALAHANDI",
      "Households receiving treated tap water within premises in percentage Houselisting and Housing Census Data Tables- District Level , Census of India__1": 0.649335148,
      "Total Workers  Persons": 709276,
      "Households receiving treated tap water within premises  Houselisting and Housing Census Data Tables- District Level , Census of India__4": 2448,
      "Primary Female Teachers in percentage DISE": "NA",
      "Number of Households": 373304,
      "Main Workers Agricultural Labourers - Persons": 142016
    }
  ],
  "Urban": [
    {
      "Marginal Workers Agricultural Labourers - Persons": 1713,
      "Marginal Workers Other - Females": 2060,
      "Marginal Workers Other worked for 0 - 3 moths during last year - Females": 275,
      "Upper Primary Schools with boys toilet in percentage DISE": "NA",
      "Total Population": 121987,
      "Households with electricity as main source of lighting in percentage Houselisting and Housing Census Data Tables- District Level , Census of India": 75.6444828,
      "Primary Girl's Enrolment in percentage DISE": "NA",
      "Marginal Workers worked for 3 - 6 moths during last year - Males": 3397,
      "Prevalence of Acute illness in percentage DLHS-4": "Not available",
      "Main Workers - Persons": 35475,
      "Main Workers Cultivators - Females": 117,
      "Marginal Workers Agricultural Labourers worked for 3 - 6 moths during last year - Females": 717,
      "Marginal Workers Other worked for 0 - 3 moths during last year - Males": 479,
      "Upper Primary Schools with drinking water facility in percentage DISE": "NA",
      "Primary Schools with girls toilet in percentage DISE": "NA",
      "Marginal Workers worked for 3 - 6 moths during last year - Persons": 6051,
      "Upper Primary Drop Out Rate in percentage DISE": "NA",
      "Prevalence of Anaemia in pregnant women aged 15-49years in percentage DLHS-4": "Not available",
      "Current use of any modern method of family planning in percentage DLHS-4": 49.3,
      "Marginal Workers Agricultural Labourers - Males": 776,
      "Upper Primary Female Teachers in percentage DISE": "NA",
      "Marginal Workers - Females": 3172,
      "Marginal Workers Other worked for 3 - 6 moths during last year - Persons": 4188,
      "Main Workers Agricultural Labourers - Females": 505,
      "Marginal Workers Cultivators worked for 3 - 6 moths during last year - Females": 63,
      "Households with no lighting  Houselisting and Housing Census Data Tables- District Level , Census of India__5": 566,
      "Prevalence of Severe Anaemia  in percentage DLHS-4": "Not available",
      "Total unmet need for family planning in percentage DLHS-4": 30.8,
      "Main Workers Other - Males": 25796,
      "Children who received full vaccination in percentage DLHS-4": "Not available",
      "Marginal Workers Household Industry - Persons": 289,
      "Primary Pupil-Teacher Ratio in percentage DISE": "NA",
      "Marginal Workers Agricultural Labourers worked for 3 - 6 moths during last year - Males": 681,
      "Scheduled Caste Females": 10947,
      "Marginal Workers Cultivators - Males": 171,
      "Marginal Workers - Males": 4007,
      "Marginal Workers worked for 0 - 3 moths during last year - Females": 518,
      "Households with main source of drinking water within premises in percentage Houselisting and Housing Census Data Tables- District Level , Census of India": 42.68867077,
      "Marginal Workers Household Industry worked for 3 - 6 moths during last year - Persons": 237,
      "Upper Primary Girl's Enrolment in percentage DISE": "NA",
      "Prevalence of Severe Anaemia in women aged 15-49years in percentage DLHS-4": "Not available",
      "Marginal Workers Agricultural Labourers worked for 0 - 3 moths during last year - Males": 95,
      "Households with electricity as main source of lighting  Houselisting and Housing Census Data Tables- District Level , Census of India__3": 21039,
      "Households with computer or laptop with internet connection in percentage": 3.52,
      "PHCs functioning on a 24x7hours basis in percentage DLHS-4": "Not available",
      "Non Workers - Males": 29051,
      "Total Households in District Houselisting and Housing Census Data Tables- District Level , Census of India": 27813,
      "Upper Primary Schools with girls toilet in percentage DISE": "NA",
      "Households with mobile phone in percentage": 58.79,
      "Households receiving untreated tap water within premises in percentage Houselisting and Housing Census Data Tables- District Level , Census of India__2": 1.517276094,
      "Marginal Workers Cultivators worked for 3 - 6 moths during last year - Males": 165,
      "Prevalence of Anaemia  in percentage DLHS-4": "Not available",
      "Prevalence of Chronic illness in percentage DLHS-4": "Not available",
      "Households with solar energy as main source of lighting in percentage Houselisting and Housing Census Data Tables- District Level , Census of India__1": 0.273253515,
      "Marginal Workers Agricultural Labourers worked for 0 - 3 moths during last year - Females": 220,
      "Main Workers - Males": 29397,
      "Female": "NA",
      "Sno": 1317,
      "Marginal Workers Other worked for 3 - 6 moths during last year - Females": 1785,
      "Marginal Workers Cultivators worked for 0 - 3 moths during last year - Females": 1,
      "Scheduled Tribe Males": 4288,
      "Male Illiterates": 13608,
      "Prevalence of Severe Anaemia in pregnant women aged 15-49years in percentage DLHS-4": "Not available",
      "0-6 Age Group Persons": 13807,
      "Upper Primary Student-Classroom Ratio in percentage DISE": "NA",
      "Currently married men married below 21years of age in percentage DLHS-4": "Not available",
      "Male Literates": 48847,
      "Households with no lighting in percentage Houselisting and Housing Census Data Tables- District Level , Census of India__2": 2.035019595,
      "Primary Drop Out Rate in percentage DISE": "NA",
      "Marginal Workers Household Industry - Males": 178,
      "Female Illiterates": 20105,
      "Main Workers Other - Females": 5209,
      "Marginal Workers Cultivators - Persons": 235,
      "Upper Primary Gross Enrolment Ratio in percentage DISE": "NA",
      "Scheduled Caste Persons": 21606,
      "Marginal Workers Cultivators worked for 3 - 6 moths during last year - Persons": 228,
      "Households with landline phone in percentage": 2.25,
      "Total Households in District  Houselisting and Housing Census Data Tables- District Level , Census of India": 27813,
      "Upper Primary Pupil-Teacher Ratio in percentage DISE": "NA",
      "Primary Student-Classroom Ratio in percentage DISE": "NA",
      "Primary Schools with boys toilet in percentage DISE": "NA",
      "Mean number of children ever born to women aged 40-49years  DLHS-4": "Not available",
      "Households receiving untreated tap water within premises  Houselisting and Housing Census Data Tables- District Level , Census of India__5": 422,
      "Marginal Workers Household Industry worked for 0 - 3 moths during last year - Persons": 52,
      "Total Male Population": 62455,
      "Non Workers - Females": 50282,
      "Current use of family planning methods in percentage DLHS-4": 50,
      "Households with main source of drinking water within premises  Houselisting and Housing Census Data Tables- District Level , Census of India__3": 11873,
      "Main Workers Agricultural Labourers - Males": 1352,
      "Marginal Workers Other worked for 0 - 3 moths during last year - Persons": 754,
      "Currently married women married below 18years of age in percentage DLHS-4": "Not available",
      "Person Illiterates": 33713,
      "Main Workers Household Industry - Females": 247,
      "Female Literates": 39427,
      "Marginal Workers Cultivators worked for 0 - 3 moths during last year - Males": 6,
      "Male": "NA",
      "Households with improved source of drinking water in percentage DLHS-4": "Not available",
      "Upper Primary Schools with electricity in percentage DISE": "NA",
      "Households with electricity in percentage DLHS-4": "Not available",
      "Villages with Primary Health Centre within 10km in percentage DLHS-4": "Not available",
      "Births to women aged 15-19years out of Total births in percentage DLHS-4": "Not available",
      "Prevalence of Anaemia in women aged 15-49years in percentage DLHS-4": "Not available",
      "Marginal Workers Agricultural Labourers worked for 3 - 6 moths during last year - Persons": 1398,
      "Main Workers Household Industry - Males": 1169,
      "Scheduled Tribe Females": 4393,
      "Marginal Workers worked for 0 - 3 moths during last year - Males": 610,
      "Marginal Workers Other worked for 3 - 6 moths during last year - Males": 2403,
      "Primary Net Enrolment Ratio in percentage DISE": "NA",
      "Total": "NA",
      "Mean age at marriage for boys DLHS-4": "Not available",
      "Number of District Hospitals  DLHS-4": "Not available",
      "0-6 Age Group Females": 6624,
      "Marginal Workers Agricultural Labourers worked for 0 - 3 moths during last year - Persons": 315,
      "Marginal Workers Household Industry worked for 0 - 3 moths during last year - Males": 30,
      "Total Workers  Females": 9250,
      "Marginal Workers worked for 3 - 6 moths during last year - Females": 2654,
      "Institutional Deliveries in percentage DLHS-4": 84.7,
      "Marginal Workers Other - Males": 2882,
      "Total Workers  Males": 33404,
      "Main Workers - Females": 6078,
      "Primary Gross Enrolment Ratio in percentage DISE": "NA",
      "Main Workers Cultivators - Persons": 1197,
      "Marginal Workers Household Industry worked for 0 - 3 moths during last year - Females": 22,
      "Upper Primary Net Enrolment Ratio in percentage DISE": "NA",
      "Primary New Government Schools since 2003 in percentage DISE": "NA",
      "Tier": "Urban",
      "Marginal Workers Household Industry - Females": 111,
      "Primary Schools with electricity in percentage DISE": "NA",
      "Main Workers Other - Persons": 31005,
      "Marginal Workers Household Industry worked for 3 - 6 moths during last year - Females": 89,
      "Main Workers Cultivators - Males": 1080,
      "Main Workers Household Industry - Persons": 1416,
      "Marginal Workers Cultivators worked for 0 - 3 moths during last year - Persons": 7,
      "Scheduled Caste Males": 10659,
      "Marginal Workers - Persons": 7179,
      "Deliveries at home conducted by skilled health personnel in percentage DLHS-4": 38.1,
      "Villages with Sub-Health Centres within 3km in percentage DLHS-4": "Not available",
      "Upper Primary New Government Schools since 2003 in percentage DISE": "NA",
      "0-6 Age Group Males": 7183,
      "Primary Schools with drinking water facility in percentage DISE": "NA",
      "Non Workers - Persons": 79333,
      "Person Literates": 88274,
      "State": "ODISHA",
      "Total Female Population": 59532,
      "Marginal Workers worked for 0 - 3 moths during last year - Persons": 1128,
      "Marginal Workers Cultivators - Females": 64,
      "Marginal Workers Other - Persons": 4942,
      "Sex Ratio": 953,
      "Scheduled Tribe Persons": 8681,
      "Marginal Workers Household Industry worked for 3 - 6 moths during last year - Males": 148,
      "Marginal Workers Agricultural Labourers - Females": 937,
      "Mean age at marriage for girls DLHS-4": "Not available",
      "Households with solar energy as main source of lighting  Houselisting and Housing Census Data Tables- District Level , Census of India__4": 76,
      "District": "KALAHANDI",
      "Households receiving treated tap water within premises in percentage Houselisting and Housing Census Data Tables- District Level , Census of India__1": 10.1247618,
      "Total Workers  Persons": 42654,
      "Households receiving treated tap water within premises  Houselisting and Housing Census Data Tables- District Level , Census of India__4": 2816,
      "Primary Female Teachers in percentage DISE": "NA",
      "Number of Households": 27947,
      "Main Workers Agricultural Labourers - Persons": 1857
    }
  ]
}