{
  "Total": [
    {
      "Marginal Workers Agricultural Labourers - Persons": 225437,
      "Marginal Workers Other - Females": 19217,
      "Marginal Workers Other worked for 0 - 3 moths during last year - Females": 6248,
      "Upper Primary Schools with boys toilet in percentage DISE": 73.3,
      "Total Population": 1801733,
      "Households with electricity as main source of lighting in percentage Houselisting and Housing Census Data Tables- District Level , Census of India": 29.96097179,
      "Primary Girl's Enrolment in percentage DISE": 48.7,
      "Marginal Workers worked for 3 - 6 moths during last year - Males": 110695,
      "Prevalence of Acute illness in percentage DLHS-4": "Not available",
      "Main Workers - Persons": 442497,
      "Main Workers Cultivators - Females": 16583,
      "Marginal Workers Agricultural Labourers worked for 3 - 6 moths during last year - Females": 121093,
      "Marginal Workers Other worked for 0 - 3 moths during last year - Males": 6159,
      "Upper Primary Schools with drinking water facility in percentage DISE": 100,
      "Primary Schools with girls toilet in percentage DISE": 67.4,
      "Marginal Workers worked for 3 - 6 moths during last year - Persons": 262422,
      "Upper Primary Drop Out Rate in percentage DISE": 0.07,
      "Prevalence of Anaemia in pregnant women aged 15-49years in percentage DLHS-4": "Not available",
      "Current use of any modern method of family planning in percentage DLHS-4": 41.8,
      "Marginal Workers Agricultural Labourers - Males": 77830,
      "Upper Primary Female Teachers in percentage DISE": 22.5,
      "Marginal Workers - Females": 188635,
      "Marginal Workers Other worked for 3 - 6 moths during last year - Persons": 37660,
      "Main Workers Agricultural Labourers - Females": 29852,
      "Marginal Workers Cultivators worked for 3 - 6 moths during last year - Females": 13263,
      "Households with no lighting  Houselisting and Housing Census Data Tables- District Level , Census of India__5": 3469,
      "Prevalence of Severe Anaemia  in percentage DLHS-4": "Not available",
      "Total unmet need for family planning in percentage DLHS-4": 15.4,
      "Main Workers Other - Males": 156842,
      "Children who received full vaccination in percentage DLHS-4": "Not available",
      "Marginal Workers Household Industry - Persons": 9307,
      "Primary Pupil-Teacher Ratio in percentage DISE": 26,
      "Marginal Workers Agricultural Labourers worked for 3 - 6 moths during last year - Males": 63223,
      "Scheduled Caste Females": 104673,
      "Marginal Workers Cultivators - Males": 23226,
      "Marginal Workers - Males": 135382,
      "Marginal Workers worked for 0 - 3 moths during last year - Females": 36908,
      "Households with main source of drinking water within premises in percentage Houselisting and Housing Census Data Tables- District Level , Census of India": 17.08289374,
      "Marginal Workers Household Industry worked for 3 - 6 moths during last year - Persons": 7235,
      "Upper Primary Girl's Enrolment in percentage DISE": 48.2,
      "Prevalence of Severe Anaemia in women aged 15-49years in percentage DLHS-4": "Not available",
      "Marginal Workers Agricultural Labourers worked for 0 - 3 moths during last year - Males": 14607,
      "Households with electricity as main source of lighting  Houselisting and Housing Census Data Tables- District Level , Census of India__3": 121830,
      "Households with computer or laptop with internet connection in percentage": 0.64,
      "PHCs functioning on a 24x7hours basis in percentage DLHS-4": "Not available",
      "Non Workers - Males": 408410,
      "Total Households in District Houselisting and Housing Census Data Tables- District Level , Census of India": 406629,
      "Upper Primary Schools with girls toilet in percentage DISE": 69.2,
      "Households with mobile phone in percentage": 30.98,
      "Households receiving untreated tap water within premises in percentage Houselisting and Housing Census Data Tables- District Level , Census of India__2": 0.363476289,
      "Marginal Workers Cultivators worked for 3 - 6 moths during last year - Males": 19948,
      "Prevalence of Anaemia  in percentage DLHS-4": "Not available",
      "Prevalence of Chronic illness in percentage DLHS-4": "Not available",
      "Households with solar energy as main source of lighting in percentage Houselisting and Housing Census Data Tables- District Level , Census of India__1": 0.497259172,
      "Marginal Workers Agricultural Labourers worked for 0 - 3 moths during last year - Females": 26514,
      "Main Workers - Males": 362695,
      "Female": 58.28,
      "Sno": 1325,
      "Marginal Workers Other worked for 3 - 6 moths during last year - Females": 12969,
      "Marginal Workers Cultivators worked for 0 - 3 moths during last year - Females": 2717,
      "Scheduled Tribe Males": 405927,
      "Male Illiterates": 301368,
      "Prevalence of Severe Anaemia in pregnant women aged 15-49years in percentage DLHS-4": "Not available",
      "0-6 Age Group Persons": 259403,
      "Upper Primary Student-Classroom Ratio in percentage DISE": 28,
      "Currently married men married below 21years of age in percentage DLHS-4": 7.9,
      "Male Literates": 605119,
      "Households with no lighting in percentage Houselisting and Housing Census Data Tables- District Level , Census of India__2": 0.853111805,
      "Primary Drop Out Rate in percentage DISE": 5.9,
      "Marginal Workers Household Industry - Males": 3476,
      "Female Illiterates": 447847,
      "Main Workers Other - Females": 30172,
      "Marginal Workers Cultivators - Persons": 39206,
      "Upper Primary Gross Enrolment Ratio in percentage DISE": 77.5,
      "Scheduled Caste Persons": 209357,
      "Marginal Workers Cultivators worked for 3 - 6 moths during last year - Persons": 33211,
      "Households with landline phone in percentage": 0.84,
      "Total Households in District  Houselisting and Housing Census Data Tables- District Level , Census of India": 406629,
      "Upper Primary Pupil-Teacher Ratio in percentage DISE": 27,
      "Primary Student-Classroom Ratio in percentage DISE": 26,
      "Primary Schools with boys toilet in percentage DISE": 88.5,
      "Mean number of children ever born to women aged 40-49years  DLHS-4": "Not available",
      "Households receiving untreated tap water within premises  Houselisting and Housing Census Data Tables- District Level , Census of India__5": 1478,
      "Marginal Workers Household Industry worked for 0 - 3 moths during last year - Persons": 2072,
      "Total Male Population": 906487,
      "Non Workers - Females": 626809,
      "Current use of family planning methods in percentage DLHS-4": 66,
      "Households with main source of drinking water within premises  Houselisting and Housing Census Data Tables- District Level , Census of India__3": 69464,
      "Main Workers Agricultural Labourers - Males": 54786,
      "Marginal Workers Other worked for 0 - 3 moths during last year - Persons": 12407,
      "Currently married women married below 18years of age in percentage DLHS-4": 6.1,
      "Person Illiterates": 749215,
      "Main Workers Household Industry - Females": 3195,
      "Female Literates": 447399,
      "Marginal Workers Cultivators worked for 0 - 3 moths during last year - Males": 3278,
      "Male": 78.12,
      "Households with improved source of drinking water in percentage DLHS-4": "Not available",
      "Upper Primary Schools with electricity in percentage DISE": 21.6,
      "Households with electricity in percentage DLHS-4": "Not available",
      "Villages with Primary Health Centre within 10km in percentage DLHS-4": "Not available",
      "Births to women aged 15-19years out of Total births in percentage DLHS-4": "Not available",
      "Prevalence of Anaemia in women aged 15-49years in percentage DLHS-4": "Not available",
      "Marginal Workers Agricultural Labourers worked for 3 - 6 moths during last year - Persons": 184316,
      "Main Workers Household Industry - Males": 8812,
      "Scheduled Tribe Females": 412951,
      "Marginal Workers worked for 0 - 3 moths during last year - Males": 24687,
      "Marginal Workers Other worked for 3 - 6 moths during last year - Males": 24691,
      "Primary Net Enrolment Ratio in percentage DISE": 92,
      "Total": 68.24,
      "Mean age at marriage for boys DLHS-4": 26.2,
      "Number of District Hospitals  DLHS-4": "Not available",
      "0-6 Age Group Females": 127518,
      "Marginal Workers Agricultural Labourers worked for 0 - 3 moths during last year - Persons": 41121,
      "Marginal Workers Household Industry worked for 0 - 3 moths during last year - Males": 643,
      "Total Workers  Females": 268437,
      "Marginal Workers worked for 3 - 6 moths during last year - Females": 151727,
      "Institutional Deliveries in percentage DLHS-4": 71.3,
      "Marginal Workers Other - Males": 30850,
      "Total Workers  Males": 498077,
      "Main Workers - Females": 79802,
      "Primary Gross Enrolment Ratio in percentage DISE": 105.8,
      "Main Workers Cultivators - Persons": 158838,
      "Marginal Workers Household Industry worked for 0 - 3 moths during last year - Females": 1429,
      "Upper Primary Net Enrolment Ratio in percentage DISE": 57,
      "Primary New Government Schools since 2003 in percentage DISE": 19.7,
      "Tier": "Total",
      "Marginal Workers Household Industry - Females": 5831,
      "Primary Schools with electricity in percentage DISE": 7.1,
      "Main Workers Other - Persons": 187014,
      "Marginal Workers Household Industry worked for 3 - 6 moths during last year - Females": 4402,
      "Main Workers Cultivators - Males": 142255,
      "Main Workers Household Industry - Persons": 12007,
      "Marginal Workers Cultivators worked for 0 - 3 moths during last year - Persons": 5995,
      "Scheduled Caste Males": 104684,
      "Marginal Workers - Persons": 324017,
      "Deliveries at home conducted by skilled health personnel in percentage DLHS-4": 22.2,
      "Villages with Sub-Health Centres within 3km in percentage DLHS-4": "Not available",
      "Upper Primary New Government Schools since 2003 in percentage DISE": 0.5,
      "0-6 Age Group Males": 131885,
      "Primary Schools with drinking water facility in percentage DISE": 100,
      "Non Workers - Persons": 1035219,
      "Person Literates": 1052518,
      "State": "ODISHA",
      "Total Female Population": 895246,
      "Marginal Workers worked for 0 - 3 moths during last year - Persons": 61595,
      "Marginal Workers Cultivators - Females": 15980,
      "Marginal Workers Other - Persons": 50067,
      "Sex Ratio": 988,
      "Scheduled Tribe Persons": 818878,
      "Marginal Workers Household Industry worked for 3 - 6 moths during last year - Males": 2833,
      "Marginal Workers Agricultural Labourers - Females": 147607,
      "Mean age at marriage for girls DLHS-4": 21.7,
      "Households with solar energy as main source of lighting  Houselisting and Housing Census Data Tables- District Level , Census of India__4": 2022,
      "District": "KENDUJHAR",
      "Households receiving treated tap water within premises in percentage Houselisting and Housing Census Data Tables- District Level , Census of India__1": 3.586069857,
      "Total Workers  Persons": 766514,
      "Households receiving treated tap water within premises  Houselisting and Housing Census Data Tables- District Level , Census of India__4": 14582,
      "Primary Female Teachers in percentage DISE": 39.1,
      "Number of Households": 405272,
      "Main Workers Agricultural Labourers - Persons": 84638
    }
  ],
  "Rural": [
    {
      "Marginal Workers Agricultural Labourers - Persons": 223753,
      "Marginal Workers Other - Females": 16687,
      "Marginal Workers Other worked for 0 - 3 moths during last year - Females": 5675,
      "Upper Primary Schools with boys toilet in percentage DISE": "NA",
      "Total Population": 1548674,
      "Households with electricity as main source of lighting in percentage Houselisting and Housing Census Data Tables- District Level , Census of India": 23.011929,
      "Primary Girl's Enrolment in percentage DISE": "NA",
      "Marginal Workers worked for 3 - 6 moths during last year - Males": 104842,
      "Prevalence of Acute illness in percentage DLHS-4": "Not available",
      "Main Workers - Persons": 368952,
      "Main Workers Cultivators - Females": 16467,
      "Marginal Workers Agricultural Labourers worked for 3 - 6 moths during last year - Females": 120502,
      "Marginal Workers Other worked for 0 - 3 moths during last year - Males": 5269,
      "Upper Primary Schools with drinking water facility in percentage DISE": "NA",
      "Primary Schools with girls toilet in percentage DISE": "NA",
      "Marginal Workers worked for 3 - 6 moths during last year - Persons": 253801,
      "Upper Primary Drop Out Rate in percentage DISE": "NA",
      "Prevalence of Anaemia in pregnant women aged 15-49years in percentage DLHS-4": "Not available",
      "Current use of any modern method of family planning in percentage DLHS-4": 41.2,
      "Marginal Workers Agricultural Labourers - Males": 76916,
      "Upper Primary Female Teachers in percentage DISE": "NA",
      "Marginal Workers - Females": 185052,
      "Marginal Workers Other worked for 3 - 6 moths during last year - Persons": 31135,
      "Main Workers Agricultural Labourers - Females": 29496,
      "Marginal Workers Cultivators worked for 3 - 6 moths during last year - Females": 13193,
      "Households with no lighting  Houselisting and Housing Census Data Tables- District Level , Census of India__5": 2718,
      "Prevalence of Severe Anaemia  in percentage DLHS-4": "Not available",
      "Total unmet need for family planning in percentage DLHS-4": 16.7,
      "Main Workers Other - Males": 99022,
      "Children who received full vaccination in percentage DLHS-4": "Not available",
      "Marginal Workers Household Industry - Persons": 8850,
      "Primary Pupil-Teacher Ratio in percentage DISE": "NA",
      "Marginal Workers Agricultural Labourers worked for 3 - 6 moths during last year - Males": 62432,
      "Scheduled Caste Females": 86630,
      "Marginal Workers Cultivators - Males": 22911,
      "Marginal Workers - Males": 128442,
      "Marginal Workers worked for 0 - 3 moths during last year - Females": 36093,
      "Households with main source of drinking water within premises in percentage Houselisting and Housing Census Data Tables- District Level , Census of India": 12.6412494,
      "Marginal Workers Household Industry worked for 3 - 6 moths during last year - Persons": 6879,
      "Upper Primary Girl's Enrolment in percentage DISE": "NA",
      "Prevalence of Severe Anaemia in women aged 15-49years in percentage DLHS-4": "Not available",
      "Marginal Workers Agricultural Labourers worked for 0 - 3 moths during last year - Males": 14484,
      "Households with electricity as main source of lighting  Houselisting and Housing Census Data Tables- District Level , Census of India__3": 80481,
      "Households with computer or laptop with internet connection in percentage": 0.26,
      "PHCs functioning on a 24x7hours basis in percentage DLHS-4": "Not available",
      "Non Workers - Males": 346622,
      "Total Households in District Houselisting and Housing Census Data Tables- District Level , Census of India": 349736,
      "Upper Primary Schools with girls toilet in percentage DISE": "NA",
      "Households with mobile phone in percentage": 26.73,
      "Households receiving untreated tap water within premises in percentage Houselisting and Housing Census Data Tables- District Level , Census of India__2": 0.178706224,
      "Marginal Workers Cultivators worked for 3 - 6 moths during last year - Males": 19660,
      "Prevalence of Anaemia  in percentage DLHS-4": "Not available",
      "Prevalence of Chronic illness in percentage DLHS-4": "Not available",
      "Households with solar energy as main source of lighting in percentage Houselisting and Housing Census Data Tables- District Level , Census of India__1": 0.55384633,
      "Marginal Workers Agricultural Labourers worked for 0 - 3 moths during last year - Females": 26335,
      "Main Workers - Males": 299603,
      "Female": "NA",
      "Sno": 1324,
      "Marginal Workers Other worked for 3 - 6 moths during last year - Females": 11012,
      "Marginal Workers Cultivators worked for 0 - 3 moths during last year - Females": 2708,
      "Scheduled Tribe Males": 376255,
      "Male Illiterates": 267351,
      "Prevalence of Severe Anaemia in pregnant women aged 15-49years in percentage DLHS-4": "Not available",
      "0-6 Age Group Persons": 224941,
      "Upper Primary Student-Classroom Ratio in percentage DISE": "NA",
      "Currently married men married below 21years of age in percentage DLHS-4": 9,
      "Male Literates": 507316,
      "Households with no lighting in percentage Houselisting and Housing Census Data Tables- District Level , Census of India__2": 0.777157627,
      "Primary Drop Out Rate in percentage DISE": "NA",
      "Marginal Workers Household Industry - Males": 3223,
      "Female Illiterates": 400634,
      "Main Workers Other - Females": 20797,
      "Marginal Workers Cultivators - Persons": 38812,
      "Upper Primary Gross Enrolment Ratio in percentage DISE": "NA",
      "Scheduled Caste Persons": 172913,
      "Marginal Workers Cultivators worked for 3 - 6 moths during last year - Persons": 32853,
      "Households with landline phone in percentage": 0.74,
      "Total Households in District  Houselisting and Housing Census Data Tables- District Level , Census of India": 349736,
      "Upper Primary Pupil-Teacher Ratio in percentage DISE": "NA",
      "Primary Student-Classroom Ratio in percentage DISE": "NA",
      "Primary Schools with boys toilet in percentage DISE": "NA",
      "Mean number of children ever born to women aged 40-49years  DLHS-4": "Not available",
      "Households receiving untreated tap water within premises  Houselisting and Housing Census Data Tables- District Level , Census of India__5": 625,
      "Marginal Workers Household Industry worked for 0 - 3 moths during last year - Persons": 1971,
      "Total Male Population": 774667,
      "Non Workers - Females": 519606,
      "Current use of family planning methods in percentage DLHS-4": 63.2,
      "Households with main source of drinking water within premises  Houselisting and Housing Census Data Tables- District Level , Census of India__3": 44211,
      "Main Workers Agricultural Labourers - Males": 53268,
      "Marginal Workers Other worked for 0 - 3 moths during last year - Persons": 10944,
      "Currently married women married below 18years of age in percentage DLHS-4": 6.7,
      "Person Illiterates": 667985,
      "Main Workers Household Industry - Females": 2589,
      "Female Literates": 373373,
      "Marginal Workers Cultivators worked for 0 - 3 moths during last year - Males": 3251,
      "Male": "NA",
      "Households with improved source of drinking water in percentage DLHS-4": "Not available",
      "Upper Primary Schools with electricity in percentage DISE": "NA",
      "Households with electricity in percentage DLHS-4": "Not available",
      "Villages with Primary Health Centre within 10km in percentage DLHS-4": "Not available",
      "Births to women aged 15-19years out of Total births in percentage DLHS-4": "Not available",
      "Prevalence of Anaemia in women aged 15-49years in percentage DLHS-4": "Not available",
      "Marginal Workers Agricultural Labourers worked for 3 - 6 moths during last year - Persons": 182934,
      "Main Workers Household Industry - Males": 7075,
      "Scheduled Tribe Females": 383682,
      "Marginal Workers worked for 0 - 3 moths during last year - Males": 23600,
      "Marginal Workers Other worked for 3 - 6 moths during last year - Males": 20123,
      "Primary Net Enrolment Ratio in percentage DISE": "NA",
      "Total": "NA",
      "Mean age at marriage for boys DLHS-4": 25.9,
      "Number of District Hospitals  DLHS-4": "Not available",
      "0-6 Age Group Females": 110830,
      "Marginal Workers Agricultural Labourers worked for 0 - 3 moths during last year - Persons": 40819,
      "Marginal Workers Household Industry worked for 0 - 3 moths during last year - Males": 596,
      "Total Workers  Females": 254401,
      "Marginal Workers worked for 3 - 6 moths during last year - Females": 148959,
      "Institutional Deliveries in percentage DLHS-4": 72.6,
      "Marginal Workers Other - Males": 25392,
      "Total Workers  Males": 428045,
      "Main Workers - Females": 69349,
      "Primary Gross Enrolment Ratio in percentage DISE": "NA",
      "Main Workers Cultivators - Persons": 156705,
      "Marginal Workers Household Industry worked for 0 - 3 moths during last year - Females": 1375,
      "Upper Primary Net Enrolment Ratio in percentage DISE": "NA",
      "Primary New Government Schools since 2003 in percentage DISE": "NA",
      "Tier": "Rural",
      "Marginal Workers Household Industry - Females": 5627,
      "Primary Schools with electricity in percentage DISE": "NA",
      "Main Workers Other - Persons": 119819,
      "Marginal Workers Household Industry worked for 3 - 6 moths during last year - Females": 4252,
      "Main Workers Cultivators - Males": 140238,
      "Main Workers Household Industry - Persons": 9664,
      "Marginal Workers Cultivators worked for 0 - 3 moths during last year - Persons": 5959,
      "Scheduled Caste Males": 86283,
      "Marginal Workers - Persons": 313494,
      "Deliveries at home conducted by skilled health personnel in percentage DLHS-4": 20.6,
      "Villages with Sub-Health Centres within 3km in percentage DLHS-4": "Not available",
      "Upper Primary New Government Schools since 2003 in percentage DISE": "NA",
      "0-6 Age Group Males": 114111,
      "Primary Schools with drinking water facility in percentage DISE": "NA",
      "Non Workers - Persons": 866228,
      "Person Literates": 880689,
      "State": "ODISHA",
      "Total Female Population": 774007,
      "Marginal Workers worked for 0 - 3 moths during last year - Persons": 59693,
      "Marginal Workers Cultivators - Females": 15901,
      "Marginal Workers Other - Persons": 42079,
      "Sex Ratio": 999,
      "Scheduled Tribe Persons": 759937,
      "Marginal Workers Household Industry worked for 3 - 6 moths during last year - Males": 2627,
      "Marginal Workers Agricultural Labourers - Females": 146837,
      "Mean age at marriage for girls DLHS-4": 21.6,
      "Households with solar energy as main source of lighting  Houselisting and Housing Census Data Tables- District Level , Census of India__4": 1937,
      "District": "KENDUJHAR",
      "Households receiving treated tap water within premises in percentage Houselisting and Housing Census Data Tables- District Level , Census of India__1": 0.68937713,
      "Total Workers  Persons": 682446,
      "Households receiving treated tap water within premises  Houselisting and Housing Census Data Tables- District Level , Census of India__4": 2411,
      "Primary Female Teachers in percentage DISE": "NA",
      "Number of Households": 348448,
      "Main Workers Agricultural Labourers - Persons": 82764
    }
  ],
  "Urban": [
    {
      "Marginal Workers Agricultural Labourers - Persons": 1684,
      "Marginal Workers Other - Females": 2530,
      "Marginal Workers Other worked for 0 - 3 moths during last year - Females": 573,
      "Upper Primary Schools with boys toilet in percentage DISE": "NA",
      "Total Population": 253059,
      "Households with electricity as main source of lighting in percentage Houselisting and Housing Census Data Tables- District Level , Census of India": 72.6785369,
      "Primary Girl's Enrolment in percentage DISE": "NA",
      "Marginal Workers worked for 3 - 6 moths during last year - Males": 5853,
      "Prevalence of Acute illness in percentage DLHS-4": "Not available",
      "Main Workers - Persons": 73545,
      "Main Workers Cultivators - Females": 116,
      "Marginal Workers Agricultural Labourers worked for 3 - 6 moths during last year - Females": 591,
      "Marginal Workers Other worked for 0 - 3 moths during last year - Males": 890,
      "Upper Primary Schools with drinking water facility in percentage DISE": "NA",
      "Primary Schools with girls toilet in percentage DISE": "NA",
      "Marginal Workers worked for 3 - 6 moths during last year - Persons": 8621,
      "Upper Primary Drop Out Rate in percentage DISE": "NA",
      "Prevalence of Anaemia in pregnant women aged 15-49years in percentage DLHS-4": "Not available",
      "Current use of any modern method of family planning in percentage DLHS-4": 44.1,
      "Marginal Workers Agricultural Labourers - Males": 914,
      "Upper Primary Female Teachers in percentage DISE": "NA",
      "Marginal Workers - Females": 3583,
      "Marginal Workers Other worked for 3 - 6 moths during last year - Persons": 6525,
      "Main Workers Agricultural Labourers - Females": 356,
      "Marginal Workers Cultivators worked for 3 - 6 moths during last year - Females": 70,
      "Households with no lighting  Houselisting and Housing Census Data Tables- District Level , Census of India__5": 751,
      "Prevalence of Severe Anaemia  in percentage DLHS-4": "Not available",
      "Total unmet need for family planning in percentage DLHS-4": 9.3,
      "Main Workers Other - Males": 57820,
      "Children who received full vaccination in percentage DLHS-4": "Not available",
      "Marginal Workers Household Industry - Persons": 457,
      "Primary Pupil-Teacher Ratio in percentage DISE": "NA",
      "Marginal Workers Agricultural Labourers worked for 3 - 6 moths during last year - Males": 791,
      "Scheduled Caste Females": 18043,
      "Marginal Workers Cultivators - Males": 315,
      "Marginal Workers - Males": 6940,
      "Marginal Workers worked for 0 - 3 moths during last year - Females": 815,
      "Households with main source of drinking water within premises in percentage Houselisting and Housing Census Data Tables- District Level , Census of India": 44.38683142,
      "Marginal Workers Household Industry worked for 3 - 6 moths during last year - Persons": 356,
      "Upper Primary Girl's Enrolment in percentage DISE": "NA",
      "Prevalence of Severe Anaemia in women aged 15-49years in percentage DLHS-4": "Not available",
      "Marginal Workers Agricultural Labourers worked for 0 - 3 moths during last year - Males": 123,
      "Households with electricity as main source of lighting  Houselisting and Housing Census Data Tables- District Level , Census of India__3": 41349,
      "Households with computer or laptop with internet connection in percentage": 3,
      "PHCs functioning on a 24x7hours basis in percentage DLHS-4": "Not available",
      "Non Workers - Males": 61788,
      "Total Households in District Houselisting and Housing Census Data Tables- District Level , Census of India": 56893,
      "Upper Primary Schools with girls toilet in percentage DISE": "NA",
      "Households with mobile phone in percentage": 57.14,
      "Households receiving untreated tap water within premises in percentage Houselisting and Housing Census Data Tables- District Level , Census of India__2": 1.499305714,
      "Marginal Workers Cultivators worked for 3 - 6 moths during last year - Males": 288,
      "Prevalence of Anaemia  in percentage DLHS-4": "Not available",
      "Prevalence of Chronic illness in percentage DLHS-4": "Not available",
      "Households with solar energy as main source of lighting in percentage Houselisting and Housing Census Data Tables- District Level , Census of India__1": 0.149403266,
      "Marginal Workers Agricultural Labourers worked for 0 - 3 moths during last year - Females": 179,
      "Main Workers - Males": 63092,
      "Female": "NA",
      "Sno": 1326,
      "Marginal Workers Other worked for 3 - 6 moths during last year - Females": 1957,
      "Marginal Workers Cultivators worked for 0 - 3 moths during last year - Females": 9,
      "Scheduled Tribe Males": 29672,
      "Male Illiterates": 34017,
      "Prevalence of Severe Anaemia in pregnant women aged 15-49years in percentage DLHS-4": "Not available",
      "0-6 Age Group Persons": 34462,
      "Upper Primary Student-Classroom Ratio in percentage DISE": "NA",
      "Currently married men married below 21years of age in percentage DLHS-4": 3.4,
      "Male Literates": 97803,
      "Households with no lighting in percentage Houselisting and Housing Census Data Tables- District Level , Census of India__2": 1.320021795,
      "Primary Drop Out Rate in percentage DISE": "NA",
      "Marginal Workers Household Industry - Males": 253,
      "Female Illiterates": 47213,
      "Main Workers Other - Females": 9375,
      "Marginal Workers Cultivators - Persons": 394,
      "Upper Primary Gross Enrolment Ratio in percentage DISE": "NA",
      "Scheduled Caste Persons": 36444,
      "Marginal Workers Cultivators worked for 3 - 6 moths during last year - Persons": 358,
      "Households with landline phone in percentage": 1.42,
      "Total Households in District  Houselisting and Housing Census Data Tables- District Level , Census of India": 56893,
      "Upper Primary Pupil-Teacher Ratio in percentage DISE": "NA",
      "Primary Student-Classroom Ratio in percentage DISE": "NA",
      "Primary Schools with boys toilet in percentage DISE": "NA",
      "Mean number of children ever born to women aged 40-49years  DLHS-4": "Not available",
      "Households receiving untreated tap water within premises  Houselisting and Housing Census Data Tables- District Level , Census of India__5": 853,
      "Marginal Workers Household Industry worked for 0 - 3 moths during last year - Persons": 101,
      "Total Male Population": 131820,
      "Non Workers - Females": 107203,
      "Current use of family planning methods in percentage DLHS-4": 79,
      "Households with main source of drinking water within premises  Houselisting and Housing Census Data Tables- District Level , Census of India__3": 25253,
      "Main Workers Agricultural Labourers - Males": 1518,
      "Marginal Workers Other worked for 0 - 3 moths during last year - Persons": 1463,
      "Currently married women married below 18years of age in percentage DLHS-4": 3.7,
      "Person Illiterates": 81230,
      "Main Workers Household Industry - Females": 606,
      "Female Literates": 74026,
      "Marginal Workers Cultivators worked for 0 - 3 moths during last year - Males": 27,
      "Male": "NA",
      "Households with improved source of drinking water in percentage DLHS-4": "Not available",
      "Upper Primary Schools with electricity in percentage DISE": "NA",
      "Households with electricity in percentage DLHS-4": "Not available",
      "Villages with Primary Health Centre within 10km in percentage DLHS-4": "Not available",
      "Births to women aged 15-19years out of Total births in percentage DLHS-4": "Not available",
      "Prevalence of Anaemia in women aged 15-49years in percentage DLHS-4": "Not available",
      "Marginal Workers Agricultural Labourers worked for 3 - 6 moths during last year - Persons": 1382,
      "Main Workers Household Industry - Males": 1737,
      "Scheduled Tribe Females": 29269,
      "Marginal Workers worked for 0 - 3 moths during last year - Males": 1087,
      "Marginal Workers Other worked for 3 - 6 moths during last year - Males": 4568,
      "Primary Net Enrolment Ratio in percentage DISE": "NA",
      "Total": "NA",
      "Mean age at marriage for boys DLHS-4": 27.7,
      "Number of District Hospitals  DLHS-4": "Not available",
      "0-6 Age Group Females": 16688,
      "Marginal Workers Agricultural Labourers worked for 0 - 3 moths during last year - Persons": 302,
      "Marginal Workers Household Industry worked for 0 - 3 moths during last year - Males": 47,
      "Total Workers  Females": 14036,
      "Marginal Workers worked for 3 - 6 moths during last year - Females": 2768,
      "Institutional Deliveries in percentage DLHS-4": 64.6,
      "Marginal Workers Other - Males": 5458,
      "Total Workers  Males": 70032,
      "Main Workers - Females": 10453,
      "Primary Gross Enrolment Ratio in percentage DISE": "NA",
      "Main Workers Cultivators - Persons": 2133,
      "Marginal Workers Household Industry worked for 0 - 3 moths during last year - Females": 54,
      "Upper Primary Net Enrolment Ratio in percentage DISE": "NA",
      "Primary New Government Schools since 2003 in percentage DISE": "NA",
      "Tier": "Urban",
      "Marginal Workers Household Industry - Females": 204,
      "Primary Schools with electricity in percentage DISE": "NA",
      "Main Workers Other - Persons": 67195,
      "Marginal Workers Household Industry worked for 3 - 6 moths during last year - Females": 150,
      "Main Workers Cultivators - Males": 2017,
      "Main Workers Household Industry - Persons": 2343,
      "Marginal Workers Cultivators worked for 0 - 3 moths during last year - Persons": 36,
      "Scheduled Caste Males": 18401,
      "Marginal Workers - Persons": 10523,
      "Deliveries at home conducted by skilled health personnel in percentage DLHS-4": 28.8,
      "Villages with Sub-Health Centres within 3km in percentage DLHS-4": "Not available",
      "Upper Primary New Government Schools since 2003 in percentage DISE": "NA",
      "0-6 Age Group Males": 17774,
      "Primary Schools with drinking water facility in percentage DISE": "NA",
      "Non Workers - Persons": 168991,
      "Person Literates": 171829,
      "State": "ODISHA",
      "Total Female Population": 121239,
      "Marginal Workers worked for 0 - 3 moths during last year - Persons": 1902,
      "Marginal Workers Cultivators - Females": 79,
      "Marginal Workers Other - Persons": 7988,
      "Sex Ratio": 920,
      "Scheduled Tribe Persons": 58941,
      "Marginal Workers Household Industry worked for 3 - 6 moths during last year - Males": 206,
      "Marginal Workers Agricultural Labourers - Females": 770,
      "Mean age at marriage for girls DLHS-4": 22.1,
      "Households with solar energy as main source of lighting  Houselisting and Housing Census Data Tables- District Level , Census of India__4": 85,
      "District": "KENDUJHAR",
      "Households receiving treated tap water within premises in percentage Houselisting and Housing Census Data Tables- District Level , Census of India__1": 21.39278997,
      "Total Workers  Persons": 84068,
      "Households receiving treated tap water within premises  Houselisting and Housing Census Data Tables- District Level , Census of India__4": 12171,
      "Primary Female Teachers in percentage DISE": "NA",
      "Number of Households": 56824,
      "Main Workers Agricultural Labourers - Persons": 1874
    }
  ]
}