{
  "Total": [
    {
      "Marginal Workers Agricultural Labourers - Persons": 52202,
      "Marginal Workers Other - Females": 31424,
      "Marginal Workers Other worked for 0 - 3 moths during last year - Females": 4186,
      "Upper Primary Schools with boys toilet in percentage DISE": 77,
      "Total Population": 2251673,
      "Households with electricity as main source of lighting in percentage Houselisting and Housing Census Data Tables- District Level , Census of India": 71.45307943,
      "Primary Girl's Enrolment in percentage DISE": 49.5,
      "Marginal Workers worked for 3 - 6 moths during last year - Males": 88544,
      "Prevalence of Acute illness in percentage DLHS-4": "Not available",
      "Main Workers - Persons": 632625,
      "Main Workers Cultivators - Females": 3528,
      "Marginal Workers Agricultural Labourers worked for 3 - 6 moths during last year - Females": 13287,
      "Marginal Workers Other worked for 0 - 3 moths during last year - Males": 6976,
      "Upper Primary Schools with drinking water facility in percentage DISE": 100,
      "Primary Schools with girls toilet in percentage DISE": 80.8,
      "Marginal Workers worked for 3 - 6 moths during last year - Persons": 135643,
      "Upper Primary Drop Out Rate in percentage DISE": 1.51,
      "Prevalence of Anaemia in pregnant women aged 15-49years in percentage DLHS-4": "Not available",
      "Current use of any modern method of family planning in percentage DLHS-4": 42.5,
      "Marginal Workers Agricultural Labourers - Males": 35197,
      "Upper Primary Female Teachers in percentage DISE": 41.9,
      "Marginal Workers - Females": 56866,
      "Marginal Workers Other worked for 3 - 6 moths during last year - Persons": 72930,
      "Main Workers Agricultural Labourers - Females": 9435,
      "Marginal Workers Cultivators worked for 3 - 6 moths during last year - Females": 2810,
      "Households with no lighting  Houselisting and Housing Census Data Tables- District Level , Census of India__5": 7859,
      "Prevalence of Severe Anaemia  in percentage DLHS-4": "Not available",
      "Total unmet need for family planning in percentage DLHS-4": 23.7,
      "Main Workers Other - Males": 387898,
      "Children who received full vaccination in percentage DLHS-4": "Not available",
      "Marginal Workers Household Industry - Persons": 10405,
      "Primary Pupil-Teacher Ratio in percentage DISE": 22,
      "Marginal Workers Agricultural Labourers worked for 3 - 6 moths during last year - Males": 30026,
      "Scheduled Caste Females": 145944,
      "Marginal Workers Cultivators - Males": 9285,
      "Marginal Workers - Males": 102702,
      "Marginal Workers worked for 0 - 3 moths during last year - Females": 9767,
      "Households with main source of drinking water within premises in percentage Houselisting and Housing Census Data Tables- District Level , Census of India": 47.17218505,
      "Marginal Workers Household Industry worked for 3 - 6 moths during last year - Persons": 8498,
      "Upper Primary Girl's Enrolment in percentage DISE": 50,
      "Prevalence of Severe Anaemia in women aged 15-49years in percentage DLHS-4": "Not available",
      "Marginal Workers Agricultural Labourers worked for 0 - 3 moths during last year - Males": 5171,
      "Households with electricity as main source of lighting  Houselisting and Housing Census Data Tables- District Level , Census of India__3": 349860,
      "Households with computer or laptop with internet connection in percentage": 7.29,
      "PHCs functioning on a 24x7hours basis in percentage DLHS-4": "Not available",
      "Non Workers - Males": 521257,
      "Total Households in District Houselisting and Housing Census Data Tables- District Level , Census of India": 489636,
      "Upper Primary Schools with girls toilet in percentage DISE": 75,
      "Households with mobile phone in percentage": 55.41,
      "Households receiving untreated tap water within premises in percentage Houselisting and Housing Census Data Tables- District Level , Census of India__2": 0.930895604,
      "Marginal Workers Cultivators worked for 3 - 6 moths during last year - Males": 8092,
      "Prevalence of Anaemia  in percentage DLHS-4": "Not available",
      "Prevalence of Chronic illness in percentage DLHS-4": "Not available",
      "Households with solar energy as main source of lighting in percentage Houselisting and Housing Census Data Tables- District Level , Census of India__1": 0.190345481,
      "Marginal Workers Agricultural Labourers worked for 0 - 3 moths during last year - Females": 3718,
      "Main Workers - Males": 543178,
      "Female": 81.61,
      "Sno": 1328,
      "Marginal Workers Other worked for 3 - 6 moths during last year - Females": 27238,
      "Marginal Workers Cultivators worked for 0 - 3 moths during last year - Females": 774,
      "Scheduled Tribe Males": 59094,
      "Male Illiterates": 209622,
      "Prevalence of Severe Anaemia in pregnant women aged 15-49years in percentage DLHS-4": "Not available",
      "0-6 Age Group Persons": 237394,
      "Upper Primary Student-Classroom Ratio in percentage DISE": 29,
      "Currently married men married below 21years of age in percentage DLHS-4": 2.6,
      "Male Literates": 957515,
      "Households with no lighting in percentage Houselisting and Housing Census Data Tables- District Level , Census of India__2": 1.605069889,
      "Primary Drop Out Rate in percentage DISE": "Not available",
      "Marginal Workers Household Industry - Males": 5552,
      "Female Illiterates": 292115,
      "Main Workers Other - Females": 71796,
      "Marginal Workers Cultivators - Persons": 12869,
      "Upper Primary Gross Enrolment Ratio in percentage DISE": 93.1,
      "Scheduled Caste Persons": 297472,
      "Marginal Workers Cultivators worked for 3 - 6 moths during last year - Persons": 10902,
      "Households with landline phone in percentage": 3.41,
      "Total Households in District  Houselisting and Housing Census Data Tables- District Level , Census of India": 489636,
      "Upper Primary Pupil-Teacher Ratio in percentage DISE": 30,
      "Primary Student-Classroom Ratio in percentage DISE": 21,
      "Primary Schools with boys toilet in percentage DISE": 69.2,
      "Mean number of children ever born to women aged 40-49years  DLHS-4": "Not available",
      "Households receiving untreated tap water within premises  Houselisting and Housing Census Data Tables- District Level , Census of India__5": 4558,
      "Marginal Workers Household Industry worked for 0 - 3 moths during last year - Persons": 1907,
      "Total Male Population": 1167137,
      "Non Workers - Females": 938223,
      "Current use of family planning methods in percentage DLHS-4": 63.8,
      "Households with main source of drinking water within premises  Houselisting and Housing Census Data Tables- District Level , Census of India__3": 230972,
      "Main Workers Agricultural Labourers - Males": 54637,
      "Marginal Workers Other worked for 0 - 3 moths during last year - Persons": 11162,
      "Currently married women married below 18years of age in percentage DLHS-4": 2,
      "Person Illiterates": 501737,
      "Main Workers Household Industry - Females": 4688,
      "Female Literates": 792421,
      "Marginal Workers Cultivators worked for 0 - 3 moths during last year - Males": 1193,
      "Male": 91.78,
      "Households with improved source of drinking water in percentage DLHS-4": "Not available",
      "Upper Primary Schools with electricity in percentage DISE": 38.2,
      "Households with electricity in percentage DLHS-4": "Not available",
      "Villages with Primary Health Centre within 10km in percentage DLHS-4": "Not available",
      "Births to women aged 15-19years out of Total births in percentage DLHS-4": "Not available",
      "Prevalence of Anaemia in women aged 15-49years in percentage DLHS-4": "Not available",
      "Marginal Workers Agricultural Labourers worked for 3 - 6 moths during last year - Persons": 43313,
      "Main Workers Household Industry - Males": 24378,
      "Scheduled Tribe Females": 55957,
      "Marginal Workers worked for 0 - 3 moths during last year - Males": 14158,
      "Marginal Workers Other worked for 3 - 6 moths during last year - Males": 45692,
      "Primary Net Enrolment Ratio in percentage DISE": 79.6,
      "Total": 86.88,
      "Mean age at marriage for boys DLHS-4": 28,
      "Number of District Hospitals  DLHS-4": "Not available",
      "0-6 Age Group Females": 113515,
      "Marginal Workers Agricultural Labourers worked for 0 - 3 moths during last year - Persons": 8889,
      "Marginal Workers Household Industry worked for 0 - 3 moths during last year - Males": 818,
      "Total Workers  Females": 146313,
      "Marginal Workers worked for 3 - 6 moths during last year - Females": 47099,
      "Institutional Deliveries in percentage DLHS-4": 92.9,
      "Marginal Workers Other - Males": 52668,
      "Total Workers  Males": 645880,
      "Main Workers - Females": 89447,
      "Primary Gross Enrolment Ratio in percentage DISE": 104,
      "Main Workers Cultivators - Persons": 79793,
      "Marginal Workers Household Industry worked for 0 - 3 moths during last year - Females": 1089,
      "Upper Primary Net Enrolment Ratio in percentage DISE": 63.6,
      "Primary New Government Schools since 2003 in percentage DISE": 16.6,
      "Tier": "Total",
      "Marginal Workers Household Industry - Females": 4853,
      "Primary Schools with electricity in percentage DISE": 21.3,
      "Main Workers Other - Persons": 459694,
      "Marginal Workers Household Industry worked for 3 - 6 moths during last year - Females": 3764,
      "Main Workers Cultivators - Males": 76265,
      "Main Workers Household Industry - Persons": 29066,
      "Marginal Workers Cultivators worked for 0 - 3 moths during last year - Persons": 1967,
      "Scheduled Caste Males": 151528,
      "Marginal Workers - Persons": 159568,
      "Deliveries at home conducted by skilled health personnel in percentage DLHS-4": 26.2,
      "Villages with Sub-Health Centres within 3km in percentage DLHS-4": "Not available",
      "Upper Primary New Government Schools since 2003 in percentage DISE": 2,
      "0-6 Age Group Males": 123879,
      "Primary Schools with drinking water facility in percentage DISE": 100,
      "Non Workers - Persons": 1459480,
      "Person Literates": 1749936,
      "State": "ODISHA",
      "Total Female Population": 1084536,
      "Marginal Workers worked for 0 - 3 moths during last year - Persons": 23925,
      "Marginal Workers Cultivators - Females": 3584,
      "Marginal Workers Other - Persons": 84092,
      "Sex Ratio": 929,
      "Scheduled Tribe Persons": 115051,
      "Marginal Workers Household Industry worked for 3 - 6 moths during last year - Males": 4734,
      "Marginal Workers Agricultural Labourers - Females": 17005,
      "Mean age at marriage for girls DLHS-4": 22.9,
      "Households with solar energy as main source of lighting  Houselisting and Housing Census Data Tables- District Level , Census of India__4": 932,
      "District": "KHORDHA",
      "Households receiving treated tap water within premises in percentage Houselisting and Housing Census Data Tables- District Level , Census of India__1": 20.2048052,
      "Total Workers  Persons": 792193,
      "Households receiving treated tap water within premises  Houselisting and Housing Census Data Tables- District Level , Census of India__4": 98930,
      "Primary Female Teachers in percentage DISE": 63.5,
      "Number of Households": 494212,
      "Main Workers Agricultural Labourers - Persons": 64072
    }
  ],
  "Rural": [
    {
      "Marginal Workers Agricultural Labourers - Persons": 48413,
      "Marginal Workers Other - Females": 14656,
      "Marginal Workers Other worked for 0 - 3 moths during last year - Females": 2916,
      "Upper Primary Schools with boys toilet in percentage DISE": "NA",
      "Total Population": 1167357,
      "Households with electricity as main source of lighting in percentage Houselisting and Housing Census Data Tables- District Level , Census of India": 57.26546745,
      "Primary Girl's Enrolment in percentage DISE": "NA",
      "Marginal Workers worked for 3 - 6 moths during last year - Males": 60641,
      "Prevalence of Acute illness in percentage DLHS-4": "Not available",
      "Main Workers - Persons": 291625,
      "Main Workers Cultivators - Females": 3037,
      "Marginal Workers Agricultural Labourers worked for 3 - 6 moths during last year - Females": 12346,
      "Marginal Workers Other worked for 0 - 3 moths during last year - Males": 4268,
      "Upper Primary Schools with drinking water facility in percentage DISE": "NA",
      "Primary Schools with girls toilet in percentage DISE": "NA",
      "Marginal Workers worked for 3 - 6 moths during last year - Persons": 89558,
      "Upper Primary Drop Out Rate in percentage DISE": "NA",
      "Prevalence of Anaemia in pregnant women aged 15-49years in percentage DLHS-4": "Not available",
      "Current use of any modern method of family planning in percentage DLHS-4": 44.7,
      "Marginal Workers Agricultural Labourers - Males": 32666,
      "Upper Primary Female Teachers in percentage DISE": "NA",
      "Marginal Workers - Females": 36838,
      "Marginal Workers Other worked for 3 - 6 moths during last year - Persons": 34408,
      "Main Workers Agricultural Labourers - Females": 8152,
      "Marginal Workers Cultivators worked for 3 - 6 moths during last year - Females": 2258,
      "Households with no lighting  Houselisting and Housing Census Data Tables- District Level , Census of India__5": 4759,
      "Prevalence of Severe Anaemia  in percentage DLHS-4": "Not available",
      "Total unmet need for family planning in percentage DLHS-4": 27.4,
      "Main Workers Other - Males": 128829,
      "Children who received full vaccination in percentage DLHS-4": "Not available",
      "Marginal Workers Household Industry - Persons": 6589,
      "Primary Pupil-Teacher Ratio in percentage DISE": "NA",
      "Marginal Workers Agricultural Labourers worked for 3 - 6 moths during last year - Males": 28073,
      "Scheduled Caste Females": 93644,
      "Marginal Workers Cultivators - Males": 8398,
      "Marginal Workers - Males": 71179,
      "Marginal Workers worked for 0 - 3 moths during last year - Females": 7921,
      "Households with main source of drinking water within premises in percentage Houselisting and Housing Census Data Tables- District Level , Census of India": 25.33758167,
      "Marginal Workers Household Industry worked for 3 - 6 moths during last year - Persons": 5228,
      "Upper Primary Girl's Enrolment in percentage DISE": "NA",
      "Prevalence of Severe Anaemia in women aged 15-49years in percentage DLHS-4": "Not available",
      "Marginal Workers Agricultural Labourers worked for 0 - 3 moths during last year - Males": 4593,
      "Households with electricity as main source of lighting  Houselisting and Housing Census Data Tables- District Level , Census of India__3": 141984,
      "Households with computer or laptop with internet connection in percentage": 0.81,
      "PHCs functioning on a 24x7hours basis in percentage DLHS-4": "Not available",
      "Non Workers - Males": 263283,
      "Total Households in District Houselisting and Housing Census Data Tables- District Level , Census of India": 247940,
      "Upper Primary Schools with girls toilet in percentage DISE": "NA",
      "Households with mobile phone in percentage": 46.41,
      "Households receiving untreated tap water within premises in percentage Houselisting and Housing Census Data Tables- District Level , Census of India__2": 0.306122449,
      "Marginal Workers Cultivators worked for 3 - 6 moths during last year - Males": 7245,
      "Prevalence of Anaemia  in percentage DLHS-4": "Not available",
      "Prevalence of Chronic illness in percentage DLHS-4": "Not available",
      "Households with solar energy as main source of lighting in percentage Houselisting and Housing Census Data Tables- District Level , Census of India__1": 0.206501573,
      "Marginal Workers Agricultural Labourers worked for 0 - 3 moths during last year - Females": 3401,
      "Main Workers - Males": 261347,
      "Female": "NA",
      "Sno": 1327,
      "Marginal Workers Other worked for 3 - 6 moths during last year - Females": 11740,
      "Marginal Workers Cultivators worked for 0 - 3 moths during last year - Females": 767,
      "Scheduled Tribe Males": 33817,
      "Male Illiterates": 124120,
      "Prevalence of Severe Anaemia in pregnant women aged 15-49years in percentage DLHS-4": "Not available",
      "0-6 Age Group Persons": 130977,
      "Upper Primary Student-Classroom Ratio in percentage DISE": "NA",
      "Currently married men married below 21years of age in percentage DLHS-4": 3,
      "Male Literates": 471689,
      "Households with no lighting in percentage Houselisting and Housing Census Data Tables- District Level , Census of India__2": 1.919415988,
      "Primary Drop Out Rate in percentage DISE": "NA",
      "Marginal Workers Household Industry - Males": 3179,
      "Female Illiterates": 183557,
      "Main Workers Other - Females": 17507,
      "Marginal Workers Cultivators - Persons": 11423,
      "Upper Primary Gross Enrolment Ratio in percentage DISE": "NA",
      "Scheduled Caste Persons": 189428,
      "Marginal Workers Cultivators worked for 3 - 6 moths during last year - Persons": 9503,
      "Households with landline phone in percentage": 2.07,
      "Total Households in District  Houselisting and Housing Census Data Tables- District Level , Census of India": 247940,
      "Upper Primary Pupil-Teacher Ratio in percentage DISE": "NA",
      "Primary Student-Classroom Ratio in percentage DISE": "NA",
      "Primary Schools with boys toilet in percentage DISE": "NA",
      "Mean number of children ever born to women aged 40-49years  DLHS-4": "Not available",
      "Households receiving untreated tap water within premises  Houselisting and Housing Census Data Tables- District Level , Census of India__5": 759,
      "Marginal Workers Household Industry worked for 0 - 3 moths during last year - Persons": 1361,
      "Total Male Population": 595809,
      "Non Workers - Females": 504432,
      "Current use of family planning methods in percentage DLHS-4": 59.3,
      "Households with main source of drinking water within premises  Houselisting and Housing Census Data Tables- District Level , Census of India__3": 62822,
      "Main Workers Agricultural Labourers - Males": 49942,
      "Marginal Workers Other worked for 0 - 3 moths during last year - Persons": 7184,
      "Currently married women married below 18years of age in percentage DLHS-4": 2.2,
      "Person Illiterates": 307677,
      "Main Workers Household Industry - Females": 1582,
      "Female Literates": 387991,
      "Marginal Workers Cultivators worked for 0 - 3 moths during last year - Males": 1153,
      "Male": "NA",
      "Households with improved source of drinking water in percentage DLHS-4": "Not available",
      "Upper Primary Schools with electricity in percentage DISE": "NA",
      "Households with electricity in percentage DLHS-4": "Not available",
      "Villages with Primary Health Centre within 10km in percentage DLHS-4": "Not available",
      "Births to women aged 15-19years out of Total births in percentage DLHS-4": "Not available",
      "Prevalence of Anaemia in women aged 15-49years in percentage DLHS-4": "Not available",
      "Marginal Workers Agricultural Labourers worked for 3 - 6 moths during last year - Persons": 40419,
      "Main Workers Household Industry - Males": 9580,
      "Scheduled Tribe Females": 33981,
      "Marginal Workers worked for 0 - 3 moths during last year - Males": 10538,
      "Marginal Workers Other worked for 3 - 6 moths during last year - Males": 22668,
      "Primary Net Enrolment Ratio in percentage DISE": "NA",
      "Total": "NA",
      "Mean age at marriage for boys DLHS-4": 27.4,
      "Number of District Hospitals  DLHS-4": "Not available",
      "0-6 Age Group Females": 62918,
      "Marginal Workers Agricultural Labourers worked for 0 - 3 moths during last year - Persons": 7994,
      "Marginal Workers Household Industry worked for 0 - 3 moths during last year - Males": 524,
      "Total Workers  Females": 67116,
      "Marginal Workers worked for 3 - 6 moths during last year - Females": 28917,
      "Institutional Deliveries in percentage DLHS-4": 94,
      "Marginal Workers Other - Males": 26936,
      "Total Workers  Males": 332526,
      "Main Workers - Females": 30278,
      "Primary Gross Enrolment Ratio in percentage DISE": "NA",
      "Main Workers Cultivators - Persons": 76033,
      "Marginal Workers Household Industry worked for 0 - 3 moths during last year - Females": 837,
      "Upper Primary Net Enrolment Ratio in percentage DISE": "NA",
      "Primary New Government Schools since 2003 in percentage DISE": "NA",
      "Tier": "Rural",
      "Marginal Workers Household Industry - Females": 3410,
      "Primary Schools with electricity in percentage DISE": "NA",
      "Main Workers Other - Persons": 146336,
      "Marginal Workers Household Industry worked for 3 - 6 moths during last year - Females": 2573,
      "Main Workers Cultivators - Males": 72996,
      "Main Workers Household Industry - Persons": 11162,
      "Marginal Workers Cultivators worked for 0 - 3 moths during last year - Persons": 1920,
      "Scheduled Caste Males": 95784,
      "Marginal Workers - Persons": 108017,
      "Deliveries at home conducted by skilled health personnel in percentage DLHS-4": 17.1,
      "Villages with Sub-Health Centres within 3km in percentage DLHS-4": "Not available",
      "Upper Primary New Government Schools since 2003 in percentage DISE": "NA",
      "0-6 Age Group Males": 68059,
      "Primary Schools with drinking water facility in percentage DISE": "NA",
      "Non Workers - Persons": 767715,
      "Person Literates": 859680,
      "State": "ODISHA",
      "Total Female Population": 571548,
      "Marginal Workers worked for 0 - 3 moths during last year - Persons": 18459,
      "Marginal Workers Cultivators - Females": 3025,
      "Marginal Workers Other - Persons": 41592,
      "Sex Ratio": 959,
      "Scheduled Tribe Persons": 67798,
      "Marginal Workers Household Industry worked for 3 - 6 moths during last year - Males": 2655,
      "Marginal Workers Agricultural Labourers - Females": 15747,
      "Mean age at marriage for girls DLHS-4": 22.4,
      "Households with solar energy as main source of lighting  Houselisting and Housing Census Data Tables- District Level , Census of India__4": 512,
      "District": "KHORDHA",
      "Households receiving treated tap water within premises in percentage Houselisting and Housing Census Data Tables- District Level , Census of India__1": 1.437444543,
      "Total Workers  Persons": 399642,
      "Households receiving treated tap water within premises  Houselisting and Housing Census Data Tables- District Level , Census of India__4": 3564,
      "Primary Female Teachers in percentage DISE": "NA",
      "Number of Households": 247304,
      "Main Workers Agricultural Labourers - Persons": 58094
    }
  ],
  "Urban": [
    {
      "Marginal Workers Agricultural Labourers - Persons": 3789,
      "Marginal Workers Other - Females": 16768,
      "Marginal Workers Other worked for 0 - 3 moths during last year - Females": 1270,
      "Upper Primary Schools with boys toilet in percentage DISE": "NA",
      "Total Population": 1084316,
      "Households with electricity as main source of lighting in percentage Houselisting and Housing Census Data Tables- District Level , Census of India": 86.00721568,
      "Primary Girl's Enrolment in percentage DISE": "NA",
      "Marginal Workers worked for 3 - 6 moths during last year - Males": 27903,
      "Prevalence of Acute illness in percentage DLHS-4": "Not available",
      "Main Workers - Persons": 341000,
      "Main Workers Cultivators - Females": 491,
      "Marginal Workers Agricultural Labourers worked for 3 - 6 moths during last year - Females": 941,
      "Marginal Workers Other worked for 0 - 3 moths during last year - Males": 2708,
      "Upper Primary Schools with drinking water facility in percentage DISE": "NA",
      "Primary Schools with girls toilet in percentage DISE": "NA",
      "Marginal Workers worked for 3 - 6 moths during last year - Persons": 46085,
      "Upper Primary Drop Out Rate in percentage DISE": "NA",
      "Prevalence of Anaemia in pregnant women aged 15-49years in percentage DLHS-4": "Not available",
      "Current use of any modern method of family planning in percentage DLHS-4": 40.1,
      "Marginal Workers Agricultural Labourers - Males": 2531,
      "Upper Primary Female Teachers in percentage DISE": "NA",
      "Marginal Workers - Females": 20028,
      "Marginal Workers Other worked for 3 - 6 moths during last year - Persons": 38522,
      "Main Workers Agricultural Labourers - Females": 1283,
      "Marginal Workers Cultivators worked for 3 - 6 moths during last year - Females": 552,
      "Households with no lighting  Houselisting and Housing Census Data Tables- District Level , Census of India__5": 3100,
      "Prevalence of Severe Anaemia  in percentage DLHS-4": "Not available",
      "Total unmet need for family planning in percentage DLHS-4": 19.5,
      "Main Workers Other - Males": 259069,
      "Children who received full vaccination in percentage DLHS-4": "Not available",
      "Marginal Workers Household Industry - Persons": 3816,
      "Primary Pupil-Teacher Ratio in percentage DISE": "NA",
      "Marginal Workers Agricultural Labourers worked for 3 - 6 moths during last year - Males": 1953,
      "Scheduled Caste Females": 52300,
      "Marginal Workers Cultivators - Males": 887,
      "Marginal Workers - Males": 31523,
      "Marginal Workers worked for 0 - 3 moths during last year - Females": 1846,
      "Households with main source of drinking water within premises in percentage Houselisting and Housing Census Data Tables- District Level , Census of India": 69.57086588,
      "Marginal Workers Household Industry worked for 3 - 6 moths during last year - Persons": 3270,
      "Upper Primary Girl's Enrolment in percentage DISE": "NA",
      "Prevalence of Severe Anaemia in women aged 15-49years in percentage DLHS-4": "Not available",
      "Marginal Workers Agricultural Labourers worked for 0 - 3 moths during last year - Males": 578,
      "Households with electricity as main source of lighting  Houselisting and Housing Census Data Tables- District Level , Census of India__3": 207876,
      "Households with computer or laptop with internet connection in percentage": 13.94,
      "PHCs functioning on a 24x7hours basis in percentage DLHS-4": "Not available",
      "Non Workers - Males": 257974,
      "Total Households in District Houselisting and Housing Census Data Tables- District Level , Census of India": 241696,
      "Upper Primary Schools with girls toilet in percentage DISE": "NA",
      "Households with mobile phone in percentage": 64.64,
      "Households receiving untreated tap water within premises in percentage Houselisting and Housing Census Data Tables- District Level , Census of India__2": 1.571809215,
      "Marginal Workers Cultivators worked for 3 - 6 moths during last year - Males": 847,
      "Prevalence of Anaemia  in percentage DLHS-4": "Not available",
      "Prevalence of Chronic illness in percentage DLHS-4": "Not available",
      "Households with solar energy as main source of lighting in percentage Houselisting and Housing Census Data Tables- District Level , Census of India__1": 0.173772011,
      "Marginal Workers Agricultural Labourers worked for 0 - 3 moths during last year - Females": 317,
      "Main Workers - Males": 281831,
      "Female": "NA",
      "Sno": 1329,
      "Marginal Workers Other worked for 3 - 6 moths during last year - Females": 15498,
      "Marginal Workers Cultivators worked for 0 - 3 moths during last year - Females": 7,
      "Scheduled Tribe Males": 25277,
      "Male Illiterates": 85502,
      "Prevalence of Severe Anaemia in pregnant women aged 15-49years in percentage DLHS-4": "Not available",
      "0-6 Age Group Persons": 106417,
      "Upper Primary Student-Classroom Ratio in percentage DISE": "NA",
      "Currently married men married below 21years of age in percentage DLHS-4": 2,
      "Male Literates": 485826,
      "Households with no lighting in percentage Houselisting and Housing Census Data Tables- District Level , Census of India__2": 1.282602939,
      "Primary Drop Out Rate in percentage DISE": "NA",
      "Marginal Workers Household Industry - Males": 2373,
      "Female Illiterates": 108558,
      "Main Workers Other - Females": 54289,
      "Marginal Workers Cultivators - Persons": 1446,
      "Upper Primary Gross Enrolment Ratio in percentage DISE": "NA",
      "Scheduled Caste Persons": 108044,
      "Marginal Workers Cultivators worked for 3 - 6 moths during last year - Persons": 1399,
      "Households with landline phone in percentage": 4.78,
      "Total Households in District  Houselisting and Housing Census Data Tables- District Level , Census of India": 241696,
      "Upper Primary Pupil-Teacher Ratio in percentage DISE": "NA",
      "Primary Student-Classroom Ratio in percentage DISE": "NA",
      "Primary Schools with boys toilet in percentage DISE": "NA",
      "Mean number of children ever born to women aged 40-49years  DLHS-4": "Not available",
      "Households receiving untreated tap water within premises  Houselisting and Housing Census Data Tables- District Level , Census of India__5": 3799,
      "Marginal Workers Household Industry worked for 0 - 3 moths during last year - Persons": 546,
      "Total Male Population": 571328,
      "Non Workers - Females": 433791,
      "Current use of family planning methods in percentage DLHS-4": 68.7,
      "Households with main source of drinking water within premises  Houselisting and Housing Census Data Tables- District Level , Census of India__3": 168150,
      "Main Workers Agricultural Labourers - Males": 4695,
      "Marginal Workers Other worked for 0 - 3 moths during last year - Persons": 3978,
      "Currently married women married below 18years of age in percentage DLHS-4": 1.7,
      "Person Illiterates": 194060,
      "Main Workers Household Industry - Females": 3106,
      "Female Literates": 404430,
      "Marginal Workers Cultivators worked for 0 - 3 moths during last year - Males": 40,
      "Male": "NA",
      "Households with improved source of drinking water in percentage DLHS-4": "Not available",
      "Upper Primary Schools with electricity in percentage DISE": "NA",
      "Households with electricity in percentage DLHS-4": "Not available",
      "Villages with Primary Health Centre within 10km in percentage DLHS-4": "Not available",
      "Births to women aged 15-19years out of Total births in percentage DLHS-4": "Not available",
      "Prevalence of Anaemia in women aged 15-49years in percentage DLHS-4": "Not available",
      "Marginal Workers Agricultural Labourers worked for 3 - 6 moths during last year - Persons": 2894,
      "Main Workers Household Industry - Males": 14798,
      "Scheduled Tribe Females": 21976,
      "Marginal Workers worked for 0 - 3 moths during last year - Males": 3620,
      "Marginal Workers Other worked for 3 - 6 moths during last year - Males": 23024,
      "Primary Net Enrolment Ratio in percentage DISE": "NA",
      "Total": "NA",
      "Mean age at marriage for boys DLHS-4": 28.7,
      "Number of District Hospitals  DLHS-4": "Not available",
      "0-6 Age Group Females": 50597,
      "Marginal Workers Agricultural Labourers worked for 0 - 3 moths during last year - Persons": 895,
      "Marginal Workers Household Industry worked for 0 - 3 moths during last year - Males": 294,
      "Total Workers  Females": 79197,
      "Marginal Workers worked for 3 - 6 moths during last year - Females": 18182,
      "Institutional Deliveries in percentage DLHS-4": 91.1,
      "Marginal Workers Other - Males": 25732,
      "Total Workers  Males": 313354,
      "Main Workers - Females": 59169,
      "Primary Gross Enrolment Ratio in percentage DISE": "NA",
      "Main Workers Cultivators - Persons": 3760,
      "Marginal Workers Household Industry worked for 0 - 3 moths during last year - Females": 252,
      "Upper Primary Net Enrolment Ratio in percentage DISE": "NA",
      "Primary New Government Schools since 2003 in percentage DISE": "NA",
      "Tier": "Urban",
      "Marginal Workers Household Industry - Females": 1443,
      "Primary Schools with electricity in percentage DISE": "NA",
      "Main Workers Other - Persons": 313358,
      "Marginal Workers Household Industry worked for 3 - 6 moths during last year - Females": 1191,
      "Main Workers Cultivators - Males": 3269,
      "Main Workers Household Industry - Persons": 17904,
      "Marginal Workers Cultivators worked for 0 - 3 moths during last year - Persons": 47,
      "Scheduled Caste Males": 55744,
      "Marginal Workers - Persons": 51551,
      "Deliveries at home conducted by skilled health personnel in percentage DLHS-4": 36.2,
      "Villages with Sub-Health Centres within 3km in percentage DLHS-4": "Not available",
      "Upper Primary New Government Schools since 2003 in percentage DISE": "NA",
      "0-6 Age Group Males": 55820,
      "Primary Schools with drinking water facility in percentage DISE": "NA",
      "Non Workers - Persons": 691765,
      "Person Literates": 890256,
      "State": "ODISHA",
      "Total Female Population": 512988,
      "Marginal Workers worked for 0 - 3 moths during last year - Persons": 5466,
      "Marginal Workers Cultivators - Females": 559,
      "Marginal Workers Other - Persons": 42500,
      "Sex Ratio": 898,
      "Scheduled Tribe Persons": 47253,
      "Marginal Workers Household Industry worked for 3 - 6 moths during last year - Males": 2079,
      "Marginal Workers Agricultural Labourers - Females": 1258,
      "Mean age at marriage for girls DLHS-4": 23.6,
      "Households with solar energy as main source of lighting  Houselisting and Housing Census Data Tables- District Level , Census of India__4": 420,
      "District": "KHORDHA",
      "Households receiving treated tap water within premises in percentage Houselisting and Housing Census Data Tables- District Level , Census of India__1": 39.45700384,
      "Total Workers  Persons": 392551,
      "Households receiving treated tap water within premises  Houselisting and Housing Census Data Tables- District Level , Census of India__4": 95366,
      "Primary Female Teachers in percentage DISE": "NA",
      "Number of Households": 246908,
      "Main Workers Agricultural Labourers - Persons": 5978
    }
  ]
}