{
  "Total": [
    {
      "Marginal Workers Agricultural Labourers - Persons": 201462,
      "Marginal Workers Other - Females": 22506,
      "Marginal Workers Other worked for 0 - 3 moths during last year - Females": 5067,
      "Upper Primary Schools with boys toilet in percentage DISE": 96.7,
      "Total Population": 1379647,
      "Households with electricity as main source of lighting in percentage Houselisting and Housing Census Data Tables- District Level , Census of India": 25.35917565,
      "Primary Girl's Enrolment in percentage DISE": 49.4,
      "Marginal Workers worked for 3 - 6 moths during last year - Males": 82553,
      "Prevalence of Acute illness in percentage DLHS-4": "Not available",
      "Main Workers - Persons": 396460,
      "Main Workers Cultivators - Females": 36546,
      "Marginal Workers Agricultural Labourers worked for 3 - 6 moths during last year - Females": 124586,
      "Marginal Workers Other worked for 0 - 3 moths during last year - Males": 3562,
      "Upper Primary Schools with drinking water facility in percentage DISE": 90,
      "Primary Schools with girls toilet in percentage DISE": 98.9,
      "Marginal Workers worked for 3 - 6 moths during last year - Persons": 250711,
      "Upper Primary Drop Out Rate in percentage DISE": 4.21,
      "Prevalence of Anaemia in pregnant women aged 15-49years in percentage DLHS-4": "Not available",
      "Current use of any modern method of family planning in percentage DLHS-4": 33.6,
      "Marginal Workers Agricultural Labourers - Males": 56618,
      "Upper Primary Female Teachers in percentage DISE": 61,
      "Marginal Workers - Females": 198894,
      "Marginal Workers Other worked for 3 - 6 moths during last year - Persons": 33799,
      "Main Workers Agricultural Labourers - Females": 39199,
      "Marginal Workers Cultivators worked for 3 - 6 moths during last year - Females": 22621,
      "Households with no lighting  Houselisting and Housing Census Data Tables- District Level , Census of India__5": 2714,
      "Prevalence of Severe Anaemia  in percentage DLHS-4": "Not available",
      "Total unmet need for family planning in percentage DLHS-4": 44.1,
      "Main Workers Other - Males": 106133,
      "Children who received full vaccination in percentage DLHS-4": "Not available",
      "Marginal Workers Household Industry - Persons": 6630,
      "Primary Pupil-Teacher Ratio in percentage DISE": 24,
      "Marginal Workers Agricultural Labourers worked for 3 - 6 moths during last year - Males": 48852,
      "Scheduled Caste Females": 99751,
      "Marginal Workers Cultivators - Males": 19314,
      "Marginal Workers - Males": 98052,
      "Marginal Workers worked for 0 - 3 moths during last year - Females": 30736,
      "Households with main source of drinking water within premises in percentage Houselisting and Housing Census Data Tables- District Level , Census of India": 13.68755636,
      "Marginal Workers Household Industry worked for 3 - 6 moths during last year - Persons": 5332,
      "Upper Primary Girl's Enrolment in percentage DISE": 49.6,
      "Prevalence of Severe Anaemia in women aged 15-49years in percentage DLHS-4": "Not available",
      "Marginal Workers Agricultural Labourers worked for 0 - 3 moths during last year - Males": 7766,
      "Households with electricity as main source of lighting  Houselisting and Housing Census Data Tables- District Level , Census of India__3": 85766,
      "Households with computer or laptop with internet connection in percentage": 1.18,
      "PHCs functioning on a 24x7hours basis in percentage DLHS-4": "Not available",
      "Non Workers - Males": 294756,
      "Total Households in District Houselisting and Housing Census Data Tables- District Level , Census of India": 338205,
      "Upper Primary Schools with girls toilet in percentage DISE": 100,
      "Households with mobile phone in percentage": 21.55,
      "Households receiving untreated tap water within premises in percentage Houselisting and Housing Census Data Tables- District Level , Census of India__2": 0.503540752,
      "Marginal Workers Cultivators worked for 3 - 6 moths during last year - Males": 15521,
      "Prevalence of Anaemia  in percentage DLHS-4": "Not available",
      "Prevalence of Chronic illness in percentage DLHS-4": "Not available",
      "Households with solar energy as main source of lighting in percentage Houselisting and Housing Census Data Tables- District Level , Census of India__1": 0.458301917,
      "Marginal Workers Agricultural Labourers worked for 0 - 3 moths during last year - Females": 20258,
      "Main Workers - Males": 286001,
      "Female": 38.55,
      "Sno": 1331,
      "Marginal Workers Other worked for 3 - 6 moths during last year - Females": 17439,
      "Marginal Workers Cultivators worked for 0 - 3 moths during last year - Females": 4491,
      "Scheduled Tribe Males": 337373,
      "Male Illiterates": 337966,
      "Prevalence of Severe Anaemia in pregnant women aged 15-49years in percentage DLHS-4": "Not available",
      "0-6 Age Group Persons": 225126,
      "Upper Primary Student-Classroom Ratio in percentage DISE": 35,
      "Currently married men married below 21years of age in percentage DLHS-4": 25.7,
      "Male Literates": 340843,
      "Households with no lighting in percentage Houselisting and Housing Census Data Tables- District Level , Census of India__2": 0.802471874,
      "Primary Drop Out Rate in percentage DISE": 7.3,
      "Marginal Workers Household Industry - Males": 2198,
      "Female Illiterates": 473591,
      "Main Workers Other - Females": 32609,
      "Marginal Workers Cultivators - Persons": 46426,
      "Upper Primary Gross Enrolment Ratio in percentage DISE": 60.8,
      "Scheduled Caste Persons": 196540,
      "Marginal Workers Cultivators worked for 3 - 6 moths during last year - Persons": 38142,
      "Households with landline phone in percentage": 1.43,
      "Total Households in District  Houselisting and Housing Census Data Tables- District Level , Census of India": 338205,
      "Upper Primary Pupil-Teacher Ratio in percentage DISE": 31,
      "Primary Student-Classroom Ratio in percentage DISE": 23,
      "Primary Schools with boys toilet in percentage DISE": 100.1,
      "Mean number of children ever born to women aged 40-49years  DLHS-4": "Not available",
      "Households receiving untreated tap water within premises  Houselisting and Housing Census Data Tables- District Level , Census of India__5": 1703,
      "Marginal Workers Household Industry worked for 0 - 3 moths during last year - Persons": 1298,
      "Total Male Population": 678809,
      "Non Workers - Females": 391485,
      "Current use of family planning methods in percentage DLHS-4": 40.3,
      "Households with main source of drinking water within premises  Houselisting and Housing Census Data Tables- District Level , Census of India__3": 46292,
      "Main Workers Agricultural Labourers - Males": 49965,
      "Marginal Workers Other worked for 0 - 3 moths during last year - Persons": 8629,
      "Currently married women married below 18years of age in percentage DLHS-4": 14.7,
      "Person Illiterates": 811557,
      "Main Workers Household Industry - Females": 2105,
      "Female Literates": 227247,
      "Marginal Workers Cultivators worked for 0 - 3 moths during last year - Males": 3793,
      "Male": 60.32,
      "Households with improved source of drinking water in percentage DLHS-4": "Not available",
      "Upper Primary Schools with electricity in percentage DISE": 36.7,
      "Households with electricity in percentage DLHS-4": "Not available",
      "Villages with Primary Health Centre within 10km in percentage DLHS-4": "Not available",
      "Births to women aged 15-19years out of Total births in percentage DLHS-4": "Not available",
      "Prevalence of Anaemia in women aged 15-49years in percentage DLHS-4": "Not available",
      "Marginal Workers Agricultural Labourers worked for 3 - 6 moths during last year - Persons": 173438,
      "Main Workers Household Industry - Males": 5681,
      "Scheduled Tribe Females": 360210,
      "Marginal Workers worked for 0 - 3 moths during last year - Males": 15499,
      "Marginal Workers Other worked for 3 - 6 moths during last year - Males": 16360,
      "Primary Net Enrolment Ratio in percentage DISE": 87.8,
      "Total": 49.21,
      "Mean age at marriage for boys DLHS-4": 24,
      "Number of District Hospitals  DLHS-4": "Not available",
      "0-6 Age Group Females": 111384,
      "Marginal Workers Agricultural Labourers worked for 0 - 3 moths during last year - Persons": 28024,
      "Marginal Workers Household Industry worked for 0 - 3 moths during last year - Males": 378,
      "Total Workers  Females": 309353,
      "Marginal Workers worked for 3 - 6 moths during last year - Females": 168158,
      "Institutional Deliveries in percentage DLHS-4": 53.4,
      "Marginal Workers Other - Males": 19922,
      "Total Workers  Males": 384053,
      "Main Workers - Females": 110459,
      "Primary Gross Enrolment Ratio in percentage DISE": 102.9,
      "Main Workers Cultivators - Persons": 160768,
      "Marginal Workers Household Industry worked for 0 - 3 moths during last year - Females": 920,
      "Upper Primary Net Enrolment Ratio in percentage DISE": 44.6,
      "Primary New Government Schools since 2003 in percentage DISE": 36.8,
      "Tier": "Total",
      "Marginal Workers Household Industry - Females": 4432,
      "Primary Schools with electricity in percentage DISE": 6.6,
      "Main Workers Other - Persons": 138742,
      "Marginal Workers Household Industry worked for 3 - 6 moths during last year - Females": 3512,
      "Main Workers Cultivators - Males": 124222,
      "Main Workers Household Industry - Persons": 7786,
      "Marginal Workers Cultivators worked for 0 - 3 moths during last year - Persons": 8284,
      "Scheduled Caste Males": 96789,
      "Marginal Workers - Persons": 296946,
      "Deliveries at home conducted by skilled health personnel in percentage DLHS-4": 33.1,
      "Villages with Sub-Health Centres within 3km in percentage DLHS-4": "Not available",
      "Upper Primary New Government Schools since 2003 in percentage DISE": 0,
      "0-6 Age Group Males": 113742,
      "Primary Schools with drinking water facility in percentage DISE": 90.4,
      "Non Workers - Persons": 686241,
      "Person Literates": 568090,
      "State": "ODISHA",
      "Total Female Population": 700838,
      "Marginal Workers worked for 0 - 3 moths during last year - Persons": 46235,
      "Marginal Workers Cultivators - Females": 27112,
      "Marginal Workers Other - Persons": 42428,
      "Sex Ratio": 1032,
      "Scheduled Tribe Persons": 697583,
      "Marginal Workers Household Industry worked for 3 - 6 moths during last year - Males": 1820,
      "Marginal Workers Agricultural Labourers - Females": 144844,
      "Mean age at marriage for girls DLHS-4": 20.8,
      "Households with solar energy as main source of lighting  Houselisting and Housing Census Data Tables- District Level , Census of India__4": 1550,
      "District": "KORAPUT",
      "Households receiving treated tap water within premises in percentage Houselisting and Housing Census Data Tables- District Level , Census of India__1": 6.927159563,
      "Total Workers  Persons": 693406,
      "Households receiving treated tap water within premises  Houselisting and Housing Census Data Tables- District Level , Census of India__4": 23428,
      "Primary Female Teachers in percentage DISE": 37.5,
      "Number of Households": 337677,
      "Main Workers Agricultural Labourers - Persons": 89164
    }
  ],
  "Rural": [
    {
      "Marginal Workers Agricultural Labourers - Persons": 199956,
      "Marginal Workers Other - Females": 19475,
      "Marginal Workers Other worked for 0 - 3 moths during last year - Females": 4617,
      "Upper Primary Schools with boys toilet in percentage DISE": "NA",
      "Total Population": 1153478,
      "Households with electricity as main source of lighting in percentage Houselisting and Housing Census Data Tables- District Level , Census of India": 14.93781788,
      "Primary Girl's Enrolment in percentage DISE": "NA",
      "Marginal Workers worked for 3 - 6 moths during last year - Males": 78407,
      "Prevalence of Acute illness in percentage DLHS-4": "Not available",
      "Main Workers - Persons": 323033,
      "Main Workers Cultivators - Females": 35958,
      "Marginal Workers Agricultural Labourers worked for 3 - 6 moths during last year - Females": 123849,
      "Marginal Workers Other worked for 0 - 3 moths during last year - Males": 3153,
      "Upper Primary Schools with drinking water facility in percentage DISE": "NA",
      "Primary Schools with girls toilet in percentage DISE": "NA",
      "Marginal Workers worked for 3 - 6 moths during last year - Persons": 242744,
      "Upper Primary Drop Out Rate in percentage DISE": "NA",
      "Prevalence of Anaemia in pregnant women aged 15-49years in percentage DLHS-4": "Not available",
      "Current use of any modern method of family planning in percentage DLHS-4": 35.3,
      "Marginal Workers Agricultural Labourers - Males": 56145,
      "Upper Primary Female Teachers in percentage DISE": "NA",
      "Marginal Workers - Females": 194215,
      "Marginal Workers Other worked for 3 - 6 moths during last year - Persons": 27833,
      "Main Workers Agricultural Labourers - Females": 38664,
      "Marginal Workers Cultivators worked for 3 - 6 moths during last year - Females": 22410,
      "Households with no lighting  Houselisting and Housing Census Data Tables- District Level , Census of India__5": 2180,
      "Prevalence of Severe Anaemia  in percentage DLHS-4": "Not available",
      "Total unmet need for family planning in percentage DLHS-4": 40.5,
      "Main Workers Other - Males": 52347,
      "Children who received full vaccination in percentage DLHS-4": "Not available",
      "Marginal Workers Household Industry - Persons": 6042,
      "Primary Pupil-Teacher Ratio in percentage DISE": "NA",
      "Marginal Workers Agricultural Labourers worked for 3 - 6 moths during last year - Males": 48469,
      "Scheduled Caste Females": 81661,
      "Marginal Workers Cultivators - Males": 19122,
      "Marginal Workers - Males": 93365,
      "Marginal Workers worked for 0 - 3 moths during last year - Females": 29878,
      "Households with main source of drinking water within premises in percentage Houselisting and Housing Census Data Tables- District Level , Census of India": 5.59533299,
      "Marginal Workers Household Industry worked for 3 - 6 moths during last year - Persons": 4835,
      "Upper Primary Girl's Enrolment in percentage DISE": "NA",
      "Prevalence of Severe Anaemia in women aged 15-49years in percentage DLHS-4": "Not available",
      "Marginal Workers Agricultural Labourers worked for 0 - 3 moths during last year - Males": 7676,
      "Households with electricity as main source of lighting  Houselisting and Housing Census Data Tables- District Level , Census of India__3": 42352,
      "Households with computer or laptop with internet connection in percentage": 0.25,
      "PHCs functioning on a 24x7hours basis in percentage DLHS-4": "Not available",
      "Non Workers - Males": 242381,
      "Total Households in District Houselisting and Housing Census Data Tables- District Level , Census of India": 283522,
      "Upper Primary Schools with girls toilet in percentage DISE": "NA",
      "Households with mobile phone in percentage": 14.89,
      "Households receiving untreated tap water within premises in percentage Houselisting and Housing Census Data Tables- District Level , Census of India__2": 0.289219179,
      "Marginal Workers Cultivators worked for 3 - 6 moths during last year - Males": 15348,
      "Prevalence of Anaemia  in percentage DLHS-4": "Not available",
      "Prevalence of Chronic illness in percentage DLHS-4": "Not available",
      "Households with solar energy as main source of lighting in percentage Houselisting and Housing Census Data Tables- District Level , Census of India__1": 0.517420165,
      "Marginal Workers Agricultural Labourers worked for 0 - 3 moths during last year - Females": 19962,
      "Main Workers - Males": 228025,
      "Female": "NA",
      "Sno": 1330,
      "Marginal Workers Other worked for 3 - 6 moths during last year - Females": 14858,
      "Marginal Workers Cultivators worked for 0 - 3 moths during last year - Females": 4447,
      "Scheduled Tribe Males": 320130,
      "Male Illiterates": 312845,
      "Prevalence of Severe Anaemia in pregnant women aged 15-49years in percentage DLHS-4": "Not available",
      "0-6 Age Group Persons": 199037,
      "Upper Primary Student-Classroom Ratio in percentage DISE": "NA",
      "Currently married men married below 21years of age in percentage DLHS-4": 27.8,
      "Male Literates": 250926,
      "Households with no lighting in percentage Houselisting and Housing Census Data Tables- District Level , Census of India__2": 0.768899768,
      "Primary Drop Out Rate in percentage DISE": "NA",
      "Marginal Workers Household Industry - Males": 1970,
      "Female Illiterates": 436208,
      "Main Workers Other - Females": 18802,
      "Marginal Workers Cultivators - Persons": 45979,
      "Upper Primary Gross Enrolment Ratio in percentage DISE": "NA",
      "Scheduled Caste Persons": 160697,
      "Marginal Workers Cultivators worked for 3 - 6 moths during last year - Persons": 37758,
      "Households with landline phone in percentage": 1.22,
      "Total Households in District  Houselisting and Housing Census Data Tables- District Level , Census of India": 283522,
      "Upper Primary Pupil-Teacher Ratio in percentage DISE": "NA",
      "Primary Student-Classroom Ratio in percentage DISE": "NA",
      "Primary Schools with boys toilet in percentage DISE": "NA",
      "Mean number of children ever born to women aged 40-49years  DLHS-4": "Not available",
      "Households receiving untreated tap water within premises  Houselisting and Housing Census Data Tables- District Level , Census of India__5": 820,
      "Marginal Workers Household Industry worked for 0 - 3 moths during last year - Persons": 1207,
      "Total Male Population": 563771,
      "Non Workers - Females": 300484,
      "Current use of family planning methods in percentage DLHS-4": 42.6,
      "Households with main source of drinking water within premises  Houselisting and Housing Census Data Tables- District Level , Census of India__3": 15864,
      "Main Workers Agricultural Labourers - Males": 49339,
      "Marginal Workers Other worked for 0 - 3 moths during last year - Persons": 7770,
      "Currently married women married below 18years of age in percentage DLHS-4": 15.8,
      "Person Illiterates": 749053,
      "Main Workers Household Industry - Females": 1584,
      "Female Literates": 153499,
      "Marginal Workers Cultivators worked for 0 - 3 moths during last year - Males": 3774,
      "Male": "NA",
      "Households with improved source of drinking water in percentage DLHS-4": "Not available",
      "Upper Primary Schools with electricity in percentage DISE": "NA",
      "Households with electricity in percentage DLHS-4": "Not available",
      "Villages with Primary Health Centre within 10km in percentage DLHS-4": "Not available",
      "Births to women aged 15-19years out of Total births in percentage DLHS-4": "Not available",
      "Prevalence of Anaemia in women aged 15-49years in percentage DLHS-4": "Not available",
      "Marginal Workers Agricultural Labourers worked for 3 - 6 moths during last year - Persons": 172318,
      "Main Workers Household Industry - Males": 3834,
      "Scheduled Tribe Females": 342589,
      "Marginal Workers worked for 0 - 3 moths during last year - Males": 14958,
      "Marginal Workers Other worked for 3 - 6 moths during last year - Males": 12975,
      "Primary Net Enrolment Ratio in percentage DISE": "NA",
      "Total": "NA",
      "Mean age at marriage for boys DLHS-4": 23.5,
      "Number of District Hospitals  DLHS-4": "Not available",
      "0-6 Age Group Females": 98712,
      "Marginal Workers Agricultural Labourers worked for 0 - 3 moths during last year - Persons": 27638,
      "Marginal Workers Household Industry worked for 0 - 3 moths during last year - Males": 355,
      "Total Workers  Females": 289223,
      "Marginal Workers worked for 3 - 6 moths during last year - Females": 164337,
      "Institutional Deliveries in percentage DLHS-4": 49.7,
      "Marginal Workers Other - Males": 16128,
      "Total Workers  Males": 321390,
      "Main Workers - Females": 95008,
      "Primary Gross Enrolment Ratio in percentage DISE": "NA",
      "Main Workers Cultivators - Persons": 158463,
      "Marginal Workers Household Industry worked for 0 - 3 moths during last year - Females": 852,
      "Upper Primary Net Enrolment Ratio in percentage DISE": "NA",
      "Primary New Government Schools since 2003 in percentage DISE": "NA",
      "Tier": "Rural",
      "Marginal Workers Household Industry - Females": 4072,
      "Primary Schools with electricity in percentage DISE": "NA",
      "Main Workers Other - Persons": 71149,
      "Marginal Workers Household Industry worked for 3 - 6 moths during last year - Females": 3220,
      "Main Workers Cultivators - Males": 122505,
      "Main Workers Household Industry - Persons": 5418,
      "Marginal Workers Cultivators worked for 0 - 3 moths during last year - Persons": 8221,
      "Scheduled Caste Males": 79036,
      "Marginal Workers - Persons": 287580,
      "Deliveries at home conducted by skilled health personnel in percentage DLHS-4": 33.5,
      "Villages with Sub-Health Centres within 3km in percentage DLHS-4": "Not available",
      "Upper Primary New Government Schools since 2003 in percentage DISE": "NA",
      "0-6 Age Group Males": 100325,
      "Primary Schools with drinking water facility in percentage DISE": "NA",
      "Non Workers - Persons": 542865,
      "Person Literates": 404425,
      "State": "ODISHA",
      "Total Female Population": 589707,
      "Marginal Workers worked for 0 - 3 moths during last year - Persons": 44836,
      "Marginal Workers Cultivators - Females": 26857,
      "Marginal Workers Other - Persons": 35603,
      "Sex Ratio": 1046,
      "Scheduled Tribe Persons": 662719,
      "Marginal Workers Household Industry worked for 3 - 6 moths during last year - Males": 1615,
      "Marginal Workers Agricultural Labourers - Females": 143811,
      "Mean age at marriage for girls DLHS-4": 20.4,
      "Households with solar energy as main source of lighting  Houselisting and Housing Census Data Tables- District Level , Census of India__4": 1467,
      "District": "KORAPUT",
      "Households receiving treated tap water within premises in percentage Houselisting and Housing Census Data Tables- District Level , Census of India__1": 1.538152242,
      "Total Workers  Persons": 610613,
      "Households receiving treated tap water within premises  Houselisting and Housing Census Data Tables- District Level , Census of India__4": 4361,
      "Primary Female Teachers in percentage DISE": "NA",
      "Number of Households": 282783,
      "Main Workers Agricultural Labourers - Persons": 88003
    }
  ],
  "Urban": [
    {
      "Marginal Workers Agricultural Labourers - Persons": 1506,
      "Marginal Workers Other - Females": 3031,
      "Marginal Workers Other worked for 0 - 3 moths during last year - Females": 450,
      "Upper Primary Schools with boys toilet in percentage DISE": "NA",
      "Total Population": 226169,
      "Households with electricity as main source of lighting in percentage Houselisting and Housing Census Data Tables- District Level , Census of India": 79.39213284,
      "Primary Girl's Enrolment in percentage DISE": "NA",
      "Marginal Workers worked for 3 - 6 moths during last year - Males": 4146,
      "Prevalence of Acute illness in percentage DLHS-4": "Not available",
      "Main Workers - Persons": 73427,
      "Main Workers Cultivators - Females": 588,
      "Marginal Workers Agricultural Labourers worked for 3 - 6 moths during last year - Females": 737,
      "Marginal Workers Other worked for 0 - 3 moths during last year - Males": 409,
      "Upper Primary Schools with drinking water facility in percentage DISE": "NA",
      "Primary Schools with girls toilet in percentage DISE": "NA",
      "Marginal Workers worked for 3 - 6 moths during last year - Persons": 7967,
      "Upper Primary Drop Out Rate in percentage DISE": "NA",
      "Prevalence of Anaemia in pregnant women aged 15-49years in percentage DLHS-4": "Not available",
      "Current use of any modern method of family planning in percentage DLHS-4": 25.7,
      "Marginal Workers Agricultural Labourers - Males": 473,
      "Upper Primary Female Teachers in percentage DISE": "NA",
      "Marginal Workers - Females": 4679,
      "Marginal Workers Other worked for 3 - 6 moths during last year - Persons": 5966,
      "Main Workers Agricultural Labourers - Females": 535,
      "Marginal Workers Cultivators worked for 3 - 6 moths during last year - Females": 211,
      "Households with no lighting  Houselisting and Housing Census Data Tables- District Level , Census of India__5": 534,
      "Prevalence of Severe Anaemia  in percentage DLHS-4": "Not available",
      "Total unmet need for family planning in percentage DLHS-4": 60.5,
      "Main Workers Other - Males": 53786,
      "Children who received full vaccination in percentage DLHS-4": "Not available",
      "Marginal Workers Household Industry - Persons": 588,
      "Primary Pupil-Teacher Ratio in percentage DISE": "NA",
      "Marginal Workers Agricultural Labourers worked for 3 - 6 moths during last year - Males": 383,
      "Scheduled Caste Females": 18090,
      "Marginal Workers Cultivators - Males": 192,
      "Marginal Workers - Males": 4687,
      "Marginal Workers worked for 0 - 3 moths during last year - Females": 858,
      "Households with main source of drinking water within premises in percentage Houselisting and Housing Census Data Tables- District Level , Census of India": 55.64435016,
      "Marginal Workers Household Industry worked for 3 - 6 moths during last year - Persons": 497,
      "Upper Primary Girl's Enrolment in percentage DISE": "NA",
      "Prevalence of Severe Anaemia in women aged 15-49years in percentage DLHS-4": "Not available",
      "Marginal Workers Agricultural Labourers worked for 0 - 3 moths during last year - Males": 90,
      "Households with electricity as main source of lighting  Houselisting and Housing Census Data Tables- District Level , Census of India__3": 43414,
      "Households with computer or laptop with internet connection in percentage": 5.98,
      "PHCs functioning on a 24x7hours basis in percentage DLHS-4": "Not available",
      "Non Workers - Males": 52375,
      "Total Households in District Houselisting and Housing Census Data Tables- District Level , Census of India": 54683,
      "Upper Primary Schools with girls toilet in percentage DISE": "NA",
      "Households with mobile phone in percentage": 56.07,
      "Households receiving untreated tap water within premises in percentage Houselisting and Housing Census Data Tables- District Level , Census of India__2": 1.614761443,
      "Marginal Workers Cultivators worked for 3 - 6 moths during last year - Males": 173,
      "Prevalence of Anaemia  in percentage DLHS-4": "Not available",
      "Prevalence of Chronic illness in percentage DLHS-4": "Not available",
      "Households with solar energy as main source of lighting in percentage Houselisting and Housing Census Data Tables- District Level , Census of India__1": 0.151783918,
      "Marginal Workers Agricultural Labourers worked for 0 - 3 moths during last year - Females": 296,
      "Main Workers - Males": 57976,
      "Female": "NA",
      "Sno": 1332,
      "Marginal Workers Other worked for 3 - 6 moths during last year - Females": 2581,
      "Marginal Workers Cultivators worked for 0 - 3 moths during last year - Females": 44,
      "Scheduled Tribe Males": 17243,
      "Male Illiterates": 25121,
      "Prevalence of Severe Anaemia in pregnant women aged 15-49years in percentage DLHS-4": "Not available",
      "0-6 Age Group Persons": 26089,
      "Upper Primary Student-Classroom Ratio in percentage DISE": "NA",
      "Currently married men married below 21years of age in percentage DLHS-4": 16.7,
      "Male Literates": 89917,
      "Households with no lighting in percentage Houselisting and Housing Census Data Tables- District Level , Census of India__2": 0.976537498,
      "Primary Drop Out Rate in percentage DISE": "NA",
      "Marginal Workers Household Industry - Males": 228,
      "Female Illiterates": 37383,
      "Main Workers Other - Females": 13807,
      "Marginal Workers Cultivators - Persons": 447,
      "Upper Primary Gross Enrolment Ratio in percentage DISE": "NA",
      "Scheduled Caste Persons": 35843,
      "Marginal Workers Cultivators worked for 3 - 6 moths during last year - Persons": 384,
      "Households with landline phone in percentage": 2.51,
      "Total Households in District  Houselisting and Housing Census Data Tables- District Level , Census of India": 54683,
      "Upper Primary Pupil-Teacher Ratio in percentage DISE": "NA",
      "Primary Student-Classroom Ratio in percentage DISE": "NA",
      "Primary Schools with boys toilet in percentage DISE": "NA",
      "Mean number of children ever born to women aged 40-49years  DLHS-4": "Not available",
      "Households receiving untreated tap water within premises  Houselisting and Housing Census Data Tables- District Level , Census of India__5": 883,
      "Marginal Workers Household Industry worked for 0 - 3 moths during last year - Persons": 91,
      "Total Male Population": 115038,
      "Non Workers - Females": 91001,
      "Current use of family planning methods in percentage DLHS-4": 29.8,
      "Households with main source of drinking water within premises  Houselisting and Housing Census Data Tables- District Level , Census of India__3": 30428,
      "Main Workers Agricultural Labourers - Males": 626,
      "Marginal Workers Other worked for 0 - 3 moths during last year - Persons": 859,
      "Currently married women married below 18years of age in percentage DLHS-4": 10.2,
      "Person Illiterates": 62504,
      "Main Workers Household Industry - Females": 521,
      "Female Literates": 73748,
      "Marginal Workers Cultivators worked for 0 - 3 moths during last year - Males": 19,
      "Male": "NA",
      "Households with improved source of drinking water in percentage DLHS-4": "Not available",
      "Upper Primary Schools with electricity in percentage DISE": "NA",
      "Households with electricity in percentage DLHS-4": "Not available",
      "Villages with Primary Health Centre within 10km in percentage DLHS-4": "Not available",
      "Births to women aged 15-19years out of Total births in percentage DLHS-4": "Not available",
      "Prevalence of Anaemia in women aged 15-49years in percentage DLHS-4": "Not available",
      "Marginal Workers Agricultural Labourers worked for 3 - 6 moths during last year - Persons": 1120,
      "Main Workers Household Industry - Males": 1847,
      "Scheduled Tribe Females": 17621,
      "Marginal Workers worked for 0 - 3 moths during last year - Males": 541,
      "Marginal Workers Other worked for 3 - 6 moths during last year - Males": 3385,
      "Primary Net Enrolment Ratio in percentage DISE": "NA",
      "Total": "NA",
      "Mean age at marriage for boys DLHS-4": 26.2,
      "Number of District Hospitals  DLHS-4": "Not available",
      "0-6 Age Group Females": 12672,
      "Marginal Workers Agricultural Labourers worked for 0 - 3 moths during last year - Persons": 386,
      "Marginal Workers Household Industry worked for 0 - 3 moths during last year - Males": 23,
      "Total Workers  Females": 20130,
      "Marginal Workers worked for 3 - 6 moths during last year - Females": 3821,
      "Institutional Deliveries in percentage DLHS-4": 73,
      "Marginal Workers Other - Males": 3794,
      "Total Workers  Males": 62663,
      "Main Workers - Females": 15451,
      "Primary Gross Enrolment Ratio in percentage DISE": "NA",
      "Main Workers Cultivators - Persons": 2305,
      "Marginal Workers Household Industry worked for 0 - 3 moths during last year - Females": 68,
      "Upper Primary Net Enrolment Ratio in percentage DISE": "NA",
      "Primary New Government Schools since 2003 in percentage DISE": "NA",
      "Tier": "Urban",
      "Marginal Workers Household Industry - Females": 360,
      "Primary Schools with electricity in percentage DISE": "NA",
      "Main Workers Other - Persons": 67593,
      "Marginal Workers Household Industry worked for 3 - 6 moths during last year - Females": 292,
      "Main Workers Cultivators - Males": 1717,
      "Main Workers Household Industry - Persons": 2368,
      "Marginal Workers Cultivators worked for 0 - 3 moths during last year - Persons": 63,
      "Scheduled Caste Males": 17753,
      "Marginal Workers - Persons": 9366,
      "Deliveries at home conducted by skilled health personnel in percentage DLHS-4": 29.5,
      "Villages with Sub-Health Centres within 3km in percentage DLHS-4": "Not available",
      "Upper Primary New Government Schools since 2003 in percentage DISE": "NA",
      "0-6 Age Group Males": 13417,
      "Primary Schools with drinking water facility in percentage DISE": "NA",
      "Non Workers - Persons": 143376,
      "Person Literates": 163665,
      "State": "ODISHA",
      "Total Female Population": 111131,
      "Marginal Workers worked for 0 - 3 moths during last year - Persons": 1399,
      "Marginal Workers Cultivators - Females": 255,
      "Marginal Workers Other - Persons": 6825,
      "Sex Ratio": 966,
      "Scheduled Tribe Persons": 34864,
      "Marginal Workers Household Industry worked for 3 - 6 moths during last year - Males": 205,
      "Marginal Workers Agricultural Labourers - Females": 1033,
      "Mean age at marriage for girls DLHS-4": 22.1,
      "Households with solar energy as main source of lighting  Houselisting and Housing Census Data Tables- District Level , Census of India__4": 83,
      "District": "KORAPUT",
      "Households receiving treated tap water within premises in percentage Houselisting and Housing Census Data Tables- District Level , Census of India__1": 34.86824059,
      "Total Workers  Persons": 82793,
      "Households receiving treated tap water within premises  Houselisting and Housing Census Data Tables- District Level , Census of India__4": 19067,
      "Primary Female Teachers in percentage DISE": "NA",
      "Number of Households": 54894,
      "Main Workers Agricultural Labourers - Persons": 1161
    }
  ]
}