{
  "Total": [
    {
      "Marginal Workers Agricultural Labourers - Persons": 60882,
      "Marginal Workers Other - Females": 10347,
      "Marginal Workers Other worked for 0 - 3 moths during last year - Females": 2750,
      "Upper Primary Schools with boys toilet in percentage DISE": 89.2,
      "Total Population": 962789,
      "Households with electricity as main source of lighting in percentage Houselisting and Housing Census Data Tables- District Level , Census of India": 54.1131239,
      "Primary Girl's Enrolment in percentage DISE": 46.7,
      "Marginal Workers worked for 3 - 6 moths during last year - Males": 64875,
      "Prevalence of Acute illness in percentage DLHS-4": "Not available",
      "Main Workers - Persons": 229076,
      "Main Workers Cultivators - Females": 3038,
      "Marginal Workers Agricultural Labourers worked for 3 - 6 moths during last year - Females": 15557,
      "Marginal Workers Other worked for 0 - 3 moths during last year - Males": 3601,
      "Upper Primary Schools with drinking water facility in percentage DISE": 100,
      "Primary Schools with girls toilet in percentage DISE": 85.3,
      "Marginal Workers worked for 3 - 6 moths during last year - Persons": 93548,
      "Upper Primary Drop Out Rate in percentage DISE": 2.64,
      "Prevalence of Anaemia in pregnant women aged 15-49years in percentage DLHS-4": "Not available",
      "Current use of any modern method of family planning in percentage DLHS-4": 45.5,
      "Marginal Workers Agricultural Labourers - Males": 41712,
      "Upper Primary Female Teachers in percentage DISE": 25.2,
      "Marginal Workers - Females": 37396,
      "Marginal Workers Other worked for 3 - 6 moths during last year - Persons": 25294,
      "Main Workers Agricultural Labourers - Females": 5277,
      "Marginal Workers Cultivators worked for 3 - 6 moths during last year - Females": 2678,
      "Households with no lighting  Houselisting and Housing Census Data Tables- District Level , Census of India__5": 3645,
      "Prevalence of Severe Anaemia  in percentage DLHS-4": "Not available",
      "Total unmet need for family planning in percentage DLHS-4": 29.4,
      "Main Workers Other - Males": 79911,
      "Children who received full vaccination in percentage DLHS-4": "Not available",
      "Marginal Workers Household Industry - Persons": 8004,
      "Primary Pupil-Teacher Ratio in percentage DISE": 20,
      "Marginal Workers Agricultural Labourers worked for 3 - 6 moths during last year - Males": 35641,
      "Scheduled Caste Females": 66586,
      "Marginal Workers Cultivators - Males": 10467,
      "Marginal Workers - Males": 77161,
      "Marginal Workers worked for 0 - 3 moths during last year - Females": 8723,
      "Households with main source of drinking water within premises in percentage Houselisting and Housing Census Data Tables- District Level , Census of India": 12.03586644,
      "Marginal Workers Household Industry worked for 3 - 6 moths during last year - Persons": 5782,
      "Upper Primary Girl's Enrolment in percentage DISE": 47,
      "Prevalence of Severe Anaemia in women aged 15-49years in percentage DLHS-4": "Not available",
      "Marginal Workers Agricultural Labourers worked for 0 - 3 moths during last year - Males": 6071,
      "Households with electricity as main source of lighting  Houselisting and Housing Census Data Tables- District Level , Census of India__3": 124984,
      "Households with computer or laptop with internet connection in percentage": 0.5,
      "PHCs functioning on a 24x7hours basis in percentage DLHS-4": "Not available",
      "Non Workers - Males": 218045,
      "Total Households in District Houselisting and Housing Census Data Tables- District Level , Census of India": 230968,
      "Upper Primary Schools with girls toilet in percentage DISE": 88.5,
      "Households with mobile phone in percentage": 35.19,
      "Households receiving untreated tap water within premises in percentage Houselisting and Housing Census Data Tables- District Level , Census of India__2": 0.720446122,
      "Marginal Workers Cultivators worked for 3 - 6 moths during last year - Males": 8596,
      "Prevalence of Anaemia  in percentage DLHS-4": "Not available",
      "Prevalence of Chronic illness in percentage DLHS-4": "Not available",
      "Households with solar energy as main source of lighting in percentage Houselisting and Housing Census Data Tables- District Level , Census of India__1": 0.414343112,
      "Marginal Workers Agricultural Labourers worked for 0 - 3 moths during last year - Females": 3613,
      "Main Workers - Males": 207430,
      "Female": 72.05,
      "Sno": 1343,
      "Marginal Workers Other worked for 3 - 6 moths during last year - Females": 7597,
      "Marginal Workers Cultivators worked for 0 - 3 moths during last year - Females": 881,
      "Scheduled Tribe Males": 29173,
      "Male Illiterates": 110303,
      "Prevalence of Severe Anaemia in pregnant women aged 15-49years in percentage DLHS-4": "Not available",
      "0-6 Age Group Persons": 106871,
      "Upper Primary Student-Classroom Ratio in percentage DISE": 31,
      "Currently married men married below 21years of age in percentage DLHS-4": 3.2,
      "Male Literates": 392333,
      "Households with no lighting in percentage Houselisting and Housing Census Data Tables- District Level , Census of India__2": 1.578140695,
      "Primary Drop Out Rate in percentage DISE": 2.3,
      "Marginal Workers Household Industry - Males": 3684,
      "Female Illiterates": 164124,
      "Main Workers Other - Females": 11369,
      "Marginal Workers Cultivators - Persons": 14026,
      "Upper Primary Gross Enrolment Ratio in percentage DISE": 93,
      "Scheduled Caste Persons": 136399,
      "Marginal Workers Cultivators worked for 3 - 6 moths during last year - Persons": 11274,
      "Households with landline phone in percentage": 1.61,
      "Total Households in District  Houselisting and Housing Census Data Tables- District Level , Census of India": 230968,
      "Upper Primary Pupil-Teacher Ratio in percentage DISE": 26,
      "Primary Student-Classroom Ratio in percentage DISE": 18,
      "Primary Schools with boys toilet in percentage DISE": 92.1,
      "Mean number of children ever born to women aged 40-49years  DLHS-4": "Not available",
      "Households receiving untreated tap water within premises  Houselisting and Housing Census Data Tables- District Level , Census of India__5": 1664,
      "Marginal Workers Household Industry worked for 0 - 3 moths during last year - Persons": 2222,
      "Total Male Population": 502636,
      "Non Workers - Females": 401111,
      "Current use of family planning methods in percentage DLHS-4": 59.6,
      "Households with main source of drinking water within premises  Houselisting and Housing Census Data Tables- District Level , Census of India__3": 27799,
      "Main Workers Agricultural Labourers - Males": 53970,
      "Marginal Workers Other worked for 0 - 3 moths during last year - Persons": 6351,
      "Currently married women married below 18years of age in percentage DLHS-4": 5.3,
      "Person Illiterates": 274427,
      "Main Workers Household Industry - Females": 1962,
      "Female Literates": 296029,
      "Marginal Workers Cultivators worked for 0 - 3 moths during last year - Males": 1871,
      "Male": 88.16,
      "Households with improved source of drinking water in percentage DLHS-4": "Not available",
      "Upper Primary Schools with electricity in percentage DISE": 26.9,
      "Households with electricity in percentage DLHS-4": "Not available",
      "Villages with Primary Health Centre within 10km in percentage DLHS-4": "Not available",
      "Births to women aged 15-19years out of Total births in percentage DLHS-4": "Not available",
      "Prevalence of Anaemia in women aged 15-49years in percentage DLHS-4": "Not available",
      "Marginal Workers Agricultural Labourers worked for 3 - 6 moths during last year - Persons": 51198,
      "Main Workers Household Industry - Males": 7591,
      "Scheduled Tribe Females": 29518,
      "Marginal Workers worked for 0 - 3 moths during last year - Males": 12286,
      "Marginal Workers Other worked for 3 - 6 moths during last year - Males": 17697,
      "Primary Net Enrolment Ratio in percentage DISE": 80,
      "Total": 80.42,
      "Mean age at marriage for boys DLHS-4": 27.3,
      "Number of District Hospitals  DLHS-4": "Not available",
      "0-6 Age Group Females": 49272,
      "Marginal Workers Agricultural Labourers worked for 0 - 3 moths during last year - Persons": 9684,
      "Marginal Workers Household Industry worked for 0 - 3 moths during last year - Males": 743,
      "Total Workers  Females": 59042,
      "Marginal Workers worked for 3 - 6 moths during last year - Females": 28673,
      "Institutional Deliveries in percentage DLHS-4": 89.1,
      "Marginal Workers Other - Males": 21298,
      "Total Workers  Males": 284591,
      "Main Workers - Females": 21646,
      "Primary Gross Enrolment Ratio in percentage DISE": 97.3,
      "Main Workers Cultivators - Persons": 68996,
      "Marginal Workers Household Industry worked for 0 - 3 moths during last year - Females": 1479,
      "Upper Primary Net Enrolment Ratio in percentage DISE": 65.8,
      "Primary New Government Schools since 2003 in percentage DISE": 33.2,
      "Tier": "Total",
      "Marginal Workers Household Industry - Females": 4320,
      "Primary Schools with electricity in percentage DISE": 8.4,
      "Main Workers Other - Persons": 91280,
      "Marginal Workers Household Industry worked for 3 - 6 moths during last year - Females": 2841,
      "Main Workers Cultivators - Males": 65958,
      "Main Workers Household Industry - Persons": 9553,
      "Marginal Workers Cultivators worked for 0 - 3 moths during last year - Persons": 2752,
      "Scheduled Caste Males": 69813,
      "Marginal Workers - Persons": 114557,
      "Deliveries at home conducted by skilled health personnel in percentage DLHS-4": 9.5,
      "Villages with Sub-Health Centres within 3km in percentage DLHS-4": "Not available",
      "Upper Primary New Government Schools since 2003 in percentage DISE": 3.4,
      "0-6 Age Group Males": 57599,
      "Primary Schools with drinking water facility in percentage DISE": 99.9,
      "Non Workers - Persons": 619156,
      "Person Literates": 688362,
      "State": "ODISHA",
      "Total Female Population": 460153,
      "Marginal Workers worked for 0 - 3 moths during last year - Persons": 21009,
      "Marginal Workers Cultivators - Females": 3559,
      "Marginal Workers Other - Persons": 31645,
      "Sex Ratio": 915,
      "Scheduled Tribe Persons": 58691,
      "Marginal Workers Household Industry worked for 3 - 6 moths during last year - Males": 2941,
      "Marginal Workers Agricultural Labourers - Females": 19170,
      "Mean age at marriage for girls DLHS-4": 21.1,
      "Households with solar energy as main source of lighting  Houselisting and Housing Census Data Tables- District Level , Census of India__4": 957,
      "District": "NAYAGARH",
      "Households receiving treated tap water within premises in percentage Houselisting and Housing Census Data Tables- District Level , Census of India__1": 0.91874199,
      "Total Workers  Persons": 343633,
      "Households receiving treated tap water within premises  Houselisting and Housing Census Data Tables- District Level , Census of India__4": 2122,
      "Primary Female Teachers in percentage DISE": 42.1,
      "Number of Households": 228315,
      "Main Workers Agricultural Labourers - Persons": 59247
    }
  ],
  "Rural": [
    {
      "Marginal Workers Agricultural Labourers - Persons": 60325,
      "Marginal Workers Other - Females": 9541,
      "Marginal Workers Other worked for 0 - 3 moths during last year - Females": 2631,
      "Upper Primary Schools with boys toilet in percentage DISE": "NA",
      "Total Population": 883051,
      "Households with electricity as main source of lighting in percentage Houselisting and Housing Census Data Tables- District Level , Census of India": 52.10934753,
      "Primary Girl's Enrolment in percentage DISE": "NA",
      "Marginal Workers worked for 3 - 6 moths during last year - Males": 62138,
      "Prevalence of Acute illness in percentage DLHS-4": "Not available",
      "Main Workers - Persons": 208001,
      "Main Workers Cultivators - Females": 3015,
      "Marginal Workers Agricultural Labourers worked for 3 - 6 moths during last year - Females": 15500,
      "Marginal Workers Other worked for 0 - 3 moths during last year - Males": 3295,
      "Upper Primary Schools with drinking water facility in percentage DISE": "NA",
      "Primary Schools with girls toilet in percentage DISE": "NA",
      "Marginal Workers worked for 3 - 6 moths during last year - Persons": 89897,
      "Upper Primary Drop Out Rate in percentage DISE": "NA",
      "Prevalence of Anaemia in pregnant women aged 15-49years in percentage DLHS-4": "Not available",
      "Current use of any modern method of family planning in percentage DLHS-4": 45.5,
      "Marginal Workers Agricultural Labourers - Males": 41256,
      "Upper Primary Female Teachers in percentage DISE": "NA",
      "Marginal Workers - Females": 36266,
      "Marginal Workers Other worked for 3 - 6 moths during last year - Persons": 22526,
      "Main Workers Agricultural Labourers - Females": 5228,
      "Marginal Workers Cultivators worked for 3 - 6 moths during last year - Females": 2659,
      "Households with no lighting  Houselisting and Housing Census Data Tables- District Level , Census of India__5": 3419,
      "Prevalence of Severe Anaemia  in percentage DLHS-4": "Not available",
      "Total unmet need for family planning in percentage DLHS-4": 29.5,
      "Main Workers Other - Males": 63698,
      "Children who received full vaccination in percentage DLHS-4": "Not available",
      "Marginal Workers Household Industry - Persons": 7584,
      "Primary Pupil-Teacher Ratio in percentage DISE": "NA",
      "Marginal Workers Agricultural Labourers worked for 3 - 6 moths during last year - Males": 35271,
      "Scheduled Caste Females": 61446,
      "Marginal Workers Cultivators - Males": 10328,
      "Marginal Workers - Males": 73962,
      "Marginal Workers worked for 0 - 3 moths during last year - Females": 8507,
      "Households with main source of drinking water within premises in percentage Houselisting and Housing Census Data Tables- District Level , Census of India": 9.594166882,
      "Marginal Workers Household Industry worked for 3 - 6 moths during last year - Persons": 5470,
      "Upper Primary Girl's Enrolment in percentage DISE": "NA",
      "Prevalence of Severe Anaemia in women aged 15-49years in percentage DLHS-4": "Not available",
      "Marginal Workers Agricultural Labourers worked for 0 - 3 moths during last year - Males": 5985,
      "Households with electricity as main source of lighting  Houselisting and Housing Census Data Tables- District Level , Census of India__3": 111131,
      "Households with computer or laptop with internet connection in percentage": 0.37,
      "PHCs functioning on a 24x7hours basis in percentage DLHS-4": "Not available",
      "Non Workers - Males": 198316,
      "Total Households in District Houselisting and Housing Census Data Tables- District Level , Census of India": 213265,
      "Upper Primary Schools with girls toilet in percentage DISE": "NA",
      "Households with mobile phone in percentage": 33.23,
      "Households receiving untreated tap water within premises in percentage Houselisting and Housing Census Data Tables- District Level , Census of India__2": 0.459991091,
      "Marginal Workers Cultivators worked for 3 - 6 moths during last year - Males": 8471,
      "Prevalence of Anaemia  in percentage DLHS-4": "Not available",
      "Prevalence of Chronic illness in percentage DLHS-4": "Not available",
      "Households with solar energy as main source of lighting in percentage Houselisting and Housing Census Data Tables- District Level , Census of India__1": 0.438890582,
      "Marginal Workers Agricultural Labourers worked for 0 - 3 moths during last year - Females": 3569,
      "Main Workers - Males": 188741,
      "Female": "NA",
      "Sno": 1342,
      "Marginal Workers Other worked for 3 - 6 moths during last year - Females": 6910,
      "Marginal Workers Cultivators worked for 0 - 3 moths during last year - Females": 880,
      "Scheduled Tribe Males": 28531,
      "Male Illiterates": 103332,
      "Prevalence of Severe Anaemia in pregnant women aged 15-49years in percentage DLHS-4": "Not available",
      "0-6 Age Group Persons": 98936,
      "Upper Primary Student-Classroom Ratio in percentage DISE": "NA",
      "Currently married men married below 21years of age in percentage DLHS-4": 3.3,
      "Male Literates": 357687,
      "Households with no lighting in percentage Houselisting and Housing Census Data Tables- District Level , Census of India__2": 1.603169765,
      "Primary Drop Out Rate in percentage DISE": "NA",
      "Marginal Workers Household Industry - Males": 3467,
      "Female Illiterates": 154374,
      "Main Workers Other - Females": 9145,
      "Marginal Workers Cultivators - Persons": 13867,
      "Upper Primary Gross Enrolment Ratio in percentage DISE": "NA",
      "Scheduled Caste Persons": 125932,
      "Marginal Workers Cultivators worked for 3 - 6 moths during last year - Persons": 11130,
      "Households with landline phone in percentage": 1.54,
      "Total Households in District  Houselisting and Housing Census Data Tables- District Level , Census of India": 213265,
      "Upper Primary Pupil-Teacher Ratio in percentage DISE": "NA",
      "Primary Student-Classroom Ratio in percentage DISE": "NA",
      "Primary Schools with boys toilet in percentage DISE": "NA",
      "Mean number of children ever born to women aged 40-49years  DLHS-4": "Not available",
      "Households receiving untreated tap water within premises  Houselisting and Housing Census Data Tables- District Level , Census of India__5": 981,
      "Marginal Workers Household Industry worked for 0 - 3 moths during last year - Persons": 2114,
      "Total Male Population": 461019,
      "Non Workers - Females": 366506,
      "Current use of family planning methods in percentage DLHS-4": 59.5,
      "Households with main source of drinking water within premises  Houselisting and Housing Census Data Tables- District Level , Census of India__3": 20461,
      "Main Workers Agricultural Labourers - Males": 53156,
      "Marginal Workers Other worked for 0 - 3 moths during last year - Persons": 5926,
      "Currently married women married below 18years of age in percentage DLHS-4": 5.3,
      "Person Illiterates": 257706,
      "Main Workers Household Industry - Females": 1872,
      "Female Literates": 267658,
      "Marginal Workers Cultivators worked for 0 - 3 moths during last year - Males": 1857,
      "Male": "NA",
      "Households with improved source of drinking water in percentage DLHS-4": "Not available",
      "Upper Primary Schools with electricity in percentage DISE": "NA",
      "Households with electricity in percentage DLHS-4": "Not available",
      "Villages with Primary Health Centre within 10km in percentage DLHS-4": "Not available",
      "Births to women aged 15-19years out of Total births in percentage DLHS-4": "Not available",
      "Prevalence of Anaemia in women aged 15-49years in percentage DLHS-4": "Not available",
      "Marginal Workers Agricultural Labourers worked for 3 - 6 moths during last year - Persons": 50771,
      "Main Workers Household Industry - Males": 6751,
      "Scheduled Tribe Females": 29000,
      "Marginal Workers worked for 0 - 3 moths during last year - Males": 11824,
      "Marginal Workers Other worked for 3 - 6 moths during last year - Males": 15616,
      "Primary Net Enrolment Ratio in percentage DISE": "NA",
      "Total": "NA",
      "Mean age at marriage for boys DLHS-4": 27.2,
      "Number of District Hospitals  DLHS-4": "Not available",
      "0-6 Age Group Females": 45661,
      "Marginal Workers Agricultural Labourers worked for 0 - 3 moths during last year - Persons": 9554,
      "Marginal Workers Household Industry worked for 0 - 3 moths during last year - Males": 687,
      "Total Workers  Females": 55526,
      "Marginal Workers worked for 3 - 6 moths during last year - Females": 27759,
      "Institutional Deliveries in percentage DLHS-4": 89,
      "Marginal Workers Other - Males": 18911,
      "Total Workers  Males": 262703,
      "Main Workers - Females": 19260,
      "Primary Gross Enrolment Ratio in percentage DISE": "NA",
      "Main Workers Cultivators - Persons": 68151,
      "Marginal Workers Household Industry worked for 0 - 3 moths during last year - Females": 1427,
      "Upper Primary Net Enrolment Ratio in percentage DISE": "NA",
      "Primary New Government Schools since 2003 in percentage DISE": "NA",
      "Tier": "Rural",
      "Marginal Workers Household Industry - Females": 4117,
      "Primary Schools with electricity in percentage DISE": "NA",
      "Main Workers Other - Persons": 72843,
      "Marginal Workers Household Industry worked for 3 - 6 moths during last year - Females": 2690,
      "Main Workers Cultivators - Males": 65136,
      "Main Workers Household Industry - Persons": 8623,
      "Marginal Workers Cultivators worked for 0 - 3 moths during last year - Persons": 2737,
      "Scheduled Caste Males": 64486,
      "Marginal Workers - Persons": 110228,
      "Deliveries at home conducted by skilled health personnel in percentage DLHS-4": 9.7,
      "Villages with Sub-Health Centres within 3km in percentage DLHS-4": "Not available",
      "Upper Primary New Government Schools since 2003 in percentage DISE": "NA",
      "0-6 Age Group Males": 53275,
      "Primary Schools with drinking water facility in percentage DISE": "NA",
      "Non Workers - Persons": 564822,
      "Person Literates": 625345,
      "State": "ODISHA",
      "Total Female Population": 422032,
      "Marginal Workers worked for 0 - 3 moths during last year - Persons": 20331,
      "Marginal Workers Cultivators - Females": 3539,
      "Marginal Workers Other - Persons": 28452,
      "Sex Ratio": 915,
      "Scheduled Tribe Persons": 57531,
      "Marginal Workers Household Industry worked for 3 - 6 moths during last year - Males": 2780,
      "Marginal Workers Agricultural Labourers - Females": 19069,
      "Mean age at marriage for girls DLHS-4": 21.1,
      "Households with solar energy as main source of lighting  Houselisting and Housing Census Data Tables- District Level , Census of India__4": 936,
      "District": "NAYAGARH",
      "Households receiving treated tap water within premises in percentage Houselisting and Housing Census Data Tables- District Level , Census of India__1": 0.488594003,
      "Total Workers  Persons": 318229,
      "Households receiving treated tap water within premises  Houselisting and Housing Census Data Tables- District Level , Census of India__4": 1042,
      "Primary Female Teachers in percentage DISE": "NA",
      "Number of Households": 210850,
      "Main Workers Agricultural Labourers - Persons": 58384
    }
  ],
  "Urban": [
    {
      "Marginal Workers Agricultural Labourers - Persons": 557,
      "Marginal Workers Other - Females": 806,
      "Marginal Workers Other worked for 0 - 3 moths during last year - Females": 119,
      "Upper Primary Schools with boys toilet in percentage DISE": "NA",
      "Total Population": 79738,
      "Households with electricity as main source of lighting in percentage Houselisting and Housing Census Data Tables- District Level , Census of India": 78.25227363,
      "Primary Girl's Enrolment in percentage DISE": "NA",
      "Marginal Workers worked for 3 - 6 moths during last year - Males": 2737,
      "Prevalence of Acute illness in percentage DLHS-4": "Not available",
      "Main Workers - Persons": 21075,
      "Main Workers Cultivators - Females": 23,
      "Marginal Workers Agricultural Labourers worked for 3 - 6 moths during last year - Females": 57,
      "Marginal Workers Other worked for 0 - 3 moths during last year - Males": 306,
      "Upper Primary Schools with drinking water facility in percentage DISE": "NA",
      "Primary Schools with girls toilet in percentage DISE": "NA",
      "Marginal Workers worked for 3 - 6 moths during last year - Persons": 3651,
      "Upper Primary Drop Out Rate in percentage DISE": "NA",
      "Prevalence of Anaemia in pregnant women aged 15-49years in percentage DLHS-4": "Not available",
      "Current use of any modern method of family planning in percentage DLHS-4": "Not available",
      "Marginal Workers Agricultural Labourers - Males": 456,
      "Upper Primary Female Teachers in percentage DISE": "NA",
      "Marginal Workers - Females": 1130,
      "Marginal Workers Other worked for 3 - 6 moths during last year - Persons": 2768,
      "Main Workers Agricultural Labourers - Females": 49,
      "Marginal Workers Cultivators worked for 3 - 6 moths during last year - Females": 19,
      "Households with no lighting  Houselisting and Housing Census Data Tables- District Level , Census of India__5": 226,
      "Prevalence of Severe Anaemia  in percentage DLHS-4": "Not available",
      "Total unmet need for family planning in percentage DLHS-4": "Not available",
      "Main Workers Other - Males": 16213,
      "Children who received full vaccination in percentage DLHS-4": "Not available",
      "Marginal Workers Household Industry - Persons": 420,
      "Primary Pupil-Teacher Ratio in percentage DISE": "NA",
      "Marginal Workers Agricultural Labourers worked for 3 - 6 moths during last year - Males": 370,
      "Scheduled Caste Females": 5140,
      "Marginal Workers Cultivators - Males": 139,
      "Marginal Workers - Males": 3199,
      "Marginal Workers worked for 0 - 3 moths during last year - Females": 216,
      "Households with main source of drinking water within premises in percentage Houselisting and Housing Census Data Tables- District Level , Census of India": 41.45060159,
      "Marginal Workers Household Industry worked for 3 - 6 moths during last year - Persons": 312,
      "Upper Primary Girl's Enrolment in percentage DISE": "NA",
      "Prevalence of Severe Anaemia in women aged 15-49years in percentage DLHS-4": "Not available",
      "Marginal Workers Agricultural Labourers worked for 0 - 3 moths during last year - Males": 86,
      "Households with electricity as main source of lighting  Houselisting and Housing Census Data Tables- District Level , Census of India__3": 13853,
      "Households with computer or laptop with internet connection in percentage": 2.07,
      "PHCs functioning on a 24x7hours basis in percentage DLHS-4": "Not available",
      "Non Workers - Males": 19729,
      "Total Households in District Houselisting and Housing Census Data Tables- District Level , Census of India": 17703,
      "Upper Primary Schools with girls toilet in percentage DISE": "NA",
      "Households with mobile phone in percentage": 58.83,
      "Households receiving untreated tap water within premises in percentage Houselisting and Housing Census Data Tables- District Level , Census of India__2": 3.858103146,
      "Marginal Workers Cultivators worked for 3 - 6 moths during last year - Males": 125,
      "Prevalence of Anaemia  in percentage DLHS-4": "Not available",
      "Prevalence of Chronic illness in percentage DLHS-4": "Not available",
      "Households with solar energy as main source of lighting in percentage Houselisting and Housing Census Data Tables- District Level , Census of India__1": 0.118623962,
      "Marginal Workers Agricultural Labourers worked for 0 - 3 moths during last year - Females": 44,
      "Main Workers - Males": 18689,
      "Female": "NA",
      "Sno": 1344,
      "Marginal Workers Other worked for 3 - 6 moths during last year - Females": 687,
      "Marginal Workers Cultivators worked for 0 - 3 moths during last year - Females": 1,
      "Scheduled Tribe Males": 642,
      "Male Illiterates": 6971,
      "Prevalence of Severe Anaemia in pregnant women aged 15-49years in percentage DLHS-4": "Not available",
      "0-6 Age Group Persons": 7935,
      "Upper Primary Student-Classroom Ratio in percentage DISE": "NA",
      "Currently married men married below 21years of age in percentage DLHS-4": "Not available",
      "Male Literates": 34646,
      "Households with no lighting in percentage Houselisting and Housing Census Data Tables- District Level , Census of India__2": 1.276619782,
      "Primary Drop Out Rate in percentage DISE": "NA",
      "Marginal Workers Household Industry - Males": 217,
      "Female Illiterates": 9750,
      "Main Workers Other - Females": 2224,
      "Marginal Workers Cultivators - Persons": 159,
      "Upper Primary Gross Enrolment Ratio in percentage DISE": "NA",
      "Scheduled Caste Persons": 10467,
      "Marginal Workers Cultivators worked for 3 - 6 moths during last year - Persons": 144,
      "Households with landline phone in percentage": 2.39,
      "Total Households in District  Houselisting and Housing Census Data Tables- District Level , Census of India": 17703,
      "Upper Primary Pupil-Teacher Ratio in percentage DISE": "NA",
      "Primary Student-Classroom Ratio in percentage DISE": "NA",
      "Primary Schools with boys toilet in percentage DISE": "NA",
      "Mean number of children ever born to women aged 40-49years  DLHS-4": "Not available",
      "Households receiving untreated tap water within premises  Houselisting and Housing Census Data Tables- District Level , Census of India__5": 683,
      "Marginal Workers Household Industry worked for 0 - 3 moths during last year - Persons": 108,
      "Total Male Population": 41617,
      "Non Workers - Females": 34605,
      "Current use of family planning methods in percentage DLHS-4": "Not available",
      "Households with main source of drinking water within premises  Houselisting and Housing Census Data Tables- District Level , Census of India__3": 7338,
      "Main Workers Agricultural Labourers - Males": 814,
      "Marginal Workers Other worked for 0 - 3 moths during last year - Persons": 425,
      "Currently married women married below 18years of age in percentage DLHS-4": "Not available",
      "Person Illiterates": 16721,
      "Main Workers Household Industry - Females": 90,
      "Female Literates": 28371,
      "Marginal Workers Cultivators worked for 0 - 3 moths during last year - Males": 14,
      "Male": "NA",
      "Households with improved source of drinking water in percentage DLHS-4": "Not available",
      "Upper Primary Schools with electricity in percentage DISE": "NA",
      "Households with electricity in percentage DLHS-4": "Not available",
      "Villages with Primary Health Centre within 10km in percentage DLHS-4": "Not available",
      "Births to women aged 15-19years out of Total births in percentage DLHS-4": "Not available",
      "Prevalence of Anaemia in women aged 15-49years in percentage DLHS-4": "Not available",
      "Marginal Workers Agricultural Labourers worked for 3 - 6 moths during last year - Persons": 427,
      "Main Workers Household Industry - Males": 840,
      "Scheduled Tribe Females": 518,
      "Marginal Workers worked for 0 - 3 moths during last year - Males": 462,
      "Marginal Workers Other worked for 3 - 6 moths during last year - Males": 2081,
      "Primary Net Enrolment Ratio in percentage DISE": "NA",
      "Total": "NA",
      "Mean age at marriage for boys DLHS-4": "Not available",
      "Number of District Hospitals  DLHS-4": "Not available",
      "0-6 Age Group Females": 3611,
      "Marginal Workers Agricultural Labourers worked for 0 - 3 moths during last year - Persons": 130,
      "Marginal Workers Household Industry worked for 0 - 3 moths during last year - Males": 56,
      "Total Workers  Females": 3516,
      "Marginal Workers worked for 3 - 6 moths during last year - Females": 914,
      "Institutional Deliveries in percentage DLHS-4": "Not available",
      "Marginal Workers Other - Males": 2387,
      "Total Workers  Males": 21888,
      "Main Workers - Females": 2386,
      "Primary Gross Enrolment Ratio in percentage DISE": "NA",
      "Main Workers Cultivators - Persons": 845,
      "Marginal Workers Household Industry worked for 0 - 3 moths during last year - Females": 52,
      "Upper Primary Net Enrolment Ratio in percentage DISE": "NA",
      "Primary New Government Schools since 2003 in percentage DISE": "NA",
      "Tier": "Urban",
      "Marginal Workers Household Industry - Females": 203,
      "Primary Schools with electricity in percentage DISE": "NA",
      "Main Workers Other - Persons": 18437,
      "Marginal Workers Household Industry worked for 3 - 6 moths during last year - Females": 151,
      "Main Workers Cultivators - Males": 822,
      "Main Workers Household Industry - Persons": 930,
      "Marginal Workers Cultivators worked for 0 - 3 moths during last year - Persons": 15,
      "Scheduled Caste Males": 5327,
      "Marginal Workers - Persons": 4329,
      "Deliveries at home conducted by skilled health personnel in percentage DLHS-4": "Not available",
      "Villages with Sub-Health Centres within 3km in percentage DLHS-4": "Not available",
      "Upper Primary New Government Schools since 2003 in percentage DISE": "NA",
      "0-6 Age Group Males": 4324,
      "Primary Schools with drinking water facility in percentage DISE": "NA",
      "Non Workers - Persons": 54334,
      "Person Literates": 63017,
      "State": "ODISHA",
      "Total Female Population": 38121,
      "Marginal Workers worked for 0 - 3 moths during last year - Persons": 678,
      "Marginal Workers Cultivators - Females": 20,
      "Marginal Workers Other - Persons": 3193,
      "Sex Ratio": 916,
      "Scheduled Tribe Persons": 1160,
      "Marginal Workers Household Industry worked for 3 - 6 moths during last year - Males": 161,
      "Marginal Workers Agricultural Labourers - Females": 101,
      "Mean age at marriage for girls DLHS-4": "Not available",
      "Households with solar energy as main source of lighting  Houselisting and Housing Census Data Tables- District Level , Census of India__4": 21,
      "District": "NAYAGARH",
      "Households receiving treated tap water within premises in percentage Houselisting and Housing Census Data Tables- District Level , Census of India__1": 6.100660905,
      "Total Workers  Persons": 25404,
      "Households receiving treated tap water within premises  Houselisting and Housing Census Data Tables- District Level , Census of India__4": 1080,
      "Primary Female Teachers in percentage DISE": "NA",
      "Number of Households": 17465,
      "Main Workers Agricultural Labourers - Persons": 863
    }
  ]
}