{
  "Total": [
    {
      "Marginal Workers Agricultural Labourers - Persons": 112704,
      "Marginal Workers Other - Females": 5857,
      "Marginal Workers Other worked for 0 - 3 moths during last year - Females": 1447,
      "Upper Primary Schools with boys toilet in percentage DISE": 18.6,
      "Total Population": 610382,
      "Households with electricity as main source of lighting in percentage Houselisting and Housing Census Data Tables- District Level , Census of India": 27.49410742,
      "Primary Girl's Enrolment in percentage DISE": 49.9,
      "Marginal Workers worked for 3 - 6 moths during last year - Males": 42902,
      "Prevalence of Acute illness in percentage DLHS-4": "Not available",
      "Main Workers - Persons": 151694,
      "Main Workers Cultivators - Females": 11414,
      "Marginal Workers Agricultural Labourers worked for 3 - 6 moths during last year - Females": 67424,
      "Marginal Workers Other worked for 0 - 3 moths during last year - Males": 1192,
      "Upper Primary Schools with drinking water facility in percentage DISE": 93.2,
      "Primary Schools with girls toilet in percentage DISE": 29.4,
      "Marginal Workers worked for 3 - 6 moths during last year - Persons": 126786,
      "Upper Primary Drop Out Rate in percentage DISE": 7.75,
      "Prevalence of Anaemia in pregnant women aged 15-49years in percentage DLHS-4": "Not available",
      "Current use of any modern method of family planning in percentage DLHS-4": 35.4,
      "Marginal Workers Agricultural Labourers - Males": 32059,
      "Upper Primary Female Teachers in percentage DISE": 16.1,
      "Marginal Workers - Females": 102416,
      "Marginal Workers Other worked for 3 - 6 moths during last year - Persons": 10817,
      "Main Workers Agricultural Labourers - Females": 14536,
      "Marginal Workers Cultivators worked for 3 - 6 moths during last year - Females": 9916,
      "Households with no lighting  Houselisting and Housing Census Data Tables- District Level , Census of India__5": 1316,
      "Prevalence of Severe Anaemia  in percentage DLHS-4": "Not available",
      "Total unmet need for family planning in percentage DLHS-4": 30.9,
      "Main Workers Other - Males": 31087,
      "Children who received full vaccination in percentage DLHS-4": "Not available",
      "Marginal Workers Household Industry - Persons": 4203,
      "Primary Pupil-Teacher Ratio in percentage DISE": 24,
      "Marginal Workers Agricultural Labourers worked for 3 - 6 moths during last year - Males": 26911,
      "Scheduled Caste Females": 41417,
      "Marginal Workers Cultivators - Males": 10177,
      "Marginal Workers - Males": 51328,
      "Marginal Workers worked for 0 - 3 moths during last year - Females": 18532,
      "Households with main source of drinking water within premises in percentage Houselisting and Housing Census Data Tables- District Level , Census of India": 7.378694192,
      "Marginal Workers Household Industry worked for 3 - 6 moths during last year - Persons": 3297,
      "Upper Primary Girl's Enrolment in percentage DISE": 47.8,
      "Prevalence of Severe Anaemia in women aged 15-49years in percentage DLHS-4": "Not available",
      "Marginal Workers Agricultural Labourers worked for 0 - 3 moths during last year - Males": 5148,
      "Households with electricity as main source of lighting  Houselisting and Housing Census Data Tables- District Level , Census of India__3": 43976,
      "Households with computer or laptop with internet connection in percentage": 0.47,
      "PHCs functioning on a 24x7hours basis in percentage DLHS-4": "Not available",
      "Non Workers - Males": 133807,
      "Total Households in District Houselisting and Housing Census Data Tables- District Level , Census of India": 159947,
      "Upper Primary Schools with girls toilet in percentage DISE": 52.5,
      "Households with mobile phone in percentage": 22.69,
      "Households receiving untreated tap water within premises in percentage Houselisting and Housing Census Data Tables- District Level , Census of India__2": 1.553014436,
      "Marginal Workers Cultivators worked for 3 - 6 moths during last year - Males": 8421,
      "Prevalence of Anaemia  in percentage DLHS-4": "Not available",
      "Prevalence of Chronic illness in percentage DLHS-4": "Not available",
      "Households with solar energy as main source of lighting in percentage Houselisting and Housing Census Data Tables- District Level , Census of India__1": 0.707734437,
      "Marginal Workers Agricultural Labourers worked for 0 - 3 moths during last year - Females": 13221,
      "Main Workers - Males": 116827,
      "Female": 44.76,
      "Sno": 1346,
      "Marginal Workers Other worked for 3 - 6 moths during last year - Females": 4410,
      "Marginal Workers Cultivators worked for 0 - 3 moths during last year - Females": 3288,
      "Scheduled Tribe Males": 100469,
      "Male Illiterates": 121059,
      "Prevalence of Severe Anaemia in pregnant women aged 15-49years in percentage DLHS-4": "Not available",
      "0-6 Age Group Persons": 88344,
      "Upper Primary Student-Classroom Ratio in percentage DISE": 33,
      "Currently married men married below 21years of age in percentage DLHS-4": 11.2,
      "Male Literates": 180903,
      "Households with no lighting in percentage Houselisting and Housing Census Data Tables- District Level , Census of India__2": 0.822772543,
      "Primary Drop Out Rate in percentage DISE": 4.1,
      "Marginal Workers Household Industry - Males": 1493,
      "Female Illiterates": 189940,
      "Main Workers Other - Females": 7728,
      "Marginal Workers Cultivators - Persons": 23381,
      "Upper Primary Gross Enrolment Ratio in percentage DISE": 97.9,
      "Scheduled Caste Persons": 82159,
      "Marginal Workers Cultivators worked for 3 - 6 moths during last year - Persons": 18337,
      "Households with landline phone in percentage": 0.78,
      "Total Households in District  Houselisting and Housing Census Data Tables- District Level , Census of India": 159947,
      "Upper Primary Pupil-Teacher Ratio in percentage DISE": 32,
      "Primary Student-Classroom Ratio in percentage DISE": 22,
      "Primary Schools with boys toilet in percentage DISE": 22.9,
      "Mean number of children ever born to women aged 40-49years  DLHS-4": "Not available",
      "Households receiving untreated tap water within premises  Houselisting and Housing Census Data Tables- District Level , Census of India__5": 2484,
      "Marginal Workers Household Industry worked for 0 - 3 moths during last year - Persons": 906,
      "Total Male Population": 301962,
      "Non Workers - Females": 171137,
      "Current use of family planning methods in percentage DLHS-4": 36.2,
      "Households with main source of drinking water within premises  Houselisting and Housing Census Data Tables- District Level , Census of India__3": 11802,
      "Main Workers Agricultural Labourers - Males": 22594,
      "Marginal Workers Other worked for 0 - 3 moths during last year - Persons": 2639,
      "Currently married women married below 18years of age in percentage DLHS-4": 4.5,
      "Person Illiterates": 310999,
      "Main Workers Household Industry - Females": 1189,
      "Female Literates": 118480,
      "Marginal Workers Cultivators worked for 0 - 3 moths during last year - Males": 1756,
      "Male": 70.29,
      "Households with improved source of drinking water in percentage DLHS-4": "Not available",
      "Upper Primary Schools with electricity in percentage DISE": 16.9,
      "Households with electricity in percentage DLHS-4": "Not available",
      "Villages with Primary Health Centre within 10km in percentage DLHS-4": "Not available",
      "Births to women aged 15-19years out of Total births in percentage DLHS-4": "Not available",
      "Prevalence of Anaemia in women aged 15-49years in percentage DLHS-4": "Not available",
      "Marginal Workers Agricultural Labourers worked for 3 - 6 moths during last year - Persons": 94335,
      "Main Workers Household Industry - Males": 3249,
      "Scheduled Tribe Females": 105858,
      "Marginal Workers worked for 0 - 3 moths during last year - Males": 8426,
      "Marginal Workers Other worked for 3 - 6 moths during last year - Males": 6407,
      "Primary Net Enrolment Ratio in percentage DISE": 100,
      "Total": 57.35,
      "Mean age at marriage for boys DLHS-4": 25,
      "Number of District Hospitals  DLHS-4": "Not available",
      "0-6 Age Group Females": 43744,
      "Marginal Workers Agricultural Labourers worked for 0 - 3 moths during last year - Persons": 18369,
      "Marginal Workers Household Industry worked for 0 - 3 moths during last year - Males": 330,
      "Total Workers  Females": 137283,
      "Marginal Workers worked for 3 - 6 moths during last year - Females": 83884,
      "Institutional Deliveries in percentage DLHS-4": 70.4,
      "Marginal Workers Other - Males": 7599,
      "Total Workers  Males": 168155,
      "Main Workers - Females": 34867,
      "Primary Gross Enrolment Ratio in percentage DISE": 130.1,
      "Main Workers Cultivators - Persons": 71311,
      "Marginal Workers Household Industry worked for 0 - 3 moths during last year - Females": 576,
      "Upper Primary Net Enrolment Ratio in percentage DISE": 75.7,
      "Primary New Government Schools since 2003 in percentage DISE": 41.3,
      "Tier": "Total",
      "Marginal Workers Household Industry - Females": 2710,
      "Primary Schools with electricity in percentage DISE": 4.3,
      "Main Workers Other - Persons": 38815,
      "Marginal Workers Household Industry worked for 3 - 6 moths during last year - Females": 2134,
      "Main Workers Cultivators - Males": 59897,
      "Main Workers Household Industry - Persons": 4438,
      "Marginal Workers Cultivators worked for 0 - 3 moths during last year - Persons": 5044,
      "Scheduled Caste Males": 40742,
      "Marginal Workers - Persons": 153744,
      "Deliveries at home conducted by skilled health personnel in percentage DLHS-4": 24.7,
      "Villages with Sub-Health Centres within 3km in percentage DLHS-4": "Not available",
      "Upper Primary New Government Schools since 2003 in percentage DISE": 0,
      "0-6 Age Group Males": 44600,
      "Primary Schools with drinking water facility in percentage DISE": 96.7,
      "Non Workers - Persons": 304944,
      "Person Literates": 299383,
      "State": "ODISHA",
      "Total Female Population": 308420,
      "Marginal Workers worked for 0 - 3 moths during last year - Persons": 26958,
      "Marginal Workers Cultivators - Females": 13204,
      "Marginal Workers Other - Persons": 13456,
      "Sex Ratio": 1021,
      "Scheduled Tribe Persons": 206327,
      "Marginal Workers Household Industry worked for 3 - 6 moths during last year - Males": 1163,
      "Marginal Workers Agricultural Labourers - Females": 80645,
      "Mean age at marriage for girls DLHS-4": 21.7,
      "Households with solar energy as main source of lighting  Houselisting and Housing Census Data Tables- District Level , Census of India__4": 1132,
      "District": "NUAPADA",
      "Households receiving treated tap water within premises in percentage Houselisting and Housing Census Data Tables- District Level , Census of India__1": 0.795263431,
      "Total Workers  Persons": 305438,
      "Households receiving treated tap water within premises  Houselisting and Housing Census Data Tables- District Level , Census of India__4": 1272,
      "Primary Female Teachers in percentage DISE": 24.6,
      "Number of Households": 152210,
      "Main Workers Agricultural Labourers - Persons": 37130
    }
  ],
  "Rural": [
    {
      "Marginal Workers Agricultural Labourers - Persons": 112113,
      "Marginal Workers Other - Females": 5246,
      "Marginal Workers Other worked for 0 - 3 moths during last year - Females": 1302,
      "Upper Primary Schools with boys toilet in percentage DISE": "NA",
      "Total Population": 576328,
      "Households with electricity as main source of lighting in percentage Houselisting and Housing Census Data Tables- District Level , Census of India": 24.91492289,
      "Primary Girl's Enrolment in percentage DISE": "NA",
      "Marginal Workers worked for 3 - 6 moths during last year - Males": 41842,
      "Prevalence of Acute illness in percentage DLHS-4": "Not available",
      "Main Workers - Persons": 141621,
      "Main Workers Cultivators - Females": 11356,
      "Marginal Workers Agricultural Labourers worked for 3 - 6 moths during last year - Females": 67074,
      "Marginal Workers Other worked for 0 - 3 moths during last year - Males": 983,
      "Upper Primary Schools with drinking water facility in percentage DISE": "NA",
      "Primary Schools with girls toilet in percentage DISE": "NA",
      "Marginal Workers worked for 3 - 6 moths during last year - Persons": 124801,
      "Upper Primary Drop Out Rate in percentage DISE": "NA",
      "Prevalence of Anaemia in pregnant women aged 15-49years in percentage DLHS-4": "Not available",
      "Current use of any modern method of family planning in percentage DLHS-4": 35.2,
      "Marginal Workers Agricultural Labourers - Males": 31872,
      "Upper Primary Female Teachers in percentage DISE": "NA",
      "Marginal Workers - Females": 101241,
      "Marginal Workers Other worked for 3 - 6 moths during last year - Persons": 9557,
      "Main Workers Agricultural Labourers - Females": 14456,
      "Marginal Workers Cultivators worked for 3 - 6 moths during last year - Females": 9874,
      "Households with no lighting  Houselisting and Housing Census Data Tables- District Level , Census of India__5": 1197,
      "Prevalence of Severe Anaemia  in percentage DLHS-4": "Not available",
      "Total unmet need for family planning in percentage DLHS-4": 30.8,
      "Main Workers Other - Males": 23925,
      "Children who received full vaccination in percentage DLHS-4": "Not available",
      "Marginal Workers Household Industry - Persons": 4023,
      "Primary Pupil-Teacher Ratio in percentage DISE": "NA",
      "Marginal Workers Agricultural Labourers worked for 3 - 6 moths during last year - Males": 26732,
      "Scheduled Caste Females": 37931,
      "Marginal Workers Cultivators - Males": 10129,
      "Marginal Workers - Males": 50020,
      "Marginal Workers worked for 0 - 3 moths during last year - Females": 18282,
      "Households with main source of drinking water within premises in percentage Houselisting and Housing Census Data Tables- District Level , Census of India": 6.138058596,
      "Marginal Workers Household Industry worked for 3 - 6 moths during last year - Persons": 3185,
      "Upper Primary Girl's Enrolment in percentage DISE": "NA",
      "Prevalence of Severe Anaemia in women aged 15-49years in percentage DLHS-4": "Not available",
      "Marginal Workers Agricultural Labourers worked for 0 - 3 moths during last year - Males": 5140,
      "Households with electricity as main source of lighting  Houselisting and Housing Census Data Tables- District Level , Census of India__3": 37851,
      "Households with computer or laptop with internet connection in percentage": 0.35,
      "PHCs functioning on a 24x7hours basis in percentage DLHS-4": "Not available",
      "Non Workers - Males": 126114,
      "Total Households in District Houselisting and Housing Census Data Tables- District Level , Census of India": 151921,
      "Upper Primary Schools with girls toilet in percentage DISE": "NA",
      "Households with mobile phone in percentage": 21.13,
      "Households receiving untreated tap water within premises in percentage Houselisting and Housing Census Data Tables- District Level , Census of India__2": 0.953126954,
      "Marginal Workers Cultivators worked for 3 - 6 moths during last year - Males": 8379,
      "Prevalence of Anaemia  in percentage DLHS-4": "Not available",
      "Prevalence of Chronic illness in percentage DLHS-4": "Not available",
      "Households with solar energy as main source of lighting in percentage Houselisting and Housing Census Data Tables- District Level , Census of India__1": 0.734592321,
      "Marginal Workers Agricultural Labourers worked for 0 - 3 moths during last year - Females": 13167,
      "Main Workers - Males": 108658,
      "Female": "NA",
      "Sno": 1345,
      "Marginal Workers Other worked for 3 - 6 moths during last year - Females": 3944,
      "Marginal Workers Cultivators worked for 0 - 3 moths during last year - Females": 3280,
      "Scheduled Tribe Males": 99371,
      "Male Illiterates": 116855,
      "Prevalence of Severe Anaemia in pregnant women aged 15-49years in percentage DLHS-4": "Not available",
      "0-6 Age Group Persons": 84066,
      "Upper Primary Student-Classroom Ratio in percentage DISE": "NA",
      "Currently married men married below 21years of age in percentage DLHS-4": 11.2,
      "Male Literates": 167937,
      "Households with no lighting in percentage Houselisting and Housing Census Data Tables- District Level , Census of India__2": 0.787909506,
      "Primary Drop Out Rate in percentage DISE": "NA",
      "Marginal Workers Household Industry - Males": 1423,
      "Female Illiterates": 183609,
      "Main Workers Other - Females": 6019,
      "Marginal Workers Cultivators - Persons": 23283,
      "Upper Primary Gross Enrolment Ratio in percentage DISE": "NA",
      "Scheduled Caste Persons": 75346,
      "Marginal Workers Cultivators worked for 3 - 6 moths during last year - Persons": 18253,
      "Households with landline phone in percentage": 0.74,
      "Total Households in District  Houselisting and Housing Census Data Tables- District Level , Census of India": 151921,
      "Upper Primary Pupil-Teacher Ratio in percentage DISE": "NA",
      "Primary Student-Classroom Ratio in percentage DISE": "NA",
      "Primary Schools with boys toilet in percentage DISE": "NA",
      "Mean number of children ever born to women aged 40-49years  DLHS-4": "Not available",
      "Households receiving untreated tap water within premises  Houselisting and Housing Census Data Tables- District Level , Census of India__5": 1448,
      "Marginal Workers Household Industry worked for 0 - 3 moths during last year - Persons": 838,
      "Total Male Population": 284792,
      "Non Workers - Females": 157332,
      "Current use of family planning methods in percentage DLHS-4": 36,
      "Households with main source of drinking water within premises  Houselisting and Housing Census Data Tables- District Level , Census of India__3": 9325,
      "Main Workers Agricultural Labourers - Males": 22335,
      "Marginal Workers Other worked for 0 - 3 moths during last year - Persons": 2285,
      "Currently married women married below 18years of age in percentage DLHS-4": 4.1,
      "Person Illiterates": 300464,
      "Main Workers Household Industry - Females": 1132,
      "Female Literates": 107927,
      "Marginal Workers Cultivators worked for 0 - 3 moths during last year - Males": 1750,
      "Male": "NA",
      "Households with improved source of drinking water in percentage DLHS-4": "Not available",
      "Upper Primary Schools with electricity in percentage DISE": "NA",
      "Households with electricity in percentage DLHS-4": "Not available",
      "Villages with Primary Health Centre within 10km in percentage DLHS-4": "Not available",
      "Births to women aged 15-19years out of Total births in percentage DLHS-4": "Not available",
      "Prevalence of Anaemia in women aged 15-49years in percentage DLHS-4": "Not available",
      "Marginal Workers Agricultural Labourers worked for 3 - 6 moths during last year - Persons": 93806,
      "Main Workers Household Industry - Males": 2963,
      "Scheduled Tribe Females": 104750,
      "Marginal Workers worked for 0 - 3 moths during last year - Males": 8178,
      "Marginal Workers Other worked for 3 - 6 moths during last year - Males": 5613,
      "Primary Net Enrolment Ratio in percentage DISE": "NA",
      "Total": "NA",
      "Mean age at marriage for boys DLHS-4": 25,
      "Number of District Hospitals  DLHS-4": "Not available",
      "0-6 Age Group Females": 41672,
      "Marginal Workers Agricultural Labourers worked for 0 - 3 moths during last year - Persons": 18307,
      "Marginal Workers Household Industry worked for 0 - 3 moths during last year - Males": 305,
      "Total Workers  Females": 134204,
      "Marginal Workers worked for 3 - 6 moths during last year - Females": 82959,
      "Institutional Deliveries in percentage DLHS-4": 69.7,
      "Marginal Workers Other - Males": 6596,
      "Total Workers  Males": 158678,
      "Main Workers - Females": 32963,
      "Primary Gross Enrolment Ratio in percentage DISE": "NA",
      "Main Workers Cultivators - Persons": 70791,
      "Marginal Workers Household Industry worked for 0 - 3 moths during last year - Females": 533,
      "Upper Primary Net Enrolment Ratio in percentage DISE": "NA",
      "Primary New Government Schools since 2003 in percentage DISE": "NA",
      "Tier": "Rural",
      "Marginal Workers Household Industry - Females": 2600,
      "Primary Schools with electricity in percentage DISE": "NA",
      "Main Workers Other - Persons": 29944,
      "Marginal Workers Household Industry worked for 3 - 6 moths during last year - Females": 2067,
      "Main Workers Cultivators - Males": 59435,
      "Main Workers Household Industry - Persons": 4095,
      "Marginal Workers Cultivators worked for 0 - 3 moths during last year - Persons": 5030,
      "Scheduled Caste Males": 37415,
      "Marginal Workers - Persons": 151261,
      "Deliveries at home conducted by skilled health personnel in percentage DLHS-4": 24.1,
      "Villages with Sub-Health Centres within 3km in percentage DLHS-4": "Not available",
      "Upper Primary New Government Schools since 2003 in percentage DISE": "NA",
      "0-6 Age Group Males": 42394,
      "Primary Schools with drinking water facility in percentage DISE": "NA",
      "Non Workers - Persons": 283446,
      "Person Literates": 275864,
      "State": "ODISHA",
      "Total Female Population": 291536,
      "Marginal Workers worked for 0 - 3 moths during last year - Persons": 26460,
      "Marginal Workers Cultivators - Females": 13154,
      "Marginal Workers Other - Persons": 11842,
      "Sex Ratio": 1024,
      "Scheduled Tribe Persons": 204121,
      "Marginal Workers Household Industry worked for 3 - 6 moths during last year - Males": 1118,
      "Marginal Workers Agricultural Labourers - Females": 80241,
      "Mean age at marriage for girls DLHS-4": 21.7,
      "Households with solar energy as main source of lighting  Houselisting and Housing Census Data Tables- District Level , Census of India__4": 1116,
      "District": "NUAPADA",
      "Households receiving treated tap water within premises in percentage Houselisting and Housing Census Data Tables- District Level , Census of India__1": 0.557526609,
      "Total Workers  Persons": 292882,
      "Households receiving treated tap water within premises  Houselisting and Housing Census Data Tables- District Level , Census of India__4": 847,
      "Primary Female Teachers in percentage DISE": "NA",
      "Number of Households": 144299,
      "Main Workers Agricultural Labourers - Persons": 36791
    }
  ],
  "Urban": [
    {
      "Marginal Workers Agricultural Labourers - Persons": 591,
      "Marginal Workers Other - Females": 611,
      "Marginal Workers Other worked for 0 - 3 moths during last year - Females": 145,
      "Upper Primary Schools with boys toilet in percentage DISE": "NA",
      "Total Population": 34054,
      "Households with electricity as main source of lighting in percentage Houselisting and Housing Census Data Tables- District Level , Census of India": 76.31447795,
      "Primary Girl's Enrolment in percentage DISE": "NA",
      "Marginal Workers worked for 3 - 6 moths during last year - Males": 1060,
      "Prevalence of Acute illness in percentage DLHS-4": "Not available",
      "Main Workers - Persons": 10073,
      "Main Workers Cultivators - Females": 58,
      "Marginal Workers Agricultural Labourers worked for 3 - 6 moths during last year - Females": 350,
      "Marginal Workers Other worked for 0 - 3 moths during last year - Males": 209,
      "Upper Primary Schools with drinking water facility in percentage DISE": "NA",
      "Primary Schools with girls toilet in percentage DISE": "NA",
      "Marginal Workers worked for 3 - 6 moths during last year - Persons": 1985,
      "Upper Primary Drop Out Rate in percentage DISE": "NA",
      "Prevalence of Anaemia in pregnant women aged 15-49years in percentage DLHS-4": "Not available",
      "Current use of any modern method of family planning in percentage DLHS-4": "Not available",
      "Marginal Workers Agricultural Labourers - Males": 187,
      "Upper Primary Female Teachers in percentage DISE": "NA",
      "Marginal Workers - Females": 1175,
      "Marginal Workers Other worked for 3 - 6 moths during last year - Persons": 1260,
      "Main Workers Agricultural Labourers - Females": 80,
      "Marginal Workers Cultivators worked for 3 - 6 moths during last year - Females": 42,
      "Households with no lighting  Houselisting and Housing Census Data Tables- District Level , Census of India__5": 119,
      "Prevalence of Severe Anaemia  in percentage DLHS-4": "Not available",
      "Total unmet need for family planning in percentage DLHS-4": "Not available",
      "Main Workers Other - Males": 7162,
      "Children who received full vaccination in percentage DLHS-4": "Not available",
      "Marginal Workers Household Industry - Persons": 180,
      "Primary Pupil-Teacher Ratio in percentage DISE": "NA",
      "Marginal Workers Agricultural Labourers worked for 3 - 6 moths during last year - Males": 179,
      "Scheduled Caste Females": 3486,
      "Marginal Workers Cultivators - Males": 48,
      "Marginal Workers - Males": 1308,
      "Marginal Workers worked for 0 - 3 moths during last year - Females": 250,
      "Households with main source of drinking water within premises in percentage Houselisting and Housing Census Data Tables- District Level , Census of India": 30.86219786,
      "Marginal Workers Household Industry worked for 3 - 6 moths during last year - Persons": 112,
      "Upper Primary Girl's Enrolment in percentage DISE": "NA",
      "Prevalence of Severe Anaemia in women aged 15-49years in percentage DLHS-4": "Not available",
      "Marginal Workers Agricultural Labourers worked for 0 - 3 moths during last year - Males": 8,
      "Households with electricity as main source of lighting  Houselisting and Housing Census Data Tables- District Level , Census of India__3": 6125,
      "Households with computer or laptop with internet connection in percentage": 2.89,
      "PHCs functioning on a 24x7hours basis in percentage DLHS-4": "Not available",
      "Non Workers - Males": 7693,
      "Total Households in District Houselisting and Housing Census Data Tables- District Level , Census of India": 8026,
      "Upper Primary Schools with girls toilet in percentage DISE": "NA",
      "Households with mobile phone in percentage": 52.14,
      "Households receiving untreated tap water within premises in percentage Houselisting and Housing Census Data Tables- District Level , Census of India__2": 12.90804884,
      "Marginal Workers Cultivators worked for 3 - 6 moths during last year - Males": 42,
      "Prevalence of Anaemia  in percentage DLHS-4": "Not available",
      "Prevalence of Chronic illness in percentage DLHS-4": "Not available",
      "Households with solar energy as main source of lighting in percentage Houselisting and Housing Census Data Tables- District Level , Census of India__1": 0.199352106,
      "Marginal Workers Agricultural Labourers worked for 0 - 3 moths during last year - Females": 54,
      "Main Workers - Males": 8169,
      "Female": "NA",
      "Sno": 1347,
      "Marginal Workers Other worked for 3 - 6 moths during last year - Females": 466,
      "Marginal Workers Cultivators worked for 0 - 3 moths during last year - Females": 8,
      "Scheduled Tribe Males": 1098,
      "Male Illiterates": 4204,
      "Prevalence of Severe Anaemia in pregnant women aged 15-49years in percentage DLHS-4": "Not available",
      "0-6 Age Group Persons": 4278,
      "Upper Primary Student-Classroom Ratio in percentage DISE": "NA",
      "Currently married men married below 21years of age in percentage DLHS-4": "Not available",
      "Male Literates": 12966,
      "Households with no lighting in percentage Houselisting and Housing Census Data Tables- District Level , Census of India__2": 1.482681286,
      "Primary Drop Out Rate in percentage DISE": "NA",
      "Marginal Workers Household Industry - Males": 70,
      "Female Illiterates": 6331,
      "Main Workers Other - Females": 1709,
      "Marginal Workers Cultivators - Persons": 98,
      "Upper Primary Gross Enrolment Ratio in percentage DISE": "NA",
      "Scheduled Caste Persons": 6813,
      "Marginal Workers Cultivators worked for 3 - 6 moths during last year - Persons": 84,
      "Households with landline phone in percentage": 1.58,
      "Total Households in District  Houselisting and Housing Census Data Tables- District Level , Census of India": 8026,
      "Upper Primary Pupil-Teacher Ratio in percentage DISE": "NA",
      "Primary Student-Classroom Ratio in percentage DISE": "NA",
      "Primary Schools with boys toilet in percentage DISE": "NA",
      "Mean number of children ever born to women aged 40-49years  DLHS-4": "Not available",
      "Households receiving untreated tap water within premises  Houselisting and Housing Census Data Tables- District Level , Census of India__5": 1036,
      "Marginal Workers Household Industry worked for 0 - 3 moths during last year - Persons": 68,
      "Total Male Population": 17170,
      "Non Workers - Females": 13805,
      "Current use of family planning methods in percentage DLHS-4": "Not available",
      "Households with main source of drinking water within premises  Houselisting and Housing Census Data Tables- District Level , Census of India__3": 2477,
      "Main Workers Agricultural Labourers - Males": 259,
      "Marginal Workers Other worked for 0 - 3 moths during last year - Persons": 354,
      "Currently married women married below 18years of age in percentage DLHS-4": "Not available",
      "Person Illiterates": 10535,
      "Main Workers Household Industry - Females": 57,
      "Female Literates": 10553,
      "Marginal Workers Cultivators worked for 0 - 3 moths during last year - Males": 6,
      "Male": "NA",
      "Households with improved source of drinking water in percentage DLHS-4": "Not available",
      "Upper Primary Schools with electricity in percentage DISE": "NA",
      "Households with electricity in percentage DLHS-4": "Not available",
      "Villages with Primary Health Centre within 10km in percentage DLHS-4": "Not available",
      "Births to women aged 15-19years out of Total births in percentage DLHS-4": "Not available",
      "Prevalence of Anaemia in women aged 15-49years in percentage DLHS-4": "Not available",
      "Marginal Workers Agricultural Labourers worked for 3 - 6 moths during last year - Persons": 529,
      "Main Workers Household Industry - Males": 286,
      "Scheduled Tribe Females": 1108,
      "Marginal Workers worked for 0 - 3 moths during last year - Males": 248,
      "Marginal Workers Other worked for 3 - 6 moths during last year - Males": 794,
      "Primary Net Enrolment Ratio in percentage DISE": "NA",
      "Total": "NA",
      "Mean age at marriage for boys DLHS-4": "Not available",
      "Number of District Hospitals  DLHS-4": "Not available",
      "0-6 Age Group Females": 2072,
      "Marginal Workers Agricultural Labourers worked for 0 - 3 moths during last year - Persons": 62,
      "Marginal Workers Household Industry worked for 0 - 3 moths during last year - Males": 25,
      "Total Workers  Females": 3079,
      "Marginal Workers worked for 3 - 6 moths during last year - Females": 925,
      "Institutional Deliveries in percentage DLHS-4": "Not available",
      "Marginal Workers Other - Males": 1003,
      "Total Workers  Males": 9477,
      "Main Workers - Females": 1904,
      "Primary Gross Enrolment Ratio in percentage DISE": "NA",
      "Main Workers Cultivators - Persons": 520,
      "Marginal Workers Household Industry worked for 0 - 3 moths during last year - Females": 43,
      "Upper Primary Net Enrolment Ratio in percentage DISE": "NA",
      "Primary New Government Schools since 2003 in percentage DISE": "NA",
      "Tier": "Urban",
      "Marginal Workers Household Industry - Females": 110,
      "Primary Schools with electricity in percentage DISE": "NA",
      "Main Workers Other - Persons": 8871,
      "Marginal Workers Household Industry worked for 3 - 6 moths during last year - Females": 67,
      "Main Workers Cultivators - Males": 462,
      "Main Workers Household Industry - Persons": 343,
      "Marginal Workers Cultivators worked for 0 - 3 moths during last year - Persons": 14,
      "Scheduled Caste Males": 3327,
      "Marginal Workers - Persons": 2483,
      "Deliveries at home conducted by skilled health personnel in percentage DLHS-4": "Not available",
      "Villages with Sub-Health Centres within 3km in percentage DLHS-4": "Not available",
      "Upper Primary New Government Schools since 2003 in percentage DISE": "NA",
      "0-6 Age Group Males": 2206,
      "Primary Schools with drinking water facility in percentage DISE": "NA",
      "Non Workers - Persons": 21498,
      "Person Literates": 23519,
      "State": "ODISHA",
      "Total Female Population": 16884,
      "Marginal Workers worked for 0 - 3 moths during last year - Persons": 498,
      "Marginal Workers Cultivators - Females": 50,
      "Marginal Workers Other - Persons": 1614,
      "Sex Ratio": 983,
      "Scheduled Tribe Persons": 2206,
      "Marginal Workers Household Industry worked for 3 - 6 moths during last year - Males": 45,
      "Marginal Workers Agricultural Labourers - Females": 404,
      "Mean age at marriage for girls DLHS-4": "Not available",
      "Households with solar energy as main source of lighting  Houselisting and Housing Census Data Tables- District Level , Census of India__4": 16,
      "District": "NUAPADA",
      "Households receiving treated tap water within premises in percentage Houselisting and Housing Census Data Tables- District Level , Census of India__1": 5.295290307,
      "Total Workers  Persons": 12556,
      "Households receiving treated tap water within premises  Houselisting and Housing Census Data Tables- District Level , Census of India__4": 425,
      "Primary Female Teachers in percentage DISE": "NA",
      "Number of Households": 7911,
      "Main Workers Agricultural Labourers - Persons": 339
    }
  ]
}