{
  "Total": [
    {
      "Marginal Workers Agricultural Labourers - Persons": 84437,
      "Marginal Workers Other - Females": 23142,
      "Marginal Workers Other worked for 0 - 3 moths during last year - Females": 4777,
      "Upper Primary Schools with boys toilet in percentage DISE": 100,
      "Total Population": 1698730,
      "Households with electricity as main source of lighting in percentage Houselisting and Housing Census Data Tables- District Level , Census of India": 54.56422776,
      "Primary Girl's Enrolment in percentage DISE": 49.2,
      "Marginal Workers worked for 3 - 6 moths during last year - Males": 84615,
      "Prevalence of Acute illness in percentage DLHS-4": "Not available",
      "Main Workers - Persons": 450536,
      "Main Workers Cultivators - Females": 5975,
      "Marginal Workers Agricultural Labourers worked for 3 - 6 moths during last year - Females": 26839,
      "Marginal Workers Other worked for 0 - 3 moths during last year - Males": 4228,
      "Upper Primary Schools with drinking water facility in percentage DISE": 80.8,
      "Primary Schools with girls toilet in percentage DISE": 100,
      "Marginal Workers worked for 3 - 6 moths during last year - Persons": 140040,
      "Upper Primary Drop Out Rate in percentage DISE": 1.01,
      "Prevalence of Anaemia in pregnant women aged 15-49years in percentage DLHS-4": "Not available",
      "Current use of any modern method of family planning in percentage DLHS-4": 47.5,
      "Marginal Workers Agricultural Labourers - Males": 49763,
      "Upper Primary Female Teachers in percentage DISE": 31.1,
      "Marginal Workers - Females": 71914,
      "Marginal Workers Other worked for 3 - 6 moths during last year - Persons": 42872,
      "Main Workers Agricultural Labourers - Females": 11797,
      "Marginal Workers Cultivators worked for 3 - 6 moths during last year - Females": 6478,
      "Households with no lighting  Houselisting and Housing Census Data Tables- District Level , Census of India__5": 4466,
      "Prevalence of Severe Anaemia  in percentage DLHS-4": "Not available",
      "Total unmet need for family planning in percentage DLHS-4": 30.7,
      "Main Workers Other - Males": 177464,
      "Children who received full vaccination in percentage DLHS-4": "Not available",
      "Marginal Workers Household Industry - Persons": 9467,
      "Primary Pupil-Teacher Ratio in percentage DISE": 21,
      "Marginal Workers Agricultural Labourers worked for 3 - 6 moths during last year - Males": 43004,
      "Scheduled Caste Females": 160767,
      "Marginal Workers Cultivators - Males": 16391,
      "Marginal Workers - Males": 99226,
      "Marginal Workers worked for 0 - 3 moths during last year - Females": 16489,
      "Households with main source of drinking water within premises in percentage Houselisting and Housing Census Data Tables- District Level , Census of India": 33.33856588,
      "Marginal Workers Household Industry worked for 3 - 6 moths during last year - Persons": 7182,
      "Upper Primary Girl's Enrolment in percentage DISE": 48.6,
      "Prevalence of Severe Anaemia in women aged 15-49years in percentage DLHS-4": "Not available",
      "Marginal Workers Agricultural Labourers worked for 0 - 3 moths during last year - Males": 6759,
      "Households with electricity as main source of lighting  Houselisting and Housing Census Data Tables- District Level , Census of India__3": 201605,
      "Households with computer or laptop with internet connection in percentage": 0.92,
      "PHCs functioning on a 24x7hours basis in percentage DLHS-4": "Not available",
      "Non Workers - Males": 366919,
      "Total Households in District Houselisting and Housing Census Data Tables- District Level , Census of India": 369482,
      "Upper Primary Schools with girls toilet in percentage DISE": 100,
      "Households with mobile phone in percentage": 43.59,
      "Households receiving untreated tap water within premises in percentage Houselisting and Housing Census Data Tables- District Level , Census of India__2": 0.494746699,
      "Marginal Workers Cultivators worked for 3 - 6 moths during last year - Males": 13665,
      "Prevalence of Anaemia  in percentage DLHS-4": "Not available",
      "Prevalence of Chronic illness in percentage DLHS-4": "Not available",
      "Households with solar energy as main source of lighting in percentage Houselisting and Housing Census Data Tables- District Level , Census of India__1": 0.233570242,
      "Marginal Workers Agricultural Labourers worked for 0 - 3 moths during last year - Females": 7835,
      "Main Workers - Males": 399235,
      "Female": 78.28,
      "Sno": 1349,
      "Marginal Workers Other worked for 3 - 6 moths during last year - Females": 18365,
      "Marginal Workers Cultivators worked for 0 - 3 moths during last year - Females": 2490,
      "Scheduled Tribe Males": 3240,
      "Male Illiterates": 160523,
      "Prevalence of Severe Anaemia in pregnant women aged 15-49years in percentage DLHS-4": "Not available",
      "0-6 Age Group Persons": 172888,
      "Upper Primary Student-Classroom Ratio in percentage DISE": 28,
      "Currently married men married below 21years of age in percentage DLHS-4": 2,
      "Male Literates": 704857,
      "Households with no lighting in percentage Houselisting and Housing Census Data Tables- District Level , Census of India__2": 1.208719234,
      "Primary Drop Out Rate in percentage DISE": "Not available",
      "Marginal Workers Household Industry - Males": 4337,
      "Female Illiterates": 246268,
      "Main Workers Other - Females": 30517,
      "Marginal Workers Cultivators - Persons": 25359,
      "Upper Primary Gross Enrolment Ratio in percentage DISE": 92.4,
      "Scheduled Caste Persons": 325133,
      "Marginal Workers Cultivators worked for 3 - 6 moths during last year - Persons": 20143,
      "Households with landline phone in percentage": 2.01,
      "Total Households in District  Houselisting and Housing Census Data Tables- District Level , Census of India": 369482,
      "Upper Primary Pupil-Teacher Ratio in percentage DISE": 27,
      "Primary Student-Classroom Ratio in percentage DISE": 20,
      "Primary Schools with boys toilet in percentage DISE": 99.9,
      "Mean number of children ever born to women aged 40-49years  DLHS-4": "Not available",
      "Households receiving untreated tap water within premises  Houselisting and Housing Census Data Tables- District Level , Census of India__5": 1828,
      "Marginal Workers Household Industry worked for 0 - 3 moths during last year - Persons": 2285,
      "Total Male Population": 865380,
      "Non Workers - Females": 710135,
      "Current use of family planning methods in percentage DLHS-4": 57.5,
      "Households with main source of drinking water within premises  Houselisting and Housing Census Data Tables- District Level , Census of India__3": 123180,
      "Main Workers Agricultural Labourers - Males": 67708,
      "Marginal Workers Other worked for 0 - 3 moths during last year - Persons": 9005,
      "Currently married women married below 18years of age in percentage DLHS-4": 1.2,
      "Person Illiterates": 406791,
      "Main Workers Household Industry - Females": 3012,
      "Female Literates": 587082,
      "Marginal Workers Cultivators worked for 0 - 3 moths during last year - Males": 2726,
      "Male": 90.85,
      "Households with improved source of drinking water in percentage DLHS-4": "Not available",
      "Upper Primary Schools with electricity in percentage DISE": 21.8,
      "Households with electricity in percentage DLHS-4": "Not available",
      "Villages with Primary Health Centre within 10km in percentage DLHS-4": "Not available",
      "Births to women aged 15-19years out of Total births in percentage DLHS-4": "Not available",
      "Prevalence of Anaemia in women aged 15-49years in percentage DLHS-4": "Not available",
      "Marginal Workers Agricultural Labourers worked for 3 - 6 moths during last year - Persons": 69843,
      "Main Workers Household Industry - Males": 12636,
      "Scheduled Tribe Females": 2889,
      "Marginal Workers worked for 0 - 3 moths during last year - Males": 14611,
      "Marginal Workers Other worked for 3 - 6 moths during last year - Males": 24507,
      "Primary Net Enrolment Ratio in percentage DISE": 87,
      "Total": 84.67,
      "Mean age at marriage for boys DLHS-4": 28.1,
      "Number of District Hospitals  DLHS-4": "Not available",
      "0-6 Age Group Females": 83392,
      "Marginal Workers Agricultural Labourers worked for 0 - 3 moths during last year - Persons": 14594,
      "Marginal Workers Household Industry worked for 0 - 3 moths during last year - Males": 898,
      "Total Workers  Females": 123215,
      "Marginal Workers worked for 3 - 6 moths during last year - Females": 55425,
      "Institutional Deliveries in percentage DLHS-4": 95.5,
      "Marginal Workers Other - Males": 28735,
      "Total Workers  Males": 498461,
      "Main Workers - Females": 51301,
      "Primary Gross Enrolment Ratio in percentage DISE": 101.5,
      "Main Workers Cultivators - Persons": 147402,
      "Marginal Workers Household Industry worked for 0 - 3 moths during last year - Females": 1387,
      "Upper Primary Net Enrolment Ratio in percentage DISE": 67.8,
      "Primary New Government Schools since 2003 in percentage DISE": 30.8,
      "Tier": "Total",
      "Marginal Workers Household Industry - Females": 5130,
      "Primary Schools with electricity in percentage DISE": 13.4,
      "Main Workers Other - Persons": 207981,
      "Marginal Workers Household Industry worked for 3 - 6 moths during last year - Females": 3743,
      "Main Workers Cultivators - Males": 141427,
      "Main Workers Household Industry - Persons": 15648,
      "Marginal Workers Cultivators worked for 0 - 3 moths during last year - Persons": 5216,
      "Scheduled Caste Males": 164366,
      "Marginal Workers - Persons": 171140,
      "Deliveries at home conducted by skilled health personnel in percentage DLHS-4": 14.3,
      "Villages with Sub-Health Centres within 3km in percentage DLHS-4": "Not available",
      "Upper Primary New Government Schools since 2003 in percentage DISE": 1.8,
      "0-6 Age Group Males": 89496,
      "Primary Schools with drinking water facility in percentage DISE": 87.1,
      "Non Workers - Persons": 1077054,
      "Person Literates": 1291939,
      "State": "ODISHA",
      "Total Female Population": 833350,
      "Marginal Workers worked for 0 - 3 moths during last year - Persons": 31100,
      "Marginal Workers Cultivators - Females": 8968,
      "Marginal Workers Other - Persons": 51877,
      "Sex Ratio": 963,
      "Scheduled Tribe Persons": 6129,
      "Marginal Workers Household Industry worked for 3 - 6 moths during last year - Males": 3439,
      "Marginal Workers Agricultural Labourers - Females": 34674,
      "Mean age at marriage for girls DLHS-4": 23.4,
      "Households with solar energy as main source of lighting  Houselisting and Housing Census Data Tables- District Level , Census of India__4": 863,
      "District": "PURI",
      "Households receiving treated tap water within premises in percentage Houselisting and Housing Census Data Tables- District Level , Census of India__1": 3.936321661,
      "Total Workers  Persons": 621676,
      "Households receiving treated tap water within premises  Houselisting and Housing Census Data Tables- District Level , Census of India__4": 14544,
      "Primary Female Teachers in percentage DISE": 56.5,
      "Number of Households": 367269,
      "Main Workers Agricultural Labourers - Persons": 79505
    }
  ],
  "Rural": [
    {
      "Marginal Workers Agricultural Labourers - Persons": 82722,
      "Marginal Workers Other - Females": 20378,
      "Marginal Workers Other worked for 0 - 3 moths during last year - Females": 4473,
      "Upper Primary Schools with boys toilet in percentage DISE": "NA",
      "Total Population": 1433800,
      "Households with electricity as main source of lighting in percentage Houselisting and Housing Census Data Tables- District Level , Census of India": 48.98833446,
      "Primary Girl's Enrolment in percentage DISE": "NA",
      "Marginal Workers worked for 3 - 6 moths during last year - Males": 79236,
      "Prevalence of Acute illness in percentage DLHS-4": "Not available",
      "Main Workers - Persons": 366582,
      "Main Workers Cultivators - Females": 5884,
      "Marginal Workers Agricultural Labourers worked for 3 - 6 moths during last year - Females": 26387,
      "Marginal Workers Other worked for 0 - 3 moths during last year - Males": 3934,
      "Upper Primary Schools with drinking water facility in percentage DISE": "NA",
      "Primary Schools with girls toilet in percentage DISE": "NA",
      "Marginal Workers worked for 3 - 6 moths during last year - Persons": 131230,
      "Upper Primary Drop Out Rate in percentage DISE": "NA",
      "Prevalence of Anaemia in pregnant women aged 15-49years in percentage DLHS-4": "Not available",
      "Current use of any modern method of family planning in percentage DLHS-4": 47.8,
      "Marginal Workers Agricultural Labourers - Males": 48607,
      "Upper Primary Female Teachers in percentage DISE": "NA",
      "Marginal Workers - Females": 67973,
      "Marginal Workers Other worked for 3 - 6 moths during last year - Persons": 36709,
      "Main Workers Agricultural Labourers - Females": 11348,
      "Marginal Workers Cultivators worked for 3 - 6 moths during last year - Females": 6383,
      "Households with no lighting  Houselisting and Housing Census Data Tables- District Level , Census of India__5": 3994,
      "Prevalence of Severe Anaemia  in percentage DLHS-4": "Not available",
      "Total unmet need for family planning in percentage DLHS-4": 32.2,
      "Main Workers Other - Males": 113011,
      "Children who received full vaccination in percentage DLHS-4": "Not available",
      "Marginal Workers Household Industry - Persons": 8493,
      "Primary Pupil-Teacher Ratio in percentage DISE": "NA",
      "Marginal Workers Agricultural Labourers worked for 3 - 6 moths during last year - Males": 41948,
      "Scheduled Caste Females": 146862,
      "Marginal Workers Cultivators - Males": 16147,
      "Marginal Workers - Males": 93372,
      "Marginal Workers worked for 0 - 3 moths during last year - Females": 15979,
      "Households with main source of drinking water within premises in percentage Houselisting and Housing Census Data Tables- District Level , Census of India": 26.86481473,
      "Marginal Workers Household Industry worked for 3 - 6 moths during last year - Persons": 6360,
      "Upper Primary Girl's Enrolment in percentage DISE": "NA",
      "Prevalence of Severe Anaemia in women aged 15-49years in percentage DLHS-4": "Not available",
      "Marginal Workers Agricultural Labourers worked for 0 - 3 moths during last year - Males": 6659,
      "Households with electricity as main source of lighting  Houselisting and Housing Census Data Tables- District Level , Census of India__3": 155294,
      "Households with computer or laptop with internet connection in percentage": 0.47,
      "PHCs functioning on a 24x7hours basis in percentage DLHS-4": "Not available",
      "Non Workers - Males": 306570,
      "Total Households in District Houselisting and Housing Census Data Tables- District Level , Census of India": 317002,
      "Upper Primary Schools with girls toilet in percentage DISE": "NA",
      "Households with mobile phone in percentage": 40.19,
      "Households receiving untreated tap water within premises in percentage Houselisting and Housing Census Data Tables- District Level , Census of India__2": 0.215140598,
      "Marginal Workers Cultivators worked for 3 - 6 moths during last year - Males": 13443,
      "Prevalence of Anaemia  in percentage DLHS-4": "Not available",
      "Prevalence of Chronic illness in percentage DLHS-4": "Not available",
      "Households with solar energy as main source of lighting in percentage Houselisting and Housing Census Data Tables- District Level , Census of India__1": 0.253310705,
      "Marginal Workers Agricultural Labourers worked for 0 - 3 moths during last year - Females": 7728,
      "Main Workers - Males": 328271,
      "Female": "NA",
      "Sno": 1348,
      "Marginal Workers Other worked for 3 - 6 moths during last year - Females": 15905,
      "Marginal Workers Cultivators worked for 0 - 3 moths during last year - Females": 2484,
      "Scheduled Tribe Males": 2251,
      "Male Illiterates": 136363,
      "Prevalence of Severe Anaemia in pregnant women aged 15-49years in percentage DLHS-4": "Not available",
      "0-6 Age Group Persons": 147983,
      "Upper Primary Student-Classroom Ratio in percentage DISE": "NA",
      "Currently married men married below 21years of age in percentage DLHS-4": 1.9,
      "Male Literates": 591850,
      "Households with no lighting in percentage Houselisting and Housing Census Data Tables- District Level , Census of India__2": 1.259928959,
      "Primary Drop Out Rate in percentage DISE": "NA",
      "Marginal Workers Household Industry - Males": 3880,
      "Female Illiterates": 215235,
      "Main Workers Other - Females": 18812,
      "Marginal Workers Cultivators - Persons": 25014,
      "Upper Primary Gross Enrolment Ratio in percentage DISE": "NA",
      "Scheduled Caste Persons": 296881,
      "Marginal Workers Cultivators worked for 3 - 6 moths during last year - Persons": 19826,
      "Households with landline phone in percentage": 1.78,
      "Total Households in District  Houselisting and Housing Census Data Tables- District Level , Census of India": 317002,
      "Upper Primary Pupil-Teacher Ratio in percentage DISE": "NA",
      "Primary Student-Classroom Ratio in percentage DISE": "NA",
      "Primary Schools with boys toilet in percentage DISE": "NA",
      "Mean number of children ever born to women aged 40-49years  DLHS-4": "Not available",
      "Households receiving untreated tap water within premises  Houselisting and Housing Census Data Tables- District Level , Census of India__5": 682,
      "Marginal Workers Household Industry worked for 0 - 3 moths during last year - Persons": 2133,
      "Total Male Population": 728213,
      "Non Workers - Females": 599303,
      "Current use of family planning methods in percentage DLHS-4": 55.7,
      "Households with main source of drinking water within premises  Houselisting and Housing Census Data Tables- District Level , Census of India__3": 85162,
      "Main Workers Agricultural Labourers - Males": 66046,
      "Marginal Workers Other worked for 0 - 3 moths during last year - Persons": 8407,
      "Currently married women married below 18years of age in percentage DLHS-4": 0.8,
      "Person Illiterates": 351598,
      "Main Workers Household Industry - Females": 2267,
      "Female Literates": 490352,
      "Marginal Workers Cultivators worked for 0 - 3 moths during last year - Males": 2704,
      "Male": "NA",
      "Households with improved source of drinking water in percentage DLHS-4": "Not available",
      "Upper Primary Schools with electricity in percentage DISE": "NA",
      "Households with electricity in percentage DLHS-4": "Not available",
      "Villages with Primary Health Centre within 10km in percentage DLHS-4": "Not available",
      "Births to women aged 15-19years out of Total births in percentage DLHS-4": "Not available",
      "Prevalence of Anaemia in women aged 15-49years in percentage DLHS-4": "Not available",
      "Marginal Workers Agricultural Labourers worked for 3 - 6 moths during last year - Persons": 68335,
      "Main Workers Household Industry - Males": 9604,
      "Scheduled Tribe Females": 2128,
      "Marginal Workers worked for 0 - 3 moths during last year - Males": 14136,
      "Marginal Workers Other worked for 3 - 6 moths during last year - Males": 20804,
      "Primary Net Enrolment Ratio in percentage DISE": "NA",
      "Total": "NA",
      "Mean age at marriage for boys DLHS-4": 27.9,
      "Number of District Hospitals  DLHS-4": "Not available",
      "0-6 Age Group Females": 71420,
      "Marginal Workers Agricultural Labourers worked for 0 - 3 moths during last year - Persons": 14387,
      "Marginal Workers Household Industry worked for 0 - 3 moths during last year - Males": 839,
      "Total Workers  Females": 106284,
      "Marginal Workers worked for 3 - 6 moths during last year - Females": 51994,
      "Institutional Deliveries in percentage DLHS-4": 95.5,
      "Marginal Workers Other - Males": 24738,
      "Total Workers  Males": 421643,
      "Main Workers - Females": 38311,
      "Primary Gross Enrolment Ratio in percentage DISE": "NA",
      "Main Workers Cultivators - Persons": 145494,
      "Marginal Workers Household Industry worked for 0 - 3 moths during last year - Females": 1294,
      "Upper Primary Net Enrolment Ratio in percentage DISE": "NA",
      "Primary New Government Schools since 2003 in percentage DISE": "NA",
      "Tier": "Rural",
      "Marginal Workers Household Industry - Females": 4613,
      "Primary Schools with electricity in percentage DISE": "NA",
      "Main Workers Other - Persons": 131823,
      "Marginal Workers Household Industry worked for 3 - 6 moths during last year - Females": 3319,
      "Main Workers Cultivators - Males": 139610,
      "Main Workers Household Industry - Persons": 11871,
      "Marginal Workers Cultivators worked for 0 - 3 moths during last year - Persons": 5188,
      "Scheduled Caste Males": 150019,
      "Marginal Workers - Persons": 161345,
      "Deliveries at home conducted by skilled health personnel in percentage DLHS-4": 13.3,
      "Villages with Sub-Health Centres within 3km in percentage DLHS-4": "Not available",
      "Upper Primary New Government Schools since 2003 in percentage DISE": "NA",
      "0-6 Age Group Males": 76563,
      "Primary Schools with drinking water facility in percentage DISE": "NA",
      "Non Workers - Persons": 905873,
      "Person Literates": 1082202,
      "State": "ODISHA",
      "Total Female Population": 705587,
      "Marginal Workers worked for 0 - 3 moths during last year - Persons": 30115,
      "Marginal Workers Cultivators - Females": 8867,
      "Marginal Workers Other - Persons": 45116,
      "Sex Ratio": 969,
      "Scheduled Tribe Persons": 4379,
      "Marginal Workers Household Industry worked for 3 - 6 moths during last year - Males": 3041,
      "Marginal Workers Agricultural Labourers - Females": 34115,
      "Mean age at marriage for girls DLHS-4": 23.3,
      "Households with solar energy as main source of lighting  Houselisting and Housing Census Data Tables- District Level , Census of India__4": 803,
      "District": "PURI",
      "Households receiving treated tap water within premises in percentage Houselisting and Housing Census Data Tables- District Level , Census of India__1": 0.420502079,
      "Total Workers  Persons": 527927,
      "Households receiving treated tap water within premises  Houselisting and Housing Census Data Tables- District Level , Census of India__4": 1333,
      "Primary Female Teachers in percentage DISE": "NA",
      "Number of Households": 313188,
      "Main Workers Agricultural Labourers - Persons": 77394
    }
  ],
  "Urban": [
    {
      "Marginal Workers Agricultural Labourers - Persons": 1715,
      "Marginal Workers Other - Females": 2764,
      "Marginal Workers Other worked for 0 - 3 moths during last year - Females": 304,
      "Upper Primary Schools with boys toilet in percentage DISE": "NA",
      "Total Population": 264930,
      "Households with electricity as main source of lighting in percentage Houselisting and Housing Census Data Tables- District Level , Census of India": 88.24504573,
      "Primary Girl's Enrolment in percentage DISE": "NA",
      "Marginal Workers worked for 3 - 6 moths during last year - Males": 5379,
      "Prevalence of Acute illness in percentage DLHS-4": "Not available",
      "Main Workers - Persons": 83954,
      "Main Workers Cultivators - Females": 91,
      "Marginal Workers Agricultural Labourers worked for 3 - 6 moths during last year - Females": 452,
      "Marginal Workers Other worked for 0 - 3 moths during last year - Males": 294,
      "Upper Primary Schools with drinking water facility in percentage DISE": "NA",
      "Primary Schools with girls toilet in percentage DISE": "NA",
      "Marginal Workers worked for 3 - 6 moths during last year - Persons": 8810,
      "Upper Primary Drop Out Rate in percentage DISE": "NA",
      "Prevalence of Anaemia in pregnant women aged 15-49years in percentage DLHS-4": "Not available",
      "Current use of any modern method of family planning in percentage DLHS-4": 45.6,
      "Marginal Workers Agricultural Labourers - Males": 1156,
      "Upper Primary Female Teachers in percentage DISE": "NA",
      "Marginal Workers - Females": 3941,
      "Marginal Workers Other worked for 3 - 6 moths during last year - Persons": 6163,
      "Main Workers Agricultural Labourers - Females": 449,
      "Marginal Workers Cultivators worked for 3 - 6 moths during last year - Females": 95,
      "Households with no lighting  Houselisting and Housing Census Data Tables- District Level , Census of India__5": 472,
      "Prevalence of Severe Anaemia  in percentage DLHS-4": "Not available",
      "Total unmet need for family planning in percentage DLHS-4": 22.9,
      "Main Workers Other - Males": 64453,
      "Children who received full vaccination in percentage DLHS-4": "Not available",
      "Marginal Workers Household Industry - Persons": 974,
      "Primary Pupil-Teacher Ratio in percentage DISE": "NA",
      "Marginal Workers Agricultural Labourers worked for 3 - 6 moths during last year - Males": 1056,
      "Scheduled Caste Females": 13905,
      "Marginal Workers Cultivators - Males": 244,
      "Marginal Workers - Males": 5854,
      "Marginal Workers worked for 0 - 3 moths during last year - Females": 510,
      "Households with main source of drinking water within premises in percentage Houselisting and Housing Census Data Tables- District Level , Census of India": 72.44283537,
      "Marginal Workers Household Industry worked for 3 - 6 moths during last year - Persons": 822,
      "Upper Primary Girl's Enrolment in percentage DISE": "NA",
      "Prevalence of Severe Anaemia in women aged 15-49years in percentage DLHS-4": "Not available",
      "Marginal Workers Agricultural Labourers worked for 0 - 3 moths during last year - Males": 100,
      "Households with electricity as main source of lighting  Houselisting and Housing Census Data Tables- District Level , Census of India__3": 46311,
      "Households with computer or laptop with internet connection in percentage": 3.65,
      "PHCs functioning on a 24x7hours basis in percentage DLHS-4": "Not available",
      "Non Workers - Males": 60349,
      "Total Households in District Houselisting and Housing Census Data Tables- District Level , Census of India": 52480,
      "Upper Primary Schools with girls toilet in percentage DISE": "NA",
      "Households with mobile phone in percentage": 64.12,
      "Households receiving untreated tap water within premises in percentage Houselisting and Housing Census Data Tables- District Level , Census of India__2": 2.183689024,
      "Marginal Workers Cultivators worked for 3 - 6 moths during last year - Males": 222,
      "Prevalence of Anaemia  in percentage DLHS-4": "Not available",
      "Prevalence of Chronic illness in percentage DLHS-4": "Not available",
      "Households with solar energy as main source of lighting in percentage Houselisting and Housing Census Data Tables- District Level , Census of India__1": 0.114329268,
      "Marginal Workers Agricultural Labourers worked for 0 - 3 moths during last year - Females": 107,
      "Main Workers - Males": 70964,
      "Female": "NA",
      "Sno": 1350,
      "Marginal Workers Other worked for 3 - 6 moths during last year - Females": 2460,
      "Marginal Workers Cultivators worked for 0 - 3 moths during last year - Females": 6,
      "Scheduled Tribe Males": 989,
      "Male Illiterates": 24160,
      "Prevalence of Severe Anaemia in pregnant women aged 15-49years in percentage DLHS-4": "Not available",
      "0-6 Age Group Persons": 24905,
      "Upper Primary Student-Classroom Ratio in percentage DISE": "NA",
      "Currently married men married below 21years of age in percentage DLHS-4": 2.4,
      "Male Literates": 113007,
      "Households with no lighting in percentage Houselisting and Housing Census Data Tables- District Level , Census of India__2": 0.899390244,
      "Primary Drop Out Rate in percentage DISE": "NA",
      "Marginal Workers Household Industry - Males": 457,
      "Female Illiterates": 31033,
      "Main Workers Other - Females": 11705,
      "Marginal Workers Cultivators - Persons": 345,
      "Upper Primary Gross Enrolment Ratio in percentage DISE": "NA",
      "Scheduled Caste Persons": 28252,
      "Marginal Workers Cultivators worked for 3 - 6 moths during last year - Persons": 317,
      "Households with landline phone in percentage": 3.42,
      "Total Households in District  Houselisting and Housing Census Data Tables- District Level , Census of India": 52480,
      "Upper Primary Pupil-Teacher Ratio in percentage DISE": "NA",
      "Primary Student-Classroom Ratio in percentage DISE": "NA",
      "Primary Schools with boys toilet in percentage DISE": "NA",
      "Mean number of children ever born to women aged 40-49years  DLHS-4": "Not available",
      "Households receiving untreated tap water within premises  Houselisting and Housing Census Data Tables- District Level , Census of India__5": 1146,
      "Marginal Workers Household Industry worked for 0 - 3 moths during last year - Persons": 152,
      "Total Male Population": 137167,
      "Non Workers - Females": 110832,
      "Current use of family planning methods in percentage DLHS-4": 66.8,
      "Households with main source of drinking water within premises  Houselisting and Housing Census Data Tables- District Level , Census of India__3": 38018,
      "Main Workers Agricultural Labourers - Males": 1662,
      "Marginal Workers Other worked for 0 - 3 moths during last year - Persons": 598,
      "Currently married women married below 18years of age in percentage DLHS-4": 3.2,
      "Person Illiterates": 55193,
      "Main Workers Household Industry - Females": 745,
      "Female Literates": 96730,
      "Marginal Workers Cultivators worked for 0 - 3 moths during last year - Males": 22,
      "Male": "NA",
      "Households with improved source of drinking water in percentage DLHS-4": "Not available",
      "Upper Primary Schools with electricity in percentage DISE": "NA",
      "Households with electricity in percentage DLHS-4": "Not available",
      "Villages with Primary Health Centre within 10km in percentage DLHS-4": "Not available",
      "Births to women aged 15-19years out of Total births in percentage DLHS-4": "Not available",
      "Prevalence of Anaemia in women aged 15-49years in percentage DLHS-4": "Not available",
      "Marginal Workers Agricultural Labourers worked for 3 - 6 moths during last year - Persons": 1508,
      "Main Workers Household Industry - Males": 3032,
      "Scheduled Tribe Females": 761,
      "Marginal Workers worked for 0 - 3 moths during last year - Males": 475,
      "Marginal Workers Other worked for 3 - 6 moths during last year - Males": 3703,
      "Primary Net Enrolment Ratio in percentage DISE": "NA",
      "Total": "NA",
      "Mean age at marriage for boys DLHS-4": 29.3,
      "Number of District Hospitals  DLHS-4": "Not available",
      "0-6 Age Group Females": 11972,
      "Marginal Workers Agricultural Labourers worked for 0 - 3 moths during last year - Persons": 207,
      "Marginal Workers Household Industry worked for 0 - 3 moths during last year - Males": 59,
      "Total Workers  Females": 16931,
      "Marginal Workers worked for 3 - 6 moths during last year - Females": 3431,
      "Institutional Deliveries in percentage DLHS-4": 95.4,
      "Marginal Workers Other - Males": 3997,
      "Total Workers  Males": 76818,
      "Main Workers - Females": 12990,
      "Primary Gross Enrolment Ratio in percentage DISE": "NA",
      "Main Workers Cultivators - Persons": 1908,
      "Marginal Workers Household Industry worked for 0 - 3 moths during last year - Females": 93,
      "Upper Primary Net Enrolment Ratio in percentage DISE": "NA",
      "Primary New Government Schools since 2003 in percentage DISE": "NA",
      "Tier": "Urban",
      "Marginal Workers Household Industry - Females": 517,
      "Primary Schools with electricity in percentage DISE": "NA",
      "Main Workers Other - Persons": 76158,
      "Marginal Workers Household Industry worked for 3 - 6 moths during last year - Females": 424,
      "Main Workers Cultivators - Males": 1817,
      "Main Workers Household Industry - Persons": 3777,
      "Marginal Workers Cultivators worked for 0 - 3 moths during last year - Persons": 28,
      "Scheduled Caste Males": 14347,
      "Marginal Workers - Persons": 9795,
      "Deliveries at home conducted by skilled health personnel in percentage DLHS-4": 20,
      "Villages with Sub-Health Centres within 3km in percentage DLHS-4": "Not available",
      "Upper Primary New Government Schools since 2003 in percentage DISE": "NA",
      "0-6 Age Group Males": 12933,
      "Primary Schools with drinking water facility in percentage DISE": "NA",
      "Non Workers - Persons": 171181,
      "Person Literates": 209737,
      "State": "ODISHA",
      "Total Female Population": 127763,
      "Marginal Workers worked for 0 - 3 moths during last year - Persons": 985,
      "Marginal Workers Cultivators - Females": 101,
      "Marginal Workers Other - Persons": 6761,
      "Sex Ratio": 931,
      "Scheduled Tribe Persons": 1750,
      "Marginal Workers Household Industry worked for 3 - 6 moths during last year - Males": 398,
      "Marginal Workers Agricultural Labourers - Females": 559,
      "Mean age at marriage for girls DLHS-4": 23.9,
      "Households with solar energy as main source of lighting  Houselisting and Housing Census Data Tables- District Level , Census of India__4": 60,
      "District": "PURI",
      "Households receiving treated tap water within premises in percentage Houselisting and Housing Census Data Tables- District Level , Census of India__1": 25.17339939,
      "Total Workers  Persons": 93749,
      "Households receiving treated tap water within premises  Houselisting and Housing Census Data Tables- District Level , Census of India__4": 13211,
      "Primary Female Teachers in percentage DISE": "NA",
      "Number of Households": 54081,
      "Main Workers Agricultural Labourers - Persons": 2111
    }
  ]
}