{
  "Marginal Workers Agricultural Labourers - Persons": "5561446",
  "Marginal Workers Agricultural Labourers worked for 3 - 6 moths during last year - Females": "2725234",
  "Main Workers - Females": "6340054",
  "Total Population": "72626809",
  "Households with electricity as main source of lighting in percentage Houselisting and Housing Census Data Tables- District Level , Census of India": "3249",
  "Primary Girl's Enrolment in percentage DISE": "49.85",
  "Marginal Workers worked for 3 - 6 moths during last year - Males": "62931.64",
  "Prevalence of Acute illness in percentage DLHS-4": "N/A",
  "Main Workers - Persons": "22702119",
  "Main Workers Cultivators - Females": "2176244",
  "Marginal Workers Other worked for 0 - 3 moths during last year - Males": "149020",
  "Marginal Workers Cultivators worked for 3 - 6 moths during last year - Persons": "1292775",
  "Currently married women married below 18years of age in percentage DLHS-4": "10.98",
  "Primary Schools with girls toilet in percentage DISE": "92.85",
  "Marginal Workers worked for 3 - 6 moths during last year - Persons": "7309526",
  "Upper Primary Drop Out Rate in percentage DISE": "8.13",
  "Prevalence of Anaemia in pregnant women aged 15-49years in percentage DLHS-4": "N/A",
  "Current use of any modern method of family planning in percentage DLHS-4": "59.27",
  "Marginal Workers Other - Males": "834916",
  "Upper Primary Female Teachers in percentage DISE": "32.03",
  "Marginal Workers - Females": "5087109",
  "Marginal Workers Household Industry - Persons": "6233.88",
  "Marginal Workers Cultivators worked for 3 - 6 moths during last year - Females": "866967",
  "Households with no lighting  Houselisting and Housing Census Data Tables- District Level , Census of India__5": "34038",
  "Mean age at marriage for girls DLHS-4": "20.70",
  "Total unmet need for family planning in percentage DLHS-4": "23.77",
  "Marginal Workers Other - Females": "534512",
  "Children who received full vaccination in percentage DLHS-4": "N/A",
  "Households with main source of drinking water within premises  Houselisting and Housing Census Data Tables- District Level , Census of India__3": "3577237",
  "Primary Pupil-Teacher Ratio in percentage DISE": "29.20",
  "Marginal Workers Agricultural Labourers worked for 3 - 6 moths during last year - Males": "1945081",
  "Marginal Workers worked for 0 - 3 moths during last year - Persons": "1562488",
  "Scheduled Caste Females": "5433682",
  "Marginal Workers Cultivators - Males": "552315",
  "Marginal Workers Agricultural Labourers - Males": "45658.92",
  "Marginal Workers worked for 0 - 3 moths during last year - Females": "18483.30",
  "Households with main source of drinking water within premises in percentage Houselisting and Housing Census Data Tables- District Level , Census of India": "22.68",
  "Marginal Workers worked for 0 - 3 moths during last year - Males": "638323",
  "Female Literates": "17676841",
  "working population": "N/A",
  "Upper Primary Girl's Enrolment in percentage DISE": "52.85",
  "Prevalence of Severe Anaemia in women aged 15-49years in percentage DLHS-4": "N/A",
  "Marginal Workers Agricultural Labourers worked for 0 - 3 moths during last year - Males": "337865",
  "Marginal Workers Household Industry worked for 0 - 3 moths during last year - Males": "24931",
  "Marginal Workers Household Industry - Females": "196966",
  "Current use of family planning methods in percentage DLHS-4": "63.03",
  "Non Workers - Males": "17465336",
  "Total Households in District Houselisting and Housing Census Data Tables- District Level , Census of India": "14967597",
  "Upper Primary Schools with girls toilet in percentage DISE": "89.09",
  "Primary Schools with drinking water facility in percentage DISE": "95.75",
  "Upper Primary Schools with boys toilet in percentage DISE": "89.71",
  "Households receiving untreated tap water within premises in percentage Houselisting and Housing Census Data Tables- District Level , Census of India__2": "165",
  "Marginal Workers Cultivators worked for 3 - 6 moths during last year - Males": "425808",
  "Prevalence of Anaemia  in percentage DLHS-4": "N/A",
  "Prevalence of Chronic illness in percentage DLHS-4": "N/A",
  "Households with solar energy as main source of lighting in percentage Houselisting and Housing Census Data Tables- District Level , Census of India__1": "15",
  "Marginal Workers Agricultural Labourers worked for 0 - 3 moths during last year - Females": "11065.32",
  "Female": "2870",
  "Total Male Population": "37612306",
  "Marginal Workers Cultivators worked for 0 - 3 moths during last year - Females": "210164",
  "Scheduled Tribe Males": "7719404",
  "Male Illiterates": "12437978",
  "Prevalence of Severe Anaemia in pregnant women aged 15-49years in percentage DLHS-4": "N/A",
  "0-6 Age Group Persons": "10809395",
  "Marginal Workers - Persons": "8872014",
  "Currently married men married below 21years of age in percentage DLHS-4": "21.82",
  "Male Literates": "25174328",
  "Households with improved source of drinking water in percentage DLHS-4": "N/A",
  "Primary Drop Out Rate in percentage DISE": "6.43",
  "Marginal Workers Household Industry - Males": "114728",
  "Female Illiterates": "17337662",
  "Main Workers Other - Females": "26189.10",
  "Upper Primary Gross Enrolment Ratio in percentage DISE": "97.05",
  "Scheduled Caste Persons": "226846.40",
  "Upper Primary Schools with electricity in percentage DISE": "1078",
  "Number of Households": "15093256",
  "Marginal Workers - Males": "3784905",
  "Total Households in District  Houselisting and Housing Census Data Tables- District Level , Census of India": "14967597",
  "Upper Primary Pupil-Teacher Ratio in percentage DISE": "40.32",
  "Primary Student-Classroom Ratio in percentage DISE": "22.52",
  "Primary Schools with boys toilet in percentage DISE": "91.95",
  "Mean number of children ever born to women aged 40-49years  DLHS-4": "N/A",
  "Households receiving untreated tap water within premises  Houselisting and Housing Census Data Tables- District Level , Census of India__5": "463840",
  "Marginal Workers Household Industry worked for 0 - 3 moths during last year - Persons": "68641",
  "Marginal Workers Household Industry worked for 3 - 6 moths during last year - Persons": "4861.06",
  "sexratio": "N/A",
  "Marginal Workers Cultivators - Persons": "32588.92",
  "Marginal Workers Other worked for 3 - 6 moths during last year - Females": "417487",
  "Main Workers Agricultural Labourers - Males": "4027711",
  "Upper Primary Schools with drinking water facility in percentage DISE": "94.48",
  "Main Workers Agricultural Labourers - Persons": "6630821",
  "Person Illiterates": "29775640",
  "Main Workers Household Industry - Females": "251245",
  "Primary Net Enrolment Ratio in percentage DISE": "92.25",
  "Marginal Workers Cultivators worked for 0 - 3 moths during last year - Males": "126507",
  "Male": "3864",
  "Households with no lighting in percentage Houselisting and Housing Census Data Tables- District Level , Census of India__2": "11",
  "Main Workers Other - Males": "5899285",
  "Marginal Workers Other worked for 3 - 6 moths during last year - Persons": "22067.66",
  "Households with electricity in percentage DLHS-4": "N/A",
  "Villages with Primary Health Centre within 10km in percentage DLHS-4": "N/A",
  "Births to women aged 15-19years out of Total births in percentage DLHS-4": "N/A",
  "Prevalence of Anaemia in women aged 15-49years in percentage DLHS-4": "N/A",
  "Main Workers Household Industry - Males": "7926.40",
  "Scheduled Tribe Females": "7597380",
  "PHCs functioning on a 24x7hours basis in percentage DLHS-4": "N/A",
  "Marginal Workers Other worked for 3 - 6 moths during last year - Males": "685896",
  "Marginal Workers Other worked for 0 - 3 moths during last year - Females": "117025",
  "Households with computer/laptop with internet connection in percentage": "N/A",
  "enrollment rate of education": "N/A",
  "Mean age at marriage for boys DLHS-4": "23.18",
  "Number of District Hospitals  DLHS-4": "N/A",
  "0-6 Age Group Females": "103464.46",
  "Total": "3384",
  "Households with electricity as main source of lighting  Houselisting and Housing Census Data Tables- District Level , Census of India__3": "10044644",
  "Total Workers  Females": "11427163",
  "Marginal Workers Agricultural Labourers worked for 0 - 3 moths during last year - Persons": "891131",
  "Marginal Workers worked for 3 - 6 moths during last year - Females": "4162944",
  "Institutional Deliveries in percentage DLHS-4": "81.74",
  "Upper Primary Net Enrolment Ratio in percentage DISE": "72.31",
  "Marginal Workers Agricultural Labourers worked for 3 - 6 moths during last year - Persons": "4670315",
  "Total Workers  Males": "20146970",
  "Primary Gross Enrolment Ratio in percentage DISE": "114.19",
  "Main Workers Cultivators - Persons": "8214993",
  "Marginal Workers Household Industry worked for 0 - 3 moths during last year - Females": "43710",
  "Households with landline phone in percentage": "108",
  "Primary New Government Schools since 2003 in percentage DISE": "6.23",
  "Tier": "N/A",
  "Households with mobile phone in percentage": "1963",
  "Primary Schools with electricity in percentage DISE": "11.60",
  "Main Workers Other - Persons": "144174.80",
  "Marginal Workers Household Industry worked for 3 - 6 moths during last year - Females": "153256",
  "Households receiving treated tap water within premises in percentage Houselisting and Housing Census Data Tables- District Level , Census of India__1": "477",
  "Main Workers Agricultural Labourers - Females": "2603110",
  "Marginal Workers Cultivators worked for 0 - 3 moths during last year - Persons": "336671",
  "Scheduled Caste Males": "5908638",
  "Marginal Workers Other worked for 0 - 3 moths during last year - Persons": "266045",
  "Deliveries at home conducted by skilled health personnel in percentage DLHS-4": "41.64",
  "Villages with Sub-Health Centres within 3km in percentage DLHS-4": "N/A",
  "Upper Primary New Government Schools since 2003 in percentage DISE": "32.67",
  "0-6 Age Group Males": "5636172",
  "Non Workers - Females": "23587340",
  "Non Workers - Persons": "41052676",
  "Person Literates": "42851169",
  "enrolment rate": "N/A",
  "State": "N/A",
  "Main Workers - Males": "16362065",
  "Total Female Population": "35014503",
  "Marginal Workers Cultivators - Females": "21542.62",
  "Marginal Workers Other - Persons": "27388.56",
  "Sex Ratio": "935.56",
  "Scheduled Tribe Persons": "15316784",
  "Marginal Workers Household Industry worked for 3 - 6 moths during last year - Males": "1795.94",
  "Marginal Workers Agricultural Labourers - Females": "3278500",
  "Prevalence of Severe Anaemia  in percentage DLHS-4": "N/A",
  "Upper Primary Student-Classroom Ratio in percentage DISE": "29.52",
  "Main Workers Household Industry - Persons": "12951.30",
  "Households with solar energy as main source of lighting  Houselisting and Housing Census Data Tables- District Level , Census of India__4": "40089",
  "District": "N/A",
  "Main Workers Cultivators - Males": "6038749",
  "Total Workers  Persons": "31574133",
  "Households receiving treated tap water within premises  Houselisting and Housing Census Data Tables- District Level , Census of India__4": "1629426",
  "Primary Female Teachers in percentage DISE": "33.65"
}