{
  "Total": [
    {
      "Marginal Workers Agricultural Labourers - Persons": 71826,
      "Marginal Workers Other - Females": 8136,
      "Marginal Workers Other worked for 0 - 3 moths during last year - Females": 2577,
      "Upper Primary Schools with boys toilet in percentage DISE": 50,
      "Total Population": 749237,
      "Households with electricity as main source of lighting in percentage Houselisting and Housing Census Data Tables- District Level , Census of India": 48.18059579,
      "Primary Girl's Enrolment in percentage DISE": 49.8,
      "Marginal Workers worked for 3 - 6 moths during last year - Males": 42718,
      "Prevalence of Acute illness in percentage DLHS-4": "Not available",
      "Main Workers - Persons": 227040,
      "Main Workers Cultivators - Females": 30030,
      "Marginal Workers Agricultural Labourers worked for 3 - 6 moths during last year - Females": 35519,
      "Marginal Workers Other worked for 0 - 3 moths during last year - Males": 2335,
      "Upper Primary Schools with drinking water facility in percentage DISE": 92.8,
      "Primary Schools with girls toilet in percentage DISE": 88,
      "Marginal Workers worked for 3 - 6 moths during last year - Persons": 95166,
      "Upper Primary Drop Out Rate in percentage DISE": 4.29,
      "Prevalence of Anaemia in pregnant women aged 15-49years in percentage DLHS-4": "Not available",
      "Current use of any modern method of family planning in percentage DLHS-4": "Not available",
      "Marginal Workers Agricultural Labourers - Males": 28865,
      "Upper Primary Female Teachers in percentage DISE": 26.4,
      "Marginal Workers - Females": 66798,
      "Marginal Workers Other worked for 3 - 6 moths during last year - Persons": 13731,
      "Main Workers Agricultural Labourers - Females": 28135,
      "Marginal Workers Cultivators worked for 3 - 6 moths during last year - Females": 10298,
      "Households with no lighting  Houselisting and Housing Census Data Tables- District Level , Census of India__5": 114,
      "Prevalence of Severe Anaemia  in percentage DLHS-4": "Not available",
      "Total unmet need for family planning in percentage DLHS-4": "Not available",
      "Main Workers Other - Males": 61964,
      "Children who received full vaccination in percentage DLHS-4": "Not available",
      "Marginal Workers Household Industry - Persons": 3010,
      "Primary Pupil-Teacher Ratio in percentage DISE": 25,
      "Marginal Workers Agricultural Labourers worked for 3 - 6 moths during last year - Males": 24245,
      "Scheduled Caste Females": 36544,
      "Marginal Workers Cultivators - Males": 11849,
      "Marginal Workers - Males": 52633,
      "Marginal Workers worked for 0 - 3 moths during last year - Females": 14350,
      "Households with main source of drinking water within premises in percentage Houselisting and Housing Census Data Tables- District Level , Census of India": 28.0051416,
      "Marginal Workers Household Industry worked for 3 - 6 moths during last year - Persons": 2102,
      "Upper Primary Girl's Enrolment in percentage DISE": 52.4,
      "Prevalence of Severe Anaemia in women aged 15-49years in percentage DLHS-4": "Not available",
      "Marginal Workers Agricultural Labourers worked for 0 - 3 moths during last year - Males": 4620,
      "Households with electricity as main source of lighting  Houselisting and Housing Census Data Tables- District Level , Census of India__3": 81338,
      "Households with computer or laptop with internet connection in percentage": 0.76,
      "PHCs functioning on a 24x7hours basis in percentage DLHS-4": "Not available",
      "Non Workers - Males": 171713,
      "Total Households in District Houselisting and Housing Census Data Tables- District Level , Census of India": 168819,
      "Upper Primary Schools with girls toilet in percentage DISE": 87,
      "Households with mobile phone in percentage": 30.21,
      "Households receiving untreated tap water within premises in percentage Houselisting and Housing Census Data Tables- District Level , Census of India__2": 1.238604659,
      "Marginal Workers Cultivators worked for 3 - 6 moths during last year - Males": 9271,
      "Prevalence of Anaemia  in percentage DLHS-4": "Not available",
      "Prevalence of Chronic illness in percentage DLHS-4": "Not available",
      "Households with solar energy as main source of lighting in percentage Houselisting and Housing Census Data Tables- District Level , Census of India__1": 0.149864648,
      "Marginal Workers Agricultural Labourers worked for 0 - 3 moths during last year - Females": 7442,
      "Main Workers - Males": 154768,
      "Female": 57.3,
      "Sno": 905,
      "Marginal Workers Other worked for 3 - 6 moths during last year - Females": 5559,
      "Marginal Workers Cultivators worked for 0 - 3 moths during last year - Females": 3805,
      "Scheduled Tribe Males": 177977,
      "Male Illiterates": 124994,
      "Prevalence of Severe Anaemia in pregnant women aged 15-49years in percentage DLHS-4": "Not available",
      "0-6 Age Group Persons": 106071,
      "Upper Primary Student-Classroom Ratio in percentage DISE": 27,
      "Currently married men married below 21years of age in percentage DLHS-4": "Not available",
      "Male Literates": 254120,
      "Households with no lighting in percentage Houselisting and Housing Census Data Tables- District Level , Census of India__2": 0.0675,
      "Primary Drop Out Rate in percentage DISE": 6.6,
      "Marginal Workers Household Industry - Males": 1412,
      "Female Illiterates": 187648,
      "Main Workers Other - Females": 12989,
      "Marginal Workers Cultivators - Persons": 25952,
      "Upper Primary Gross Enrolment Ratio in percentage DISE": 94.3,
      "Scheduled Caste Persons": 74385,
      "Marginal Workers Cultivators worked for 3 - 6 moths during last year - Persons": 19569,
      "Households with landline phone in percentage": 1.72,
      "Total Households in District  Houselisting and Housing Census Data Tables- District Level , Census of India": 168819,
      "Upper Primary Pupil-Teacher Ratio in percentage DISE": 35,
      "Primary Student-Classroom Ratio in percentage DISE": 17,
      "Primary Schools with boys toilet in percentage DISE": 51.9,
      "Mean number of children ever born to women aged 40-49years  DLHS-4": "Not available",
      "Households receiving untreated tap water within premises  Houselisting and Housing Census Data Tables- District Level , Census of India__5": 2091,
      "Marginal Workers Household Industry worked for 0 - 3 moths during last year - Persons": 908,
      "Total Male Population": 379114,
      "Non Workers - Females": 231053,
      "Current use of family planning methods in percentage DLHS-4": "Not available",
      "Households with main source of drinking water within premises  Houselisting and Housing Census Data Tables- District Level , Census of India__3": 47278,
      "Main Workers Agricultural Labourers - Males": 30415,
      "Marginal Workers Other worked for 0 - 3 moths during last year - Persons": 4912,
      "Currently married women married below 18years of age in percentage DLHS-4": "Not available",
      "Person Illiterates": 312642,
      "Main Workers Household Industry - Females": 1118,
      "Female Literates": 182475,
      "Marginal Workers Cultivators worked for 0 - 3 moths during last year - Males": 2578,
      "Male": 78.26,
      "Households with improved source of drinking water in percentage DLHS-4": "Not available",
      "Upper Primary Schools with electricity in percentage DISE": 19.7,
      "Households with electricity in percentage DLHS-4": "Not available",
      "Villages with Primary Health Centre within 10km in percentage DLHS-4": "Not available",
      "Births to women aged 15-19years out of Total births in percentage DLHS-4": "Not available",
      "Prevalence of Anaemia in women aged 15-49years in percentage DLHS-4": "Not available",
      "Marginal Workers Agricultural Labourers worked for 3 - 6 moths during last year - Persons": 59764,
      "Main Workers Household Industry - Males": 2923,
      "Scheduled Tribe Females": 180566,
      "Marginal Workers worked for 0 - 3 moths during last year - Males": 9915,
      "Marginal Workers Other worked for 3 - 6 moths during last year - Males": 8172,
      "Primary Net Enrolment Ratio in percentage DISE": 91.1,
      "Total": 67.88,
      "Mean age at marriage for boys DLHS-4": "Not available",
      "Number of District Hospitals  DLHS-4": "Not available",
      "0-6 Age Group Females": 51683,
      "Marginal Workers Agricultural Labourers worked for 0 - 3 moths during last year - Persons": 12062,
      "Marginal Workers Household Industry worked for 0 - 3 moths during last year - Males": 382,
      "Total Workers  Females": 139070,
      "Marginal Workers worked for 3 - 6 moths during last year - Females": 52448,
      "Institutional Deliveries in percentage DLHS-4": "Not available",
      "Marginal Workers Other - Males": 10507,
      "Total Workers  Males": 207401,
      "Main Workers - Females": 72272,
      "Primary Gross Enrolment Ratio in percentage DISE": 102.2,
      "Main Workers Cultivators - Persons": 89496,
      "Marginal Workers Household Industry worked for 0 - 3 moths during last year - Females": 526,
      "Upper Primary Net Enrolment Ratio in percentage DISE": 72.2,
      "Primary New Government Schools since 2003 in percentage DISE": 1.5,
      "Tier": "Total",
      "Marginal Workers Household Industry - Females": 1598,
      "Primary Schools with electricity in percentage DISE": 6.1,
      "Main Workers Other - Persons": 74953,
      "Marginal Workers Household Industry worked for 3 - 6 moths during last year - Females": 1072,
      "Main Workers Cultivators - Males": 59466,
      "Main Workers Household Industry - Persons": 4041,
      "Marginal Workers Cultivators worked for 0 - 3 moths during last year - Persons": 6383,
      "Scheduled Caste Males": 37841,
      "Marginal Workers - Persons": 119431,
      "Deliveries at home conducted by skilled health personnel in percentage DLHS-4": "Not available",
      "Villages with Sub-Health Centres within 3km in percentage DLHS-4": "Not available",
      "Upper Primary New Government Schools since 2003 in percentage DISE": 32.4,
      "0-6 Age Group Males": 54388,
      "Primary Schools with drinking water facility in percentage DISE": 91,
      "Non Workers - Persons": 402766,
      "Person Literates": 436595,
      "State": "MADHYA PRADESH",
      "Total Female Population": 370123,
      "Marginal Workers worked for 0 - 3 moths during last year - Persons": 24265,
      "Marginal Workers Cultivators - Females": 14103,
      "Marginal Workers Other - Persons": 18643,
      "Sex Ratio": 976,
      "Scheduled Tribe Persons": 358543,
      "Marginal Workers Household Industry worked for 3 - 6 moths during last year - Males": 1030,
      "Marginal Workers Agricultural Labourers - Females": 42961,
      "Mean age at marriage for girls DLHS-4": "Not available",
      "Households with solar energy as main source of lighting  Houselisting and Housing Census Data Tables- District Level , Census of India__4": 253,
      "District": "ANUPPUR",
      "Households receiving treated tap water within premises in percentage Houselisting and Housing Census Data Tables- District Level , Census of India__1": 11.12967142,
      "Total Workers  Persons": 346471,
      "Households receiving treated tap water within premises  Houselisting and Housing Census Data Tables- District Level , Census of India__4": 18789,
      "Primary Female Teachers in percentage DISE": 34,
      "Number of Households": 170715,
      "Main Workers Agricultural Labourers - Persons": 58550
    }
  ],
  "Rural": [
    {
      "Marginal Workers Agricultural Labourers - Persons": 70183,
      "Marginal Workers Other - Females": 6378,
      "Marginal Workers Other worked for 0 - 3 moths during last year - Females": 2173,
      "Upper Primary Schools with boys toilet in percentage DISE": "NA",
      "Total Population": 543996,
      "Households with electricity as main source of lighting in percentage Houselisting and Housing Census Data Tables- District Level , Census of India": 35.30758566,
      "Primary Girl's Enrolment in percentage DISE": "NA",
      "Marginal Workers worked for 3 - 6 moths during last year - Males": 38849,
      "Prevalence of Acute illness in percentage DLHS-4": "Not available",
      "Main Workers - Persons": 173144,
      "Main Workers Cultivators - Females": 29718,
      "Marginal Workers Agricultural Labourers worked for 3 - 6 moths during last year - Females": 34893,
      "Marginal Workers Other worked for 0 - 3 moths during last year - Males": 1779,
      "Upper Primary Schools with drinking water facility in percentage DISE": "NA",
      "Primary Schools with girls toilet in percentage DISE": "NA",
      "Marginal Workers worked for 3 - 6 moths during last year - Persons": 88849,
      "Upper Primary Drop Out Rate in percentage DISE": "NA",
      "Prevalence of Anaemia in pregnant women aged 15-49years in percentage DLHS-4": "Not available",
      "Current use of any modern method of family planning in percentage DLHS-4": "Not available",
      "Marginal Workers Agricultural Labourers - Males": 27991,
      "Upper Primary Female Teachers in percentage DISE": "NA",
      "Marginal Workers - Females": 63707,
      "Marginal Workers Other worked for 3 - 6 moths during last year - Persons": 9768,
      "Main Workers Agricultural Labourers - Females": 27622,
      "Marginal Workers Cultivators worked for 3 - 6 moths during last year - Females": 10027,
      "Households with no lighting  Houselisting and Housing Census Data Tables- District Level , Census of India__5": 56,
      "Prevalence of Severe Anaemia  in percentage DLHS-4": "Not available",
      "Total unmet need for family planning in percentage DLHS-4": "Not available",
      "Main Workers Other - Males": 20113,
      "Children who received full vaccination in percentage DLHS-4": "Not available",
      "Marginal Workers Household Industry - Persons": 2490,
      "Primary Pupil-Teacher Ratio in percentage DISE": "NA",
      "Marginal Workers Agricultural Labourers worked for 3 - 6 moths during last year - Males": 23532,
      "Scheduled Caste Females": 24797,
      "Marginal Workers Cultivators - Males": 11510,
      "Marginal Workers - Males": 47953,
      "Marginal Workers worked for 0 - 3 moths during last year - Females": 13707,
      "Households with main source of drinking water within premises in percentage Houselisting and Housing Census Data Tables- District Level , Census of India": 18.07407407,
      "Marginal Workers Household Industry worked for 3 - 6 moths during last year - Persons": 1650,
      "Upper Primary Girl's Enrolment in percentage DISE": "NA",
      "Prevalence of Severe Anaemia in women aged 15-49years in percentage DLHS-4": "Not available",
      "Marginal Workers Agricultural Labourers worked for 0 - 3 moths during last year - Males": 4459,
      "Households with electricity as main source of lighting  Houselisting and Housing Census Data Tables- District Level , Census of India__3": 44567,
      "Households with computer or laptop with internet connection in percentage": 0.18,
      "PHCs functioning on a 24x7hours basis in percentage DLHS-4": "Not applicable",
      "Non Workers - Males": 115587,
      "Total Households in District Houselisting and Housing Census Data Tables- District Level , Census of India": 126225,
      "Upper Primary Schools with girls toilet in percentage DISE": "NA",
      "Households with mobile phone in percentage": 19.59,
      "Households receiving untreated tap water within premises in percentage Houselisting and Housing Census Data Tables- District Level , Census of India__2": 0.114874233,
      "Marginal Workers Cultivators worked for 3 - 6 moths during last year - Males": 8979,
      "Prevalence of Anaemia  in percentage DLHS-4": "Not available",
      "Prevalence of Chronic illness in percentage DLHS-4": "Not available",
      "Households with solar energy as main source of lighting in percentage Houselisting and Housing Census Data Tables- District Level , Census of India__1": 0.181422064,
      "Marginal Workers Agricultural Labourers worked for 0 - 3 moths during last year - Females": 7299,
      "Main Workers - Males": 108490,
      "Female": "NA",
      "Sno": 904,
      "Marginal Workers Other worked for 3 - 6 moths during last year - Females": 4205,
      "Marginal Workers Cultivators worked for 0 - 3 moths during last year - Females": 3730,
      "Scheduled Tribe Males": 157363,
      "Male Illiterates": 101377,
      "Prevalence of Severe Anaemia in pregnant women aged 15-49years in percentage DLHS-4": "Not available",
      "0-6 Age Group Persons": 82311,
      "Upper Primary Student-Classroom Ratio in percentage DISE": "NA",
      "Currently married men married below 21years of age in percentage DLHS-4": "Not available",
      "Male Literates": 170653,
      "Households with no lighting in percentage Houselisting and Housing Census Data Tables- District Level , Census of India__2": 0.0444,
      "Primary Drop Out Rate in percentage DISE": "NA",
      "Marginal Workers Household Industry - Males": 1110,
      "Female Illiterates": 151726,
      "Main Workers Other - Females": 6534,
      "Marginal Workers Cultivators - Persons": 25267,
      "Upper Primary Gross Enrolment Ratio in percentage DISE": "NA",
      "Scheduled Caste Persons": 49977,
      "Marginal Workers Cultivators worked for 3 - 6 moths during last year - Persons": 19006,
      "Households with landline phone in percentage": 1.19,
      "Total Households in District  Houselisting and Housing Census Data Tables- District Level , Census of India": 126225,
      "Upper Primary Pupil-Teacher Ratio in percentage DISE": "NA",
      "Primary Student-Classroom Ratio in percentage DISE": "NA",
      "Primary Schools with boys toilet in percentage DISE": "NA",
      "Mean number of children ever born to women aged 40-49years  DLHS-4": "Not available",
      "Households receiving untreated tap water within premises  Houselisting and Housing Census Data Tables- District Level , Census of India__5": 145,
      "Marginal Workers Household Industry worked for 0 - 3 moths during last year - Persons": 840,
      "Total Male Population": 272030,
      "Non Workers - Females": 143605,
      "Current use of family planning methods in percentage DLHS-4": "Not available",
      "Households with main source of drinking water within premises  Houselisting and Housing Census Data Tables- District Level , Census of India__3": 22814,
      "Main Workers Agricultural Labourers - Males": 29341,
      "Marginal Workers Other worked for 0 - 3 moths during last year - Persons": 3952,
      "Currently married women married below 18years of age in percentage DLHS-4": "Not available",
      "Person Illiterates": 253103,
      "Main Workers Household Industry - Females": 780,
      "Female Literates": 120240,
      "Marginal Workers Cultivators worked for 0 - 3 moths during last year - Males": 2531,
      "Male": "NA",
      "Households with improved source of drinking water in percentage DLHS-4": "Not available",
      "Upper Primary Schools with electricity in percentage DISE": "NA",
      "Households with electricity in percentage DLHS-4": "Not available",
      "Villages with Primary Health Centre within 10km in percentage DLHS-4": "Not applicable",
      "Births to women aged 15-19years out of Total births in percentage DLHS-4": "Not available",
      "Prevalence of Anaemia in women aged 15-49years in percentage DLHS-4": "Not available",
      "Marginal Workers Agricultural Labourers worked for 3 - 6 moths during last year - Persons": 58425,
      "Main Workers Household Industry - Males": 1662,
      "Scheduled Tribe Females": 160264,
      "Marginal Workers worked for 0 - 3 moths during last year - Males": 9104,
      "Marginal Workers Other worked for 3 - 6 moths during last year - Males": 5563,
      "Primary Net Enrolment Ratio in percentage DISE": "NA",
      "Total": "NA",
      "Mean age at marriage for boys DLHS-4": "Not available",
      "Number of District Hospitals  DLHS-4": "Not applicable",
      "0-6 Age Group Females": 40293,
      "Marginal Workers Agricultural Labourers worked for 0 - 3 moths during last year - Persons": 11758,
      "Marginal Workers Household Industry worked for 0 - 3 moths during last year - Males": 335,
      "Total Workers  Females": 128361,
      "Marginal Workers worked for 3 - 6 moths during last year - Females": 50000,
      "Institutional Deliveries in percentage DLHS-4": "Not available",
      "Marginal Workers Other - Males": 7342,
      "Total Workers  Males": 156443,
      "Main Workers - Females": 64654,
      "Primary Gross Enrolment Ratio in percentage DISE": "NA",
      "Main Workers Cultivators - Persons": 87092,
      "Marginal Workers Household Industry worked for 0 - 3 moths during last year - Females": 505,
      "Upper Primary Net Enrolment Ratio in percentage DISE": "NA",
      "Primary New Government Schools since 2003 in percentage DISE": "NA",
      "Tier": "Rural",
      "Marginal Workers Household Industry - Females": 1380,
      "Primary Schools with electricity in percentage DISE": "NA",
      "Main Workers Other - Persons": 26647,
      "Marginal Workers Household Industry worked for 3 - 6 moths during last year - Females": 875,
      "Main Workers Cultivators - Males": 57374,
      "Main Workers Household Industry - Persons": 2442,
      "Marginal Workers Cultivators worked for 0 - 3 moths during last year - Persons": 6261,
      "Scheduled Caste Males": 25180,
      "Marginal Workers - Persons": 111660,
      "Deliveries at home conducted by skilled health personnel in percentage DLHS-4": "Not available",
      "Villages with Sub-Health Centres within 3km in percentage DLHS-4": "Not applicable",
      "Upper Primary New Government Schools since 2003 in percentage DISE": "NA",
      "0-6 Age Group Males": 42018,
      "Primary Schools with drinking water facility in percentage DISE": "NA",
      "Non Workers - Persons": 259192,
      "Person Literates": 290893,
      "State": "MADHYA PRADESH",
      "Total Female Population": 271966,
      "Marginal Workers worked for 0 - 3 moths during last year - Persons": 22811,
      "Marginal Workers Cultivators - Females": 13757,
      "Marginal Workers Other - Persons": 13720,
      "Sex Ratio": 1000,
      "Scheduled Tribe Persons": 317627,
      "Marginal Workers Household Industry worked for 3 - 6 moths during last year - Males": 775,
      "Marginal Workers Agricultural Labourers - Females": 42192,
      "Mean age at marriage for girls DLHS-4": "Not available",
      "Households with solar energy as main source of lighting  Houselisting and Housing Census Data Tables- District Level , Census of India__4": 229,
      "District": "ANUPPUR",
      "Households receiving treated tap water within premises in percentage Houselisting and Housing Census Data Tables- District Level , Census of India__1": 0.610814023,
      "Total Workers  Persons": 284804,
      "Households receiving treated tap water within premises  Houselisting and Housing Census Data Tables- District Level , Census of India__4": 771,
      "Primary Female Teachers in percentage DISE": "NA",
      "Number of Households": 126851,
      "Main Workers Agricultural Labourers - Persons": 56963
    }
  ],
  "Urban": [
    {
      "Marginal Workers Agricultural Labourers - Persons": 1643,
      "Marginal Workers Other - Females": 1758,
      "Marginal Workers Other worked for 0 - 3 moths during last year - Females": 404,
      "Upper Primary Schools with boys toilet in percentage DISE": "NA",
      "Total Population": 205241,
      "Households with electricity as main source of lighting in percentage Houselisting and Housing Census Data Tables- District Level , Census of India": 86.32906043,
      "Primary Girl's Enrolment in percentage DISE": "NA",
      "Marginal Workers worked for 3 - 6 moths during last year - Males": 3869,
      "Prevalence of Acute illness in percentage DLHS-4": "Not available",
      "Main Workers - Persons": 53896,
      "Main Workers Cultivators - Females": 312,
      "Marginal Workers Agricultural Labourers worked for 3 - 6 moths during last year - Females": 626,
      "Marginal Workers Other worked for 0 - 3 moths during last year - Males": 556,
      "Upper Primary Schools with drinking water facility in percentage DISE": "NA",
      "Primary Schools with girls toilet in percentage DISE": "NA",
      "Marginal Workers worked for 3 - 6 moths during last year - Persons": 6317,
      "Upper Primary Drop Out Rate in percentage DISE": "NA",
      "Prevalence of Anaemia in pregnant women aged 15-49years in percentage DLHS-4": "Not available",
      "Current use of any modern method of family planning in percentage DLHS-4": "Not available",
      "Marginal Workers Agricultural Labourers - Males": 874,
      "Upper Primary Female Teachers in percentage DISE": "NA",
      "Marginal Workers - Females": 3091,
      "Marginal Workers Other worked for 3 - 6 moths during last year - Persons": 3963,
      "Main Workers Agricultural Labourers - Females": 513,
      "Marginal Workers Cultivators worked for 3 - 6 moths during last year - Females": 271,
      "Households with no lighting  Houselisting and Housing Census Data Tables- District Level , Census of India__5": 58,
      "Prevalence of Severe Anaemia  in percentage DLHS-4": "Not available",
      "Total unmet need for family planning in percentage DLHS-4": "Not available",
      "Main Workers Other - Males": 41851,
      "Children who received full vaccination in percentage DLHS-4": "Not available",
      "Marginal Workers Household Industry - Persons": 520,
      "Primary Pupil-Teacher Ratio in percentage DISE": "NA",
      "Marginal Workers Agricultural Labourers worked for 3 - 6 moths during last year - Males": 713,
      "Scheduled Caste Females": 11747,
      "Marginal Workers Cultivators - Males": 339,
      "Marginal Workers - Males": 4680,
      "Marginal Workers worked for 0 - 3 moths during last year - Females": 643,
      "Households with main source of drinking water within premises in percentage Houselisting and Housing Census Data Tables- District Level , Census of India": 57.43531953,
      "Marginal Workers Household Industry worked for 3 - 6 moths during last year - Persons": 452,
      "Upper Primary Girl's Enrolment in percentage DISE": "NA",
      "Prevalence of Severe Anaemia in women aged 15-49years in percentage DLHS-4": "Not available",
      "Marginal Workers Agricultural Labourers worked for 0 - 3 moths during last year - Males": 161,
      "Households with electricity as main source of lighting  Houselisting and Housing Census Data Tables- District Level , Census of India__3": 36771,
      "Households with computer or laptop with internet connection in percentage": 2.49,
      "PHCs functioning on a 24x7hours basis in percentage DLHS-4": 0,
      "Non Workers - Males": 56126,
      "Total Households in District Houselisting and Housing Census Data Tables- District Level , Census of India": 42594,
      "Upper Primary Schools with girls toilet in percentage DISE": "NA",
      "Households with mobile phone in percentage": 61.69,
      "Households receiving untreated tap water within premises in percentage Houselisting and Housing Census Data Tables- District Level , Census of India__2": 4.568718599,
      "Marginal Workers Cultivators worked for 3 - 6 moths during last year - Males": 292,
      "Prevalence of Anaemia  in percentage DLHS-4": "Not available",
      "Prevalence of Chronic illness in percentage DLHS-4": "Not available",
      "Households with solar energy as main source of lighting in percentage Houselisting and Housing Census Data Tables- District Level , Census of India__1": 0.0563,
      "Marginal Workers Agricultural Labourers worked for 0 - 3 moths during last year - Females": 143,
      "Main Workers - Males": 46278,
      "Female": "NA",
      "Sno": 906,
      "Marginal Workers Other worked for 3 - 6 moths during last year - Females": 1354,
      "Marginal Workers Cultivators worked for 0 - 3 moths during last year - Females": 75,
      "Scheduled Tribe Males": 20614,
      "Male Illiterates": 23617,
      "Prevalence of Severe Anaemia in pregnant women aged 15-49years in percentage DLHS-4": "Not available",
      "0-6 Age Group Persons": 23760,
      "Upper Primary Student-Classroom Ratio in percentage DISE": "NA",
      "Currently married men married below 21years of age in percentage DLHS-4": "Not available",
      "Male Literates": 83467,
      "Households with no lighting in percentage Houselisting and Housing Census Data Tables- District Level , Census of India__2": 0.136169414,
      "Primary Drop Out Rate in percentage DISE": "NA",
      "Marginal Workers Household Industry - Males": 302,
      "Female Illiterates": 35922,
      "Main Workers Other - Females": 6455,
      "Marginal Workers Cultivators - Persons": 685,
      "Upper Primary Gross Enrolment Ratio in percentage DISE": "NA",
      "Scheduled Caste Persons": 24408,
      "Marginal Workers Cultivators worked for 3 - 6 moths during last year - Persons": 563,
      "Households with landline phone in percentage": 3.32,
      "Total Households in District  Houselisting and Housing Census Data Tables- District Level , Census of India": 42594,
      "Upper Primary Pupil-Teacher Ratio in percentage DISE": "NA",
      "Primary Student-Classroom Ratio in percentage DISE": "NA",
      "Primary Schools with boys toilet in percentage DISE": "NA",
      "Mean number of children ever born to women aged 40-49years  DLHS-4": "Not available",
      "Households receiving untreated tap water within premises  Houselisting and Housing Census Data Tables- District Level , Census of India__5": 1946,
      "Marginal Workers Household Industry worked for 0 - 3 moths during last year - Persons": 68,
      "Total Male Population": 107084,
      "Non Workers - Females": 87448,
      "Current use of family planning methods in percentage DLHS-4": "Not available",
      "Households with main source of drinking water within premises  Houselisting and Housing Census Data Tables- District Level , Census of India__3": 24464,
      "Main Workers Agricultural Labourers - Males": 1074,
      "Marginal Workers Other worked for 0 - 3 moths during last year - Persons": 960,
      "Currently married women married below 18years of age in percentage DLHS-4": "Not available",
      "Person Illiterates": 59539,
      "Main Workers Household Industry - Females": 338,
      "Female Literates": 62235,
      "Marginal Workers Cultivators worked for 0 - 3 moths during last year - Males": 47,
      "Male": "NA",
      "Households with improved source of drinking water in percentage DLHS-4": "Not available",
      "Upper Primary Schools with electricity in percentage DISE": "NA",
      "Households with electricity in percentage DLHS-4": "Not available",
      "Villages with Primary Health Centre within 10km in percentage DLHS-4": 0,
      "Births to women aged 15-19years out of Total births in percentage DLHS-4": "Not available",
      "Prevalence of Anaemia in women aged 15-49years in percentage DLHS-4": "Not available",
      "Marginal Workers Agricultural Labourers worked for 3 - 6 moths during last year - Persons": 1339,
      "Main Workers Household Industry - Males": 1261,
      "Scheduled Tribe Females": 20302,
      "Marginal Workers worked for 0 - 3 moths during last year - Males": 811,
      "Marginal Workers Other worked for 3 - 6 moths during last year - Males": 2609,
      "Primary Net Enrolment Ratio in percentage DISE": "NA",
      "Total": "NA",
      "Mean age at marriage for boys DLHS-4": "Not available",
      "Number of District Hospitals  DLHS-4": 0,
      "0-6 Age Group Females": 11390,
      "Marginal Workers Agricultural Labourers worked for 0 - 3 moths during last year - Persons": 304,
      "Marginal Workers Household Industry worked for 0 - 3 moths during last year - Males": 47,
      "Total Workers  Females": 10709,
      "Marginal Workers worked for 3 - 6 moths during last year - Females": 2448,
      "Institutional Deliveries in percentage DLHS-4": "Not available",
      "Marginal Workers Other - Males": 3165,
      "Total Workers  Males": 50958,
      "Main Workers - Females": 7618,
      "Primary Gross Enrolment Ratio in percentage DISE": "NA",
      "Main Workers Cultivators - Persons": 2404,
      "Marginal Workers Household Industry worked for 0 - 3 moths during last year - Females": 21,
      "Upper Primary Net Enrolment Ratio in percentage DISE": "NA",
      "Primary New Government Schools since 2003 in percentage DISE": "NA",
      "Tier": "Urban",
      "Marginal Workers Household Industry - Females": 218,
      "Primary Schools with electricity in percentage DISE": "NA",
      "Main Workers Other - Persons": 48306,
      "Marginal Workers Household Industry worked for 3 - 6 moths during last year - Females": 197,
      "Main Workers Cultivators - Males": 2092,
      "Main Workers Household Industry - Persons": 1599,
      "Marginal Workers Cultivators worked for 0 - 3 moths during last year - Persons": 122,
      "Scheduled Caste Males": 12661,
      "Marginal Workers - Persons": 7771,
      "Deliveries at home conducted by skilled health personnel in percentage DLHS-4": "Not available",
      "Villages with Sub-Health Centres within 3km in percentage DLHS-4": 0,
      "Upper Primary New Government Schools since 2003 in percentage DISE": "NA",
      "0-6 Age Group Males": 12370,
      "Primary Schools with drinking water facility in percentage DISE": "NA",
      "Non Workers - Persons": 143574,
      "Person Literates": 145702,
      "State": "MADHYA PRADESH",
      "Total Female Population": 98157,
      "Marginal Workers worked for 0 - 3 moths during last year - Persons": 1454,
      "Marginal Workers Cultivators - Females": 346,
      "Marginal Workers Other - Persons": 4923,
      "Sex Ratio": 917,
      "Scheduled Tribe Persons": 40916,
      "Marginal Workers Household Industry worked for 3 - 6 moths during last year - Males": 255,
      "Marginal Workers Agricultural Labourers - Females": 769,
      "Mean age at marriage for girls DLHS-4": "Not available",
      "Households with solar energy as main source of lighting  Houselisting and Housing Census Data Tables- District Level , Census of India__4": 24,
      "District": "ANUPPUR",
      "Households receiving treated tap water within premises in percentage Houselisting and Housing Census Data Tables- District Level , Census of India__1": 42.30173264,
      "Total Workers  Persons": 61667,
      "Households receiving treated tap water within premises  Houselisting and Housing Census Data Tables- District Level , Census of India__4": 18018,
      "Primary Female Teachers in percentage DISE": "NA",
      "Number of Households": 43864,
      "Main Workers Agricultural Labourers - Persons": 1587
    }
  ]
}