{
  "Total": [
    {
      "Marginal Workers Agricultural Labourers - Persons": 260134,
      "Marginal Workers Other - Females": 12767,
      "Marginal Workers Other worked for 0 - 3 moths during last year - Females": 3631,
      "Upper Primary Schools with boys toilet in percentage DISE": 96,
      "Total Population": 1701698,
      "Households with electricity as main source of lighting in percentage Houselisting and Housing Census Data Tables- District Level , Census of India": 70.48439045,
      "Primary Girl's Enrolment in percentage DISE": 50,
      "Marginal Workers worked for 3 - 6 moths during last year - Males": 127861,
      "Prevalence of Acute illness in percentage DLHS-4": "Not available",
      "Main Workers - Persons": 530506,
      "Main Workers Cultivators - Females": 68330,
      "Marginal Workers Agricultural Labourers worked for 3 - 6 moths during last year - Females": 127868,
      "Marginal Workers Other worked for 0 - 3 moths during last year - Males": 3325,
      "Upper Primary Schools with drinking water facility in percentage DISE": 96,
      "Primary Schools with girls toilet in percentage DISE": 95.5,
      "Marginal Workers worked for 3 - 6 moths during last year - Persons": 299394,
      "Upper Primary Drop Out Rate in percentage DISE": 3.85,
      "Prevalence of Anaemia in pregnant women aged 15-49years in percentage DLHS-4": "Not available",
      "Current use of any modern method of family planning in percentage DLHS-4": 69.5,
      "Marginal Workers Agricultural Labourers - Males": 103732,
      "Upper Primary Female Teachers in percentage DISE": 27.2,
      "Marginal Workers - Females": 212212,
      "Marginal Workers Other worked for 3 - 6 moths during last year - Persons": 24084,
      "Main Workers Agricultural Labourers - Females": 89040,
      "Marginal Workers Cultivators worked for 3 - 6 moths during last year - Females": 31576,
      "Households with no lighting  Houselisting and Housing Census Data Tables- District Level , Census of India__5": 401,
      "Prevalence of Severe Anaemia  in percentage DLHS-4": "Not available",
      "Total unmet need for family planning in percentage DLHS-4": 22.1,
      "Main Workers Other - Males": 95497,
      "Children who received full vaccination in percentage DLHS-4": "Not available",
      "Marginal Workers Household Industry - Persons": 6684,
      "Primary Pupil-Teacher Ratio in percentage DISE": 22,
      "Marginal Workers Agricultural Labourers worked for 3 - 6 moths during last year - Males": 89576,
      "Scheduled Caste Females": 63850,
      "Marginal Workers Cultivators - Males": 25526,
      "Marginal Workers - Males": 150296,
      "Marginal Workers worked for 0 - 3 moths during last year - Females": 40679,
      "Households with main source of drinking water within premises in percentage Houselisting and Housing Census Data Tables- District Level , Census of India": 22.07501712,
      "Marginal Workers Household Industry worked for 3 - 6 moths during last year - Persons": 5175,
      "Upper Primary Girl's Enrolment in percentage DISE": 52.3,
      "Prevalence of Severe Anaemia in women aged 15-49years in percentage DLHS-4": "Not available",
      "Marginal Workers Agricultural Labourers worked for 0 - 3 moths during last year - Males": 14156,
      "Households with electricity as main source of lighting  Houselisting and Housing Census Data Tables- District Level , Census of India__3": 277927,
      "Households with computer or laptop with internet connection in percentage": 0.43,
      "PHCs functioning on a 24x7hours basis in percentage DLHS-4": "Not available",
      "Non Workers - Males": 353568,
      "Total Households in District Houselisting and Housing Census Data Tables- District Level , Census of India": 394310,
      "Upper Primary Schools with girls toilet in percentage DISE": 96.4,
      "Households with mobile phone in percentage": 21.8,
      "Households receiving untreated tap water within premises in percentage Houselisting and Housing Census Data Tables- District Level , Census of India__2": 1.612436915,
      "Marginal Workers Cultivators worked for 3 - 6 moths during last year - Males": 21115,
      "Prevalence of Anaemia  in percentage DLHS-4": "Not available",
      "Prevalence of Chronic illness in percentage DLHS-4": "Not available",
      "Households with solar energy as main source of lighting in percentage Houselisting and Housing Census Data Tables- District Level , Census of India__1": 0.163069666,
      "Marginal Workers Agricultural Labourers worked for 0 - 3 moths during last year - Females": 28534,
      "Main Workers - Males": 338314,
      "Female": 69.04,
      "Sno": 911,
      "Marginal Workers Other worked for 3 - 6 moths during last year - Females": 9136,
      "Marginal Workers Cultivators worked for 0 - 3 moths during last year - Females": 7548,
      "Scheduled Tribe Males": 186979,
      "Male Illiterates": 215710,
      "Prevalence of Severe Anaemia in pregnant women aged 15-49years in percentage DLHS-4": "Not available",
      "0-6 Age Group Persons": 212931,
      "Upper Primary Student-Classroom Ratio in percentage DISE": 33,
      "Currently married men married below 21years of age in percentage DLHS-4": 4.8,
      "Male Literates": 626468,
      "Households with no lighting in percentage Houselisting and Housing Census Data Tables- District Level , Census of India__2": 0.101696635,
      "Primary Drop Out Rate in percentage DISE": 4.6,
      "Marginal Workers Household Industry - Males": 2765,
      "Female Illiterates": 338365,
      "Main Workers Other - Females": 29651,
      "Marginal Workers Cultivators - Persons": 64650,
      "Upper Primary Gross Enrolment Ratio in percentage DISE": 107.9,
      "Scheduled Caste Persons": 125426,
      "Marginal Workers Cultivators worked for 3 - 6 moths during last year - Persons": 52691,
      "Households with landline phone in percentage": 1.94,
      "Total Households in District  Houselisting and Housing Census Data Tables- District Level , Census of India": 394310,
      "Upper Primary Pupil-Teacher Ratio in percentage DISE": 39,
      "Primary Student-Classroom Ratio in percentage DISE": 17,
      "Primary Schools with boys toilet in percentage DISE": 95.5,
      "Mean number of children ever born to women aged 40-49years  DLHS-4": "Not available",
      "Households receiving untreated tap water within premises  Houselisting and Housing Census Data Tables- District Level , Census of India__5": 6358,
      "Marginal Workers Household Industry worked for 0 - 3 moths during last year - Persons": 1509,
      "Total Male Population": 842178,
      "Non Workers - Females": 455116,
      "Current use of family planning methods in percentage DLHS-4": 70.8,
      "Households with main source of drinking water within premises  Houselisting and Housing Census Data Tables- District Level , Census of India__3": 87044,
      "Main Workers Agricultural Labourers - Males": 110622,
      "Marginal Workers Other worked for 0 - 3 moths during last year - Persons": 6956,
      "Currently married women married below 18years of age in percentage DLHS-4": 1.1,
      "Person Illiterates": 554075,
      "Main Workers Household Industry - Females": 5171,
      "Female Literates": 521155,
      "Marginal Workers Cultivators worked for 0 - 3 moths during last year - Males": 4411,
      "Male": 85.36,
      "Households with improved source of drinking water in percentage DLHS-4": "Not available",
      "Upper Primary Schools with electricity in percentage DISE": 24.3,
      "Households with electricity in percentage DLHS-4": "Not available",
      "Villages with Primary Health Centre within 10km in percentage DLHS-4": "Not available",
      "Births to women aged 15-19years out of Total births in percentage DLHS-4": "Not available",
      "Prevalence of Anaemia in women aged 15-49years in percentage DLHS-4": "Not available",
      "Marginal Workers Agricultural Labourers worked for 3 - 6 moths during last year - Persons": 217444,
      "Main Workers Household Industry - Males": 7390,
      "Scheduled Tribe Females": 196047,
      "Marginal Workers worked for 0 - 3 moths during last year - Males": 22435,
      "Marginal Workers Other worked for 3 - 6 moths during last year - Males": 14948,
      "Primary Net Enrolment Ratio in percentage DISE": 88.5,
      "Total": 77.09,
      "Mean age at marriage for boys DLHS-4": 25.3,
      "Number of District Hospitals  DLHS-4": "Not available",
      "0-6 Age Group Females": 104653,
      "Marginal Workers Agricultural Labourers worked for 0 - 3 moths during last year - Persons": 42690,
      "Marginal Workers Household Industry worked for 0 - 3 moths during last year - Males": 543,
      "Total Workers  Females": 404404,
      "Marginal Workers worked for 3 - 6 moths during last year - Females": 171533,
      "Institutional Deliveries in percentage DLHS-4": 79.8,
      "Marginal Workers Other - Males": 18273,
      "Total Workers  Males": 488610,
      "Main Workers - Females": 192192,
      "Primary Gross Enrolment Ratio in percentage DISE": 103.7,
      "Main Workers Cultivators - Persons": 193135,
      "Marginal Workers Household Industry worked for 0 - 3 moths during last year - Females": 966,
      "Upper Primary Net Enrolment Ratio in percentage DISE": 79.5,
      "Primary New Government Schools since 2003 in percentage DISE": 5.4,
      "Tier": "Total",
      "Marginal Workers Household Industry - Females": 3919,
      "Primary Schools with electricity in percentage DISE": 6.3,
      "Main Workers Other - Persons": 125148,
      "Marginal Workers Household Industry worked for 3 - 6 moths during last year - Females": 2953,
      "Main Workers Cultivators - Males": 124805,
      "Main Workers Household Industry - Persons": 12561,
      "Marginal Workers Cultivators worked for 0 - 3 moths during last year - Persons": 11959,
      "Scheduled Caste Males": 61576,
      "Marginal Workers - Persons": 362508,
      "Deliveries at home conducted by skilled health personnel in percentage DLHS-4": 60.8,
      "Villages with Sub-Health Centres within 3km in percentage DLHS-4": "Not available",
      "Upper Primary New Government Schools since 2003 in percentage DISE": 29.6,
      "0-6 Age Group Males": 108278,
      "Primary Schools with drinking water facility in percentage DISE": 97.8,
      "Non Workers - Persons": 808684,
      "Person Literates": 1147623,
      "State": "MADHYA PRADESH",
      "Total Female Population": 859520,
      "Marginal Workers worked for 0 - 3 moths during last year - Persons": 63114,
      "Marginal Workers Cultivators - Females": 39124,
      "Marginal Workers Other - Persons": 31040,
      "Sex Ratio": 1021,
      "Scheduled Tribe Persons": 383026,
      "Marginal Workers Household Industry worked for 3 - 6 moths during last year - Males": 2222,
      "Marginal Workers Agricultural Labourers - Females": 156402,
      "Mean age at marriage for girls DLHS-4": 21.8,
      "Households with solar energy as main source of lighting  Houselisting and Housing Census Data Tables- District Level , Census of India__4": 643,
      "District": "BALAGHAT",
      "Households receiving treated tap water within premises in percentage Houselisting and Housing Census Data Tables- District Level , Census of India__1": 3.408232102,
      "Total Workers  Persons": 893014,
      "Households receiving treated tap water within premises  Houselisting and Housing Census Data Tables- District Level , Census of India__4": 13439,
      "Primary Female Teachers in percentage DISE": 36.8,
      "Number of Households": 391836,
      "Main Workers Agricultural Labourers - Persons": 199662
    }
  ],
  "Rural": [
    {
      "Marginal Workers Agricultural Labourers - Persons": 252015,
      "Marginal Workers Other - Females": 9615,
      "Marginal Workers Other worked for 0 - 3 moths during last year - Females": 3047,
      "Upper Primary Schools with boys toilet in percentage DISE": "NA",
      "Total Population": 1456882,
      "Households with electricity as main source of lighting in percentage Houselisting and Housing Census Data Tables- District Level , Census of India": 67.51577423,
      "Primary Girl's Enrolment in percentage DISE": "NA",
      "Marginal Workers worked for 3 - 6 moths during last year - Males": 120016,
      "Prevalence of Acute illness in percentage DLHS-4": "Not available",
      "Main Workers - Persons": 458063,
      "Main Workers Cultivators - Females": 66743,
      "Marginal Workers Agricultural Labourers worked for 3 - 6 moths during last year - Females": 124051,
      "Marginal Workers Other worked for 0 - 3 moths during last year - Males": 2682,
      "Upper Primary Schools with drinking water facility in percentage DISE": "NA",
      "Primary Schools with girls toilet in percentage DISE": "NA",
      "Marginal Workers worked for 3 - 6 moths during last year - Persons": 284339,
      "Upper Primary Drop Out Rate in percentage DISE": "NA",
      "Prevalence of Anaemia in pregnant women aged 15-49years in percentage DLHS-4": "Not available",
      "Current use of any modern method of family planning in percentage DLHS-4": 67.9,
      "Marginal Workers Agricultural Labourers - Males": 100571,
      "Upper Primary Female Teachers in percentage DISE": "NA",
      "Marginal Workers - Females": 202937,
      "Marginal Workers Other worked for 3 - 6 moths during last year - Persons": 17173,
      "Main Workers Agricultural Labourers - Females": 86492,
      "Marginal Workers Cultivators worked for 3 - 6 moths during last year - Females": 31011,
      "Households with no lighting  Houselisting and Housing Census Data Tables- District Level , Census of India__5": 356,
      "Prevalence of Severe Anaemia  in percentage DLHS-4": "Not available",
      "Total unmet need for family planning in percentage DLHS-4": 23.2,
      "Main Workers Other - Males": 49211,
      "Children who received full vaccination in percentage DLHS-4": "Not available",
      "Marginal Workers Household Industry - Persons": 6080,
      "Primary Pupil-Teacher Ratio in percentage DISE": "NA",
      "Marginal Workers Agricultural Labourers worked for 3 - 6 moths during last year - Males": 86821,
      "Scheduled Caste Females": 50852,
      "Marginal Workers Cultivators - Males": 24940,
      "Marginal Workers - Males": 141288,
      "Marginal Workers worked for 0 - 3 moths during last year - Females": 38614,
      "Households with main source of drinking water within premises in percentage Houselisting and Housing Census Data Tables- District Level , Census of India": 17.78759221,
      "Marginal Workers Household Industry worked for 3 - 6 moths during last year - Persons": 4674,
      "Upper Primary Girl's Enrolment in percentage DISE": "NA",
      "Prevalence of Severe Anaemia in women aged 15-49years in percentage DLHS-4": "Not available",
      "Marginal Workers Agricultural Labourers worked for 0 - 3 moths during last year - Males": 13750,
      "Households with electricity as main source of lighting  Houselisting and Housing Census Data Tables- District Level , Census of India__3": 230378,
      "Households with computer or laptop with internet connection in percentage": 0.12,
      "PHCs functioning on a 24x7hours basis in percentage DLHS-4": "Not applicable",
      "Non Workers - Males": 295905,
      "Total Households in District Houselisting and Housing Census Data Tables- District Level , Census of India": 341221,
      "Upper Primary Schools with girls toilet in percentage DISE": "NA",
      "Households with mobile phone in percentage": 17.32,
      "Households receiving untreated tap water within premises in percentage Houselisting and Housing Census Data Tables- District Level , Census of India__2": 0.827909185,
      "Marginal Workers Cultivators worked for 3 - 6 moths during last year - Males": 20609,
      "Prevalence of Anaemia  in percentage DLHS-4": "Not available",
      "Prevalence of Chronic illness in percentage DLHS-4": "Not available",
      "Households with solar energy as main source of lighting in percentage Houselisting and Housing Census Data Tables- District Level , Census of India__1": 0.182579618,
      "Marginal Workers Agricultural Labourers worked for 0 - 3 moths during last year - Females": 27393,
      "Main Workers - Males": 282601,
      "Female": "NA",
      "Sno": 910,
      "Marginal Workers Other worked for 3 - 6 moths during last year - Females": 6568,
      "Marginal Workers Cultivators worked for 0 - 3 moths during last year - Females": 7277,
      "Scheduled Tribe Males": 169216,
      "Male Illiterates": 192705,
      "Prevalence of Severe Anaemia in pregnant women aged 15-49years in percentage DLHS-4": "Not available",
      "0-6 Age Group Persons": 186683,
      "Upper Primary Student-Classroom Ratio in percentage DISE": "NA",
      "Currently married men married below 21years of age in percentage DLHS-4": 5.5,
      "Male Literates": 527089,
      "Households with no lighting in percentage Houselisting and Housing Census Data Tables- District Level , Census of India__2": 0.104331211,
      "Primary Drop Out Rate in percentage DISE": "NA",
      "Marginal Workers Household Industry - Males": 2490,
      "Female Illiterates": 303959,
      "Main Workers Other - Females": 17497,
      "Marginal Workers Cultivators - Persons": 63228,
      "Upper Primary Gross Enrolment Ratio in percentage DISE": "NA",
      "Scheduled Caste Persons": 99608,
      "Marginal Workers Cultivators worked for 3 - 6 moths during last year - Persons": 51620,
      "Households with landline phone in percentage": 1.57,
      "Total Households in District  Houselisting and Housing Census Data Tables- District Level , Census of India": 341221,
      "Upper Primary Pupil-Teacher Ratio in percentage DISE": "NA",
      "Primary Student-Classroom Ratio in percentage DISE": "NA",
      "Primary Schools with boys toilet in percentage DISE": "NA",
      "Mean number of children ever born to women aged 40-49years  DLHS-4": "Not available",
      "Households receiving untreated tap water within premises  Houselisting and Housing Census Data Tables- District Level , Census of India__5": 2825,
      "Marginal Workers Household Industry worked for 0 - 3 moths during last year - Persons": 1406,
      "Total Male Population": 719794,
      "Non Workers - Females": 358689,
      "Current use of family planning methods in percentage DLHS-4": 69.2,
      "Households with main source of drinking water within premises  Houselisting and Housing Census Data Tables- District Level , Census of India__3": 60695,
      "Main Workers Agricultural Labourers - Males": 106505,
      "Marginal Workers Other worked for 0 - 3 moths during last year - Persons": 5729,
      "Currently married women married below 18years of age in percentage DLHS-4": 1.2,
      "Person Illiterates": 496664,
      "Main Workers Household Industry - Females": 4730,
      "Female Literates": 433129,
      "Marginal Workers Cultivators worked for 0 - 3 moths during last year - Males": 4331,
      "Male": "NA",
      "Households with improved source of drinking water in percentage DLHS-4": "Not available",
      "Upper Primary Schools with electricity in percentage DISE": "NA",
      "Households with electricity in percentage DLHS-4": "Not available",
      "Villages with Primary Health Centre within 10km in percentage DLHS-4": "Not applicable",
      "Births to women aged 15-19years out of Total births in percentage DLHS-4": "Not available",
      "Prevalence of Anaemia in women aged 15-49years in percentage DLHS-4": "Not available",
      "Marginal Workers Agricultural Labourers worked for 3 - 6 moths during last year - Persons": 210872,
      "Main Workers Household Industry - Males": 5862,
      "Scheduled Tribe Females": 177245,
      "Marginal Workers worked for 0 - 3 moths during last year - Males": 21272,
      "Marginal Workers Other worked for 3 - 6 moths during last year - Males": 10605,
      "Primary Net Enrolment Ratio in percentage DISE": "NA",
      "Total": "NA",
      "Mean age at marriage for boys DLHS-4": 25.1,
      "Number of District Hospitals  DLHS-4": "Not applicable",
      "0-6 Age Group Females": 91993,
      "Marginal Workers Agricultural Labourers worked for 0 - 3 moths during last year - Persons": 41143,
      "Marginal Workers Household Industry worked for 0 - 3 moths during last year - Males": 509,
      "Total Workers  Females": 378399,
      "Marginal Workers worked for 3 - 6 moths during last year - Females": 164323,
      "Institutional Deliveries in percentage DLHS-4": 79.5,
      "Marginal Workers Other - Males": 13287,
      "Total Workers  Males": 423889,
      "Main Workers - Females": 175462,
      "Primary Gross Enrolment Ratio in percentage DISE": "NA",
      "Main Workers Cultivators - Persons": 187766,
      "Marginal Workers Household Industry worked for 0 - 3 moths during last year - Females": 897,
      "Upper Primary Net Enrolment Ratio in percentage DISE": "NA",
      "Primary New Government Schools since 2003 in percentage DISE": "NA",
      "Tier": "Rural",
      "Marginal Workers Household Industry - Females": 3590,
      "Primary Schools with electricity in percentage DISE": "NA",
      "Main Workers Other - Persons": 66708,
      "Marginal Workers Household Industry worked for 3 - 6 moths during last year - Females": 2693,
      "Main Workers Cultivators - Males": 121023,
      "Main Workers Household Industry - Persons": 10592,
      "Marginal Workers Cultivators worked for 0 - 3 moths during last year - Persons": 11608,
      "Scheduled Caste Males": 48756,
      "Marginal Workers - Persons": 344225,
      "Deliveries at home conducted by skilled health personnel in percentage DLHS-4": 59.9,
      "Villages with Sub-Health Centres within 3km in percentage DLHS-4": "Not applicable",
      "Upper Primary New Government Schools since 2003 in percentage DISE": "NA",
      "0-6 Age Group Males": 94690,
      "Primary Schools with drinking water facility in percentage DISE": "NA",
      "Non Workers - Persons": 654594,
      "Person Literates": 960218,
      "State": "MADHYA PRADESH",
      "Total Female Population": 737088,
      "Marginal Workers worked for 0 - 3 moths during last year - Persons": 59886,
      "Marginal Workers Cultivators - Females": 38288,
      "Marginal Workers Other - Persons": 22902,
      "Sex Ratio": 1024,
      "Scheduled Tribe Persons": 346461,
      "Marginal Workers Household Industry worked for 3 - 6 moths during last year - Males": 1981,
      "Marginal Workers Agricultural Labourers - Females": 151444,
      "Mean age at marriage for girls DLHS-4": 21.7,
      "Households with solar energy as main source of lighting  Houselisting and Housing Census Data Tables- District Level , Census of India__4": 623,
      "District": "BALAGHAT",
      "Households receiving treated tap water within premises in percentage Houselisting and Housing Census Data Tables- District Level , Census of India__1": 0.915535679,
      "Total Workers  Persons": 802288,
      "Households receiving treated tap water within premises  Houselisting and Housing Census Data Tables- District Level , Census of India__4": 3124,
      "Primary Female Teachers in percentage DISE": "NA",
      "Number of Households": 337369,
      "Main Workers Agricultural Labourers - Persons": 192997
    }
  ],
  "Urban": [
    {
      "Marginal Workers Agricultural Labourers - Persons": 8119,
      "Marginal Workers Other - Females": 3152,
      "Marginal Workers Other worked for 0 - 3 moths during last year - Females": 584,
      "Upper Primary Schools with boys toilet in percentage DISE": "NA",
      "Total Population": 244816,
      "Households with electricity as main source of lighting in percentage Houselisting and Housing Census Data Tables- District Level , Census of India": 89.56469325,
      "Primary Girl's Enrolment in percentage DISE": "NA",
      "Marginal Workers worked for 3 - 6 moths during last year - Males": 7845,
      "Prevalence of Acute illness in percentage DLHS-4": "Not available",
      "Main Workers - Persons": 72443,
      "Main Workers Cultivators - Females": 1587,
      "Marginal Workers Agricultural Labourers worked for 3 - 6 moths during last year - Females": 3817,
      "Marginal Workers Other worked for 0 - 3 moths during last year - Males": 643,
      "Upper Primary Schools with drinking water facility in percentage DISE": "NA",
      "Primary Schools with girls toilet in percentage DISE": "NA",
      "Marginal Workers worked for 3 - 6 moths during last year - Persons": 15055,
      "Upper Primary Drop Out Rate in percentage DISE": "NA",
      "Prevalence of Anaemia in pregnant women aged 15-49years in percentage DLHS-4": "Not available",
      "Current use of any modern method of family planning in percentage DLHS-4": 78,
      "Marginal Workers Agricultural Labourers - Males": 3161,
      "Upper Primary Female Teachers in percentage DISE": "NA",
      "Marginal Workers - Females": 9275,
      "Marginal Workers Other worked for 3 - 6 moths during last year - Persons": 6911,
      "Main Workers Agricultural Labourers - Females": 2548,
      "Marginal Workers Cultivators worked for 3 - 6 moths during last year - Females": 565,
      "Households with no lighting  Houselisting and Housing Census Data Tables- District Level , Census of India__5": 45,
      "Prevalence of Severe Anaemia  in percentage DLHS-4": "Not available",
      "Total unmet need for family planning in percentage DLHS-4": 16,
      "Main Workers Other - Males": 46286,
      "Children who received full vaccination in percentage DLHS-4": "Not available",
      "Marginal Workers Household Industry - Persons": 604,
      "Primary Pupil-Teacher Ratio in percentage DISE": "NA",
      "Marginal Workers Agricultural Labourers worked for 3 - 6 moths during last year - Males": 2755,
      "Scheduled Caste Females": 12998,
      "Marginal Workers Cultivators - Males": 586,
      "Marginal Workers - Males": 9008,
      "Marginal Workers worked for 0 - 3 moths during last year - Females": 2065,
      "Households with main source of drinking water within premises in percentage Houselisting and Housing Census Data Tables- District Level , Census of India": 49.63175046,
      "Marginal Workers Household Industry worked for 3 - 6 moths during last year - Persons": 501,
      "Upper Primary Girl's Enrolment in percentage DISE": "NA",
      "Prevalence of Severe Anaemia in women aged 15-49years in percentage DLHS-4": "Not available",
      "Marginal Workers Agricultural Labourers worked for 0 - 3 moths during last year - Males": 406,
      "Households with electricity as main source of lighting  Houselisting and Housing Census Data Tables- District Level , Census of India__3": 47549,
      "Households with computer or laptop with internet connection in percentage": 2.44,
      "PHCs functioning on a 24x7hours basis in percentage DLHS-4": 0,
      "Non Workers - Males": 57663,
      "Total Households in District Houselisting and Housing Census Data Tables- District Level , Census of India": 53089,
      "Upper Primary Schools with girls toilet in percentage DISE": "NA",
      "Households with mobile phone in percentage": 50.57,
      "Households receiving untreated tap water within premises in percentage Houselisting and Housing Census Data Tables- District Level , Census of India__2": 6.654862589,
      "Marginal Workers Cultivators worked for 3 - 6 moths during last year - Males": 506,
      "Prevalence of Anaemia  in percentage DLHS-4": "Not available",
      "Prevalence of Chronic illness in percentage DLHS-4": "Not available",
      "Households with solar energy as main source of lighting in percentage Houselisting and Housing Census Data Tables- District Level , Census of India__1": 0.0377,
      "Marginal Workers Agricultural Labourers worked for 0 - 3 moths during last year - Females": 1141,
      "Main Workers - Males": 55713,
      "Female": "NA",
      "Sno": 912,
      "Marginal Workers Other worked for 3 - 6 moths during last year - Females": 2568,
      "Marginal Workers Cultivators worked for 0 - 3 moths during last year - Females": 271,
      "Scheduled Tribe Males": 17763,
      "Male Illiterates": 23005,
      "Prevalence of Severe Anaemia in pregnant women aged 15-49years in percentage DLHS-4": "Not available",
      "0-6 Age Group Persons": 26248,
      "Upper Primary Student-Classroom Ratio in percentage DISE": "NA",
      "Currently married men married below 21years of age in percentage DLHS-4": 1.3,
      "Male Literates": 99379,
      "Households with no lighting in percentage Houselisting and Housing Census Data Tables- District Level , Census of India__2": 0.0848,
      "Primary Drop Out Rate in percentage DISE": "NA",
      "Marginal Workers Household Industry - Males": 275,
      "Female Illiterates": 34406,
      "Main Workers Other - Females": 12154,
      "Marginal Workers Cultivators - Persons": 1422,
      "Upper Primary Gross Enrolment Ratio in percentage DISE": "NA",
      "Scheduled Caste Persons": 25818,
      "Marginal Workers Cultivators worked for 3 - 6 moths during last year - Persons": 1071,
      "Households with landline phone in percentage": 4.27,
      "Total Households in District  Houselisting and Housing Census Data Tables- District Level , Census of India": 53089,
      "Upper Primary Pupil-Teacher Ratio in percentage DISE": "NA",
      "Primary Student-Classroom Ratio in percentage DISE": "NA",
      "Primary Schools with boys toilet in percentage DISE": "NA",
      "Mean number of children ever born to women aged 40-49years  DLHS-4": "Not available",
      "Households receiving untreated tap water within premises  Houselisting and Housing Census Data Tables- District Level , Census of India__5": 3533,
      "Marginal Workers Household Industry worked for 0 - 3 moths during last year - Persons": 103,
      "Total Male Population": 122384,
      "Non Workers - Females": 96427,
      "Current use of family planning methods in percentage DLHS-4": 79.1,
      "Households with main source of drinking water within premises  Houselisting and Housing Census Data Tables- District Level , Census of India__3": 26349,
      "Main Workers Agricultural Labourers - Males": 4117,
      "Marginal Workers Other worked for 0 - 3 moths during last year - Persons": 1227,
      "Currently married women married below 18years of age in percentage DLHS-4": 0.6,
      "Person Illiterates": 57411,
      "Main Workers Household Industry - Females": 441,
      "Female Literates": 88026,
      "Marginal Workers Cultivators worked for 0 - 3 moths during last year - Males": 80,
      "Male": "NA",
      "Households with improved source of drinking water in percentage DLHS-4": "Not available",
      "Upper Primary Schools with electricity in percentage DISE": "NA",
      "Households with electricity in percentage DLHS-4": "Not available",
      "Villages with Primary Health Centre within 10km in percentage DLHS-4": 0,
      "Births to women aged 15-19years out of Total births in percentage DLHS-4": "Not available",
      "Prevalence of Anaemia in women aged 15-49years in percentage DLHS-4": "Not available",
      "Marginal Workers Agricultural Labourers worked for 3 - 6 moths during last year - Persons": 6572,
      "Main Workers Household Industry - Males": 1528,
      "Scheduled Tribe Females": 18802,
      "Marginal Workers worked for 0 - 3 moths during last year - Males": 1163,
      "Marginal Workers Other worked for 3 - 6 moths during last year - Males": 4343,
      "Primary Net Enrolment Ratio in percentage DISE": "NA",
      "Total": "NA",
      "Mean age at marriage for boys DLHS-4": 26.7,
      "Number of District Hospitals  DLHS-4": 0,
      "0-6 Age Group Females": 12660,
      "Marginal Workers Agricultural Labourers worked for 0 - 3 moths during last year - Persons": 1547,
      "Marginal Workers Household Industry worked for 0 - 3 moths during last year - Males": 34,
      "Total Workers  Females": 26005,
      "Marginal Workers worked for 3 - 6 moths during last year - Females": 7210,
      "Institutional Deliveries in percentage DLHS-4": 81.8,
      "Marginal Workers Other - Males": 4986,
      "Total Workers  Males": 64721,
      "Main Workers - Females": 16730,
      "Primary Gross Enrolment Ratio in percentage DISE": "NA",
      "Main Workers Cultivators - Persons": 5369,
      "Marginal Workers Household Industry worked for 0 - 3 moths during last year - Females": 69,
      "Upper Primary Net Enrolment Ratio in percentage DISE": "NA",
      "Primary New Government Schools since 2003 in percentage DISE": "NA",
      "Tier": "Urban",
      "Marginal Workers Household Industry - Females": 329,
      "Primary Schools with electricity in percentage DISE": "NA",
      "Main Workers Other - Persons": 58440,
      "Marginal Workers Household Industry worked for 3 - 6 moths during last year - Females": 260,
      "Main Workers Cultivators - Males": 3782,
      "Main Workers Household Industry - Persons": 1969,
      "Marginal Workers Cultivators worked for 0 - 3 moths during last year - Persons": 351,
      "Scheduled Caste Males": 12820,
      "Marginal Workers - Persons": 18283,
      "Deliveries at home conducted by skilled health personnel in percentage DLHS-4": 67.1,
      "Villages with Sub-Health Centres within 3km in percentage DLHS-4": 0,
      "Upper Primary New Government Schools since 2003 in percentage DISE": "NA",
      "0-6 Age Group Males": 13588,
      "Primary Schools with drinking water facility in percentage DISE": "NA",
      "Non Workers - Persons": 154090,
      "Person Literates": 187405,
      "State": "MADHYA PRADESH",
      "Total Female Population": 122432,
      "Marginal Workers worked for 0 - 3 moths during last year - Persons": 3228,
      "Marginal Workers Cultivators - Females": 836,
      "Marginal Workers Other - Persons": 8138,
      "Sex Ratio": 1000,
      "Scheduled Tribe Persons": 36565,
      "Marginal Workers Household Industry worked for 3 - 6 moths during last year - Males": 241,
      "Marginal Workers Agricultural Labourers - Females": 4958,
      "Mean age at marriage for girls DLHS-4": 22.5,
      "Households with solar energy as main source of lighting  Houselisting and Housing Census Data Tables- District Level , Census of India__4": 20,
      "District": "BALAGHAT",
      "Households receiving treated tap water within premises in percentage Houselisting and Housing Census Data Tables- District Level , Census of India__1": 19.42963702,
      "Total Workers  Persons": 90726,
      "Households receiving treated tap water within premises  Houselisting and Housing Census Data Tables- District Level , Census of India__4": 10315,
      "Primary Female Teachers in percentage DISE": "NA",
      "Number of Households": 54467,
      "Main Workers Agricultural Labourers - Persons": 6665
    }
  ]
}