{
  "Total": [
    {
      "Marginal Workers Agricultural Labourers - Persons": 81861,
      "Marginal Workers Other - Females": 3873,
      "Marginal Workers Other worked for 0 - 3 moths during last year - Females": 1037,
      "Upper Primary Schools with boys toilet in percentage DISE": 51.2,
      "Total Population": 1385881,
      "Households with electricity as main source of lighting in percentage Houselisting and Housing Census Data Tables- District Level , Census of India": 74.52409066,
      "Primary Girl's Enrolment in percentage DISE": 49.3,
      "Marginal Workers worked for 3 - 6 moths during last year - Males": 37172,
      "Prevalence of Acute illness in percentage DLHS-4": "Not available",
      "Main Workers - Persons": 525791,
      "Main Workers Cultivators - Females": 96736,
      "Marginal Workers Agricultural Labourers worked for 3 - 6 moths during last year - Females": 47959,
      "Marginal Workers Other worked for 0 - 3 moths during last year - Males": 1612,
      "Upper Primary Schools with drinking water facility in percentage DISE": 99.4,
      "Primary Schools with girls toilet in percentage DISE": 82.4,
      "Marginal Workers worked for 3 - 6 moths during last year - Persons": 111623,
      "Upper Primary Drop Out Rate in percentage DISE": 17.52,
      "Prevalence of Anaemia in pregnant women aged 15-49years in percentage DLHS-4": "Not available",
      "Current use of any modern method of family planning in percentage DLHS-4": 57.9,
      "Marginal Workers Agricultural Labourers - Males": 28418,
      "Upper Primary Female Teachers in percentage DISE": 27.2,
      "Marginal Workers - Females": 84033,
      "Marginal Workers Other worked for 3 - 6 moths during last year - Persons": 7631,
      "Main Workers Agricultural Labourers - Females": 90517,
      "Marginal Workers Cultivators worked for 3 - 6 moths during last year - Females": 22861,
      "Households with no lighting  Houselisting and Housing Census Data Tables- District Level , Census of India__5": 922,
      "Prevalence of Severe Anaemia  in percentage DLHS-4": "Not available",
      "Total unmet need for family planning in percentage DLHS-4": 21.8,
      "Main Workers Other - Males": 66218,
      "Children who received full vaccination in percentage DLHS-4": "Not available",
      "Marginal Workers Household Industry - Persons": 1739,
      "Primary Pupil-Teacher Ratio in percentage DISE": 34,
      "Marginal Workers Agricultural Labourers worked for 3 - 6 moths during last year - Males": 25090,
      "Scheduled Caste Females": 43513,
      "Marginal Workers Cultivators - Males": 8513,
      "Marginal Workers - Males": 44073,
      "Marginal Workers worked for 0 - 3 moths during last year - Females": 9582,
      "Households with main source of drinking water within premises in percentage Houselisting and Housing Census Data Tables- District Level , Census of India": 19.84069843,
      "Marginal Workers Household Industry worked for 3 - 6 moths during last year - Persons": 1350,
      "Upper Primary Girl's Enrolment in percentage DISE": 53.1,
      "Prevalence of Severe Anaemia in women aged 15-49years in percentage DLHS-4": "Not available",
      "Marginal Workers Agricultural Labourers worked for 0 - 3 moths during last year - Males": 3328,
      "Households with electricity as main source of lighting  Houselisting and Housing Census Data Tables- District Level , Census of India__3": 181139,
      "Households with computer or laptop with internet connection in percentage": 0.48,
      "PHCs functioning on a 24x7hours basis in percentage DLHS-4": "Not available",
      "Non Workers - Males": 333412,
      "Total Households in District Houselisting and Housing Census Data Tables- District Level , Census of India": 243061,
      "Upper Primary Schools with girls toilet in percentage DISE": 51.5,
      "Households with mobile phone in percentage": 25.94,
      "Households receiving untreated tap water within premises in percentage Houselisting and Housing Census Data Tables- District Level , Census of India__2": 4.224453944,
      "Marginal Workers Cultivators worked for 3 - 6 moths during last year - Males": 6732,
      "Prevalence of Anaemia  in percentage DLHS-4": "Not available",
      "Prevalence of Chronic illness in percentage DLHS-4": "Not available",
      "Households with solar energy as main source of lighting in percentage Houselisting and Housing Census Data Tables- District Level , Census of India__1": 0.378505807,
      "Marginal Workers Agricultural Labourers worked for 0 - 3 moths during last year - Females": 5484,
      "Main Workers - Males": 321855,
      "Female": 42.39,
      "Sno": 914,
      "Marginal Workers Other worked for 3 - 6 moths during last year - Females": 2836,
      "Marginal Workers Cultivators worked for 0 - 3 moths during last year - Females": 2852,
      "Scheduled Tribe Males": 482182,
      "Male Illiterates": 385698,
      "Prevalence of Severe Anaemia in pregnant women aged 15-49years in percentage DLHS-4": "Not available",
      "0-6 Age Group Persons": 265299,
      "Upper Primary Student-Classroom Ratio in percentage DISE": 26,
      "Currently married men married below 21years of age in percentage DLHS-4": 41.1,
      "Male Literates": 313642,
      "Households with no lighting in percentage Houselisting and Housing Census Data Tables- District Level , Census of India__2": 0.379328646,
      "Primary Drop Out Rate in percentage DISE": 16.4,
      "Marginal Workers Household Industry - Males": 735,
      "Female Illiterates": 450257,
      "Main Workers Other - Females": 15048,
      "Marginal Workers Cultivators - Persons": 34226,
      "Upper Primary Gross Enrolment Ratio in percentage DISE": 62.4,
      "Scheduled Caste Persons": 87991,
      "Marginal Workers Cultivators worked for 3 - 6 moths during last year - Persons": 29593,
      "Households with landline phone in percentage": 1.3,
      "Total Households in District  Houselisting and Housing Census Data Tables- District Level , Census of India": 243061,
      "Upper Primary Pupil-Teacher Ratio in percentage DISE": 35,
      "Primary Student-Classroom Ratio in percentage DISE": 23,
      "Primary Schools with boys toilet in percentage DISE": 84.7,
      "Mean number of children ever born to women aged 40-49years  DLHS-4": "Not available",
      "Households receiving untreated tap water within premises  Houselisting and Housing Census Data Tables- District Level , Census of India__5": 10268,
      "Marginal Workers Household Industry worked for 0 - 3 moths during last year - Persons": 389,
      "Total Male Population": 699340,
      "Non Workers - Females": 398572,
      "Current use of family planning methods in percentage DLHS-4": 61.4,
      "Households with main source of drinking water within premises  Houselisting and Housing Census Data Tables- District Level , Census of India__3": 48225,
      "Main Workers Agricultural Labourers - Males": 94818,
      "Marginal Workers Other worked for 0 - 3 moths during last year - Persons": 2649,
      "Currently married women married below 18years of age in percentage DLHS-4": 19.9,
      "Person Illiterates": 835955,
      "Main Workers Household Industry - Females": 1635,
      "Female Literates": 236284,
      "Marginal Workers Cultivators worked for 0 - 3 moths during last year - Males": 1781,
      "Male": 55.7,
      "Households with improved source of drinking water in percentage DLHS-4": "Not available",
      "Upper Primary Schools with electricity in percentage DISE": 14.9,
      "Households with electricity in percentage DLHS-4": "Not available",
      "Villages with Primary Health Centre within 10km in percentage DLHS-4": "Not available",
      "Births to women aged 15-19years out of Total births in percentage DLHS-4": "Not available",
      "Prevalence of Anaemia in women aged 15-49years in percentage DLHS-4": "Not available",
      "Marginal Workers Agricultural Labourers worked for 3 - 6 moths during last year - Persons": 73049,
      "Main Workers Household Industry - Males": 4077,
      "Scheduled Tribe Females": 479963,
      "Marginal Workers worked for 0 - 3 moths during last year - Males": 6901,
      "Marginal Workers Other worked for 3 - 6 moths during last year - Males": 4795,
      "Primary Net Enrolment Ratio in percentage DISE": 71.1,
      "Total": 49.08,
      "Mean age at marriage for boys DLHS-4": 21.4,
      "Number of District Hospitals  DLHS-4": "Not available",
      "0-6 Age Group Females": 129087,
      "Marginal Workers Agricultural Labourers worked for 0 - 3 moths during last year - Persons": 8812,
      "Marginal Workers Household Industry worked for 0 - 3 moths during last year - Males": 180,
      "Total Workers  Females": 287969,
      "Marginal Workers worked for 3 - 6 moths during last year - Females": 74451,
      "Institutional Deliveries in percentage DLHS-4": 73.7,
      "Marginal Workers Other - Males": 6407,
      "Total Workers  Males": 365928,
      "Main Workers - Females": 203936,
      "Primary Gross Enrolment Ratio in percentage DISE": 93.6,
      "Main Workers Cultivators - Persons": 253478,
      "Marginal Workers Household Industry worked for 0 - 3 moths during last year - Females": 209,
      "Upper Primary Net Enrolment Ratio in percentage DISE": 43.3,
      "Primary New Government Schools since 2003 in percentage DISE": 11,
      "Tier": "Total",
      "Marginal Workers Household Industry - Females": 1004,
      "Primary Schools with electricity in percentage DISE": 8.3,
      "Main Workers Other - Persons": 81266,
      "Marginal Workers Household Industry worked for 3 - 6 moths during last year - Females": 795,
      "Main Workers Cultivators - Males": 156742,
      "Main Workers Household Industry - Persons": 5712,
      "Marginal Workers Cultivators worked for 0 - 3 moths during last year - Persons": 4633,
      "Scheduled Caste Males": 44478,
      "Marginal Workers - Persons": 128106,
      "Deliveries at home conducted by skilled health personnel in percentage DLHS-4": 26.6,
      "Villages with Sub-Health Centres within 3km in percentage DLHS-4": "Not available",
      "Upper Primary New Government Schools since 2003 in percentage DISE": 50.5,
      "0-6 Age Group Males": 136212,
      "Primary Schools with drinking water facility in percentage DISE": 99.2,
      "Non Workers - Persons": 731984,
      "Person Literates": 549926,
      "State": "MADHYA PRADESH",
      "Total Female Population": 686541,
      "Marginal Workers worked for 0 - 3 moths during last year - Persons": 16483,
      "Marginal Workers Cultivators - Females": 25713,
      "Marginal Workers Other - Persons": 10280,
      "Sex Ratio": 982,
      "Scheduled Tribe Persons": 962145,
      "Marginal Workers Household Industry worked for 3 - 6 moths during last year - Males": 555,
      "Marginal Workers Agricultural Labourers - Females": 53443,
      "Mean age at marriage for girls DLHS-4": 19.6,
      "Households with solar energy as main source of lighting  Houselisting and Housing Census Data Tables- District Level , Census of India__4": 920,
      "District": "BARWANI",
      "Households receiving treated tap water within premises in percentage Houselisting and Housing Census Data Tables- District Level , Census of India__1": 9.859664858,
      "Total Workers  Persons": 653897,
      "Households receiving treated tap water within premises  Houselisting and Housing Census Data Tables- District Level , Census of India__4": 23965,
      "Primary Female Teachers in percentage DISE": 34.9,
      "Number of Households": 243277,
      "Main Workers Agricultural Labourers - Persons": 185335
    }
  ],
  "Rural": [
    {
      "Marginal Workers Agricultural Labourers - Persons": 79328,
      "Marginal Workers Other - Females": 2534,
      "Marginal Workers Other worked for 0 - 3 moths during last year - Females": 777,
      "Upper Primary Schools with boys toilet in percentage DISE": "NA",
      "Total Population": 1181812,
      "Households with electricity as main source of lighting in percentage Houselisting and Housing Census Data Tables- District Level , Census of India": 71.36860435,
      "Primary Girl's Enrolment in percentage DISE": "NA",
      "Marginal Workers worked for 3 - 6 moths during last year - Males": 34367,
      "Prevalence of Acute illness in percentage DLHS-4": "Not available",
      "Main Workers - Persons": 460784,
      "Main Workers Cultivators - Females": 96143,
      "Marginal Workers Agricultural Labourers worked for 3 - 6 moths during last year - Females": 46707,
      "Marginal Workers Other worked for 0 - 3 moths during last year - Males": 1109,
      "Upper Primary Schools with drinking water facility in percentage DISE": "NA",
      "Primary Schools with girls toilet in percentage DISE": "NA",
      "Marginal Workers worked for 3 - 6 moths during last year - Persons": 106040,
      "Upper Primary Drop Out Rate in percentage DISE": "NA",
      "Prevalence of Anaemia in pregnant women aged 15-49years in percentage DLHS-4": "Not available",
      "Current use of any modern method of family planning in percentage DLHS-4": 58.3,
      "Marginal Workers Agricultural Labourers - Males": 27413,
      "Upper Primary Female Teachers in percentage DISE": "NA",
      "Marginal Workers - Females": 80628,
      "Marginal Workers Other worked for 3 - 6 moths during last year - Persons": 4612,
      "Main Workers Agricultural Labourers - Females": 84927,
      "Marginal Workers Cultivators worked for 3 - 6 moths during last year - Females": 22598,
      "Households with no lighting  Houselisting and Housing Census Data Tables- District Level , Census of India__5": 832,
      "Prevalence of Severe Anaemia  in percentage DLHS-4": "Not available",
      "Total unmet need for family planning in percentage DLHS-4": 21.8,
      "Main Workers Other - Males": 26794,
      "Children who received full vaccination in percentage DLHS-4": "Not available",
      "Marginal Workers Household Industry - Persons": 1310,
      "Primary Pupil-Teacher Ratio in percentage DISE": "NA",
      "Marginal Workers Agricultural Labourers worked for 3 - 6 moths during last year - Males": 24422,
      "Scheduled Caste Females": 31865,
      "Marginal Workers Cultivators - Males": 8453,
      "Marginal Workers - Males": 40374,
      "Marginal Workers worked for 0 - 3 moths during last year - Females": 8955,
      "Households with main source of drinking water within premises in percentage Houselisting and Housing Census Data Tables- District Level , Census of India": 15.08641027,
      "Marginal Workers Household Industry worked for 3 - 6 moths during last year - Persons": 1022,
      "Upper Primary Girl's Enrolment in percentage DISE": "NA",
      "Prevalence of Severe Anaemia in women aged 15-49years in percentage DLHS-4": "Not available",
      "Marginal Workers Agricultural Labourers worked for 0 - 3 moths during last year - Males": 2991,
      "Households with electricity as main source of lighting  Houselisting and Housing Census Data Tables- District Level , Census of India__3": 146726,
      "Households with computer or laptop with internet connection in percentage": 0.14,
      "PHCs functioning on a 24x7hours basis in percentage DLHS-4": "Not applicable",
      "Non Workers - Males": 283380,
      "Total Households in District Houselisting and Housing Census Data Tables- District Level , Census of India": 205589,
      "Upper Primary Schools with girls toilet in percentage DISE": "NA",
      "Households with mobile phone in percentage": 19.84,
      "Households receiving untreated tap water within premises in percentage Houselisting and Housing Census Data Tables- District Level , Census of India__2": 3.922875251,
      "Marginal Workers Cultivators worked for 3 - 6 moths during last year - Males": 6679,
      "Prevalence of Anaemia  in percentage DLHS-4": "Not available",
      "Prevalence of Chronic illness in percentage DLHS-4": "Not available",
      "Households with solar energy as main source of lighting in percentage Houselisting and Housing Census Data Tables- District Level , Census of India__1": 0.437280205,
      "Marginal Workers Agricultural Labourers worked for 0 - 3 moths during last year - Females": 5208,
      "Main Workers - Males": 271153,
      "Female": "NA",
      "Sno": 913,
      "Marginal Workers Other worked for 3 - 6 moths during last year - Females": 1757,
      "Marginal Workers Cultivators worked for 0 - 3 moths during last year - Females": 2815,
      "Scheduled Tribe Males": 463463,
      "Male Illiterates": 356645,
      "Prevalence of Severe Anaemia in pregnant women aged 15-49years in percentage DLHS-4": "Not available",
      "0-6 Age Group Persons": 237316,
      "Upper Primary Student-Classroom Ratio in percentage DISE": "NA",
      "Currently married men married below 21years of age in percentage DLHS-4": 46.2,
      "Male Literates": 238262,
      "Households with no lighting in percentage Houselisting and Housing Census Data Tables- District Level , Census of India__2": 0.404690912,
      "Primary Drop Out Rate in percentage DISE": "NA",
      "Marginal Workers Household Industry - Males": 544,
      "Female Illiterates": 412015,
      "Main Workers Other - Females": 7489,
      "Marginal Workers Cultivators - Persons": 33866,
      "Upper Primary Gross Enrolment Ratio in percentage DISE": "NA",
      "Scheduled Caste Persons": 64344,
      "Marginal Workers Cultivators worked for 3 - 6 moths during last year - Persons": 29277,
      "Households with landline phone in percentage": 0.98,
      "Total Households in District  Houselisting and Housing Census Data Tables- District Level , Census of India": 205589,
      "Upper Primary Pupil-Teacher Ratio in percentage DISE": "NA",
      "Primary Student-Classroom Ratio in percentage DISE": "NA",
      "Primary Schools with boys toilet in percentage DISE": "NA",
      "Mean number of children ever born to women aged 40-49years  DLHS-4": "Not available",
      "Households receiving untreated tap water within premises  Houselisting and Housing Census Data Tables- District Level , Census of India__5": 8065,
      "Marginal Workers Household Industry worked for 0 - 3 moths during last year - Persons": 288,
      "Total Male Population": 594907,
      "Non Workers - Females": 316646,
      "Current use of family planning methods in percentage DLHS-4": 61.2,
      "Households with main source of drinking water within premises  Houselisting and Housing Census Data Tables- District Level , Census of India__3": 31016,
      "Main Workers Agricultural Labourers - Males": 88761,
      "Marginal Workers Other worked for 0 - 3 moths during last year - Persons": 1886,
      "Currently married women married below 18years of age in percentage DLHS-4": 22,
      "Person Illiterates": 768660,
      "Main Workers Household Industry - Females": 1072,
      "Female Literates": 174890,
      "Marginal Workers Cultivators worked for 0 - 3 moths during last year - Males": 1774,
      "Male": "NA",
      "Households with improved source of drinking water in percentage DLHS-4": "Not available",
      "Upper Primary Schools with electricity in percentage DISE": "NA",
      "Households with electricity in percentage DLHS-4": "Not available",
      "Villages with Primary Health Centre within 10km in percentage DLHS-4": "Not applicable",
      "Births to women aged 15-19years out of Total births in percentage DLHS-4": "Not available",
      "Prevalence of Anaemia in women aged 15-49years in percentage DLHS-4": "Not available",
      "Marginal Workers Agricultural Labourers worked for 3 - 6 moths during last year - Persons": 71129,
      "Main Workers Household Industry - Males": 2074,
      "Scheduled Tribe Females": 462187,
      "Marginal Workers worked for 0 - 3 moths during last year - Males": 6007,
      "Marginal Workers Other worked for 3 - 6 moths during last year - Males": 2855,
      "Primary Net Enrolment Ratio in percentage DISE": "NA",
      "Total": "NA",
      "Mean age at marriage for boys DLHS-4": 20.9,
      "Number of District Hospitals  DLHS-4": "Not applicable",
      "0-6 Age Group Females": 115885,
      "Marginal Workers Agricultural Labourers worked for 0 - 3 moths during last year - Persons": 8199,
      "Marginal Workers Household Industry worked for 0 - 3 moths during last year - Males": 133,
      "Total Workers  Females": 270259,
      "Marginal Workers worked for 3 - 6 moths during last year - Females": 71673,
      "Institutional Deliveries in percentage DLHS-4": 67.7,
      "Marginal Workers Other - Males": 3964,
      "Total Workers  Males": 311527,
      "Main Workers - Females": 189631,
      "Primary Gross Enrolment Ratio in percentage DISE": "NA",
      "Main Workers Cultivators - Persons": 249667,
      "Marginal Workers Household Industry worked for 0 - 3 moths during last year - Females": 155,
      "Upper Primary Net Enrolment Ratio in percentage DISE": "NA",
      "Primary New Government Schools since 2003 in percentage DISE": "NA",
      "Tier": "Rural",
      "Marginal Workers Household Industry - Females": 766,
      "Primary Schools with electricity in percentage DISE": "NA",
      "Main Workers Other - Persons": 34283,
      "Marginal Workers Household Industry worked for 3 - 6 moths during last year - Females": 611,
      "Main Workers Cultivators - Males": 153524,
      "Main Workers Household Industry - Persons": 3146,
      "Marginal Workers Cultivators worked for 0 - 3 moths during last year - Persons": 4589,
      "Scheduled Caste Males": 32479,
      "Marginal Workers - Persons": 121002,
      "Deliveries at home conducted by skilled health personnel in percentage DLHS-4": 26.1,
      "Villages with Sub-Health Centres within 3km in percentage DLHS-4": "Not applicable",
      "Upper Primary New Government Schools since 2003 in percentage DISE": "NA",
      "0-6 Age Group Males": 121431,
      "Primary Schools with drinking water facility in percentage DISE": "NA",
      "Non Workers - Persons": 600026,
      "Person Literates": 413152,
      "State": "MADHYA PRADESH",
      "Total Female Population": 586905,
      "Marginal Workers worked for 0 - 3 moths during last year - Persons": 14962,
      "Marginal Workers Cultivators - Females": 25413,
      "Marginal Workers Other - Persons": 6498,
      "Sex Ratio": 987,
      "Scheduled Tribe Persons": 925650,
      "Marginal Workers Household Industry worked for 3 - 6 moths during last year - Males": 411,
      "Marginal Workers Agricultural Labourers - Females": 51915,
      "Mean age at marriage for girls DLHS-4": 19.2,
      "Households with solar energy as main source of lighting  Houselisting and Housing Census Data Tables- District Level , Census of India__4": 899,
      "District": "BARWANI",
      "Households receiving treated tap water within premises in percentage Houselisting and Housing Census Data Tables- District Level , Census of India__1": 4.683616341,
      "Total Workers  Persons": 581786,
      "Households receiving treated tap water within premises  Houselisting and Housing Census Data Tables- District Level , Census of India__4": 9629,
      "Primary Female Teachers in percentage DISE": "NA",
      "Number of Households": 204644,
      "Main Workers Agricultural Labourers - Persons": 173688
    }
  ],
  "Urban": [
    {
      "Marginal Workers Agricultural Labourers - Persons": 2533,
      "Marginal Workers Other - Females": 1339,
      "Marginal Workers Other worked for 0 - 3 moths during last year - Females": 260,
      "Upper Primary Schools with boys toilet in percentage DISE": "NA",
      "Total Population": 204069,
      "Households with electricity as main source of lighting in percentage Houselisting and Housing Census Data Tables- District Level , Census of India": 91.83657131,
      "Primary Girl's Enrolment in percentage DISE": "NA",
      "Marginal Workers worked for 3 - 6 moths during last year - Males": 2805,
      "Prevalence of Acute illness in percentage DLHS-4": "Not available",
      "Main Workers - Persons": 65007,
      "Main Workers Cultivators - Females": 593,
      "Marginal Workers Agricultural Labourers worked for 3 - 6 moths during last year - Females": 1252,
      "Marginal Workers Other worked for 0 - 3 moths during last year - Males": 503,
      "Upper Primary Schools with drinking water facility in percentage DISE": "NA",
      "Primary Schools with girls toilet in percentage DISE": "NA",
      "Marginal Workers worked for 3 - 6 moths during last year - Persons": 5583,
      "Upper Primary Drop Out Rate in percentage DISE": "NA",
      "Prevalence of Anaemia in pregnant women aged 15-49years in percentage DLHS-4": "Not available",
      "Current use of any modern method of family planning in percentage DLHS-4": 56.4,
      "Marginal Workers Agricultural Labourers - Males": 1005,
      "Upper Primary Female Teachers in percentage DISE": "NA",
      "Marginal Workers - Females": 3405,
      "Marginal Workers Other worked for 3 - 6 moths during last year - Persons": 3019,
      "Main Workers Agricultural Labourers - Females": 5590,
      "Marginal Workers Cultivators worked for 3 - 6 moths during last year - Females": 263,
      "Households with no lighting  Houselisting and Housing Census Data Tables- District Level , Census of India__5": 90,
      "Prevalence of Severe Anaemia  in percentage DLHS-4": "Not available",
      "Total unmet need for family planning in percentage DLHS-4": 21.7,
      "Main Workers Other - Males": 39424,
      "Children who received full vaccination in percentage DLHS-4": "Not available",
      "Marginal Workers Household Industry - Persons": 429,
      "Primary Pupil-Teacher Ratio in percentage DISE": "NA",
      "Marginal Workers Agricultural Labourers worked for 3 - 6 moths during last year - Males": 668,
      "Scheduled Caste Females": 11648,
      "Marginal Workers Cultivators - Males": 60,
      "Marginal Workers - Males": 3699,
      "Marginal Workers worked for 0 - 3 moths during last year - Females": 627,
      "Households with main source of drinking water within premises in percentage Houselisting and Housing Census Data Tables- District Level , Census of India": 45.9249573,
      "Marginal Workers Household Industry worked for 3 - 6 moths during last year - Persons": 328,
      "Upper Primary Girl's Enrolment in percentage DISE": "NA",
      "Prevalence of Severe Anaemia in women aged 15-49years in percentage DLHS-4": "Not available",
      "Marginal Workers Agricultural Labourers worked for 0 - 3 moths during last year - Males": 337,
      "Households with electricity as main source of lighting  Houselisting and Housing Census Data Tables- District Level , Census of India__3": 34413,
      "Households with computer or laptop with internet connection in percentage": 2.35,
      "PHCs functioning on a 24x7hours basis in percentage DLHS-4": 0,
      "Non Workers - Males": 50032,
      "Total Households in District Houselisting and Housing Census Data Tables- District Level , Census of India": 37472,
      "Upper Primary Schools with girls toilet in percentage DISE": "NA",
      "Households with mobile phone in percentage": 59.39,
      "Households receiving untreated tap water within premises in percentage Houselisting and Housing Census Data Tables- District Level , Census of India__2": 5.879056362,
      "Marginal Workers Cultivators worked for 3 - 6 moths during last year - Males": 53,
      "Prevalence of Anaemia  in percentage DLHS-4": "Not available",
      "Prevalence of Chronic illness in percentage DLHS-4": "Not available",
      "Households with solar energy as main source of lighting in percentage Houselisting and Housing Census Data Tables- District Level , Census of India__1": 0.056,
      "Marginal Workers Agricultural Labourers worked for 0 - 3 moths during last year - Females": 276,
      "Main Workers - Males": 50702,
      "Female": "NA",
      "Sno": 915,
      "Marginal Workers Other worked for 3 - 6 moths during last year - Females": 1079,
      "Marginal Workers Cultivators worked for 0 - 3 moths during last year - Females": 37,
      "Scheduled Tribe Males": 18719,
      "Male Illiterates": 29053,
      "Prevalence of Severe Anaemia in pregnant women aged 15-49years in percentage DLHS-4": "Not available",
      "0-6 Age Group Persons": 27983,
      "Upper Primary Student-Classroom Ratio in percentage DISE": "NA",
      "Currently married men married below 21years of age in percentage DLHS-4": 19.6,
      "Male Literates": 75380,
      "Households with no lighting in percentage Houselisting and Housing Census Data Tables- District Level , Census of India__2": 0.240179334,
      "Primary Drop Out Rate in percentage DISE": "NA",
      "Marginal Workers Household Industry - Males": 191,
      "Female Illiterates": 38242,
      "Main Workers Other - Females": 7559,
      "Marginal Workers Cultivators - Persons": 360,
      "Upper Primary Gross Enrolment Ratio in percentage DISE": "NA",
      "Scheduled Caste Persons": 23647,
      "Marginal Workers Cultivators worked for 3 - 6 moths during last year - Persons": 316,
      "Households with landline phone in percentage": 3.06,
      "Total Households in District  Houselisting and Housing Census Data Tables- District Level , Census of India": 37472,
      "Upper Primary Pupil-Teacher Ratio in percentage DISE": "NA",
      "Primary Student-Classroom Ratio in percentage DISE": "NA",
      "Primary Schools with boys toilet in percentage DISE": "NA",
      "Mean number of children ever born to women aged 40-49years  DLHS-4": "Not available",
      "Households receiving untreated tap water within premises  Houselisting and Housing Census Data Tables- District Level , Census of India__5": 2203,
      "Marginal Workers Household Industry worked for 0 - 3 moths during last year - Persons": 101,
      "Total Male Population": 104433,
      "Non Workers - Females": 81926,
      "Current use of family planning methods in percentage DLHS-4": 62,
      "Households with main source of drinking water within premises  Houselisting and Housing Census Data Tables- District Level , Census of India__3": 17209,
      "Main Workers Agricultural Labourers - Males": 6057,
      "Marginal Workers Other worked for 0 - 3 moths during last year - Persons": 763,
      "Currently married women married below 18years of age in percentage DLHS-4": 11,
      "Person Illiterates": 67295,
      "Main Workers Household Industry - Females": 563,
      "Female Literates": 61394,
      "Marginal Workers Cultivators worked for 0 - 3 moths during last year - Males": 7,
      "Male": "NA",
      "Households with improved source of drinking water in percentage DLHS-4": "Not available",
      "Upper Primary Schools with electricity in percentage DISE": "NA",
      "Households with electricity in percentage DLHS-4": "Not available",
      "Villages with Primary Health Centre within 10km in percentage DLHS-4": 0,
      "Births to women aged 15-19years out of Total births in percentage DLHS-4": "Not available",
      "Prevalence of Anaemia in women aged 15-49years in percentage DLHS-4": "Not available",
      "Marginal Workers Agricultural Labourers worked for 3 - 6 moths during last year - Persons": 1920,
      "Main Workers Household Industry - Males": 2003,
      "Scheduled Tribe Females": 17776,
      "Marginal Workers worked for 0 - 3 moths during last year - Males": 894,
      "Marginal Workers Other worked for 3 - 6 moths during last year - Males": 1940,
      "Primary Net Enrolment Ratio in percentage DISE": "NA",
      "Total": "NA",
      "Mean age at marriage for boys DLHS-4": 23.9,
      "Number of District Hospitals  DLHS-4": 0,
      "0-6 Age Group Females": 13202,
      "Marginal Workers Agricultural Labourers worked for 0 - 3 moths during last year - Persons": 613,
      "Marginal Workers Household Industry worked for 0 - 3 moths during last year - Males": 47,
      "Total Workers  Females": 17710,
      "Marginal Workers worked for 3 - 6 moths during last year - Females": 2778,
      "Institutional Deliveries in percentage DLHS-4": 97.8,
      "Marginal Workers Other - Males": 2443,
      "Total Workers  Males": 54401,
      "Main Workers - Females": 14305,
      "Primary Gross Enrolment Ratio in percentage DISE": "NA",
      "Main Workers Cultivators - Persons": 3811,
      "Marginal Workers Household Industry worked for 0 - 3 moths during last year - Females": 54,
      "Upper Primary Net Enrolment Ratio in percentage DISE": "NA",
      "Primary New Government Schools since 2003 in percentage DISE": "NA",
      "Tier": "Urban",
      "Marginal Workers Household Industry - Females": 238,
      "Primary Schools with electricity in percentage DISE": "NA",
      "Main Workers Other - Persons": 46983,
      "Marginal Workers Household Industry worked for 3 - 6 moths during last year - Females": 184,
      "Main Workers Cultivators - Males": 3218,
      "Main Workers Household Industry - Persons": 2566,
      "Marginal Workers Cultivators worked for 0 - 3 moths during last year - Persons": 44,
      "Scheduled Caste Males": 11999,
      "Marginal Workers - Persons": 7104,
      "Deliveries at home conducted by skilled health personnel in percentage DLHS-4": 57.1,
      "Villages with Sub-Health Centres within 3km in percentage DLHS-4": 0,
      "Upper Primary New Government Schools since 2003 in percentage DISE": "NA",
      "0-6 Age Group Males": 14781,
      "Primary Schools with drinking water facility in percentage DISE": "NA",
      "Non Workers - Persons": 131958,
      "Person Literates": 136774,
      "State": "MADHYA PRADESH",
      "Total Female Population": 99636,
      "Marginal Workers worked for 0 - 3 moths during last year - Persons": 1521,
      "Marginal Workers Cultivators - Females": 300,
      "Marginal Workers Other - Persons": 3782,
      "Sex Ratio": 954,
      "Scheduled Tribe Persons": 36495,
      "Marginal Workers Household Industry worked for 3 - 6 moths during last year - Males": 144,
      "Marginal Workers Agricultural Labourers - Females": 1528,
      "Mean age at marriage for girls DLHS-4": 20.9,
      "Households with solar energy as main source of lighting  Houselisting and Housing Census Data Tables- District Level , Census of India__4": 21,
      "District": "BARWANI",
      "Households receiving treated tap water within premises in percentage Houselisting and Housing Census Data Tables- District Level , Census of India__1": 38.25789923,
      "Total Workers  Persons": 72111,
      "Households receiving treated tap water within premises  Houselisting and Housing Census Data Tables- District Level , Census of India__4": 14336,
      "Primary Female Teachers in percentage DISE": "NA",
      "Number of Households": 38633,
      "Main Workers Agricultural Labourers - Persons": 11647
    }
  ]
}