{
  "Total": [
    {
      "Marginal Workers Agricultural Labourers - Persons": 38886,
      "Marginal Workers Other - Females": 2581,
      "Marginal Workers Other worked for 0 - 3 moths during last year - Females": 443,
      "Upper Primary Schools with boys toilet in percentage DISE": 97.5,
      "Total Population": 757847,
      "Households with electricity as main source of lighting in percentage Houselisting and Housing Census Data Tables- District Level , Census of India": 77.9860427,
      "Primary Girl's Enrolment in percentage DISE": 48.2,
      "Marginal Workers worked for 3 - 6 moths during last year - Males": 20307,
      "Prevalence of Acute illness in percentage DLHS-4": "Not available",
      "Main Workers - Persons": 274900,
      "Main Workers Cultivators - Females": 19064,
      "Marginal Workers Agricultural Labourers worked for 3 - 6 moths during last year - Females": 20946,
      "Marginal Workers Other worked for 0 - 3 moths during last year - Males": 887,
      "Upper Primary Schools with drinking water facility in percentage DISE": 97.2,
      "Primary Schools with girls toilet in percentage DISE": 93.5,
      "Marginal Workers worked for 3 - 6 moths during last year - Persons": 47484,
      "Upper Primary Drop Out Rate in percentage DISE": 9.58,
      "Prevalence of Anaemia in pregnant women aged 15-49years in percentage DLHS-4": "Not available",
      "Current use of any modern method of family planning in percentage DLHS-4": "Not available",
      "Marginal Workers Agricultural Labourers - Males": 15707,
      "Upper Primary Female Teachers in percentage DISE": 36.9,
      "Marginal Workers - Females": 30588,
      "Marginal Workers Other worked for 3 - 6 moths during last year - Persons": 6093,
      "Main Workers Agricultural Labourers - Females": 51468,
      "Marginal Workers Cultivators worked for 3 - 6 moths during last year - Females": 3747,
      "Households with no lighting  Houselisting and Housing Census Data Tables- District Level , Census of India__5": 732,
      "Prevalence of Severe Anaemia  in percentage DLHS-4": "Not available",
      "Total unmet need for family planning in percentage DLHS-4": "Not available",
      "Main Workers Other - Males": 75596,
      "Children who received full vaccination in percentage DLHS-4": "Not available",
      "Marginal Workers Household Industry - Persons": 798,
      "Primary Pupil-Teacher Ratio in percentage DISE": 35,
      "Marginal Workers Agricultural Labourers worked for 3 - 6 moths during last year - Males": 14543,
      "Scheduled Caste Females": 31217,
      "Marginal Workers Cultivators - Males": 1965,
      "Marginal Workers - Males": 22851,
      "Marginal Workers worked for 0 - 3 moths during last year - Females": 3411,
      "Households with main source of drinking water within premises in percentage Houselisting and Housing Census Data Tables- District Level , Census of India": 35.16170207,
      "Marginal Workers Household Industry worked for 3 - 6 moths during last year - Persons": 628,
      "Upper Primary Girl's Enrolment in percentage DISE": 53.5,
      "Prevalence of Severe Anaemia in women aged 15-49years in percentage DLHS-4": "Not available",
      "Marginal Workers Agricultural Labourers worked for 0 - 3 moths during last year - Males": 1164,
      "Households with electricity as main source of lighting  Houselisting and Housing Census Data Tables- District Level , Census of India__3": 112420,
      "Households with computer or laptop with internet connection in percentage": 0.68,
      "PHCs functioning on a 24x7hours basis in percentage DLHS-4": "Not available",
      "Non Workers - Males": 176579,
      "Total Households in District Houselisting and Housing Census Data Tables- District Level , Census of India": 144154,
      "Upper Primary Schools with girls toilet in percentage DISE": 91.9,
      "Households with mobile phone in percentage": 33.5,
      "Households receiving untreated tap water within premises in percentage Houselisting and Housing Census Data Tables- District Level , Census of India__2": 24.32259944,
      "Marginal Workers Cultivators worked for 3 - 6 moths during last year - Males": 1527,
      "Prevalence of Anaemia  in percentage DLHS-4": "Not available",
      "Prevalence of Chronic illness in percentage DLHS-4": "Not available",
      "Households with solar energy as main source of lighting in percentage Houselisting and Housing Census Data Tables- District Level , Census of India__1": 0.0701,
      "Marginal Workers Agricultural Labourers worked for 0 - 3 moths during last year - Females": 2233,
      "Main Workers - Males": 189074,
      "Female": 56.58,
      "Sno": 926,
      "Marginal Workers Other worked for 3 - 6 moths during last year - Females": 2138,
      "Marginal Workers Cultivators worked for 0 - 3 moths during last year - Females": 620,
      "Scheduled Tribe Males": 116420,
      "Male Illiterates": 155431,
      "Prevalence of Severe Anaemia in pregnant women aged 15-49years in percentage DLHS-4": "Not available",
      "0-6 Age Group Persons": 122869,
      "Upper Primary Student-Classroom Ratio in percentage DISE": 30,
      "Currently married men married below 21years of age in percentage DLHS-4": "Not available",
      "Male Literates": 233073,
      "Households with no lighting in percentage Houselisting and Housing Census Data Tables- District Level , Census of India__2": 0.50779028,
      "Primary Drop Out Rate in percentage DISE": 6.4,
      "Marginal Workers Household Industry - Males": 337,
      "Female Illiterates": 193737,
      "Main Workers Other - Females": 13149,
      "Marginal Workers Cultivators - Persons": 6332,
      "Upper Primary Gross Enrolment Ratio in percentage DISE": 74.2,
      "Scheduled Caste Persons": 64254,
      "Marginal Workers Cultivators worked for 3 - 6 moths during last year - Persons": 5274,
      "Households with landline phone in percentage": 1.78,
      "Total Households in District  Houselisting and Housing Census Data Tables- District Level , Census of India": 144154,
      "Upper Primary Pupil-Teacher Ratio in percentage DISE": 40,
      "Primary Student-Classroom Ratio in percentage DISE": 29,
      "Primary Schools with boys toilet in percentage DISE": 91.5,
      "Mean number of children ever born to women aged 40-49years  DLHS-4": "Not available",
      "Households receiving untreated tap water within premises  Houselisting and Housing Census Data Tables- District Level , Census of India__5": 35062,
      "Marginal Workers Household Industry worked for 0 - 3 moths during last year - Persons": 170,
      "Total Male Population": 388504,
      "Non Workers - Females": 252929,
      "Current use of family planning methods in percentage DLHS-4": "Not available",
      "Households with main source of drinking water within premises  Houselisting and Housing Census Data Tables- District Level , Census of India__3": 50687,
      "Main Workers Agricultural Labourers - Males": 65941,
      "Marginal Workers Other worked for 0 - 3 moths during last year - Persons": 1330,
      "Currently married women married below 18years of age in percentage DLHS-4": "Not available",
      "Person Illiterates": 349168,
      "Main Workers Household Industry - Females": 2145,
      "Female Literates": 175606,
      "Marginal Workers Cultivators worked for 0 - 3 moths during last year - Males": 438,
      "Male": 71.8,
      "Households with improved source of drinking water in percentage DLHS-4": "Not available",
      "Upper Primary Schools with electricity in percentage DISE": 39.9,
      "Households with electricity in percentage DLHS-4": "Not available",
      "Villages with Primary Health Centre within 10km in percentage DLHS-4": "Not available",
      "Births to women aged 15-19years out of Total births in percentage DLHS-4": "Not available",
      "Prevalence of Anaemia in women aged 15-49years in percentage DLHS-4": "Not available",
      "Marginal Workers Agricultural Labourers worked for 3 - 6 moths during last year - Persons": 35489,
      "Main Workers Household Industry - Males": 5134,
      "Scheduled Tribe Females": 113675,
      "Marginal Workers worked for 0 - 3 moths during last year - Males": 2544,
      "Marginal Workers Other worked for 3 - 6 moths during last year - Males": 3955,
      "Primary Net Enrolment Ratio in percentage DISE": 83,
      "Total": 64.36,
      "Mean age at marriage for boys DLHS-4": "Not available",
      "Number of District Hospitals  DLHS-4": "Not available",
      "0-6 Age Group Females": 58995,
      "Marginal Workers Agricultural Labourers worked for 0 - 3 moths during last year - Persons": 3397,
      "Marginal Workers Household Industry worked for 0 - 3 moths during last year - Males": 55,
      "Total Workers  Females": 116414,
      "Marginal Workers worked for 3 - 6 moths during last year - Females": 27177,
      "Institutional Deliveries in percentage DLHS-4": "Not available",
      "Marginal Workers Other - Males": 4842,
      "Total Workers  Males": 211925,
      "Main Workers - Females": 85826,
      "Primary Gross Enrolment Ratio in percentage DISE": 100.1,
      "Main Workers Cultivators - Persons": 61467,
      "Marginal Workers Household Industry worked for 0 - 3 moths during last year - Females": 115,
      "Upper Primary Net Enrolment Ratio in percentage DISE": 55.2,
      "Primary New Government Schools since 2003 in percentage DISE": 7.2,
      "Tier": "Total",
      "Marginal Workers Household Industry - Females": 461,
      "Primary Schools with electricity in percentage DISE": 14.4,
      "Main Workers Other - Persons": 88745,
      "Marginal Workers Household Industry worked for 3 - 6 moths during last year - Females": 346,
      "Main Workers Cultivators - Males": 42403,
      "Main Workers Household Industry - Persons": 7279,
      "Marginal Workers Cultivators worked for 0 - 3 moths during last year - Persons": 1058,
      "Scheduled Caste Males": 33037,
      "Marginal Workers - Persons": 53439,
      "Deliveries at home conducted by skilled health personnel in percentage DLHS-4": "Not available",
      "Villages with Sub-Health Centres within 3km in percentage DLHS-4": "Not available",
      "Upper Primary New Government Schools since 2003 in percentage DISE": 40.7,
      "0-6 Age Group Males": 63874,
      "Primary Schools with drinking water facility in percentage DISE": 97.4,
      "Non Workers - Persons": 429508,
      "Person Literates": 408679,
      "State": "MADHYA PRADESH",
      "Total Female Population": 369343,
      "Marginal Workers worked for 0 - 3 moths during last year - Persons": 5955,
      "Marginal Workers Cultivators - Females": 4367,
      "Marginal Workers Other - Persons": 7423,
      "Sex Ratio": 951,
      "Scheduled Tribe Persons": 230095,
      "Marginal Workers Household Industry worked for 3 - 6 moths during last year - Males": 282,
      "Marginal Workers Agricultural Labourers - Females": 23179,
      "Mean age at marriage for girls DLHS-4": "Not available",
      "Households with solar energy as main source of lighting  Houselisting and Housing Census Data Tables- District Level , Census of India__4": 101,
      "District": "BURHANPUR",
      "Households receiving treated tap water within premises in percentage Houselisting and Housing Census Data Tables- District Level , Census of India__1": 9.138837632,
      "Total Workers  Persons": 328339,
      "Households receiving treated tap water within premises  Houselisting and Housing Census Data Tables- District Level , Census of India__4": 13174,
      "Primary Female Teachers in percentage DISE": 44.1,
      "Number of Households": 146341,
      "Main Workers Agricultural Labourers - Persons": 117409
    }
  ],
  "Rural": [
    {
      "Marginal Workers Agricultural Labourers - Persons": 35985,
      "Marginal Workers Other - Females": 1130,
      "Marginal Workers Other worked for 0 - 3 moths during last year - Females": 176,
      "Upper Primary Schools with boys toilet in percentage DISE": "NA",
      "Total Population": 497560,
      "Households with electricity as main source of lighting in percentage Houselisting and Housing Census Data Tables- District Level , Census of India": 69.79054334,
      "Primary Girl's Enrolment in percentage DISE": "NA",
      "Marginal Workers worked for 3 - 6 moths during last year - Males": 16631,
      "Prevalence of Acute illness in percentage DLHS-4": "Not available",
      "Main Workers - Persons": 195102,
      "Main Workers Cultivators - Females": 18798,
      "Marginal Workers Agricultural Labourers worked for 3 - 6 moths during last year - Females": 19273,
      "Marginal Workers Other worked for 0 - 3 moths during last year - Males": 214,
      "Upper Primary Schools with drinking water facility in percentage DISE": "NA",
      "Primary Schools with girls toilet in percentage DISE": "NA",
      "Marginal Workers worked for 3 - 6 moths during last year - Persons": 40692,
      "Upper Primary Drop Out Rate in percentage DISE": "NA",
      "Prevalence of Anaemia in pregnant women aged 15-49years in percentage DLHS-4": "Not available",
      "Current use of any modern method of family planning in percentage DLHS-4": "Not available",
      "Marginal Workers Agricultural Labourers - Males": 14582,
      "Upper Primary Female Teachers in percentage DISE": "NA",
      "Marginal Workers - Females": 27013,
      "Marginal Workers Other worked for 3 - 6 moths during last year - Persons": 2469,
      "Main Workers Agricultural Labourers - Females": 48703,
      "Marginal Workers Cultivators worked for 3 - 6 moths during last year - Females": 3660,
      "Households with no lighting  Houselisting and Housing Census Data Tables- District Level , Census of India__5": 521,
      "Prevalence of Severe Anaemia  in percentage DLHS-4": "Not available",
      "Total unmet need for family planning in percentage DLHS-4": "Not available",
      "Main Workers Other - Males": 18530,
      "Children who received full vaccination in percentage DLHS-4": "Not available",
      "Marginal Workers Household Industry - Persons": 387,
      "Primary Pupil-Teacher Ratio in percentage DISE": "NA",
      "Marginal Workers Agricultural Labourers worked for 3 - 6 moths during last year - Males": 13463,
      "Scheduled Caste Females": 20145,
      "Marginal Workers Cultivators - Males": 1923,
      "Marginal Workers - Males": 18421,
      "Marginal Workers worked for 0 - 3 moths during last year - Females": 2952,
      "Households with main source of drinking water within premises in percentage Houselisting and Housing Census Data Tables- District Level , Census of India": 26.40190792,
      "Marginal Workers Household Industry worked for 3 - 6 moths during last year - Persons": 341,
      "Upper Primary Girl's Enrolment in percentage DISE": "NA",
      "Prevalence of Severe Anaemia in women aged 15-49years in percentage DLHS-4": "Not available",
      "Marginal Workers Agricultural Labourers worked for 0 - 3 moths during last year - Males": 1119,
      "Households with electricity as main source of lighting  Houselisting and Housing Census Data Tables- District Level , Census of India__3": 67306,
      "Households with computer or laptop with internet connection in percentage": 0.17,
      "PHCs functioning on a 24x7hours basis in percentage DLHS-4": "Not applicable",
      "Non Workers - Males": 114028,
      "Total Households in District Houselisting and Housing Census Data Tables- District Level , Census of India": 96440,
      "Upper Primary Schools with girls toilet in percentage DISE": "NA",
      "Households with mobile phone in percentage": 25.27,
      "Households receiving untreated tap water within premises in percentage Houselisting and Housing Census Data Tables- District Level , Census of India__2": 16.59581087,
      "Marginal Workers Cultivators worked for 3 - 6 moths during last year - Males": 1486,
      "Prevalence of Anaemia  in percentage DLHS-4": "Not available",
      "Prevalence of Chronic illness in percentage DLHS-4": "Not available",
      "Households with solar energy as main source of lighting in percentage Houselisting and Housing Census Data Tables- District Level , Census of India__1": 0.0881,
      "Marginal Workers Agricultural Labourers worked for 0 - 3 moths during last year - Females": 2130,
      "Main Workers - Males": 122529,
      "Female": "NA",
      "Sno": 925,
      "Marginal Workers Other worked for 3 - 6 moths during last year - Females": 954,
      "Marginal Workers Cultivators worked for 0 - 3 moths during last year - Females": 620,
      "Scheduled Tribe Males": 112338,
      "Male Illiterates": 119482,
      "Prevalence of Severe Anaemia in pregnant women aged 15-49years in percentage DLHS-4": "Not available",
      "0-6 Age Group Persons": 87926,
      "Upper Primary Student-Classroom Ratio in percentage DISE": "NA",
      "Currently married men married below 21years of age in percentage DLHS-4": "Not available",
      "Male Literates": 135496,
      "Households with no lighting in percentage Houselisting and Housing Census Data Tables- District Level , Census of India__2": 0.540232269,
      "Primary Drop Out Rate in percentage DISE": "NA",
      "Marginal Workers Household Industry - Males": 187,
      "Female Illiterates": 148894,
      "Main Workers Other - Females": 4179,
      "Marginal Workers Cultivators - Persons": 6203,
      "Upper Primary Gross Enrolment Ratio in percentage DISE": "NA",
      "Scheduled Caste Persons": 41672,
      "Marginal Workers Cultivators worked for 3 - 6 moths during last year - Persons": 5146,
      "Households with landline phone in percentage": 1.22,
      "Total Households in District  Houselisting and Housing Census Data Tables- District Level , Census of India": 96440,
      "Upper Primary Pupil-Teacher Ratio in percentage DISE": "NA",
      "Primary Student-Classroom Ratio in percentage DISE": "NA",
      "Primary Schools with boys toilet in percentage DISE": "NA",
      "Mean number of children ever born to women aged 40-49years  DLHS-4": "Not available",
      "Households receiving untreated tap water within premises  Houselisting and Housing Census Data Tables- District Level , Census of India__5": 16005,
      "Marginal Workers Household Industry worked for 0 - 3 moths during last year - Persons": 46,
      "Total Male Population": 254978,
      "Non Workers - Females": 142996,
      "Current use of family planning methods in percentage DLHS-4": "Not available",
      "Households with main source of drinking water within premises  Houselisting and Housing Census Data Tables- District Level , Census of India__3": 25462,
      "Main Workers Agricultural Labourers - Males": 61521,
      "Marginal Workers Other worked for 0 - 3 moths during last year - Persons": 390,
      "Currently married women married below 18years of age in percentage DLHS-4": "Not available",
      "Person Illiterates": 268376,
      "Main Workers Household Industry - Females": 893,
      "Female Literates": 93688,
      "Marginal Workers Cultivators worked for 0 - 3 moths during last year - Males": 437,
      "Male": "NA",
      "Households with improved source of drinking water in percentage DLHS-4": "Not available",
      "Upper Primary Schools with electricity in percentage DISE": "NA",
      "Households with electricity in percentage DLHS-4": "Not available",
      "Villages with Primary Health Centre within 10km in percentage DLHS-4": "Not applicable",
      "Births to women aged 15-19years out of Total births in percentage DLHS-4": "Not available",
      "Prevalence of Anaemia in women aged 15-49years in percentage DLHS-4": "Not available",
      "Marginal Workers Agricultural Labourers worked for 3 - 6 moths during last year - Persons": 32736,
      "Main Workers Household Industry - Males": 2209,
      "Scheduled Tribe Females": 109794,
      "Marginal Workers worked for 0 - 3 moths during last year - Males": 1790,
      "Marginal Workers Other worked for 3 - 6 moths during last year - Males": 1515,
      "Primary Net Enrolment Ratio in percentage DISE": "NA",
      "Total": "NA",
      "Mean age at marriage for boys DLHS-4": "Not available",
      "Number of District Hospitals  DLHS-4": "Not applicable",
      "0-6 Age Group Females": 42295,
      "Marginal Workers Agricultural Labourers worked for 0 - 3 moths during last year - Persons": 3249,
      "Marginal Workers Household Industry worked for 0 - 3 moths during last year - Males": 20,
      "Total Workers  Females": 99586,
      "Marginal Workers worked for 3 - 6 moths during last year - Females": 24061,
      "Institutional Deliveries in percentage DLHS-4": "Not available",
      "Marginal Workers Other - Males": 1729,
      "Total Workers  Males": 140950,
      "Main Workers - Females": 72573,
      "Primary Gross Enrolment Ratio in percentage DISE": "NA",
      "Main Workers Cultivators - Persons": 59067,
      "Marginal Workers Household Industry worked for 0 - 3 moths during last year - Females": 26,
      "Upper Primary Net Enrolment Ratio in percentage DISE": "NA",
      "Primary New Government Schools since 2003 in percentage DISE": "NA",
      "Tier": "Rural",
      "Marginal Workers Household Industry - Females": 200,
      "Primary Schools with electricity in percentage DISE": "NA",
      "Main Workers Other - Persons": 22709,
      "Marginal Workers Household Industry worked for 3 - 6 moths during last year - Females": 174,
      "Main Workers Cultivators - Males": 40269,
      "Main Workers Household Industry - Persons": 3102,
      "Marginal Workers Cultivators worked for 0 - 3 moths during last year - Persons": 1057,
      "Scheduled Caste Males": 21527,
      "Marginal Workers - Persons": 45434,
      "Deliveries at home conducted by skilled health personnel in percentage DLHS-4": "Not available",
      "Villages with Sub-Health Centres within 3km in percentage DLHS-4": "Not applicable",
      "Upper Primary New Government Schools since 2003 in percentage DISE": "NA",
      "0-6 Age Group Males": 45631,
      "Primary Schools with drinking water facility in percentage DISE": "NA",
      "Non Workers - Persons": 257024,
      "Person Literates": 229184,
      "State": "MADHYA PRADESH",
      "Total Female Population": 242582,
      "Marginal Workers worked for 0 - 3 moths during last year - Persons": 4742,
      "Marginal Workers Cultivators - Females": 4280,
      "Marginal Workers Other - Persons": 2859,
      "Sex Ratio": 951,
      "Scheduled Tribe Persons": 222132,
      "Marginal Workers Household Industry worked for 3 - 6 moths during last year - Males": 167,
      "Marginal Workers Agricultural Labourers - Females": 21403,
      "Mean age at marriage for girls DLHS-4": "Not available",
      "Households with solar energy as main source of lighting  Houselisting and Housing Census Data Tables- District Level , Census of India__4": 85,
      "District": "BURHANPUR",
      "Households receiving treated tap water within premises in percentage Houselisting and Housing Census Data Tables- District Level , Census of India__1": 7.84529241,
      "Total Workers  Persons": 240536,
      "Households receiving treated tap water within premises  Houselisting and Housing Census Data Tables- District Level , Census of India__4": 7566,
      "Primary Female Teachers in percentage DISE": "NA",
      "Number of Households": 97842,
      "Main Workers Agricultural Labourers - Persons": 110224
    }
  ],
  "Urban": [
    {
      "Marginal Workers Agricultural Labourers - Persons": 2901,
      "Marginal Workers Other - Females": 1451,
      "Marginal Workers Other worked for 0 - 3 moths during last year - Females": 267,
      "Upper Primary Schools with boys toilet in percentage DISE": "NA",
      "Total Population": 260287,
      "Households with electricity as main source of lighting in percentage Houselisting and Housing Census Data Tables- District Level , Census of India": 94.55086557,
      "Primary Girl's Enrolment in percentage DISE": "NA",
      "Marginal Workers worked for 3 - 6 moths during last year - Males": 3676,
      "Prevalence of Acute illness in percentage DLHS-4": "Not available",
      "Main Workers - Persons": 79798,
      "Main Workers Cultivators - Females": 266,
      "Marginal Workers Agricultural Labourers worked for 3 - 6 moths during last year - Females": 1673,
      "Marginal Workers Other worked for 0 - 3 moths during last year - Males": 673,
      "Upper Primary Schools with drinking water facility in percentage DISE": "NA",
      "Primary Schools with girls toilet in percentage DISE": "NA",
      "Marginal Workers worked for 3 - 6 moths during last year - Persons": 6792,
      "Upper Primary Drop Out Rate in percentage DISE": "NA",
      "Prevalence of Anaemia in pregnant women aged 15-49years in percentage DLHS-4": "Not available",
      "Current use of any modern method of family planning in percentage DLHS-4": "Not available",
      "Marginal Workers Agricultural Labourers - Males": 1125,
      "Upper Primary Female Teachers in percentage DISE": "NA",
      "Marginal Workers - Females": 3575,
      "Marginal Workers Other worked for 3 - 6 moths during last year - Persons": 3624,
      "Main Workers Agricultural Labourers - Females": 2765,
      "Marginal Workers Cultivators worked for 3 - 6 moths during last year - Females": 87,
      "Households with no lighting  Houselisting and Housing Census Data Tables- District Level , Census of India__5": 211,
      "Prevalence of Severe Anaemia  in percentage DLHS-4": "Not available",
      "Total unmet need for family planning in percentage DLHS-4": "Not available",
      "Main Workers Other - Males": 57066,
      "Children who received full vaccination in percentage DLHS-4": "Not available",
      "Marginal Workers Household Industry - Persons": 411,
      "Primary Pupil-Teacher Ratio in percentage DISE": "NA",
      "Marginal Workers Agricultural Labourers worked for 3 - 6 moths during last year - Males": 1080,
      "Scheduled Caste Females": 11072,
      "Marginal Workers Cultivators - Males": 42,
      "Marginal Workers - Males": 4430,
      "Marginal Workers worked for 0 - 3 moths during last year - Females": 459,
      "Households with main source of drinking water within premises in percentage Houselisting and Housing Census Data Tables- District Level , Census of India": 52.86708304,
      "Marginal Workers Household Industry worked for 3 - 6 moths during last year - Persons": 287,
      "Upper Primary Girl's Enrolment in percentage DISE": "NA",
      "Prevalence of Severe Anaemia in women aged 15-49years in percentage DLHS-4": "Not available",
      "Marginal Workers Agricultural Labourers worked for 0 - 3 moths during last year - Males": 45,
      "Households with electricity as main source of lighting  Houselisting and Housing Census Data Tables- District Level , Census of India__3": 45114,
      "Households with computer or laptop with internet connection in percentage": 1.72,
      "PHCs functioning on a 24x7hours basis in percentage DLHS-4": 0,
      "Non Workers - Males": 62551,
      "Total Households in District Houselisting and Housing Census Data Tables- District Level , Census of India": 47714,
      "Upper Primary Schools with girls toilet in percentage DISE": "NA",
      "Households with mobile phone in percentage": 50.13,
      "Households receiving untreated tap water within premises in percentage Houselisting and Housing Census Data Tables- District Level , Census of India__2": 39.94005952,
      "Marginal Workers Cultivators worked for 3 - 6 moths during last year - Males": 41,
      "Prevalence of Anaemia  in percentage DLHS-4": "Not available",
      "Prevalence of Chronic illness in percentage DLHS-4": "Not available",
      "Households with solar energy as main source of lighting in percentage Houselisting and Housing Census Data Tables- District Level , Census of India__1": 0.0335,
      "Marginal Workers Agricultural Labourers worked for 0 - 3 moths during last year - Females": 103,
      "Main Workers - Males": 66545,
      "Female": "NA",
      "Sno": 927,
      "Marginal Workers Other worked for 3 - 6 moths during last year - Females": 1184,
      "Marginal Workers Cultivators worked for 0 - 3 moths during last year - Females": 0,
      "Scheduled Tribe Males": 4082,
      "Male Illiterates": 35949,
      "Prevalence of Severe Anaemia in pregnant women aged 15-49years in percentage DLHS-4": "Not available",
      "0-6 Age Group Persons": 34943,
      "Upper Primary Student-Classroom Ratio in percentage DISE": "NA",
      "Currently married men married below 21years of age in percentage DLHS-4": "Not available",
      "Male Literates": 97577,
      "Households with no lighting in percentage Houselisting and Housing Census Data Tables- District Level , Census of India__2": 0.442218217,
      "Primary Drop Out Rate in percentage DISE": "NA",
      "Marginal Workers Household Industry - Males": 150,
      "Female Illiterates": 44843,
      "Main Workers Other - Females": 8970,
      "Marginal Workers Cultivators - Persons": 129,
      "Upper Primary Gross Enrolment Ratio in percentage DISE": "NA",
      "Scheduled Caste Persons": 22582,
      "Marginal Workers Cultivators worked for 3 - 6 moths during last year - Persons": 128,
      "Households with landline phone in percentage": 2.92,
      "Total Households in District  Houselisting and Housing Census Data Tables- District Level , Census of India": 47714,
      "Upper Primary Pupil-Teacher Ratio in percentage DISE": "NA",
      "Primary Student-Classroom Ratio in percentage DISE": "NA",
      "Primary Schools with boys toilet in percentage DISE": "NA",
      "Mean number of children ever born to women aged 40-49years  DLHS-4": "Not available",
      "Households receiving untreated tap water within premises  Houselisting and Housing Census Data Tables- District Level , Census of India__5": 19057,
      "Marginal Workers Household Industry worked for 0 - 3 moths during last year - Persons": 124,
      "Total Male Population": 133526,
      "Non Workers - Females": 109933,
      "Current use of family planning methods in percentage DLHS-4": "Not available",
      "Households with main source of drinking water within premises  Houselisting and Housing Census Data Tables- District Level , Census of India__3": 25225,
      "Main Workers Agricultural Labourers - Males": 4420,
      "Marginal Workers Other worked for 0 - 3 moths during last year - Persons": 940,
      "Currently married women married below 18years of age in percentage DLHS-4": "Not available",
      "Person Illiterates": 80792,
      "Main Workers Household Industry - Females": 1252,
      "Female Literates": 81918,
      "Marginal Workers Cultivators worked for 0 - 3 moths during last year - Males": 1,
      "Male": "NA",
      "Households with improved source of drinking water in percentage DLHS-4": "Not available",
      "Upper Primary Schools with electricity in percentage DISE": "NA",
      "Households with electricity in percentage DLHS-4": "Not available",
      "Villages with Primary Health Centre within 10km in percentage DLHS-4": 0,
      "Births to women aged 15-19years out of Total births in percentage DLHS-4": "Not available",
      "Prevalence of Anaemia in women aged 15-49years in percentage DLHS-4": "Not available",
      "Marginal Workers Agricultural Labourers worked for 3 - 6 moths during last year - Persons": 2753,
      "Main Workers Household Industry - Males": 2925,
      "Scheduled Tribe Females": 3881,
      "Marginal Workers worked for 0 - 3 moths during last year - Males": 754,
      "Marginal Workers Other worked for 3 - 6 moths during last year - Males": 2440,
      "Primary Net Enrolment Ratio in percentage DISE": "NA",
      "Total": "NA",
      "Mean age at marriage for boys DLHS-4": "Not available",
      "Number of District Hospitals  DLHS-4": 0,
      "0-6 Age Group Females": 16700,
      "Marginal Workers Agricultural Labourers worked for 0 - 3 moths during last year - Persons": 148,
      "Marginal Workers Household Industry worked for 0 - 3 moths during last year - Males": 35,
      "Total Workers  Females": 16828,
      "Marginal Workers worked for 3 - 6 moths during last year - Females": 3116,
      "Institutional Deliveries in percentage DLHS-4": "Not available",
      "Marginal Workers Other - Males": 3113,
      "Total Workers  Males": 70975,
      "Main Workers - Females": 13253,
      "Primary Gross Enrolment Ratio in percentage DISE": "NA",
      "Main Workers Cultivators - Persons": 2400,
      "Marginal Workers Household Industry worked for 0 - 3 moths during last year - Females": 89,
      "Upper Primary Net Enrolment Ratio in percentage DISE": "NA",
      "Primary New Government Schools since 2003 in percentage DISE": "NA",
      "Tier": "Urban",
      "Marginal Workers Household Industry - Females": 261,
      "Primary Schools with electricity in percentage DISE": "NA",
      "Main Workers Other - Persons": 66036,
      "Marginal Workers Household Industry worked for 3 - 6 moths during last year - Females": 172,
      "Main Workers Cultivators - Males": 2134,
      "Main Workers Household Industry - Persons": 4177,
      "Marginal Workers Cultivators worked for 0 - 3 moths during last year - Persons": 1,
      "Scheduled Caste Males": 11510,
      "Marginal Workers - Persons": 8005,
      "Deliveries at home conducted by skilled health personnel in percentage DLHS-4": "Not available",
      "Villages with Sub-Health Centres within 3km in percentage DLHS-4": 0,
      "Upper Primary New Government Schools since 2003 in percentage DISE": "NA",
      "0-6 Age Group Males": 18243,
      "Primary Schools with drinking water facility in percentage DISE": "NA",
      "Non Workers - Persons": 172484,
      "Person Literates": 179495,
      "State": "MADHYA PRADESH",
      "Total Female Population": 126761,
      "Marginal Workers worked for 0 - 3 moths during last year - Persons": 1213,
      "Marginal Workers Cultivators - Females": 87,
      "Marginal Workers Other - Persons": 4564,
      "Sex Ratio": 949,
      "Scheduled Tribe Persons": 7963,
      "Marginal Workers Household Industry worked for 3 - 6 moths during last year - Males": 115,
      "Marginal Workers Agricultural Labourers - Females": 1776,
      "Mean age at marriage for girls DLHS-4": "Not available",
      "Households with solar energy as main source of lighting  Houselisting and Housing Census Data Tables- District Level , Census of India__4": 16,
      "District": "BURHANPUR",
      "Households receiving treated tap water within premises in percentage Houselisting and Housing Census Data Tables- District Level , Census of India__1": 11.75336379,
      "Total Workers  Persons": 87803,
      "Households receiving treated tap water within premises  Houselisting and Housing Census Data Tables- District Level , Census of India__4": 5608,
      "Primary Female Teachers in percentage DISE": "NA",
      "Number of Households": 48499,
      "Main Workers Agricultural Labourers - Persons": 7185
    }
  ]
}