{
  "Total": [
    {
      "Marginal Workers Agricultural Labourers - Persons": 95540,
      "Marginal Workers Other - Females": 6147,
      "Marginal Workers Other worked for 0 - 3 moths during last year - Females": 1596,
      "Upper Primary Schools with boys toilet in percentage DISE": 92.3,
      "Total Population": 704524,
      "Households with electricity as main source of lighting in percentage Houselisting and Housing Census Data Tables- District Level , Census of India": 36.90672726,
      "Primary Girl's Enrolment in percentage DISE": 49.3,
      "Marginal Workers worked for 3 - 6 moths during last year - Males": 47723,
      "Prevalence of Acute illness in percentage DLHS-4": "Not available",
      "Main Workers - Persons": 250137,
      "Main Workers Cultivators - Females": 49543,
      "Marginal Workers Agricultural Labourers worked for 3 - 6 moths during last year - Females": 44883,
      "Marginal Workers Other worked for 0 - 3 moths during last year - Males": 1547,
      "Upper Primary Schools with drinking water facility in percentage DISE": 83.1,
      "Primary Schools with girls toilet in percentage DISE": 95.1,
      "Marginal Workers worked for 3 - 6 moths during last year - Persons": 109337,
      "Upper Primary Drop Out Rate in percentage DISE": 2.55,
      "Prevalence of Anaemia in pregnant women aged 15-49years in percentage DLHS-4": "Not available",
      "Current use of any modern method of family planning in percentage DLHS-4": 59,
      "Marginal Workers Agricultural Labourers - Males": 39621,
      "Upper Primary Female Teachers in percentage DISE": 25.3,
      "Marginal Workers - Females": 79050,
      "Marginal Workers Other worked for 3 - 6 moths during last year - Persons": 9682,
      "Main Workers Agricultural Labourers - Females": 47388,
      "Marginal Workers Cultivators worked for 3 - 6 moths during last year - Females": 10762,
      "Households with no lighting  Houselisting and Housing Census Data Tables- District Level , Census of India__5": 152,
      "Prevalence of Severe Anaemia  in percentage DLHS-4": "Not available",
      "Total unmet need for family planning in percentage DLHS-4": 25.3,
      "Main Workers Other - Males": 19207,
      "Children who received full vaccination in percentage DLHS-4": "Not available",
      "Marginal Workers Household Industry - Persons": 4060,
      "Primary Pupil-Teacher Ratio in percentage DISE": 28,
      "Marginal Workers Agricultural Labourers worked for 3 - 6 moths during last year - Males": 32516,
      "Scheduled Caste Females": 19416,
      "Marginal Workers Cultivators - Males": 12690,
      "Marginal Workers - Males": 60738,
      "Marginal Workers worked for 0 - 3 moths during last year - Females": 17436,
      "Households with main source of drinking water within premises in percentage Houselisting and Housing Census Data Tables- District Level , Census of India": 5.94678075,
      "Marginal Workers Household Industry worked for 3 - 6 moths during last year - Persons": 2434,
      "Upper Primary Girl's Enrolment in percentage DISE": 51.9,
      "Prevalence of Severe Anaemia in women aged 15-49years in percentage DLHS-4": "Not available",
      "Marginal Workers Agricultural Labourers worked for 0 - 3 moths during last year - Males": 7105,
      "Households with electricity as main source of lighting  Houselisting and Housing Census Data Tables- District Level , Census of India__3": 62372,
      "Households with computer or laptop with internet connection in percentage": 0.33,
      "PHCs functioning on a 24x7hours basis in percentage DLHS-4": "Not available",
      "Non Workers - Males": 148530,
      "Total Households in District Houselisting and Housing Census Data Tables- District Level , Census of India": 168999,
      "Upper Primary Schools with girls toilet in percentage DISE": 90.2,
      "Households with mobile phone in percentage": 13.47,
      "Households receiving untreated tap water within premises in percentage Houselisting and Housing Census Data Tables- District Level , Census of India__2": 0.675743643,
      "Marginal Workers Cultivators worked for 3 - 6 moths during last year - Males": 9060,
      "Prevalence of Anaemia  in percentage DLHS-4": "Not available",
      "Prevalence of Chronic illness in percentage DLHS-4": "Not available",
      "Households with solar energy as main source of lighting in percentage Houselisting and Housing Census Data Tables- District Level , Census of India__1": 2.100604146,
      "Marginal Workers Agricultural Labourers worked for 0 - 3 moths during last year - Females": 11036,
      "Main Workers - Males": 142645,
      "Female": 52.41,
      "Sno": 947,
      "Marginal Workers Other worked for 3 - 6 moths during last year - Females": 4551,
      "Marginal Workers Cultivators worked for 0 - 3 moths during last year - Females": 3911,
      "Scheduled Tribe Males": 225699,
      "Male Illiterates": 129154,
      "Prevalence of Severe Anaemia in pregnant women aged 15-49years in percentage DLHS-4": "Not available",
      "0-6 Age Group Persons": 111820,
      "Upper Primary Student-Classroom Ratio in percentage DISE": 27,
      "Currently married men married below 21years of age in percentage DLHS-4": 20.7,
      "Male Literates": 222759,
      "Households with no lighting in percentage Houselisting and Housing Census Data Tables- District Level , Census of India__2": 0.0899,
      "Primary Drop Out Rate in percentage DISE": 4.8,
      "Marginal Workers Household Industry - Males": 1749,
      "Female Illiterates": 196656,
      "Main Workers Other - Females": 8889,
      "Marginal Workers Cultivators - Persons": 27363,
      "Upper Primary Gross Enrolment Ratio in percentage DISE": 98.5,
      "Scheduled Caste Persons": 39782,
      "Marginal Workers Cultivators worked for 3 - 6 moths during last year - Persons": 19822,
      "Households with landline phone in percentage": 1.04,
      "Total Households in District  Houselisting and Housing Census Data Tables- District Level , Census of India": 168999,
      "Upper Primary Pupil-Teacher Ratio in percentage DISE": 34,
      "Primary Student-Classroom Ratio in percentage DISE": 20,
      "Primary Schools with boys toilet in percentage DISE": 94.3,
      "Mean number of children ever born to women aged 40-49years  DLHS-4": "Not available",
      "Households receiving untreated tap water within premises  Houselisting and Housing Census Data Tables- District Level , Census of India__5": 1142,
      "Marginal Workers Household Industry worked for 0 - 3 moths during last year - Persons": 1626,
      "Total Male Population": 351913,
      "Non Workers - Females": 166069,
      "Current use of family planning methods in percentage DLHS-4": 59.6,
      "Households with main source of drinking water within premises  Houselisting and Housing Census Data Tables- District Level , Census of India__3": 10050,
      "Main Workers Agricultural Labourers - Males": 48034,
      "Marginal Workers Other worked for 0 - 3 moths during last year - Persons": 3143,
      "Currently married women married below 18years of age in percentage DLHS-4": 8.3,
      "Person Illiterates": 325810,
      "Main Workers Household Industry - Females": 1672,
      "Female Literates": 155955,
      "Marginal Workers Cultivators worked for 0 - 3 moths during last year - Males": 3630,
      "Male": 75.47,
      "Households with improved source of drinking water in percentage DLHS-4": "Not available",
      "Upper Primary Schools with electricity in percentage DISE": 13,
      "Households with electricity in percentage DLHS-4": "Not available",
      "Villages with Primary Health Centre within 10km in percentage DLHS-4": "Not available",
      "Births to women aged 15-19years out of Total births in percentage DLHS-4": "Not available",
      "Prevalence of Anaemia in women aged 15-49years in percentage DLHS-4": "Not available",
      "Marginal Workers Agricultural Labourers worked for 3 - 6 moths during last year - Persons": 77399,
      "Main Workers Household Industry - Males": 2226,
      "Scheduled Tribe Females": 230090,
      "Marginal Workers worked for 0 - 3 moths during last year - Males": 13015,
      "Marginal Workers Other worked for 3 - 6 moths during last year - Males": 5131,
      "Primary Net Enrolment Ratio in percentage DISE": 97.9,
      "Total": 63.9,
      "Mean age at marriage for boys DLHS-4": 23,
      "Number of District Hospitals  DLHS-4": "Not available",
      "0-6 Age Group Females": 55053,
      "Marginal Workers Agricultural Labourers worked for 0 - 3 moths during last year - Persons": 18141,
      "Marginal Workers Household Industry worked for 0 - 3 moths during last year - Males": 733,
      "Total Workers  Females": 186542,
      "Marginal Workers worked for 3 - 6 moths during last year - Females": 61614,
      "Institutional Deliveries in percentage DLHS-4": 49.8,
      "Marginal Workers Other - Males": 6678,
      "Total Workers  Males": 203383,
      "Main Workers - Females": 107492,
      "Primary Gross Enrolment Ratio in percentage DISE": 113.1,
      "Main Workers Cultivators - Persons": 122721,
      "Marginal Workers Household Industry worked for 0 - 3 moths during last year - Females": 893,
      "Upper Primary Net Enrolment Ratio in percentage DISE": 72.2,
      "Primary New Government Schools since 2003 in percentage DISE": 5.1,
      "Tier": "Total",
      "Marginal Workers Household Industry - Females": 2311,
      "Primary Schools with electricity in percentage DISE": 8.5,
      "Main Workers Other - Persons": 28096,
      "Marginal Workers Household Industry worked for 3 - 6 moths during last year - Females": 1418,
      "Main Workers Cultivators - Males": 73178,
      "Main Workers Household Industry - Persons": 3898,
      "Marginal Workers Cultivators worked for 0 - 3 moths during last year - Persons": 7541,
      "Scheduled Caste Males": 20366,
      "Marginal Workers - Persons": 139788,
      "Deliveries at home conducted by skilled health personnel in percentage DLHS-4": 29.8,
      "Villages with Sub-Health Centres within 3km in percentage DLHS-4": "Not available",
      "Upper Primary New Government Schools since 2003 in percentage DISE": 40.9,
      "0-6 Age Group Males": 56767,
      "Primary Schools with drinking water facility in percentage DISE": 88.8,
      "Non Workers - Persons": 314599,
      "Person Literates": 378714,
      "State": "MADHYA PRADESH",
      "Total Female Population": 352611,
      "Marginal Workers worked for 0 - 3 moths during last year - Persons": 30451,
      "Marginal Workers Cultivators - Females": 14673,
      "Marginal Workers Other - Persons": 12825,
      "Sex Ratio": 1002,
      "Scheduled Tribe Persons": 455789,
      "Marginal Workers Household Industry worked for 3 - 6 moths during last year - Males": 1016,
      "Marginal Workers Agricultural Labourers - Females": 55919,
      "Mean age at marriage for girls DLHS-4": 20.6,
      "Households with solar energy as main source of lighting  Houselisting and Housing Census Data Tables- District Level , Census of India__4": 3550,
      "District": "DINDORI",
      "Households receiving treated tap water within premises in percentage Houselisting and Housing Census Data Tables- District Level , Census of India__1": 2.369244788,
      "Total Workers  Persons": 389925,
      "Households receiving treated tap water within premises  Houselisting and Housing Census Data Tables- District Level , Census of India__4": 4004,
      "Primary Female Teachers in percentage DISE": 29,
      "Number of Households": 169630,
      "Main Workers Agricultural Labourers - Persons": 95422
    }
  ],
  "Rural": [
    {
      "Marginal Workers Agricultural Labourers - Persons": 95186,
      "Marginal Workers Other - Females": 5449,
      "Marginal Workers Other worked for 0 - 3 moths during last year - Females": 1426,
      "Upper Primary Schools with boys toilet in percentage DISE": "NA",
      "Total Population": 672206,
      "Households with electricity as main source of lighting in percentage Houselisting and Housing Census Data Tables- District Level , Census of India": 34.8079205,
      "Primary Girl's Enrolment in percentage DISE": "NA",
      "Marginal Workers worked for 3 - 6 moths during last year - Males": 46556,
      "Prevalence of Acute illness in percentage DLHS-4": "Not available",
      "Main Workers - Persons": 240777,
      "Main Workers Cultivators - Females": 49305,
      "Marginal Workers Agricultural Labourers worked for 3 - 6 moths during last year - Females": 44734,
      "Marginal Workers Other worked for 0 - 3 moths during last year - Males": 1297,
      "Upper Primary Schools with drinking water facility in percentage DISE": "NA",
      "Primary Schools with girls toilet in percentage DISE": "NA",
      "Marginal Workers worked for 3 - 6 moths during last year - Persons": 107299,
      "Upper Primary Drop Out Rate in percentage DISE": "NA",
      "Prevalence of Anaemia in pregnant women aged 15-49years in percentage DLHS-4": "Not available",
      "Current use of any modern method of family planning in percentage DLHS-4": 58.8,
      "Marginal Workers Agricultural Labourers - Males": 39454,
      "Upper Primary Female Teachers in percentage DISE": "NA",
      "Marginal Workers - Females": 77938,
      "Marginal Workers Other worked for 3 - 6 moths during last year - Persons": 8330,
      "Main Workers Agricultural Labourers - Females": 47072,
      "Marginal Workers Cultivators worked for 3 - 6 moths during last year - Females": 10740,
      "Households with no lighting  Houselisting and Housing Census Data Tables- District Level , Census of India__5": 151,
      "Prevalence of Severe Anaemia  in percentage DLHS-4": "Not available",
      "Total unmet need for family planning in percentage DLHS-4": 25,
      "Main Workers Other - Males": 13491,
      "Children who received full vaccination in percentage DLHS-4": "Not available",
      "Marginal Workers Household Industry - Persons": 3671,
      "Primary Pupil-Teacher Ratio in percentage DISE": "NA",
      "Marginal Workers Agricultural Labourers worked for 3 - 6 moths during last year - Males": 32377,
      "Scheduled Caste Females": 18429,
      "Marginal Workers Cultivators - Males": 12636,
      "Marginal Workers - Males": 59258,
      "Marginal Workers worked for 0 - 3 moths during last year - Females": 17195,
      "Households with main source of drinking water within premises in percentage Houselisting and Housing Census Data Tables- District Level , Census of India": 4.148126174,
      "Marginal Workers Household Industry worked for 3 - 6 moths during last year - Persons": 2105,
      "Upper Primary Girl's Enrolment in percentage DISE": "NA",
      "Prevalence of Severe Anaemia in women aged 15-49years in percentage DLHS-4": "Not available",
      "Marginal Workers Agricultural Labourers worked for 0 - 3 moths during last year - Males": 7077,
      "Households with electricity as main source of lighting  Houselisting and Housing Census Data Tables- District Level , Census of India__3": 56322,
      "Households with computer or laptop with internet connection in percentage": 0.24,
      "PHCs functioning on a 24x7hours basis in percentage DLHS-4": "Not applicable",
      "Non Workers - Males": 140758,
      "Total Households in District Houselisting and Housing Census Data Tables- District Level , Census of India": 161808,
      "Upper Primary Schools with girls toilet in percentage DISE": "NA",
      "Households with mobile phone in percentage": 11.5,
      "Households receiving untreated tap water within premises in percentage Houselisting and Housing Census Data Tables- District Level , Census of India__2": 0.251532681,
      "Marginal Workers Cultivators worked for 3 - 6 moths during last year - Males": 9013,
      "Prevalence of Anaemia  in percentage DLHS-4": "Not available",
      "Prevalence of Chronic illness in percentage DLHS-4": "Not available",
      "Households with solar energy as main source of lighting in percentage Houselisting and Housing Census Data Tables- District Level , Census of India__1": 2.18221596,
      "Marginal Workers Agricultural Labourers worked for 0 - 3 moths during last year - Females": 10998,
      "Main Workers - Males": 135377,
      "Female": "NA",
      "Sno": 946,
      "Marginal Workers Other worked for 3 - 6 moths during last year - Females": 4023,
      "Marginal Workers Cultivators worked for 0 - 3 moths during last year - Females": 3910,
      "Scheduled Tribe Males": 221979,
      "Male Illiterates": 125861,
      "Prevalence of Severe Anaemia in pregnant women aged 15-49years in percentage DLHS-4": "Not available",
      "0-6 Age Group Persons": 107702,
      "Upper Primary Student-Classroom Ratio in percentage DISE": "NA",
      "Currently married men married below 21years of age in percentage DLHS-4": 21.2,
      "Male Literates": 209532,
      "Households with no lighting in percentage Houselisting and Housing Census Data Tables- District Level , Census of India__2": 0.0933,
      "Primary Drop Out Rate in percentage DISE": "NA",
      "Marginal Workers Household Industry - Males": 1564,
      "Female Illiterates": 191503,
      "Main Workers Other - Females": 7473,
      "Marginal Workers Cultivators - Persons": 27286,
      "Upper Primary Gross Enrolment Ratio in percentage DISE": "NA",
      "Scheduled Caste Persons": 37813,
      "Marginal Workers Cultivators worked for 3 - 6 moths during last year - Persons": 19753,
      "Households with landline phone in percentage": 0.97,
      "Total Households in District  Houselisting and Housing Census Data Tables- District Level , Census of India": 161808,
      "Upper Primary Pupil-Teacher Ratio in percentage DISE": "NA",
      "Primary Student-Classroom Ratio in percentage DISE": "NA",
      "Primary Schools with boys toilet in percentage DISE": "NA",
      "Mean number of children ever born to women aged 40-49years  DLHS-4": "Not available",
      "Households receiving untreated tap water within premises  Houselisting and Housing Census Data Tables- District Level , Census of India__5": 407,
      "Marginal Workers Household Industry worked for 0 - 3 moths during last year - Persons": 1566,
      "Total Male Population": 335393,
      "Non Workers - Females": 153475,
      "Current use of family planning methods in percentage DLHS-4": 59.4,
      "Households with main source of drinking water within premises  Houselisting and Housing Census Data Tables- District Level , Census of India__3": 6712,
      "Main Workers Agricultural Labourers - Males": 47578,
      "Marginal Workers Other worked for 0 - 3 moths during last year - Persons": 2723,
      "Currently married women married below 18years of age in percentage DLHS-4": 8.6,
      "Person Illiterates": 317364,
      "Main Workers Household Industry - Females": 1550,
      "Female Literates": 145310,
      "Marginal Workers Cultivators worked for 0 - 3 moths during last year - Males": 3623,
      "Male": "NA",
      "Households with improved source of drinking water in percentage DLHS-4": "Not available",
      "Upper Primary Schools with electricity in percentage DISE": "NA",
      "Households with electricity in percentage DLHS-4": "Not available",
      "Villages with Primary Health Centre within 10km in percentage DLHS-4": "Not applicable",
      "Births to women aged 15-19years out of Total births in percentage DLHS-4": "Not available",
      "Prevalence of Anaemia in women aged 15-49years in percentage DLHS-4": "Not available",
      "Marginal Workers Agricultural Labourers worked for 3 - 6 moths during last year - Persons": 77111,
      "Main Workers Household Industry - Males": 1785,
      "Scheduled Tribe Females": 226441,
      "Marginal Workers worked for 0 - 3 moths during last year - Males": 12702,
      "Marginal Workers Other worked for 3 - 6 moths during last year - Males": 4307,
      "Primary Net Enrolment Ratio in percentage DISE": "NA",
      "Total": "NA",
      "Mean age at marriage for boys DLHS-4": 22.9,
      "Number of District Hospitals  DLHS-4": "Not applicable",
      "0-6 Age Group Females": 52996,
      "Marginal Workers Agricultural Labourers worked for 0 - 3 moths during last year - Persons": 18075,
      "Marginal Workers Household Industry worked for 0 - 3 moths during last year - Males": 705,
      "Total Workers  Females": 183338,
      "Marginal Workers worked for 3 - 6 moths during last year - Females": 60743,
      "Institutional Deliveries in percentage DLHS-4": 49.3,
      "Marginal Workers Other - Males": 5604,
      "Total Workers  Males": 194635,
      "Main Workers - Females": 105400,
      "Primary Gross Enrolment Ratio in percentage DISE": "NA",
      "Main Workers Cultivators - Persons": 121828,
      "Marginal Workers Household Industry worked for 0 - 3 moths during last year - Females": 861,
      "Upper Primary Net Enrolment Ratio in percentage DISE": "NA",
      "Primary New Government Schools since 2003 in percentage DISE": "NA",
      "Tier": "Rural",
      "Marginal Workers Household Industry - Females": 2107,
      "Primary Schools with electricity in percentage DISE": "NA",
      "Main Workers Other - Persons": 20964,
      "Marginal Workers Household Industry worked for 3 - 6 moths during last year - Females": 1246,
      "Main Workers Cultivators - Males": 72523,
      "Main Workers Household Industry - Persons": 3335,
      "Marginal Workers Cultivators worked for 0 - 3 moths during last year - Persons": 7533,
      "Scheduled Caste Males": 19384,
      "Marginal Workers - Persons": 137196,
      "Deliveries at home conducted by skilled health personnel in percentage DLHS-4": 29.6,
      "Villages with Sub-Health Centres within 3km in percentage DLHS-4": "Not applicable",
      "Upper Primary New Government Schools since 2003 in percentage DISE": "NA",
      "0-6 Age Group Males": 54706,
      "Primary Schools with drinking water facility in percentage DISE": "NA",
      "Non Workers - Persons": 294233,
      "Person Literates": 354842,
      "State": "MADHYA PRADESH",
      "Total Female Population": 336813,
      "Marginal Workers worked for 0 - 3 moths during last year - Persons": 29897,
      "Marginal Workers Cultivators - Females": 14650,
      "Marginal Workers Other - Persons": 11053,
      "Sex Ratio": 1004,
      "Scheduled Tribe Persons": 448420,
      "Marginal Workers Household Industry worked for 3 - 6 moths during last year - Males": 859,
      "Marginal Workers Agricultural Labourers - Females": 55732,
      "Mean age at marriage for girls DLHS-4": 20.6,
      "Households with solar energy as main source of lighting  Houselisting and Housing Census Data Tables- District Level , Census of India__4": 3531,
      "District": "DINDORI",
      "Households receiving treated tap water within premises in percentage Houselisting and Housing Census Data Tables- District Level , Census of India__1": 1.068550381,
      "Total Workers  Persons": 377973,
      "Households receiving treated tap water within premises  Houselisting and Housing Census Data Tables- District Level , Census of India__4": 1729,
      "Primary Female Teachers in percentage DISE": "NA",
      "Number of Households": 162220,
      "Main Workers Agricultural Labourers - Persons": 94650
    }
  ],
  "Urban": [
    {
      "Marginal Workers Agricultural Labourers - Persons": 354,
      "Marginal Workers Other - Females": 698,
      "Marginal Workers Other worked for 0 - 3 moths during last year - Females": 170,
      "Upper Primary Schools with boys toilet in percentage DISE": "NA",
      "Total Population": 32318,
      "Households with electricity as main source of lighting in percentage Houselisting and Housing Census Data Tables- District Level , Census of India": 84.13294396,
      "Primary Girl's Enrolment in percentage DISE": "NA",
      "Marginal Workers worked for 3 - 6 moths during last year - Males": 1167,
      "Prevalence of Acute illness in percentage DLHS-4": "Not available",
      "Main Workers - Persons": 9360,
      "Main Workers Cultivators - Females": 238,
      "Marginal Workers Agricultural Labourers worked for 3 - 6 moths during last year - Females": 149,
      "Marginal Workers Other worked for 0 - 3 moths during last year - Males": 250,
      "Upper Primary Schools with drinking water facility in percentage DISE": "NA",
      "Primary Schools with girls toilet in percentage DISE": "NA",
      "Marginal Workers worked for 3 - 6 moths during last year - Persons": 2038,
      "Upper Primary Drop Out Rate in percentage DISE": "NA",
      "Prevalence of Anaemia in pregnant women aged 15-49years in percentage DLHS-4": "Not available",
      "Current use of any modern method of family planning in percentage DLHS-4": "Not available",
      "Marginal Workers Agricultural Labourers - Males": 167,
      "Upper Primary Female Teachers in percentage DISE": "NA",
      "Marginal Workers - Females": 1112,
      "Marginal Workers Other worked for 3 - 6 moths during last year - Persons": 1352,
      "Main Workers Agricultural Labourers - Females": 316,
      "Marginal Workers Cultivators worked for 3 - 6 moths during last year - Females": 22,
      "Households with no lighting  Houselisting and Housing Census Data Tables- District Level , Census of India__5": 1,
      "Prevalence of Severe Anaemia  in percentage DLHS-4": "Not available",
      "Total unmet need for family planning in percentage DLHS-4": "Not available",
      "Main Workers Other - Males": 5716,
      "Children who received full vaccination in percentage DLHS-4": "Not available",
      "Marginal Workers Household Industry - Persons": 389,
      "Primary Pupil-Teacher Ratio in percentage DISE": "NA",
      "Marginal Workers Agricultural Labourers worked for 3 - 6 moths during last year - Males": 139,
      "Scheduled Caste Females": 987,
      "Marginal Workers Cultivators - Males": 54,
      "Marginal Workers - Males": 1480,
      "Marginal Workers worked for 0 - 3 moths during last year - Females": 241,
      "Households with main source of drinking water within premises in percentage Houselisting and Housing Census Data Tables- District Level , Census of India": 46.41913503,
      "Marginal Workers Household Industry worked for 3 - 6 moths during last year - Persons": 329,
      "Upper Primary Girl's Enrolment in percentage DISE": "NA",
      "Prevalence of Severe Anaemia in women aged 15-49years in percentage DLHS-4": "Not available",
      "Marginal Workers Agricultural Labourers worked for 0 - 3 moths during last year - Males": 28,
      "Households with electricity as main source of lighting  Houselisting and Housing Census Data Tables- District Level , Census of India__3": 6050,
      "Households with computer or laptop with internet connection in percentage": 2.21,
      "PHCs functioning on a 24x7hours basis in percentage DLHS-4": 0,
      "Non Workers - Males": 7772,
      "Total Households in District Houselisting and Housing Census Data Tables- District Level , Census of India": 7191,
      "Upper Primary Schools with girls toilet in percentage DISE": "NA",
      "Households with mobile phone in percentage": 57.81,
      "Households receiving untreated tap water within premises in percentage Houselisting and Housing Census Data Tables- District Level , Census of India__2": 10.22110972,
      "Marginal Workers Cultivators worked for 3 - 6 moths during last year - Males": 47,
      "Prevalence of Anaemia  in percentage DLHS-4": "Not available",
      "Prevalence of Chronic illness in percentage DLHS-4": "Not available",
      "Households with solar energy as main source of lighting in percentage Houselisting and Housing Census Data Tables- District Level , Census of India__1": 0.264219163,
      "Marginal Workers Agricultural Labourers worked for 0 - 3 moths during last year - Females": 38,
      "Main Workers - Males": 7268,
      "Female": "NA",
      "Sno": 948,
      "Marginal Workers Other worked for 3 - 6 moths during last year - Females": 528,
      "Marginal Workers Cultivators worked for 0 - 3 moths during last year - Females": 1,
      "Scheduled Tribe Males": 3720,
      "Male Illiterates": 3293,
      "Prevalence of Severe Anaemia in pregnant women aged 15-49years in percentage DLHS-4": "Not available",
      "0-6 Age Group Persons": 4118,
      "Upper Primary Student-Classroom Ratio in percentage DISE": "NA",
      "Currently married men married below 21years of age in percentage DLHS-4": "Not available",
      "Male Literates": 13227,
      "Households with no lighting in percentage Houselisting and Housing Census Data Tables- District Level , Census of India__2": 0.0139,
      "Primary Drop Out Rate in percentage DISE": "NA",
      "Marginal Workers Household Industry - Males": 185,
      "Female Illiterates": 5153,
      "Main Workers Other - Females": 1416,
      "Marginal Workers Cultivators - Persons": 77,
      "Upper Primary Gross Enrolment Ratio in percentage DISE": "NA",
      "Scheduled Caste Persons": 1969,
      "Marginal Workers Cultivators worked for 3 - 6 moths during last year - Persons": 69,
      "Households with landline phone in percentage": 2.56,
      "Total Households in District  Houselisting and Housing Census Data Tables- District Level , Census of India": 7191,
      "Upper Primary Pupil-Teacher Ratio in percentage DISE": "NA",
      "Primary Student-Classroom Ratio in percentage DISE": "NA",
      "Primary Schools with boys toilet in percentage DISE": "NA",
      "Mean number of children ever born to women aged 40-49years  DLHS-4": "Not available",
      "Households receiving untreated tap water within premises  Houselisting and Housing Census Data Tables- District Level , Census of India__5": 735,
      "Marginal Workers Household Industry worked for 0 - 3 moths during last year - Persons": 60,
      "Total Male Population": 16520,
      "Non Workers - Females": 12594,
      "Current use of family planning methods in percentage DLHS-4": "Not available",
      "Households with main source of drinking water within premises  Houselisting and Housing Census Data Tables- District Level , Census of India__3": 3338,
      "Main Workers Agricultural Labourers - Males": 456,
      "Marginal Workers Other worked for 0 - 3 moths during last year - Persons": 420,
      "Currently married women married below 18years of age in percentage DLHS-4": "Not available",
      "Person Illiterates": 8446,
      "Main Workers Household Industry - Females": 122,
      "Female Literates": 10645,
      "Marginal Workers Cultivators worked for 0 - 3 moths during last year - Males": 7,
      "Male": "NA",
      "Households with improved source of drinking water in percentage DLHS-4": "Not available",
      "Upper Primary Schools with electricity in percentage DISE": "NA",
      "Households with electricity in percentage DLHS-4": "Not available",
      "Villages with Primary Health Centre within 10km in percentage DLHS-4": 0,
      "Births to women aged 15-19years out of Total births in percentage DLHS-4": "Not available",
      "Prevalence of Anaemia in women aged 15-49years in percentage DLHS-4": "Not available",
      "Marginal Workers Agricultural Labourers worked for 3 - 6 moths during last year - Persons": 288,
      "Main Workers Household Industry - Males": 441,
      "Scheduled Tribe Females": 3649,
      "Marginal Workers worked for 0 - 3 moths during last year - Males": 313,
      "Marginal Workers Other worked for 3 - 6 moths during last year - Males": 824,
      "Primary Net Enrolment Ratio in percentage DISE": "NA",
      "Total": "NA",
      "Mean age at marriage for boys DLHS-4": "Not available",
      "Number of District Hospitals  DLHS-4": 0,
      "0-6 Age Group Females": 2057,
      "Marginal Workers Agricultural Labourers worked for 0 - 3 moths during last year - Persons": 66,
      "Marginal Workers Household Industry worked for 0 - 3 moths during last year - Males": 28,
      "Total Workers  Females": 3204,
      "Marginal Workers worked for 3 - 6 moths during last year - Females": 871,
      "Institutional Deliveries in percentage DLHS-4": "Not available",
      "Marginal Workers Other - Males": 1074,
      "Total Workers  Males": 8748,
      "Main Workers - Females": 2092,
      "Primary Gross Enrolment Ratio in percentage DISE": "NA",
      "Main Workers Cultivators - Persons": 893,
      "Marginal Workers Household Industry worked for 0 - 3 moths during last year - Females": 32,
      "Upper Primary Net Enrolment Ratio in percentage DISE": "NA",
      "Primary New Government Schools since 2003 in percentage DISE": "NA",
      "Tier": "Urban",
      "Marginal Workers Household Industry - Females": 204,
      "Primary Schools with electricity in percentage DISE": "NA",
      "Main Workers Other - Persons": 7132,
      "Marginal Workers Household Industry worked for 3 - 6 moths during last year - Females": 172,
      "Main Workers Cultivators - Males": 655,
      "Main Workers Household Industry - Persons": 563,
      "Marginal Workers Cultivators worked for 0 - 3 moths during last year - Persons": 8,
      "Scheduled Caste Males": 982,
      "Marginal Workers - Persons": 2592,
      "Deliveries at home conducted by skilled health personnel in percentage DLHS-4": "Not available",
      "Villages with Sub-Health Centres within 3km in percentage DLHS-4": 0,
      "Upper Primary New Government Schools since 2003 in percentage DISE": "NA",
      "0-6 Age Group Males": 2061,
      "Primary Schools with drinking water facility in percentage DISE": "NA",
      "Non Workers - Persons": 20366,
      "Person Literates": 23872,
      "State": "MADHYA PRADESH",
      "Total Female Population": 15798,
      "Marginal Workers worked for 0 - 3 moths during last year - Persons": 554,
      "Marginal Workers Cultivators - Females": 23,
      "Marginal Workers Other - Persons": 1772,
      "Sex Ratio": 956,
      "Scheduled Tribe Persons": 7369,
      "Marginal Workers Household Industry worked for 3 - 6 moths during last year - Males": 157,
      "Marginal Workers Agricultural Labourers - Females": 187,
      "Mean age at marriage for girls DLHS-4": "Not available",
      "Households with solar energy as main source of lighting  Houselisting and Housing Census Data Tables- District Level , Census of India__4": 19,
      "District": "DINDORI",
      "Households receiving treated tap water within premises in percentage Houselisting and Housing Census Data Tables- District Level , Census of India__1": 31.63676818,
      "Total Workers  Persons": 11952,
      "Households receiving treated tap water within premises  Houselisting and Housing Census Data Tables- District Level , Census of India__4": 2275,
      "Primary Female Teachers in percentage DISE": "NA",
      "Number of Households": 7410,
      "Main Workers Agricultural Labourers - Persons": 772
    }
  ]
}