{
  "Total": [
    {
      "Marginal Workers Agricultural Labourers - Persons": 85426,
      "Marginal Workers Other - Females": 4917,
      "Marginal Workers Other worked for 0 - 3 moths during last year - Females": 935,
      "Upper Primary Schools with boys toilet in percentage DISE": 93,
      "Total Population": 1310061,
      "Households with electricity as main source of lighting in percentage Houselisting and Housing Census Data Tables- District Level , Census of India": 76.30516041,
      "Primary Girl's Enrolment in percentage DISE": 49.2,
      "Marginal Workers worked for 3 - 6 moths during last year - Males": 39807,
      "Prevalence of Acute illness in percentage DLHS-4": "Not available",
      "Main Workers - Persons": 492393,
      "Main Workers Cultivators - Females": 50214,
      "Marginal Workers Agricultural Labourers worked for 3 - 6 moths during last year - Females": 46768,
      "Marginal Workers Other worked for 0 - 3 moths during last year - Males": 1367,
      "Upper Primary Schools with drinking water facility in percentage DISE": 80.8,
      "Primary Schools with girls toilet in percentage DISE": 90.2,
      "Marginal Workers worked for 3 - 6 moths during last year - Persons": 102440,
      "Upper Primary Drop Out Rate in percentage DISE": 6.21,
      "Prevalence of Anaemia in pregnant women aged 15-49years in percentage DLHS-4": "Not available",
      "Current use of any modern method of family planning in percentage DLHS-4": 65,
      "Marginal Workers Agricultural Labourers - Males": 30911,
      "Upper Primary Female Teachers in percentage DISE": 38,
      "Marginal Workers - Females": 74173,
      "Marginal Workers Other worked for 3 - 6 moths during last year - Persons": 11635,
      "Main Workers Agricultural Labourers - Females": 99253,
      "Marginal Workers Cultivators worked for 3 - 6 moths during last year - Females": 11020,
      "Households with no lighting  Houselisting and Housing Census Data Tables- District Level , Census of India__5": 1319,
      "Prevalence of Severe Anaemia  in percentage DLHS-4": "Not available",
      "Total unmet need for family planning in percentage DLHS-4": 16.2,
      "Main Workers Other - Males": 85278,
      "Children who received full vaccination in percentage DLHS-4": "Not available",
      "Marginal Workers Household Industry - Persons": 1944,
      "Primary Pupil-Teacher Ratio in percentage DISE": 34,
      "Marginal Workers Agricultural Labourers worked for 3 - 6 moths during last year - Males": 27103,
      "Scheduled Caste Females": 75904,
      "Marginal Workers Cultivators - Males": 5638,
      "Marginal Workers - Males": 46410,
      "Marginal Workers worked for 0 - 3 moths during last year - Females": 11540,
      "Households with main source of drinking water within premises in percentage Houselisting and Housing Census Data Tables- District Level , Census of India": 22.94914119,
      "Marginal Workers Household Industry worked for 3 - 6 moths during last year - Persons": 1522,
      "Upper Primary Girl's Enrolment in percentage DISE": 51.9,
      "Prevalence of Severe Anaemia in women aged 15-49years in percentage DLHS-4": "Not available",
      "Marginal Workers Agricultural Labourers worked for 0 - 3 moths during last year - Males": 3808,
      "Households with electricity as main source of lighting  Houselisting and Housing Census Data Tables- District Level , Census of India__3": 202710,
      "Households with computer or laptop with internet connection in percentage": 0.72,
      "PHCs functioning on a 24x7hours basis in percentage DLHS-4": "Not available",
      "Non Workers - Males": 304653,
      "Total Households in District Houselisting and Housing Census Data Tables- District Level , Census of India": 265657,
      "Upper Primary Schools with girls toilet in percentage DISE": 82.7,
      "Households with mobile phone in percentage": 33.66,
      "Households receiving untreated tap water within premises in percentage Houselisting and Housing Census Data Tables- District Level , Census of India__2": 4.513715054,
      "Marginal Workers Cultivators worked for 3 - 6 moths during last year - Males": 4392,
      "Prevalence of Anaemia  in percentage DLHS-4": "Not available",
      "Prevalence of Chronic illness in percentage DLHS-4": "Not available",
      "Households with solar energy as main source of lighting in percentage Houselisting and Housing Census Data Tables- District Level , Census of India__1": 0.0907,
      "Marginal Workers Agricultural Labourers worked for 0 - 3 moths during last year - Females": 7747,
      "Main Workers - Males": 323266,
      "Female": 55.92,
      "Sno": 950,
      "Marginal Workers Other worked for 3 - 6 moths during last year - Females": 3982,
      "Marginal Workers Cultivators worked for 0 - 3 moths during last year - Females": 2618,
      "Scheduled Tribe Males": 234867,
      "Male Illiterates": 242070,
      "Prevalence of Severe Anaemia in pregnant women aged 15-49years in percentage DLHS-4": "Not available",
      "0-6 Age Group Persons": 208140,
      "Upper Primary Student-Classroom Ratio in percentage DISE": 36,
      "Currently married men married below 21years of age in percentage DLHS-4": 11.9,
      "Male Literates": 432259,
      "Households with no lighting in percentage Houselisting and Housing Census Data Tables- District Level , Census of India__2": 0.496504892,
      "Primary Drop Out Rate in percentage DISE": 6,
      "Marginal Workers Household Industry - Males": 841,
      "Female Illiterates": 336376,
      "Main Workers Other - Females": 17949,
      "Marginal Workers Cultivators - Persons": 19276,
      "Upper Primary Gross Enrolment Ratio in percentage DISE": 86.7,
      "Scheduled Caste Persons": 156601,
      "Marginal Workers Cultivators worked for 3 - 6 moths during last year - Persons": 15412,
      "Households with landline phone in percentage": 1.7,
      "Total Households in District  Houselisting and Housing Census Data Tables- District Level , Census of India": 265657,
      "Upper Primary Pupil-Teacher Ratio in percentage DISE": 50,
      "Primary Student-Classroom Ratio in percentage DISE": 28,
      "Primary Schools with boys toilet in percentage DISE": 88.9,
      "Mean number of children ever born to women aged 40-49years  DLHS-4": "Not available",
      "Households receiving untreated tap water within premises  Houselisting and Housing Census Data Tables- District Level , Census of India__5": 11991,
      "Marginal Workers Household Industry worked for 0 - 3 moths during last year - Persons": 422,
      "Total Male Population": 674329,
      "Non Workers - Females": 392432,
      "Current use of family planning methods in percentage DLHS-4": 67.2,
      "Households with main source of drinking water within premises  Houselisting and Housing Census Data Tables- District Level , Census of India__3": 60966,
      "Main Workers Agricultural Labourers - Males": 121944,
      "Marginal Workers Other worked for 0 - 3 moths during last year - Persons": 2302,
      "Currently married women married below 18years of age in percentage DLHS-4": 4.5,
      "Person Illiterates": 578446,
      "Main Workers Household Industry - Females": 1711,
      "Female Literates": 299356,
      "Marginal Workers Cultivators worked for 0 - 3 moths during last year - Males": 1246,
      "Male": 76.29,
      "Households with improved source of drinking water in percentage DLHS-4": "Not available",
      "Upper Primary Schools with electricity in percentage DISE": 12.2,
      "Households with electricity in percentage DLHS-4": "Not available",
      "Villages with Primary Health Centre within 10km in percentage DLHS-4": "Not available",
      "Births to women aged 15-19years out of Total births in percentage DLHS-4": "Not available",
      "Prevalence of Anaemia in women aged 15-49years in percentage DLHS-4": "Not available",
      "Marginal Workers Agricultural Labourers worked for 3 - 6 moths during last year - Persons": 73871,
      "Main Workers Household Industry - Males": 6197,
      "Scheduled Tribe Females": 224255,
      "Marginal Workers worked for 0 - 3 moths during last year - Males": 6603,
      "Marginal Workers Other worked for 3 - 6 moths during last year - Males": 7653,
      "Primary Net Enrolment Ratio in percentage DISE": 87.7,
      "Total": 66.39,
      "Mean age at marriage for boys DLHS-4": 24.2,
      "Number of District Hospitals  DLHS-4": "Not available",
      "0-6 Age Group Females": 100410,
      "Marginal Workers Agricultural Labourers worked for 0 - 3 moths during last year - Persons": 11555,
      "Marginal Workers Household Industry worked for 0 - 3 moths during last year - Males": 182,
      "Total Workers  Females": 243300,
      "Marginal Workers worked for 3 - 6 moths during last year - Females": 62633,
      "Institutional Deliveries in percentage DLHS-4": 74.9,
      "Marginal Workers Other - Males": 9020,
      "Total Workers  Males": 369676,
      "Main Workers - Females": 169127,
      "Primary Gross Enrolment Ratio in percentage DISE": 107.1,
      "Main Workers Cultivators - Persons": 160061,
      "Marginal Workers Household Industry worked for 0 - 3 moths during last year - Females": 240,
      "Upper Primary Net Enrolment Ratio in percentage DISE": 59.9,
      "Primary New Government Schools since 2003 in percentage DISE": 11.9,
      "Tier": "Total",
      "Marginal Workers Household Industry - Females": 1103,
      "Primary Schools with electricity in percentage DISE": 10.2,
      "Main Workers Other - Persons": 103227,
      "Marginal Workers Household Industry worked for 3 - 6 moths during last year - Females": 863,
      "Main Workers Cultivators - Males": 109847,
      "Main Workers Household Industry - Persons": 7908,
      "Marginal Workers Cultivators worked for 0 - 3 moths during last year - Persons": 3864,
      "Scheduled Caste Males": 80697,
      "Marginal Workers - Persons": 120583,
      "Deliveries at home conducted by skilled health personnel in percentage DLHS-4": 41.1,
      "Villages with Sub-Health Centres within 3km in percentage DLHS-4": "Not available",
      "Upper Primary New Government Schools since 2003 in percentage DISE": 48.1,
      "0-6 Age Group Males": 107730,
      "Primary Schools with drinking water facility in percentage DISE": 86.1,
      "Non Workers - Persons": 697085,
      "Person Literates": 731615,
      "State": "MADHYA PRADESH",
      "Total Female Population": 635732,
      "Marginal Workers worked for 0 - 3 moths during last year - Persons": 18143,
      "Marginal Workers Cultivators - Females": 13638,
      "Marginal Workers Other - Persons": 13937,
      "Sex Ratio": 943,
      "Scheduled Tribe Persons": 459122,
      "Marginal Workers Household Industry worked for 3 - 6 moths during last year - Males": 659,
      "Marginal Workers Agricultural Labourers - Females": 54515,
      "Mean age at marriage for girls DLHS-4": 21.4,
      "Households with solar energy as main source of lighting  Houselisting and Housing Census Data Tables- District Level , Census of India__4": 241,
      "District": "EAST NIMAR",
      "Households receiving treated tap water within premises in percentage Houselisting and Housing Census Data Tables- District Level , Census of India__1": 14.22096914,
      "Total Workers  Persons": 612976,
      "Households receiving treated tap water within premises  Houselisting and Housing Census Data Tables- District Level , Census of India__4": 37779,
      "Primary Female Teachers in percentage DISE": 49.3,
      "Number of Households": 266655,
      "Main Workers Agricultural Labourers - Persons": 221197
    }
  ],
  "Rural": [
    {
      "Marginal Workers Agricultural Labourers - Persons": 83781,
      "Marginal Workers Other - Females": 2466,
      "Marginal Workers Other worked for 0 - 3 moths during last year - Females": 463,
      "Upper Primary Schools with boys toilet in percentage DISE": "NA",
      "Total Population": 1050625,
      "Households with electricity as main source of lighting in percentage Houselisting and Housing Census Data Tables- District Level , Census of India": 72.42133533,
      "Primary Girl's Enrolment in percentage DISE": "NA",
      "Marginal Workers worked for 3 - 6 moths during last year - Males": 34578,
      "Prevalence of Acute illness in percentage DLHS-4": "Not available",
      "Main Workers - Persons": 417077,
      "Main Workers Cultivators - Females": 49886,
      "Marginal Workers Agricultural Labourers worked for 3 - 6 moths during last year - Females": 45802,
      "Marginal Workers Other worked for 0 - 3 moths during last year - Males": 570,
      "Upper Primary Schools with drinking water facility in percentage DISE": "NA",
      "Primary Schools with girls toilet in percentage DISE": "NA",
      "Marginal Workers worked for 3 - 6 moths during last year - Persons": 94025,
      "Upper Primary Drop Out Rate in percentage DISE": "NA",
      "Prevalence of Anaemia in pregnant women aged 15-49years in percentage DLHS-4": "Not available",
      "Current use of any modern method of family planning in percentage DLHS-4": 66.4,
      "Marginal Workers Agricultural Labourers - Males": 30363,
      "Upper Primary Female Teachers in percentage DISE": "NA",
      "Marginal Workers - Females": 70321,
      "Marginal Workers Other worked for 3 - 6 moths during last year - Persons": 5137,
      "Main Workers Agricultural Labourers - Females": 97945,
      "Marginal Workers Cultivators worked for 3 - 6 moths during last year - Females": 10958,
      "Households with no lighting  Houselisting and Housing Census Data Tables- District Level , Census of India__5": 1184,
      "Prevalence of Severe Anaemia  in percentage DLHS-4": "Not available",
      "Total unmet need for family planning in percentage DLHS-4": 14.5,
      "Main Workers Other - Males": 30754,
      "Children who received full vaccination in percentage DLHS-4": "Not available",
      "Marginal Workers Household Industry - Persons": 1542,
      "Primary Pupil-Teacher Ratio in percentage DISE": "NA",
      "Marginal Workers Agricultural Labourers worked for 3 - 6 moths during last year - Males": 26594,
      "Scheduled Caste Females": 59115,
      "Marginal Workers Cultivators - Males": 5572,
      "Marginal Workers - Males": 40310,
      "Marginal Workers worked for 0 - 3 moths during last year - Females": 10874,
      "Households with main source of drinking water within premises in percentage Houselisting and Housing Census Data Tables- District Level , Census of India": 15.98626743,
      "Marginal Workers Household Industry worked for 3 - 6 moths during last year - Persons": 1201,
      "Upper Primary Girl's Enrolment in percentage DISE": "NA",
      "Prevalence of Severe Anaemia in women aged 15-49years in percentage DLHS-4": "Not available",
      "Marginal Workers Agricultural Labourers worked for 0 - 3 moths during last year - Males": 3769,
      "Households with electricity as main source of lighting  Houselisting and Housing Census Data Tables- District Level , Census of India__3": 156945,
      "Households with computer or laptop with internet connection in percentage": 0.18,
      "PHCs functioning on a 24x7hours basis in percentage DLHS-4": "Not applicable",
      "Non Workers - Males": 240444,
      "Total Households in District Houselisting and Housing Census Data Tables- District Level , Census of India": 216711,
      "Upper Primary Schools with girls toilet in percentage DISE": "NA",
      "Households with mobile phone in percentage": 28.07,
      "Households receiving untreated tap water within premises in percentage Houselisting and Housing Census Data Tables- District Level , Census of India__2": 4.852084112,
      "Marginal Workers Cultivators worked for 3 - 6 moths during last year - Males": 4333,
      "Prevalence of Anaemia  in percentage DLHS-4": "Not available",
      "Prevalence of Chronic illness in percentage DLHS-4": "Not available",
      "Households with solar energy as main source of lighting in percentage Houselisting and Housing Census Data Tables- District Level , Census of India__1": 0.0974,
      "Marginal Workers Agricultural Labourers worked for 0 - 3 moths during last year - Females": 7616,
      "Main Workers - Males": 260429,
      "Female": "NA",
      "Sno": 949,
      "Marginal Workers Other worked for 3 - 6 moths during last year - Females": 2003,
      "Marginal Workers Cultivators worked for 0 - 3 moths during last year - Females": 2608,
      "Scheduled Tribe Males": 225411,
      "Male Illiterates": 212280,
      "Prevalence of Severe Anaemia in pregnant women aged 15-49years in percentage DLHS-4": "Not available",
      "0-6 Age Group Persons": 174888,
      "Upper Primary Student-Classroom Ratio in percentage DISE": "NA",
      "Currently married men married below 21years of age in percentage DLHS-4": 14.9,
      "Male Literates": 328903,
      "Households with no lighting in percentage Houselisting and Housing Census Data Tables- District Level , Census of India__2": 0.546349747,
      "Primary Drop Out Rate in percentage DISE": "NA",
      "Marginal Workers Household Industry - Males": 671,
      "Female Illiterates": 297356,
      "Main Workers Other - Females": 7650,
      "Marginal Workers Cultivators - Persons": 19138,
      "Upper Primary Gross Enrolment Ratio in percentage DISE": "NA",
      "Scheduled Caste Persons": 122463,
      "Marginal Workers Cultivators worked for 3 - 6 moths during last year - Persons": 15291,
      "Households with landline phone in percentage": 1.15,
      "Total Households in District  Houselisting and Housing Census Data Tables- District Level , Census of India": 216711,
      "Upper Primary Pupil-Teacher Ratio in percentage DISE": "NA",
      "Primary Student-Classroom Ratio in percentage DISE": "NA",
      "Primary Schools with boys toilet in percentage DISE": "NA",
      "Mean number of children ever born to women aged 40-49years  DLHS-4": "Not available",
      "Households receiving untreated tap water within premises  Houselisting and Housing Census Data Tables- District Level , Census of India__5": 10515,
      "Marginal Workers Household Industry worked for 0 - 3 moths during last year - Persons": 341,
      "Total Male Population": 541183,
      "Non Workers - Females": 282473,
      "Current use of family planning methods in percentage DLHS-4": 69,
      "Households with main source of drinking water within premises  Houselisting and Housing Census Data Tables- District Level , Census of India__3": 34644,
      "Main Workers Agricultural Labourers - Males": 119414,
      "Marginal Workers Other worked for 0 - 3 moths during last year - Persons": 1033,
      "Currently married women married below 18years of age in percentage DLHS-4": 5.5,
      "Person Illiterates": 509636,
      "Main Workers Household Industry - Females": 1167,
      "Female Literates": 212086,
      "Marginal Workers Cultivators worked for 0 - 3 moths during last year - Males": 1239,
      "Male": "NA",
      "Households with improved source of drinking water in percentage DLHS-4": "Not available",
      "Upper Primary Schools with electricity in percentage DISE": "NA",
      "Households with electricity in percentage DLHS-4": "Not available",
      "Villages with Primary Health Centre within 10km in percentage DLHS-4": "Not applicable",
      "Births to women aged 15-19years out of Total births in percentage DLHS-4": "Not available",
      "Prevalence of Anaemia in women aged 15-49years in percentage DLHS-4": "Not available",
      "Marginal Workers Agricultural Labourers worked for 3 - 6 moths during last year - Persons": 72396,
      "Main Workers Household Industry - Males": 2590,
      "Scheduled Tribe Females": 215378,
      "Marginal Workers worked for 0 - 3 moths during last year - Males": 5732,
      "Marginal Workers Other worked for 3 - 6 moths during last year - Males": 3134,
      "Primary Net Enrolment Ratio in percentage DISE": "NA",
      "Total": "NA",
      "Mean age at marriage for boys DLHS-4": 23.4,
      "Number of District Hospitals  DLHS-4": "Not applicable",
      "0-6 Age Group Females": 84524,
      "Marginal Workers Agricultural Labourers worked for 0 - 3 moths during last year - Persons": 11385,
      "Marginal Workers Household Industry worked for 0 - 3 moths during last year - Males": 154,
      "Total Workers  Females": 226969,
      "Marginal Workers worked for 3 - 6 moths during last year - Females": 59447,
      "Institutional Deliveries in percentage DLHS-4": 70.6,
      "Marginal Workers Other - Males": 3704,
      "Total Workers  Males": 300739,
      "Main Workers - Females": 156648,
      "Primary Gross Enrolment Ratio in percentage DISE": "NA",
      "Main Workers Cultivators - Persons": 157557,
      "Marginal Workers Household Industry worked for 0 - 3 moths during last year - Females": 187,
      "Upper Primary Net Enrolment Ratio in percentage DISE": "NA",
      "Primary New Government Schools since 2003 in percentage DISE": "NA",
      "Tier": "Rural",
      "Marginal Workers Household Industry - Females": 871,
      "Primary Schools with electricity in percentage DISE": "NA",
      "Main Workers Other - Persons": 38404,
      "Marginal Workers Household Industry worked for 3 - 6 moths during last year - Females": 684,
      "Main Workers Cultivators - Males": 107671,
      "Main Workers Household Industry - Persons": 3757,
      "Marginal Workers Cultivators worked for 0 - 3 moths during last year - Persons": 3847,
      "Scheduled Caste Males": 63348,
      "Marginal Workers - Persons": 110631,
      "Deliveries at home conducted by skilled health personnel in percentage DLHS-4": 38.9,
      "Villages with Sub-Health Centres within 3km in percentage DLHS-4": "Not applicable",
      "Upper Primary New Government Schools since 2003 in percentage DISE": "NA",
      "0-6 Age Group Males": 90364,
      "Primary Schools with drinking water facility in percentage DISE": "NA",
      "Non Workers - Persons": 522917,
      "Person Literates": 540989,
      "State": "MADHYA PRADESH",
      "Total Female Population": 509442,
      "Marginal Workers worked for 0 - 3 moths during last year - Persons": 16606,
      "Marginal Workers Cultivators - Females": 13566,
      "Marginal Workers Other - Persons": 6170,
      "Sex Ratio": 941,
      "Scheduled Tribe Persons": 440789,
      "Marginal Workers Household Industry worked for 3 - 6 moths during last year - Males": 517,
      "Marginal Workers Agricultural Labourers - Females": 53418,
      "Mean age at marriage for girls DLHS-4": 20.9,
      "Households with solar energy as main source of lighting  Houselisting and Housing Census Data Tables- District Level , Census of India__4": 211,
      "District": "EAST NIMAR",
      "Households receiving treated tap water within premises in percentage Houselisting and Housing Census Data Tables- District Level , Census of India__1": 6.956268948,
      "Total Workers  Persons": 527708,
      "Households receiving treated tap water within premises  Houselisting and Housing Census Data Tables- District Level , Census of India__4": 15075,
      "Primary Female Teachers in percentage DISE": "NA",
      "Number of Households": 216182,
      "Main Workers Agricultural Labourers - Persons": 217359
    }
  ],
  "Urban": [
    {
      "Marginal Workers Agricultural Labourers - Persons": 1645,
      "Marginal Workers Other - Females": 2451,
      "Marginal Workers Other worked for 0 - 3 moths during last year - Females": 472,
      "Upper Primary Schools with boys toilet in percentage DISE": "NA",
      "Total Population": 259436,
      "Households with electricity as main source of lighting in percentage Houselisting and Housing Census Data Tables- District Level , Census of India": 93.5010011,
      "Primary Girl's Enrolment in percentage DISE": "NA",
      "Marginal Workers worked for 3 - 6 moths during last year - Males": 5229,
      "Prevalence of Acute illness in percentage DLHS-4": "Not available",
      "Main Workers - Persons": 75316,
      "Main Workers Cultivators - Females": 328,
      "Marginal Workers Agricultural Labourers worked for 3 - 6 moths during last year - Females": 966,
      "Marginal Workers Other worked for 0 - 3 moths during last year - Males": 797,
      "Upper Primary Schools with drinking water facility in percentage DISE": "NA",
      "Primary Schools with girls toilet in percentage DISE": "NA",
      "Marginal Workers worked for 3 - 6 moths during last year - Persons": 8415,
      "Upper Primary Drop Out Rate in percentage DISE": "NA",
      "Prevalence of Anaemia in pregnant women aged 15-49years in percentage DLHS-4": "Not available",
      "Current use of any modern method of family planning in percentage DLHS-4": 60.8,
      "Marginal Workers Agricultural Labourers - Males": 548,
      "Upper Primary Female Teachers in percentage DISE": "NA",
      "Marginal Workers - Females": 3852,
      "Marginal Workers Other worked for 3 - 6 moths during last year - Persons": 6498,
      "Main Workers Agricultural Labourers - Females": 1308,
      "Marginal Workers Cultivators worked for 3 - 6 moths during last year - Females": 62,
      "Households with no lighting  Houselisting and Housing Census Data Tables- District Level , Census of India__5": 135,
      "Prevalence of Severe Anaemia  in percentage DLHS-4": "Not available",
      "Total unmet need for family planning in percentage DLHS-4": 21.2,
      "Main Workers Other - Males": 54524,
      "Children who received full vaccination in percentage DLHS-4": "Not available",
      "Marginal Workers Household Industry - Persons": 402,
      "Primary Pupil-Teacher Ratio in percentage DISE": "NA",
      "Marginal Workers Agricultural Labourers worked for 3 - 6 moths during last year - Males": 509,
      "Scheduled Caste Females": 16789,
      "Marginal Workers Cultivators - Males": 66,
      "Marginal Workers - Males": 6100,
      "Marginal Workers worked for 0 - 3 moths during last year - Females": 666,
      "Households with main source of drinking water within premises in percentage Houselisting and Housing Census Data Tables- District Level , Census of India": 53.77763249,
      "Marginal Workers Household Industry worked for 3 - 6 moths during last year - Persons": 321,
      "Upper Primary Girl's Enrolment in percentage DISE": "NA",
      "Prevalence of Severe Anaemia in women aged 15-49years in percentage DLHS-4": "Not available",
      "Marginal Workers Agricultural Labourers worked for 0 - 3 moths during last year - Males": 39,
      "Households with electricity as main source of lighting  Houselisting and Housing Census Data Tables- District Level , Census of India__3": 45765,
      "Households with computer or laptop with internet connection in percentage": 3.08,
      "PHCs functioning on a 24x7hours basis in percentage DLHS-4": 0,
      "Non Workers - Males": 64209,
      "Total Households in District Houselisting and Housing Census Data Tables- District Level , Census of India": 48946,
      "Upper Primary Schools with girls toilet in percentage DISE": "NA",
      "Households with mobile phone in percentage": 58.37,
      "Households receiving untreated tap water within premises in percentage Houselisting and Housing Census Data Tables- District Level , Census of India__2": 3.015568177,
      "Marginal Workers Cultivators worked for 3 - 6 moths during last year - Males": 59,
      "Prevalence of Anaemia  in percentage DLHS-4": "Not available",
      "Prevalence of Chronic illness in percentage DLHS-4": "Not available",
      "Households with solar energy as main source of lighting in percentage Houselisting and Housing Census Data Tables- District Level , Census of India__1": 0.0613,
      "Marginal Workers Agricultural Labourers worked for 0 - 3 moths during last year - Females": 131,
      "Main Workers - Males": 62837,
      "Female": "NA",
      "Sno": 951,
      "Marginal Workers Other worked for 3 - 6 moths during last year - Females": 1979,
      "Marginal Workers Cultivators worked for 0 - 3 moths during last year - Females": 10,
      "Scheduled Tribe Males": 9456,
      "Male Illiterates": 29790,
      "Prevalence of Severe Anaemia in pregnant women aged 15-49years in percentage DLHS-4": "Not available",
      "0-6 Age Group Persons": 33252,
      "Upper Primary Student-Classroom Ratio in percentage DISE": "NA",
      "Currently married men married below 21years of age in percentage DLHS-4": 3.5,
      "Male Literates": 103356,
      "Households with no lighting in percentage Houselisting and Housing Census Data Tables- District Level , Census of India__2": 0.275814163,
      "Primary Drop Out Rate in percentage DISE": "NA",
      "Marginal Workers Household Industry - Males": 170,
      "Female Illiterates": 39020,
      "Main Workers Other - Females": 10299,
      "Marginal Workers Cultivators - Persons": 138,
      "Upper Primary Gross Enrolment Ratio in percentage DISE": "NA",
      "Scheduled Caste Persons": 34138,
      "Marginal Workers Cultivators worked for 3 - 6 moths during last year - Persons": 121,
      "Households with landline phone in percentage": 4.16,
      "Total Households in District  Houselisting and Housing Census Data Tables- District Level , Census of India": 48946,
      "Upper Primary Pupil-Teacher Ratio in percentage DISE": "NA",
      "Primary Student-Classroom Ratio in percentage DISE": "NA",
      "Primary Schools with boys toilet in percentage DISE": "NA",
      "Mean number of children ever born to women aged 40-49years  DLHS-4": "Not available",
      "Households receiving untreated tap water within premises  Houselisting and Housing Census Data Tables- District Level , Census of India__5": 1476,
      "Marginal Workers Household Industry worked for 0 - 3 moths during last year - Persons": 81,
      "Total Male Population": 133146,
      "Non Workers - Females": 109959,
      "Current use of family planning methods in percentage DLHS-4": 62,
      "Households with main source of drinking water within premises  Houselisting and Housing Census Data Tables- District Level , Census of India__3": 26322,
      "Main Workers Agricultural Labourers - Males": 2530,
      "Marginal Workers Other worked for 0 - 3 moths during last year - Persons": 1269,
      "Currently married women married below 18years of age in percentage DLHS-4": 1.5,
      "Person Illiterates": 68810,
      "Main Workers Household Industry - Females": 544,
      "Female Literates": 87270,
      "Marginal Workers Cultivators worked for 0 - 3 moths during last year - Males": 7,
      "Male": "NA",
      "Households with improved source of drinking water in percentage DLHS-4": "Not available",
      "Upper Primary Schools with electricity in percentage DISE": "NA",
      "Households with electricity in percentage DLHS-4": "Not available",
      "Villages with Primary Health Centre within 10km in percentage DLHS-4": 0,
      "Births to women aged 15-19years out of Total births in percentage DLHS-4": "Not available",
      "Prevalence of Anaemia in women aged 15-49years in percentage DLHS-4": "Not available",
      "Marginal Workers Agricultural Labourers worked for 3 - 6 moths during last year - Persons": 1475,
      "Main Workers Household Industry - Males": 3607,
      "Scheduled Tribe Females": 8877,
      "Marginal Workers worked for 0 - 3 moths during last year - Males": 871,
      "Marginal Workers Other worked for 3 - 6 moths during last year - Males": 4519,
      "Primary Net Enrolment Ratio in percentage DISE": "NA",
      "Total": "NA",
      "Mean age at marriage for boys DLHS-4": 26.6,
      "Number of District Hospitals  DLHS-4": 0,
      "0-6 Age Group Females": 15886,
      "Marginal Workers Agricultural Labourers worked for 0 - 3 moths during last year - Persons": 170,
      "Marginal Workers Household Industry worked for 0 - 3 moths during last year - Males": 28,
      "Total Workers  Females": 16331,
      "Marginal Workers worked for 3 - 6 moths during last year - Females": 3186,
      "Institutional Deliveries in percentage DLHS-4": 89.5,
      "Marginal Workers Other - Males": 5316,
      "Total Workers  Males": 68937,
      "Main Workers - Females": 12479,
      "Primary Gross Enrolment Ratio in percentage DISE": "NA",
      "Main Workers Cultivators - Persons": 2504,
      "Marginal Workers Household Industry worked for 0 - 3 moths during last year - Females": 53,
      "Upper Primary Net Enrolment Ratio in percentage DISE": "NA",
      "Primary New Government Schools since 2003 in percentage DISE": "NA",
      "Tier": "Urban",
      "Marginal Workers Household Industry - Females": 232,
      "Primary Schools with electricity in percentage DISE": "NA",
      "Main Workers Other - Persons": 64823,
      "Marginal Workers Household Industry worked for 3 - 6 moths during last year - Females": 179,
      "Main Workers Cultivators - Males": 2176,
      "Main Workers Household Industry - Persons": 4151,
      "Marginal Workers Cultivators worked for 0 - 3 moths during last year - Persons": 17,
      "Scheduled Caste Males": 17349,
      "Marginal Workers - Persons": 9952,
      "Deliveries at home conducted by skilled health personnel in percentage DLHS-4": 62.7,
      "Villages with Sub-Health Centres within 3km in percentage DLHS-4": 0,
      "Upper Primary New Government Schools since 2003 in percentage DISE": "NA",
      "0-6 Age Group Males": 17366,
      "Primary Schools with drinking water facility in percentage DISE": "NA",
      "Non Workers - Persons": 174168,
      "Person Literates": 190626,
      "State": "MADHYA PRADESH",
      "Total Female Population": 126290,
      "Marginal Workers worked for 0 - 3 moths during last year - Persons": 1537,
      "Marginal Workers Cultivators - Females": 72,
      "Marginal Workers Other - Persons": 7767,
      "Sex Ratio": 949,
      "Scheduled Tribe Persons": 18333,
      "Marginal Workers Household Industry worked for 3 - 6 moths during last year - Males": 142,
      "Marginal Workers Agricultural Labourers - Females": 1097,
      "Mean age at marriage for girls DLHS-4": 22.8,
      "Households with solar energy as main source of lighting  Houselisting and Housing Census Data Tables- District Level , Census of India__4": 30,
      "District": "EAST NIMAR",
      "Households receiving treated tap water within premises in percentage Houselisting and Housing Census Data Tables- District Level , Census of India__1": 46.38581294,
      "Total Workers  Persons": 85268,
      "Households receiving treated tap water within premises  Houselisting and Housing Census Data Tables- District Level , Census of India__4": 22704,
      "Primary Female Teachers in percentage DISE": "NA",
      "Number of Households": 50473,
      "Main Workers Agricultural Labourers - Persons": 3838
    }
  ]
}