{
  "Total": [
    {
      "Marginal Workers Agricultural Labourers - Persons": 96681,
      "Marginal Workers Other - Females": 6047,
      "Marginal Workers Other worked for 0 - 3 moths during last year - Females": 1058,
      "Upper Primary Schools with boys toilet in percentage DISE": 97.2,
      "Total Population": 1241519,
      "Households with electricity as main source of lighting in percentage Houselisting and Housing Census Data Tables- District Level , Census of India": 59.74659636,
      "Primary Girl's Enrolment in percentage DISE": 50.3,
      "Marginal Workers worked for 3 - 6 moths during last year - Males": 49348,
      "Prevalence of Acute illness in percentage DLHS-4": "Not available",
      "Main Workers - Persons": 353671,
      "Main Workers Cultivators - Females": 34297,
      "Marginal Workers Agricultural Labourers worked for 3 - 6 moths during last year - Females": 52913,
      "Marginal Workers Other worked for 0 - 3 moths during last year - Males": 1876,
      "Upper Primary Schools with drinking water facility in percentage DISE": 93.3,
      "Primary Schools with girls toilet in percentage DISE": 98.6,
      "Marginal Workers worked for 3 - 6 moths during last year - Persons": 134769,
      "Upper Primary Drop Out Rate in percentage DISE": 13.84,
      "Prevalence of Anaemia in pregnant women aged 15-49years in percentage DLHS-4": "Not available",
      "Current use of any modern method of family planning in percentage DLHS-4": 55.7,
      "Marginal Workers Agricultural Labourers - Males": 35017,
      "Upper Primary Female Teachers in percentage DISE": 26.7,
      "Marginal Workers - Females": 101968,
      "Marginal Workers Other worked for 3 - 6 moths during last year - Persons": 14716,
      "Main Workers Agricultural Labourers - Females": 25824,
      "Marginal Workers Cultivators worked for 3 - 6 moths during last year - Females": 25936,
      "Households with no lighting  Houselisting and Housing Census Data Tables- District Level , Census of India__5": 683,
      "Prevalence of Severe Anaemia  in percentage DLHS-4": "Not available",
      "Total unmet need for family planning in percentage DLHS-4": 24.2,
      "Main Workers Other - Males": 81208,
      "Children who received full vaccination in percentage DLHS-4": "Not available",
      "Marginal Workers Household Industry - Persons": 3448,
      "Primary Pupil-Teacher Ratio in percentage DISE": 32,
      "Marginal Workers Agricultural Labourers worked for 3 - 6 moths during last year - Males": 30521,
      "Scheduled Caste Females": 92469,
      "Marginal Workers Cultivators - Males": 11174,
      "Marginal Workers - Males": 59258,
      "Marginal Workers worked for 0 - 3 moths during last year - Females": 16547,
      "Households with main source of drinking water within premises in percentage Houselisting and Housing Census Data Tables- District Level , Census of India": 20.96275157,
      "Marginal Workers Household Industry worked for 3 - 6 moths during last year - Persons": 2724,
      "Upper Primary Girl's Enrolment in percentage DISE": 52.7,
      "Prevalence of Severe Anaemia in women aged 15-49years in percentage DLHS-4": "Not available",
      "Marginal Workers Agricultural Labourers worked for 0 - 3 moths during last year - Males": 4496,
      "Households with electricity as main source of lighting  Houselisting and Housing Census Data Tables- District Level , Census of India__3": 144248,
      "Households with computer or laptop with internet connection in percentage": 1.03,
      "PHCs functioning on a 24x7hours basis in percentage DLHS-4": "Not available",
      "Non Workers - Males": 313908,
      "Total Households in District Houselisting and Housing Census Data Tables- District Level , Census of India": 241433,
      "Upper Primary Schools with girls toilet in percentage DISE": 97.2,
      "Households with mobile phone in percentage": 45.92,
      "Households receiving untreated tap water within premises in percentage Houselisting and Housing Census Data Tables- District Level , Census of India__2": 1.341573024,
      "Marginal Workers Cultivators worked for 3 - 6 moths during last year - Males": 7959,
      "Prevalence of Anaemia  in percentage DLHS-4": "Not available",
      "Prevalence of Chronic illness in percentage DLHS-4": "Not available",
      "Households with solar energy as main source of lighting in percentage Houselisting and Housing Census Data Tables- District Level , Census of India__1": 0.213309697,
      "Marginal Workers Agricultural Labourers worked for 0 - 3 moths during last year - Females": 8751,
      "Main Workers - Males": 276196,
      "Female": 51.36,
      "Sno": 953,
      "Marginal Workers Other worked for 3 - 6 moths during last year - Females": 4989,
      "Marginal Workers Cultivators worked for 0 - 3 moths during last year - Females": 6337,
      "Scheduled Tribe Males": 98206,
      "Male Illiterates": 248825,
      "Prevalence of Severe Anaemia in pregnant women aged 15-49years in percentage DLHS-4": "Not available",
      "0-6 Age Group Persons": 207177,
      "Upper Primary Student-Classroom Ratio in percentage DISE": 35,
      "Currently married men married below 21years of age in percentage DLHS-4": 36.5,
      "Male Literates": 400537,
      "Households with no lighting in percentage Houselisting and Housing Census Data Tables- District Level , Census of India__2": 0.282894219,
      "Primary Drop Out Rate in percentage DISE": 3.9,
      "Marginal Workers Household Industry - Males": 1464,
      "Female Illiterates": 338714,
      "Main Workers Other - Females": 14396,
      "Marginal Workers Cultivators - Persons": 43447,
      "Upper Primary Gross Enrolment Ratio in percentage DISE": 103.1,
      "Scheduled Caste Persons": 193115,
      "Marginal Workers Cultivators worked for 3 - 6 moths during last year - Persons": 33895,
      "Households with landline phone in percentage": 1.79,
      "Total Households in District  Houselisting and Housing Census Data Tables- District Level , Census of India": 241433,
      "Upper Primary Pupil-Teacher Ratio in percentage DISE": 51,
      "Primary Student-Classroom Ratio in percentage DISE": 28,
      "Primary Schools with boys toilet in percentage DISE": 98.7,
      "Mean number of children ever born to women aged 40-49years  DLHS-4": "Not available",
      "Households receiving untreated tap water within premises  Houselisting and Housing Census Data Tables- District Level , Census of India__5": 3239,
      "Marginal Workers Household Industry worked for 0 - 3 moths during last year - Persons": 724,
      "Total Male Population": 649362,
      "Non Workers - Females": 412714,
      "Current use of family planning methods in percentage DLHS-4": 60.7,
      "Households with main source of drinking water within premises  Houselisting and Housing Census Data Tables- District Level , Census of India__3": 50611,
      "Main Workers Agricultural Labourers - Males": 53110,
      "Marginal Workers Other worked for 0 - 3 moths during last year - Persons": 2934,
      "Currently married women married below 18years of age in percentage DLHS-4": 16.2,
      "Person Illiterates": 587539,
      "Main Workers Household Industry - Females": 2958,
      "Female Literates": 253443,
      "Marginal Workers Cultivators worked for 0 - 3 moths during last year - Males": 3215,
      "Male": 74.05,
      "Households with improved source of drinking water in percentage DLHS-4": "Not available",
      "Upper Primary Schools with electricity in percentage DISE": 11.3,
      "Households with electricity in percentage DLHS-4": "Not available",
      "Villages with Primary Health Centre within 10km in percentage DLHS-4": "Not available",
      "Births to women aged 15-19years out of Total births in percentage DLHS-4": "Not available",
      "Prevalence of Anaemia in women aged 15-49years in percentage DLHS-4": "Not available",
      "Marginal Workers Agricultural Labourers worked for 3 - 6 moths during last year - Persons": 83434,
      "Main Workers Household Industry - Males": 5673,
      "Scheduled Tribe Females": 92613,
      "Marginal Workers worked for 0 - 3 moths during last year - Males": 9910,
      "Marginal Workers Other worked for 3 - 6 moths during last year - Males": 9727,
      "Primary Net Enrolment Ratio in percentage DISE": 100,
      "Total": 63.23,
      "Mean age at marriage for boys DLHS-4": 22.1,
      "Number of District Hospitals  DLHS-4": "Not available",
      "0-6 Age Group Females": 98704,
      "Marginal Workers Agricultural Labourers worked for 0 - 3 moths during last year - Persons": 13247,
      "Marginal Workers Household Industry worked for 0 - 3 moths during last year - Males": 323,
      "Total Workers  Females": 179443,
      "Marginal Workers worked for 3 - 6 moths during last year - Females": 85421,
      "Institutional Deliveries in percentage DLHS-4": 93,
      "Marginal Workers Other - Males": 11603,
      "Total Workers  Males": 335454,
      "Main Workers - Females": 77475,
      "Primary Gross Enrolment Ratio in percentage DISE": 132,
      "Main Workers Cultivators - Persons": 170502,
      "Marginal Workers Household Industry worked for 0 - 3 moths during last year - Females": 401,
      "Upper Primary Net Enrolment Ratio in percentage DISE": 73.3,
      "Primary New Government Schools since 2003 in percentage DISE": 7.9,
      "Tier": "Total",
      "Marginal Workers Household Industry - Females": 1984,
      "Primary Schools with electricity in percentage DISE": 6.3,
      "Main Workers Other - Persons": 95604,
      "Marginal Workers Household Industry worked for 3 - 6 moths during last year - Females": 1583,
      "Main Workers Cultivators - Males": 136205,
      "Main Workers Household Industry - Persons": 8631,
      "Marginal Workers Cultivators worked for 0 - 3 moths during last year - Persons": 9552,
      "Scheduled Caste Males": 100646,
      "Marginal Workers - Persons": 161226,
      "Deliveries at home conducted by skilled health personnel in percentage DLHS-4": 40.5,
      "Villages with Sub-Health Centres within 3km in percentage DLHS-4": "Not available",
      "Upper Primary New Government Schools since 2003 in percentage DISE": 35.2,
      "0-6 Age Group Males": 108473,
      "Primary Schools with drinking water facility in percentage DISE": 95.2,
      "Non Workers - Persons": 726622,
      "Person Literates": 653980,
      "State": "MADHYA PRADESH",
      "Total Female Population": 592157,
      "Marginal Workers worked for 0 - 3 moths during last year - Persons": 26457,
      "Marginal Workers Cultivators - Females": 32273,
      "Marginal Workers Other - Persons": 17650,
      "Sex Ratio": 912,
      "Scheduled Tribe Persons": 190819,
      "Marginal Workers Household Industry worked for 3 - 6 moths during last year - Males": 1141,
      "Marginal Workers Agricultural Labourers - Females": 61664,
      "Mean age at marriage for girls DLHS-4": 20.5,
      "Households with solar energy as main source of lighting  Houselisting and Housing Census Data Tables- District Level , Census of India__4": 515,
      "District": "GUNA",
      "Households receiving treated tap water within premises in percentage Houselisting and Housing Census Data Tables- District Level , Census of India__1": 11.41393264,
      "Total Workers  Persons": 514897,
      "Households receiving treated tap water within premises  Houselisting and Housing Census Data Tables- District Level , Census of India__4": 27557,
      "Primary Female Teachers in percentage DISE": 27.4,
      "Number of Households": 244401,
      "Main Workers Agricultural Labourers - Persons": 78934
    }
  ],
  "Rural": [
    {
      "Marginal Workers Agricultural Labourers - Persons": 93553,
      "Marginal Workers Other - Females": 3257,
      "Marginal Workers Other worked for 0 - 3 moths during last year - Females": 669,
      "Upper Primary Schools with boys toilet in percentage DISE": "NA",
      "Total Population": 928844,
      "Households with electricity as main source of lighting in percentage Houselisting and Housing Census Data Tables- District Level , Census of India": 51.11418263,
      "Primary Girl's Enrolment in percentage DISE": "NA",
      "Marginal Workers worked for 3 - 6 moths during last year - Males": 41682,
      "Prevalence of Acute illness in percentage DLHS-4": "Not available",
      "Main Workers - Persons": 269407,
      "Main Workers Cultivators - Females": 32981,
      "Marginal Workers Agricultural Labourers worked for 3 - 6 moths during last year - Females": 51437,
      "Marginal Workers Other worked for 0 - 3 moths during last year - Males": 755,
      "Upper Primary Schools with drinking water facility in percentage DISE": "NA",
      "Primary Schools with girls toilet in percentage DISE": "NA",
      "Marginal Workers worked for 3 - 6 moths during last year - Persons": 122138,
      "Upper Primary Drop Out Rate in percentage DISE": "NA",
      "Prevalence of Anaemia in pregnant women aged 15-49years in percentage DLHS-4": "Not available",
      "Current use of any modern method of family planning in percentage DLHS-4": 54.2,
      "Marginal Workers Agricultural Labourers - Males": 33703,
      "Upper Primary Female Teachers in percentage DISE": "NA",
      "Marginal Workers - Females": 96121,
      "Marginal Workers Other worked for 3 - 6 moths during last year - Persons": 6548,
      "Main Workers Agricultural Labourers - Females": 25095,
      "Marginal Workers Cultivators worked for 3 - 6 moths during last year - Females": 25379,
      "Households with no lighting  Houselisting and Housing Census Data Tables- District Level , Census of India__5": 379,
      "Prevalence of Severe Anaemia  in percentage DLHS-4": "Not available",
      "Total unmet need for family planning in percentage DLHS-4": 24.1,
      "Main Workers Other - Males": 20943,
      "Children who received full vaccination in percentage DLHS-4": "Not available",
      "Marginal Workers Household Industry - Persons": 2423,
      "Primary Pupil-Teacher Ratio in percentage DISE": "NA",
      "Marginal Workers Agricultural Labourers worked for 3 - 6 moths during last year - Males": 29304,
      "Scheduled Caste Females": 68256,
      "Marginal Workers Cultivators - Males": 10824,
      "Marginal Workers - Males": 50288,
      "Marginal Workers worked for 0 - 3 moths during last year - Females": 15665,
      "Households with main source of drinking water within premises in percentage Houselisting and Housing Census Data Tables- District Level , Census of India": 9.045149564,
      "Marginal Workers Household Industry worked for 3 - 6 moths during last year - Persons": 1838,
      "Upper Primary Girl's Enrolment in percentage DISE": "NA",
      "Prevalence of Severe Anaemia in women aged 15-49years in percentage DLHS-4": "Not available",
      "Marginal Workers Agricultural Labourers worked for 0 - 3 moths during last year - Males": 4399,
      "Households with electricity as main source of lighting  Houselisting and Housing Census Data Tables- District Level , Census of India__3": 93931,
      "Households with computer or laptop with internet connection in percentage": 0.13,
      "PHCs functioning on a 24x7hours basis in percentage DLHS-4": "Not applicable",
      "Non Workers - Males": 230929,
      "Total Households in District Houselisting and Housing Census Data Tables- District Level , Census of India": 183767,
      "Upper Primary Schools with girls toilet in percentage DISE": "NA",
      "Households with mobile phone in percentage": 41.29,
      "Households receiving untreated tap water within premises in percentage Houselisting and Housing Census Data Tables- District Level , Census of India__2": 0.743876757,
      "Marginal Workers Cultivators worked for 3 - 6 moths during last year - Males": 7632,
      "Prevalence of Anaemia  in percentage DLHS-4": "Not available",
      "Prevalence of Chronic illness in percentage DLHS-4": "Not available",
      "Households with solar energy as main source of lighting in percentage Houselisting and Housing Census Data Tables- District Level , Census of India__1": 0.245963639,
      "Marginal Workers Agricultural Labourers worked for 0 - 3 moths during last year - Females": 8413,
      "Main Workers - Males": 204910,
      "Female": "NA",
      "Sno": 952,
      "Marginal Workers Other worked for 3 - 6 moths during last year - Females": 2588,
      "Marginal Workers Cultivators worked for 0 - 3 moths during last year - Females": 6258,
      "Scheduled Tribe Males": 93432,
      "Male Illiterates": 204634,
      "Prevalence of Severe Anaemia in pregnant women aged 15-49years in percentage DLHS-4": "Not available",
      "0-6 Age Group Persons": 162565,
      "Upper Primary Student-Classroom Ratio in percentage DISE": "NA",
      "Currently married men married below 21years of age in percentage DLHS-4": 48,
      "Male Literates": 281493,
      "Households with no lighting in percentage Houselisting and Housing Census Data Tables- District Level , Census of India__2": 0.206239423,
      "Primary Drop Out Rate in percentage DISE": "NA",
      "Marginal Workers Household Industry - Males": 1046,
      "Female Illiterates": 277040,
      "Main Workers Other - Females": 4991,
      "Marginal Workers Cultivators - Persons": 42461,
      "Upper Primary Gross Enrolment Ratio in percentage DISE": "NA",
      "Scheduled Caste Persons": 142818,
      "Marginal Workers Cultivators worked for 3 - 6 moths during last year - Persons": 33011,
      "Households with landline phone in percentage": 1.28,
      "Total Households in District  Houselisting and Housing Census Data Tables- District Level , Census of India": 183767,
      "Upper Primary Pupil-Teacher Ratio in percentage DISE": "NA",
      "Primary Student-Classroom Ratio in percentage DISE": "NA",
      "Primary Schools with boys toilet in percentage DISE": "NA",
      "Mean number of children ever born to women aged 40-49years  DLHS-4": "Not available",
      "Households receiving untreated tap water within premises  Houselisting and Housing Census Data Tables- District Level , Census of India__5": 1367,
      "Marginal Workers Household Industry worked for 0 - 3 moths during last year - Persons": 585,
      "Total Male Population": 486127,
      "Non Workers - Females": 282099,
      "Current use of family planning methods in percentage DLHS-4": 60.1,
      "Households with main source of drinking water within premises  Houselisting and Housing Census Data Tables- District Level , Census of India__3": 16622,
      "Main Workers Agricultural Labourers - Males": 50222,
      "Marginal Workers Other worked for 0 - 3 moths during last year - Persons": 1424,
      "Currently married women married below 18years of age in percentage DLHS-4": 21.2,
      "Person Illiterates": 481674,
      "Main Workers Household Industry - Females": 1430,
      "Female Literates": 165677,
      "Marginal Workers Cultivators worked for 0 - 3 moths during last year - Males": 3192,
      "Male": "NA",
      "Households with improved source of drinking water in percentage DLHS-4": "Not available",
      "Upper Primary Schools with electricity in percentage DISE": "NA",
      "Households with electricity in percentage DLHS-4": "Not available",
      "Villages with Primary Health Centre within 10km in percentage DLHS-4": "Not applicable",
      "Births to women aged 15-19years out of Total births in percentage DLHS-4": "Not available",
      "Prevalence of Anaemia in women aged 15-49years in percentage DLHS-4": "Not available",
      "Marginal Workers Agricultural Labourers worked for 3 - 6 moths during last year - Persons": 80741,
      "Main Workers Household Industry - Males": 2782,
      "Scheduled Tribe Females": 88246,
      "Marginal Workers worked for 0 - 3 moths during last year - Males": 8606,
      "Marginal Workers Other worked for 3 - 6 moths during last year - Males": 3960,
      "Primary Net Enrolment Ratio in percentage DISE": "NA",
      "Total": "NA",
      "Mean age at marriage for boys DLHS-4": 21,
      "Number of District Hospitals  DLHS-4": "Not applicable",
      "0-6 Age Group Females": 77619,
      "Marginal Workers Agricultural Labourers worked for 0 - 3 moths during last year - Persons": 12812,
      "Marginal Workers Household Industry worked for 0 - 3 moths during last year - Males": 260,
      "Total Workers  Females": 160618,
      "Marginal Workers worked for 3 - 6 moths during last year - Females": 80456,
      "Institutional Deliveries in percentage DLHS-4": 93.4,
      "Marginal Workers Other - Males": 4715,
      "Total Workers  Males": 255198,
      "Main Workers - Females": 64497,
      "Primary Gross Enrolment Ratio in percentage DISE": "NA",
      "Main Workers Cultivators - Persons": 163944,
      "Marginal Workers Household Industry worked for 0 - 3 moths during last year - Females": 325,
      "Upper Primary Net Enrolment Ratio in percentage DISE": "NA",
      "Primary New Government Schools since 2003 in percentage DISE": "NA",
      "Tier": "Rural",
      "Marginal Workers Household Industry - Females": 1377,
      "Primary Schools with electricity in percentage DISE": "NA",
      "Main Workers Other - Persons": 25934,
      "Marginal Workers Household Industry worked for 3 - 6 moths during last year - Females": 1052,
      "Main Workers Cultivators - Males": 130963,
      "Main Workers Household Industry - Persons": 4212,
      "Marginal Workers Cultivators worked for 0 - 3 moths during last year - Persons": 9450,
      "Scheduled Caste Males": 74562,
      "Marginal Workers - Persons": 146409,
      "Deliveries at home conducted by skilled health personnel in percentage DLHS-4": 41.7,
      "Villages with Sub-Health Centres within 3km in percentage DLHS-4": "Not applicable",
      "Upper Primary New Government Schools since 2003 in percentage DISE": "NA",
      "0-6 Age Group Males": 84946,
      "Primary Schools with drinking water facility in percentage DISE": "NA",
      "Non Workers - Persons": 513028,
      "Person Literates": 447170,
      "State": "MADHYA PRADESH",
      "Total Female Population": 442717,
      "Marginal Workers worked for 0 - 3 moths during last year - Persons": 24271,
      "Marginal Workers Cultivators - Females": 31637,
      "Marginal Workers Other - Persons": 7972,
      "Sex Ratio": 911,
      "Scheduled Tribe Persons": 181678,
      "Marginal Workers Household Industry worked for 3 - 6 moths during last year - Males": 786,
      "Marginal Workers Agricultural Labourers - Females": 59850,
      "Mean age at marriage for girls DLHS-4": 19.7,
      "Households with solar energy as main source of lighting  Houselisting and Housing Census Data Tables- District Level , Census of India__4": 452,
      "District": "GUNA",
      "Households receiving treated tap water within premises in percentage Houselisting and Housing Census Data Tables- District Level , Census of India__1": 1.427895106,
      "Total Workers  Persons": 415816,
      "Households receiving treated tap water within premises  Houselisting and Housing Census Data Tables- District Level , Census of India__4": 2624,
      "Primary Female Teachers in percentage DISE": "NA",
      "Number of Households": 185041,
      "Main Workers Agricultural Labourers - Persons": 75317
    }
  ],
  "Urban": [
    {
      "Marginal Workers Agricultural Labourers - Persons": 3128,
      "Marginal Workers Other - Females": 2790,
      "Marginal Workers Other worked for 0 - 3 moths during last year - Females": 389,
      "Upper Primary Schools with boys toilet in percentage DISE": "NA",
      "Total Population": 312675,
      "Households with electricity as main source of lighting in percentage Houselisting and Housing Census Data Tables- District Level , Census of India": 87.25592203,
      "Primary Girl's Enrolment in percentage DISE": "NA",
      "Marginal Workers worked for 3 - 6 moths during last year - Males": 7666,
      "Prevalence of Acute illness in percentage DLHS-4": "Not available",
      "Main Workers - Persons": 84264,
      "Main Workers Cultivators - Females": 1316,
      "Marginal Workers Agricultural Labourers worked for 3 - 6 moths during last year - Females": 1476,
      "Marginal Workers Other worked for 0 - 3 moths during last year - Males": 1121,
      "Upper Primary Schools with drinking water facility in percentage DISE": "NA",
      "Primary Schools with girls toilet in percentage DISE": "NA",
      "Marginal Workers worked for 3 - 6 moths during last year - Persons": 12631,
      "Upper Primary Drop Out Rate in percentage DISE": "NA",
      "Prevalence of Anaemia in pregnant women aged 15-49years in percentage DLHS-4": "Not available",
      "Current use of any modern method of family planning in percentage DLHS-4": 59.7,
      "Marginal Workers Agricultural Labourers - Males": 1314,
      "Upper Primary Female Teachers in percentage DISE": "NA",
      "Marginal Workers - Females": 5847,
      "Marginal Workers Other worked for 3 - 6 moths during last year - Persons": 8168,
      "Main Workers Agricultural Labourers - Females": 729,
      "Marginal Workers Cultivators worked for 3 - 6 moths during last year - Females": 557,
      "Households with no lighting  Houselisting and Housing Census Data Tables- District Level , Census of India__5": 304,
      "Prevalence of Severe Anaemia  in percentage DLHS-4": "Not available",
      "Total unmet need for family planning in percentage DLHS-4": 24.4,
      "Main Workers Other - Males": 60265,
      "Children who received full vaccination in percentage DLHS-4": "Not available",
      "Marginal Workers Household Industry - Persons": 1025,
      "Primary Pupil-Teacher Ratio in percentage DISE": "NA",
      "Marginal Workers Agricultural Labourers worked for 3 - 6 moths during last year - Males": 1217,
      "Scheduled Caste Females": 24213,
      "Marginal Workers Cultivators - Males": 350,
      "Marginal Workers - Males": 8970,
      "Marginal Workers worked for 0 - 3 moths during last year - Females": 882,
      "Households with main source of drinking water within premises in percentage Houselisting and Housing Census Data Tables- District Level , Census of India": 58.94114383,
      "Marginal Workers Household Industry worked for 3 - 6 moths during last year - Persons": 886,
      "Upper Primary Girl's Enrolment in percentage DISE": "NA",
      "Prevalence of Severe Anaemia in women aged 15-49years in percentage DLHS-4": "Not available",
      "Marginal Workers Agricultural Labourers worked for 0 - 3 moths during last year - Males": 97,
      "Households with electricity as main source of lighting  Houselisting and Housing Census Data Tables- District Level , Census of India__3": 50317,
      "Households with computer or laptop with internet connection in percentage": 3.9,
      "PHCs functioning on a 24x7hours basis in percentage DLHS-4": 0,
      "Non Workers - Males": 82979,
      "Total Households in District Houselisting and Housing Census Data Tables- District Level , Census of India": 57666,
      "Upper Primary Schools with girls toilet in percentage DISE": "NA",
      "Households with mobile phone in percentage": 60.67,
      "Households receiving untreated tap water within premises in percentage Houselisting and Housing Census Data Tables- District Level , Census of India__2": 3.246280304,
      "Marginal Workers Cultivators worked for 3 - 6 moths during last year - Males": 327,
      "Prevalence of Anaemia  in percentage DLHS-4": "Not available",
      "Prevalence of Chronic illness in percentage DLHS-4": "Not available",
      "Households with solar energy as main source of lighting in percentage Houselisting and Housing Census Data Tables- District Level , Census of India__1": 0.109249818,
      "Marginal Workers Agricultural Labourers worked for 0 - 3 moths during last year - Females": 338,
      "Main Workers - Males": 71286,
      "Female": "NA",
      "Sno": 954,
      "Marginal Workers Other worked for 3 - 6 moths during last year - Females": 2401,
      "Marginal Workers Cultivators worked for 0 - 3 moths during last year - Females": 79,
      "Scheduled Tribe Males": 4774,
      "Male Illiterates": 44191,
      "Prevalence of Severe Anaemia in pregnant women aged 15-49years in percentage DLHS-4": "Not available",
      "0-6 Age Group Persons": 44612,
      "Upper Primary Student-Classroom Ratio in percentage DISE": "NA",
      "Currently married men married below 21years of age in percentage DLHS-4": 9.6,
      "Male Literates": 119044,
      "Households with no lighting in percentage Houselisting and Housing Census Data Tables- District Level , Census of India__2": 0.527173725,
      "Primary Drop Out Rate in percentage DISE": "NA",
      "Marginal Workers Household Industry - Males": 418,
      "Female Illiterates": 61674,
      "Main Workers Other - Females": 9405,
      "Marginal Workers Cultivators - Persons": 986,
      "Upper Primary Gross Enrolment Ratio in percentage DISE": "NA",
      "Scheduled Caste Persons": 50297,
      "Marginal Workers Cultivators worked for 3 - 6 moths during last year - Persons": 884,
      "Households with landline phone in percentage": 3.42,
      "Total Households in District  Houselisting and Housing Census Data Tables- District Level , Census of India": 57666,
      "Upper Primary Pupil-Teacher Ratio in percentage DISE": "NA",
      "Primary Student-Classroom Ratio in percentage DISE": "NA",
      "Primary Schools with boys toilet in percentage DISE": "NA",
      "Mean number of children ever born to women aged 40-49years  DLHS-4": "Not available",
      "Households receiving untreated tap water within premises  Houselisting and Housing Census Data Tables- District Level , Census of India__5": 1872,
      "Marginal Workers Household Industry worked for 0 - 3 moths during last year - Persons": 139,
      "Total Male Population": 163235,
      "Non Workers - Females": 130615,
      "Current use of family planning methods in percentage DLHS-4": 62.5,
      "Households with main source of drinking water within premises  Houselisting and Housing Census Data Tables- District Level , Census of India__3": 33989,
      "Main Workers Agricultural Labourers - Males": 2888,
      "Marginal Workers Other worked for 0 - 3 moths during last year - Persons": 1510,
      "Currently married women married below 18years of age in percentage DLHS-4": 3.7,
      "Person Illiterates": 105865,
      "Main Workers Household Industry - Females": 1528,
      "Female Literates": 87766,
      "Marginal Workers Cultivators worked for 0 - 3 moths during last year - Males": 23,
      "Male": "NA",
      "Households with improved source of drinking water in percentage DLHS-4": "Not available",
      "Upper Primary Schools with electricity in percentage DISE": "NA",
      "Households with electricity in percentage DLHS-4": "Not available",
      "Villages with Primary Health Centre within 10km in percentage DLHS-4": 0,
      "Births to women aged 15-19years out of Total births in percentage DLHS-4": "Not available",
      "Prevalence of Anaemia in women aged 15-49years in percentage DLHS-4": "Not available",
      "Marginal Workers Agricultural Labourers worked for 3 - 6 moths during last year - Persons": 2693,
      "Main Workers Household Industry - Males": 2891,
      "Scheduled Tribe Females": 4367,
      "Marginal Workers worked for 0 - 3 moths during last year - Males": 1304,
      "Marginal Workers Other worked for 3 - 6 moths during last year - Males": 5767,
      "Primary Net Enrolment Ratio in percentage DISE": "NA",
      "Total": "NA",
      "Mean age at marriage for boys DLHS-4": 24.6,
      "Number of District Hospitals  DLHS-4": 0,
      "0-6 Age Group Females": 21085,
      "Marginal Workers Agricultural Labourers worked for 0 - 3 moths during last year - Persons": 435,
      "Marginal Workers Household Industry worked for 0 - 3 moths during last year - Males": 63,
      "Total Workers  Females": 18825,
      "Marginal Workers worked for 3 - 6 moths during last year - Females": 4965,
      "Institutional Deliveries in percentage DLHS-4": 91.6,
      "Marginal Workers Other - Males": 6888,
      "Total Workers  Males": 80256,
      "Main Workers - Females": 12978,
      "Primary Gross Enrolment Ratio in percentage DISE": "NA",
      "Main Workers Cultivators - Persons": 6558,
      "Marginal Workers Household Industry worked for 0 - 3 moths during last year - Females": 76,
      "Upper Primary Net Enrolment Ratio in percentage DISE": "NA",
      "Primary New Government Schools since 2003 in percentage DISE": "NA",
      "Tier": "Urban",
      "Marginal Workers Household Industry - Females": 607,
      "Primary Schools with electricity in percentage DISE": "NA",
      "Main Workers Other - Persons": 69670,
      "Marginal Workers Household Industry worked for 3 - 6 moths during last year - Females": 531,
      "Main Workers Cultivators - Males": 5242,
      "Main Workers Household Industry - Persons": 4419,
      "Marginal Workers Cultivators worked for 0 - 3 moths during last year - Persons": 102,
      "Scheduled Caste Males": 26084,
      "Marginal Workers - Persons": 14817,
      "Deliveries at home conducted by skilled health personnel in percentage DLHS-4": 36.8,
      "Villages with Sub-Health Centres within 3km in percentage DLHS-4": 0,
      "Upper Primary New Government Schools since 2003 in percentage DISE": "NA",
      "0-6 Age Group Males": 23527,
      "Primary Schools with drinking water facility in percentage DISE": "NA",
      "Non Workers - Persons": 213594,
      "Person Literates": 206810,
      "State": "MADHYA PRADESH",
      "Total Female Population": 149440,
      "Marginal Workers worked for 0 - 3 moths during last year - Persons": 2186,
      "Marginal Workers Cultivators - Females": 636,
      "Marginal Workers Other - Persons": 9678,
      "Sex Ratio": 915,
      "Scheduled Tribe Persons": 9141,
      "Marginal Workers Household Industry worked for 3 - 6 moths during last year - Males": 355,
      "Marginal Workers Agricultural Labourers - Females": 1814,
      "Mean age at marriage for girls DLHS-4": 22.4,
      "Households with solar energy as main source of lighting  Houselisting and Housing Census Data Tables- District Level , Census of India__4": 63,
      "District": "GUNA",
      "Households receiving treated tap water within premises in percentage Houselisting and Housing Census Data Tables- District Level , Census of India__1": 43.23691603,
      "Total Workers  Persons": 99081,
      "Households receiving treated tap water within premises  Houselisting and Housing Census Data Tables- District Level , Census of India__4": 24933,
      "Primary Female Teachers in percentage DISE": "NA",
      "Number of Households": 59360,
      "Main Workers Agricultural Labourers - Persons": 3617
    }
  ]
}