{
  "Total": [
    {
      "Marginal Workers Agricultural Labourers - Persons": 56593,
      "Marginal Workers Other - Females": 13237,
      "Marginal Workers Other worked for 0 - 3 moths during last year - Females": 2073,
      "Upper Primary Schools with boys toilet in percentage DISE": 100,
      "Total Population": 2032036,
      "Households with electricity as main source of lighting in percentage Houselisting and Housing Census Data Tables- District Level , Census of India": 83.0459669,
      "Primary Girl's Enrolment in percentage DISE": 49.8,
      "Marginal Workers worked for 3 - 6 moths during last year - Males": 58412,
      "Prevalence of Acute illness in percentage DLHS-4": "Not available",
      "Main Workers - Persons": 559845,
      "Main Workers Cultivators - Females": 11732,
      "Marginal Workers Agricultural Labourers worked for 3 - 6 moths during last year - Females": 23684,
      "Marginal Workers Other worked for 0 - 3 moths during last year - Males": 5090,
      "Upper Primary Schools with drinking water facility in percentage DISE": 100,
      "Primary Schools with girls toilet in percentage DISE": 100,
      "Marginal Workers worked for 3 - 6 moths during last year - Persons": 103532,
      "Upper Primary Drop Out Rate in percentage DISE": 25.9,
      "Prevalence of Anaemia in pregnant women aged 15-49years in percentage DLHS-4": "Not available",
      "Current use of any modern method of family planning in percentage DLHS-4": 56.3,
      "Marginal Workers Agricultural Labourers - Males": 27581,
      "Upper Primary Female Teachers in percentage DISE": 35.6,
      "Marginal Workers - Females": 56107,
      "Marginal Workers Other worked for 3 - 6 moths during last year - Persons": 39158,
      "Main Workers Agricultural Labourers - Females": 15546,
      "Marginal Workers Cultivators worked for 3 - 6 moths during last year - Females": 8315,
      "Households with no lighting  Houselisting and Housing Census Data Tables- District Level , Census of India__5": 1126,
      "Prevalence of Severe Anaemia  in percentage DLHS-4": "Not available",
      "Total unmet need for family planning in percentage DLHS-4": 18.7,
      "Main Workers Other - Males": 317479,
      "Children who received full vaccination in percentage DLHS-4": "Not available",
      "Marginal Workers Household Industry - Persons": 5004,
      "Primary Pupil-Teacher Ratio in percentage DISE": 24,
      "Marginal Workers Agricultural Labourers worked for 3 - 6 moths during last year - Males": 23490,
      "Scheduled Caste Females": 182714,
      "Marginal Workers Cultivators - Males": 6409,
      "Marginal Workers - Males": 69359,
      "Marginal Workers worked for 0 - 3 moths during last year - Females": 10987,
      "Households with main source of drinking water within premises in percentage Houselisting and Housing Census Data Tables- District Level , Census of India": 48.15875293,
      "Marginal Workers Household Industry worked for 3 - 6 moths during last year - Persons": 3753,
      "Upper Primary Girl's Enrolment in percentage DISE": 55.9,
      "Prevalence of Severe Anaemia in women aged 15-49years in percentage DLHS-4": "Not available",
      "Marginal Workers Agricultural Labourers worked for 0 - 3 moths during last year - Males": 4091,
      "Households with electricity as main source of lighting  Houselisting and Housing Census Data Tables- District Level , Census of India__3": 306859,
      "Households with computer or laptop with internet connection in percentage": 4.27,
      "PHCs functioning on a 24x7hours basis in percentage DLHS-4": "Not available",
      "Non Workers - Males": 541507,
      "Total Households in District Houselisting and Housing Census Data Tables- District Level , Census of India": 369505,
      "Upper Primary Schools with girls toilet in percentage DISE": 100,
      "Households with mobile phone in percentage": 57.56,
      "Households receiving untreated tap water within premises in percentage Houselisting and Housing Census Data Tables- District Level , Census of India__2": 4.673549749,
      "Marginal Workers Cultivators worked for 3 - 6 moths during last year - Males": 5132,
      "Prevalence of Anaemia  in percentage DLHS-4": "Not available",
      "Prevalence of Chronic illness in percentage DLHS-4": "Not available",
      "Households with solar energy as main source of lighting in percentage Houselisting and Housing Census Data Tables- District Level , Census of India__1": 0.400806484,
      "Marginal Workers Agricultural Labourers worked for 0 - 3 moths during last year - Females": 5328,
      "Main Workers - Males": 479461,
      "Female": 67.38,
      "Sno": 956,
      "Marginal Workers Other worked for 3 - 6 moths during last year - Females": 11164,
      "Marginal Workers Cultivators worked for 0 - 3 moths during last year - Females": 2824,
      "Scheduled Tribe Males": 37704,
      "Male Illiterates": 287213,
      "Prevalence of Severe Anaemia in pregnant women aged 15-49years in percentage DLHS-4": "Not available",
      "0-6 Age Group Persons": 261418,
      "Upper Primary Student-Classroom Ratio in percentage DISE": 19,
      "Currently married men married below 21years of age in percentage DLHS-4": 10.4,
      "Male Literates": 803114,
      "Households with no lighting in percentage Houselisting and Housing Census Data Tables- District Level , Census of India__2": 0.304732006,
      "Primary Drop Out Rate in percentage DISE": 3.6,
      "Marginal Workers Household Industry - Males": 2285,
      "Female Illiterates": 387613,
      "Main Workers Other - Females": 47985,
      "Marginal Workers Cultivators - Persons": 17548,
      "Upper Primary Gross Enrolment Ratio in percentage DISE": 152,
      "Scheduled Caste Persons": 393068,
      "Marginal Workers Cultivators worked for 3 - 6 moths during last year - Persons": 13447,
      "Households with landline phone in percentage": 4.3,
      "Total Households in District  Houselisting and Housing Census Data Tables- District Level , Census of India": 369505,
      "Upper Primary Pupil-Teacher Ratio in percentage DISE": 29,
      "Primary Student-Classroom Ratio in percentage DISE": 18,
      "Primary Schools with boys toilet in percentage DISE": 100.1,
      "Mean number of children ever born to women aged 40-49years  DLHS-4": "Not available",
      "Households receiving untreated tap water within premises  Houselisting and Housing Census Data Tables- District Level , Census of India__5": 17269,
      "Marginal Workers Household Industry worked for 0 - 3 moths during last year - Persons": 1251,
      "Total Male Population": 1090327,
      "Non Workers - Females": 805218,
      "Current use of family planning methods in percentage DLHS-4": 61.1,
      "Households with main source of drinking water within premises  Houselisting and Housing Census Data Tables- District Level , Census of India__3": 177949,
      "Main Workers Agricultural Labourers - Males": 48209,
      "Marginal Workers Other worked for 0 - 3 moths during last year - Persons": 7163,
      "Currently married women married below 18years of age in percentage DLHS-4": 2.7,
      "Person Illiterates": 674826,
      "Main Workers Household Industry - Females": 5121,
      "Female Literates": 554096,
      "Marginal Workers Cultivators worked for 0 - 3 moths during last year - Males": 1277,
      "Male": 84.7,
      "Households with improved source of drinking water in percentage DLHS-4": "Not available",
      "Upper Primary Schools with electricity in percentage DISE": 49.3,
      "Households with electricity in percentage DLHS-4": "Not available",
      "Villages with Primary Health Centre within 10km in percentage DLHS-4": "Not available",
      "Births to women aged 15-19years out of Total births in percentage DLHS-4": "Not available",
      "Prevalence of Anaemia in women aged 15-49years in percentage DLHS-4": "Not available",
      "Marginal Workers Agricultural Labourers worked for 3 - 6 moths during last year - Persons": 47174,
      "Main Workers Household Industry - Males": 12467,
      "Scheduled Tribe Females": 34429,
      "Marginal Workers worked for 0 - 3 moths during last year - Males": 10947,
      "Marginal Workers Other worked for 3 - 6 moths during last year - Males": 27994,
      "Primary Net Enrolment Ratio in percentage DISE": 100,
      "Total": 76.65,
      "Mean age at marriage for boys DLHS-4": 24.9,
      "Number of District Hospitals  DLHS-4": "Not available",
      "0-6 Age Group Females": 119320,
      "Marginal Workers Agricultural Labourers worked for 0 - 3 moths during last year - Persons": 9419,
      "Marginal Workers Household Industry worked for 0 - 3 moths during last year - Males": 489,
      "Total Workers  Females": 136491,
      "Marginal Workers worked for 3 - 6 moths during last year - Females": 45120,
      "Institutional Deliveries in percentage DLHS-4": 92.9,
      "Marginal Workers Other - Males": 33084,
      "Total Workers  Males": 548820,
      "Main Workers - Females": 80384,
      "Primary Gross Enrolment Ratio in percentage DISE": 175,
      "Main Workers Cultivators - Persons": 113038,
      "Marginal Workers Household Industry worked for 0 - 3 moths during last year - Females": 762,
      "Upper Primary Net Enrolment Ratio in percentage DISE": 100,
      "Primary New Government Schools since 2003 in percentage DISE": 4.9,
      "Tier": "Total",
      "Marginal Workers Household Industry - Females": 2719,
      "Primary Schools with electricity in percentage DISE": 30.7,
      "Main Workers Other - Persons": 365464,
      "Marginal Workers Household Industry worked for 3 - 6 moths during last year - Females": 1957,
      "Main Workers Cultivators - Males": 101306,
      "Main Workers Household Industry - Persons": 17588,
      "Marginal Workers Cultivators worked for 0 - 3 moths during last year - Persons": 4101,
      "Scheduled Caste Males": 210354,
      "Marginal Workers - Persons": 125466,
      "Deliveries at home conducted by skilled health personnel in percentage DLHS-4": 48.2,
      "Villages with Sub-Health Centres within 3km in percentage DLHS-4": "Not available",
      "Upper Primary New Government Schools since 2003 in percentage DISE": 29.1,
      "0-6 Age Group Males": 142098,
      "Primary Schools with drinking water facility in percentage DISE": 100,
      "Non Workers - Persons": 1346725,
      "Person Literates": 1357210,
      "State": "MADHYA PRADESH",
      "Total Female Population": 941709,
      "Marginal Workers worked for 0 - 3 moths during last year - Persons": 21934,
      "Marginal Workers Cultivators - Females": 11139,
      "Marginal Workers Other - Persons": 46321,
      "Sex Ratio": 864,
      "Scheduled Tribe Persons": 72133,
      "Marginal Workers Household Industry worked for 3 - 6 moths during last year - Males": 1796,
      "Marginal Workers Agricultural Labourers - Females": 29012,
      "Mean age at marriage for girls DLHS-4": 22.2,
      "Households with solar energy as main source of lighting  Houselisting and Housing Census Data Tables- District Level , Census of India__4": 1481,
      "District": "GWALIOR",
      "Households receiving treated tap water within premises in percentage Houselisting and Housing Census Data Tables- District Level , Census of India__1": 31.44395881,
      "Total Workers  Persons": 685311,
      "Households receiving treated tap water within premises  Houselisting and Housing Census Data Tables- District Level , Census of India__4": 116187,
      "Primary Female Teachers in percentage DISE": 39.2,
      "Number of Households": 383845,
      "Main Workers Agricultural Labourers - Persons": 63755
    }
  ],
  "Rural": [
    {
      "Marginal Workers Agricultural Labourers - Persons": 51784,
      "Marginal Workers Other - Females": 4573,
      "Marginal Workers Other worked for 0 - 3 moths during last year - Females": 921,
      "Upper Primary Schools with boys toilet in percentage DISE": "NA",
      "Total Population": 758244,
      "Households with electricity as main source of lighting in percentage Houselisting and Housing Census Data Tables- District Level , Census of India": 61.43967252,
      "Primary Girl's Enrolment in percentage DISE": "NA",
      "Marginal Workers worked for 3 - 6 moths during last year - Males": 32792,
      "Prevalence of Acute illness in percentage DLHS-4": "Not available",
      "Main Workers - Persons": 204291,
      "Main Workers Cultivators - Females": 10702,
      "Marginal Workers Agricultural Labourers worked for 3 - 6 moths during last year - Females": 22290,
      "Marginal Workers Other worked for 0 - 3 moths during last year - Males": 1291,
      "Upper Primary Schools with drinking water facility in percentage DISE": "NA",
      "Primary Schools with girls toilet in percentage DISE": "NA",
      "Marginal Workers worked for 3 - 6 moths during last year - Persons": 67570,
      "Upper Primary Drop Out Rate in percentage DISE": "NA",
      "Prevalence of Anaemia in pregnant women aged 15-49years in percentage DLHS-4": "Not available",
      "Current use of any modern method of family planning in percentage DLHS-4": 58.7,
      "Marginal Workers Agricultural Labourers - Males": 24574,
      "Upper Primary Female Teachers in percentage DISE": "NA",
      "Marginal Workers - Females": 43753,
      "Marginal Workers Other worked for 3 - 6 moths during last year - Persons": 10358,
      "Main Workers Agricultural Labourers - Females": 14066,
      "Marginal Workers Cultivators worked for 3 - 6 moths during last year - Females": 7903,
      "Households with no lighting  Houselisting and Housing Census Data Tables- District Level , Census of India__5": 587,
      "Prevalence of Severe Anaemia  in percentage DLHS-4": "Not available",
      "Total unmet need for family planning in percentage DLHS-4": 19,
      "Main Workers Other - Males": 37706,
      "Children who received full vaccination in percentage DLHS-4": "Not available",
      "Marginal Workers Household Industry - Persons": 2295,
      "Primary Pupil-Teacher Ratio in percentage DISE": "NA",
      "Marginal Workers Agricultural Labourers worked for 3 - 6 moths during last year - Males": 20976,
      "Scheduled Caste Females": 74527,
      "Marginal Workers Cultivators - Males": 5634,
      "Marginal Workers - Males": 39107,
      "Marginal Workers worked for 0 - 3 moths during last year - Females": 8975,
      "Households with main source of drinking water within premises in percentage Houselisting and Housing Census Data Tables- District Level , Census of India": 13.10691737,
      "Marginal Workers Household Industry worked for 3 - 6 moths during last year - Persons": 1593,
      "Upper Primary Girl's Enrolment in percentage DISE": "NA",
      "Prevalence of Severe Anaemia in women aged 15-49years in percentage DLHS-4": "Not available",
      "Marginal Workers Agricultural Labourers worked for 0 - 3 moths during last year - Males": 3598,
      "Households with electricity as main source of lighting  Houselisting and Housing Census Data Tables- District Level , Census of India__3": 88553,
      "Households with computer or laptop with internet connection in percentage": 0.29,
      "PHCs functioning on a 24x7hours basis in percentage DLHS-4": "Not applicable",
      "Non Workers - Males": 198873,
      "Total Households in District Houselisting and Housing Census Data Tables- District Level , Census of India": 144130,
      "Upper Primary Schools with girls toilet in percentage DISE": "NA",
      "Households with mobile phone in percentage": 49.93,
      "Households receiving untreated tap water within premises in percentage Houselisting and Housing Census Data Tables- District Level , Census of India__2": 2.030111705,
      "Marginal Workers Cultivators worked for 3 - 6 moths during last year - Males": 4450,
      "Prevalence of Anaemia  in percentage DLHS-4": "Not available",
      "Prevalence of Chronic illness in percentage DLHS-4": "Not available",
      "Households with solar energy as main source of lighting in percentage Houselisting and Housing Census Data Tables- District Level , Census of India__1": 0.922778048,
      "Marginal Workers Agricultural Labourers worked for 0 - 3 moths during last year - Females": 4920,
      "Main Workers - Males": 171369,
      "Female": "NA",
      "Sno": 955,
      "Marginal Workers Other worked for 3 - 6 moths during last year - Females": 3652,
      "Marginal Workers Cultivators worked for 0 - 3 moths during last year - Females": 2674,
      "Scheduled Tribe Males": 28381,
      "Male Illiterates": 142332,
      "Prevalence of Severe Anaemia in pregnant women aged 15-49years in percentage DLHS-4": "Not available",
      "0-6 Age Group Persons": 114953,
      "Upper Primary Student-Classroom Ratio in percentage DISE": "NA",
      "Currently married men married below 21years of age in percentage DLHS-4": 20.4,
      "Male Literates": 267017,
      "Households with no lighting in percentage Houselisting and Housing Census Data Tables- District Level , Census of India__2": 0.407271213,
      "Primary Drop Out Rate in percentage DISE": "NA",
      "Marginal Workers Household Industry - Males": 902,
      "Female Illiterates": 196551,
      "Main Workers Other - Females": 6993,
      "Marginal Workers Cultivators - Persons": 16211,
      "Upper Primary Gross Enrolment Ratio in percentage DISE": "NA",
      "Scheduled Caste Persons": 161091,
      "Marginal Workers Cultivators worked for 3 - 6 moths during last year - Persons": 12353,
      "Households with landline phone in percentage": 1.76,
      "Total Households in District  Houselisting and Housing Census Data Tables- District Level , Census of India": 144130,
      "Upper Primary Pupil-Teacher Ratio in percentage DISE": "NA",
      "Primary Student-Classroom Ratio in percentage DISE": "NA",
      "Primary Schools with boys toilet in percentage DISE": "NA",
      "Mean number of children ever born to women aged 40-49years  DLHS-4": "Not available",
      "Households receiving untreated tap water within premises  Houselisting and Housing Census Data Tables- District Level , Census of India__5": 2926,
      "Marginal Workers Household Industry worked for 0 - 3 moths during last year - Persons": 702,
      "Total Male Population": 409349,
      "Non Workers - Females": 272220,
      "Current use of family planning methods in percentage DLHS-4": 64.6,
      "Households with main source of drinking water within premises  Houselisting and Housing Census Data Tables- District Level , Census of India__3": 18891,
      "Main Workers Agricultural Labourers - Males": 40910,
      "Marginal Workers Other worked for 0 - 3 moths during last year - Persons": 2212,
      "Currently married women married below 18years of age in percentage DLHS-4": 5.9,
      "Person Illiterates": 338883,
      "Main Workers Household Industry - Females": 1161,
      "Female Literates": 152344,
      "Marginal Workers Cultivators worked for 0 - 3 moths during last year - Males": 1184,
      "Male": "NA",
      "Households with improved source of drinking water in percentage DLHS-4": "Not available",
      "Upper Primary Schools with electricity in percentage DISE": "NA",
      "Households with electricity in percentage DLHS-4": "Not available",
      "Villages with Primary Health Centre within 10km in percentage DLHS-4": "Not applicable",
      "Births to women aged 15-19years out of Total births in percentage DLHS-4": "Not available",
      "Prevalence of Anaemia in women aged 15-49years in percentage DLHS-4": "Not available",
      "Marginal Workers Agricultural Labourers worked for 3 - 6 moths during last year - Persons": 43266,
      "Main Workers Household Industry - Males": 2824,
      "Scheduled Tribe Females": 26396,
      "Marginal Workers worked for 0 - 3 moths during last year - Males": 6315,
      "Marginal Workers Other worked for 3 - 6 moths during last year - Males": 6706,
      "Primary Net Enrolment Ratio in percentage DISE": "NA",
      "Total": "NA",
      "Mean age at marriage for boys DLHS-4": 22.8,
      "Number of District Hospitals  DLHS-4": "Not applicable",
      "0-6 Age Group Females": 52599,
      "Marginal Workers Agricultural Labourers worked for 0 - 3 moths during last year - Persons": 8518,
      "Marginal Workers Household Industry worked for 0 - 3 moths during last year - Males": 242,
      "Total Workers  Females": 76675,
      "Marginal Workers worked for 3 - 6 moths during last year - Females": 34778,
      "Institutional Deliveries in percentage DLHS-4": 92.8,
      "Marginal Workers Other - Males": 7997,
      "Total Workers  Males": 210476,
      "Main Workers - Females": 32922,
      "Primary Gross Enrolment Ratio in percentage DISE": "NA",
      "Main Workers Cultivators - Persons": 100631,
      "Marginal Workers Household Industry worked for 0 - 3 moths during last year - Females": 460,
      "Upper Primary Net Enrolment Ratio in percentage DISE": "NA",
      "Primary New Government Schools since 2003 in percentage DISE": "NA",
      "Tier": "Rural",
      "Marginal Workers Household Industry - Females": 1393,
      "Primary Schools with electricity in percentage DISE": "NA",
      "Main Workers Other - Persons": 44699,
      "Marginal Workers Household Industry worked for 3 - 6 moths during last year - Females": 933,
      "Main Workers Cultivators - Males": 89929,
      "Main Workers Household Industry - Persons": 3985,
      "Marginal Workers Cultivators worked for 0 - 3 moths during last year - Persons": 3858,
      "Scheduled Caste Males": 86564,
      "Marginal Workers - Persons": 82860,
      "Deliveries at home conducted by skilled health personnel in percentage DLHS-4": 42.1,
      "Villages with Sub-Health Centres within 3km in percentage DLHS-4": "Not applicable",
      "Upper Primary New Government Schools since 2003 in percentage DISE": "NA",
      "0-6 Age Group Males": 62354,
      "Primary Schools with drinking water facility in percentage DISE": "NA",
      "Non Workers - Persons": 471093,
      "Person Literates": 419361,
      "State": "MADHYA PRADESH",
      "Total Female Population": 348895,
      "Marginal Workers worked for 0 - 3 moths during last year - Persons": 15290,
      "Marginal Workers Cultivators - Females": 10577,
      "Marginal Workers Other - Persons": 12570,
      "Sex Ratio": 852,
      "Scheduled Tribe Persons": 54777,
      "Marginal Workers Household Industry worked for 3 - 6 moths during last year - Males": 660,
      "Marginal Workers Agricultural Labourers - Females": 27210,
      "Mean age at marriage for girls DLHS-4": 20.6,
      "Households with solar energy as main source of lighting  Houselisting and Housing Census Data Tables- District Level , Census of India__4": 1330,
      "District": "GWALIOR",
      "Households receiving treated tap water within premises in percentage Houselisting and Housing Census Data Tables- District Level , Census of India__1": 2.225074585,
      "Total Workers  Persons": 287151,
      "Households receiving treated tap water within premises  Houselisting and Housing Census Data Tables- District Level , Census of India__4": 3207,
      "Primary Female Teachers in percentage DISE": "NA",
      "Number of Households": 144494,
      "Main Workers Agricultural Labourers - Persons": 54976
    }
  ],
  "Urban": [
    {
      "Marginal Workers Agricultural Labourers - Persons": 4809,
      "Marginal Workers Other - Females": 8664,
      "Marginal Workers Other worked for 0 - 3 moths during last year - Females": 1152,
      "Upper Primary Schools with boys toilet in percentage DISE": "NA",
      "Total Population": 1273792,
      "Households with electricity as main source of lighting in percentage Houselisting and Housing Census Data Tables- District Level , Census of India": 96.86344981,
      "Primary Girl's Enrolment in percentage DISE": "NA",
      "Marginal Workers worked for 3 - 6 moths during last year - Males": 25620,
      "Prevalence of Acute illness in percentage DLHS-4": "Not available",
      "Main Workers - Persons": 355554,
      "Main Workers Cultivators - Females": 1030,
      "Marginal Workers Agricultural Labourers worked for 3 - 6 moths during last year - Females": 1394,
      "Marginal Workers Other worked for 0 - 3 moths during last year - Males": 3799,
      "Upper Primary Schools with drinking water facility in percentage DISE": "NA",
      "Primary Schools with girls toilet in percentage DISE": "NA",
      "Marginal Workers worked for 3 - 6 moths during last year - Persons": 35962,
      "Upper Primary Drop Out Rate in percentage DISE": "NA",
      "Prevalence of Anaemia in pregnant women aged 15-49years in percentage DLHS-4": "Not available",
      "Current use of any modern method of family planning in percentage DLHS-4": 55.3,
      "Marginal Workers Agricultural Labourers - Males": 3007,
      "Upper Primary Female Teachers in percentage DISE": "NA",
      "Marginal Workers - Females": 12354,
      "Marginal Workers Other worked for 3 - 6 moths during last year - Persons": 28800,
      "Main Workers Agricultural Labourers - Females": 1480,
      "Marginal Workers Cultivators worked for 3 - 6 moths during last year - Females": 412,
      "Households with no lighting  Houselisting and Housing Census Data Tables- District Level , Census of India__5": 539,
      "Prevalence of Severe Anaemia  in percentage DLHS-4": "Not available",
      "Total unmet need for family planning in percentage DLHS-4": 18.6,
      "Main Workers Other - Males": 279773,
      "Children who received full vaccination in percentage DLHS-4": "Not available",
      "Marginal Workers Household Industry - Persons": 2709,
      "Primary Pupil-Teacher Ratio in percentage DISE": "NA",
      "Marginal Workers Agricultural Labourers worked for 3 - 6 moths during last year - Males": 2514,
      "Scheduled Caste Females": 108187,
      "Marginal Workers Cultivators - Males": 775,
      "Marginal Workers - Males": 30252,
      "Marginal Workers worked for 0 - 3 moths during last year - Females": 2012,
      "Households with main source of drinking water within premises in percentage Houselisting and Housing Census Data Tables- District Level , Census of India": 70.57481974,
      "Marginal Workers Household Industry worked for 3 - 6 moths during last year - Persons": 2160,
      "Upper Primary Girl's Enrolment in percentage DISE": "NA",
      "Prevalence of Severe Anaemia in women aged 15-49years in percentage DLHS-4": "Not available",
      "Marginal Workers Agricultural Labourers worked for 0 - 3 moths during last year - Males": 493,
      "Households with electricity as main source of lighting  Houselisting and Housing Census Data Tables- District Level , Census of India__3": 218306,
      "Households with computer or laptop with internet connection in percentage": 6.82,
      "PHCs functioning on a 24x7hours basis in percentage DLHS-4": 0,
      "Non Workers - Males": 342634,
      "Total Households in District Houselisting and Housing Census Data Tables- District Level , Census of India": 225375,
      "Upper Primary Schools with girls toilet in percentage DISE": "NA",
      "Households with mobile phone in percentage": 62.73,
      "Households receiving untreated tap water within premises in percentage Houselisting and Housing Census Data Tables- District Level , Census of India__2": 6.3640599,
      "Marginal Workers Cultivators worked for 3 - 6 moths during last year - Males": 682,
      "Prevalence of Anaemia  in percentage DLHS-4": "Not available",
      "Prevalence of Chronic illness in percentage DLHS-4": "Not available",
      "Households with solar energy as main source of lighting in percentage Houselisting and Housing Census Data Tables- District Level , Census of India__1": 0.067,
      "Marginal Workers Agricultural Labourers worked for 0 - 3 moths during last year - Females": 408,
      "Main Workers - Males": 308092,
      "Female": "NA",
      "Sno": 957,
      "Marginal Workers Other worked for 3 - 6 moths during last year - Females": 7512,
      "Marginal Workers Cultivators worked for 0 - 3 moths during last year - Females": 150,
      "Scheduled Tribe Males": 9323,
      "Male Illiterates": 144881,
      "Prevalence of Severe Anaemia in pregnant women aged 15-49years in percentage DLHS-4": "Not available",
      "0-6 Age Group Persons": 146465,
      "Upper Primary Student-Classroom Ratio in percentage DISE": "NA",
      "Currently married men married below 21years of age in percentage DLHS-4": 7.1,
      "Male Literates": 536097,
      "Households with no lighting in percentage Houselisting and Housing Census Data Tables- District Level , Census of India__2": 0.239156961,
      "Primary Drop Out Rate in percentage DISE": "NA",
      "Marginal Workers Household Industry - Males": 1383,
      "Female Illiterates": 191062,
      "Main Workers Other - Females": 40992,
      "Marginal Workers Cultivators - Persons": 1337,
      "Upper Primary Gross Enrolment Ratio in percentage DISE": "NA",
      "Scheduled Caste Persons": 231977,
      "Marginal Workers Cultivators worked for 3 - 6 moths during last year - Persons": 1094,
      "Households with landline phone in percentage": 5.92,
      "Total Households in District  Houselisting and Housing Census Data Tables- District Level , Census of India": 225375,
      "Upper Primary Pupil-Teacher Ratio in percentage DISE": "NA",
      "Primary Student-Classroom Ratio in percentage DISE": "NA",
      "Primary Schools with boys toilet in percentage DISE": "NA",
      "Mean number of children ever born to women aged 40-49years  DLHS-4": "Not available",
      "Households receiving untreated tap water within premises  Houselisting and Housing Census Data Tables- District Level , Census of India__5": 14343,
      "Marginal Workers Household Industry worked for 0 - 3 moths during last year - Persons": 549,
      "Total Male Population": 680978,
      "Non Workers - Females": 532998,
      "Current use of family planning methods in percentage DLHS-4": 59.7,
      "Households with main source of drinking water within premises  Houselisting and Housing Census Data Tables- District Level , Census of India__3": 159058,
      "Main Workers Agricultural Labourers - Males": 7299,
      "Marginal Workers Other worked for 0 - 3 moths during last year - Persons": 4951,
      "Currently married women married below 18years of age in percentage DLHS-4": 1.6,
      "Person Illiterates": 335943,
      "Main Workers Household Industry - Females": 3960,
      "Female Literates": 401752,
      "Marginal Workers Cultivators worked for 0 - 3 moths during last year - Males": 93,
      "Male": "NA",
      "Households with improved source of drinking water in percentage DLHS-4": "Not available",
      "Upper Primary Schools with electricity in percentage DISE": "NA",
      "Households with electricity in percentage DLHS-4": "Not available",
      "Villages with Primary Health Centre within 10km in percentage DLHS-4": 0,
      "Births to women aged 15-19years out of Total births in percentage DLHS-4": "Not available",
      "Prevalence of Anaemia in women aged 15-49years in percentage DLHS-4": "Not available",
      "Marginal Workers Agricultural Labourers worked for 3 - 6 moths during last year - Persons": 3908,
      "Main Workers Household Industry - Males": 9643,
      "Scheduled Tribe Females": 8033,
      "Marginal Workers worked for 0 - 3 moths during last year - Males": 4632,
      "Marginal Workers Other worked for 3 - 6 moths during last year - Males": 21288,
      "Primary Net Enrolment Ratio in percentage DISE": "NA",
      "Total": "NA",
      "Mean age at marriage for boys DLHS-4": 25.7,
      "Number of District Hospitals  DLHS-4": 0,
      "0-6 Age Group Females": 66721,
      "Marginal Workers Agricultural Labourers worked for 0 - 3 moths during last year - Persons": 901,
      "Marginal Workers Household Industry worked for 0 - 3 moths during last year - Males": 247,
      "Total Workers  Females": 59816,
      "Marginal Workers worked for 3 - 6 moths during last year - Females": 10342,
      "Institutional Deliveries in percentage DLHS-4": 92.9,
      "Marginal Workers Other - Males": 25087,
      "Total Workers  Males": 338344,
      "Main Workers - Females": 47462,
      "Primary Gross Enrolment Ratio in percentage DISE": "NA",
      "Main Workers Cultivators - Persons": 12407,
      "Marginal Workers Household Industry worked for 0 - 3 moths during last year - Females": 302,
      "Upper Primary Net Enrolment Ratio in percentage DISE": "NA",
      "Primary New Government Schools since 2003 in percentage DISE": "NA",
      "Tier": "Urban",
      "Marginal Workers Household Industry - Females": 1326,
      "Primary Schools with electricity in percentage DISE": "NA",
      "Main Workers Other - Persons": 320765,
      "Marginal Workers Household Industry worked for 3 - 6 moths during last year - Females": 1024,
      "Main Workers Cultivators - Males": 11377,
      "Main Workers Household Industry - Persons": 13603,
      "Marginal Workers Cultivators worked for 0 - 3 moths during last year - Persons": 243,
      "Scheduled Caste Males": 123790,
      "Marginal Workers - Persons": 42606,
      "Deliveries at home conducted by skilled health personnel in percentage DLHS-4": 51.4,
      "Villages with Sub-Health Centres within 3km in percentage DLHS-4": 0,
      "Upper Primary New Government Schools since 2003 in percentage DISE": "NA",
      "0-6 Age Group Males": 79744,
      "Primary Schools with drinking water facility in percentage DISE": "NA",
      "Non Workers - Persons": 875632,
      "Person Literates": 937849,
      "State": "MADHYA PRADESH",
      "Total Female Population": 592814,
      "Marginal Workers worked for 0 - 3 moths during last year - Persons": 6644,
      "Marginal Workers Cultivators - Females": 562,
      "Marginal Workers Other - Persons": 33751,
      "Sex Ratio": 871,
      "Scheduled Tribe Persons": 17356,
      "Marginal Workers Household Industry worked for 3 - 6 moths during last year - Males": 1136,
      "Marginal Workers Agricultural Labourers - Females": 1802,
      "Mean age at marriage for girls DLHS-4": 22.8,
      "Households with solar energy as main source of lighting  Houselisting and Housing Census Data Tables- District Level , Census of India__4": 151,
      "District": "GWALIOR",
      "Households receiving treated tap water within premises in percentage Houselisting and Housing Census Data Tables- District Level , Census of India__1": 50.12978369,
      "Total Workers  Persons": 398160,
      "Households receiving treated tap water within premises  Houselisting and Housing Census Data Tables- District Level , Census of India__4": 112980,
      "Primary Female Teachers in percentage DISE": "NA",
      "Number of Households": 239351,
      "Main Workers Agricultural Labourers - Persons": 8779
    }
  ]
}