{
  "Total": [
    {
      "Marginal Workers Agricultural Labourers - Persons": 129476,
      "Marginal Workers Other - Females": 13558,
      "Marginal Workers Other worked for 0 - 3 moths during last year - Females": 2349,
      "Upper Primary Schools with boys toilet in percentage DISE": 99.6,
      "Total Population": 2378458,
      "Households with electricity as main source of lighting in percentage Houselisting and Housing Census Data Tables- District Level , Census of India": 71.95256746,
      "Primary Girl's Enrolment in percentage DISE": 49.8,
      "Marginal Workers worked for 3 - 6 moths during last year - Males": 82246,
      "Prevalence of Acute illness in percentage DLHS-4": "Not available",
      "Main Workers - Persons": 779093,
      "Main Workers Cultivators - Females": 22921,
      "Marginal Workers Agricultural Labourers worked for 3 - 6 moths during last year - Females": 59857,
      "Marginal Workers Other worked for 0 - 3 moths during last year - Males": 3103,
      "Upper Primary Schools with drinking water facility in percentage DISE": 96.5,
      "Primary Schools with girls toilet in percentage DISE": 99.8,
      "Marginal Workers worked for 3 - 6 moths during last year - Persons": 191164,
      "Upper Primary Drop Out Rate in percentage DISE": 5.17,
      "Prevalence of Anaemia in pregnant women aged 15-49years in percentage DLHS-4": "Not available",
      "Current use of any modern method of family planning in percentage DLHS-4": 51.2,
      "Marginal Workers Agricultural Labourers - Males": 57544,
      "Upper Primary Female Teachers in percentage DISE": 37.1,
      "Marginal Workers - Females": 129981,
      "Marginal Workers Other worked for 3 - 6 moths during last year - Persons": 30752,
      "Main Workers Agricultural Labourers - Females": 66555,
      "Marginal Workers Cultivators worked for 3 - 6 moths during last year - Females": 11210,
      "Households with no lighting  Houselisting and Housing Census Data Tables- District Level , Census of India__5": 1151,
      "Prevalence of Severe Anaemia  in percentage DLHS-4": "Not available",
      "Total unmet need for family planning in percentage DLHS-4": 17.3,
      "Main Workers Other - Males": 203859,
      "Children who received full vaccination in percentage DLHS-4": "Not available",
      "Marginal Workers Household Industry - Persons": 38397,
      "Primary Pupil-Teacher Ratio in percentage DISE": 32,
      "Marginal Workers Agricultural Labourers worked for 3 - 6 moths during last year - Males": 48972,
      "Scheduled Caste Females": 235324,
      "Marginal Workers Cultivators - Males": 8606,
      "Marginal Workers - Males": 96961,
      "Marginal Workers worked for 0 - 3 moths during last year - Females": 21063,
      "Households with main source of drinking water within premises in percentage Houselisting and Housing Census Data Tables- District Level , Census of India": 21.11238723,
      "Marginal Workers Household Industry worked for 3 - 6 moths during last year - Persons": 33590,
      "Upper Primary Girl's Enrolment in percentage DISE": 52.6,
      "Prevalence of Severe Anaemia in women aged 15-49years in percentage DLHS-4": "Not available",
      "Marginal Workers Agricultural Labourers worked for 0 - 3 moths during last year - Males": 8572,
      "Households with electricity as main source of lighting  Houselisting and Housing Census Data Tables- District Level , Census of India__3": 366494,
      "Households with computer or laptop with internet connection in percentage": 0.89,
      "PHCs functioning on a 24x7hours basis in percentage DLHS-4": "Not available",
      "Non Workers - Males": 574180,
      "Total Households in District Houselisting and Housing Census Data Tables- District Level , Census of India": 509355,
      "Upper Primary Schools with girls toilet in percentage DISE": 99.6,
      "Households with mobile phone in percentage": 37.58,
      "Households receiving untreated tap water within premises in percentage Houselisting and Housing Census Data Tables- District Level , Census of India__2": 1.505825996,
      "Marginal Workers Cultivators worked for 3 - 6 moths during last year - Males": 6783,
      "Prevalence of Anaemia  in percentage DLHS-4": "Not available",
      "Prevalence of Chronic illness in percentage DLHS-4": "Not available",
      "Households with solar energy as main source of lighting in percentage Houselisting and Housing Census Data Tables- District Level , Census of India__1": 0.126827066,
      "Marginal Workers Agricultural Labourers worked for 0 - 3 moths during last year - Females": 12075,
      "Main Workers - Males": 585116,
      "Female": 67.02,
      "Sno": 1007,
      "Marginal Workers Other worked for 3 - 6 moths during last year - Females": 11209,
      "Marginal Workers Cultivators worked for 0 - 3 moths during last year - Females": 3049,
      "Scheduled Tribe Males": 114771,
      "Male Illiterates": 347650,
      "Prevalence of Severe Anaemia in pregnant women aged 15-49years in percentage DLHS-4": "Not available",
      "0-6 Age Group Persons": 356903,
      "Upper Primary Student-Classroom Ratio in percentage DISE": 33,
      "Currently married men married below 21years of age in percentage DLHS-4": 14.1,
      "Male Literates": 908607,
      "Households with no lighting in percentage Houselisting and Housing Census Data Tables- District Level , Census of India__2": 0.225972063,
      "Primary Drop Out Rate in percentage DISE": 2.6,
      "Marginal Workers Household Industry - Males": 8165,
      "Female Illiterates": 485089,
      "Main Workers Other - Females": 43354,
      "Marginal Workers Cultivators - Persons": 22865,
      "Upper Primary Gross Enrolment Ratio in percentage DISE": 102.3,
      "Scheduled Caste Persons": 501630,
      "Marginal Workers Cultivators worked for 3 - 6 moths during last year - Persons": 17993,
      "Households with landline phone in percentage": 2.06,
      "Total Households in District  Houselisting and Housing Census Data Tables- District Level , Census of India": 509355,
      "Upper Primary Pupil-Teacher Ratio in percentage DISE": 44,
      "Primary Student-Classroom Ratio in percentage DISE": 24,
      "Primary Schools with boys toilet in percentage DISE": 100.2,
      "Mean number of children ever born to women aged 40-49years  DLHS-4": "Not available",
      "Households receiving untreated tap water within premises  Houselisting and Housing Census Data Tables- District Level , Census of India__5": 7670,
      "Marginal Workers Household Industry worked for 0 - 3 moths during last year - Persons": 4807,
      "Total Male Population": 1256257,
      "Non Workers - Females": 798243,
      "Current use of family planning methods in percentage DLHS-4": 63.5,
      "Households with main source of drinking water within premises  Houselisting and Housing Census Data Tables- District Level , Census of India__3": 107537,
      "Main Workers Agricultural Labourers - Males": 182529,
      "Marginal Workers Other worked for 0 - 3 moths during last year - Persons": 5452,
      "Currently married women married below 18years of age in percentage DLHS-4": 8.2,
      "Person Illiterates": 832739,
      "Main Workers Household Industry - Females": 61147,
      "Female Literates": 637112,
      "Marginal Workers Cultivators worked for 0 - 3 moths during last year - Males": 1823,
      "Male": 84.85,
      "Households with improved source of drinking water in percentage DLHS-4": "Not available",
      "Upper Primary Schools with electricity in percentage DISE": 18.6,
      "Households with electricity in percentage DLHS-4": "Not available",
      "Villages with Primary Health Centre within 10km in percentage DLHS-4": "Not available",
      "Births to women aged 15-19years out of Total births in percentage DLHS-4": "Not available",
      "Prevalence of Anaemia in women aged 15-49years in percentage DLHS-4": "Not available",
      "Marginal Workers Agricultural Labourers worked for 3 - 6 moths during last year - Persons": 108829,
      "Main Workers Household Industry - Males": 40914,
      "Scheduled Tribe Females": 107165,
      "Marginal Workers worked for 0 - 3 moths during last year - Males": 14715,
      "Marginal Workers Other worked for 3 - 6 moths during last year - Males": 19543,
      "Primary Net Enrolment Ratio in percentage DISE": 93.2,
      "Total": 76.46,
      "Mean age at marriage for boys DLHS-4": 24.1,
      "Number of District Hospitals  DLHS-4": "Not available",
      "0-6 Age Group Females": 171503,
      "Marginal Workers Agricultural Labourers worked for 0 - 3 moths during last year - Persons": 20647,
      "Marginal Workers Household Industry worked for 0 - 3 moths during last year - Males": 1217,
      "Total Workers  Females": 323958,
      "Marginal Workers worked for 3 - 6 moths during last year - Females": 108918,
      "Institutional Deliveries in percentage DLHS-4": 72.1,
      "Marginal Workers Other - Males": 22646,
      "Total Workers  Males": 682077,
      "Main Workers - Females": 193977,
      "Primary Gross Enrolment Ratio in percentage DISE": 110.6,
      "Main Workers Cultivators - Persons": 180735,
      "Marginal Workers Household Industry worked for 0 - 3 moths during last year - Females": 3590,
      "Upper Primary Net Enrolment Ratio in percentage DISE": 76,
      "Primary New Government Schools since 2003 in percentage DISE": 5.9,
      "Tier": "Total",
      "Marginal Workers Household Industry - Females": 30232,
      "Primary Schools with electricity in percentage DISE": 6.6,
      "Main Workers Other - Persons": 247213,
      "Marginal Workers Household Industry worked for 3 - 6 moths during last year - Females": 26642,
      "Main Workers Cultivators - Males": 157814,
      "Main Workers Household Industry - Persons": 102061,
      "Marginal Workers Cultivators worked for 0 - 3 moths during last year - Persons": 4872,
      "Scheduled Caste Males": 266306,
      "Marginal Workers - Persons": 226942,
      "Deliveries at home conducted by skilled health personnel in percentage DLHS-4": 25.7,
      "Villages with Sub-Health Centres within 3km in percentage DLHS-4": "Not available",
      "Upper Primary New Government Schools since 2003 in percentage DISE": 37.2,
      "0-6 Age Group Males": 185400,
      "Primary Schools with drinking water facility in percentage DISE": 98.4,
      "Non Workers - Persons": 1372423,
      "Person Literates": 1545719,
      "State": "MADHYA PRADESH",
      "Total Female Population": 1122201,
      "Marginal Workers worked for 0 - 3 moths during last year - Persons": 35778,
      "Marginal Workers Cultivators - Females": 14259,
      "Marginal Workers Other - Persons": 36204,
      "Sex Ratio": 893,
      "Scheduled Tribe Persons": 221936,
      "Marginal Workers Household Industry worked for 3 - 6 moths during last year - Males": 6948,
      "Marginal Workers Agricultural Labourers - Females": 71932,
      "Mean age at marriage for girls DLHS-4": 20.7,
      "Households with solar energy as main source of lighting  Houselisting and Housing Census Data Tables- District Level , Census of India__4": 646,
      "District": "SAGAR",
      "Households receiving treated tap water within premises in percentage Houselisting and Housing Census Data Tables- District Level , Census of India__1": 10.0179639,
      "Total Workers  Persons": 1006035,
      "Households receiving treated tap water within premises  Houselisting and Housing Census Data Tables- District Level , Census of India__4": 51027,
      "Primary Female Teachers in percentage DISE": 33.4,
      "Number of Households": 517850,
      "Main Workers Agricultural Labourers - Persons": 249084
    }
  ],
  "Rural": [
    {
      "Marginal Workers Agricultural Labourers - Persons": 126640,
      "Marginal Workers Other - Females": 8534,
      "Marginal Workers Other worked for 0 - 3 moths during last year - Females": 1797,
      "Upper Primary Schools with boys toilet in percentage DISE": "NA",
      "Total Population": 1669662,
      "Households with electricity as main source of lighting in percentage Houselisting and Housing Census Data Tables- District Level , Census of India": 65.51018567,
      "Primary Girl's Enrolment in percentage DISE": "NA",
      "Marginal Workers worked for 3 - 6 moths during last year - Males": 68824,
      "Prevalence of Acute illness in percentage DLHS-4": "Not available",
      "Main Workers - Persons": 542762,
      "Main Workers Cultivators - Females": 21686,
      "Marginal Workers Agricultural Labourers worked for 3 - 6 moths during last year - Females": 58866,
      "Marginal Workers Other worked for 0 - 3 moths during last year - Males": 1892,
      "Upper Primary Schools with drinking water facility in percentage DISE": "NA",
      "Primary Schools with girls toilet in percentage DISE": "NA",
      "Marginal Workers worked for 3 - 6 moths during last year - Persons": 167870,
      "Upper Primary Drop Out Rate in percentage DISE": "NA",
      "Prevalence of Anaemia in pregnant women aged 15-49years in percentage DLHS-4": "Not available",
      "Current use of any modern method of family planning in percentage DLHS-4": 48.5,
      "Marginal Workers Agricultural Labourers - Males": 55817,
      "Upper Primary Female Teachers in percentage DISE": "NA",
      "Marginal Workers - Females": 118726,
      "Marginal Workers Other worked for 3 - 6 moths during last year - Persons": 16098,
      "Main Workers Agricultural Labourers - Females": 64077,
      "Marginal Workers Cultivators worked for 3 - 6 moths during last year - Females": 10939,
      "Households with no lighting  Houselisting and Housing Census Data Tables- District Level , Census of India__5": 823,
      "Prevalence of Severe Anaemia  in percentage DLHS-4": "Not available",
      "Total unmet need for family planning in percentage DLHS-4": 17.3,
      "Main Workers Other - Males": 61487,
      "Children who received full vaccination in percentage DLHS-4": "Not available",
      "Marginal Workers Household Industry - Persons": 32063,
      "Primary Pupil-Teacher Ratio in percentage DISE": "NA",
      "Marginal Workers Agricultural Labourers worked for 3 - 6 moths during last year - Males": 47411,
      "Scheduled Caste Females": 163522,
      "Marginal Workers Cultivators - Males": 8218,
      "Marginal Workers - Males": 81913,
      "Marginal Workers worked for 0 - 3 moths during last year - Females": 19680,
      "Households with main source of drinking water within premises in percentage Houselisting and Housing Census Data Tables- District Level , Census of India": 10.72467384,
      "Marginal Workers Household Industry worked for 3 - 6 moths during last year - Persons": 28127,
      "Upper Primary Girl's Enrolment in percentage DISE": "NA",
      "Prevalence of Severe Anaemia in women aged 15-49years in percentage DLHS-4": "Not available",
      "Marginal Workers Agricultural Labourers worked for 0 - 3 moths during last year - Males": 8406,
      "Households with electricity as main source of lighting  Houselisting and Housing Census Data Tables- District Level , Census of India__3": 246845,
      "Households with computer or laptop with internet connection in percentage": 0.19,
      "PHCs functioning on a 24x7hours basis in percentage DLHS-4": "Not applicable",
      "Non Workers - Males": 397036,
      "Total Households in District Houselisting and Housing Census Data Tables- District Level , Census of India": 376804,
      "Upper Primary Schools with girls toilet in percentage DISE": "NA",
      "Households with mobile phone in percentage": 30.48,
      "Households receiving untreated tap water within premises in percentage Houselisting and Housing Census Data Tables- District Level , Census of India__2": 0.999989384,
      "Marginal Workers Cultivators worked for 3 - 6 moths during last year - Males": 6429,
      "Prevalence of Anaemia  in percentage DLHS-4": "Not available",
      "Prevalence of Chronic illness in percentage DLHS-4": "Not available",
      "Households with solar energy as main source of lighting in percentage Houselisting and Housing Census Data Tables- District Level , Census of India__1": 0.14490292,
      "Marginal Workers Agricultural Labourers worked for 0 - 3 moths during last year - Females": 11957,
      "Main Workers - Males": 405184,
      "Female": "NA",
      "Sno": 1006,
      "Marginal Workers Other worked for 3 - 6 moths during last year - Females": 6737,
      "Marginal Workers Cultivators worked for 0 - 3 moths during last year - Females": 2992,
      "Scheduled Tribe Males": 107661,
      "Male Illiterates": 273778,
      "Prevalence of Severe Anaemia in pregnant women aged 15-49years in percentage DLHS-4": "Not available",
      "0-6 Age Group Persons": 265661,
      "Upper Primary Student-Classroom Ratio in percentage DISE": "NA",
      "Currently married men married below 21years of age in percentage DLHS-4": 19.2,
      "Male Literates": 610355,
      "Households with no lighting in percentage Houselisting and Housing Census Data Tables- District Level , Census of India__2": 0.21841594,
      "Primary Drop Out Rate in percentage DISE": "NA",
      "Marginal Workers Household Industry - Males": 6625,
      "Female Illiterates": 383902,
      "Main Workers Other - Females": 17570,
      "Marginal Workers Cultivators - Persons": 22149,
      "Upper Primary Gross Enrolment Ratio in percentage DISE": "NA",
      "Scheduled Caste Persons": 349843,
      "Marginal Workers Cultivators worked for 3 - 6 moths during last year - Persons": 17368,
      "Households with landline phone in percentage": 1.4,
      "Total Households in District  Houselisting and Housing Census Data Tables- District Level , Census of India": 376804,
      "Upper Primary Pupil-Teacher Ratio in percentage DISE": "NA",
      "Primary Student-Classroom Ratio in percentage DISE": "NA",
      "Primary Schools with boys toilet in percentage DISE": "NA",
      "Mean number of children ever born to women aged 40-49years  DLHS-4": "Not available",
      "Households receiving untreated tap water within premises  Houselisting and Housing Census Data Tables- District Level , Census of India__5": 3768,
      "Marginal Workers Household Industry worked for 0 - 3 moths during last year - Persons": 3936,
      "Total Male Population": 884133,
      "Non Workers - Females": 529225,
      "Current use of family planning methods in percentage DLHS-4": 64.2,
      "Households with main source of drinking water within premises  Houselisting and Housing Census Data Tables- District Level , Census of India__3": 40411,
      "Main Workers Agricultural Labourers - Males": 174033,
      "Marginal Workers Other worked for 0 - 3 moths during last year - Persons": 3689,
      "Currently married women married below 18years of age in percentage DLHS-4": 11.2,
      "Person Illiterates": 657680,
      "Main Workers Household Industry - Females": 34245,
      "Female Literates": 401627,
      "Marginal Workers Cultivators worked for 0 - 3 moths during last year - Males": 1789,
      "Male": "NA",
      "Households with improved source of drinking water in percentage DLHS-4": "Not available",
      "Upper Primary Schools with electricity in percentage DISE": "NA",
      "Households with electricity in percentage DLHS-4": "Not available",
      "Villages with Primary Health Centre within 10km in percentage DLHS-4": "Not applicable",
      "Births to women aged 15-19years out of Total births in percentage DLHS-4": "Not available",
      "Prevalence of Anaemia in women aged 15-49years in percentage DLHS-4": "Not available",
      "Marginal Workers Agricultural Labourers worked for 3 - 6 moths during last year - Persons": 106277,
      "Main Workers Household Industry - Males": 21723,
      "Scheduled Tribe Females": 100654,
      "Marginal Workers worked for 0 - 3 moths during last year - Males": 13089,
      "Marginal Workers Other worked for 3 - 6 moths during last year - Males": 9361,
      "Primary Net Enrolment Ratio in percentage DISE": "NA",
      "Total": "NA",
      "Mean age at marriage for boys DLHS-4": 23.2,
      "Number of District Hospitals  DLHS-4": "Not applicable",
      "0-6 Age Group Females": 127523,
      "Marginal Workers Agricultural Labourers worked for 0 - 3 moths during last year - Persons": 20363,
      "Marginal Workers Household Industry worked for 0 - 3 moths during last year - Males": 1002,
      "Total Workers  Females": 256304,
      "Marginal Workers worked for 3 - 6 moths during last year - Females": 99046,
      "Institutional Deliveries in percentage DLHS-4": 65.2,
      "Marginal Workers Other - Males": 11253,
      "Total Workers  Males": 487097,
      "Main Workers - Females": 137578,
      "Primary Gross Enrolment Ratio in percentage DISE": "NA",
      "Main Workers Cultivators - Persons": 169627,
      "Marginal Workers Household Industry worked for 0 - 3 moths during last year - Females": 2934,
      "Upper Primary Net Enrolment Ratio in percentage DISE": "NA",
      "Primary New Government Schools since 2003 in percentage DISE": "NA",
      "Tier": "Rural",
      "Marginal Workers Household Industry - Females": 25438,
      "Primary Schools with electricity in percentage DISE": "NA",
      "Main Workers Other - Persons": 79057,
      "Marginal Workers Household Industry worked for 3 - 6 moths during last year - Females": 22504,
      "Main Workers Cultivators - Males": 147941,
      "Main Workers Household Industry - Persons": 55968,
      "Marginal Workers Cultivators worked for 0 - 3 moths during last year - Persons": 4781,
      "Scheduled Caste Males": 186321,
      "Marginal Workers - Persons": 200639,
      "Deliveries at home conducted by skilled health personnel in percentage DLHS-4": 26.9,
      "Villages with Sub-Health Centres within 3km in percentage DLHS-4": "Not applicable",
      "Upper Primary New Government Schools since 2003 in percentage DISE": "NA",
      "0-6 Age Group Males": 138138,
      "Primary Schools with drinking water facility in percentage DISE": "NA",
      "Non Workers - Persons": 926261,
      "Person Literates": 1011982,
      "State": "MADHYA PRADESH",
      "Total Female Population": 785529,
      "Marginal Workers worked for 0 - 3 moths during last year - Persons": 32769,
      "Marginal Workers Cultivators - Females": 13931,
      "Marginal Workers Other - Persons": 19787,
      "Sex Ratio": 888,
      "Scheduled Tribe Persons": 208315,
      "Marginal Workers Household Industry worked for 3 - 6 moths during last year - Males": 5623,
      "Marginal Workers Agricultural Labourers - Females": 70823,
      "Mean age at marriage for girls DLHS-4": 19.9,
      "Households with solar energy as main source of lighting  Houselisting and Housing Census Data Tables- District Level , Census of India__4": 546,
      "District": "SAGAR",
      "Households receiving treated tap water within premises in percentage Houselisting and Housing Census Data Tables- District Level , Census of India__1": 1.166919672,
      "Total Workers  Persons": 743401,
      "Households receiving treated tap water within premises  Houselisting and Housing Census Data Tables- District Level , Census of India__4": 4397,
      "Primary Female Teachers in percentage DISE": "NA",
      "Number of Households": 379437,
      "Main Workers Agricultural Labourers - Persons": 238110
    }
  ],
  "Urban": [
    {
      "Marginal Workers Agricultural Labourers - Persons": 2836,
      "Marginal Workers Other - Females": 5024,
      "Marginal Workers Other worked for 0 - 3 moths during last year - Females": 552,
      "Upper Primary Schools with boys toilet in percentage DISE": "NA",
      "Total Population": 708796,
      "Households with electricity as main source of lighting in percentage Houselisting and Housing Census Data Tables- District Level , Census of India": 90.26638803,
      "Primary Girl's Enrolment in percentage DISE": "NA",
      "Marginal Workers worked for 3 - 6 moths during last year - Males": 13422,
      "Prevalence of Acute illness in percentage DLHS-4": "Not available",
      "Main Workers - Persons": 236331,
      "Main Workers Cultivators - Females": 1235,
      "Marginal Workers Agricultural Labourers worked for 3 - 6 moths during last year - Females": 991,
      "Marginal Workers Other worked for 0 - 3 moths during last year - Males": 1211,
      "Upper Primary Schools with drinking water facility in percentage DISE": "NA",
      "Primary Schools with girls toilet in percentage DISE": "NA",
      "Marginal Workers worked for 3 - 6 moths during last year - Persons": 23294,
      "Upper Primary Drop Out Rate in percentage DISE": "NA",
      "Prevalence of Anaemia in pregnant women aged 15-49years in percentage DLHS-4": "Not available",
      "Current use of any modern method of family planning in percentage DLHS-4": 56.6,
      "Marginal Workers Agricultural Labourers - Males": 1727,
      "Upper Primary Female Teachers in percentage DISE": "NA",
      "Marginal Workers - Females": 11255,
      "Marginal Workers Other worked for 3 - 6 moths during last year - Persons": 14654,
      "Main Workers Agricultural Labourers - Females": 2478,
      "Marginal Workers Cultivators worked for 3 - 6 moths during last year - Females": 271,
      "Households with no lighting  Houselisting and Housing Census Data Tables- District Level , Census of India__5": 328,
      "Prevalence of Severe Anaemia  in percentage DLHS-4": "Not available",
      "Total unmet need for family planning in percentage DLHS-4": 17.3,
      "Main Workers Other - Males": 142372,
      "Children who received full vaccination in percentage DLHS-4": "Not available",
      "Marginal Workers Household Industry - Persons": 6334,
      "Primary Pupil-Teacher Ratio in percentage DISE": "NA",
      "Marginal Workers Agricultural Labourers worked for 3 - 6 moths during last year - Males": 1561,
      "Scheduled Caste Females": 71802,
      "Marginal Workers Cultivators - Males": 388,
      "Marginal Workers - Males": 15048,
      "Marginal Workers worked for 0 - 3 moths during last year - Females": 1383,
      "Households with main source of drinking water within premises in percentage Houselisting and Housing Census Data Tables- District Level , Census of India": 50.64163982,
      "Marginal Workers Household Industry worked for 3 - 6 moths during last year - Persons": 5463,
      "Upper Primary Girl's Enrolment in percentage DISE": "NA",
      "Prevalence of Severe Anaemia in women aged 15-49years in percentage DLHS-4": "Not available",
      "Marginal Workers Agricultural Labourers worked for 0 - 3 moths during last year - Males": 166,
      "Households with electricity as main source of lighting  Houselisting and Housing Census Data Tables- District Level , Census of India__3": 119649,
      "Households with computer or laptop with internet connection in percentage": 2.88,
      "PHCs functioning on a 24x7hours basis in percentage DLHS-4": 0,
      "Non Workers - Males": 177144,
      "Total Households in District Houselisting and Housing Census Data Tables- District Level , Census of India": 132551,
      "Upper Primary Schools with girls toilet in percentage DISE": "NA",
      "Households with mobile phone in percentage": 57.75,
      "Households receiving untreated tap water within premises in percentage Houselisting and Housing Census Data Tables- District Level , Census of India__2": 2.943772586,
      "Marginal Workers Cultivators worked for 3 - 6 moths during last year - Males": 354,
      "Prevalence of Anaemia  in percentage DLHS-4": "Not available",
      "Prevalence of Chronic illness in percentage DLHS-4": "Not available",
      "Households with solar energy as main source of lighting in percentage Houselisting and Housing Census Data Tables- District Level , Census of India__1": 0.0754,
      "Marginal Workers Agricultural Labourers worked for 0 - 3 moths during last year - Females": 118,
      "Main Workers - Males": 179932,
      "Female": "NA",
      "Sno": 1008,
      "Marginal Workers Other worked for 3 - 6 moths during last year - Females": 4472,
      "Marginal Workers Cultivators worked for 0 - 3 moths during last year - Females": 57,
      "Scheduled Tribe Males": 7110,
      "Male Illiterates": 73872,
      "Prevalence of Severe Anaemia in pregnant women aged 15-49years in percentage DLHS-4": "Not available",
      "0-6 Age Group Persons": 91242,
      "Upper Primary Student-Classroom Ratio in percentage DISE": "NA",
      "Currently married men married below 21years of age in percentage DLHS-4": 5,
      "Male Literates": 298252,
      "Households with no lighting in percentage Houselisting and Housing Census Data Tables- District Level , Census of India__2": 0.247451924,
      "Primary Drop Out Rate in percentage DISE": "NA",
      "Marginal Workers Household Industry - Males": 1540,
      "Female Illiterates": 101187,
      "Main Workers Other - Females": 25784,
      "Marginal Workers Cultivators - Persons": 716,
      "Upper Primary Gross Enrolment Ratio in percentage DISE": "NA",
      "Scheduled Caste Persons": 151787,
      "Marginal Workers Cultivators worked for 3 - 6 moths during last year - Persons": 625,
      "Households with landline phone in percentage": 3.94,
      "Total Households in District  Houselisting and Housing Census Data Tables- District Level , Census of India": 132551,
      "Upper Primary Pupil-Teacher Ratio in percentage DISE": "NA",
      "Primary Student-Classroom Ratio in percentage DISE": "NA",
      "Primary Schools with boys toilet in percentage DISE": "NA",
      "Mean number of children ever born to women aged 40-49years  DLHS-4": "Not available",
      "Households receiving untreated tap water within premises  Houselisting and Housing Census Data Tables- District Level , Census of India__5": 3902,
      "Marginal Workers Household Industry worked for 0 - 3 moths during last year - Persons": 871,
      "Total Male Population": 372124,
      "Non Workers - Females": 269018,
      "Current use of family planning methods in percentage DLHS-4": 62.1,
      "Households with main source of drinking water within premises  Houselisting and Housing Census Data Tables- District Level , Census of India__3": 67126,
      "Main Workers Agricultural Labourers - Males": 8496,
      "Marginal Workers Other worked for 0 - 3 moths during last year - Persons": 1763,
      "Currently married women married below 18years of age in percentage DLHS-4": 3.2,
      "Person Illiterates": 175059,
      "Main Workers Household Industry - Females": 26902,
      "Female Literates": 235485,
      "Marginal Workers Cultivators worked for 0 - 3 moths during last year - Males": 34,
      "Male": "NA",
      "Households with improved source of drinking water in percentage DLHS-4": "Not available",
      "Upper Primary Schools with electricity in percentage DISE": "NA",
      "Households with electricity in percentage DLHS-4": "Not available",
      "Villages with Primary Health Centre within 10km in percentage DLHS-4": 0,
      "Births to women aged 15-19years out of Total births in percentage DLHS-4": "Not available",
      "Prevalence of Anaemia in women aged 15-49years in percentage DLHS-4": "Not available",
      "Marginal Workers Agricultural Labourers worked for 3 - 6 moths during last year - Persons": 2552,
      "Main Workers Household Industry - Males": 19191,
      "Scheduled Tribe Females": 6511,
      "Marginal Workers worked for 0 - 3 moths during last year - Males": 1626,
      "Marginal Workers Other worked for 3 - 6 moths during last year - Males": 10182,
      "Primary Net Enrolment Ratio in percentage DISE": "NA",
      "Total": "NA",
      "Mean age at marriage for boys DLHS-4": 25.7,
      "Number of District Hospitals  DLHS-4": 0,
      "0-6 Age Group Females": 43980,
      "Marginal Workers Agricultural Labourers worked for 0 - 3 moths during last year - Persons": 284,
      "Marginal Workers Household Industry worked for 0 - 3 moths during last year - Males": 215,
      "Total Workers  Females": 67654,
      "Marginal Workers worked for 3 - 6 moths during last year - Females": 9872,
      "Institutional Deliveries in percentage DLHS-4": 90.5,
      "Marginal Workers Other - Males": 11393,
      "Total Workers  Males": 194980,
      "Main Workers - Females": 56399,
      "Primary Gross Enrolment Ratio in percentage DISE": "NA",
      "Main Workers Cultivators - Persons": 11108,
      "Marginal Workers Household Industry worked for 0 - 3 moths during last year - Females": 656,
      "Upper Primary Net Enrolment Ratio in percentage DISE": "NA",
      "Primary New Government Schools since 2003 in percentage DISE": "NA",
      "Tier": "Urban",
      "Marginal Workers Household Industry - Females": 4794,
      "Primary Schools with electricity in percentage DISE": "NA",
      "Main Workers Other - Persons": 168156,
      "Marginal Workers Household Industry worked for 3 - 6 moths during last year - Females": 4138,
      "Main Workers Cultivators - Males": 9873,
      "Main Workers Household Industry - Persons": 46093,
      "Marginal Workers Cultivators worked for 0 - 3 moths during last year - Persons": 91,
      "Scheduled Caste Males": 79985,
      "Marginal Workers - Persons": 26303,
      "Deliveries at home conducted by skilled health personnel in percentage DLHS-4": 14,
      "Villages with Sub-Health Centres within 3km in percentage DLHS-4": 0,
      "Upper Primary New Government Schools since 2003 in percentage DISE": "NA",
      "0-6 Age Group Males": 47262,
      "Primary Schools with drinking water facility in percentage DISE": "NA",
      "Non Workers - Persons": 446162,
      "Person Literates": 533737,
      "State": "MADHYA PRADESH",
      "Total Female Population": 336672,
      "Marginal Workers worked for 0 - 3 moths during last year - Persons": 3009,
      "Marginal Workers Cultivators - Females": 328,
      "Marginal Workers Other - Persons": 16417,
      "Sex Ratio": 905,
      "Scheduled Tribe Persons": 13621,
      "Marginal Workers Household Industry worked for 3 - 6 moths during last year - Males": 1325,
      "Marginal Workers Agricultural Labourers - Females": 1109,
      "Mean age at marriage for girls DLHS-4": 22.1,
      "Households with solar energy as main source of lighting  Houselisting and Housing Census Data Tables- District Level , Census of India__4": 100,
      "District": "SAGAR",
      "Households receiving treated tap water within premises in percentage Houselisting and Housing Census Data Tables- District Level , Census of India__1": 35.17891227,
      "Total Workers  Persons": 262634,
      "Households receiving treated tap water within premises  Houselisting and Housing Census Data Tables- District Level , Census of India__4": 46630,
      "Primary Female Teachers in percentage DISE": "NA",
      "Number of Households": 138413,
      "Main Workers Agricultural Labourers - Persons": 10974
    }
  ]
}