{
  "Total": [
    {
      "Marginal Workers Agricultural Labourers - Persons": 211602,
      "Marginal Workers Other - Females": 10935,
      "Marginal Workers Other worked for 0 - 3 moths during last year - Females": 3074,
      "Upper Primary Schools with boys toilet in percentage DISE": 88,
      "Total Population": 1379131,
      "Households with electricity as main source of lighting in percentage Houselisting and Housing Census Data Tables- District Level , Census of India": 73.00158966,
      "Primary Girl's Enrolment in percentage DISE": 49.8,
      "Marginal Workers worked for 3 - 6 moths during last year - Males": 103955,
      "Prevalence of Acute illness in percentage DLHS-4": "Not available",
      "Main Workers - Persons": 397575,
      "Main Workers Cultivators - Females": 35091,
      "Marginal Workers Agricultural Labourers worked for 3 - 6 moths during last year - Females": 101815,
      "Marginal Workers Other worked for 0 - 3 moths during last year - Males": 3571,
      "Upper Primary Schools with drinking water facility in percentage DISE": 79.8,
      "Primary Schools with girls toilet in percentage DISE": 100,
      "Marginal Workers worked for 3 - 6 moths during last year - Persons": 235038,
      "Upper Primary Drop Out Rate in percentage DISE": 2.79,
      "Prevalence of Anaemia in pregnant women aged 15-49years in percentage DLHS-4": "Not available",
      "Current use of any modern method of family planning in percentage DLHS-4": 70.3,
      "Marginal Workers Agricultural Labourers - Males": 87389,
      "Upper Primary Female Teachers in percentage DISE": 27.2,
      "Marginal Workers - Females": 162874,
      "Marginal Workers Other worked for 3 - 6 moths during last year - Persons": 21036,
      "Main Workers Agricultural Labourers - Females": 68836,
      "Marginal Workers Cultivators worked for 3 - 6 moths during last year - Females": 19191,
      "Households with no lighting  Houselisting and Housing Census Data Tables- District Level , Census of India__5": 390,
      "Prevalence of Severe Anaemia  in percentage DLHS-4": "Not available",
      "Total unmet need for family planning in percentage DLHS-4": 16.2,
      "Main Workers Other - Males": 73802,
      "Children who received full vaccination in percentage DLHS-4": "Not available",
      "Marginal Workers Household Industry - Persons": 5143,
      "Primary Pupil-Teacher Ratio in percentage DISE": 19,
      "Marginal Workers Agricultural Labourers worked for 3 - 6 moths during last year - Males": 74796,
      "Scheduled Caste Females": 63967,
      "Marginal Workers Cultivators - Males": 17608,
      "Marginal Workers - Males": 123985,
      "Marginal Workers worked for 0 - 3 moths during last year - Females": 31791,
      "Households with main source of drinking water within premises in percentage Houselisting and Housing Census Data Tables- District Level , Census of India": 19.49252092,
      "Marginal Workers Household Industry worked for 3 - 6 moths during last year - Persons": 3945,
      "Upper Primary Girl's Enrolment in percentage DISE": 52,
      "Prevalence of Severe Anaemia in women aged 15-49years in percentage DLHS-4": "Not available",
      "Marginal Workers Agricultural Labourers worked for 0 - 3 moths during last year - Males": 12593,
      "Households with electricity as main source of lighting  Houselisting and Housing Census Data Tables- District Level , Census of India__3": 228695,
      "Households with computer or laptop with internet connection in percentage": 0.38,
      "PHCs functioning on a 24x7hours basis in percentage DLHS-4": "Not available",
      "Non Workers - Males": 301219,
      "Total Households in District Houselisting and Housing Census Data Tables- District Level , Census of India": 313274,
      "Upper Primary Schools with girls toilet in percentage DISE": 98.5,
      "Households with mobile phone in percentage": 23.27,
      "Households receiving untreated tap water within premises in percentage Houselisting and Housing Census Data Tables- District Level , Census of India__2": 2.993545586,
      "Marginal Workers Cultivators worked for 3 - 6 moths during last year - Males": 14255,
      "Prevalence of Anaemia  in percentage DLHS-4": "Not available",
      "Prevalence of Chronic illness in percentage DLHS-4": "Not available",
      "Households with solar energy as main source of lighting in percentage Houselisting and Housing Census Data Tables- District Level , Census of India__1": 0.076,
      "Marginal Workers Agricultural Labourers worked for 0 - 3 moths during last year - Females": 22398,
      "Main Workers - Males": 270675,
      "Female": 63.67,
      "Sno": 1016,
      "Marginal Workers Other worked for 3 - 6 moths during last year - Females": 7861,
      "Marginal Workers Cultivators worked for 0 - 3 moths during last year - Females": 5634,
      "Scheduled Tribe Males": 258121,
      "Male Illiterates": 210538,
      "Prevalence of Severe Anaemia in pregnant women aged 15-49years in percentage DLHS-4": "Not available",
      "0-6 Age Group Persons": 180784,
      "Upper Primary Student-Classroom Ratio in percentage DISE": 31,
      "Currently married men married below 21years of age in percentage DLHS-4": 9.6,
      "Male Literates": 485341,
      "Households with no lighting in percentage Houselisting and Housing Census Data Tables- District Level , Census of India__2": 0.124491659,
      "Primary Drop Out Rate in percentage DISE": 3,
      "Marginal Workers Household Industry - Males": 2242,
      "Female Illiterates": 304399,
      "Main Workers Other - Females": 20925,
      "Marginal Workers Cultivators - Persons": 42433,
      "Upper Primary Gross Enrolment Ratio in percentage DISE": 108.9,
      "Scheduled Caste Persons": 130797,
      "Marginal Workers Cultivators worked for 3 - 6 moths during last year - Persons": 33446,
      "Households with landline phone in percentage": 1.74,
      "Total Households in District  Houselisting and Housing Census Data Tables- District Level , Census of India": 313274,
      "Upper Primary Pupil-Teacher Ratio in percentage DISE": 37,
      "Primary Student-Classroom Ratio in percentage DISE": 16,
      "Primary Schools with boys toilet in percentage DISE": 100.6,
      "Mean number of children ever born to women aged 40-49years  DLHS-4": "Not available",
      "Households receiving untreated tap water within premises  Houselisting and Housing Census Data Tables- District Level , Census of India__5": 9378,
      "Marginal Workers Household Industry worked for 0 - 3 moths during last year - Persons": 1198,
      "Total Male Population": 695879,
      "Non Workers - Females": 393478,
      "Current use of family planning methods in percentage DLHS-4": 72,
      "Households with main source of drinking water within premises  Houselisting and Housing Census Data Tables- District Level , Census of India__3": 61065,
      "Main Workers Agricultural Labourers - Males": 95966,
      "Marginal Workers Other worked for 0 - 3 moths during last year - Persons": 6645,
      "Currently married women married below 18years of age in percentage DLHS-4": 2.7,
      "Person Illiterates": 514937,
      "Main Workers Household Industry - Females": 2048,
      "Female Literates": 378853,
      "Marginal Workers Cultivators worked for 0 - 3 moths during last year - Males": 3353,
      "Male": 80.45,
      "Households with improved source of drinking water in percentage DLHS-4": "Not available",
      "Upper Primary Schools with electricity in percentage DISE": 16.4,
      "Households with electricity in percentage DLHS-4": "Not available",
      "Villages with Primary Health Centre within 10km in percentage DLHS-4": "Not available",
      "Births to women aged 15-19years out of Total births in percentage DLHS-4": "Not available",
      "Prevalence of Anaemia in women aged 15-49years in percentage DLHS-4": "Not available",
      "Marginal Workers Agricultural Labourers worked for 3 - 6 moths during last year - Persons": 176611,
      "Main Workers Household Industry - Males": 4766,
      "Scheduled Tribe Females": 261735,
      "Marginal Workers worked for 0 - 3 moths during last year - Males": 20030,
      "Marginal Workers Other worked for 3 - 6 moths during last year - Males": 13175,
      "Primary Net Enrolment Ratio in percentage DISE": 84.3,
      "Total": 72.12,
      "Mean age at marriage for boys DLHS-4": 24.4,
      "Number of District Hospitals  DLHS-4": "Not available",
      "0-6 Age Group Females": 88217,
      "Marginal Workers Agricultural Labourers worked for 0 - 3 moths during last year - Persons": 34991,
      "Marginal Workers Household Industry worked for 0 - 3 moths during last year - Males": 513,
      "Total Workers  Females": 289774,
      "Marginal Workers worked for 3 - 6 moths during last year - Females": 131083,
      "Institutional Deliveries in percentage DLHS-4": 85.8,
      "Marginal Workers Other - Males": 16746,
      "Total Workers  Males": 394660,
      "Main Workers - Females": 126900,
      "Primary Gross Enrolment Ratio in percentage DISE": 100.8,
      "Main Workers Cultivators - Persons": 131232,
      "Marginal Workers Household Industry worked for 0 - 3 moths during last year - Females": 685,
      "Upper Primary Net Enrolment Ratio in percentage DISE": 76.8,
      "Primary New Government Schools since 2003 in percentage DISE": 2,
      "Tier": "Total",
      "Marginal Workers Household Industry - Females": 2901,
      "Primary Schools with electricity in percentage DISE": 6.2,
      "Main Workers Other - Persons": 94727,
      "Marginal Workers Household Industry worked for 3 - 6 moths during last year - Females": 2216,
      "Main Workers Cultivators - Males": 96141,
      "Main Workers Household Industry - Persons": 6814,
      "Marginal Workers Cultivators worked for 0 - 3 moths during last year - Persons": 8987,
      "Scheduled Caste Males": 66830,
      "Marginal Workers - Persons": 286859,
      "Deliveries at home conducted by skilled health personnel in percentage DLHS-4": 27.4,
      "Villages with Sub-Health Centres within 3km in percentage DLHS-4": "Not available",
      "Upper Primary New Government Schools since 2003 in percentage DISE": 34.3,
      "0-6 Age Group Males": 92567,
      "Primary Schools with drinking water facility in percentage DISE": 85.3,
      "Non Workers - Persons": 694697,
      "Person Literates": 864194,
      "State": "MADHYA PRADESH",
      "Total Female Population": 683252,
      "Marginal Workers worked for 0 - 3 moths during last year - Persons": 51821,
      "Marginal Workers Cultivators - Females": 24825,
      "Marginal Workers Other - Persons": 27681,
      "Sex Ratio": 982,
      "Scheduled Tribe Persons": 519856,
      "Marginal Workers Household Industry worked for 3 - 6 moths during last year - Males": 1729,
      "Marginal Workers Agricultural Labourers - Females": 124213,
      "Mean age at marriage for girls DLHS-4": 21.9,
      "Households with solar energy as main source of lighting  Houselisting and Housing Census Data Tables- District Level , Census of India__4": 238,
      "District": "SEONI",
      "Households receiving treated tap water within premises in percentage Houselisting and Housing Census Data Tables- District Level , Census of India__1": 6.915352056,
      "Total Workers  Persons": 684434,
      "Households receiving treated tap water within premises  Houselisting and Housing Census Data Tables- District Level , Census of India__4": 21664,
      "Primary Female Teachers in percentage DISE": 35,
      "Number of Households": 314767,
      "Main Workers Agricultural Labourers - Persons": 164802
    }
  ],
  "Rural": [
    {
      "Marginal Workers Agricultural Labourers - Persons": 209794,
      "Marginal Workers Other - Females": 9108,
      "Marginal Workers Other worked for 0 - 3 moths during last year - Females": 2741,
      "Upper Primary Schools with boys toilet in percentage DISE": "NA",
      "Total Population": 1215241,
      "Households with electricity as main source of lighting in percentage Houselisting and Housing Census Data Tables- District Level , Census of India": 70.57471347,
      "Primary Girl's Enrolment in percentage DISE": "NA",
      "Marginal Workers worked for 3 - 6 moths during last year - Males": 100002,
      "Prevalence of Acute illness in percentage DLHS-4": "Not available",
      "Main Workers - Persons": 348936,
      "Main Workers Cultivators - Females": 34765,
      "Marginal Workers Agricultural Labourers worked for 3 - 6 moths during last year - Females": 101007,
      "Marginal Workers Other worked for 0 - 3 moths during last year - Males": 3127,
      "Upper Primary Schools with drinking water facility in percentage DISE": "NA",
      "Primary Schools with girls toilet in percentage DISE": "NA",
      "Marginal Workers worked for 3 - 6 moths during last year - Persons": 228518,
      "Upper Primary Drop Out Rate in percentage DISE": "NA",
      "Prevalence of Anaemia in pregnant women aged 15-49years in percentage DLHS-4": "Not available",
      "Current use of any modern method of family planning in percentage DLHS-4": 71.2,
      "Marginal Workers Agricultural Labourers - Males": 86537,
      "Upper Primary Female Teachers in percentage DISE": "NA",
      "Marginal Workers - Females": 159765,
      "Marginal Workers Other worked for 3 - 6 moths during last year - Persons": 16668,
      "Main Workers Agricultural Labourers - Females": 68063,
      "Marginal Workers Cultivators worked for 3 - 6 moths during last year - Females": 19072,
      "Households with no lighting  Houselisting and Housing Census Data Tables- District Level , Census of India__5": 365,
      "Prevalence of Severe Anaemia  in percentage DLHS-4": "Not available",
      "Total unmet need for family planning in percentage DLHS-4": 14.7,
      "Main Workers Other - Males": 39118,
      "Children who received full vaccination in percentage DLHS-4": "Not available",
      "Marginal Workers Household Industry - Persons": 4727,
      "Primary Pupil-Teacher Ratio in percentage DISE": "NA",
      "Marginal Workers Agricultural Labourers worked for 3 - 6 moths during last year - Males": 74011,
      "Scheduled Caste Females": 54973,
      "Marginal Workers Cultivators - Males": 17495,
      "Marginal Workers - Males": 119469,
      "Marginal Workers worked for 0 - 3 moths during last year - Females": 31249,
      "Households with main source of drinking water within premises in percentage Houselisting and Housing Census Data Tables- District Level , Census of India": 14.81067119,
      "Marginal Workers Household Industry worked for 3 - 6 moths during last year - Persons": 3607,
      "Upper Primary Girl's Enrolment in percentage DISE": "NA",
      "Prevalence of Severe Anaemia in women aged 15-49years in percentage DLHS-4": "Not available",
      "Marginal Workers Agricultural Labourers worked for 0 - 3 moths during last year - Males": 12526,
      "Households with electricity as main source of lighting  Houselisting and Housing Census Data Tables- District Level , Census of India__3": 196185,
      "Households with computer or laptop with internet connection in percentage": 0.12,
      "PHCs functioning on a 24x7hours basis in percentage DLHS-4": "Not applicable",
      "Non Workers - Males": 261126,
      "Total Households in District Houselisting and Housing Census Data Tables- District Level , Census of India": 277982,
      "Upper Primary Schools with girls toilet in percentage DISE": "NA",
      "Households with mobile phone in percentage": 19.43,
      "Households receiving untreated tap water within premises in percentage Houselisting and Housing Census Data Tables- District Level , Census of India__2": 3.036527545,
      "Marginal Workers Cultivators worked for 3 - 6 moths during last year - Males": 14153,
      "Prevalence of Anaemia  in percentage DLHS-4": "Not available",
      "Prevalence of Chronic illness in percentage DLHS-4": "Not available",
      "Households with solar energy as main source of lighting in percentage Houselisting and Housing Census Data Tables- District Level , Census of India__1": 0.0745,
      "Marginal Workers Agricultural Labourers worked for 0 - 3 moths during last year - Females": 22250,
      "Main Workers - Males": 231719,
      "Female": "NA",
      "Sno": 1015,
      "Marginal Workers Other worked for 3 - 6 moths during last year - Females": 6367,
      "Marginal Workers Cultivators worked for 0 - 3 moths during last year - Females": 5610,
      "Scheduled Tribe Males": 251239,
      "Male Illiterates": 196209,
      "Prevalence of Severe Anaemia in pregnant women aged 15-49years in percentage DLHS-4": "Not available",
      "0-6 Age Group Persons": 162978,
      "Upper Primary Student-Classroom Ratio in percentage DISE": "NA",
      "Currently married men married below 21years of age in percentage DLHS-4": 10.5,
      "Male Literates": 416105,
      "Households with no lighting in percentage Houselisting and Housing Census Data Tables- District Level , Census of India__2": 0.131303466,
      "Primary Drop Out Rate in percentage DISE": "NA",
      "Marginal Workers Household Industry - Males": 2009,
      "Female Illiterates": 284664,
      "Main Workers Other - Females": 12753,
      "Marginal Workers Cultivators - Persons": 42177,
      "Upper Primary Gross Enrolment Ratio in percentage DISE": "NA",
      "Scheduled Caste Persons": 112436,
      "Marginal Workers Cultivators worked for 3 - 6 moths during last year - Persons": 33225,
      "Households with landline phone in percentage": 1.54,
      "Total Households in District  Houselisting and Housing Census Data Tables- District Level , Census of India": 277982,
      "Upper Primary Pupil-Teacher Ratio in percentage DISE": "NA",
      "Primary Student-Classroom Ratio in percentage DISE": "NA",
      "Primary Schools with boys toilet in percentage DISE": "NA",
      "Mean number of children ever born to women aged 40-49years  DLHS-4": "Not available",
      "Households receiving untreated tap water within premises  Houselisting and Housing Census Data Tables- District Level , Census of India__5": 8441,
      "Marginal Workers Household Industry worked for 0 - 3 moths during last year - Persons": 1120,
      "Total Male Population": 612314,
      "Non Workers - Females": 325945,
      "Current use of family planning methods in percentage DLHS-4": 73.1,
      "Households with main source of drinking water within premises  Houselisting and Housing Census Data Tables- District Level , Census of India__3": 41171,
      "Main Workers Agricultural Labourers - Males": 94667,
      "Marginal Workers Other worked for 0 - 3 moths during last year - Persons": 5868,
      "Currently married women married below 18years of age in percentage DLHS-4": 3,
      "Person Illiterates": 480873,
      "Main Workers Household Industry - Females": 1636,
      "Female Literates": 318263,
      "Marginal Workers Cultivators worked for 0 - 3 moths during last year - Males": 3342,
      "Male": "NA",
      "Households with improved source of drinking water in percentage DLHS-4": "Not available",
      "Upper Primary Schools with electricity in percentage DISE": "NA",
      "Households with electricity in percentage DLHS-4": "Not available",
      "Villages with Primary Health Centre within 10km in percentage DLHS-4": "Not applicable",
      "Births to women aged 15-19years out of Total births in percentage DLHS-4": "Not available",
      "Prevalence of Anaemia in women aged 15-49years in percentage DLHS-4": "Not available",
      "Marginal Workers Agricultural Labourers worked for 3 - 6 moths during last year - Persons": 175018,
      "Main Workers Household Industry - Males": 3346,
      "Scheduled Tribe Females": 254491,
      "Marginal Workers worked for 0 - 3 moths during last year - Males": 19467,
      "Marginal Workers Other worked for 3 - 6 moths during last year - Males": 10301,
      "Primary Net Enrolment Ratio in percentage DISE": "NA",
      "Total": "NA",
      "Mean age at marriage for boys DLHS-4": 24.1,
      "Number of District Hospitals  DLHS-4": "Not applicable",
      "0-6 Age Group Females": 79760,
      "Marginal Workers Agricultural Labourers worked for 0 - 3 moths during last year - Persons": 34776,
      "Marginal Workers Household Industry worked for 0 - 3 moths during last year - Males": 472,
      "Total Workers  Females": 276982,
      "Marginal Workers worked for 3 - 6 moths during last year - Females": 128516,
      "Institutional Deliveries in percentage DLHS-4": 85.2,
      "Marginal Workers Other - Males": 13428,
      "Total Workers  Males": 351188,
      "Main Workers - Females": 117217,
      "Primary Gross Enrolment Ratio in percentage DISE": "NA",
      "Main Workers Cultivators - Persons": 129353,
      "Marginal Workers Household Industry worked for 0 - 3 moths during last year - Females": 648,
      "Upper Primary Net Enrolment Ratio in percentage DISE": "NA",
      "Primary New Government Schools since 2003 in percentage DISE": "NA",
      "Tier": "Rural",
      "Marginal Workers Household Industry - Females": 2718,
      "Primary Schools with electricity in percentage DISE": "NA",
      "Main Workers Other - Persons": 51871,
      "Marginal Workers Household Industry worked for 3 - 6 moths during last year - Females": 2070,
      "Main Workers Cultivators - Males": 94588,
      "Main Workers Household Industry - Persons": 4982,
      "Marginal Workers Cultivators worked for 0 - 3 moths during last year - Persons": 8952,
      "Scheduled Caste Males": 57463,
      "Marginal Workers - Persons": 279234,
      "Deliveries at home conducted by skilled health personnel in percentage DLHS-4": 26.1,
      "Villages with Sub-Health Centres within 3km in percentage DLHS-4": "Not applicable",
      "Upper Primary New Government Schools since 2003 in percentage DISE": "NA",
      "0-6 Age Group Males": 83218,
      "Primary Schools with drinking water facility in percentage DISE": "NA",
      "Non Workers - Persons": 587071,
      "Person Literates": 734368,
      "State": "MADHYA PRADESH",
      "Total Female Population": 602927,
      "Marginal Workers worked for 0 - 3 moths during last year - Persons": 50716,
      "Marginal Workers Cultivators - Females": 24682,
      "Marginal Workers Other - Persons": 22536,
      "Sex Ratio": 985,
      "Scheduled Tribe Persons": 505730,
      "Marginal Workers Household Industry worked for 3 - 6 moths during last year - Males": 1537,
      "Marginal Workers Agricultural Labourers - Females": 123257,
      "Mean age at marriage for girls DLHS-4": 21.7,
      "Households with solar energy as main source of lighting  Houselisting and Housing Census Data Tables- District Level , Census of India__4": 207,
      "District": "SEONI",
      "Households receiving treated tap water within premises in percentage Houselisting and Housing Census Data Tables- District Level , Census of India__1": 2.202660604,
      "Total Workers  Persons": 628170,
      "Households receiving treated tap water within premises  Houselisting and Housing Census Data Tables- District Level , Census of India__4": 6123,
      "Primary Female Teachers in percentage DISE": "NA",
      "Number of Households": 278250,
      "Main Workers Agricultural Labourers - Persons": 162730
    }
  ],
  "Urban": [
    {
      "Marginal Workers Agricultural Labourers - Persons": 1808,
      "Marginal Workers Other - Females": 1827,
      "Marginal Workers Other worked for 0 - 3 moths during last year - Females": 333,
      "Upper Primary Schools with boys toilet in percentage DISE": "NA",
      "Total Population": 163890,
      "Households with electricity as main source of lighting in percentage Houselisting and Housing Census Data Tables- District Level , Census of India": 92.1171937,
      "Primary Girl's Enrolment in percentage DISE": "NA",
      "Marginal Workers worked for 3 - 6 moths during last year - Males": 3953,
      "Prevalence of Acute illness in percentage DLHS-4": "Not available",
      "Main Workers - Persons": 48639,
      "Main Workers Cultivators - Females": 326,
      "Marginal Workers Agricultural Labourers worked for 3 - 6 moths during last year - Females": 808,
      "Marginal Workers Other worked for 0 - 3 moths during last year - Males": 444,
      "Upper Primary Schools with drinking water facility in percentage DISE": "NA",
      "Primary Schools with girls toilet in percentage DISE": "NA",
      "Marginal Workers worked for 3 - 6 moths during last year - Persons": 6520,
      "Upper Primary Drop Out Rate in percentage DISE": "NA",
      "Prevalence of Anaemia in pregnant women aged 15-49years in percentage DLHS-4": "Not available",
      "Current use of any modern method of family planning in percentage DLHS-4": 62.2,
      "Marginal Workers Agricultural Labourers - Males": 852,
      "Upper Primary Female Teachers in percentage DISE": "NA",
      "Marginal Workers - Females": 3109,
      "Marginal Workers Other worked for 3 - 6 moths during last year - Persons": 4368,
      "Main Workers Agricultural Labourers - Females": 773,
      "Marginal Workers Cultivators worked for 3 - 6 moths during last year - Females": 119,
      "Households with no lighting  Houselisting and Housing Census Data Tables- District Level , Census of India__5": 25,
      "Prevalence of Severe Anaemia  in percentage DLHS-4": "Not available",
      "Total unmet need for family planning in percentage DLHS-4": 29.9,
      "Main Workers Other - Males": 34684,
      "Children who received full vaccination in percentage DLHS-4": "Not available",
      "Marginal Workers Household Industry - Persons": 416,
      "Primary Pupil-Teacher Ratio in percentage DISE": "NA",
      "Marginal Workers Agricultural Labourers worked for 3 - 6 moths during last year - Males": 785,
      "Scheduled Caste Females": 8994,
      "Marginal Workers Cultivators - Males": 113,
      "Marginal Workers - Males": 4516,
      "Marginal Workers worked for 0 - 3 moths during last year - Females": 542,
      "Households with main source of drinking water within premises in percentage Houselisting and Housing Census Data Tables- District Level , Census of India": 56.36971552,
      "Marginal Workers Household Industry worked for 3 - 6 moths during last year - Persons": 338,
      "Upper Primary Girl's Enrolment in percentage DISE": "NA",
      "Prevalence of Severe Anaemia in women aged 15-49years in percentage DLHS-4": "Not available",
      "Marginal Workers Agricultural Labourers worked for 0 - 3 moths during last year - Males": 67,
      "Households with electricity as main source of lighting  Houselisting and Housing Census Data Tables- District Level , Census of India__3": 32510,
      "Households with computer or laptop with internet connection in percentage": 2.44,
      "PHCs functioning on a 24x7hours basis in percentage DLHS-4": 0,
      "Non Workers - Males": 40093,
      "Total Households in District Houselisting and Housing Census Data Tables- District Level , Census of India": 35292,
      "Upper Primary Schools with girls toilet in percentage DISE": "NA",
      "Households with mobile phone in percentage": 53.59,
      "Households receiving untreated tap water within premises in percentage Houselisting and Housing Census Data Tables- District Level , Census of India__2": 2.654992633,
      "Marginal Workers Cultivators worked for 3 - 6 moths during last year - Males": 102,
      "Prevalence of Anaemia  in percentage DLHS-4": "Not available",
      "Prevalence of Chronic illness in percentage DLHS-4": "Not available",
      "Households with solar energy as main source of lighting in percentage Houselisting and Housing Census Data Tables- District Level , Census of India__1": 0.0878,
      "Marginal Workers Agricultural Labourers worked for 0 - 3 moths during last year - Females": 148,
      "Main Workers - Males": 38956,
      "Female": "NA",
      "Sno": 1017,
      "Marginal Workers Other worked for 3 - 6 moths during last year - Females": 1494,
      "Marginal Workers Cultivators worked for 0 - 3 moths during last year - Females": 24,
      "Scheduled Tribe Males": 6882,
      "Male Illiterates": 14329,
      "Prevalence of Severe Anaemia in pregnant women aged 15-49years in percentage DLHS-4": "Not available",
      "0-6 Age Group Persons": 17806,
      "Upper Primary Student-Classroom Ratio in percentage DISE": "NA",
      "Currently married men married below 21years of age in percentage DLHS-4": 2,
      "Male Literates": 69236,
      "Households with no lighting in percentage Houselisting and Housing Census Data Tables- District Level , Census of India__2": 0.0708,
      "Primary Drop Out Rate in percentage DISE": "NA",
      "Marginal Workers Household Industry - Males": 233,
      "Female Illiterates": 19735,
      "Main Workers Other - Females": 8172,
      "Marginal Workers Cultivators - Persons": 256,
      "Upper Primary Gross Enrolment Ratio in percentage DISE": "NA",
      "Scheduled Caste Persons": 18361,
      "Marginal Workers Cultivators worked for 3 - 6 moths during last year - Persons": 221,
      "Households with landline phone in percentage": 3.37,
      "Total Households in District  Houselisting and Housing Census Data Tables- District Level , Census of India": 35292,
      "Upper Primary Pupil-Teacher Ratio in percentage DISE": "NA",
      "Primary Student-Classroom Ratio in percentage DISE": "NA",
      "Primary Schools with boys toilet in percentage DISE": "NA",
      "Mean number of children ever born to women aged 40-49years  DLHS-4": "Not available",
      "Households receiving untreated tap water within premises  Houselisting and Housing Census Data Tables- District Level , Census of India__5": 937,
      "Marginal Workers Household Industry worked for 0 - 3 moths during last year - Persons": 78,
      "Total Male Population": 83565,
      "Non Workers - Females": 67533,
      "Current use of family planning methods in percentage DLHS-4": 62.4,
      "Households with main source of drinking water within premises  Houselisting and Housing Census Data Tables- District Level , Census of India__3": 19894,
      "Main Workers Agricultural Labourers - Males": 1299,
      "Marginal Workers Other worked for 0 - 3 moths during last year - Persons": 777,
      "Currently married women married below 18years of age in percentage DLHS-4": 0,
      "Person Illiterates": 34064,
      "Main Workers Household Industry - Females": 412,
      "Female Literates": 60590,
      "Marginal Workers Cultivators worked for 0 - 3 moths during last year - Males": 11,
      "Male": "NA",
      "Households with improved source of drinking water in percentage DLHS-4": "Not available",
      "Upper Primary Schools with electricity in percentage DISE": "NA",
      "Households with electricity in percentage DLHS-4": "Not available",
      "Villages with Primary Health Centre within 10km in percentage DLHS-4": 0,
      "Births to women aged 15-19years out of Total births in percentage DLHS-4": "Not available",
      "Prevalence of Anaemia in women aged 15-49years in percentage DLHS-4": "Not available",
      "Marginal Workers Agricultural Labourers worked for 3 - 6 moths during last year - Persons": 1593,
      "Main Workers Household Industry - Males": 1420,
      "Scheduled Tribe Females": 7244,
      "Marginal Workers worked for 0 - 3 moths during last year - Males": 563,
      "Marginal Workers Other worked for 3 - 6 moths during last year - Males": 2874,
      "Primary Net Enrolment Ratio in percentage DISE": "NA",
      "Total": "NA",
      "Mean age at marriage for boys DLHS-4": 28.2,
      "Number of District Hospitals  DLHS-4": 0,
      "0-6 Age Group Females": 8457,
      "Marginal Workers Agricultural Labourers worked for 0 - 3 moths during last year - Persons": 215,
      "Marginal Workers Household Industry worked for 0 - 3 moths during last year - Males": 41,
      "Total Workers  Females": 12792,
      "Marginal Workers worked for 3 - 6 moths during last year - Females": 2567,
      "Institutional Deliveries in percentage DLHS-4": 93.2,
      "Marginal Workers Other - Males": 3318,
      "Total Workers  Males": 43472,
      "Main Workers - Females": 9683,
      "Primary Gross Enrolment Ratio in percentage DISE": "NA",
      "Main Workers Cultivators - Persons": 1879,
      "Marginal Workers Household Industry worked for 0 - 3 moths during last year - Females": 37,
      "Upper Primary Net Enrolment Ratio in percentage DISE": "NA",
      "Primary New Government Schools since 2003 in percentage DISE": "NA",
      "Tier": "Urban",
      "Marginal Workers Household Industry - Females": 183,
      "Primary Schools with electricity in percentage DISE": "NA",
      "Main Workers Other - Persons": 42856,
      "Marginal Workers Household Industry worked for 3 - 6 moths during last year - Females": 146,
      "Main Workers Cultivators - Males": 1553,
      "Main Workers Household Industry - Persons": 1832,
      "Marginal Workers Cultivators worked for 0 - 3 moths during last year - Persons": 35,
      "Scheduled Caste Males": 9367,
      "Marginal Workers - Persons": 7625,
      "Deliveries at home conducted by skilled health personnel in percentage DLHS-4": 58.3,
      "Villages with Sub-Health Centres within 3km in percentage DLHS-4": 0,
      "Upper Primary New Government Schools since 2003 in percentage DISE": "NA",
      "0-6 Age Group Males": 9349,
      "Primary Schools with drinking water facility in percentage DISE": "NA",
      "Non Workers - Persons": 107626,
      "Person Literates": 129826,
      "State": "MADHYA PRADESH",
      "Total Female Population": 80325,
      "Marginal Workers worked for 0 - 3 moths during last year - Persons": 1105,
      "Marginal Workers Cultivators - Females": 143,
      "Marginal Workers Other - Persons": 5145,
      "Sex Ratio": 961,
      "Scheduled Tribe Persons": 14126,
      "Marginal Workers Household Industry worked for 3 - 6 moths during last year - Males": 192,
      "Marginal Workers Agricultural Labourers - Females": 956,
      "Mean age at marriage for girls DLHS-4": 24,
      "Households with solar energy as main source of lighting  Houselisting and Housing Census Data Tables- District Level , Census of India__4": 31,
      "District": "SEONI",
      "Households receiving treated tap water within premises in percentage Houselisting and Housing Census Data Tables- District Level , Census of India__1": 44.03547546,
      "Total Workers  Persons": 56264,
      "Households receiving treated tap water within premises  Houselisting and Housing Census Data Tables- District Level , Census of India__4": 15541,
      "Primary Female Teachers in percentage DISE": "NA",
      "Number of Households": 36517,
      "Main Workers Agricultural Labourers - Persons": 2072
    }
  ]
}