{
  "Total": [
    {
      "Marginal Workers Agricultural Labourers - Persons": 109013,
      "Marginal Workers Other - Females": 6934,
      "Marginal Workers Other worked for 0 - 3 moths during last year - Females": 1627,
      "Upper Primary Schools with boys toilet in percentage DISE": 79.6,
      "Total Population": 1458875,
      "Households with electricity as main source of lighting in percentage Houselisting and Housing Census Data Tables- District Level , Census of India": 61.02838084,
      "Primary Girl's Enrolment in percentage DISE": 50,
      "Marginal Workers worked for 3 - 6 moths during last year - Males": 59495,
      "Prevalence of Acute illness in percentage DLHS-4": "Not available",
      "Main Workers - Persons": 397283,
      "Main Workers Cultivators - Females": 14868,
      "Marginal Workers Agricultural Labourers worked for 3 - 6 moths during last year - Females": 44609,
      "Marginal Workers Other worked for 0 - 3 moths during last year - Males": 2478,
      "Upper Primary Schools with drinking water facility in percentage DISE": 91.3,
      "Primary Schools with girls toilet in percentage DISE": 67.1,
      "Marginal Workers worked for 3 - 6 moths during last year - Persons": 120199,
      "Upper Primary Drop Out Rate in percentage DISE": 7.15,
      "Prevalence of Anaemia in pregnant women aged 15-49years in percentage DLHS-4": "Not available",
      "Current use of any modern method of family planning in percentage DLHS-4": 57.8,
      "Marginal Workers Agricultural Labourers - Males": 50460,
      "Upper Primary Female Teachers in percentage DISE": 32.8,
      "Marginal Workers - Females": 80878,
      "Marginal Workers Other worked for 3 - 6 moths during last year - Persons": 15484,
      "Main Workers Agricultural Labourers - Females": 28994,
      "Marginal Workers Cultivators worked for 3 - 6 moths during last year - Females": 8955,
      "Households with no lighting  Houselisting and Housing Census Data Tables- District Level , Census of India__5": 668,
      "Prevalence of Severe Anaemia  in percentage DLHS-4": "Not available",
      "Total unmet need for family planning in percentage DLHS-4": 32.3,
      "Main Workers Other - Males": 100205,
      "Children who received full vaccination in percentage DLHS-4": "Not available",
      "Marginal Workers Household Industry - Persons": 4010,
      "Primary Pupil-Teacher Ratio in percentage DISE": 29,
      "Marginal Workers Agricultural Labourers worked for 3 - 6 moths during last year - Males": 42412,
      "Scheduled Caste Females": 137640,
      "Marginal Workers Cultivators - Males": 7712,
      "Marginal Workers - Males": 72241,
      "Marginal Workers worked for 0 - 3 moths during last year - Females": 20174,
      "Households with main source of drinking water within premises in percentage Houselisting and Housing Census Data Tables- District Level , Census of India": 26.9612903,
      "Marginal Workers Household Industry worked for 3 - 6 moths during last year - Persons": 2951,
      "Upper Primary Girl's Enrolment in percentage DISE": 53.5,
      "Prevalence of Severe Anaemia in women aged 15-49years in percentage DLHS-4": "Not available",
      "Marginal Workers Agricultural Labourers worked for 0 - 3 moths during last year - Males": 8048,
      "Households with electricity as main source of lighting  Houselisting and Housing Census Data Tables- District Level , Census of India__3": 181510,
      "Households with computer or laptop with internet connection in percentage": 0.65,
      "PHCs functioning on a 24x7hours basis in percentage DLHS-4": "Not available",
      "Non Workers - Males": 367985,
      "Total Households in District Houselisting and Housing Census Data Tables- District Level , Census of India": 297419,
      "Upper Primary Schools with girls toilet in percentage DISE": 78,
      "Households with mobile phone in percentage": 46.78,
      "Households receiving untreated tap water within premises in percentage Houselisting and Housing Census Data Tables- District Level , Census of India__2": 1.650869649,
      "Marginal Workers Cultivators worked for 3 - 6 moths during last year - Males": 5788,
      "Prevalence of Anaemia  in percentage DLHS-4": "Not available",
      "Prevalence of Chronic illness in percentage DLHS-4": "Not available",
      "Households with solar energy as main source of lighting in percentage Houselisting and Housing Census Data Tables- District Level , Census of India__1": 0.111627031,
      "Marginal Workers Agricultural Labourers worked for 0 - 3 moths during last year - Females": 13944,
      "Main Workers - Males": 329342,
      "Female": 60.85,
      "Sno": 1046,
      "Marginal Workers Other worked for 3 - 6 moths during last year - Females": 5307,
      "Marginal Workers Cultivators worked for 0 - 3 moths during last year - Females": 3840,
      "Scheduled Tribe Males": 34993,
      "Male Illiterates": 257224,
      "Prevalence of Severe Anaemia in pregnant women aged 15-49years in percentage DLHS-4": "Not available",
      "0-6 Age Group Persons": 235391,
      "Upper Primary Student-Classroom Ratio in percentage DISE": 33,
      "Currently married men married below 21years of age in percentage DLHS-4": 13.8,
      "Male Literates": 512344,
      "Households with no lighting in percentage Houselisting and Housing Census Data Tables- District Level , Census of India__2": 0.224598966,
      "Primary Drop Out Rate in percentage DISE": 2.2,
      "Marginal Workers Household Industry - Males": 1414,
      "Female Illiterates": 338733,
      "Main Workers Other - Females": 21277,
      "Marginal Workers Cultivators - Persons": 20507,
      "Upper Primary Gross Enrolment Ratio in percentage DISE": 98.2,
      "Scheduled Caste Persons": 292144,
      "Marginal Workers Cultivators worked for 3 - 6 moths during last year - Persons": 14743,
      "Households with landline phone in percentage": 1.6,
      "Total Households in District  Houselisting and Housing Census Data Tables- District Level , Census of India": 297419,
      "Upper Primary Pupil-Teacher Ratio in percentage DISE": 49,
      "Primary Student-Classroom Ratio in percentage DISE": 24,
      "Primary Schools with boys toilet in percentage DISE": 79.2,
      "Mean number of children ever born to women aged 40-49years  DLHS-4": "Not available",
      "Households receiving untreated tap water within premises  Houselisting and Housing Census Data Tables- District Level , Census of India__5": 4910,
      "Marginal Workers Household Industry worked for 0 - 3 moths during last year - Persons": 1059,
      "Total Male Population": 769568,
      "Non Workers - Females": 540488,
      "Current use of family planning methods in percentage DLHS-4": 61.5,
      "Households with main source of drinking water within premises  Houselisting and Housing Census Data Tables- District Level , Census of India__3": 80188,
      "Main Workers Agricultural Labourers - Males": 90301,
      "Marginal Workers Other worked for 0 - 3 moths during last year - Persons": 4105,
      "Currently married women married below 18years of age in percentage DLHS-4": 8.7,
      "Person Illiterates": 595957,
      "Main Workers Household Industry - Females": 2802,
      "Female Literates": 350574,
      "Marginal Workers Cultivators worked for 0 - 3 moths during last year - Males": 1924,
      "Male": 79.14,
      "Households with improved source of drinking water in percentage DLHS-4": "Not available",
      "Upper Primary Schools with electricity in percentage DISE": 9,
      "Households with electricity in percentage DLHS-4": "Not available",
      "Villages with Primary Health Centre within 10km in percentage DLHS-4": "Not available",
      "Births to women aged 15-19years out of Total births in percentage DLHS-4": "Not available",
      "Prevalence of Anaemia in women aged 15-49years in percentage DLHS-4": "Not available",
      "Marginal Workers Agricultural Labourers worked for 3 - 6 moths during last year - Persons": 87021,
      "Main Workers Household Industry - Males": 5596,
      "Scheduled Tribe Females": 32610,
      "Marginal Workers worked for 0 - 3 moths during last year - Males": 12746,
      "Marginal Workers Other worked for 3 - 6 moths during last year - Males": 10177,
      "Primary Net Enrolment Ratio in percentage DISE": 90.6,
      "Total": 70.53,
      "Mean age at marriage for boys DLHS-4": 23.4,
      "Number of District Hospitals  DLHS-4": "Not available",
      "0-6 Age Group Females": 113191,
      "Marginal Workers Agricultural Labourers worked for 0 - 3 moths during last year - Persons": 21992,
      "Marginal Workers Household Industry worked for 0 - 3 moths during last year - Males": 296,
      "Total Workers  Females": 148819,
      "Marginal Workers worked for 3 - 6 moths during last year - Females": 60704,
      "Institutional Deliveries in percentage DLHS-4": 88.1,
      "Marginal Workers Other - Males": 12655,
      "Total Workers  Males": 401583,
      "Main Workers - Females": 67941,
      "Primary Gross Enrolment Ratio in percentage DISE": 111.2,
      "Main Workers Cultivators - Persons": 148108,
      "Marginal Workers Household Industry worked for 0 - 3 moths during last year - Females": 763,
      "Upper Primary Net Enrolment Ratio in percentage DISE": 71.8,
      "Primary New Government Schools since 2003 in percentage DISE": 6.9,
      "Tier": "Total",
      "Marginal Workers Household Industry - Females": 2596,
      "Primary Schools with electricity in percentage DISE": 5.4,
      "Main Workers Other - Persons": 121482,
      "Marginal Workers Household Industry worked for 3 - 6 moths during last year - Females": 1833,
      "Main Workers Cultivators - Males": 133240,
      "Main Workers Household Industry - Persons": 8398,
      "Marginal Workers Cultivators worked for 0 - 3 moths during last year - Persons": 5764,
      "Scheduled Caste Males": 154504,
      "Marginal Workers - Persons": 153119,
      "Deliveries at home conducted by skilled health personnel in percentage DLHS-4": 47.4,
      "Villages with Sub-Health Centres within 3km in percentage DLHS-4": "Not available",
      "Upper Primary New Government Schools since 2003 in percentage DISE": 48.6,
      "0-6 Age Group Males": 122200,
      "Primary Schools with drinking water facility in percentage DISE": 96.2,
      "Non Workers - Persons": 908473,
      "Person Literates": 862918,
      "State": "MADHYA PRADESH",
      "Total Female Population": 689307,
      "Marginal Workers worked for 0 - 3 moths during last year - Persons": 32920,
      "Marginal Workers Cultivators - Females": 12795,
      "Marginal Workers Other - Persons": 19589,
      "Sex Ratio": 896,
      "Scheduled Tribe Persons": 67603,
      "Marginal Workers Household Industry worked for 3 - 6 moths during last year - Males": 1118,
      "Marginal Workers Agricultural Labourers - Females": 58553,
      "Mean age at marriage for girls DLHS-4": 20.4,
      "Households with solar energy as main source of lighting  Houselisting and Housing Census Data Tables- District Level , Census of India__4": 332,
      "District": "VIDISHA",
      "Households receiving treated tap water within premises in percentage Houselisting and Housing Census Data Tables- District Level , Census of India__1": 7.631993921,
      "Total Workers  Persons": 550402,
      "Households receiving treated tap water within premises  Houselisting and Housing Census Data Tables- District Level , Census of India__4": 22699,
      "Primary Female Teachers in percentage DISE": 33.7,
      "Number of Households": 299676,
      "Main Workers Agricultural Labourers - Persons": 119295
    }
  ],
  "Rural": [
    {
      "Marginal Workers Agricultural Labourers - Persons": 107383,
      "Marginal Workers Other - Females": 3986,
      "Marginal Workers Other worked for 0 - 3 moths during last year - Females": 1037,
      "Upper Primary Schools with boys toilet in percentage DISE": "NA",
      "Total Population": 1119257,
      "Households with electricity as main source of lighting in percentage Houselisting and Housing Census Data Tables- District Level , Census of India": 52.81788542,
      "Primary Girl's Enrolment in percentage DISE": "NA",
      "Marginal Workers worked for 3 - 6 moths during last year - Males": 53474,
      "Prevalence of Acute illness in percentage DLHS-4": "Not available",
      "Main Workers - Persons": 301292,
      "Main Workers Cultivators - Females": 14311,
      "Marginal Workers Agricultural Labourers worked for 3 - 6 moths during last year - Females": 44158,
      "Marginal Workers Other worked for 0 - 3 moths during last year - Males": 1141,
      "Upper Primary Schools with drinking water facility in percentage DISE": "NA",
      "Primary Schools with girls toilet in percentage DISE": "NA",
      "Marginal Workers worked for 3 - 6 moths during last year - Persons": 110781,
      "Upper Primary Drop Out Rate in percentage DISE": "NA",
      "Prevalence of Anaemia in pregnant women aged 15-49years in percentage DLHS-4": "Not available",
      "Current use of any modern method of family planning in percentage DLHS-4": 57.6,
      "Marginal Workers Agricultural Labourers - Males": 49653,
      "Upper Primary Female Teachers in percentage DISE": "NA",
      "Marginal Workers - Females": 76367,
      "Marginal Workers Other worked for 3 - 6 moths during last year - Persons": 8041,
      "Main Workers Agricultural Labourers - Females": 28054,
      "Marginal Workers Cultivators worked for 3 - 6 moths during last year - Females": 8875,
      "Households with no lighting  Houselisting and Housing Census Data Tables- District Level , Census of India__5": 360,
      "Prevalence of Severe Anaemia  in percentage DLHS-4": "Not available",
      "Total unmet need for family planning in percentage DLHS-4": 33.4,
      "Main Workers Other - Males": 32146,
      "Children who received full vaccination in percentage DLHS-4": "Not available",
      "Marginal Workers Household Industry - Persons": 3053,
      "Primary Pupil-Teacher Ratio in percentage DISE": "NA",
      "Marginal Workers Agricultural Labourers worked for 3 - 6 moths during last year - Males": 41924,
      "Scheduled Caste Females": 111672,
      "Marginal Workers Cultivators - Males": 7520,
      "Marginal Workers - Males": 64512,
      "Marginal Workers worked for 0 - 3 moths during last year - Females": 19060,
      "Households with main source of drinking water within premises in percentage Houselisting and Housing Census Data Tables- District Level , Census of India": 17.59647398,
      "Marginal Workers Household Industry worked for 3 - 6 moths during last year - Persons": 2170,
      "Upper Primary Girl's Enrolment in percentage DISE": "NA",
      "Prevalence of Severe Anaemia in women aged 15-49years in percentage DLHS-4": "Not available",
      "Marginal Workers Agricultural Labourers worked for 0 - 3 moths during last year - Males": 7729,
      "Households with electricity as main source of lighting  Houselisting and Housing Census Data Tables- District Level , Census of India__3": 122472,
      "Households with computer or laptop with internet connection in percentage": 0.13,
      "PHCs functioning on a 24x7hours basis in percentage DLHS-4": "Not applicable",
      "Non Workers - Males": 278950,
      "Total Households in District Houselisting and Housing Census Data Tables- District Level , Census of India": 231876,
      "Upper Primary Schools with girls toilet in percentage DISE": "NA",
      "Households with mobile phone in percentage": 43.07,
      "Households receiving untreated tap water within premises in percentage Houselisting and Housing Census Data Tables- District Level , Census of India__2": 1.141558419,
      "Marginal Workers Cultivators worked for 3 - 6 moths during last year - Males": 5613,
      "Prevalence of Anaemia  in percentage DLHS-4": "Not available",
      "Prevalence of Chronic illness in percentage DLHS-4": "Not available",
      "Households with solar energy as main source of lighting in percentage Houselisting and Housing Census Data Tables- District Level , Census of India__1": 0.114716486,
      "Marginal Workers Agricultural Labourers worked for 0 - 3 moths during last year - Females": 13572,
      "Main Workers - Males": 248500,
      "Female": "NA",
      "Sno": 1045,
      "Marginal Workers Other worked for 3 - 6 moths during last year - Females": 2949,
      "Marginal Workers Cultivators worked for 0 - 3 moths during last year - Females": 3829,
      "Scheduled Tribe Males": 32668,
      "Male Illiterates": 212780,
      "Prevalence of Severe Anaemia in pregnant women aged 15-49years in percentage DLHS-4": "Not available",
      "0-6 Age Group Persons": 188854,
      "Upper Primary Student-Classroom Ratio in percentage DISE": "NA",
      "Currently married men married below 21years of age in percentage DLHS-4": 16.1,
      "Male Literates": 379182,
      "Households with no lighting in percentage Houselisting and Housing Census Data Tables- District Level , Census of India__2": 0.155255395,
      "Primary Drop Out Rate in percentage DISE": "NA",
      "Marginal Workers Household Industry - Males": 1106,
      "Female Illiterates": 282284,
      "Main Workers Other - Females": 8783,
      "Marginal Workers Cultivators - Persons": 20224,
      "Upper Primary Gross Enrolment Ratio in percentage DISE": "NA",
      "Scheduled Caste Persons": 237791,
      "Marginal Workers Cultivators worked for 3 - 6 moths during last year - Persons": 14488,
      "Households with landline phone in percentage": 1.18,
      "Total Households in District  Houselisting and Housing Census Data Tables- District Level , Census of India": 231876,
      "Upper Primary Pupil-Teacher Ratio in percentage DISE": "NA",
      "Primary Student-Classroom Ratio in percentage DISE": "NA",
      "Primary Schools with boys toilet in percentage DISE": "NA",
      "Mean number of children ever born to women aged 40-49years  DLHS-4": "Not available",
      "Households receiving untreated tap water within premises  Houselisting and Housing Census Data Tables- District Level , Census of India__5": 2647,
      "Marginal Workers Household Industry worked for 0 - 3 moths during last year - Persons": 883,
      "Total Male Population": 591962,
      "Non Workers - Females": 398136,
      "Current use of family planning methods in percentage DLHS-4": 62.1,
      "Households with main source of drinking water within premises  Houselisting and Housing Census Data Tables- District Level , Census of India__3": 40802,
      "Main Workers Agricultural Labourers - Males": 87109,
      "Marginal Workers Other worked for 0 - 3 moths during last year - Persons": 2178,
      "Currently married women married below 18years of age in percentage DLHS-4": 9.3,
      "Person Illiterates": 495064,
      "Main Workers Household Industry - Females": 1644,
      "Female Literates": 245011,
      "Marginal Workers Cultivators worked for 0 - 3 moths during last year - Males": 1907,
      "Male": "NA",
      "Households with improved source of drinking water in percentage DLHS-4": "Not available",
      "Upper Primary Schools with electricity in percentage DISE": "NA",
      "Households with electricity in percentage DLHS-4": "Not available",
      "Villages with Primary Health Centre within 10km in percentage DLHS-4": "Not applicable",
      "Births to women aged 15-19years out of Total births in percentage DLHS-4": "Not available",
      "Prevalence of Anaemia in women aged 15-49years in percentage DLHS-4": "Not available",
      "Marginal Workers Agricultural Labourers worked for 3 - 6 moths during last year - Persons": 86082,
      "Main Workers Household Industry - Males": 2748,
      "Scheduled Tribe Females": 30466,
      "Marginal Workers worked for 0 - 3 moths during last year - Males": 11038,
      "Marginal Workers Other worked for 3 - 6 moths during last year - Males": 5092,
      "Primary Net Enrolment Ratio in percentage DISE": "NA",
      "Total": "NA",
      "Mean age at marriage for boys DLHS-4": 22.6,
      "Number of District Hospitals  DLHS-4": "Not applicable",
      "0-6 Age Group Females": 90890,
      "Marginal Workers Agricultural Labourers worked for 0 - 3 moths during last year - Persons": 21301,
      "Marginal Workers Household Industry worked for 0 - 3 moths during last year - Males": 261,
      "Total Workers  Females": 129159,
      "Marginal Workers worked for 3 - 6 moths during last year - Females": 57307,
      "Institutional Deliveries in percentage DLHS-4": 84.9,
      "Marginal Workers Other - Males": 6233,
      "Total Workers  Males": 313012,
      "Main Workers - Females": 52792,
      "Primary Gross Enrolment Ratio in percentage DISE": "NA",
      "Main Workers Cultivators - Persons": 140808,
      "Marginal Workers Household Industry worked for 0 - 3 moths during last year - Females": 622,
      "Upper Primary Net Enrolment Ratio in percentage DISE": "NA",
      "Primary New Government Schools since 2003 in percentage DISE": "NA",
      "Tier": "Rural",
      "Marginal Workers Household Industry - Females": 1947,
      "Primary Schools with electricity in percentage DISE": "NA",
      "Main Workers Other - Persons": 40929,
      "Marginal Workers Household Industry worked for 3 - 6 moths during last year - Females": 1325,
      "Main Workers Cultivators - Males": 126497,
      "Main Workers Household Industry - Persons": 4392,
      "Marginal Workers Cultivators worked for 0 - 3 moths during last year - Persons": 5736,
      "Scheduled Caste Males": 126119,
      "Marginal Workers - Persons": 140879,
      "Deliveries at home conducted by skilled health personnel in percentage DLHS-4": 47.4,
      "Villages with Sub-Health Centres within 3km in percentage DLHS-4": "Not applicable",
      "Upper Primary New Government Schools since 2003 in percentage DISE": "NA",
      "0-6 Age Group Males": 97964,
      "Primary Schools with drinking water facility in percentage DISE": "NA",
      "Non Workers - Persons": 677086,
      "Person Literates": 624193,
      "State": "MADHYA PRADESH",
      "Total Female Population": 527295,
      "Marginal Workers worked for 0 - 3 moths during last year - Persons": 30098,
      "Marginal Workers Cultivators - Females": 12704,
      "Marginal Workers Other - Persons": 10219,
      "Sex Ratio": 891,
      "Scheduled Tribe Persons": 63134,
      "Marginal Workers Household Industry worked for 3 - 6 moths during last year - Males": 845,
      "Marginal Workers Agricultural Labourers - Females": 57730,
      "Mean age at marriage for girls DLHS-4": 19.9,
      "Households with solar energy as main source of lighting  Houselisting and Housing Census Data Tables- District Level , Census of India__4": 266,
      "District": "VIDISHA",
      "Households receiving treated tap water within premises in percentage Houselisting and Housing Census Data Tables- District Level , Census of India__1": 1.367541272,
      "Total Workers  Persons": 442171,
      "Households receiving treated tap water within premises  Houselisting and Housing Census Data Tables- District Level , Census of India__4": 3171,
      "Primary Female Teachers in percentage DISE": "NA",
      "Number of Households": 232163,
      "Main Workers Agricultural Labourers - Persons": 115163
    }
  ],
  "Urban": [
    {
      "Marginal Workers Agricultural Labourers - Persons": 1630,
      "Marginal Workers Other - Females": 2948,
      "Marginal Workers Other worked for 0 - 3 moths during last year - Females": 590,
      "Upper Primary Schools with boys toilet in percentage DISE": "NA",
      "Total Population": 339618,
      "Households with electricity as main source of lighting in percentage Houselisting and Housing Census Data Tables- District Level , Census of India": 90.0752178,
      "Primary Girl's Enrolment in percentage DISE": "NA",
      "Marginal Workers worked for 3 - 6 moths during last year - Males": 6021,
      "Prevalence of Acute illness in percentage DLHS-4": "Not available",
      "Main Workers - Persons": 95991,
      "Main Workers Cultivators - Females": 557,
      "Marginal Workers Agricultural Labourers worked for 3 - 6 moths during last year - Females": 451,
      "Marginal Workers Other worked for 0 - 3 moths during last year - Males": 1337,
      "Upper Primary Schools with drinking water facility in percentage DISE": "NA",
      "Primary Schools with girls toilet in percentage DISE": "NA",
      "Marginal Workers worked for 3 - 6 moths during last year - Persons": 9418,
      "Upper Primary Drop Out Rate in percentage DISE": "NA",
      "Prevalence of Anaemia in pregnant women aged 15-49years in percentage DLHS-4": "Not available",
      "Current use of any modern method of family planning in percentage DLHS-4": 58.3,
      "Marginal Workers Agricultural Labourers - Males": 807,
      "Upper Primary Female Teachers in percentage DISE": "NA",
      "Marginal Workers - Females": 4511,
      "Marginal Workers Other worked for 3 - 6 moths during last year - Persons": 7443,
      "Main Workers Agricultural Labourers - Females": 940,
      "Marginal Workers Cultivators worked for 3 - 6 moths during last year - Females": 80,
      "Households with no lighting  Houselisting and Housing Census Data Tables- District Level , Census of India__5": 308,
      "Prevalence of Severe Anaemia  in percentage DLHS-4": "Not available",
      "Total unmet need for family planning in percentage DLHS-4": 29.7,
      "Main Workers Other - Males": 68059,
      "Children who received full vaccination in percentage DLHS-4": "Not available",
      "Marginal Workers Household Industry - Persons": 957,
      "Primary Pupil-Teacher Ratio in percentage DISE": "NA",
      "Marginal Workers Agricultural Labourers worked for 3 - 6 moths during last year - Males": 488,
      "Scheduled Caste Females": 25968,
      "Marginal Workers Cultivators - Males": 192,
      "Marginal Workers - Males": 7729,
      "Marginal Workers worked for 0 - 3 moths during last year - Females": 1114,
      "Households with main source of drinking water within premises in percentage Houselisting and Housing Census Data Tables- District Level , Census of India": 60.0918481,
      "Marginal Workers Household Industry worked for 3 - 6 moths during last year - Persons": 781,
      "Upper Primary Girl's Enrolment in percentage DISE": "NA",
      "Prevalence of Severe Anaemia in women aged 15-49years in percentage DLHS-4": "Not available",
      "Marginal Workers Agricultural Labourers worked for 0 - 3 moths during last year - Males": 319,
      "Households with electricity as main source of lighting  Houselisting and Housing Census Data Tables- District Level , Census of India__3": 59038,
      "Households with computer or laptop with internet connection in percentage": 2.49,
      "PHCs functioning on a 24x7hours basis in percentage DLHS-4": 0,
      "Non Workers - Males": 89035,
      "Total Households in District Houselisting and Housing Census Data Tables- District Level , Census of India": 65543,
      "Upper Primary Schools with girls toilet in percentage DISE": "NA",
      "Households with mobile phone in percentage": 59.89,
      "Households receiving untreated tap water within premises in percentage Houselisting and Housing Census Data Tables- District Level , Census of India__2": 3.452695177,
      "Marginal Workers Cultivators worked for 3 - 6 moths during last year - Males": 175,
      "Prevalence of Anaemia  in percentage DLHS-4": "Not available",
      "Prevalence of Chronic illness in percentage DLHS-4": "Not available",
      "Households with solar energy as main source of lighting in percentage Houselisting and Housing Census Data Tables- District Level , Census of India__1": 0.100697252,
      "Marginal Workers Agricultural Labourers worked for 0 - 3 moths during last year - Females": 372,
      "Main Workers - Males": 80842,
      "Female": "NA",
      "Sno": 1047,
      "Marginal Workers Other worked for 3 - 6 moths during last year - Females": 2358,
      "Marginal Workers Cultivators worked for 0 - 3 moths during last year - Females": 11,
      "Scheduled Tribe Males": 2325,
      "Male Illiterates": 44444,
      "Prevalence of Severe Anaemia in pregnant women aged 15-49years in percentage DLHS-4": "Not available",
      "0-6 Age Group Persons": 46537,
      "Upper Primary Student-Classroom Ratio in percentage DISE": "NA",
      "Currently married men married below 21years of age in percentage DLHS-4": 7.1,
      "Male Literates": 133162,
      "Households with no lighting in percentage Houselisting and Housing Census Data Tables- District Level , Census of India__2": 0.46992051,
      "Primary Drop Out Rate in percentage DISE": "NA",
      "Marginal Workers Household Industry - Males": 308,
      "Female Illiterates": 56449,
      "Main Workers Other - Females": 12494,
      "Marginal Workers Cultivators - Persons": 283,
      "Upper Primary Gross Enrolment Ratio in percentage DISE": "NA",
      "Scheduled Caste Persons": 54353,
      "Marginal Workers Cultivators worked for 3 - 6 moths during last year - Persons": 255,
      "Households with landline phone in percentage": 3.12,
      "Total Households in District  Houselisting and Housing Census Data Tables- District Level , Census of India": 65543,
      "Upper Primary Pupil-Teacher Ratio in percentage DISE": "NA",
      "Primary Student-Classroom Ratio in percentage DISE": "NA",
      "Primary Schools with boys toilet in percentage DISE": "NA",
      "Mean number of children ever born to women aged 40-49years  DLHS-4": "Not available",
      "Households receiving untreated tap water within premises  Houselisting and Housing Census Data Tables- District Level , Census of India__5": 2263,
      "Marginal Workers Household Industry worked for 0 - 3 moths during last year - Persons": 176,
      "Total Male Population": 177606,
      "Non Workers - Females": 142352,
      "Current use of family planning methods in percentage DLHS-4": 60.2,
      "Households with main source of drinking water within premises  Houselisting and Housing Census Data Tables- District Level , Census of India__3": 39386,
      "Main Workers Agricultural Labourers - Males": 3192,
      "Marginal Workers Other worked for 0 - 3 moths during last year - Persons": 1927,
      "Currently married women married below 18years of age in percentage DLHS-4": 6.7,
      "Person Illiterates": 100893,
      "Main Workers Household Industry - Females": 1158,
      "Female Literates": 105563,
      "Marginal Workers Cultivators worked for 0 - 3 moths during last year - Males": 17,
      "Male": "NA",
      "Households with improved source of drinking water in percentage DLHS-4": "Not available",
      "Upper Primary Schools with electricity in percentage DISE": "NA",
      "Households with electricity in percentage DLHS-4": "Not available",
      "Villages with Primary Health Centre within 10km in percentage DLHS-4": 0,
      "Births to women aged 15-19years out of Total births in percentage DLHS-4": "Not available",
      "Prevalence of Anaemia in women aged 15-49years in percentage DLHS-4": "Not available",
      "Marginal Workers Agricultural Labourers worked for 3 - 6 moths during last year - Persons": 939,
      "Main Workers Household Industry - Males": 2848,
      "Scheduled Tribe Females": 2144,
      "Marginal Workers worked for 0 - 3 moths during last year - Males": 1708,
      "Marginal Workers Other worked for 3 - 6 moths during last year - Males": 5085,
      "Primary Net Enrolment Ratio in percentage DISE": "NA",
      "Total": "NA",
      "Mean age at marriage for boys DLHS-4": 26,
      "Number of District Hospitals  DLHS-4": 0,
      "0-6 Age Group Females": 22301,
      "Marginal Workers Agricultural Labourers worked for 0 - 3 moths during last year - Persons": 691,
      "Marginal Workers Household Industry worked for 0 - 3 moths during last year - Males": 35,
      "Total Workers  Females": 19660,
      "Marginal Workers worked for 3 - 6 moths during last year - Females": 3397,
      "Institutional Deliveries in percentage DLHS-4": 96.8,
      "Marginal Workers Other - Males": 6422,
      "Total Workers  Males": 88571,
      "Main Workers - Females": 15149,
      "Primary Gross Enrolment Ratio in percentage DISE": "NA",
      "Main Workers Cultivators - Persons": 7300,
      "Marginal Workers Household Industry worked for 0 - 3 moths during last year - Females": 141,
      "Upper Primary Net Enrolment Ratio in percentage DISE": "NA",
      "Primary New Government Schools since 2003 in percentage DISE": "NA",
      "Tier": "Urban",
      "Marginal Workers Household Industry - Females": 649,
      "Primary Schools with electricity in percentage DISE": "NA",
      "Main Workers Other - Persons": 80553,
      "Marginal Workers Household Industry worked for 3 - 6 moths during last year - Females": 508,
      "Main Workers Cultivators - Males": 6743,
      "Main Workers Household Industry - Persons": 4006,
      "Marginal Workers Cultivators worked for 0 - 3 moths during last year - Persons": 28,
      "Scheduled Caste Males": 28385,
      "Marginal Workers - Persons": 12240,
      "Deliveries at home conducted by skilled health personnel in percentage DLHS-4": 47.1,
      "Villages with Sub-Health Centres within 3km in percentage DLHS-4": 0,
      "Upper Primary New Government Schools since 2003 in percentage DISE": "NA",
      "0-6 Age Group Males": 24236,
      "Primary Schools with drinking water facility in percentage DISE": "NA",
      "Non Workers - Persons": 231387,
      "Person Literates": 238725,
      "State": "MADHYA PRADESH",
      "Total Female Population": 162012,
      "Marginal Workers worked for 0 - 3 moths during last year - Persons": 2822,
      "Marginal Workers Cultivators - Females": 91,
      "Marginal Workers Other - Persons": 9370,
      "Sex Ratio": 912,
      "Scheduled Tribe Persons": 4469,
      "Marginal Workers Household Industry worked for 3 - 6 moths during last year - Males": 273,
      "Marginal Workers Agricultural Labourers - Females": 823,
      "Mean age at marriage for girls DLHS-4": 22.1,
      "Households with solar energy as main source of lighting  Houselisting and Housing Census Data Tables- District Level , Census of India__4": 66,
      "District": "VIDISHA",
      "Households receiving treated tap water within premises in percentage Houselisting and Housing Census Data Tables- District Level , Census of India__1": 29.79418092,
      "Total Workers  Persons": 108231,
      "Households receiving treated tap water within premises  Houselisting and Housing Census Data Tables- District Level , Census of India__4": 19528,
      "Primary Female Teachers in percentage DISE": "NA",
      "Number of Households": 67513,
      "Main Workers Agricultural Labourers - Persons": 4132
    }
  ]
}