{
  "Total": [
    {
      "Marginal Workers Agricultural Labourers - Persons": 25,
      "Marginal Workers Other - Females": 573,
      "Marginal Workers Other worked for 0 - 3 moths during last year - Females": 82,
      "Upper Primary Schools with boys toilet in percentage DISE": 0,
      "Total Population": 41816,
      "Households with electricity as main source of lighting in percentage Houselisting and Housing Census Data Tables- District Level , Census of India": 99.34695012,
      "Primary Girl's Enrolment in percentage DISE": 48.3,
      "Marginal Workers worked for 3 - 6 moths during last year - Males": 717,
      "Prevalence of Acute illness in percentage DLHS-4": 3.7,
      "Main Workers - Persons": 10404,
      "Main Workers Cultivators - Females": 7,
      "Marginal Workers Agricultural Labourers worked for 3 - 6 moths during last year - Females": 11,
      "Marginal Workers Other worked for 0 - 3 moths during last year - Males": 78,
      "Upper Primary Schools with drinking water facility in percentage DISE": 0,
      "Primary Schools with girls toilet in percentage DISE": 100,
      "Marginal Workers worked for 3 - 6 moths during last year - Persons": 1233,
      "Upper Primary Drop Out Rate in percentage DISE": "Not available",
      "Prevalence of Anaemia in pregnant women aged 15-49years in percentage DLHS-4": 49.4,
      "Current use of any modern method of family planning in percentage DLHS-4": 34.3,
      "Marginal Workers Agricultural Labourers - Males": 13,
      "Upper Primary Female Teachers in percentage DISE": 0,
      "Marginal Workers - Females": 600,
      "Marginal Workers Other worked for 3 - 6 moths during last year - Persons": 1184,
      "Main Workers Agricultural Labourers - Females": 10,
      "Marginal Workers Cultivators worked for 3 - 6 moths during last year - Females": 11,
      "Households with no lighting  Houselisting and Housing Census Data Tables- District Level , Census of India__5": 1,
      "Prevalence of Severe Anaemia  in percentage DLHS-4": 3.5,
      "Total unmet need for family planning in percentage DLHS-4": 32.5,
      "Main Workers Other - Males": 8181,
      "Children who received full vaccination in percentage DLHS-4": 74.7,
      "Marginal Workers Household Industry - Persons": 9,
      "Primary Pupil-Teacher Ratio in percentage DISE": 22,
      "Marginal Workers Agricultural Labourers worked for 3 - 6 moths during last year - Males": 11,
      "Scheduled Caste Females": 67,
      "Marginal Workers Cultivators - Males": 9,
      "Marginal Workers - Males": 798,
      "Marginal Workers worked for 0 - 3 moths during last year - Females": 84,
      "Households with main source of drinking water within premises in percentage Houselisting and Housing Census Data Tables- District Level , Census of India": 93.0109768,
      "Marginal Workers Household Industry worked for 3 - 6 moths during last year - Persons": 8,
      "Upper Primary Girl's Enrolment in percentage DISE": 0,
      "Prevalence of Severe Anaemia in women aged 15-49years in percentage DLHS-4": 2.3,
      "Marginal Workers Agricultural Labourers worked for 0 - 3 moths during last year - Males": 2,
      "Households with electricity as main source of lighting  Houselisting and Housing Census Data Tables- District Level , Census of India__3": 7150,
      "Households with computer or laptop with internet connection in percentage": 7.98,
      "PHCs functioning on a 24x7hours basis in percentage DLHS-4": 0,
      "Non Workers - Males": 10050,
      "Total Households in District Houselisting and Housing Census Data Tables- District Level , Census of India": 7197,
      "Upper Primary Schools with girls toilet in percentage DISE": 0,
      "Households with mobile phone in percentage": 41.04,
      "Households receiving untreated tap water within premises in percentage Houselisting and Housing Census Data Tables- District Level , Census of India__2": 2.514936779,
      "Marginal Workers Cultivators worked for 3 - 6 moths during last year - Males": 8,
      "Prevalence of Anaemia  in percentage DLHS-4": 65.9,
      "Prevalence of Chronic illness in percentage DLHS-4": 4.7,
      "Households with solar energy as main source of lighting in percentage Houselisting and Housing Census Data Tables- District Level , Census of India__1": 0.0278,
      "Marginal Workers Agricultural Labourers worked for 0 - 3 moths during last year - Females": 1,
      "Main Workers - Males": 8295,
      "Female": 97.25,
      "Sno": 1367,
      "Marginal Workers Other worked for 3 - 6 moths during last year - Females": 491,
      "Marginal Workers Cultivators worked for 0 - 3 moths during last year - Females": 0,
      "Scheduled Tribe Males": 0,
      "Male Illiterates": 2533,
      "Prevalence of Severe Anaemia in pregnant women aged 15-49years in percentage DLHS-4": 3.8,
      "0-6 Age Group Persons": 4553,
      "Upper Primary Student-Classroom Ratio in percentage DISE": 0,
      "Currently married men married below 21years of age in percentage DLHS-4": 0,
      "Male Literates": 16610,
      "Households with no lighting in percentage Houselisting and Housing Census Data Tables- District Level , Census of India__2": 0.0139,
      "Primary Drop Out Rate in percentage DISE": 1.8,
      "Marginal Workers Household Industry - Males": 5,
      "Female Illiterates": 2813,
      "Main Workers Other - Females": 2083,
      "Marginal Workers Cultivators - Persons": 20,
      "Upper Primary Gross Enrolment Ratio in percentage DISE": 124.8,
      "Scheduled Caste Persons": 144,
      "Marginal Workers Cultivators worked for 3 - 6 moths during last year - Persons": 19,
      "Households with landline phone in percentage": 10.8,
      "Total Households in District  Houselisting and Housing Census Data Tables- District Level , Census of India": 7197,
      "Upper Primary Pupil-Teacher Ratio in percentage DISE": 0,
      "Primary Student-Classroom Ratio in percentage DISE": 19,
      "Primary Schools with boys toilet in percentage DISE": 100,
      "Mean number of children ever born to women aged 40-49years  DLHS-4": 2.1,
      "Households receiving untreated tap water within premises  Houselisting and Housing Census Data Tables- District Level , Census of India__5": 181,
      "Marginal Workers Household Industry worked for 0 - 3 moths during last year - Persons": 1,
      "Total Male Population": 19143,
      "Non Workers - Females": 19964,
      "Current use of family planning methods in percentage DLHS-4": 36.4,
      "Households with main source of drinking water within premises  Houselisting and Housing Census Data Tables- District Level , Census of India__3": 6694,
      "Main Workers Agricultural Labourers - Males": 47,
      "Marginal Workers Other worked for 0 - 3 moths during last year - Persons": 160,
      "Currently married women married below 18years of age in percentage DLHS-4": 1,
      "Person Illiterates": 5346,
      "Main Workers Household Industry - Females": 9,
      "Female Literates": 19860,
      "Marginal Workers Cultivators worked for 0 - 3 moths during last year - Males": 1,
      "Male": 98.63,
      "Households with improved source of drinking water in percentage DLHS-4": 97.9,
      "Upper Primary Schools with electricity in percentage DISE": 0,
      "Households with electricity in percentage DLHS-4": 99.8,
      "Villages with Primary Health Centre within 10km in percentage DLHS-4": "Not applicable",
      "Births to women aged 15-19years out of Total births in percentage DLHS-4": 0,
      "Prevalence of Anaemia in women aged 15-49years in percentage DLHS-4": 59.1,
      "Marginal Workers Agricultural Labourers worked for 3 - 6 moths during last year - Persons": 22,
      "Main Workers Household Industry - Males": 51,
      "Scheduled Tribe Females": 0,
      "Marginal Workers worked for 0 - 3 moths during last year - Males": 81,
      "Marginal Workers Other worked for 3 - 6 moths during last year - Males": 693,
      "Primary Net Enrolment Ratio in percentage DISE": 100,
      "Total": 97.87,
      "Mean age at marriage for boys DLHS-4": 29.9,
      "Number of District Hospitals  DLHS-4": 1,
      "0-6 Age Group Females": 2251,
      "Marginal Workers Agricultural Labourers worked for 0 - 3 moths during last year - Persons": 3,
      "Marginal Workers Household Industry worked for 0 - 3 moths during last year - Males": 0,
      "Total Workers  Females": 2709,
      "Marginal Workers worked for 3 - 6 moths during last year - Females": 516,
      "Institutional Deliveries in percentage DLHS-4": 100,
      "Marginal Workers Other - Males": 771,
      "Total Workers  Males": 9093,
      "Main Workers - Females": 2109,
      "Primary Gross Enrolment Ratio in percentage DISE": 145,
      "Main Workers Cultivators - Persons": 23,
      "Marginal Workers Household Industry worked for 0 - 3 moths during last year - Females": 1,
      "Upper Primary Net Enrolment Ratio in percentage DISE": 100,
      "Primary New Government Schools since 2003 in percentage DISE": 0,
      "Tier": "Total",
      "Marginal Workers Household Industry - Females": 4,
      "Primary Schools with electricity in percentage DISE": 100,
      "Main Workers Other - Persons": 10264,
      "Marginal Workers Household Industry worked for 3 - 6 moths during last year - Females": 3,
      "Main Workers Cultivators - Males": 16,
      "Main Workers Household Industry - Persons": 60,
      "Marginal Workers Cultivators worked for 0 - 3 moths during last year - Persons": 1,
      "Scheduled Caste Males": 77,
      "Marginal Workers - Persons": 1398,
      "Deliveries at home conducted by skilled health personnel in percentage DLHS-4": "0.0                                        (no deliveries at home)",
      "Villages with Sub-Health Centres within 3km in percentage DLHS-4": "Not applicable",
      "Upper Primary New Government Schools since 2003 in percentage DISE": 0,
      "0-6 Age Group Males": 2302,
      "Primary Schools with drinking water facility in percentage DISE": 100,
      "Non Workers - Persons": 30014,
      "Person Literates": 36470,
      "State": "PUDUCHERRY (UT)",
      "Total Female Population": 22673,
      "Marginal Workers worked for 0 - 3 moths during last year - Persons": 165,
      "Marginal Workers Cultivators - Females": 11,
      "Marginal Workers Other - Persons": 1344,
      "Sex Ratio": 1184,
      "Scheduled Tribe Persons": 0,
      "Marginal Workers Household Industry worked for 3 - 6 moths during last year - Males": 5,
      "Marginal Workers Agricultural Labourers - Females": 12,
      "Mean age at marriage for girls DLHS-4": 23.6,
      "Households with solar energy as main source of lighting  Houselisting and Housing Census Data Tables- District Level , Census of India__4": 2,
      "District": "MAHE",
      "Households receiving treated tap water within premises in percentage Houselisting and Housing Census Data Tables- District Level , Census of India__1": 17.28497985,
      "Total Workers  Persons": 11802,
      "Households receiving treated tap water within premises  Houselisting and Housing Census Data Tables- District Level , Census of India__4": 1244,
      "Primary Female Teachers in percentage DISE": 83.9,
      "Number of Households": 7420,
      "Main Workers Agricultural Labourers - Persons": 57
    }
  ],
  "Rural": [
    {
      "Marginal Workers Agricultural Labourers - Persons": 0,
      "Marginal Workers Other - Females": 0,
      "Marginal Workers Other worked for 0 - 3 moths during last year - Females": 0,
      "Upper Primary Schools with boys toilet in percentage DISE": "NA",
      "Total Population": 0,
      "Households with electricity as main source of lighting in percentage Houselisting and Housing Census Data Tables- District Level , Census of India": "NA",
      "Primary Girl's Enrolment in percentage DISE": "NA",
      "Marginal Workers worked for 3 - 6 moths during last year - Males": 0,
      "Prevalence of Acute illness in percentage DLHS-4": "Not applicable",
      "Main Workers - Persons": 0,
      "Main Workers Cultivators - Females": 0,
      "Marginal Workers Agricultural Labourers worked for 3 - 6 moths during last year - Females": 0,
      "Marginal Workers Other worked for 0 - 3 moths during last year - Males": 0,
      "Upper Primary Schools with drinking water facility in percentage DISE": "NA",
      "Primary Schools with girls toilet in percentage DISE": "NA",
      "Marginal Workers worked for 3 - 6 moths during last year - Persons": 0,
      "Upper Primary Drop Out Rate in percentage DISE": "NA",
      "Prevalence of Anaemia in pregnant women aged 15-49years in percentage DLHS-4": "Not applicable",
      "Current use of any modern method of family planning in percentage DLHS-4": "Not applicable",
      "Marginal Workers Agricultural Labourers - Males": 0,
      "Upper Primary Female Teachers in percentage DISE": "NA",
      "Marginal Workers - Females": 0,
      "Marginal Workers Other worked for 3 - 6 moths during last year - Persons": 0,
      "Main Workers Agricultural Labourers - Females": 0,
      "Marginal Workers Cultivators worked for 3 - 6 moths during last year - Females": 0,
      "Households with no lighting  Houselisting and Housing Census Data Tables- District Level , Census of India__5": "-",
      "Prevalence of Severe Anaemia  in percentage DLHS-4": "Not applicable",
      "Total unmet need for family planning in percentage DLHS-4": "Not applicable",
      "Main Workers Other - Males": 0,
      "Children who received full vaccination in percentage DLHS-4": "Not applicable",
      "Marginal Workers Household Industry - Persons": 0,
      "Primary Pupil-Teacher Ratio in percentage DISE": "NA",
      "Marginal Workers Agricultural Labourers worked for 3 - 6 moths during last year - Males": 0,
      "Scheduled Caste Females": 0,
      "Marginal Workers Cultivators - Males": 0,
      "Marginal Workers - Males": 0,
      "Marginal Workers worked for 0 - 3 moths during last year - Females": 0,
      "Households with main source of drinking water within premises in percentage Houselisting and Housing Census Data Tables- District Level , Census of India": "NA",
      "Marginal Workers Household Industry worked for 3 - 6 moths during last year - Persons": 0,
      "Upper Primary Girl's Enrolment in percentage DISE": "NA",
      "Prevalence of Severe Anaemia in women aged 15-49years in percentage DLHS-4": "Not applicable",
      "Marginal Workers Agricultural Labourers worked for 0 - 3 moths during last year - Males": 0,
      "Households with electricity as main source of lighting  Houselisting and Housing Census Data Tables- District Level , Census of India__3": "-",
      "Households with computer or laptop with internet connection in percentage": 0,
      "PHCs functioning on a 24x7hours basis in percentage DLHS-4": "Not applicable",
      "Non Workers - Males": 0,
      "Total Households in District Houselisting and Housing Census Data Tables- District Level , Census of India": "-",
      "Upper Primary Schools with girls toilet in percentage DISE": "NA",
      "Households with mobile phone in percentage": 0,
      "Households receiving untreated tap water within premises in percentage Houselisting and Housing Census Data Tables- District Level , Census of India__2": "NA",
      "Marginal Workers Cultivators worked for 3 - 6 moths during last year - Males": 0,
      "Prevalence of Anaemia  in percentage DLHS-4": "Not applicable",
      "Prevalence of Chronic illness in percentage DLHS-4": "Not applicable",
      "Households with solar energy as main source of lighting in percentage Houselisting and Housing Census Data Tables- District Level , Census of India__1": "NA",
      "Marginal Workers Agricultural Labourers worked for 0 - 3 moths during last year - Females": 0,
      "Main Workers - Males": 0,
      "Female": "NA",
      "Sno": 1366,
      "Marginal Workers Other worked for 3 - 6 moths during last year - Females": 0,
      "Marginal Workers Cultivators worked for 0 - 3 moths during last year - Females": 0,
      "Scheduled Tribe Males": 0,
      "Male Illiterates": 0,
      "Prevalence of Severe Anaemia in pregnant women aged 15-49years in percentage DLHS-4": "Not applicable",
      "0-6 Age Group Persons": 0,
      "Upper Primary Student-Classroom Ratio in percentage DISE": "NA",
      "Currently married men married below 21years of age in percentage DLHS-4": "Not applicable",
      "Male Literates": 0,
      "Households with no lighting in percentage Houselisting and Housing Census Data Tables- District Level , Census of India__2": "NA",
      "Primary Drop Out Rate in percentage DISE": "NA",
      "Marginal Workers Household Industry - Males": 0,
      "Female Illiterates": 0,
      "Main Workers Other - Females": 0,
      "Marginal Workers Cultivators - Persons": 0,
      "Upper Primary Gross Enrolment Ratio in percentage DISE": "NA",
      "Scheduled Caste Persons": 0,
      "Marginal Workers Cultivators worked for 3 - 6 moths during last year - Persons": 0,
      "Households with landline phone in percentage": 0,
      "Total Households in District  Houselisting and Housing Census Data Tables- District Level , Census of India": "-",
      "Upper Primary Pupil-Teacher Ratio in percentage DISE": "NA",
      "Primary Student-Classroom Ratio in percentage DISE": "NA",
      "Primary Schools with boys toilet in percentage DISE": "NA",
      "Mean number of children ever born to women aged 40-49years  DLHS-4": "Not applicable",
      "Households receiving untreated tap water within premises  Houselisting and Housing Census Data Tables- District Level , Census of India__5": "-",
      "Marginal Workers Household Industry worked for 0 - 3 moths during last year - Persons": 0,
      "Total Male Population": 0,
      "Non Workers - Females": 0,
      "Current use of family planning methods in percentage DLHS-4": "Not applicable",
      "Households with main source of drinking water within premises  Houselisting and Housing Census Data Tables- District Level , Census of India__3": "-",
      "Main Workers Agricultural Labourers - Males": 0,
      "Marginal Workers Other worked for 0 - 3 moths during last year - Persons": 0,
      "Currently married women married below 18years of age in percentage DLHS-4": "Not applicable",
      "Person Illiterates": 0,
      "Main Workers Household Industry - Females": 0,
      "Female Literates": 0,
      "Marginal Workers Cultivators worked for 0 - 3 moths during last year - Males": 0,
      "Male": "NA",
      "Households with improved source of drinking water in percentage DLHS-4": "Not applicable",
      "Upper Primary Schools with electricity in percentage DISE": "NA",
      "Households with electricity in percentage DLHS-4": "Not applicable",
      "Villages with Primary Health Centre within 10km in percentage DLHS-4": 0,
      "Births to women aged 15-19years out of Total births in percentage DLHS-4": "Not applicable",
      "Prevalence of Anaemia in women aged 15-49years in percentage DLHS-4": "Not applicable",
      "Marginal Workers Agricultural Labourers worked for 3 - 6 moths during last year - Persons": 0,
      "Main Workers Household Industry - Males": 0,
      "Scheduled Tribe Females": 0,
      "Marginal Workers worked for 0 - 3 moths during last year - Males": 0,
      "Marginal Workers Other worked for 3 - 6 moths during last year - Males": 0,
      "Primary Net Enrolment Ratio in percentage DISE": "NA",
      "Total": "NA",
      "Mean age at marriage for boys DLHS-4": "Not applicable",
      "Number of District Hospitals  DLHS-4": "Not applicable",
      "0-6 Age Group Females": 0,
      "Marginal Workers Agricultural Labourers worked for 0 - 3 moths during last year - Persons": 0,
      "Marginal Workers Household Industry worked for 0 - 3 moths during last year - Males": 0,
      "Total Workers  Females": 0,
      "Marginal Workers worked for 3 - 6 moths during last year - Females": 0,
      "Institutional Deliveries in percentage DLHS-4": "Not applicable",
      "Marginal Workers Other - Males": 0,
      "Total Workers  Males": 0,
      "Main Workers - Females": 0,
      "Primary Gross Enrolment Ratio in percentage DISE": "NA",
      "Main Workers Cultivators - Persons": 0,
      "Marginal Workers Household Industry worked for 0 - 3 moths during last year - Females": 0,
      "Upper Primary Net Enrolment Ratio in percentage DISE": "NA",
      "Primary New Government Schools since 2003 in percentage DISE": "NA",
      "Tier": "Rural",
      "Marginal Workers Household Industry - Females": 0,
      "Primary Schools with electricity in percentage DISE": "NA",
      "Main Workers Other - Persons": 0,
      "Marginal Workers Household Industry worked for 3 - 6 moths during last year - Females": 0,
      "Main Workers Cultivators - Males": 0,
      "Main Workers Household Industry - Persons": 0,
      "Marginal Workers Cultivators worked for 0 - 3 moths during last year - Persons": 0,
      "Scheduled Caste Males": 0,
      "Marginal Workers - Persons": 0,
      "Deliveries at home conducted by skilled health personnel in percentage DLHS-4": "Not applicable",
      "Villages with Sub-Health Centres within 3km in percentage DLHS-4": 0,
      "Upper Primary New Government Schools since 2003 in percentage DISE": "NA",
      "0-6 Age Group Males": 0,
      "Primary Schools with drinking water facility in percentage DISE": "NA",
      "Non Workers - Persons": 0,
      "Person Literates": 0,
      "State": "PUDUCHERRY (UT)",
      "Total Female Population": 0,
      "Marginal Workers worked for 0 - 3 moths during last year - Persons": 0,
      "Marginal Workers Cultivators - Females": 0,
      "Marginal Workers Other - Persons": 0,
      "Sex Ratio": "-",
      "Scheduled Tribe Persons": 0,
      "Marginal Workers Household Industry worked for 3 - 6 moths during last year - Males": 0,
      "Marginal Workers Agricultural Labourers - Females": 0,
      "Mean age at marriage for girls DLHS-4": "Not applicable",
      "Households with solar energy as main source of lighting  Houselisting and Housing Census Data Tables- District Level , Census of India__4": "-",
      "District": "MAHE",
      "Households receiving treated tap water within premises in percentage Houselisting and Housing Census Data Tables- District Level , Census of India__1": "NA",
      "Total Workers  Persons": 0,
      "Households receiving treated tap water within premises  Houselisting and Housing Census Data Tables- District Level , Census of India__4": "-",
      "Primary Female Teachers in percentage DISE": "NA",
      "Number of Households": 0,
      "Main Workers Agricultural Labourers - Persons": 0
    }
  ],
  "Urban": [
    {
      "Marginal Workers Agricultural Labourers - Persons": 25,
      "Marginal Workers Other - Females": 573,
      "Marginal Workers Other worked for 0 - 3 moths during last year - Females": 82,
      "Upper Primary Schools with boys toilet in percentage DISE": "NA",
      "Total Population": 41816,
      "Households with electricity as main source of lighting in percentage Houselisting and Housing Census Data Tables- District Level , Census of India": 99.34695012,
      "Primary Girl's Enrolment in percentage DISE": "NA",
      "Marginal Workers worked for 3 - 6 moths during last year - Males": 717,
      "Prevalence of Acute illness in percentage DLHS-4": "Not available",
      "Main Workers - Persons": 10404,
      "Main Workers Cultivators - Females": 7,
      "Marginal Workers Agricultural Labourers worked for 3 - 6 moths during last year - Females": 11,
      "Marginal Workers Other worked for 0 - 3 moths during last year - Males": 78,
      "Upper Primary Schools with drinking water facility in percentage DISE": "NA",
      "Primary Schools with girls toilet in percentage DISE": "NA",
      "Marginal Workers worked for 3 - 6 moths during last year - Persons": 1233,
      "Upper Primary Drop Out Rate in percentage DISE": "NA",
      "Prevalence of Anaemia in pregnant women aged 15-49years in percentage DLHS-4": "Not available",
      "Current use of any modern method of family planning in percentage DLHS-4": "Not available",
      "Marginal Workers Agricultural Labourers - Males": 13,
      "Upper Primary Female Teachers in percentage DISE": "NA",
      "Marginal Workers - Females": 600,
      "Marginal Workers Other worked for 3 - 6 moths during last year - Persons": 1184,
      "Main Workers Agricultural Labourers - Females": 10,
      "Marginal Workers Cultivators worked for 3 - 6 moths during last year - Females": 11,
      "Households with no lighting  Houselisting and Housing Census Data Tables- District Level , Census of India__5": 1,
      "Prevalence of Severe Anaemia  in percentage DLHS-4": "Not available",
      "Total unmet need for family planning in percentage DLHS-4": "Not available",
      "Main Workers Other - Males": 8181,
      "Children who received full vaccination in percentage DLHS-4": "Not available",
      "Marginal Workers Household Industry - Persons": 9,
      "Primary Pupil-Teacher Ratio in percentage DISE": "NA",
      "Marginal Workers Agricultural Labourers worked for 3 - 6 moths during last year - Males": 11,
      "Scheduled Caste Females": 67,
      "Marginal Workers Cultivators - Males": 9,
      "Marginal Workers - Males": 798,
      "Marginal Workers worked for 0 - 3 moths during last year - Females": 84,
      "Households with main source of drinking water within premises in percentage Houselisting and Housing Census Data Tables- District Level , Census of India": 93.0109768,
      "Marginal Workers Household Industry worked for 3 - 6 moths during last year - Persons": 8,
      "Upper Primary Girl's Enrolment in percentage DISE": "NA",
      "Prevalence of Severe Anaemia in women aged 15-49years in percentage DLHS-4": "Not available",
      "Marginal Workers Agricultural Labourers worked for 0 - 3 moths during last year - Males": 2,
      "Households with electricity as main source of lighting  Houselisting and Housing Census Data Tables- District Level , Census of India__3": 7150,
      "Households with computer or laptop with internet connection in percentage": 7.98,
      "PHCs functioning on a 24x7hours basis in percentage DLHS-4": 0,
      "Non Workers - Males": 10050,
      "Total Households in District Houselisting and Housing Census Data Tables- District Level , Census of India": 7197,
      "Upper Primary Schools with girls toilet in percentage DISE": "NA",
      "Households with mobile phone in percentage": 41.04,
      "Households receiving untreated tap water within premises in percentage Houselisting and Housing Census Data Tables- District Level , Census of India__2": 2.514936779,
      "Marginal Workers Cultivators worked for 3 - 6 moths during last year - Males": 8,
      "Prevalence of Anaemia  in percentage DLHS-4": "Not available",
      "Prevalence of Chronic illness in percentage DLHS-4": "Not available",
      "Households with solar energy as main source of lighting in percentage Houselisting and Housing Census Data Tables- District Level , Census of India__1": 0.0278,
      "Marginal Workers Agricultural Labourers worked for 0 - 3 moths during last year - Females": 1,
      "Main Workers - Males": 8295,
      "Female": "NA",
      "Sno": 1368,
      "Marginal Workers Other worked for 3 - 6 moths during last year - Females": 491,
      "Marginal Workers Cultivators worked for 0 - 3 moths during last year - Females": 0,
      "Scheduled Tribe Males": 0,
      "Male Illiterates": 2533,
      "Prevalence of Severe Anaemia in pregnant women aged 15-49years in percentage DLHS-4": "Not available",
      "0-6 Age Group Persons": 4553,
      "Upper Primary Student-Classroom Ratio in percentage DISE": "NA",
      "Currently married men married below 21years of age in percentage DLHS-4": "Not available",
      "Male Literates": 16610,
      "Households with no lighting in percentage Houselisting and Housing Census Data Tables- District Level , Census of India__2": 0.0139,
      "Primary Drop Out Rate in percentage DISE": "NA",
      "Marginal Workers Household Industry - Males": 5,
      "Female Illiterates": 2813,
      "Main Workers Other - Females": 2083,
      "Marginal Workers Cultivators - Persons": 20,
      "Upper Primary Gross Enrolment Ratio in percentage DISE": "NA",
      "Scheduled Caste Persons": 144,
      "Marginal Workers Cultivators worked for 3 - 6 moths during last year - Persons": 19,
      "Households with landline phone in percentage": 10.8,
      "Total Households in District  Houselisting and Housing Census Data Tables- District Level , Census of India": 7197,
      "Upper Primary Pupil-Teacher Ratio in percentage DISE": "NA",
      "Primary Student-Classroom Ratio in percentage DISE": "NA",
      "Primary Schools with boys toilet in percentage DISE": "NA",
      "Mean number of children ever born to women aged 40-49years  DLHS-4": "Not available",
      "Households receiving untreated tap water within premises  Houselisting and Housing Census Data Tables- District Level , Census of India__5": 181,
      "Marginal Workers Household Industry worked for 0 - 3 moths during last year - Persons": 1,
      "Total Male Population": 19143,
      "Non Workers - Females": 19964,
      "Current use of family planning methods in percentage DLHS-4": "Not available",
      "Households with main source of drinking water within premises  Houselisting and Housing Census Data Tables- District Level , Census of India__3": 6694,
      "Main Workers Agricultural Labourers - Males": 47,
      "Marginal Workers Other worked for 0 - 3 moths during last year - Persons": 160,
      "Currently married women married below 18years of age in percentage DLHS-4": "Not available",
      "Person Illiterates": 5346,
      "Main Workers Household Industry - Females": 9,
      "Female Literates": 19860,
      "Marginal Workers Cultivators worked for 0 - 3 moths during last year - Males": 1,
      "Male": "NA",
      "Households with improved source of drinking water in percentage DLHS-4": "Not available",
      "Upper Primary Schools with electricity in percentage DISE": "NA",
      "Households with electricity in percentage DLHS-4": "Not available",
      "Villages with Primary Health Centre within 10km in percentage DLHS-4": 0,
      "Births to women aged 15-19years out of Total births in percentage DLHS-4": "Not available",
      "Prevalence of Anaemia in women aged 15-49years in percentage DLHS-4": "Not available",
      "Marginal Workers Agricultural Labourers worked for 3 - 6 moths during last year - Persons": 22,
      "Main Workers Household Industry - Males": 51,
      "Scheduled Tribe Females": 0,
      "Marginal Workers worked for 0 - 3 moths during last year - Males": 81,
      "Marginal Workers Other worked for 3 - 6 moths during last year - Males": 693,
      "Primary Net Enrolment Ratio in percentage DISE": "NA",
      "Total": "NA",
      "Mean age at marriage for boys DLHS-4": "Not available",
      "Number of District Hospitals  DLHS-4": 0,
      "0-6 Age Group Females": 2251,
      "Marginal Workers Agricultural Labourers worked for 0 - 3 moths during last year - Persons": 3,
      "Marginal Workers Household Industry worked for 0 - 3 moths during last year - Males": 0,
      "Total Workers  Females": 2709,
      "Marginal Workers worked for 3 - 6 moths during last year - Females": 516,
      "Institutional Deliveries in percentage DLHS-4": "Not available",
      "Marginal Workers Other - Males": 771,
      "Total Workers  Males": 9093,
      "Main Workers - Females": 2109,
      "Primary Gross Enrolment Ratio in percentage DISE": "NA",
      "Main Workers Cultivators - Persons": 23,
      "Marginal Workers Household Industry worked for 0 - 3 moths during last year - Females": 1,
      "Upper Primary Net Enrolment Ratio in percentage DISE": "NA",
      "Primary New Government Schools since 2003 in percentage DISE": "NA",
      "Tier": "Urban",
      "Marginal Workers Household Industry - Females": 4,
      "Primary Schools with electricity in percentage DISE": "NA",
      "Main Workers Other - Persons": 10264,
      "Marginal Workers Household Industry worked for 3 - 6 moths during last year - Females": 3,
      "Main Workers Cultivators - Males": 16,
      "Main Workers Household Industry - Persons": 60,
      "Marginal Workers Cultivators worked for 0 - 3 moths during last year - Persons": 1,
      "Scheduled Caste Males": 77,
      "Marginal Workers - Persons": 1398,
      "Deliveries at home conducted by skilled health personnel in percentage DLHS-4": "Not available",
      "Villages with Sub-Health Centres within 3km in percentage DLHS-4": 0,
      "Upper Primary New Government Schools since 2003 in percentage DISE": "NA",
      "0-6 Age Group Males": 2302,
      "Primary Schools with drinking water facility in percentage DISE": "NA",
      "Non Workers - Persons": 30014,
      "Person Literates": 36470,
      "State": "PUDUCHERRY (UT)",
      "Total Female Population": 22673,
      "Marginal Workers worked for 0 - 3 moths during last year - Persons": 165,
      "Marginal Workers Cultivators - Females": 11,
      "Marginal Workers Other - Persons": 1344,
      "Sex Ratio": 1184,
      "Scheduled Tribe Persons": 0,
      "Marginal Workers Household Industry worked for 3 - 6 moths during last year - Males": 5,
      "Marginal Workers Agricultural Labourers - Females": 12,
      "Mean age at marriage for girls DLHS-4": "Not available",
      "Households with solar energy as main source of lighting  Houselisting and Housing Census Data Tables- District Level , Census of India__4": 2,
      "District": "MAHE",
      "Households receiving treated tap water within premises in percentage Houselisting and Housing Census Data Tables- District Level , Census of India__1": 17.28497985,
      "Total Workers  Persons": 11802,
      "Households receiving treated tap water within premises  Houselisting and Housing Census Data Tables- District Level , Census of India__4": 1244,
      "Primary Female Teachers in percentage DISE": "NA",
      "Number of Households": 7420,
      "Main Workers Agricultural Labourers - Persons": 57
    }
  ]
}