{
  "Total": [
    {
      "Marginal Workers Agricultural Labourers - Persons": 368,
      "Marginal Workers Other - Females": 350,
      "Marginal Workers Other worked for 0 - 3 moths during last year - Females": 69,
      "Upper Primary Schools with boys toilet in percentage DISE": 0,
      "Total Population": 55626,
      "Households with electricity as main source of lighting in percentage Houselisting and Housing Census Data Tables- District Level , Census of India": 96.62608957,
      "Primary Girl's Enrolment in percentage DISE": 52.2,
      "Marginal Workers worked for 3 - 6 moths during last year - Males": 701,
      "Prevalence of Acute illness in percentage DLHS-4": 2.1,
      "Main Workers - Persons": 15373,
      "Main Workers Cultivators - Females": 6,
      "Marginal Workers Agricultural Labourers worked for 3 - 6 moths during last year - Females": 172,
      "Marginal Workers Other worked for 0 - 3 moths during last year - Males": 94,
      "Upper Primary Schools with drinking water facility in percentage DISE": 0,
      "Primary Schools with girls toilet in percentage DISE": 100,
      "Marginal Workers worked for 3 - 6 moths during last year - Persons": 1171,
      "Upper Primary Drop Out Rate in percentage DISE": 6.4,
      "Prevalence of Anaemia in pregnant women aged 15-49years in percentage DLHS-4": 52.5,
      "Current use of any modern method of family planning in percentage DLHS-4": 76.5,
      "Marginal Workers Agricultural Labourers - Males": 167,
      "Upper Primary Female Teachers in percentage DISE": 0,
      "Marginal Workers - Females": 573,
      "Marginal Workers Other worked for 3 - 6 moths during last year - Persons": 820,
      "Main Workers Agricultural Labourers - Females": 455,
      "Marginal Workers Cultivators worked for 3 - 6 moths during last year - Females": 3,
      "Households with no lighting  Houselisting and Housing Census Data Tables- District Level , Census of India__5": 4,
      "Prevalence of Severe Anaemia  in percentage DLHS-4": 3,
      "Total unmet need for family planning in percentage DLHS-4": 15,
      "Main Workers Other - Males": 10367,
      "Children who received full vaccination in percentage DLHS-4": 53.8,
      "Marginal Workers Household Industry - Persons": 28,
      "Primary Pupil-Teacher Ratio in percentage DISE": 20,
      "Marginal Workers Agricultural Labourers worked for 3 - 6 moths during last year - Males": 151,
      "Scheduled Caste Females": 4327,
      "Marginal Workers Cultivators - Males": 4,
      "Marginal Workers - Males": 814,
      "Marginal Workers worked for 0 - 3 moths during last year - Females": 103,
      "Households with main source of drinking water within premises in percentage Houselisting and Housing Census Data Tables- District Level , Census of India": 79.35076646,
      "Marginal Workers Household Industry worked for 3 - 6 moths during last year - Persons": 22,
      "Upper Primary Girl's Enrolment in percentage DISE": 0,
      "Prevalence of Severe Anaemia in women aged 15-49years in percentage DLHS-4": 1.8,
      "Marginal Workers Agricultural Labourers worked for 0 - 3 moths during last year - Males": 16,
      "Households with electricity as main source of lighting  Houselisting and Housing Census Data Tables- District Level , Census of India__3": 12859,
      "Households with computer or laptop with internet connection in percentage": 1.56,
      "PHCs functioning on a 24x7hours basis in percentage DLHS-4": "Not applicable",
      "Non Workers - Males": 13254,
      "Total Households in District Houselisting and Housing Census Data Tables- District Level , Census of India": 13308,
      "Upper Primary Schools with girls toilet in percentage DISE": 0,
      "Households with mobile phone in percentage": 52.77,
      "Households receiving untreated tap water within premises in percentage Houselisting and Housing Census Data Tables- District Level , Census of India__2": 0.278028254,
      "Marginal Workers Cultivators worked for 3 - 6 moths during last year - Males": 3,
      "Prevalence of Anaemia  in percentage DLHS-4": 46.4,
      "Prevalence of Chronic illness in percentage DLHS-4": 10.4,
      "Households with solar energy as main source of lighting in percentage Houselisting and Housing Census Data Tables- District Level , Census of India__1": 0.00751,
      "Marginal Workers Agricultural Labourers worked for 0 - 3 moths during last year - Females": 29,
      "Main Workers - Males": 13233,
      "Female": 76.35,
      "Sno": 1373,
      "Marginal Workers Other worked for 3 - 6 moths during last year - Females": 281,
      "Marginal Workers Cultivators worked for 0 - 3 moths during last year - Females": 1,
      "Scheduled Tribe Males": 0,
      "Male Illiterates": 7382,
      "Prevalence of Severe Anaemia in pregnant women aged 15-49years in percentage DLHS-4": 0,
      "0-6 Age Group Persons": 6204,
      "Upper Primary Student-Classroom Ratio in percentage DISE": 0,
      "Currently married men married below 21years of age in percentage DLHS-4": 5.8,
      "Male Literates": 19919,
      "Households with no lighting in percentage Houselisting and Housing Census Data Tables- District Level , Census of India__2": 0.0301,
      "Primary Drop Out Rate in percentage DISE": 6.3,
      "Marginal Workers Household Industry - Males": 10,
      "Female Illiterates": 8970,
      "Main Workers Other - Females": 1649,
      "Marginal Workers Cultivators - Persons": 8,
      "Upper Primary Gross Enrolment Ratio in percentage DISE": 85.6,
      "Scheduled Caste Persons": 8427,
      "Marginal Workers Cultivators worked for 3 - 6 moths during last year - Persons": 6,
      "Households with landline phone in percentage": 2.15,
      "Total Households in District  Houselisting and Housing Census Data Tables- District Level , Census of India": 13308,
      "Upper Primary Pupil-Teacher Ratio in percentage DISE": 0,
      "Primary Student-Classroom Ratio in percentage DISE": 21,
      "Primary Schools with boys toilet in percentage DISE": 100,
      "Mean number of children ever born to women aged 40-49years  DLHS-4": 2.4,
      "Households receiving untreated tap water within premises  Houselisting and Housing Census Data Tables- District Level , Census of India__5": 37,
      "Marginal Workers Household Industry worked for 0 - 3 moths during last year - Persons": 6,
      "Total Male Population": 27301,
      "Non Workers - Females": 25612,
      "Current use of family planning methods in percentage DLHS-4": 76.9,
      "Households with main source of drinking water within premises  Houselisting and Housing Census Data Tables- District Level , Census of India__3": 10560,
      "Main Workers Agricultural Labourers - Males": 2501,
      "Marginal Workers Other worked for 0 - 3 moths during last year - Persons": 163,
      "Currently married women married below 18years of age in percentage DLHS-4": 13.4,
      "Person Illiterates": 16352,
      "Main Workers Household Industry - Females": 30,
      "Female Literates": 19355,
      "Marginal Workers Cultivators worked for 0 - 3 moths during last year - Males": 1,
      "Male": 82.75,
      "Households with improved source of drinking water in percentage DLHS-4": 100,
      "Upper Primary Schools with electricity in percentage DISE": 0,
      "Households with electricity in percentage DLHS-4": 99.7,
      "Villages with Primary Health Centre within 10km in percentage DLHS-4": "Not applicable",
      "Births to women aged 15-19years out of Total births in percentage DLHS-4": 7,
      "Prevalence of Anaemia in women aged 15-49years in percentage DLHS-4": 42.4,
      "Marginal Workers Agricultural Labourers worked for 3 - 6 moths during last year - Persons": 323,
      "Main Workers Household Industry - Males": 88,
      "Scheduled Tribe Females": 0,
      "Marginal Workers worked for 0 - 3 moths during last year - Males": 113,
      "Marginal Workers Other worked for 3 - 6 moths during last year - Males": 539,
      "Primary Net Enrolment Ratio in percentage DISE": 75.2,
      "Total": 79.47,
      "Mean age at marriage for boys DLHS-4": 25.9,
      "Number of District Hospitals  DLHS-4": 1,
      "0-6 Age Group Females": 2974,
      "Marginal Workers Agricultural Labourers worked for 0 - 3 moths during last year - Persons": 45,
      "Marginal Workers Household Industry worked for 0 - 3 moths during last year - Males": 2,
      "Total Workers  Females": 2713,
      "Marginal Workers worked for 3 - 6 moths during last year - Females": 470,
      "Institutional Deliveries in percentage DLHS-4": 99.6,
      "Marginal Workers Other - Males": 633,
      "Total Workers  Males": 14047,
      "Main Workers - Females": 2140,
      "Primary Gross Enrolment Ratio in percentage DISE": 89,
      "Main Workers Cultivators - Persons": 283,
      "Marginal Workers Household Industry worked for 0 - 3 moths during last year - Females": 4,
      "Upper Primary Net Enrolment Ratio in percentage DISE": 67.1,
      "Primary New Government Schools since 2003 in percentage DISE": 20,
      "Tier": "Total",
      "Marginal Workers Household Industry - Females": 18,
      "Primary Schools with electricity in percentage DISE": 100,
      "Main Workers Other - Persons": 12016,
      "Marginal Workers Household Industry worked for 3 - 6 moths during last year - Females": 14,
      "Main Workers Cultivators - Males": 277,
      "Main Workers Household Industry - Persons": 118,
      "Marginal Workers Cultivators worked for 0 - 3 moths during last year - Persons": 2,
      "Scheduled Caste Males": 4100,
      "Marginal Workers - Persons": 1387,
      "Deliveries at home conducted by skilled health personnel in percentage DLHS-4": 0,
      "Villages with Sub-Health Centres within 3km in percentage DLHS-4": "Not applicable",
      "Upper Primary New Government Schools since 2003 in percentage DISE": 0,
      "0-6 Age Group Males": 3230,
      "Primary Schools with drinking water facility in percentage DISE": 100,
      "Non Workers - Persons": 38866,
      "Person Literates": 39274,
      "State": "PUDUCHERRY (UT)",
      "Total Female Population": 28325,
      "Marginal Workers worked for 0 - 3 moths during last year - Persons": 216,
      "Marginal Workers Cultivators - Females": 4,
      "Marginal Workers Other - Persons": 983,
      "Sex Ratio": 1038,
      "Scheduled Tribe Persons": 0,
      "Marginal Workers Household Industry worked for 3 - 6 moths during last year - Males": 8,
      "Marginal Workers Agricultural Labourers - Females": 201,
      "Mean age at marriage for girls DLHS-4": 20.9,
      "Households with solar energy as main source of lighting  Houselisting and Housing Census Data Tables- District Level , Census of India__4": 1,
      "District": "YANAM",
      "Households receiving treated tap water within premises in percentage Houselisting and Housing Census Data Tables- District Level , Census of India__1": 79.05770965,
      "Total Workers  Persons": 16760,
      "Households receiving treated tap water within premises  Houselisting and Housing Census Data Tables- District Level , Census of India__4": 10521,
      "Primary Female Teachers in percentage DISE": 54.1,
      "Number of Households": 13812,
      "Main Workers Agricultural Labourers - Persons": 2956
    }
  ],
  "Rural": [
    {
      "Marginal Workers Agricultural Labourers - Persons": 0,
      "Marginal Workers Other - Females": 0,
      "Marginal Workers Other worked for 0 - 3 moths during last year - Females": 0,
      "Upper Primary Schools with boys toilet in percentage DISE": "NA",
      "Total Population": 0,
      "Households with electricity as main source of lighting in percentage Houselisting and Housing Census Data Tables- District Level , Census of India": "NA",
      "Primary Girl's Enrolment in percentage DISE": "NA",
      "Marginal Workers worked for 3 - 6 moths during last year - Males": 0,
      "Prevalence of Acute illness in percentage DLHS-4": "Not applicable",
      "Main Workers - Persons": 0,
      "Main Workers Cultivators - Females": 0,
      "Marginal Workers Agricultural Labourers worked for 3 - 6 moths during last year - Females": 0,
      "Marginal Workers Other worked for 0 - 3 moths during last year - Males": 0,
      "Upper Primary Schools with drinking water facility in percentage DISE": "NA",
      "Primary Schools with girls toilet in percentage DISE": "NA",
      "Marginal Workers worked for 3 - 6 moths during last year - Persons": 0,
      "Upper Primary Drop Out Rate in percentage DISE": "NA",
      "Prevalence of Anaemia in pregnant women aged 15-49years in percentage DLHS-4": "Not applicable",
      "Current use of any modern method of family planning in percentage DLHS-4": "Not applicable",
      "Marginal Workers Agricultural Labourers - Males": 0,
      "Upper Primary Female Teachers in percentage DISE": "NA",
      "Marginal Workers - Females": 0,
      "Marginal Workers Other worked for 3 - 6 moths during last year - Persons": 0,
      "Main Workers Agricultural Labourers - Females": 0,
      "Marginal Workers Cultivators worked for 3 - 6 moths during last year - Females": 0,
      "Households with no lighting  Houselisting and Housing Census Data Tables- District Level , Census of India__5": "-",
      "Prevalence of Severe Anaemia  in percentage DLHS-4": "Not applicable",
      "Total unmet need for family planning in percentage DLHS-4": "Not applicable",
      "Main Workers Other - Males": 0,
      "Children who received full vaccination in percentage DLHS-4": "Not applicable",
      "Marginal Workers Household Industry - Persons": 0,
      "Primary Pupil-Teacher Ratio in percentage DISE": "NA",
      "Marginal Workers Agricultural Labourers worked for 3 - 6 moths during last year - Males": 0,
      "Scheduled Caste Females": 0,
      "Marginal Workers Cultivators - Males": 0,
      "Marginal Workers - Males": 0,
      "Marginal Workers worked for 0 - 3 moths during last year - Females": 0,
      "Households with main source of drinking water within premises in percentage Houselisting and Housing Census Data Tables- District Level , Census of India": "NA",
      "Marginal Workers Household Industry worked for 3 - 6 moths during last year - Persons": 0,
      "Upper Primary Girl's Enrolment in percentage DISE": "NA",
      "Prevalence of Severe Anaemia in women aged 15-49years in percentage DLHS-4": "Not applicable",
      "Marginal Workers Agricultural Labourers worked for 0 - 3 moths during last year - Males": 0,
      "Households with electricity as main source of lighting  Houselisting and Housing Census Data Tables- District Level , Census of India__3": "-",
      "Households with computer or laptop with internet connection in percentage": 0,
      "PHCs functioning on a 24x7hours basis in percentage DLHS-4": 0,
      "Non Workers - Males": 0,
      "Total Households in District Houselisting and Housing Census Data Tables- District Level , Census of India": "-",
      "Upper Primary Schools with girls toilet in percentage DISE": "NA",
      "Households with mobile phone in percentage": 0,
      "Households receiving untreated tap water within premises in percentage Houselisting and Housing Census Data Tables- District Level , Census of India__2": "NA",
      "Marginal Workers Cultivators worked for 3 - 6 moths during last year - Males": 0,
      "Prevalence of Anaemia  in percentage DLHS-4": "Not applicable",
      "Prevalence of Chronic illness in percentage DLHS-4": "Not applicable",
      "Households with solar energy as main source of lighting in percentage Houselisting and Housing Census Data Tables- District Level , Census of India__1": "NA",
      "Marginal Workers Agricultural Labourers worked for 0 - 3 moths during last year - Females": 0,
      "Main Workers - Males": 0,
      "Female": "NA",
      "Sno": 1372,
      "Marginal Workers Other worked for 3 - 6 moths during last year - Females": 0,
      "Marginal Workers Cultivators worked for 0 - 3 moths during last year - Females": 0,
      "Scheduled Tribe Males": 0,
      "Male Illiterates": 0,
      "Prevalence of Severe Anaemia in pregnant women aged 15-49years in percentage DLHS-4": "Not applicable",
      "0-6 Age Group Persons": 0,
      "Upper Primary Student-Classroom Ratio in percentage DISE": "NA",
      "Currently married men married below 21years of age in percentage DLHS-4": "Not applicable",
      "Male Literates": 0,
      "Households with no lighting in percentage Houselisting and Housing Census Data Tables- District Level , Census of India__2": "NA",
      "Primary Drop Out Rate in percentage DISE": "NA",
      "Marginal Workers Household Industry - Males": 0,
      "Female Illiterates": 0,
      "Main Workers Other - Females": 0,
      "Marginal Workers Cultivators - Persons": 0,
      "Upper Primary Gross Enrolment Ratio in percentage DISE": "NA",
      "Scheduled Caste Persons": 0,
      "Marginal Workers Cultivators worked for 3 - 6 moths during last year - Persons": 0,
      "Households with landline phone in percentage": 0,
      "Total Households in District  Houselisting and Housing Census Data Tables- District Level , Census of India": "-",
      "Upper Primary Pupil-Teacher Ratio in percentage DISE": "NA",
      "Primary Student-Classroom Ratio in percentage DISE": "NA",
      "Primary Schools with boys toilet in percentage DISE": "NA",
      "Mean number of children ever born to women aged 40-49years  DLHS-4": "Not applicable",
      "Households receiving untreated tap water within premises  Houselisting and Housing Census Data Tables- District Level , Census of India__5": "-",
      "Marginal Workers Household Industry worked for 0 - 3 moths during last year - Persons": 0,
      "Total Male Population": 0,
      "Non Workers - Females": 0,
      "Current use of family planning methods in percentage DLHS-4": "Not applicable",
      "Households with main source of drinking water within premises  Houselisting and Housing Census Data Tables- District Level , Census of India__3": "-",
      "Main Workers Agricultural Labourers - Males": 0,
      "Marginal Workers Other worked for 0 - 3 moths during last year - Persons": 0,
      "Currently married women married below 18years of age in percentage DLHS-4": "Not applicable",
      "Person Illiterates": 0,
      "Main Workers Household Industry - Females": 0,
      "Female Literates": 0,
      "Marginal Workers Cultivators worked for 0 - 3 moths during last year - Males": 0,
      "Male": "NA",
      "Households with improved source of drinking water in percentage DLHS-4": "Not applicable",
      "Upper Primary Schools with electricity in percentage DISE": "NA",
      "Households with electricity in percentage DLHS-4": "Not applicable",
      "Villages with Primary Health Centre within 10km in percentage DLHS-4": 0,
      "Births to women aged 15-19years out of Total births in percentage DLHS-4": "Not applicable",
      "Prevalence of Anaemia in women aged 15-49years in percentage DLHS-4": "Not applicable",
      "Marginal Workers Agricultural Labourers worked for 3 - 6 moths during last year - Persons": 0,
      "Main Workers Household Industry - Males": 0,
      "Scheduled Tribe Females": 0,
      "Marginal Workers worked for 0 - 3 moths during last year - Males": 0,
      "Marginal Workers Other worked for 3 - 6 moths during last year - Males": 0,
      "Primary Net Enrolment Ratio in percentage DISE": "NA",
      "Total": "NA",
      "Mean age at marriage for boys DLHS-4": "Not applicable",
      "Number of District Hospitals  DLHS-4": "Not applicable",
      "0-6 Age Group Females": 0,
      "Marginal Workers Agricultural Labourers worked for 0 - 3 moths during last year - Persons": 0,
      "Marginal Workers Household Industry worked for 0 - 3 moths during last year - Males": 0,
      "Total Workers  Females": 0,
      "Marginal Workers worked for 3 - 6 moths during last year - Females": 0,
      "Institutional Deliveries in percentage DLHS-4": "Not applicable",
      "Marginal Workers Other - Males": 0,
      "Total Workers  Males": 0,
      "Main Workers - Females": 0,
      "Primary Gross Enrolment Ratio in percentage DISE": "NA",
      "Main Workers Cultivators - Persons": 0,
      "Marginal Workers Household Industry worked for 0 - 3 moths during last year - Females": 0,
      "Upper Primary Net Enrolment Ratio in percentage DISE": "NA",
      "Primary New Government Schools since 2003 in percentage DISE": "NA",
      "Tier": "Rural",
      "Marginal Workers Household Industry - Females": 0,
      "Primary Schools with electricity in percentage DISE": "NA",
      "Main Workers Other - Persons": 0,
      "Marginal Workers Household Industry worked for 3 - 6 moths during last year - Females": 0,
      "Main Workers Cultivators - Males": 0,
      "Main Workers Household Industry - Persons": 0,
      "Marginal Workers Cultivators worked for 0 - 3 moths during last year - Persons": 0,
      "Scheduled Caste Males": 0,
      "Marginal Workers - Persons": 0,
      "Deliveries at home conducted by skilled health personnel in percentage DLHS-4": "Not applicable",
      "Villages with Sub-Health Centres within 3km in percentage DLHS-4": 0,
      "Upper Primary New Government Schools since 2003 in percentage DISE": "NA",
      "0-6 Age Group Males": 0,
      "Primary Schools with drinking water facility in percentage DISE": "NA",
      "Non Workers - Persons": 0,
      "Person Literates": 0,
      "State": "PUDUCHERRY (UT)",
      "Total Female Population": 0,
      "Marginal Workers worked for 0 - 3 moths during last year - Persons": 0,
      "Marginal Workers Cultivators - Females": 0,
      "Marginal Workers Other - Persons": 0,
      "Sex Ratio": "-",
      "Scheduled Tribe Persons": 0,
      "Marginal Workers Household Industry worked for 3 - 6 moths during last year - Males": 0,
      "Marginal Workers Agricultural Labourers - Females": 0,
      "Mean age at marriage for girls DLHS-4": "Not applicable",
      "Households with solar energy as main source of lighting  Houselisting and Housing Census Data Tables- District Level , Census of India__4": "-",
      "District": "YANAM",
      "Households receiving treated tap water within premises in percentage Houselisting and Housing Census Data Tables- District Level , Census of India__1": "NA",
      "Total Workers  Persons": 0,
      "Households receiving treated tap water within premises  Houselisting and Housing Census Data Tables- District Level , Census of India__4": "-",
      "Primary Female Teachers in percentage DISE": "NA",
      "Number of Households": 0,
      "Main Workers Agricultural Labourers - Persons": 0
    }
  ],
  "Urban": [
    {
      "Marginal Workers Agricultural Labourers - Persons": 368,
      "Marginal Workers Other - Females": 350,
      "Marginal Workers Other worked for 0 - 3 moths during last year - Females": 69,
      "Upper Primary Schools with boys toilet in percentage DISE": "NA",
      "Total Population": 55626,
      "Households with electricity as main source of lighting in percentage Houselisting and Housing Census Data Tables- District Level , Census of India": 96.62608957,
      "Primary Girl's Enrolment in percentage DISE": "NA",
      "Marginal Workers worked for 3 - 6 moths during last year - Males": 701,
      "Prevalence of Acute illness in percentage DLHS-4": "Not available",
      "Main Workers - Persons": 15373,
      "Main Workers Cultivators - Females": 6,
      "Marginal Workers Agricultural Labourers worked for 3 - 6 moths during last year - Females": 172,
      "Marginal Workers Other worked for 0 - 3 moths during last year - Males": 94,
      "Upper Primary Schools with drinking water facility in percentage DISE": "NA",
      "Primary Schools with girls toilet in percentage DISE": "NA",
      "Marginal Workers worked for 3 - 6 moths during last year - Persons": 1171,
      "Upper Primary Drop Out Rate in percentage DISE": "NA",
      "Prevalence of Anaemia in pregnant women aged 15-49years in percentage DLHS-4": "Not available",
      "Current use of any modern method of family planning in percentage DLHS-4": "Not available",
      "Marginal Workers Agricultural Labourers - Males": 167,
      "Upper Primary Female Teachers in percentage DISE": "NA",
      "Marginal Workers - Females": 573,
      "Marginal Workers Other worked for 3 - 6 moths during last year - Persons": 820,
      "Main Workers Agricultural Labourers - Females": 455,
      "Marginal Workers Cultivators worked for 3 - 6 moths during last year - Females": 3,
      "Households with no lighting  Houselisting and Housing Census Data Tables- District Level , Census of India__5": 4,
      "Prevalence of Severe Anaemia  in percentage DLHS-4": "Not available",
      "Total unmet need for family planning in percentage DLHS-4": "Not available",
      "Main Workers Other - Males": 10367,
      "Children who received full vaccination in percentage DLHS-4": "Not available",
      "Marginal Workers Household Industry - Persons": 28,
      "Primary Pupil-Teacher Ratio in percentage DISE": "NA",
      "Marginal Workers Agricultural Labourers worked for 3 - 6 moths during last year - Males": 151,
      "Scheduled Caste Females": 4327,
      "Marginal Workers Cultivators - Males": 4,
      "Marginal Workers - Males": 814,
      "Marginal Workers worked for 0 - 3 moths during last year - Females": 103,
      "Households with main source of drinking water within premises in percentage Houselisting and Housing Census Data Tables- District Level , Census of India": 79.35076646,
      "Marginal Workers Household Industry worked for 3 - 6 moths during last year - Persons": 22,
      "Upper Primary Girl's Enrolment in percentage DISE": "NA",
      "Prevalence of Severe Anaemia in women aged 15-49years in percentage DLHS-4": "Not available",
      "Marginal Workers Agricultural Labourers worked for 0 - 3 moths during last year - Males": 16,
      "Households with electricity as main source of lighting  Houselisting and Housing Census Data Tables- District Level , Census of India__3": 12859,
      "Households with computer or laptop with internet connection in percentage": 1.56,
      "PHCs functioning on a 24x7hours basis in percentage DLHS-4": 0,
      "Non Workers - Males": 13254,
      "Total Households in District Houselisting and Housing Census Data Tables- District Level , Census of India": 13308,
      "Upper Primary Schools with girls toilet in percentage DISE": "NA",
      "Households with mobile phone in percentage": 52.77,
      "Households receiving untreated tap water within premises in percentage Houselisting and Housing Census Data Tables- District Level , Census of India__2": 0.278028254,
      "Marginal Workers Cultivators worked for 3 - 6 moths during last year - Males": 3,
      "Prevalence of Anaemia  in percentage DLHS-4": "Not available",
      "Prevalence of Chronic illness in percentage DLHS-4": "Not available",
      "Households with solar energy as main source of lighting in percentage Houselisting and Housing Census Data Tables- District Level , Census of India__1": 0.00751,
      "Marginal Workers Agricultural Labourers worked for 0 - 3 moths during last year - Females": 29,
      "Main Workers - Males": 13233,
      "Female": "NA",
      "Sno": 1374,
      "Marginal Workers Other worked for 3 - 6 moths during last year - Females": 281,
      "Marginal Workers Cultivators worked for 0 - 3 moths during last year - Females": 1,
      "Scheduled Tribe Males": 0,
      "Male Illiterates": 7382,
      "Prevalence of Severe Anaemia in pregnant women aged 15-49years in percentage DLHS-4": "Not available",
      "0-6 Age Group Persons": 6204,
      "Upper Primary Student-Classroom Ratio in percentage DISE": "NA",
      "Currently married men married below 21years of age in percentage DLHS-4": "Not available",
      "Male Literates": 19919,
      "Households with no lighting in percentage Houselisting and Housing Census Data Tables- District Level , Census of India__2": 0.0301,
      "Primary Drop Out Rate in percentage DISE": "NA",
      "Marginal Workers Household Industry - Males": 10,
      "Female Illiterates": 8970,
      "Main Workers Other - Females": 1649,
      "Marginal Workers Cultivators - Persons": 8,
      "Upper Primary Gross Enrolment Ratio in percentage DISE": "NA",
      "Scheduled Caste Persons": 8427,
      "Marginal Workers Cultivators worked for 3 - 6 moths during last year - Persons": 6,
      "Households with landline phone in percentage": 2.15,
      "Total Households in District  Houselisting and Housing Census Data Tables- District Level , Census of India": 13308,
      "Upper Primary Pupil-Teacher Ratio in percentage DISE": "NA",
      "Primary Student-Classroom Ratio in percentage DISE": "NA",
      "Primary Schools with boys toilet in percentage DISE": "NA",
      "Mean number of children ever born to women aged 40-49years  DLHS-4": "Not available",
      "Households receiving untreated tap water within premises  Houselisting and Housing Census Data Tables- District Level , Census of India__5": 37,
      "Marginal Workers Household Industry worked for 0 - 3 moths during last year - Persons": 6,
      "Total Male Population": 27301,
      "Non Workers - Females": 25612,
      "Current use of family planning methods in percentage DLHS-4": "Not available",
      "Households with main source of drinking water within premises  Houselisting and Housing Census Data Tables- District Level , Census of India__3": 10560,
      "Main Workers Agricultural Labourers - Males": 2501,
      "Marginal Workers Other worked for 0 - 3 moths during last year - Persons": 163,
      "Currently married women married below 18years of age in percentage DLHS-4": "Not available",
      "Person Illiterates": 16352,
      "Main Workers Household Industry - Females": 30,
      "Female Literates": 19355,
      "Marginal Workers Cultivators worked for 0 - 3 moths during last year - Males": 1,
      "Male": "NA",
      "Households with improved source of drinking water in percentage DLHS-4": "Not available",
      "Upper Primary Schools with electricity in percentage DISE": "NA",
      "Households with electricity in percentage DLHS-4": "Not available",
      "Villages with Primary Health Centre within 10km in percentage DLHS-4": 0,
      "Births to women aged 15-19years out of Total births in percentage DLHS-4": "Not available",
      "Prevalence of Anaemia in women aged 15-49years in percentage DLHS-4": "Not available",
      "Marginal Workers Agricultural Labourers worked for 3 - 6 moths during last year - Persons": 323,
      "Main Workers Household Industry - Males": 88,
      "Scheduled Tribe Females": 0,
      "Marginal Workers worked for 0 - 3 moths during last year - Males": 113,
      "Marginal Workers Other worked for 3 - 6 moths during last year - Males": 539,
      "Primary Net Enrolment Ratio in percentage DISE": "NA",
      "Total": "NA",
      "Mean age at marriage for boys DLHS-4": "Not available",
      "Number of District Hospitals  DLHS-4": 0,
      "0-6 Age Group Females": 2974,
      "Marginal Workers Agricultural Labourers worked for 0 - 3 moths during last year - Persons": 45,
      "Marginal Workers Household Industry worked for 0 - 3 moths during last year - Males": 2,
      "Total Workers  Females": 2713,
      "Marginal Workers worked for 3 - 6 moths during last year - Females": 470,
      "Institutional Deliveries in percentage DLHS-4": "Not available",
      "Marginal Workers Other - Males": 633,
      "Total Workers  Males": 14047,
      "Main Workers - Females": 2140,
      "Primary Gross Enrolment Ratio in percentage DISE": "NA",
      "Main Workers Cultivators - Persons": 283,
      "Marginal Workers Household Industry worked for 0 - 3 moths during last year - Females": 4,
      "Upper Primary Net Enrolment Ratio in percentage DISE": "NA",
      "Primary New Government Schools since 2003 in percentage DISE": "NA",
      "Tier": "Urban",
      "Marginal Workers Household Industry - Females": 18,
      "Primary Schools with electricity in percentage DISE": "NA",
      "Main Workers Other - Persons": 12016,
      "Marginal Workers Household Industry worked for 3 - 6 moths during last year - Females": 14,
      "Main Workers Cultivators - Males": 277,
      "Main Workers Household Industry - Persons": 118,
      "Marginal Workers Cultivators worked for 0 - 3 moths during last year - Persons": 2,
      "Scheduled Caste Males": 4100,
      "Marginal Workers - Persons": 1387,
      "Deliveries at home conducted by skilled health personnel in percentage DLHS-4": "Not available",
      "Villages with Sub-Health Centres within 3km in percentage DLHS-4": 0,
      "Upper Primary New Government Schools since 2003 in percentage DISE": "NA",
      "0-6 Age Group Males": 3230,
      "Primary Schools with drinking water facility in percentage DISE": "NA",
      "Non Workers - Persons": 38866,
      "Person Literates": 39274,
      "State": "PUDUCHERRY (UT)",
      "Total Female Population": 28325,
      "Marginal Workers worked for 0 - 3 moths during last year - Persons": 216,
      "Marginal Workers Cultivators - Females": 4,
      "Marginal Workers Other - Persons": 983,
      "Sex Ratio": 1038,
      "Scheduled Tribe Persons": 0,
      "Marginal Workers Household Industry worked for 3 - 6 moths during last year - Males": 8,
      "Marginal Workers Agricultural Labourers - Females": 201,
      "Mean age at marriage for girls DLHS-4": "Not available",
      "Households with solar energy as main source of lighting  Houselisting and Housing Census Data Tables- District Level , Census of India__4": 1,
      "District": "YANAM",
      "Households receiving treated tap water within premises in percentage Houselisting and Housing Census Data Tables- District Level , Census of India__1": 79.05770965,
      "Total Workers  Persons": 16760,
      "Households receiving treated tap water within premises  Houselisting and Housing Census Data Tables- District Level , Census of India__4": 10521,
      "Primary Female Teachers in percentage DISE": "NA",
      "Number of Households": 13812,
      "Main Workers Agricultural Labourers - Persons": 2956
    }
  ]
}