{
  "Total": [
    {
      "Marginal Workers Agricultural Labourers - Persons": 306340,
      "Marginal Workers Other - Females": 110035,
      "Marginal Workers Other worked for 0 - 3 moths during last year - Females": 17512,
      "Upper Primary Schools with boys toilet in percentage DISE": 99.9,
      "Total Population": 5954391,
      "Households with electricity as main source of lighting in percentage Houselisting and Housing Census Data Tables- District Level , Census of India": 43.57472514,
      "Primary Girl's Enrolment in percentage DISE": 49.8,
      "Marginal Workers worked for 3 - 6 moths during last year - Males": 364095,
      "Prevalence of Acute illness in percentage DLHS-4": "Not available",
      "Main Workers - Persons": 1286732,
      "Main Workers Cultivators - Females": 79488,
      "Marginal Workers Agricultural Labourers worked for 3 - 6 moths during last year - Females": 119405,
      "Marginal Workers Other worked for 0 - 3 moths during last year - Males": 29988,
      "Upper Primary Schools with drinking water facility in percentage DISE": 98.9,
      "Primary Schools with girls toilet in percentage DISE": 99.9,
      "Marginal Workers worked for 3 - 6 moths during last year - Persons": 663618,
      "Upper Primary Drop Out Rate in percentage DISE": "Not available",
      "Prevalence of Anaemia in pregnant women aged 15-49years in percentage DLHS-4": "Not available",
      "Current use of any modern method of family planning in percentage DLHS-4": 45.6,
      "Marginal Workers Agricultural Labourers - Males": 151210,
      "Upper Primary Female Teachers in percentage DISE": 42.1,
      "Marginal Workers - Females": 380198,
      "Marginal Workers Other worked for 3 - 6 moths during last year - Persons": 255908,
      "Main Workers Agricultural Labourers - Females": 80354,
      "Marginal Workers Cultivators worked for 3 - 6 moths during last year - Females": 54548,
      "Households with no lighting  Houselisting and Housing Census Data Tables- District Level , Census of India__5": 1960,
      "Prevalence of Severe Anaemia  in percentage DLHS-4": "Not available",
      "Total unmet need for family planning in percentage DLHS-4": 16,
      "Main Workers Other - Males": 502568,
      "Children who received full vaccination in percentage DLHS-4": "Not available",
      "Marginal Workers Household Industry - Persons": 78646,
      "Primary Pupil-Teacher Ratio in percentage DISE": 45,
      "Marginal Workers Agricultural Labourers worked for 3 - 6 moths during last year - Males": 121652,
      "Scheduled Caste Females": 622775,
      "Marginal Workers Cultivators - Males": 65625,
      "Marginal Workers - Males": 444977,
      "Marginal Workers worked for 0 - 3 moths during last year - Females": 80675,
      "Households with main source of drinking water within premises in percentage Houselisting and Housing Census Data Tables- District Level , Census of India": 35.92809773,
      "Marginal Workers Household Industry worked for 3 - 6 moths during last year - Persons": 59651,
      "Upper Primary Girl's Enrolment in percentage DISE": 53.7,
      "Prevalence of Severe Anaemia in women aged 15-49years in percentage DLHS-4": "Not available",
      "Marginal Workers Agricultural Labourers worked for 0 - 3 moths during last year - Males": 29558,
      "Households with electricity as main source of lighting  Houselisting and Housing Census Data Tables- District Level , Census of India__3": 391542,
      "Households with computer or laptop with internet connection in percentage": 2.68,
      "PHCs functioning on a 24x7hours basis in percentage DLHS-4": "Not available",
      "Non Workers - Males": 1705697,
      "Total Households in District Houselisting and Housing Census Data Tables- District Level , Census of India": 898553,
      "Upper Primary Schools with girls toilet in percentage DISE": 99.9,
      "Households with mobile phone in percentage": 61.95,
      "Households receiving untreated tap water within premises in percentage Houselisting and Housing Census Data Tables- District Level , Census of India__2": 1.219404977,
      "Marginal Workers Cultivators worked for 3 - 6 moths during last year - Males": 52454,
      "Prevalence of Anaemia  in percentage DLHS-4": "Not available",
      "Prevalence of Chronic illness in percentage DLHS-4": "Not available",
      "Households with solar energy as main source of lighting in percentage Houselisting and Housing Census Data Tables- District Level , Census of India__1": 0.385063541,
      "Marginal Workers Agricultural Labourers worked for 0 - 3 moths during last year - Females": 35725,
      "Main Workers - Males": 981133,
      "Female": 60.97,
      "Sno": 1709,
      "Marginal Workers Other worked for 3 - 6 moths during last year - Females": 92523,
      "Marginal Workers Cultivators worked for 0 - 3 moths during last year - Females": 16608,
      "Scheduled Tribe Males": 4270,
      "Male Illiterates": 932467,
      "Prevalence of Severe Anaemia in pregnant women aged 15-49years in percentage DLHS-4": "Not available",
      "0-6 Age Group Persons": 885355,
      "Upper Primary Student-Classroom Ratio in percentage DISE": 26,
      "Currently married men married below 21years of age in percentage DLHS-4": 9.4,
      "Male Literates": 2199340,
      "Households with no lighting in percentage Houselisting and Housing Census Data Tables- District Level , Census of India__2": 0.21812848,
      "Primary Drop Out Rate in percentage DISE": 3.4,
      "Marginal Workers Household Industry - Males": 34769,
      "Female Illiterates": 1356197,
      "Main Workers Other - Females": 104625,
      "Marginal Workers Cultivators - Persons": 136781,
      "Upper Primary Gross Enrolment Ratio in percentage DISE": 76.3,
      "Scheduled Caste Persons": 1309851,
      "Marginal Workers Cultivators worked for 3 - 6 moths during last year - Persons": 107002,
      "Households with landline phone in percentage": 3.87,
      "Total Households in District  Houselisting and Housing Census Data Tables- District Level , Census of India": 898553,
      "Upper Primary Pupil-Teacher Ratio in percentage DISE": 34,
      "Primary Student-Classroom Ratio in percentage DISE": 33,
      "Primary Schools with boys toilet in percentage DISE": 100,
      "Mean number of children ever born to women aged 40-49years  DLHS-4": "Not available",
      "Households receiving untreated tap water within premises  Houselisting and Housing Census Data Tables- District Level , Census of India__5": 10957,
      "Marginal Workers Household Industry worked for 0 - 3 moths during last year - Persons": 18995,
      "Total Male Population": 3131807,
      "Non Workers - Females": 2136787,
      "Current use of family planning methods in percentage DLHS-4": 61.4,
      "Households with main source of drinking water within premises  Houselisting and Housing Census Data Tables- District Level , Census of India__3": 322833,
      "Main Workers Agricultural Labourers - Males": 154452,
      "Marginal Workers Other worked for 0 - 3 moths during last year - Persons": 47500,
      "Currently married women married below 18years of age in percentage DLHS-4": 1.5,
      "Person Illiterates": 2288664,
      "Main Workers Household Industry - Females": 41132,
      "Female Literates": 1466387,
      "Marginal Workers Cultivators worked for 0 - 3 moths during last year - Males": 13171,
      "Male": 82.55,
      "Households with improved source of drinking water in percentage DLHS-4": "Not available",
      "Upper Primary Schools with electricity in percentage DISE": 30.6,
      "Households with electricity in percentage DLHS-4": "Not available",
      "Villages with Primary Health Centre within 10km in percentage DLHS-4": "Not available",
      "Births to women aged 15-19years out of Total births in percentage DLHS-4": "Not available",
      "Prevalence of Anaemia in women aged 15-49years in percentage DLHS-4": "Not available",
      "Marginal Workers Agricultural Labourers worked for 3 - 6 moths during last year - Persons": 241057,
      "Main Workers Household Industry - Males": 66099,
      "Scheduled Tribe Females": 3685,
      "Marginal Workers worked for 0 - 3 moths during last year - Males": 80882,
      "Marginal Workers Other worked for 3 - 6 moths during last year - Males": 163385,
      "Primary Net Enrolment Ratio in percentage DISE": 85.1,
      "Total": 72.32,
      "Mean age at marriage for boys DLHS-4": 24.7,
      "Number of District Hospitals  DLHS-4": "Not available",
      "0-6 Age Group Females": 417661,
      "Marginal Workers Agricultural Labourers worked for 0 - 3 moths during last year - Persons": 65283,
      "Marginal Workers Household Industry worked for 0 - 3 moths during last year - Males": 8165,
      "Total Workers  Females": 685797,
      "Marginal Workers worked for 3 - 6 moths during last year - Females": 299523,
      "Institutional Deliveries in percentage DLHS-4": 57.4,
      "Marginal Workers Other - Males": 193373,
      "Total Workers  Males": 1426110,
      "Main Workers - Females": 305599,
      "Primary Gross Enrolment Ratio in percentage DISE": 98.4,
      "Main Workers Cultivators - Persons": 337502,
      "Marginal Workers Household Industry worked for 0 - 3 moths during last year - Females": 10830,
      "Upper Primary Net Enrolment Ratio in percentage DISE": 56.1,
      "Primary New Government Schools since 2003 in percentage DISE": 21.8,
      "Tier": "Total",
      "Marginal Workers Household Industry - Females": 43877,
      "Primary Schools with electricity in percentage DISE": 30.2,
      "Main Workers Other - Persons": 607193,
      "Marginal Workers Household Industry worked for 3 - 6 moths during last year - Females": 33047,
      "Main Workers Cultivators - Males": 258014,
      "Main Workers Household Industry - Persons": 107231,
      "Marginal Workers Cultivators worked for 0 - 3 moths during last year - Persons": 29779,
      "Scheduled Caste Males": 687076,
      "Marginal Workers - Persons": 825175,
      "Deliveries at home conducted by skilled health personnel in percentage DLHS-4": 30.3,
      "Villages with Sub-Health Centres within 3km in percentage DLHS-4": "Not available",
      "Upper Primary New Government Schools since 2003 in percentage DISE": 59.5,
      "0-6 Age Group Males": 467694,
      "Primary Schools with drinking water facility in percentage DISE": 99,
      "Non Workers - Persons": 3842484,
      "Person Literates": 3665727,
      "State": "UTTAR PRADESH",
      "Total Female Population": 2822584,
      "Marginal Workers worked for 0 - 3 moths during last year - Persons": 161557,
      "Marginal Workers Cultivators - Females": 71156,
      "Marginal Workers Other - Persons": 303408,
      "Sex Ratio": 901,
      "Scheduled Tribe Persons": 7955,
      "Marginal Workers Household Industry worked for 3 - 6 moths during last year - Males": 26604,
      "Marginal Workers Agricultural Labourers - Females": 155130,
      "Mean age at marriage for girls DLHS-4": 22.4,
      "Households with solar energy as main source of lighting  Houselisting and Housing Census Data Tables- District Level , Census of India__4": 3460,
      "District": "ALLAHABAD",
      "Households receiving treated tap water within premises in percentage Houselisting and Housing Census Data Tables- District Level , Census of India__1": 19.08668715,
      "Total Workers  Persons": 2111907,
      "Households receiving treated tap water within premises  Houselisting and Housing Census Data Tables- District Level , Census of India__4": 171504,
      "Primary Female Teachers in percentage DISE": 51,
      "Number of Households": 976733,
      "Main Workers Agricultural Labourers - Persons": 234806
    }
  ],
  "Rural": [
    {
      "Marginal Workers Agricultural Labourers - Persons": 297228,
      "Marginal Workers Other - Females": 67774,
      "Marginal Workers Other worked for 0 - 3 moths during last year - Females": 14460,
      "Upper Primary Schools with boys toilet in percentage DISE": "NA",
      "Total Population": 4481518,
      "Households with electricity as main source of lighting in percentage Houselisting and Housing Census Data Tables- District Level , Census of India": 30.45001982,
      "Primary Girl's Enrolment in percentage DISE": "NA",
      "Marginal Workers worked for 3 - 6 moths during last year - Males": 286897,
      "Prevalence of Acute illness in percentage DLHS-4": "Not available",
      "Main Workers - Persons": 934718,
      "Main Workers Cultivators - Females": 78109,
      "Marginal Workers Agricultural Labourers worked for 3 - 6 moths during last year - Females": 116241,
      "Marginal Workers Other worked for 0 - 3 moths during last year - Males": 23266,
      "Upper Primary Schools with drinking water facility in percentage DISE": "NA",
      "Primary Schools with girls toilet in percentage DISE": "NA",
      "Marginal Workers worked for 3 - 6 moths during last year - Persons": 538031,
      "Upper Primary Drop Out Rate in percentage DISE": "NA",
      "Prevalence of Anaemia in pregnant women aged 15-49years in percentage DLHS-4": "Not available",
      "Current use of any modern method of family planning in percentage DLHS-4": 44.7,
      "Marginal Workers Agricultural Labourers - Males": 145899,
      "Upper Primary Female Teachers in percentage DISE": "NA",
      "Marginal Workers - Females": 326844,
      "Marginal Workers Other worked for 3 - 6 moths during last year - Persons": 151445,
      "Main Workers Agricultural Labourers - Females": 77296,
      "Marginal Workers Cultivators worked for 3 - 6 moths during last year - Females": 53430,
      "Households with no lighting  Houselisting and Housing Census Data Tables- District Level , Census of India__5": 1471,
      "Prevalence of Severe Anaemia  in percentage DLHS-4": "Not available",
      "Total unmet need for family planning in percentage DLHS-4": 16.3,
      "Main Workers Other - Males": 248407,
      "Children who received full vaccination in percentage DLHS-4": "Not available",
      "Marginal Workers Household Industry - Persons": 65562,
      "Primary Pupil-Teacher Ratio in percentage DISE": "NA",
      "Marginal Workers Agricultural Labourers worked for 3 - 6 moths during last year - Males": 117158,
      "Scheduled Caste Females": 528677,
      "Marginal Workers Cultivators - Males": 63758,
      "Marginal Workers - Males": 358785,
      "Marginal Workers worked for 0 - 3 moths during last year - Females": 75710,
      "Households with main source of drinking water within premises in percentage Houselisting and Housing Census Data Tables- District Level , Census of India": 23.0697637,
      "Marginal Workers Household Industry worked for 3 - 6 moths during last year - Persons": 48995,
      "Upper Primary Girl's Enrolment in percentage DISE": "NA",
      "Prevalence of Severe Anaemia in women aged 15-49years in percentage DLHS-4": "Not available",
      "Marginal Workers Agricultural Labourers worked for 0 - 3 moths during last year - Males": 28741,
      "Households with electricity as main source of lighting  Houselisting and Housing Census Data Tables- District Level , Census of India__3": 212004,
      "Households with computer or laptop with internet connection in percentage": 1,
      "PHCs functioning on a 24x7hours basis in percentage DLHS-4": "Not applicable",
      "Non Workers - Males": 1291053,
      "Total Households in District Houselisting and Housing Census Data Tables- District Level , Census of India": 696236,
      "Upper Primary Schools with girls toilet in percentage DISE": "NA",
      "Households with mobile phone in percentage": 59.68,
      "Households receiving untreated tap water within premises in percentage Houselisting and Housing Census Data Tables- District Level , Census of India__2": 0.856462464,
      "Marginal Workers Cultivators worked for 3 - 6 moths during last year - Males": 50762,
      "Prevalence of Anaemia  in percentage DLHS-4": "Not available",
      "Prevalence of Chronic illness in percentage DLHS-4": "Not available",
      "Households with solar energy as main source of lighting in percentage Houselisting and Housing Census Data Tables- District Level , Census of India__1": 0.433042819,
      "Marginal Workers Agricultural Labourers worked for 0 - 3 moths during last year - Females": 35088,
      "Main Workers - Males": 691121,
      "Female": "NA",
      "Sno": 1708,
      "Marginal Workers Other worked for 3 - 6 moths during last year - Females": 53314,
      "Marginal Workers Cultivators worked for 0 - 3 moths during last year - Females": 16480,
      "Scheduled Tribe Males": 2557,
      "Male Illiterates": 753876,
      "Prevalence of Severe Anaemia in pregnant women aged 15-49years in percentage DLHS-4": "Not available",
      "0-6 Age Group Persons": 722406,
      "Upper Primary Student-Classroom Ratio in percentage DISE": "NA",
      "Currently married men married below 21years of age in percentage DLHS-4": 12,
      "Male Literates": 1587083,
      "Households with no lighting in percentage Houselisting and Housing Census Data Tables- District Level , Census of India__2": 0.211278934,
      "Primary Drop Out Rate in percentage DISE": "NA",
      "Marginal Workers Household Industry - Males": 27731,
      "Female Illiterates": 1142723,
      "Main Workers Other - Females": 56106,
      "Marginal Workers Cultivators - Persons": 133668,
      "Upper Primary Gross Enrolment Ratio in percentage DISE": "NA",
      "Scheduled Caste Persons": 1108075,
      "Marginal Workers Cultivators worked for 3 - 6 moths during last year - Persons": 104192,
      "Households with landline phone in percentage": 2.71,
      "Total Households in District  Houselisting and Housing Census Data Tables- District Level , Census of India": 696236,
      "Upper Primary Pupil-Teacher Ratio in percentage DISE": "NA",
      "Primary Student-Classroom Ratio in percentage DISE": "NA",
      "Primary Schools with boys toilet in percentage DISE": "NA",
      "Mean number of children ever born to women aged 40-49years  DLHS-4": "Not available",
      "Households receiving untreated tap water within premises  Houselisting and Housing Census Data Tables- District Level , Census of India__5": 5963,
      "Marginal Workers Household Industry worked for 0 - 3 moths during last year - Persons": 16567,
      "Total Male Population": 2340959,
      "Non Workers - Females": 1570118,
      "Current use of family planning methods in percentage DLHS-4": 60.4,
      "Households with main source of drinking water within premises  Houselisting and Housing Census Data Tables- District Level , Census of India__3": 160620,
      "Main Workers Agricultural Labourers - Males": 145984,
      "Marginal Workers Other worked for 0 - 3 moths during last year - Persons": 37726,
      "Currently married women married below 18years of age in percentage DLHS-4": 1.8,
      "Person Illiterates": 1896599,
      "Main Workers Household Industry - Females": 32086,
      "Female Literates": 997836,
      "Marginal Workers Cultivators worked for 0 - 3 moths during last year - Males": 12996,
      "Male": "NA",
      "Households with improved source of drinking water in percentage DLHS-4": "Not available",
      "Upper Primary Schools with electricity in percentage DISE": "NA",
      "Households with electricity in percentage DLHS-4": "Not available",
      "Villages with Primary Health Centre within 10km in percentage DLHS-4": "Not applicable",
      "Births to women aged 15-19years out of Total births in percentage DLHS-4": "Not available",
      "Prevalence of Anaemia in women aged 15-49years in percentage DLHS-4": "Not available",
      "Marginal Workers Agricultural Labourers worked for 3 - 6 moths during last year - Persons": 233399,
      "Main Workers Household Industry - Males": 44202,
      "Scheduled Tribe Females": 2304,
      "Marginal Workers worked for 0 - 3 moths during last year - Males": 71888,
      "Marginal Workers Other worked for 3 - 6 moths during last year - Males": 98131,
      "Primary Net Enrolment Ratio in percentage DISE": "NA",
      "Total": "NA",
      "Mean age at marriage for boys DLHS-4": 23.7,
      "Number of District Hospitals  DLHS-4": "Not applicable",
      "0-6 Age Group Females": 341470,
      "Marginal Workers Agricultural Labourers worked for 0 - 3 moths during last year - Persons": 63829,
      "Marginal Workers Household Industry worked for 0 - 3 moths during last year - Males": 6885,
      "Total Workers  Females": 570441,
      "Marginal Workers worked for 3 - 6 moths during last year - Females": 251134,
      "Institutional Deliveries in percentage DLHS-4": 55.7,
      "Marginal Workers Other - Males": 121397,
      "Total Workers  Males": 1049906,
      "Main Workers - Females": 243597,
      "Primary Gross Enrolment Ratio in percentage DISE": "NA",
      "Main Workers Cultivators - Persons": 330637,
      "Marginal Workers Household Industry worked for 0 - 3 moths during last year - Females": 9682,
      "Upper Primary Net Enrolment Ratio in percentage DISE": "NA",
      "Primary New Government Schools since 2003 in percentage DISE": "NA",
      "Tier": "Rural",
      "Marginal Workers Household Industry - Females": 37831,
      "Primary Schools with electricity in percentage DISE": "NA",
      "Main Workers Other - Persons": 304513,
      "Marginal Workers Household Industry worked for 3 - 6 moths during last year - Females": 28149,
      "Main Workers Cultivators - Males": 252528,
      "Main Workers Household Industry - Persons": 76288,
      "Marginal Workers Cultivators worked for 0 - 3 moths during last year - Persons": 29476,
      "Scheduled Caste Males": 579398,
      "Marginal Workers - Persons": 685629,
      "Deliveries at home conducted by skilled health personnel in percentage DLHS-4": 29.8,
      "Villages with Sub-Health Centres within 3km in percentage DLHS-4": "Not applicable",
      "Upper Primary New Government Schools since 2003 in percentage DISE": "NA",
      "0-6 Age Group Males": 380936,
      "Primary Schools with drinking water facility in percentage DISE": "NA",
      "Non Workers - Persons": 2861171,
      "Person Literates": 2584919,
      "State": "UTTAR PRADESH",
      "Total Female Population": 2140559,
      "Marginal Workers worked for 0 - 3 moths during last year - Persons": 147598,
      "Marginal Workers Cultivators - Females": 69910,
      "Marginal Workers Other - Persons": 189171,
      "Sex Ratio": 914,
      "Scheduled Tribe Persons": 4861,
      "Marginal Workers Household Industry worked for 3 - 6 moths during last year - Males": 20846,
      "Marginal Workers Agricultural Labourers - Females": 151329,
      "Mean age at marriage for girls DLHS-4": 21.8,
      "Households with solar energy as main source of lighting  Houselisting and Housing Census Data Tables- District Level , Census of India__4": 3015,
      "District": "ALLAHABAD",
      "Households receiving treated tap water within premises in percentage Houselisting and Housing Census Data Tables- District Level , Census of India__1": 3.988015558,
      "Total Workers  Persons": 1620347,
      "Households receiving treated tap water within premises  Houselisting and Housing Census Data Tables- District Level , Census of India__4": 27766,
      "Primary Female Teachers in percentage DISE": "NA",
      "Number of Households": 721011,
      "Main Workers Agricultural Labourers - Persons": 223280
    }
  ],
  "Urban": [
    {
      "Marginal Workers Agricultural Labourers - Persons": 9112,
      "Marginal Workers Other - Females": 42261,
      "Marginal Workers Other worked for 0 - 3 moths during last year - Females": 3052,
      "Upper Primary Schools with boys toilet in percentage DISE": "NA",
      "Total Population": 1472873,
      "Households with electricity as main source of lighting in percentage Houselisting and Housing Census Data Tables- District Level , Census of India": 88.74093625,
      "Primary Girl's Enrolment in percentage DISE": "NA",
      "Marginal Workers worked for 3 - 6 moths during last year - Males": 77198,
      "Prevalence of Acute illness in percentage DLHS-4": "Not available",
      "Main Workers - Persons": 352014,
      "Main Workers Cultivators - Females": 1379,
      "Marginal Workers Agricultural Labourers worked for 3 - 6 moths during last year - Females": 3164,
      "Marginal Workers Other worked for 0 - 3 moths during last year - Males": 6722,
      "Upper Primary Schools with drinking water facility in percentage DISE": "NA",
      "Primary Schools with girls toilet in percentage DISE": "NA",
      "Marginal Workers worked for 3 - 6 moths during last year - Persons": 125587,
      "Upper Primary Drop Out Rate in percentage DISE": "NA",
      "Prevalence of Anaemia in pregnant women aged 15-49years in percentage DLHS-4": "Not available",
      "Current use of any modern method of family planning in percentage DLHS-4": 48.7,
      "Marginal Workers Agricultural Labourers - Males": 5311,
      "Upper Primary Female Teachers in percentage DISE": "NA",
      "Marginal Workers - Females": 53354,
      "Marginal Workers Other worked for 3 - 6 moths during last year - Persons": 104463,
      "Main Workers Agricultural Labourers - Females": 3058,
      "Marginal Workers Cultivators worked for 3 - 6 moths during last year - Females": 1118,
      "Households with no lighting  Houselisting and Housing Census Data Tables- District Level , Census of India__5": 489,
      "Prevalence of Severe Anaemia  in percentage DLHS-4": "Not available",
      "Total unmet need for family planning in percentage DLHS-4": 14.9,
      "Main Workers Other - Males": 254161,
      "Children who received full vaccination in percentage DLHS-4": "Not available",
      "Marginal Workers Household Industry - Persons": 13084,
      "Primary Pupil-Teacher Ratio in percentage DISE": "NA",
      "Marginal Workers Agricultural Labourers worked for 3 - 6 moths during last year - Males": 4494,
      "Scheduled Caste Females": 94098,
      "Marginal Workers Cultivators - Males": 1867,
      "Marginal Workers - Males": 86192,
      "Marginal Workers worked for 0 - 3 moths during last year - Females": 4965,
      "Households with main source of drinking water within premises in percentage Houselisting and Housing Census Data Tables- District Level , Census of India": 80.17764202,
      "Marginal Workers Household Industry worked for 3 - 6 moths during last year - Persons": 10656,
      "Upper Primary Girl's Enrolment in percentage DISE": "NA",
      "Prevalence of Severe Anaemia in women aged 15-49years in percentage DLHS-4": "Not available",
      "Marginal Workers Agricultural Labourers worked for 0 - 3 moths during last year - Males": 817,
      "Households with electricity as main source of lighting  Houselisting and Housing Census Data Tables- District Level , Census of India__3": 179538,
      "Households with computer or laptop with internet connection in percentage": 8.49,
      "PHCs functioning on a 24x7hours basis in percentage DLHS-4": 0,
      "Non Workers - Males": 414644,
      "Total Households in District Houselisting and Housing Census Data Tables- District Level , Census of India": 202317,
      "Upper Primary Schools with girls toilet in percentage DISE": "NA",
      "Households with mobile phone in percentage": 69.76,
      "Households receiving untreated tap water within premises in percentage Houselisting and Housing Census Data Tables- District Level , Census of India__2": 2.468403545,
      "Marginal Workers Cultivators worked for 3 - 6 moths during last year - Males": 1692,
      "Prevalence of Anaemia  in percentage DLHS-4": "Not available",
      "Prevalence of Chronic illness in percentage DLHS-4": "Not available",
      "Households with solar energy as main source of lighting in percentage Houselisting and Housing Census Data Tables- District Level , Census of India__1": 0.219951858,
      "Marginal Workers Agricultural Labourers worked for 0 - 3 moths during last year - Females": 637,
      "Main Workers - Males": 290012,
      "Female": "NA",
      "Sno": 1710,
      "Marginal Workers Other worked for 3 - 6 moths during last year - Females": 39209,
      "Marginal Workers Cultivators worked for 0 - 3 moths during last year - Females": 128,
      "Scheduled Tribe Males": 1713,
      "Male Illiterates": 178591,
      "Prevalence of Severe Anaemia in pregnant women aged 15-49years in percentage DLHS-4": "Not available",
      "0-6 Age Group Persons": 162949,
      "Upper Primary Student-Classroom Ratio in percentage DISE": "NA",
      "Currently married men married below 21years of age in percentage DLHS-4": 2.2,
      "Male Literates": 612257,
      "Households with no lighting in percentage Houselisting and Housing Census Data Tables- District Level , Census of India__2": 0.241699907,
      "Primary Drop Out Rate in percentage DISE": "NA",
      "Marginal Workers Household Industry - Males": 7038,
      "Female Illiterates": 213474,
      "Main Workers Other - Females": 48519,
      "Marginal Workers Cultivators - Persons": 3113,
      "Upper Primary Gross Enrolment Ratio in percentage DISE": "NA",
      "Scheduled Caste Persons": 201776,
      "Marginal Workers Cultivators worked for 3 - 6 moths during last year - Persons": 2810,
      "Households with landline phone in percentage": 7.85,
      "Total Households in District  Houselisting and Housing Census Data Tables- District Level , Census of India": 202317,
      "Upper Primary Pupil-Teacher Ratio in percentage DISE": "NA",
      "Primary Student-Classroom Ratio in percentage DISE": "NA",
      "Primary Schools with boys toilet in percentage DISE": "NA",
      "Mean number of children ever born to women aged 40-49years  DLHS-4": "Not available",
      "Households receiving untreated tap water within premises  Houselisting and Housing Census Data Tables- District Level , Census of India__5": 4994,
      "Marginal Workers Household Industry worked for 0 - 3 moths during last year - Persons": 2428,
      "Total Male Population": 790848,
      "Non Workers - Females": 566669,
      "Current use of family planning methods in percentage DLHS-4": 65.1,
      "Households with main source of drinking water within premises  Houselisting and Housing Census Data Tables- District Level , Census of India__3": 162213,
      "Main Workers Agricultural Labourers - Males": 8468,
      "Marginal Workers Other worked for 0 - 3 moths during last year - Persons": 9774,
      "Currently married women married below 18years of age in percentage DLHS-4": 0.5,
      "Person Illiterates": 392065,
      "Main Workers Household Industry - Females": 9046,
      "Female Literates": 468551,
      "Marginal Workers Cultivators worked for 0 - 3 moths during last year - Males": 175,
      "Male": "NA",
      "Households with improved source of drinking water in percentage DLHS-4": "Not available",
      "Upper Primary Schools with electricity in percentage DISE": "NA",
      "Households with electricity in percentage DLHS-4": "Not available",
      "Villages with Primary Health Centre within 10km in percentage DLHS-4": 0,
      "Births to women aged 15-19years out of Total births in percentage DLHS-4": "Not available",
      "Prevalence of Anaemia in women aged 15-49years in percentage DLHS-4": "Not available",
      "Marginal Workers Agricultural Labourers worked for 3 - 6 moths during last year - Persons": 7658,
      "Main Workers Household Industry - Males": 21897,
      "Scheduled Tribe Females": 1381,
      "Marginal Workers worked for 0 - 3 moths during last year - Males": 8994,
      "Marginal Workers Other worked for 3 - 6 moths during last year - Males": 65254,
      "Primary Net Enrolment Ratio in percentage DISE": "NA",
      "Total": "NA",
      "Mean age at marriage for boys DLHS-4": 27.8,
      "Number of District Hospitals  DLHS-4": 0,
      "0-6 Age Group Females": 76191,
      "Marginal Workers Agricultural Labourers worked for 0 - 3 moths during last year - Persons": 1454,
      "Marginal Workers Household Industry worked for 0 - 3 moths during last year - Males": 1280,
      "Total Workers  Females": 115356,
      "Marginal Workers worked for 3 - 6 moths during last year - Females": 48389,
      "Institutional Deliveries in percentage DLHS-4": 67.3,
      "Marginal Workers Other - Males": 71976,
      "Total Workers  Males": 376204,
      "Main Workers - Females": 62002,
      "Primary Gross Enrolment Ratio in percentage DISE": "NA",
      "Main Workers Cultivators - Persons": 6865,
      "Marginal Workers Household Industry worked for 0 - 3 moths during last year - Females": 1148,
      "Upper Primary Net Enrolment Ratio in percentage DISE": "NA",
      "Primary New Government Schools since 2003 in percentage DISE": "NA",
      "Tier": "Urban",
      "Marginal Workers Household Industry - Females": 6046,
      "Primary Schools with electricity in percentage DISE": "NA",
      "Main Workers Other - Persons": 302680,
      "Marginal Workers Household Industry worked for 3 - 6 moths during last year - Females": 4898,
      "Main Workers Cultivators - Males": 5486,
      "Main Workers Household Industry - Persons": 30943,
      "Marginal Workers Cultivators worked for 0 - 3 moths during last year - Persons": 303,
      "Scheduled Caste Males": 107678,
      "Marginal Workers - Persons": 139546,
      "Deliveries at home conducted by skilled health personnel in percentage DLHS-4": 34.6,
      "Villages with Sub-Health Centres within 3km in percentage DLHS-4": 0,
      "Upper Primary New Government Schools since 2003 in percentage DISE": "NA",
      "0-6 Age Group Males": 86758,
      "Primary Schools with drinking water facility in percentage DISE": "NA",
      "Non Workers - Persons": 981313,
      "Person Literates": 1080808,
      "State": "UTTAR PRADESH",
      "Total Female Population": 682025,
      "Marginal Workers worked for 0 - 3 moths during last year - Persons": 13959,
      "Marginal Workers Cultivators - Females": 1246,
      "Marginal Workers Other - Persons": 114237,
      "Sex Ratio": 862,
      "Scheduled Tribe Persons": 3094,
      "Marginal Workers Household Industry worked for 3 - 6 moths during last year - Males": 5758,
      "Marginal Workers Agricultural Labourers - Females": 3801,
      "Mean age at marriage for girls DLHS-4": 24.8,
      "Households with solar energy as main source of lighting  Houselisting and Housing Census Data Tables- District Level , Census of India__4": 445,
      "District": "ALLAHABAD",
      "Households receiving treated tap water within premises in percentage Houselisting and Housing Census Data Tables- District Level , Census of India__1": 71.04593287,
      "Total Workers  Persons": 491560,
      "Households receiving treated tap water within premises  Houselisting and Housing Census Data Tables- District Level , Census of India__4": 143738,
      "Primary Female Teachers in percentage DISE": "NA",
      "Number of Households": 255722,
      "Main Workers Agricultural Labourers - Persons": 11526
    }
  ]
}