{
  "Total": [
    {
      "Marginal Workers Agricultural Labourers - Persons": 298390,
      "Marginal Workers Other - Females": 43934,
      "Marginal Workers Other worked for 0 - 3 moths during last year - Females": 9326,
      "Upper Primary Schools with boys toilet in percentage DISE": 100,
      "Total Population": 4613913,
      "Households with electricity as main source of lighting in percentage Houselisting and Housing Census Data Tables- District Level , Census of India": 27.78794721,
      "Primary Girl's Enrolment in percentage DISE": 49.6,
      "Marginal Workers worked for 3 - 6 moths during last year - Males": 254050,
      "Prevalence of Acute illness in percentage DLHS-4": "Not available",
      "Main Workers - Persons": 784272,
      "Main Workers Cultivators - Females": 55375,
      "Marginal Workers Agricultural Labourers worked for 3 - 6 moths during last year - Females": 96008,
      "Marginal Workers Other worked for 0 - 3 moths during last year - Males": 17053,
      "Upper Primary Schools with drinking water facility in percentage DISE": 95.1,
      "Primary Schools with girls toilet in percentage DISE": 100,
      "Marginal Workers worked for 3 - 6 moths during last year - Persons": 437905,
      "Upper Primary Drop Out Rate in percentage DISE": "Not available",
      "Prevalence of Anaemia in pregnant women aged 15-49years in percentage DLHS-4": "Not available",
      "Current use of any modern method of family planning in percentage DLHS-4": 32.4,
      "Marginal Workers Agricultural Labourers - Males": 162386,
      "Upper Primary Female Teachers in percentage DISE": 30.4,
      "Marginal Workers - Females": 256885,
      "Marginal Workers Other worked for 3 - 6 moths during last year - Persons": 103594,
      "Main Workers Agricultural Labourers - Females": 46900,
      "Marginal Workers Cultivators worked for 3 - 6 moths during last year - Females": 36701,
      "Households with no lighting  Houselisting and Housing Census Data Tables- District Level , Census of India__5": 835,
      "Prevalence of Severe Anaemia  in percentage DLHS-4": "Not available",
      "Total unmet need for family planning in percentage DLHS-4": 22.6,
      "Main Workers Other - Males": 201016,
      "Children who received full vaccination in percentage DLHS-4": "Not available",
      "Marginal Workers Household Industry - Persons": 44827,
      "Primary Pupil-Teacher Ratio in percentage DISE": 38,
      "Marginal Workers Agricultural Labourers worked for 3 - 6 moths during last year - Males": 123093,
      "Scheduled Caste Females": 591792,
      "Marginal Workers Cultivators - Males": 61766,
      "Marginal Workers - Males": 330875,
      "Marginal Workers worked for 0 - 3 moths during last year - Females": 73030,
      "Households with main source of drinking water within premises in percentage Houselisting and Housing Census Data Tables- District Level , Census of India": 47.88416953,
      "Marginal Workers Household Industry worked for 3 - 6 moths during last year - Persons": 31984,
      "Upper Primary Girl's Enrolment in percentage DISE": 53.7,
      "Prevalence of Severe Anaemia in women aged 15-49years in percentage DLHS-4": "Not available",
      "Marginal Workers Agricultural Labourers worked for 0 - 3 moths during last year - Males": 39293,
      "Households with electricity as main source of lighting  Houselisting and Housing Census Data Tables- District Level , Census of India__3": 183381,
      "Households with computer or laptop with internet connection in percentage": 1.01,
      "PHCs functioning on a 24x7hours basis in percentage DLHS-4": "Not available",
      "Non Workers - Males": 1343114,
      "Total Households in District Houselisting and Housing Census Data Tables- District Level , Census of India": 659930,
      "Upper Primary Schools with girls toilet in percentage DISE": 100,
      "Households with mobile phone in percentage": 71.04,
      "Households receiving untreated tap water within premises in percentage Houselisting and Housing Census Data Tables- District Level , Census of India__2": 1.743518252,
      "Marginal Workers Cultivators worked for 3 - 6 moths during last year - Males": 46525,
      "Prevalence of Anaemia  in percentage DLHS-4": "Not available",
      "Prevalence of Chronic illness in percentage DLHS-4": "Not available",
      "Households with solar energy as main source of lighting in percentage Houselisting and Housing Census Data Tables- District Level , Census of India__1": 0.297001197,
      "Marginal Workers Agricultural Labourers worked for 0 - 3 moths during last year - Females": 39996,
      "Main Workers - Males": 611015,
      "Female": 60.91,
      "Sno": 1721,
      "Marginal Workers Other worked for 3 - 6 moths during last year - Females": 34608,
      "Marginal Workers Cultivators worked for 0 - 3 moths during last year - Females": 16103,
      "Scheduled Tribe Males": 4690,
      "Male Illiterates": 725590,
      "Prevalence of Severe Anaemia in pregnant women aged 15-49years in percentage DLHS-4": "Not available",
      "0-6 Age Group Persons": 706085,
      "Upper Primary Student-Classroom Ratio in percentage DISE": 29,
      "Currently married men married below 21years of age in percentage DLHS-4": 12.8,
      "Male Literates": 1559414,
      "Households with no lighting in percentage Houselisting and Housing Census Data Tables- District Level , Census of India__2": 0.126528571,
      "Primary Drop Out Rate in percentage DISE": 9.1,
      "Marginal Workers Household Industry - Males": 20684,
      "Female Illiterates": 1116406,
      "Main Workers Other - Females": 47367,
      "Marginal Workers Cultivators - Persons": 114570,
      "Upper Primary Gross Enrolment Ratio in percentage DISE": 72.7,
      "Scheduled Caste Persons": 1171378,
      "Marginal Workers Cultivators worked for 3 - 6 moths during last year - Persons": 83226,
      "Households with landline phone in percentage": 2.89,
      "Total Households in District  Houselisting and Housing Census Data Tables- District Level , Census of India": 659930,
      "Upper Primary Pupil-Teacher Ratio in percentage DISE": 31,
      "Primary Student-Classroom Ratio in percentage DISE": 35,
      "Primary Schools with boys toilet in percentage DISE": 100,
      "Mean number of children ever born to women aged 40-49years  DLHS-4": "Not available",
      "Households receiving untreated tap water within premises  Houselisting and Housing Census Data Tables- District Level , Census of India__5": 11506,
      "Marginal Workers Household Industry worked for 0 - 3 moths during last year - Persons": 12843,
      "Total Male Population": 2285004,
      "Non Workers - Females": 1898767,
      "Current use of family planning methods in percentage DLHS-4": 51.9,
      "Households with main source of drinking water within premises  Houselisting and Housing Census Data Tables- District Level , Census of India__3": 316002,
      "Main Workers Agricultural Labourers - Males": 106765,
      "Marginal Workers Other worked for 0 - 3 moths during last year - Persons": 26379,
      "Currently married women married below 18years of age in percentage DLHS-4": 3.3,
      "Person Illiterates": 1841996,
      "Main Workers Household Industry - Females": 23615,
      "Female Literates": 1212503,
      "Marginal Workers Cultivators worked for 0 - 3 moths during last year - Males": 15241,
      "Male": 81.34,
      "Households with improved source of drinking water in percentage DLHS-4": "Not available",
      "Upper Primary Schools with electricity in percentage DISE": 22.4,
      "Households with electricity in percentage DLHS-4": "Not available",
      "Villages with Primary Health Centre within 10km in percentage DLHS-4": "Not available",
      "Births to women aged 15-19years out of Total births in percentage DLHS-4": "Not available",
      "Prevalence of Anaemia in women aged 15-49years in percentage DLHS-4": "Not available",
      "Marginal Workers Agricultural Labourers worked for 3 - 6 moths during last year - Persons": 219101,
      "Main Workers Household Industry - Males": 47549,
      "Scheduled Tribe Females": 4637,
      "Marginal Workers worked for 0 - 3 moths during last year - Males": 76825,
      "Marginal Workers Other worked for 3 - 6 moths during last year - Males": 68986,
      "Primary Net Enrolment Ratio in percentage DISE": 92.1,
      "Total": 70.93,
      "Mean age at marriage for boys DLHS-4": 23.9,
      "Number of District Hospitals  DLHS-4": "Not available",
      "0-6 Age Group Females": 338200,
      "Marginal Workers Agricultural Labourers worked for 0 - 3 moths during last year - Persons": 79289,
      "Marginal Workers Household Industry worked for 0 - 3 moths during last year - Males": 5238,
      "Total Workers  Females": 430142,
      "Marginal Workers worked for 3 - 6 moths during last year - Females": 183855,
      "Institutional Deliveries in percentage DLHS-4": 68.7,
      "Marginal Workers Other - Males": 86039,
      "Total Workers  Males": 941890,
      "Main Workers - Females": 173257,
      "Primary Gross Enrolment Ratio in percentage DISE": 105.1,
      "Main Workers Cultivators - Persons": 311060,
      "Marginal Workers Household Industry worked for 0 - 3 moths during last year - Females": 7605,
      "Upper Primary Net Enrolment Ratio in percentage DISE": 55,
      "Primary New Government Schools since 2003 in percentage DISE": 22.3,
      "Tier": "Total",
      "Marginal Workers Household Industry - Females": 24143,
      "Primary Schools with electricity in percentage DISE": 25.2,
      "Main Workers Other - Persons": 248383,
      "Marginal Workers Household Industry worked for 3 - 6 moths during last year - Females": 16538,
      "Main Workers Cultivators - Males": 255685,
      "Main Workers Household Industry - Persons": 71164,
      "Marginal Workers Cultivators worked for 0 - 3 moths during last year - Persons": 31344,
      "Scheduled Caste Males": 579586,
      "Marginal Workers - Persons": 587760,
      "Deliveries at home conducted by skilled health personnel in percentage DLHS-4": 33.1,
      "Villages with Sub-Health Centres within 3km in percentage DLHS-4": "Not available",
      "Upper Primary New Government Schools since 2003 in percentage DISE": 76,
      "0-6 Age Group Males": 367885,
      "Primary Schools with drinking water facility in percentage DISE": 99.2,
      "Non Workers - Persons": 3241881,
      "Person Literates": 2771917,
      "State": "UTTAR PRADESH",
      "Total Female Population": 2328909,
      "Marginal Workers worked for 0 - 3 moths during last year - Persons": 149855,
      "Marginal Workers Cultivators - Females": 52804,
      "Marginal Workers Other - Persons": 129973,
      "Sex Ratio": 1019,
      "Scheduled Tribe Persons": 9327,
      "Marginal Workers Household Industry worked for 3 - 6 moths during last year - Males": 15446,
      "Marginal Workers Agricultural Labourers - Females": 136004,
      "Mean age at marriage for girls DLHS-4": 21.7,
      "Households with solar energy as main source of lighting  Houselisting and Housing Census Data Tables- District Level , Census of India__4": 1960,
      "District": "AZAMGARH",
      "Households receiving treated tap water within premises in percentage Houselisting and Housing Census Data Tables- District Level , Census of India__1": 6.209749519,
      "Total Workers  Persons": 1372032,
      "Households receiving treated tap water within premises  Houselisting and Housing Census Data Tables- District Level , Census of India__4": 40980,
      "Primary Female Teachers in percentage DISE": 37.6,
      "Number of Households": 665232,
      "Main Workers Agricultural Labourers - Persons": 153665
    }
  ],
  "Rural": [
    {
      "Marginal Workers Agricultural Labourers - Persons": 294075,
      "Marginal Workers Other - Females": 38698,
      "Marginal Workers Other worked for 0 - 3 moths during last year - Females": 8664,
      "Upper Primary Schools with boys toilet in percentage DISE": "NA",
      "Total Population": 4220512,
      "Households with electricity as main source of lighting in percentage Houselisting and Housing Census Data Tables- District Level , Census of India": 24.07406799,
      "Primary Girl's Enrolment in percentage DISE": "NA",
      "Marginal Workers worked for 3 - 6 moths during last year - Males": 238784,
      "Prevalence of Acute illness in percentage DLHS-4": "Not available",
      "Main Workers - Persons": 695830,
      "Main Workers Cultivators - Females": 54961,
      "Marginal Workers Agricultural Labourers worked for 3 - 6 moths during last year - Females": 94920,
      "Marginal Workers Other worked for 0 - 3 moths during last year - Males": 15595,
      "Upper Primary Schools with drinking water facility in percentage DISE": "NA",
      "Primary Schools with girls toilet in percentage DISE": "NA",
      "Marginal Workers worked for 3 - 6 moths during last year - Persons": 412728,
      "Upper Primary Drop Out Rate in percentage DISE": "NA",
      "Prevalence of Anaemia in pregnant women aged 15-49years in percentage DLHS-4": "Not available",
      "Current use of any modern method of family planning in percentage DLHS-4": 32,
      "Marginal Workers Agricultural Labourers - Males": 159610,
      "Upper Primary Female Teachers in percentage DISE": "NA",
      "Marginal Workers - Females": 244947,
      "Marginal Workers Other worked for 3 - 6 moths during last year - Persons": 89361,
      "Main Workers Agricultural Labourers - Females": 46254,
      "Marginal Workers Cultivators worked for 3 - 6 moths during last year - Females": 36278,
      "Households with no lighting  Houselisting and Housing Census Data Tables- District Level , Census of India__5": 722,
      "Prevalence of Severe Anaemia  in percentage DLHS-4": "Not available",
      "Total unmet need for family planning in percentage DLHS-4": 22.7,
      "Main Workers Other - Males": 156970,
      "Children who received full vaccination in percentage DLHS-4": "Not available",
      "Marginal Workers Household Industry - Persons": 36678,
      "Primary Pupil-Teacher Ratio in percentage DISE": "NA",
      "Marginal Workers Agricultural Labourers worked for 3 - 6 moths during last year - Males": 120963,
      "Scheduled Caste Females": 568913,
      "Marginal Workers Cultivators - Males": 61234,
      "Marginal Workers - Males": 312921,
      "Marginal Workers worked for 0 - 3 moths during last year - Females": 71003,
      "Households with main source of drinking water within premises in percentage Houselisting and Housing Census Data Tables- District Level , Census of India": 45.33961793,
      "Marginal Workers Household Industry worked for 3 - 6 moths during last year - Persons": 25126,
      "Upper Primary Girl's Enrolment in percentage DISE": "NA",
      "Prevalence of Severe Anaemia in women aged 15-49years in percentage DLHS-4": "Not available",
      "Marginal Workers Agricultural Labourers worked for 0 - 3 moths during last year - Males": 38647,
      "Households with electricity as main source of lighting  Houselisting and Housing Census Data Tables- District Level , Census of India__3": 146535,
      "Households with computer or laptop with internet connection in percentage": 0.8,
      "PHCs functioning on a 24x7hours basis in percentage DLHS-4": "Not applicable",
      "Non Workers - Males": 1228635,
      "Total Households in District Houselisting and Housing Census Data Tables- District Level , Census of India": 608684,
      "Upper Primary Schools with girls toilet in percentage DISE": "NA",
      "Households with mobile phone in percentage": 70.85,
      "Households receiving untreated tap water within premises in percentage Houselisting and Housing Census Data Tables- District Level , Census of India__2": 1.604116422,
      "Marginal Workers Cultivators worked for 3 - 6 moths during last year - Males": 46080,
      "Prevalence of Anaemia  in percentage DLHS-4": "Not available",
      "Prevalence of Chronic illness in percentage DLHS-4": "Not available",
      "Households with solar energy as main source of lighting in percentage Houselisting and Housing Census Data Tables- District Level , Census of India__1": 0.300812901,
      "Marginal Workers Agricultural Labourers worked for 0 - 3 moths during last year - Females": 39545,
      "Main Workers - Males": 541151,
      "Female": "NA",
      "Sno": 1720,
      "Marginal Workers Other worked for 3 - 6 moths during last year - Females": 30034,
      "Marginal Workers Cultivators worked for 0 - 3 moths during last year - Females": 15983,
      "Scheduled Tribe Males": 4148,
      "Male Illiterates": 666250,
      "Prevalence of Severe Anaemia in pregnant women aged 15-49years in percentage DLHS-4": "Not available",
      "0-6 Age Group Persons": 649973,
      "Upper Primary Student-Classroom Ratio in percentage DISE": "NA",
      "Currently married men married below 21years of age in percentage DLHS-4": 13.7,
      "Male Literates": 1416457,
      "Households with no lighting in percentage Houselisting and Housing Census Data Tables- District Level , Census of India__2": 0.118616556,
      "Primary Drop Out Rate in percentage DISE": "NA",
      "Marginal Workers Household Industry - Males": 17155,
      "Female Illiterates": 1043119,
      "Main Workers Other - Females": 40709,
      "Marginal Workers Cultivators - Persons": 113495,
      "Upper Primary Gross Enrolment Ratio in percentage DISE": "NA",
      "Scheduled Caste Persons": 1123453,
      "Marginal Workers Cultivators worked for 3 - 6 moths during last year - Persons": 82358,
      "Households with landline phone in percentage": 2.71,
      "Total Households in District  Houselisting and Housing Census Data Tables- District Level , Census of India": 608684,
      "Upper Primary Pupil-Teacher Ratio in percentage DISE": "NA",
      "Primary Student-Classroom Ratio in percentage DISE": "NA",
      "Primary Schools with boys toilet in percentage DISE": "NA",
      "Mean number of children ever born to women aged 40-49years  DLHS-4": "Not available",
      "Households receiving untreated tap water within premises  Houselisting and Housing Census Data Tables- District Level , Census of India__5": 9764,
      "Marginal Workers Household Industry worked for 0 - 3 moths during last year - Persons": 11552,
      "Total Male Population": 2082707,
      "Non Workers - Females": 1738179,
      "Current use of family planning methods in percentage DLHS-4": 51.3,
      "Households with main source of drinking water within premises  Houselisting and Housing Census Data Tables- District Level , Census of India__3": 275975,
      "Main Workers Agricultural Labourers - Males": 104313,
      "Marginal Workers Other worked for 0 - 3 moths during last year - Persons": 24259,
      "Currently married women married below 18years of age in percentage DLHS-4": 3.6,
      "Person Illiterates": 1709369,
      "Main Workers Household Industry - Females": 12755,
      "Female Literates": 1094686,
      "Marginal Workers Cultivators worked for 0 - 3 moths during last year - Males": 15154,
      "Male": "NA",
      "Households with improved source of drinking water in percentage DLHS-4": "Not available",
      "Upper Primary Schools with electricity in percentage DISE": "NA",
      "Households with electricity in percentage DLHS-4": "Not available",
      "Villages with Primary Health Centre within 10km in percentage DLHS-4": "Not applicable",
      "Births to women aged 15-19years out of Total births in percentage DLHS-4": "Not available",
      "Prevalence of Anaemia in women aged 15-49years in percentage DLHS-4": "Not available",
      "Marginal Workers Agricultural Labourers worked for 3 - 6 moths during last year - Persons": 215883,
      "Main Workers Household Industry - Males": 26741,
      "Scheduled Tribe Females": 4128,
      "Marginal Workers worked for 0 - 3 moths during last year - Males": 74137,
      "Marginal Workers Other worked for 3 - 6 moths during last year - Males": 59327,
      "Primary Net Enrolment Ratio in percentage DISE": "NA",
      "Total": "NA",
      "Mean age at marriage for boys DLHS-4": 23.6,
      "Number of District Hospitals  DLHS-4": "Not applicable",
      "0-6 Age Group Females": 311314,
      "Marginal Workers Agricultural Labourers worked for 0 - 3 moths during last year - Persons": 78192,
      "Marginal Workers Household Industry worked for 0 - 3 moths during last year - Males": 4741,
      "Total Workers  Females": 399626,
      "Marginal Workers worked for 3 - 6 moths during last year - Females": 173944,
      "Institutional Deliveries in percentage DLHS-4": 67.7,
      "Marginal Workers Other - Males": 74922,
      "Total Workers  Males": 854072,
      "Main Workers - Females": 154679,
      "Primary Gross Enrolment Ratio in percentage DISE": "NA",
      "Main Workers Cultivators - Persons": 308088,
      "Marginal Workers Household Industry worked for 0 - 3 moths during last year - Females": 6811,
      "Upper Primary Net Enrolment Ratio in percentage DISE": "NA",
      "Primary New Government Schools since 2003 in percentage DISE": "NA",
      "Tier": "Rural",
      "Marginal Workers Household Industry - Females": 19523,
      "Primary Schools with electricity in percentage DISE": "NA",
      "Main Workers Other - Persons": 197679,
      "Marginal Workers Household Industry worked for 3 - 6 moths during last year - Females": 12712,
      "Main Workers Cultivators - Males": 253127,
      "Main Workers Household Industry - Persons": 39496,
      "Marginal Workers Cultivators worked for 0 - 3 moths during last year - Persons": 31137,
      "Scheduled Caste Males": 554540,
      "Marginal Workers - Persons": 557868,
      "Deliveries at home conducted by skilled health personnel in percentage DLHS-4": 33.5,
      "Villages with Sub-Health Centres within 3km in percentage DLHS-4": "Not applicable",
      "Upper Primary New Government Schools since 2003 in percentage DISE": "NA",
      "0-6 Age Group Males": 338659,
      "Primary Schools with drinking water facility in percentage DISE": "NA",
      "Non Workers - Persons": 2966814,
      "Person Literates": 2511143,
      "State": "UTTAR PRADESH",
      "Total Female Population": 2137805,
      "Marginal Workers worked for 0 - 3 moths during last year - Persons": 145140,
      "Marginal Workers Cultivators - Females": 52261,
      "Marginal Workers Other - Persons": 113620,
      "Sex Ratio": 1026,
      "Scheduled Tribe Persons": 8276,
      "Marginal Workers Household Industry worked for 3 - 6 moths during last year - Males": 12414,
      "Marginal Workers Agricultural Labourers - Females": 134465,
      "Mean age at marriage for girls DLHS-4": 21.6,
      "Households with solar energy as main source of lighting  Houselisting and Housing Census Data Tables- District Level , Census of India__4": 1831,
      "District": "AZAMGARH",
      "Households receiving treated tap water within premises in percentage Houselisting and Housing Census Data Tables- District Level , Census of India__1": 4.992245566,
      "Total Workers  Persons": 1253698,
      "Households receiving treated tap water within premises  Houselisting and Housing Census Data Tables- District Level , Census of India__4": 30387,
      "Primary Female Teachers in percentage DISE": "NA",
      "Number of Households": 611588,
      "Main Workers Agricultural Labourers - Persons": 150567
    }
  ],
  "Urban": [
    {
      "Marginal Workers Agricultural Labourers - Persons": 4315,
      "Marginal Workers Other - Females": 5236,
      "Marginal Workers Other worked for 0 - 3 moths during last year - Females": 662,
      "Upper Primary Schools with boys toilet in percentage DISE": "NA",
      "Total Population": 393401,
      "Households with electricity as main source of lighting in percentage Houselisting and Housing Census Data Tables- District Level , Census of India": 71.90024587,
      "Primary Girl's Enrolment in percentage DISE": "NA",
      "Marginal Workers worked for 3 - 6 moths during last year - Males": 15266,
      "Prevalence of Acute illness in percentage DLHS-4": "Not available",
      "Main Workers - Persons": 88442,
      "Main Workers Cultivators - Females": 414,
      "Marginal Workers Agricultural Labourers worked for 3 - 6 moths during last year - Females": 1088,
      "Marginal Workers Other worked for 0 - 3 moths during last year - Males": 1458,
      "Upper Primary Schools with drinking water facility in percentage DISE": "NA",
      "Primary Schools with girls toilet in percentage DISE": "NA",
      "Marginal Workers worked for 3 - 6 moths during last year - Persons": 25177,
      "Upper Primary Drop Out Rate in percentage DISE": "NA",
      "Prevalence of Anaemia in pregnant women aged 15-49years in percentage DLHS-4": "Not available",
      "Current use of any modern method of family planning in percentage DLHS-4": 37.1,
      "Marginal Workers Agricultural Labourers - Males": 2776,
      "Upper Primary Female Teachers in percentage DISE": "NA",
      "Marginal Workers - Females": 11938,
      "Marginal Workers Other worked for 3 - 6 moths during last year - Persons": 14233,
      "Main Workers Agricultural Labourers - Females": 646,
      "Marginal Workers Cultivators worked for 3 - 6 moths during last year - Females": 423,
      "Households with no lighting  Houselisting and Housing Census Data Tables- District Level , Census of India__5": 113,
      "Prevalence of Severe Anaemia  in percentage DLHS-4": "Not available",
      "Total unmet need for family planning in percentage DLHS-4": 21.3,
      "Main Workers Other - Males": 44046,
      "Children who received full vaccination in percentage DLHS-4": "Not available",
      "Marginal Workers Household Industry - Persons": 8149,
      "Primary Pupil-Teacher Ratio in percentage DISE": "NA",
      "Marginal Workers Agricultural Labourers worked for 3 - 6 moths during last year - Males": 2130,
      "Scheduled Caste Females": 22879,
      "Marginal Workers Cultivators - Males": 532,
      "Marginal Workers - Males": 17954,
      "Marginal Workers worked for 0 - 3 moths during last year - Females": 2027,
      "Households with main source of drinking water within premises in percentage Houselisting and Housing Census Data Tables- District Level , Census of India": 78.10755961,
      "Marginal Workers Household Industry worked for 3 - 6 moths during last year - Persons": 6858,
      "Upper Primary Girl's Enrolment in percentage DISE": "NA",
      "Prevalence of Severe Anaemia in women aged 15-49years in percentage DLHS-4": "Not available",
      "Marginal Workers Agricultural Labourers worked for 0 - 3 moths during last year - Males": 646,
      "Households with electricity as main source of lighting  Houselisting and Housing Census Data Tables- District Level , Census of India__3": 36846,
      "Households with computer or laptop with internet connection in percentage": 3.49,
      "PHCs functioning on a 24x7hours basis in percentage DLHS-4": 0,
      "Non Workers - Males": 114479,
      "Total Households in District Houselisting and Housing Census Data Tables- District Level , Census of India": 51246,
      "Upper Primary Schools with girls toilet in percentage DISE": "NA",
      "Households with mobile phone in percentage": 73.21,
      "Households receiving untreated tap water within premises in percentage Houselisting and Housing Census Data Tables- District Level , Census of India__2": 3.399289701,
      "Marginal Workers Cultivators worked for 3 - 6 moths during last year - Males": 445,
      "Prevalence of Anaemia  in percentage DLHS-4": "Not available",
      "Prevalence of Chronic illness in percentage DLHS-4": "Not available",
      "Households with solar energy as main source of lighting in percentage Houselisting and Housing Census Data Tables- District Level , Census of India__1": 0.251726964,
      "Marginal Workers Agricultural Labourers worked for 0 - 3 moths during last year - Females": 451,
      "Main Workers - Males": 69864,
      "Female": "NA",
      "Sno": 1722,
      "Marginal Workers Other worked for 3 - 6 moths during last year - Females": 4574,
      "Marginal Workers Cultivators worked for 0 - 3 moths during last year - Females": 120,
      "Scheduled Tribe Males": 542,
      "Male Illiterates": 59340,
      "Prevalence of Severe Anaemia in pregnant women aged 15-49years in percentage DLHS-4": "Not available",
      "0-6 Age Group Persons": 56112,
      "Upper Primary Student-Classroom Ratio in percentage DISE": "NA",
      "Currently married men married below 21years of age in percentage DLHS-4": 6,
      "Male Literates": 142957,
      "Households with no lighting in percentage Houselisting and Housing Census Data Tables- District Level , Census of India__2": 0.220505015,
      "Primary Drop Out Rate in percentage DISE": "NA",
      "Marginal Workers Household Industry - Males": 3529,
      "Female Illiterates": 73287,
      "Main Workers Other - Females": 6658,
      "Marginal Workers Cultivators - Persons": 1075,
      "Upper Primary Gross Enrolment Ratio in percentage DISE": "NA",
      "Scheduled Caste Persons": 47925,
      "Marginal Workers Cultivators worked for 3 - 6 moths during last year - Persons": 868,
      "Households with landline phone in percentage": 5.01,
      "Total Households in District  Houselisting and Housing Census Data Tables- District Level , Census of India": 51246,
      "Upper Primary Pupil-Teacher Ratio in percentage DISE": "NA",
      "Primary Student-Classroom Ratio in percentage DISE": "NA",
      "Primary Schools with boys toilet in percentage DISE": "NA",
      "Mean number of children ever born to women aged 40-49years  DLHS-4": "Not available",
      "Households receiving untreated tap water within premises  Houselisting and Housing Census Data Tables- District Level , Census of India__5": 1742,
      "Marginal Workers Household Industry worked for 0 - 3 moths during last year - Persons": 1291,
      "Total Male Population": 202297,
      "Non Workers - Females": 160588,
      "Current use of family planning methods in percentage DLHS-4": 59.2,
      "Households with main source of drinking water within premises  Houselisting and Housing Census Data Tables- District Level , Census of India__3": 40027,
      "Main Workers Agricultural Labourers - Males": 2452,
      "Marginal Workers Other worked for 0 - 3 moths during last year - Persons": 2120,
      "Currently married women married below 18years of age in percentage DLHS-4": 0.9,
      "Person Illiterates": 132627,
      "Main Workers Household Industry - Females": 10860,
      "Female Literates": 117817,
      "Marginal Workers Cultivators worked for 0 - 3 moths during last year - Males": 87,
      "Male": "NA",
      "Households with improved source of drinking water in percentage DLHS-4": "Not available",
      "Upper Primary Schools with electricity in percentage DISE": "NA",
      "Households with electricity in percentage DLHS-4": "Not available",
      "Villages with Primary Health Centre within 10km in percentage DLHS-4": 0,
      "Births to women aged 15-19years out of Total births in percentage DLHS-4": "Not available",
      "Prevalence of Anaemia in women aged 15-49years in percentage DLHS-4": "Not available",
      "Marginal Workers Agricultural Labourers worked for 3 - 6 moths during last year - Persons": 3218,
      "Main Workers Household Industry - Males": 20808,
      "Scheduled Tribe Females": 509,
      "Marginal Workers worked for 0 - 3 moths during last year - Males": 2688,
      "Marginal Workers Other worked for 3 - 6 moths during last year - Males": 9659,
      "Primary Net Enrolment Ratio in percentage DISE": "NA",
      "Total": "NA",
      "Mean age at marriage for boys DLHS-4": 25.9,
      "Number of District Hospitals  DLHS-4": 0,
      "0-6 Age Group Females": 26886,
      "Marginal Workers Agricultural Labourers worked for 0 - 3 moths during last year - Persons": 1097,
      "Marginal Workers Household Industry worked for 0 - 3 moths during last year - Males": 497,
      "Total Workers  Females": 30516,
      "Marginal Workers worked for 3 - 6 moths during last year - Females": 9911,
      "Institutional Deliveries in percentage DLHS-4": 81,
      "Marginal Workers Other - Males": 11117,
      "Total Workers  Males": 87818,
      "Main Workers - Females": 18578,
      "Primary Gross Enrolment Ratio in percentage DISE": "NA",
      "Main Workers Cultivators - Persons": 2972,
      "Marginal Workers Household Industry worked for 0 - 3 moths during last year - Females": 794,
      "Upper Primary Net Enrolment Ratio in percentage DISE": "NA",
      "Primary New Government Schools since 2003 in percentage DISE": "NA",
      "Tier": "Urban",
      "Marginal Workers Household Industry - Females": 4620,
      "Primary Schools with electricity in percentage DISE": "NA",
      "Main Workers Other - Persons": 50704,
      "Marginal Workers Household Industry worked for 3 - 6 moths during last year - Females": 3826,
      "Main Workers Cultivators - Males": 2558,
      "Main Workers Household Industry - Persons": 31668,
      "Marginal Workers Cultivators worked for 0 - 3 moths during last year - Persons": 207,
      "Scheduled Caste Males": 25046,
      "Marginal Workers - Persons": 29892,
      "Deliveries at home conducted by skilled health personnel in percentage DLHS-4": 25.8,
      "Villages with Sub-Health Centres within 3km in percentage DLHS-4": 0,
      "Upper Primary New Government Schools since 2003 in percentage DISE": "NA",
      "0-6 Age Group Males": 29226,
      "Primary Schools with drinking water facility in percentage DISE": "NA",
      "Non Workers - Persons": 275067,
      "Person Literates": 260774,
      "State": "UTTAR PRADESH",
      "Total Female Population": 191104,
      "Marginal Workers worked for 0 - 3 moths during last year - Persons": 4715,
      "Marginal Workers Cultivators - Females": 543,
      "Marginal Workers Other - Persons": 16353,
      "Sex Ratio": 945,
      "Scheduled Tribe Persons": 1051,
      "Marginal Workers Household Industry worked for 3 - 6 moths during last year - Males": 3032,
      "Marginal Workers Agricultural Labourers - Females": 1539,
      "Mean age at marriage for girls DLHS-4": 23.2,
      "Households with solar energy as main source of lighting  Houselisting and Housing Census Data Tables- District Level , Census of India__4": 129,
      "District": "AZAMGARH",
      "Households receiving treated tap water within premises in percentage Houselisting and Housing Census Data Tables- District Level , Census of India__1": 20.67088163,
      "Total Workers  Persons": 118334,
      "Households receiving treated tap water within premises  Houselisting and Housing Census Data Tables- District Level , Census of India__4": 10593,
      "Primary Female Teachers in percentage DISE": "NA",
      "Number of Households": 53644,
      "Main Workers Agricultural Labourers - Persons": 3098
    }
  ]
}