{
  "Total": [
    {
      "Marginal Workers Agricultural Labourers - Persons": 166956,
      "Marginal Workers Other - Females": 27884,
      "Marginal Workers Other worked for 0 - 3 moths during last year - Females": 5015,
      "Upper Primary Schools with boys toilet in percentage DISE": 99.9,
      "Total Population": 2470996,
      "Households with electricity as main source of lighting in percentage Houselisting and Housing Census Data Tables- District Level , Census of India": 30.57566612,
      "Primary Girl's Enrolment in percentage DISE": 48.6,
      "Marginal Workers worked for 3 - 6 moths during last year - Males": 152917,
      "Prevalence of Acute illness in percentage DLHS-4": "Not available",
      "Main Workers - Persons": 496579,
      "Main Workers Cultivators - Females": 29014,
      "Marginal Workers Agricultural Labourers worked for 3 - 6 moths during last year - Females": 53572,
      "Marginal Workers Other worked for 0 - 3 moths during last year - Males": 9966,
      "Upper Primary Schools with drinking water facility in percentage DISE": 99.1,
      "Primary Schools with girls toilet in percentage DISE": 100,
      "Marginal Workers worked for 3 - 6 moths during last year - Persons": 258543,
      "Upper Primary Drop Out Rate in percentage DISE": "Not available",
      "Prevalence of Anaemia in pregnant women aged 15-49years in percentage DLHS-4": "Not available",
      "Current use of any modern method of family planning in percentage DLHS-4": 30.3,
      "Marginal Workers Agricultural Labourers - Males": 95514,
      "Upper Primary Female Teachers in percentage DISE": 32.9,
      "Marginal Workers - Females": 141021,
      "Marginal Workers Other worked for 3 - 6 moths during last year - Persons": 67180,
      "Main Workers Agricultural Labourers - Females": 25876,
      "Marginal Workers Cultivators worked for 3 - 6 moths during last year - Females": 22898,
      "Households with no lighting  Houselisting and Housing Census Data Tables- District Level , Census of India__5": 750,
      "Prevalence of Severe Anaemia  in percentage DLHS-4": "Not available",
      "Total unmet need for family planning in percentage DLHS-4": 13.8,
      "Main Workers Other - Males": 142307,
      "Children who received full vaccination in percentage DLHS-4": "Not available",
      "Marginal Workers Household Industry - Persons": 18430,
      "Primary Pupil-Teacher Ratio in percentage DISE": 35,
      "Marginal Workers Agricultural Labourers worked for 3 - 6 moths during last year - Males": 75237,
      "Scheduled Caste Females": 273763,
      "Marginal Workers Cultivators - Males": 34572,
      "Marginal Workers - Males": 193609,
      "Marginal Workers worked for 0 - 3 moths during last year - Females": 35395,
      "Households with main source of drinking water within premises in percentage Houselisting and Housing Census Data Tables- District Level , Census of India": 54.99905464,
      "Marginal Workers Household Industry worked for 3 - 6 moths during last year - Persons": 13128,
      "Upper Primary Girl's Enrolment in percentage DISE": 51.3,
      "Prevalence of Severe Anaemia in women aged 15-49years in percentage DLHS-4": "Not available",
      "Marginal Workers Agricultural Labourers worked for 0 - 3 moths during last year - Males": 20277,
      "Households with electricity as main source of lighting  Houselisting and Housing Census Data Tables- District Level , Census of India__3": 127754,
      "Households with computer or laptop with internet connection in percentage": 1.14,
      "PHCs functioning on a 24x7hours basis in percentage DLHS-4": "Not available",
      "Non Workers - Males": 661740,
      "Total Households in District Houselisting and Housing Census Data Tables- District Level , Census of India": 417829,
      "Upper Primary Schools with girls toilet in percentage DISE": 100,
      "Households with mobile phone in percentage": 60.47,
      "Households receiving untreated tap water within premises in percentage Houselisting and Housing Census Data Tables- District Level , Census of India__2": 2.766921396,
      "Marginal Workers Cultivators worked for 3 - 6 moths during last year - Males": 26528,
      "Prevalence of Anaemia  in percentage DLHS-4": "Not available",
      "Prevalence of Chronic illness in percentage DLHS-4": "Not available",
      "Households with solar energy as main source of lighting in percentage Houselisting and Housing Census Data Tables- District Level , Census of India__1": 0.37144382,
      "Marginal Workers Agricultural Labourers worked for 0 - 3 moths during last year - Females": 17870,
      "Main Workers - Males": 404279,
      "Female": 59.03,
      "Sno": 1772,
      "Marginal Workers Other worked for 3 - 6 moths during last year - Females": 22869,
      "Marginal Workers Cultivators worked for 0 - 3 moths during last year - Females": 9613,
      "Scheduled Tribe Males": 469,
      "Male Illiterates": 421289,
      "Prevalence of Severe Anaemia in pregnant women aged 15-49years in percentage DLHS-4": "Not available",
      "0-6 Age Group Persons": 360082,
      "Upper Primary Student-Classroom Ratio in percentage DISE": 26,
      "Currently married men married below 21years of age in percentage DLHS-4": 15,
      "Male Literates": 838339,
      "Households with no lighting in percentage Houselisting and Housing Census Data Tables- District Level , Census of India__2": 0.179499269,
      "Primary Drop Out Rate in percentage DISE": 9,
      "Marginal Workers Household Industry - Males": 9246,
      "Female Illiterates": 598806,
      "Main Workers Other - Females": 30096,
      "Marginal Workers Cultivators - Persons": 67083,
      "Upper Primary Gross Enrolment Ratio in percentage DISE": 86.7,
      "Scheduled Caste Persons": 555047,
      "Marginal Workers Cultivators worked for 3 - 6 moths during last year - Persons": 49426,
      "Households with landline phone in percentage": 3.64,
      "Total Households in District  Houselisting and Housing Census Data Tables- District Level , Census of India": 417829,
      "Upper Primary Pupil-Teacher Ratio in percentage DISE": 29,
      "Primary Student-Classroom Ratio in percentage DISE": 29,
      "Primary Schools with boys toilet in percentage DISE": 100,
      "Mean number of children ever born to women aged 40-49years  DLHS-4": "Not available",
      "Households receiving untreated tap water within premises  Houselisting and Housing Census Data Tables- District Level , Census of India__5": 11561,
      "Marginal Workers Household Industry worked for 0 - 3 moths during last year - Persons": 5302,
      "Total Male Population": 1259628,
      "Non Workers - Females": 978047,
      "Current use of family planning methods in percentage DLHS-4": 62.5,
      "Households with main source of drinking water within premises  Houselisting and Housing Census Data Tables- District Level , Census of India__3": 229802,
      "Main Workers Agricultural Labourers - Males": 79902,
      "Marginal Workers Other worked for 0 - 3 moths during last year - Persons": 14981,
      "Currently married women married below 18years of age in percentage DLHS-4": 5.9,
      "Person Illiterates": 1020095,
      "Main Workers Household Industry - Females": 7314,
      "Female Literates": 612562,
      "Marginal Workers Cultivators worked for 0 - 3 moths during last year - Males": 8044,
      "Male": 78.12,
      "Households with improved source of drinking water in percentage DLHS-4": "Not available",
      "Upper Primary Schools with electricity in percentage DISE": 37.2,
      "Households with electricity in percentage DLHS-4": "Not available",
      "Villages with Primary Health Centre within 10km in percentage DLHS-4": "Not available",
      "Births to women aged 15-19years out of Total births in percentage DLHS-4": "Not available",
      "Prevalence of Anaemia in women aged 15-49years in percentage DLHS-4": "Not available",
      "Marginal Workers Agricultural Labourers worked for 3 - 6 moths during last year - Persons": 128809,
      "Main Workers Household Industry - Males": 17761,
      "Scheduled Tribe Females": 462,
      "Marginal Workers worked for 0 - 3 moths during last year - Males": 40692,
      "Marginal Workers Other worked for 3 - 6 moths during last year - Males": 44311,
      "Primary Net Enrolment Ratio in percentage DISE": 91.4,
      "Total": 68.73,
      "Mean age at marriage for boys DLHS-4": 23.8,
      "Number of District Hospitals  DLHS-4": "Not available",
      "0-6 Age Group Females": 173642,
      "Marginal Workers Agricultural Labourers worked for 0 - 3 moths during last year - Persons": 38147,
      "Marginal Workers Household Industry worked for 0 - 3 moths during last year - Males": 2405,
      "Total Workers  Females": 233321,
      "Marginal Workers worked for 3 - 6 moths during last year - Females": 105626,
      "Institutional Deliveries in percentage DLHS-4": 66.3,
      "Marginal Workers Other - Males": 54277,
      "Total Workers  Males": 597888,
      "Main Workers - Females": 92300,
      "Primary Gross Enrolment Ratio in percentage DISE": 111.2,
      "Main Workers Cultivators - Persons": 193323,
      "Marginal Workers Household Industry worked for 0 - 3 moths during last year - Females": 2897,
      "Upper Primary Net Enrolment Ratio in percentage DISE": 66.3,
      "Primary New Government Schools since 2003 in percentage DISE": 28,
      "Tier": "Total",
      "Marginal Workers Household Industry - Females": 9184,
      "Primary Schools with electricity in percentage DISE": 33.8,
      "Main Workers Other - Persons": 172403,
      "Marginal Workers Household Industry worked for 3 - 6 moths during last year - Females": 6287,
      "Main Workers Cultivators - Males": 164309,
      "Main Workers Household Industry - Persons": 25075,
      "Marginal Workers Cultivators worked for 0 - 3 moths during last year - Persons": 17657,
      "Scheduled Caste Males": 281284,
      "Marginal Workers - Persons": 334630,
      "Deliveries at home conducted by skilled health personnel in percentage DLHS-4": 27.4,
      "Villages with Sub-Health Centres within 3km in percentage DLHS-4": "Not available",
      "Upper Primary New Government Schools since 2003 in percentage DISE": 68.3,
      "0-6 Age Group Males": 186440,
      "Primary Schools with drinking water facility in percentage DISE": 99.5,
      "Non Workers - Persons": 1639787,
      "Person Literates": 1450901,
      "State": "UTTAR PRADESH",
      "Total Female Population": 1211368,
      "Marginal Workers worked for 0 - 3 moths during last year - Persons": 76087,
      "Marginal Workers Cultivators - Females": 32511,
      "Marginal Workers Other - Persons": 82161,
      "Sex Ratio": 962,
      "Scheduled Tribe Persons": 931,
      "Marginal Workers Household Industry worked for 3 - 6 moths during last year - Males": 6841,
      "Marginal Workers Agricultural Labourers - Females": 71442,
      "Mean age at marriage for girls DLHS-4": 21.7,
      "Households with solar energy as main source of lighting  Houselisting and Housing Census Data Tables- District Level , Census of India__4": 1552,
      "District": "FAIZABAD",
      "Households receiving treated tap water within premises in percentage Houselisting and Housing Census Data Tables- District Level , Census of India__1": 10.7534422,
      "Total Workers  Persons": 831209,
      "Households receiving treated tap water within premises  Houselisting and Housing Census Data Tables- District Level , Census of India__4": 44931,
      "Primary Female Teachers in percentage DISE": 48.2,
      "Number of Households": 423375,
      "Main Workers Agricultural Labourers - Persons": 105778
    }
  ],
  "Rural": [
    {
      "Marginal Workers Agricultural Labourers - Persons": 163164,
      "Marginal Workers Other - Females": 21519,
      "Marginal Workers Other worked for 0 - 3 moths during last year - Females": 4580,
      "Upper Primary Schools with boys toilet in percentage DISE": "NA",
      "Total Population": 2130743,
      "Households with electricity as main source of lighting in percentage Houselisting and Housing Census Data Tables- District Level , Census of India": 22.8515242,
      "Primary Girl's Enrolment in percentage DISE": "NA",
      "Marginal Workers worked for 3 - 6 moths during last year - Males": 137342,
      "Prevalence of Acute illness in percentage DLHS-4": "Not available",
      "Main Workers - Persons": 416288,
      "Main Workers Cultivators - Females": 28705,
      "Marginal Workers Agricultural Labourers worked for 3 - 6 moths during last year - Females": 52718,
      "Marginal Workers Other worked for 0 - 3 moths during last year - Males": 8570,
      "Upper Primary Schools with drinking water facility in percentage DISE": "NA",
      "Primary Schools with girls toilet in percentage DISE": "NA",
      "Marginal Workers worked for 3 - 6 moths during last year - Persons": 235410,
      "Upper Primary Drop Out Rate in percentage DISE": "NA",
      "Prevalence of Anaemia in pregnant women aged 15-49years in percentage DLHS-4": "Not available",
      "Current use of any modern method of family planning in percentage DLHS-4": 28,
      "Marginal Workers Agricultural Labourers - Males": 92773,
      "Upper Primary Female Teachers in percentage DISE": "NA",
      "Marginal Workers - Females": 132674,
      "Marginal Workers Other worked for 3 - 6 moths during last year - Persons": 49535,
      "Main Workers Agricultural Labourers - Females": 25324,
      "Marginal Workers Cultivators worked for 3 - 6 moths during last year - Females": 22736,
      "Households with no lighting  Houselisting and Housing Census Data Tables- District Level , Census of India__5": 381,
      "Prevalence of Severe Anaemia  in percentage DLHS-4": "Not available",
      "Total unmet need for family planning in percentage DLHS-4": 13.9,
      "Main Workers Other - Males": 82669,
      "Children who received full vaccination in percentage DLHS-4": "Not available",
      "Marginal Workers Household Industry - Persons": 16317,
      "Primary Pupil-Teacher Ratio in percentage DISE": "NA",
      "Marginal Workers Agricultural Labourers worked for 3 - 6 moths during last year - Males": 72824,
      "Scheduled Caste Females": 256682,
      "Marginal Workers Cultivators - Males": 34144,
      "Marginal Workers - Males": 175974,
      "Marginal Workers worked for 0 - 3 moths during last year - Females": 34606,
      "Households with main source of drinking water within premises in percentage Houselisting and Housing Census Data Tables- District Level , Census of India": 50.70858617,
      "Marginal Workers Household Industry worked for 3 - 6 moths during last year - Persons": 11459,
      "Upper Primary Girl's Enrolment in percentage DISE": "NA",
      "Prevalence of Severe Anaemia in women aged 15-49years in percentage DLHS-4": "Not available",
      "Marginal Workers Agricultural Labourers worked for 0 - 3 moths during last year - Males": 19949,
      "Households with electricity as main source of lighting  Houselisting and Housing Census Data Tables- District Level , Census of India__3": 82736,
      "Households with computer or laptop with internet connection in percentage": 0.65,
      "PHCs functioning on a 24x7hours basis in percentage DLHS-4": "Not applicable",
      "Non Workers - Males": 568263,
      "Total Households in District Houselisting and Housing Census Data Tables- District Level , Census of India": 362059,
      "Upper Primary Schools with girls toilet in percentage DISE": "NA",
      "Households with mobile phone in percentage": 59.22,
      "Households receiving untreated tap water within premises in percentage Houselisting and Housing Census Data Tables- District Level , Census of India__2": 2.700941007,
      "Marginal Workers Cultivators worked for 3 - 6 moths during last year - Males": 26138,
      "Prevalence of Anaemia  in percentage DLHS-4": "Not available",
      "Prevalence of Chronic illness in percentage DLHS-4": "Not available",
      "Households with solar energy as main source of lighting in percentage Houselisting and Housing Census Data Tables- District Level , Census of India__1": 0.398277629,
      "Marginal Workers Agricultural Labourers worked for 0 - 3 moths during last year - Females": 17673,
      "Main Workers - Males": 335020,
      "Female": "NA",
      "Sno": 1771,
      "Marginal Workers Other worked for 3 - 6 moths during last year - Females": 16939,
      "Marginal Workers Cultivators worked for 0 - 3 moths during last year - Females": 9602,
      "Scheduled Tribe Males": 359,
      "Male Illiterates": 376185,
      "Prevalence of Severe Anaemia in pregnant women aged 15-49years in percentage DLHS-4": "Not available",
      "0-6 Age Group Persons": 321675,
      "Upper Primary Student-Classroom Ratio in percentage DISE": "NA",
      "Currently married men married below 21years of age in percentage DLHS-4": 17.2,
      "Male Literates": 703072,
      "Households with no lighting in percentage Houselisting and Housing Census Data Tables- District Level , Census of India__2": 0.105231468,
      "Primary Drop Out Rate in percentage DISE": "NA",
      "Marginal Workers Household Industry - Males": 7891,
      "Female Illiterates": 545229,
      "Main Workers Other - Females": 20866,
      "Marginal Workers Cultivators - Persons": 66482,
      "Upper Primary Gross Enrolment Ratio in percentage DISE": "NA",
      "Scheduled Caste Persons": 519511,
      "Marginal Workers Cultivators worked for 3 - 6 moths during last year - Persons": 48874,
      "Households with landline phone in percentage": 3.35,
      "Total Households in District  Houselisting and Housing Census Data Tables- District Level , Census of India": 362059,
      "Upper Primary Pupil-Teacher Ratio in percentage DISE": "NA",
      "Primary Student-Classroom Ratio in percentage DISE": "NA",
      "Primary Schools with boys toilet in percentage DISE": "NA",
      "Mean number of children ever born to women aged 40-49years  DLHS-4": "Not available",
      "Households receiving untreated tap water within premises  Houselisting and Housing Census Data Tables- District Level , Census of India__5": 9779,
      "Marginal Workers Household Industry worked for 0 - 3 moths during last year - Persons": 4858,
      "Total Male Population": 1079257,
      "Non Workers - Females": 837544,
      "Current use of family planning methods in percentage DLHS-4": 62.1,
      "Households with main source of drinking water within premises  Houselisting and Housing Census Data Tables- District Level , Census of India__3": 183595,
      "Main Workers Agricultural Labourers - Males": 76489,
      "Marginal Workers Other worked for 0 - 3 moths during last year - Persons": 13150,
      "Currently married women married below 18years of age in percentage DLHS-4": 6.9,
      "Person Illiterates": 921414,
      "Main Workers Household Industry - Females": 6373,
      "Female Literates": 506257,
      "Marginal Workers Cultivators worked for 0 - 3 moths during last year - Males": 8006,
      "Male": "NA",
      "Households with improved source of drinking water in percentage DLHS-4": "Not available",
      "Upper Primary Schools with electricity in percentage DISE": "NA",
      "Households with electricity in percentage DLHS-4": "Not available",
      "Villages with Primary Health Centre within 10km in percentage DLHS-4": "Not applicable",
      "Births to women aged 15-19years out of Total births in percentage DLHS-4": "Not available",
      "Prevalence of Anaemia in women aged 15-49years in percentage DLHS-4": "Not available",
      "Marginal Workers Agricultural Labourers worked for 3 - 6 moths during last year - Persons": 125542,
      "Main Workers Household Industry - Males": 13513,
      "Scheduled Tribe Females": 362,
      "Marginal Workers worked for 0 - 3 moths during last year - Males": 38632,
      "Marginal Workers Other worked for 3 - 6 moths during last year - Males": 32596,
      "Primary Net Enrolment Ratio in percentage DISE": "NA",
      "Total": "NA",
      "Mean age at marriage for boys DLHS-4": 23.1,
      "Number of District Hospitals  DLHS-4": "Not applicable",
      "0-6 Age Group Females": 155389,
      "Marginal Workers Agricultural Labourers worked for 0 - 3 moths during last year - Persons": 37622,
      "Marginal Workers Household Industry worked for 0 - 3 moths during last year - Males": 2107,
      "Total Workers  Females": 213942,
      "Marginal Workers worked for 3 - 6 moths during last year - Females": 98068,
      "Institutional Deliveries in percentage DLHS-4": 65.6,
      "Marginal Workers Other - Males": 41166,
      "Total Workers  Males": 510994,
      "Main Workers - Females": 81268,
      "Primary Gross Enrolment Ratio in percentage DISE": "NA",
      "Main Workers Cultivators - Persons": 191054,
      "Marginal Workers Household Industry worked for 0 - 3 moths during last year - Females": 2751,
      "Upper Primary Net Enrolment Ratio in percentage DISE": "NA",
      "Primary New Government Schools since 2003 in percentage DISE": "NA",
      "Tier": "Rural",
      "Marginal Workers Household Industry - Females": 8426,
      "Primary Schools with electricity in percentage DISE": "NA",
      "Main Workers Other - Persons": 103535,
      "Marginal Workers Household Industry worked for 3 - 6 moths during last year - Females": 5675,
      "Main Workers Cultivators - Males": 162349,
      "Main Workers Household Industry - Persons": 19886,
      "Marginal Workers Cultivators worked for 0 - 3 moths during last year - Persons": 17608,
      "Scheduled Caste Males": 262829,
      "Marginal Workers - Persons": 308648,
      "Deliveries at home conducted by skilled health personnel in percentage DLHS-4": 27.3,
      "Villages with Sub-Health Centres within 3km in percentage DLHS-4": "Not applicable",
      "Upper Primary New Government Schools since 2003 in percentage DISE": "NA",
      "0-6 Age Group Males": 166286,
      "Primary Schools with drinking water facility in percentage DISE": "NA",
      "Non Workers - Persons": 1405807,
      "Person Literates": 1209329,
      "State": "UTTAR PRADESH",
      "Total Female Population": 1051486,
      "Marginal Workers worked for 0 - 3 moths during last year - Persons": 73238,
      "Marginal Workers Cultivators - Females": 32338,
      "Marginal Workers Other - Persons": 62685,
      "Sex Ratio": 974,
      "Scheduled Tribe Persons": 721,
      "Marginal Workers Household Industry worked for 3 - 6 moths during last year - Males": 5784,
      "Marginal Workers Agricultural Labourers - Females": 70391,
      "Mean age at marriage for girls DLHS-4": 21.3,
      "Households with solar energy as main source of lighting  Houselisting and Housing Census Data Tables- District Level , Census of India__4": 1442,
      "District": "FAIZABAD",
      "Households receiving treated tap water within premises in percentage Houselisting and Housing Census Data Tables- District Level , Census of India__1": 7.897607848,
      "Total Workers  Persons": 724936,
      "Households receiving treated tap water within premises  Houselisting and Housing Census Data Tables- District Level , Census of India__4": 28594,
      "Primary Female Teachers in percentage DISE": "NA",
      "Number of Households": 365711,
      "Main Workers Agricultural Labourers - Persons": 101813
    }
  ],
  "Urban": [
    {
      "Marginal Workers Agricultural Labourers - Persons": 3792,
      "Marginal Workers Other - Females": 6365,
      "Marginal Workers Other worked for 0 - 3 moths during last year - Females": 435,
      "Upper Primary Schools with boys toilet in percentage DISE": "NA",
      "Total Population": 340253,
      "Households with electricity as main source of lighting in percentage Houselisting and Housing Census Data Tables- District Level , Census of India": 80.72081764,
      "Primary Girl's Enrolment in percentage DISE": "NA",
      "Marginal Workers worked for 3 - 6 moths during last year - Males": 15575,
      "Prevalence of Acute illness in percentage DLHS-4": "Not available",
      "Main Workers - Persons": 80291,
      "Main Workers Cultivators - Females": 309,
      "Marginal Workers Agricultural Labourers worked for 3 - 6 moths during last year - Females": 854,
      "Marginal Workers Other worked for 0 - 3 moths during last year - Males": 1396,
      "Upper Primary Schools with drinking water facility in percentage DISE": "NA",
      "Primary Schools with girls toilet in percentage DISE": "NA",
      "Marginal Workers worked for 3 - 6 moths during last year - Persons": 23133,
      "Upper Primary Drop Out Rate in percentage DISE": "NA",
      "Prevalence of Anaemia in pregnant women aged 15-49years in percentage DLHS-4": "Not available",
      "Current use of any modern method of family planning in percentage DLHS-4": 47.1,
      "Marginal Workers Agricultural Labourers - Males": 2741,
      "Upper Primary Female Teachers in percentage DISE": "NA",
      "Marginal Workers - Females": 8347,
      "Marginal Workers Other worked for 3 - 6 moths during last year - Persons": 17645,
      "Main Workers Agricultural Labourers - Females": 552,
      "Marginal Workers Cultivators worked for 3 - 6 moths during last year - Females": 162,
      "Households with no lighting  Houselisting and Housing Census Data Tables- District Level , Census of India__5": 369,
      "Prevalence of Severe Anaemia  in percentage DLHS-4": "Not available",
      "Total unmet need for family planning in percentage DLHS-4": 13.4,
      "Main Workers Other - Males": 59638,
      "Children who received full vaccination in percentage DLHS-4": "Not available",
      "Marginal Workers Household Industry - Persons": 2113,
      "Primary Pupil-Teacher Ratio in percentage DISE": "NA",
      "Marginal Workers Agricultural Labourers worked for 3 - 6 moths during last year - Males": 2413,
      "Scheduled Caste Females": 17081,
      "Marginal Workers Cultivators - Males": 428,
      "Marginal Workers - Males": 17635,
      "Marginal Workers worked for 0 - 3 moths during last year - Females": 789,
      "Households with main source of drinking water within premises in percentage Houselisting and Housing Census Data Tables- District Level , Census of India": 82.85278824,
      "Marginal Workers Household Industry worked for 3 - 6 moths during last year - Persons": 1669,
      "Upper Primary Girl's Enrolment in percentage DISE": "NA",
      "Prevalence of Severe Anaemia in women aged 15-49years in percentage DLHS-4": "Not available",
      "Marginal Workers Agricultural Labourers worked for 0 - 3 moths during last year - Males": 328,
      "Households with electricity as main source of lighting  Houselisting and Housing Census Data Tables- District Level , Census of India__3": 45018,
      "Households with computer or laptop with internet connection in percentage": 4.31,
      "PHCs functioning on a 24x7hours basis in percentage DLHS-4": 0,
      "Non Workers - Males": 93477,
      "Total Households in District Houselisting and Housing Census Data Tables- District Level , Census of India": 55770,
      "Upper Primary Schools with girls toilet in percentage DISE": "NA",
      "Households with mobile phone in percentage": 68.53,
      "Households receiving untreated tap water within premises in percentage Houselisting and Housing Census Data Tables- District Level , Census of India__2": 3.195266272,
      "Marginal Workers Cultivators worked for 3 - 6 moths during last year - Males": 390,
      "Prevalence of Anaemia  in percentage DLHS-4": "Not available",
      "Prevalence of Chronic illness in percentage DLHS-4": "Not available",
      "Households with solar energy as main source of lighting in percentage Houselisting and Housing Census Data Tables- District Level , Census of India__1": 0.197238659,
      "Marginal Workers Agricultural Labourers worked for 0 - 3 moths during last year - Females": 197,
      "Main Workers - Males": 69259,
      "Female": "NA",
      "Sno": 1773,
      "Marginal Workers Other worked for 3 - 6 moths during last year - Females": 5930,
      "Marginal Workers Cultivators worked for 0 - 3 moths during last year - Females": 11,
      "Scheduled Tribe Males": 110,
      "Male Illiterates": 45104,
      "Prevalence of Severe Anaemia in pregnant women aged 15-49years in percentage DLHS-4": "Not available",
      "0-6 Age Group Persons": 38407,
      "Upper Primary Student-Classroom Ratio in percentage DISE": "NA",
      "Currently married men married below 21years of age in percentage DLHS-4": 6,
      "Male Literates": 135267,
      "Households with no lighting in percentage Houselisting and Housing Census Data Tables- District Level , Census of India__2": 0.661646046,
      "Primary Drop Out Rate in percentage DISE": "NA",
      "Marginal Workers Household Industry - Males": 1355,
      "Female Illiterates": 53577,
      "Main Workers Other - Females": 9230,
      "Marginal Workers Cultivators - Persons": 601,
      "Upper Primary Gross Enrolment Ratio in percentage DISE": "NA",
      "Scheduled Caste Persons": 35536,
      "Marginal Workers Cultivators worked for 3 - 6 moths during last year - Persons": 552,
      "Households with landline phone in percentage": 5.55,
      "Total Households in District  Houselisting and Housing Census Data Tables- District Level , Census of India": 55770,
      "Upper Primary Pupil-Teacher Ratio in percentage DISE": "NA",
      "Primary Student-Classroom Ratio in percentage DISE": "NA",
      "Primary Schools with boys toilet in percentage DISE": "NA",
      "Mean number of children ever born to women aged 40-49years  DLHS-4": "Not available",
      "Households receiving untreated tap water within premises  Houselisting and Housing Census Data Tables- District Level , Census of India__5": 1782,
      "Marginal Workers Household Industry worked for 0 - 3 moths during last year - Persons": 444,
      "Total Male Population": 180371,
      "Non Workers - Females": 140503,
      "Current use of family planning methods in percentage DLHS-4": 65.6,
      "Households with main source of drinking water within premises  Houselisting and Housing Census Data Tables- District Level , Census of India__3": 46207,
      "Main Workers Agricultural Labourers - Males": 3413,
      "Marginal Workers Other worked for 0 - 3 moths during last year - Persons": 1831,
      "Currently married women married below 18years of age in percentage DLHS-4": 1.6,
      "Person Illiterates": 98681,
      "Main Workers Household Industry - Females": 941,
      "Female Literates": 106305,
      "Marginal Workers Cultivators worked for 0 - 3 moths during last year - Males": 38,
      "Male": "NA",
      "Households with improved source of drinking water in percentage DLHS-4": "Not available",
      "Upper Primary Schools with electricity in percentage DISE": "NA",
      "Households with electricity in percentage DLHS-4": "Not available",
      "Villages with Primary Health Centre within 10km in percentage DLHS-4": 0,
      "Births to women aged 15-19years out of Total births in percentage DLHS-4": "Not available",
      "Prevalence of Anaemia in women aged 15-49years in percentage DLHS-4": "Not available",
      "Marginal Workers Agricultural Labourers worked for 3 - 6 moths during last year - Persons": 3267,
      "Main Workers Household Industry - Males": 4248,
      "Scheduled Tribe Females": 100,
      "Marginal Workers worked for 0 - 3 moths during last year - Males": 2060,
      "Marginal Workers Other worked for 3 - 6 moths during last year - Males": 11715,
      "Primary Net Enrolment Ratio in percentage DISE": "NA",
      "Total": "NA",
      "Mean age at marriage for boys DLHS-4": 27.3,
      "Number of District Hospitals  DLHS-4": 0,
      "0-6 Age Group Females": 18253,
      "Marginal Workers Agricultural Labourers worked for 0 - 3 moths during last year - Persons": 525,
      "Marginal Workers Household Industry worked for 0 - 3 moths during last year - Males": 298,
      "Total Workers  Females": 19379,
      "Marginal Workers worked for 3 - 6 moths during last year - Females": 7558,
      "Institutional Deliveries in percentage DLHS-4": 72.9,
      "Marginal Workers Other - Males": 13111,
      "Total Workers  Males": 86894,
      "Main Workers - Females": 11032,
      "Primary Gross Enrolment Ratio in percentage DISE": "NA",
      "Main Workers Cultivators - Persons": 2269,
      "Marginal Workers Household Industry worked for 0 - 3 moths during last year - Females": 146,
      "Upper Primary Net Enrolment Ratio in percentage DISE": "NA",
      "Primary New Government Schools since 2003 in percentage DISE": "NA",
      "Tier": "Urban",
      "Marginal Workers Household Industry - Females": 758,
      "Primary Schools with electricity in percentage DISE": "NA",
      "Main Workers Other - Persons": 68868,
      "Marginal Workers Household Industry worked for 3 - 6 moths during last year - Females": 612,
      "Main Workers Cultivators - Males": 1960,
      "Main Workers Household Industry - Persons": 5189,
      "Marginal Workers Cultivators worked for 0 - 3 moths during last year - Persons": 49,
      "Scheduled Caste Males": 18455,
      "Marginal Workers - Persons": 25982,
      "Deliveries at home conducted by skilled health personnel in percentage DLHS-4": 28.8,
      "Villages with Sub-Health Centres within 3km in percentage DLHS-4": 0,
      "Upper Primary New Government Schools since 2003 in percentage DISE": "NA",
      "0-6 Age Group Males": 20154,
      "Primary Schools with drinking water facility in percentage DISE": "NA",
      "Non Workers - Persons": 233980,
      "Person Literates": 241572,
      "State": "UTTAR PRADESH",
      "Total Female Population": 159882,
      "Marginal Workers worked for 0 - 3 moths during last year - Persons": 2849,
      "Marginal Workers Cultivators - Females": 173,
      "Marginal Workers Other - Persons": 19476,
      "Sex Ratio": 886,
      "Scheduled Tribe Persons": 210,
      "Marginal Workers Household Industry worked for 3 - 6 moths during last year - Males": 1057,
      "Marginal Workers Agricultural Labourers - Females": 1051,
      "Mean age at marriage for girls DLHS-4": 23.8,
      "Households with solar energy as main source of lighting  Houselisting and Housing Census Data Tables- District Level , Census of India__4": 110,
      "District": "FAIZABAD",
      "Households receiving treated tap water within premises in percentage Houselisting and Housing Census Data Tables- District Level , Census of India__1": 29.29352699,
      "Total Workers  Persons": 106273,
      "Households receiving treated tap water within premises  Houselisting and Housing Census Data Tables- District Level , Census of India__4": 16337,
      "Primary Female Teachers in percentage DISE": "NA",
      "Number of Households": 57664,
      "Main Workers Agricultural Labourers - Persons": 3965
    }
  ]
}