{
  "Total": [
    {
      "Marginal Workers Agricultural Labourers - Persons": 220430,
      "Marginal Workers Other - Females": 29905,
      "Marginal Workers Other worked for 0 - 3 moths during last year - Females": 6539,
      "Upper Primary Schools with boys toilet in percentage DISE": 80.6,
      "Total Population": 2632733,
      "Households with electricity as main source of lighting in percentage Houselisting and Housing Census Data Tables- District Level , Census of India": 15.91113291,
      "Primary Girl's Enrolment in percentage DISE": 48.7,
      "Marginal Workers worked for 3 - 6 moths during last year - Males": 158424,
      "Prevalence of Acute illness in percentage DLHS-4": "Not available",
      "Main Workers - Persons": 670156,
      "Main Workers Cultivators - Females": 47146,
      "Marginal Workers Agricultural Labourers worked for 3 - 6 moths during last year - Females": 91673,
      "Marginal Workers Other worked for 0 - 3 moths during last year - Males": 9514,
      "Upper Primary Schools with drinking water facility in percentage DISE": 92.2,
      "Primary Schools with girls toilet in percentage DISE": 83.5,
      "Marginal Workers worked for 3 - 6 moths during last year - Persons": 315883,
      "Upper Primary Drop Out Rate in percentage DISE": 8.03,
      "Prevalence of Anaemia in pregnant women aged 15-49years in percentage DLHS-4": "Not available",
      "Current use of any modern method of family planning in percentage DLHS-4": 42.7,
      "Marginal Workers Agricultural Labourers - Males": 103924,
      "Upper Primary Female Teachers in percentage DISE": 24.5,
      "Marginal Workers - Females": 201470,
      "Marginal Workers Other worked for 3 - 6 moths during last year - Persons": 67919,
      "Main Workers Agricultural Labourers - Females": 60893,
      "Marginal Workers Cultivators worked for 3 - 6 moths during last year - Females": 31145,
      "Households with no lighting  Houselisting and Housing Census Data Tables- District Level , Census of India__5": 538,
      "Prevalence of Severe Anaemia  in percentage DLHS-4": "Not available",
      "Total unmet need for family planning in percentage DLHS-4": 18.6,
      "Main Workers Other - Males": 143055,
      "Children who received full vaccination in percentage DLHS-4": "Not available",
      "Marginal Workers Household Industry - Persons": 24930,
      "Primary Pupil-Teacher Ratio in percentage DISE": 27,
      "Marginal Workers Agricultural Labourers worked for 3 - 6 moths during last year - Males": 87071,
      "Scheduled Caste Females": 308588,
      "Marginal Workers Cultivators - Males": 24587,
      "Marginal Workers - Males": 192303,
      "Marginal Workers worked for 0 - 3 moths during last year - Females": 44011,
      "Households with main source of drinking water within premises in percentage Houselisting and Housing Census Data Tables- District Level , Census of India": 18.72348162,
      "Marginal Workers Household Industry worked for 3 - 6 moths during last year - Persons": 18738,
      "Upper Primary Girl's Enrolment in percentage DISE": 52.3,
      "Prevalence of Severe Anaemia in women aged 15-49years in percentage DLHS-4": "Not available",
      "Marginal Workers Agricultural Labourers worked for 0 - 3 moths during last year - Males": 16853,
      "Households with electricity as main source of lighting  Houselisting and Housing Census Data Tables- District Level , Census of India__3": 75263,
      "Households with computer or laptop with internet connection in percentage": 0.72,
      "PHCs functioning on a 24x7hours basis in percentage DLHS-4": "Not available",
      "Non Workers - Males": 670986,
      "Total Households in District Houselisting and Housing Census Data Tables- District Level , Census of India": 473021,
      "Upper Primary Schools with girls toilet in percentage DISE": 85.5,
      "Households with mobile phone in percentage": 51.62,
      "Households receiving untreated tap water within premises in percentage Houselisting and Housing Census Data Tables- District Level , Census of India__2": 1.179228829,
      "Marginal Workers Cultivators worked for 3 - 6 moths during last year - Males": 19337,
      "Prevalence of Anaemia  in percentage DLHS-4": "Not available",
      "Prevalence of Chronic illness in percentage DLHS-4": "Not available",
      "Households with solar energy as main source of lighting in percentage Houselisting and Housing Census Data Tables- District Level , Census of India__1": 0.525980876,
      "Marginal Workers Agricultural Labourers worked for 0 - 3 moths during last year - Females": 24833,
      "Main Workers - Males": 521433,
      "Female": 56.58,
      "Sno": 1778,
      "Marginal Workers Other worked for 3 - 6 moths during last year - Females": 23366,
      "Marginal Workers Cultivators worked for 0 - 3 moths during last year - Females": 8709,
      "Scheduled Tribe Males": 189,
      "Male Illiterates": 473719,
      "Prevalence of Severe Anaemia in pregnant women aged 15-49years in percentage DLHS-4": "Not available",
      "0-6 Age Group Persons": 390089,
      "Upper Primary Student-Classroom Ratio in percentage DISE": 20,
      "Currently married men married below 21years of age in percentage DLHS-4": 9.1,
      "Male Literates": 911003,
      "Households with no lighting in percentage Houselisting and Housing Census Data Tables- District Level , Census of India__2": 0.113737022,
      "Primary Drop Out Rate in percentage DISE": 12.8,
      "Marginal Workers Household Industry - Males": 9725,
      "Female Illiterates": 646848,
      "Main Workers Other - Females": 31223,
      "Marginal Workers Cultivators - Persons": 64441,
      "Upper Primary Gross Enrolment Ratio in percentage DISE": 66.6,
      "Scheduled Caste Persons": 651480,
      "Marginal Workers Cultivators worked for 3 - 6 moths during last year - Persons": 50482,
      "Households with landline phone in percentage": 4.24,
      "Total Households in District  Houselisting and Housing Census Data Tables- District Level , Census of India": 473021,
      "Upper Primary Pupil-Teacher Ratio in percentage DISE": 20,
      "Primary Student-Classroom Ratio in percentage DISE": 25,
      "Primary Schools with boys toilet in percentage DISE": 77.8,
      "Mean number of children ever born to women aged 40-49years  DLHS-4": "Not available",
      "Households receiving untreated tap water within premises  Houselisting and Housing Census Data Tables- District Level , Census of India__5": 5578,
      "Marginal Workers Household Industry worked for 0 - 3 moths during last year - Persons": 6192,
      "Total Male Population": 1384722,
      "Non Workers - Females": 897818,
      "Current use of family planning methods in percentage DLHS-4": 68.6,
      "Households with main source of drinking water within premises  Houselisting and Housing Census Data Tables- District Level , Census of India__3": 88566,
      "Main Workers Agricultural Labourers - Males": 144043,
      "Marginal Workers Other worked for 0 - 3 moths during last year - Persons": 16053,
      "Currently married women married below 18years of age in percentage DLHS-4": 0.7,
      "Person Illiterates": 1120567,
      "Main Workers Household Industry - Females": 9461,
      "Female Literates": 601163,
      "Marginal Workers Cultivators worked for 0 - 3 moths during last year - Males": 5250,
      "Male": 77.19,
      "Households with improved source of drinking water in percentage DLHS-4": "Not available",
      "Upper Primary Schools with electricity in percentage DISE": 25.1,
      "Households with electricity in percentage DLHS-4": "Not available",
      "Villages with Primary Health Centre within 10km in percentage DLHS-4": "Not available",
      "Births to women aged 15-19years out of Total births in percentage DLHS-4": "Not available",
      "Prevalence of Anaemia in women aged 15-49years in percentage DLHS-4": "Not available",
      "Marginal Workers Agricultural Labourers worked for 3 - 6 moths during last year - Persons": 178744,
      "Main Workers Household Industry - Males": 17164,
      "Scheduled Tribe Females": 151,
      "Marginal Workers worked for 0 - 3 moths during last year - Males": 33879,
      "Marginal Workers Other worked for 3 - 6 moths during last year - Males": 44553,
      "Primary Net Enrolment Ratio in percentage DISE": 81.9,
      "Total": 67.43,
      "Mean age at marriage for boys DLHS-4": 24.8,
      "Number of District Hospitals  DLHS-4": "Not available",
      "0-6 Age Group Females": 185527,
      "Marginal Workers Agricultural Labourers worked for 0 - 3 moths during last year - Persons": 41686,
      "Marginal Workers Household Industry worked for 0 - 3 moths during last year - Males": 2262,
      "Total Workers  Females": 350193,
      "Marginal Workers worked for 3 - 6 moths during last year - Females": 157459,
      "Institutional Deliveries in percentage DLHS-4": 57.9,
      "Marginal Workers Other - Males": 54067,
      "Total Workers  Males": 713736,
      "Main Workers - Females": 148723,
      "Primary Gross Enrolment Ratio in percentage DISE": 94.6,
      "Main Workers Cultivators - Persons": 264317,
      "Marginal Workers Household Industry worked for 0 - 3 moths during last year - Females": 3930,
      "Upper Primary Net Enrolment Ratio in percentage DISE": 50.6,
      "Primary New Government Schools since 2003 in percentage DISE": 23.9,
      "Tier": "Total",
      "Marginal Workers Household Industry - Females": 15205,
      "Primary Schools with electricity in percentage DISE": 22.8,
      "Main Workers Other - Persons": 174278,
      "Marginal Workers Household Industry worked for 3 - 6 moths during last year - Females": 11275,
      "Main Workers Cultivators - Males": 217171,
      "Main Workers Household Industry - Persons": 26625,
      "Marginal Workers Cultivators worked for 0 - 3 moths during last year - Persons": 13959,
      "Scheduled Caste Males": 342892,
      "Marginal Workers - Persons": 393773,
      "Deliveries at home conducted by skilled health personnel in percentage DLHS-4": 30.5,
      "Villages with Sub-Health Centres within 3km in percentage DLHS-4": "Not available",
      "Upper Primary New Government Schools since 2003 in percentage DISE": 74.3,
      "0-6 Age Group Males": 204562,
      "Primary Schools with drinking water facility in percentage DISE": 96.2,
      "Non Workers - Persons": 1568804,
      "Person Literates": 1512166,
      "State": "UTTAR PRADESH",
      "Total Female Population": 1248011,
      "Marginal Workers worked for 0 - 3 moths during last year - Persons": 77890,
      "Marginal Workers Cultivators - Females": 39854,
      "Marginal Workers Other - Persons": 83972,
      "Sex Ratio": 901,
      "Scheduled Tribe Persons": 340,
      "Marginal Workers Household Industry worked for 3 - 6 moths during last year - Males": 7463,
      "Marginal Workers Agricultural Labourers - Females": 116506,
      "Mean age at marriage for girls DLHS-4": 22.2,
      "Households with solar energy as main source of lighting  Houselisting and Housing Census Data Tables- District Level , Census of India__4": 2488,
      "District": "FATEHPUR",
      "Households receiving treated tap water within premises in percentage Houselisting and Housing Census Data Tables- District Level , Census of India__1": 6.576452208,
      "Total Workers  Persons": 1063929,
      "Households receiving treated tap water within premises  Houselisting and Housing Census Data Tables- District Level , Census of India__4": 31108,
      "Primary Female Teachers in percentage DISE": 41.6,
      "Number of Households": 472238,
      "Main Workers Agricultural Labourers - Persons": 204936
    }
  ],
  "Rural": [
    {
      "Marginal Workers Agricultural Labourers - Persons": 214046,
      "Marginal Workers Other - Females": 25540,
      "Marginal Workers Other worked for 0 - 3 moths during last year - Females": 5562,
      "Upper Primary Schools with boys toilet in percentage DISE": "NA",
      "Total Population": 2310740,
      "Households with electricity as main source of lighting in percentage Houselisting and Housing Census Data Tables- District Level , Census of India": 9.306193968,
      "Primary Girl's Enrolment in percentage DISE": "NA",
      "Marginal Workers worked for 3 - 6 moths during last year - Males": 145419,
      "Prevalence of Acute illness in percentage DLHS-4": "Not available",
      "Main Workers - Persons": 594710,
      "Main Workers Cultivators - Females": 46493,
      "Marginal Workers Agricultural Labourers worked for 3 - 6 moths during last year - Females": 89467,
      "Marginal Workers Other worked for 0 - 3 moths during last year - Males": 7759,
      "Upper Primary Schools with drinking water facility in percentage DISE": "NA",
      "Primary Schools with girls toilet in percentage DISE": "NA",
      "Marginal Workers worked for 3 - 6 moths during last year - Persons": 296365,
      "Upper Primary Drop Out Rate in percentage DISE": "NA",
      "Prevalence of Anaemia in pregnant women aged 15-49years in percentage DLHS-4": "Not available",
      "Current use of any modern method of family planning in percentage DLHS-4": 42.3,
      "Marginal Workers Agricultural Labourers - Males": 100279,
      "Upper Primary Female Teachers in percentage DISE": "NA",
      "Marginal Workers - Females": 193177,
      "Marginal Workers Other worked for 3 - 6 moths during last year - Persons": 55982,
      "Main Workers Agricultural Labourers - Females": 59445,
      "Marginal Workers Cultivators worked for 3 - 6 moths during last year - Females": 30800,
      "Households with no lighting  Houselisting and Housing Census Data Tables- District Level , Census of India__5": 400,
      "Prevalence of Severe Anaemia  in percentage DLHS-4": "Not available",
      "Total unmet need for family planning in percentage DLHS-4": 18.6,
      "Main Workers Other - Males": 91212,
      "Children who received full vaccination in percentage DLHS-4": "Not available",
      "Marginal Workers Household Industry - Persons": 23225,
      "Primary Pupil-Teacher Ratio in percentage DISE": "NA",
      "Marginal Workers Agricultural Labourers worked for 3 - 6 moths during last year - Males": 83851,
      "Scheduled Caste Females": 286276,
      "Marginal Workers Cultivators - Males": 24059,
      "Marginal Workers - Males": 176927,
      "Marginal Workers worked for 0 - 3 moths during last year - Females": 42231,
      "Households with main source of drinking water within premises in percentage Houselisting and Housing Census Data Tables- District Level , Census of India": 12.46186527,
      "Marginal Workers Household Industry worked for 3 - 6 moths during last year - Persons": 17404,
      "Upper Primary Girl's Enrolment in percentage DISE": "NA",
      "Prevalence of Severe Anaemia in women aged 15-49years in percentage DLHS-4": "Not available",
      "Marginal Workers Agricultural Labourers worked for 0 - 3 moths during last year - Males": 16428,
      "Households with electricity as main source of lighting  Houselisting and Housing Census Data Tables- District Level , Census of India__3": 38771,
      "Households with computer or laptop with internet connection in percentage": 0.52,
      "PHCs functioning on a 24x7hours basis in percentage DLHS-4": "Not applicable",
      "Non Workers - Males": 583124,
      "Total Households in District Houselisting and Housing Census Data Tables- District Level , Census of India": 416615,
      "Upper Primary Schools with girls toilet in percentage DISE": "NA",
      "Households with mobile phone in percentage": 50.27,
      "Households receiving untreated tap water within premises in percentage Houselisting and Housing Census Data Tables- District Level , Census of India__2": 0.401329765,
      "Marginal Workers Cultivators worked for 3 - 6 moths during last year - Males": 18861,
      "Prevalence of Anaemia  in percentage DLHS-4": "Not available",
      "Prevalence of Chronic illness in percentage DLHS-4": "Not available",
      "Households with solar energy as main source of lighting in percentage Houselisting and Housing Census Data Tables- District Level , Census of India__1": 0.563349855,
      "Marginal Workers Agricultural Labourers worked for 0 - 3 moths during last year - Females": 24300,
      "Main Workers - Males": 455639,
      "Female": "NA",
      "Sno": 1777,
      "Marginal Workers Other worked for 3 - 6 moths during last year - Females": 19978,
      "Marginal Workers Cultivators worked for 0 - 3 moths during last year - Females": 8671,
      "Scheduled Tribe Males": 167,
      "Male Illiterates": 425214,
      "Prevalence of Severe Anaemia in pregnant women aged 15-49years in percentage DLHS-4": "Not available",
      "0-6 Age Group Persons": 349925,
      "Upper Primary Student-Classroom Ratio in percentage DISE": "NA",
      "Currently married men married below 21years of age in percentage DLHS-4": 9.7,
      "Male Literates": 790476,
      "Households with no lighting in percentage Houselisting and Housing Census Data Tables- District Level , Census of India__2": 0.096,
      "Primary Drop Out Rate in percentage DISE": "NA",
      "Marginal Workers Household Industry - Males": 8826,
      "Female Illiterates": 586784,
      "Main Workers Other - Females": 24525,
      "Marginal Workers Cultivators - Persons": 63530,
      "Upper Primary Gross Enrolment Ratio in percentage DISE": "NA",
      "Scheduled Caste Persons": 604239,
      "Marginal Workers Cultivators worked for 3 - 6 moths during last year - Persons": 49661,
      "Households with landline phone in percentage": 4.11,
      "Total Households in District  Houselisting and Housing Census Data Tables- District Level , Census of India": 416615,
      "Upper Primary Pupil-Teacher Ratio in percentage DISE": "NA",
      "Primary Student-Classroom Ratio in percentage DISE": "NA",
      "Primary Schools with boys toilet in percentage DISE": "NA",
      "Mean number of children ever born to women aged 40-49years  DLHS-4": "Not available",
      "Households receiving untreated tap water within premises  Houselisting and Housing Census Data Tables- District Level , Census of India__5": 1672,
      "Marginal Workers Household Industry worked for 0 - 3 moths during last year - Persons": 5821,
      "Total Male Population": 1215690,
      "Non Workers - Females": 762802,
      "Current use of family planning methods in percentage DLHS-4": 68.5,
      "Households with main source of drinking water within premises  Houselisting and Housing Census Data Tables- District Level , Census of India__3": 51918,
      "Main Workers Agricultural Labourers - Males": 138583,
      "Marginal Workers Other worked for 0 - 3 moths during last year - Persons": 13321,
      "Currently married women married below 18years of age in percentage DLHS-4": 0.8,
      "Person Illiterates": 1011998,
      "Main Workers Household Industry - Females": 8608,
      "Female Literates": 508266,
      "Marginal Workers Cultivators worked for 0 - 3 moths during last year - Males": 5198,
      "Male": "NA",
      "Households with improved source of drinking water in percentage DLHS-4": "Not available",
      "Upper Primary Schools with electricity in percentage DISE": "NA",
      "Households with electricity in percentage DLHS-4": "Not available",
      "Villages with Primary Health Centre within 10km in percentage DLHS-4": "Not applicable",
      "Births to women aged 15-19years out of Total births in percentage DLHS-4": "Not available",
      "Prevalence of Anaemia in women aged 15-49years in percentage DLHS-4": "Not available",
      "Marginal Workers Agricultural Labourers worked for 3 - 6 moths during last year - Persons": 173318,
      "Main Workers Household Industry - Males": 14116,
      "Scheduled Tribe Females": 137,
      "Marginal Workers worked for 0 - 3 moths during last year - Males": 31508,
      "Marginal Workers Other worked for 3 - 6 moths during last year - Males": 36004,
      "Primary Net Enrolment Ratio in percentage DISE": "NA",
      "Total": "NA",
      "Mean age at marriage for boys DLHS-4": 24.5,
      "Number of District Hospitals  DLHS-4": "Not applicable",
      "0-6 Age Group Females": 166650,
      "Marginal Workers Agricultural Labourers worked for 0 - 3 moths during last year - Persons": 40728,
      "Marginal Workers Household Industry worked for 0 - 3 moths during last year - Males": 2123,
      "Total Workers  Females": 332248,
      "Marginal Workers worked for 3 - 6 moths during last year - Females": 150946,
      "Institutional Deliveries in percentage DLHS-4": 57.6,
      "Marginal Workers Other - Males": 43763,
      "Total Workers  Males": 632566,
      "Main Workers - Females": 139071,
      "Primary Gross Enrolment Ratio in percentage DISE": "NA",
      "Main Workers Cultivators - Persons": 258221,
      "Marginal Workers Household Industry worked for 0 - 3 moths during last year - Females": 3698,
      "Upper Primary Net Enrolment Ratio in percentage DISE": "NA",
      "Primary New Government Schools since 2003 in percentage DISE": "NA",
      "Tier": "Rural",
      "Marginal Workers Household Industry - Females": 14399,
      "Primary Schools with electricity in percentage DISE": "NA",
      "Main Workers Other - Persons": 115737,
      "Marginal Workers Household Industry worked for 3 - 6 moths during last year - Females": 10701,
      "Main Workers Cultivators - Males": 211728,
      "Main Workers Household Industry - Persons": 22724,
      "Marginal Workers Cultivators worked for 0 - 3 moths during last year - Persons": 13869,
      "Scheduled Caste Males": 317963,
      "Marginal Workers - Persons": 370104,
      "Deliveries at home conducted by skilled health personnel in percentage DLHS-4": 29.2,
      "Villages with Sub-Health Centres within 3km in percentage DLHS-4": "Not applicable",
      "Upper Primary New Government Schools since 2003 in percentage DISE": "NA",
      "0-6 Age Group Males": 183275,
      "Primary Schools with drinking water facility in percentage DISE": "NA",
      "Non Workers - Persons": 1345926,
      "Person Literates": 1298742,
      "State": "UTTAR PRADESH",
      "Total Female Population": 1095050,
      "Marginal Workers worked for 0 - 3 moths during last year - Persons": 73739,
      "Marginal Workers Cultivators - Females": 39471,
      "Marginal Workers Other - Persons": 69303,
      "Sex Ratio": 901,
      "Scheduled Tribe Persons": 304,
      "Marginal Workers Household Industry worked for 3 - 6 moths during last year - Males": 6703,
      "Marginal Workers Agricultural Labourers - Females": 113767,
      "Mean age at marriage for girls DLHS-4": 21.9,
      "Households with solar energy as main source of lighting  Houselisting and Housing Census Data Tables- District Level , Census of India__4": 2347,
      "District": "FATEHPUR",
      "Households receiving treated tap water within premises in percentage Houselisting and Housing Census Data Tables- District Level , Census of India__1": 1.456260576,
      "Total Workers  Persons": 964814,
      "Households receiving treated tap water within premises  Houselisting and Housing Census Data Tables- District Level , Census of India__4": 6067,
      "Primary Female Teachers in percentage DISE": "NA",
      "Number of Households": 414578,
      "Main Workers Agricultural Labourers - Persons": 198028
    }
  ],
  "Urban": [
    {
      "Marginal Workers Agricultural Labourers - Persons": 6384,
      "Marginal Workers Other - Females": 4365,
      "Marginal Workers Other worked for 0 - 3 moths during last year - Females": 977,
      "Upper Primary Schools with boys toilet in percentage DISE": "NA",
      "Total Population": 321993,
      "Households with electricity as main source of lighting in percentage Houselisting and Housing Census Data Tables- District Level , Census of India": 64.69524519,
      "Primary Girl's Enrolment in percentage DISE": "NA",
      "Marginal Workers worked for 3 - 6 moths during last year - Males": 13005,
      "Prevalence of Acute illness in percentage DLHS-4": "Not available",
      "Main Workers - Persons": 75446,
      "Main Workers Cultivators - Females": 653,
      "Marginal Workers Agricultural Labourers worked for 3 - 6 moths during last year - Females": 2206,
      "Marginal Workers Other worked for 0 - 3 moths during last year - Males": 1755,
      "Upper Primary Schools with drinking water facility in percentage DISE": "NA",
      "Primary Schools with girls toilet in percentage DISE": "NA",
      "Marginal Workers worked for 3 - 6 moths during last year - Persons": 19518,
      "Upper Primary Drop Out Rate in percentage DISE": "NA",
      "Prevalence of Anaemia in pregnant women aged 15-49years in percentage DLHS-4": "Not available",
      "Current use of any modern method of family planning in percentage DLHS-4": 45.7,
      "Marginal Workers Agricultural Labourers - Males": 3645,
      "Upper Primary Female Teachers in percentage DISE": "NA",
      "Marginal Workers - Females": 8293,
      "Marginal Workers Other worked for 3 - 6 moths during last year - Persons": 11937,
      "Main Workers Agricultural Labourers - Females": 1448,
      "Marginal Workers Cultivators worked for 3 - 6 moths during last year - Females": 345,
      "Households with no lighting  Houselisting and Housing Census Data Tables- District Level , Census of India__5": 138,
      "Prevalence of Severe Anaemia  in percentage DLHS-4": "Not available",
      "Total unmet need for family planning in percentage DLHS-4": 18.2,
      "Main Workers Other - Males": 51843,
      "Children who received full vaccination in percentage DLHS-4": "Not available",
      "Marginal Workers Household Industry - Persons": 1705,
      "Primary Pupil-Teacher Ratio in percentage DISE": "NA",
      "Marginal Workers Agricultural Labourers worked for 3 - 6 moths during last year - Males": 3220,
      "Scheduled Caste Females": 22312,
      "Marginal Workers Cultivators - Males": 528,
      "Marginal Workers - Males": 15376,
      "Marginal Workers worked for 0 - 3 moths during last year - Females": 1780,
      "Households with main source of drinking water within premises in percentage Houselisting and Housing Census Data Tables- District Level , Census of India": 64.97181151,
      "Marginal Workers Household Industry worked for 3 - 6 moths during last year - Persons": 1334,
      "Upper Primary Girl's Enrolment in percentage DISE": "NA",
      "Prevalence of Severe Anaemia in women aged 15-49years in percentage DLHS-4": "Not available",
      "Marginal Workers Agricultural Labourers worked for 0 - 3 moths during last year - Males": 425,
      "Households with electricity as main source of lighting  Houselisting and Housing Census Data Tables- District Level , Census of India__3": 36492,
      "Households with computer or laptop with internet connection in percentage": 2.15,
      "PHCs functioning on a 24x7hours basis in percentage DLHS-4": 0,
      "Non Workers - Males": 87862,
      "Total Households in District Houselisting and Housing Census Data Tables- District Level , Census of India": 56406,
      "Upper Primary Schools with girls toilet in percentage DISE": "NA",
      "Households with mobile phone in percentage": 61.65,
      "Households receiving untreated tap water within premises in percentage Houselisting and Housing Census Data Tables- District Level , Census of India__2": 6.924795235,
      "Marginal Workers Cultivators worked for 3 - 6 moths during last year - Males": 476,
      "Prevalence of Anaemia  in percentage DLHS-4": "Not available",
      "Prevalence of Chronic illness in percentage DLHS-4": "Not available",
      "Households with solar energy as main source of lighting in percentage Houselisting and Housing Census Data Tables- District Level , Census of India__1": 0.249973407,
      "Marginal Workers Agricultural Labourers worked for 0 - 3 moths during last year - Females": 533,
      "Main Workers - Males": 65794,
      "Female": "NA",
      "Sno": 1779,
      "Marginal Workers Other worked for 3 - 6 moths during last year - Females": 3388,
      "Marginal Workers Cultivators worked for 0 - 3 moths during last year - Females": 38,
      "Scheduled Tribe Males": 22,
      "Male Illiterates": 48505,
      "Prevalence of Severe Anaemia in pregnant women aged 15-49years in percentage DLHS-4": "Not available",
      "0-6 Age Group Persons": 40164,
      "Upper Primary Student-Classroom Ratio in percentage DISE": "NA",
      "Currently married men married below 21years of age in percentage DLHS-4": 5.6,
      "Male Literates": 120527,
      "Households with no lighting in percentage Houselisting and Housing Census Data Tables- District Level , Census of India__2": 0.244654824,
      "Primary Drop Out Rate in percentage DISE": "NA",
      "Marginal Workers Household Industry - Males": 899,
      "Female Illiterates": 60064,
      "Main Workers Other - Females": 6698,
      "Marginal Workers Cultivators - Persons": 911,
      "Upper Primary Gross Enrolment Ratio in percentage DISE": "NA",
      "Scheduled Caste Persons": 47241,
      "Marginal Workers Cultivators worked for 3 - 6 moths during last year - Persons": 821,
      "Households with landline phone in percentage": 5.14,
      "Total Households in District  Houselisting and Housing Census Data Tables- District Level , Census of India": 56406,
      "Upper Primary Pupil-Teacher Ratio in percentage DISE": "NA",
      "Primary Student-Classroom Ratio in percentage DISE": "NA",
      "Primary Schools with boys toilet in percentage DISE": "NA",
      "Mean number of children ever born to women aged 40-49years  DLHS-4": "Not available",
      "Households receiving untreated tap water within premises  Houselisting and Housing Census Data Tables- District Level , Census of India__5": 3906,
      "Marginal Workers Household Industry worked for 0 - 3 moths during last year - Persons": 371,
      "Total Male Population": 169032,
      "Non Workers - Females": 135016,
      "Current use of family planning methods in percentage DLHS-4": 69.8,
      "Households with main source of drinking water within premises  Houselisting and Housing Census Data Tables- District Level , Census of India__3": 36648,
      "Main Workers Agricultural Labourers - Males": 5460,
      "Marginal Workers Other worked for 0 - 3 moths during last year - Persons": 2732,
      "Currently married women married below 18years of age in percentage DLHS-4": 0,
      "Person Illiterates": 108569,
      "Main Workers Household Industry - Females": 853,
      "Female Literates": 92897,
      "Marginal Workers Cultivators worked for 0 - 3 moths during last year - Males": 52,
      "Male": "NA",
      "Households with improved source of drinking water in percentage DLHS-4": "Not available",
      "Upper Primary Schools with electricity in percentage DISE": "NA",
      "Households with electricity in percentage DLHS-4": "Not available",
      "Villages with Primary Health Centre within 10km in percentage DLHS-4": 0,
      "Births to women aged 15-19years out of Total births in percentage DLHS-4": "Not available",
      "Prevalence of Anaemia in women aged 15-49years in percentage DLHS-4": "Not available",
      "Marginal Workers Agricultural Labourers worked for 3 - 6 moths during last year - Persons": 5426,
      "Main Workers Household Industry - Males": 3048,
      "Scheduled Tribe Females": 14,
      "Marginal Workers worked for 0 - 3 moths during last year - Males": 2371,
      "Marginal Workers Other worked for 3 - 6 moths during last year - Males": 8549,
      "Primary Net Enrolment Ratio in percentage DISE": "NA",
      "Total": "NA",
      "Mean age at marriage for boys DLHS-4": 26.9,
      "Number of District Hospitals  DLHS-4": 0,
      "0-6 Age Group Females": 18877,
      "Marginal Workers Agricultural Labourers worked for 0 - 3 moths during last year - Persons": 958,
      "Marginal Workers Household Industry worked for 0 - 3 moths during last year - Males": 139,
      "Total Workers  Females": 17945,
      "Marginal Workers worked for 3 - 6 moths during last year - Females": 6513,
      "Institutional Deliveries in percentage DLHS-4": 60.6,
      "Marginal Workers Other - Males": 10304,
      "Total Workers  Males": 81170,
      "Main Workers - Females": 9652,
      "Primary Gross Enrolment Ratio in percentage DISE": "NA",
      "Main Workers Cultivators - Persons": 6096,
      "Marginal Workers Household Industry worked for 0 - 3 moths during last year - Females": 232,
      "Upper Primary Net Enrolment Ratio in percentage DISE": "NA",
      "Primary New Government Schools since 2003 in percentage DISE": "NA",
      "Tier": "Urban",
      "Marginal Workers Household Industry - Females": 806,
      "Primary Schools with electricity in percentage DISE": "NA",
      "Main Workers Other - Persons": 58541,
      "Marginal Workers Household Industry worked for 3 - 6 moths during last year - Females": 574,
      "Main Workers Cultivators - Males": 5443,
      "Main Workers Household Industry - Persons": 3901,
      "Marginal Workers Cultivators worked for 0 - 3 moths during last year - Persons": 90,
      "Scheduled Caste Males": 24929,
      "Marginal Workers - Persons": 23669,
      "Deliveries at home conducted by skilled health personnel in percentage DLHS-4": 43,
      "Villages with Sub-Health Centres within 3km in percentage DLHS-4": 0,
      "Upper Primary New Government Schools since 2003 in percentage DISE": "NA",
      "0-6 Age Group Males": 21287,
      "Primary Schools with drinking water facility in percentage DISE": "NA",
      "Non Workers - Persons": 222878,
      "Person Literates": 213424,
      "State": "UTTAR PRADESH",
      "Total Female Population": 152961,
      "Marginal Workers worked for 0 - 3 moths during last year - Persons": 4151,
      "Marginal Workers Cultivators - Females": 383,
      "Marginal Workers Other - Persons": 14669,
      "Sex Ratio": 905,
      "Scheduled Tribe Persons": 36,
      "Marginal Workers Household Industry worked for 3 - 6 moths during last year - Males": 760,
      "Marginal Workers Agricultural Labourers - Females": 2739,
      "Mean age at marriage for girls DLHS-4": 24.1,
      "Households with solar energy as main source of lighting  Houselisting and Housing Census Data Tables- District Level , Census of India__4": 141,
      "District": "FATEHPUR",
      "Households receiving treated tap water within premises in percentage Houselisting and Housing Census Data Tables- District Level , Census of India__1": 44.39421338,
      "Total Workers  Persons": 99115,
      "Households receiving treated tap water within premises  Houselisting and Housing Census Data Tables- District Level , Census of India__4": 25041,
      "Primary Female Teachers in percentage DISE": "NA",
      "Number of Households": 57660,
      "Main Workers Agricultural Labourers - Persons": 6908
    }
  ]
}