{
  "Total": [
    {
      "Marginal Workers Agricultural Labourers - Persons": 40453,
      "Marginal Workers Other - Females": 69858,
      "Marginal Workers Other worked for 0 - 3 moths during last year - Females": 7047,
      "Upper Primary Schools with boys toilet in percentage DISE": 100,
      "Total Population": 4681645,
      "Households with electricity as main source of lighting in percentage Houselisting and Housing Census Data Tables- District Level , Census of India": 83.76644739,
      "Primary Girl's Enrolment in percentage DISE": 49,
      "Marginal Workers worked for 3 - 6 moths during last year - Males": 140595,
      "Prevalence of Acute illness in percentage DLHS-4": "Not available",
      "Main Workers - Persons": 1252911,
      "Main Workers Cultivators - Females": 15308,
      "Marginal Workers Agricultural Labourers worked for 3 - 6 moths during last year - Females": 13055,
      "Marginal Workers Other worked for 0 - 3 moths during last year - Males": 13161,
      "Upper Primary Schools with drinking water facility in percentage DISE": 99.7,
      "Primary Schools with girls toilet in percentage DISE": 100,
      "Marginal Workers worked for 3 - 6 moths during last year - Persons": 233423,
      "Upper Primary Drop Out Rate in percentage DISE": 19.58,
      "Prevalence of Anaemia in pregnant women aged 15-49years in percentage DLHS-4": "Not available",
      "Current use of any modern method of family planning in percentage DLHS-4": 52.6,
      "Marginal Workers Agricultural Labourers - Males": 24449,
      "Upper Primary Female Teachers in percentage DISE": 57.2,
      "Marginal Workers - Females": 107041,
      "Marginal Workers Other worked for 3 - 6 moths during last year - Persons": 167859,
      "Main Workers Agricultural Labourers - Females": 13577,
      "Marginal Workers Cultivators worked for 3 - 6 moths during last year - Females": 7958,
      "Households with no lighting  Houselisting and Housing Census Data Tables- District Level , Census of India__5": 3567,
      "Prevalence of Severe Anaemia  in percentage DLHS-4": "Not available",
      "Total unmet need for family planning in percentage DLHS-4": 11.5,
      "Main Workers Other - Males": 828581,
      "Children who received full vaccination in percentage DLHS-4": "Not available",
      "Marginal Workers Household Industry - Persons": 20068,
      "Primary Pupil-Teacher Ratio in percentage DISE": 46,
      "Marginal Workers Agricultural Labourers worked for 3 - 6 moths during last year - Males": 20713,
      "Scheduled Caste Females": 360713,
      "Marginal Workers Cultivators - Males": 9303,
      "Marginal Workers - Males": 160586,
      "Marginal Workers worked for 0 - 3 moths during last year - Females": 14213,
      "Households with main source of drinking water within premises in percentage Houselisting and Housing Census Data Tables- District Level , Census of India": 81.89573208,
      "Marginal Workers Household Industry worked for 3 - 6 moths during last year - Persons": 16029,
      "Upper Primary Girl's Enrolment in percentage DISE": 50.9,
      "Prevalence of Severe Anaemia in women aged 15-49years in percentage DLHS-4": "Not available",
      "Marginal Workers Agricultural Labourers worked for 0 - 3 moths during last year - Males": 3736,
      "Households with electricity as main source of lighting  Houselisting and Housing Census Data Tables- District Level , Census of India__3": 695130,
      "Households with computer or laptop with internet connection in percentage": 9.41,
      "PHCs functioning on a 24x7hours basis in percentage DLHS-4": "Not available",
      "Non Workers - Males": 1257219,
      "Total Households in District Houselisting and Housing Census Data Tables- District Level , Census of India": 829843,
      "Upper Primary Schools with girls toilet in percentage DISE": 100,
      "Households with mobile phone in percentage": 69.54,
      "Households receiving untreated tap water within premises in percentage Houselisting and Housing Census Data Tables- District Level , Census of India__2": 4.022086105,
      "Marginal Workers Cultivators worked for 3 - 6 moths during last year - Males": 7809,
      "Prevalence of Anaemia  in percentage DLHS-4": "Not available",
      "Prevalence of Chronic illness in percentage DLHS-4": "Not available",
      "Households with solar energy as main source of lighting in percentage Houselisting and Housing Census Data Tables- District Level , Census of India__1": 0.267520483,
      "Marginal Workers Agricultural Labourers worked for 0 - 3 moths during last year - Females": 2949,
      "Main Workers - Males": 1071029,
      "Female": 69.79,
      "Sno": 1787,
      "Marginal Workers Other worked for 3 - 6 moths during last year - Females": 62811,
      "Marginal Workers Cultivators worked for 0 - 3 moths during last year - Females": 1778,
      "Scheduled Tribe Males": 2104,
      "Male Illiterates": 677437,
      "Prevalence of Severe Anaemia in pregnant women aged 15-49years in percentage DLHS-4": "Not available",
      "0-6 Age Group Persons": 681231,
      "Upper Primary Student-Classroom Ratio in percentage DISE": 23,
      "Currently married men married below 21years of age in percentage DLHS-4": 7.3,
      "Male Literates": 1811397,
      "Households with no lighting in percentage Houselisting and Housing Census Data Tables- District Level , Census of India__2": 0.429840343,
      "Primary Drop Out Rate in percentage DISE": 3.6,
      "Marginal Workers Household Industry - Males": 8625,
      "Female Illiterates": 880944,
      "Main Workers Other - Females": 137670,
      "Marginal Workers Cultivators - Persons": 19039,
      "Upper Primary Gross Enrolment Ratio in percentage DISE": 38.8,
      "Scheduled Caste Persons": 773463,
      "Marginal Workers Cultivators worked for 3 - 6 moths during last year - Persons": 15767,
      "Households with landline phone in percentage": 7.59,
      "Total Households in District  Houselisting and Housing Census Data Tables- District Level , Census of India": 829843,
      "Upper Primary Pupil-Teacher Ratio in percentage DISE": 30,
      "Primary Student-Classroom Ratio in percentage DISE": 39,
      "Primary Schools with boys toilet in percentage DISE": 99.8,
      "Mean number of children ever born to women aged 40-49years  DLHS-4": "Not available",
      "Households receiving untreated tap water within premises  Houselisting and Housing Census Data Tables- District Level , Census of India__5": 33377,
      "Marginal Workers Household Industry worked for 0 - 3 moths during last year - Persons": 4039,
      "Total Male Population": 2488834,
      "Non Workers - Females": 1903888,
      "Current use of family planning methods in percentage DLHS-4": 71.5,
      "Households with main source of drinking water within premises  Houselisting and Housing Census Data Tables- District Level , Census of India__3": 679606,
      "Main Workers Agricultural Labourers - Males": 69650,
      "Marginal Workers Other worked for 0 - 3 moths during last year - Persons": 20208,
      "Currently married women married below 18years of age in percentage DLHS-4": 1.2,
      "Person Illiterates": 1558381,
      "Main Workers Household Industry - Females": 15327,
      "Female Literates": 1311867,
      "Marginal Workers Cultivators worked for 0 - 3 moths during last year - Males": 1494,
      "Male": 85.42,
      "Households with improved source of drinking water in percentage DLHS-4": "Not available",
      "Upper Primary Schools with electricity in percentage DISE": 59.1,
      "Households with electricity in percentage DLHS-4": "Not available",
      "Villages with Primary Health Centre within 10km in percentage DLHS-4": "Not available",
      "Births to women aged 15-19years out of Total births in percentage DLHS-4": "Not available",
      "Prevalence of Anaemia in women aged 15-49years in percentage DLHS-4": "Not available",
      "Marginal Workers Agricultural Labourers worked for 3 - 6 moths during last year - Persons": 33768,
      "Main Workers Household Industry - Males": 48277,
      "Scheduled Tribe Females": 1864,
      "Marginal Workers worked for 0 - 3 moths during last year - Males": 19991,
      "Marginal Workers Other worked for 3 - 6 moths during last year - Males": 105048,
      "Primary Net Enrolment Ratio in percentage DISE": 56,
      "Total": 78.07,
      "Mean age at marriage for boys DLHS-4": 24.7,
      "Number of District Hospitals  DLHS-4": "Not available",
      "0-6 Age Group Females": 313069,
      "Marginal Workers Agricultural Labourers worked for 0 - 3 moths during last year - Persons": 6685,
      "Marginal Workers Household Industry worked for 0 - 3 moths during last year - Males": 1600,
      "Total Workers  Females": 288923,
      "Marginal Workers worked for 3 - 6 moths during last year - Females": 92828,
      "Institutional Deliveries in percentage DLHS-4": 62.6,
      "Marginal Workers Other - Males": 118209,
      "Total Workers  Males": 1231615,
      "Main Workers - Females": 181882,
      "Primary Gross Enrolment Ratio in percentage DISE": 63.5,
      "Main Workers Cultivators - Persons": 139829,
      "Marginal Workers Household Industry worked for 0 - 3 moths during last year - Females": 2439,
      "Upper Primary Net Enrolment Ratio in percentage DISE": 28.8,
      "Primary New Government Schools since 2003 in percentage DISE": 12.5,
      "Tier": "Total",
      "Marginal Workers Household Industry - Females": 11443,
      "Primary Schools with electricity in percentage DISE": 68.3,
      "Main Workers Other - Persons": 966251,
      "Marginal Workers Household Industry worked for 3 - 6 moths during last year - Females": 9004,
      "Main Workers Cultivators - Males": 124521,
      "Main Workers Household Industry - Persons": 63604,
      "Marginal Workers Cultivators worked for 0 - 3 moths during last year - Persons": 3272,
      "Scheduled Caste Males": 412750,
      "Marginal Workers - Persons": 267627,
      "Deliveries at home conducted by skilled health personnel in percentage DLHS-4": 45.9,
      "Villages with Sub-Health Centres within 3km in percentage DLHS-4": "Not available",
      "Upper Primary New Government Schools since 2003 in percentage DISE": 44.5,
      "0-6 Age Group Males": 368162,
      "Primary Schools with drinking water facility in percentage DISE": 99.8,
      "Non Workers - Persons": 3161107,
      "Person Literates": 3123264,
      "State": "UTTAR PRADESH",
      "Total Female Population": 2192811,
      "Marginal Workers worked for 0 - 3 moths during last year - Persons": 34204,
      "Marginal Workers Cultivators - Females": 9736,
      "Marginal Workers Other - Persons": 188067,
      "Sex Ratio": 881,
      "Scheduled Tribe Persons": 3968,
      "Marginal Workers Household Industry worked for 3 - 6 moths during last year - Males": 7025,
      "Marginal Workers Agricultural Labourers - Females": 16004,
      "Mean age at marriage for girls DLHS-4": 22.4,
      "Households with solar energy as main source of lighting  Houselisting and Housing Census Data Tables- District Level , Census of India__4": 2220,
      "District": "GHAZIABAD",
      "Households receiving treated tap water within premises in percentage Houselisting and Housing Census Data Tables- District Level , Census of India__1": 33.55008116,
      "Total Workers  Persons": 1520538,
      "Households receiving treated tap water within premises  Houselisting and Housing Census Data Tables- District Level , Census of India__4": 278413,
      "Primary Female Teachers in percentage DISE": 74,
      "Number of Households": 850676,
      "Main Workers Agricultural Labourers - Persons": 83227
    }
  ],
  "Rural": [
    {
      "Marginal Workers Agricultural Labourers - Persons": 31195,
      "Marginal Workers Other - Females": 20658,
      "Marginal Workers Other worked for 0 - 3 moths during last year - Females": 3397,
      "Upper Primary Schools with boys toilet in percentage DISE": "NA",
      "Total Population": 1519098,
      "Households with electricity as main source of lighting in percentage Houselisting and Housing Census Data Tables- District Level , Census of India": 64.46584022,
      "Primary Girl's Enrolment in percentage DISE": "NA",
      "Marginal Workers worked for 3 - 6 moths during last year - Males": 52588,
      "Prevalence of Acute illness in percentage DLHS-4": "Not available",
      "Main Workers - Persons": 385408,
      "Main Workers Cultivators - Females": 12665,
      "Marginal Workers Agricultural Labourers worked for 3 - 6 moths during last year - Females": 10911,
      "Marginal Workers Other worked for 0 - 3 moths during last year - Males": 5263,
      "Upper Primary Schools with drinking water facility in percentage DISE": "NA",
      "Primary Schools with girls toilet in percentage DISE": "NA",
      "Marginal Workers worked for 3 - 6 moths during last year - Persons": 91759,
      "Upper Primary Drop Out Rate in percentage DISE": "NA",
      "Prevalence of Anaemia in pregnant women aged 15-49years in percentage DLHS-4": "Not available",
      "Current use of any modern method of family planning in percentage DLHS-4": 49,
      "Marginal Workers Agricultural Labourers - Males": 17830,
      "Upper Primary Female Teachers in percentage DISE": "NA",
      "Marginal Workers - Females": 48064,
      "Marginal Workers Other worked for 3 - 6 moths during last year - Persons": 46960,
      "Main Workers Agricultural Labourers - Females": 10231,
      "Marginal Workers Cultivators worked for 3 - 6 moths during last year - Females": 5791,
      "Households with no lighting  Houselisting and Housing Census Data Tables- District Level , Census of India__5": 610,
      "Prevalence of Severe Anaemia  in percentage DLHS-4": "Not available",
      "Total unmet need for family planning in percentage DLHS-4": 14.4,
      "Main Workers Other - Males": 153728,
      "Children who received full vaccination in percentage DLHS-4": "Not available",
      "Marginal Workers Household Industry - Persons": 9982,
      "Primary Pupil-Teacher Ratio in percentage DISE": "NA",
      "Marginal Workers Agricultural Labourers worked for 3 - 6 moths during last year - Males": 15114,
      "Scheduled Caste Females": 134022,
      "Marginal Workers Cultivators - Males": 6443,
      "Marginal Workers - Males": 62605,
      "Marginal Workers worked for 0 - 3 moths during last year - Females": 8893,
      "Households with main source of drinking water within premises in percentage Houselisting and Housing Census Data Tables- District Level , Census of India": 79.4893028,
      "Marginal Workers Household Industry worked for 3 - 6 moths during last year - Persons": 7887,
      "Upper Primary Girl's Enrolment in percentage DISE": "NA",
      "Prevalence of Severe Anaemia in women aged 15-49years in percentage DLHS-4": "Not available",
      "Marginal Workers Agricultural Labourers worked for 0 - 3 moths during last year - Males": 2716,
      "Households with electricity as main source of lighting  Houselisting and Housing Census Data Tables- District Level , Census of India__3": 156476,
      "Households with computer or laptop with internet connection in percentage": 1.32,
      "PHCs functioning on a 24x7hours basis in percentage DLHS-4": "Not applicable",
      "Non Workers - Males": 419467,
      "Total Households in District Houselisting and Housing Census Data Tables- District Level , Census of India": 242727,
      "Upper Primary Schools with girls toilet in percentage DISE": "NA",
      "Households with mobile phone in percentage": 68.14,
      "Households receiving untreated tap water within premises in percentage Houselisting and Housing Census Data Tables- District Level , Census of India__2": 3.040040869,
      "Marginal Workers Cultivators worked for 3 - 6 moths during last year - Males": 5096,
      "Prevalence of Anaemia  in percentage DLHS-4": "Not available",
      "Prevalence of Chronic illness in percentage DLHS-4": "Not available",
      "Households with solar energy as main source of lighting in percentage Houselisting and Housing Census Data Tables- District Level , Census of India__1": 0.215056421,
      "Marginal Workers Agricultural Labourers worked for 0 - 3 moths during last year - Females": 2454,
      "Main Workers - Males": 326150,
      "Female": "NA",
      "Sno": 1786,
      "Marginal Workers Other worked for 3 - 6 moths during last year - Females": 17261,
      "Marginal Workers Cultivators worked for 0 - 3 moths during last year - Females": 1638,
      "Scheduled Tribe Males": 308,
      "Male Illiterates": 249867,
      "Prevalence of Severe Anaemia in pregnant women aged 15-49years in percentage DLHS-4": "Not available",
      "0-6 Age Group Persons": 248759,
      "Upper Primary Student-Classroom Ratio in percentage DISE": "NA",
      "Currently married men married below 21years of age in percentage DLHS-4": 11.5,
      "Male Literates": 558355,
      "Households with no lighting in percentage Houselisting and Housing Census Data Tables- District Level , Census of India__2": 0.251311144,
      "Primary Drop Out Rate in percentage DISE": "NA",
      "Marginal Workers Household Industry - Males": 3370,
      "Female Illiterates": 346921,
      "Main Workers Other - Females": 29324,
      "Marginal Workers Cultivators - Persons": 13872,
      "Upper Primary Gross Enrolment Ratio in percentage DISE": "NA",
      "Scheduled Caste Persons": 287708,
      "Marginal Workers Cultivators worked for 3 - 6 moths during last year - Persons": 10887,
      "Households with landline phone in percentage": 5.05,
      "Total Households in District  Houselisting and Housing Census Data Tables- District Level , Census of India": 242727,
      "Upper Primary Pupil-Teacher Ratio in percentage DISE": "NA",
      "Primary Student-Classroom Ratio in percentage DISE": "NA",
      "Primary Schools with boys toilet in percentage DISE": "NA",
      "Mean number of children ever born to women aged 40-49years  DLHS-4": "Not available",
      "Households receiving untreated tap water within premises  Houselisting and Housing Census Data Tables- District Level , Census of India__5": 7379,
      "Marginal Workers Household Industry worked for 0 - 3 moths during last year - Persons": 2095,
      "Total Male Population": 808222,
      "Non Workers - Females": 603554,
      "Current use of family planning methods in percentage DLHS-4": 68.4,
      "Households with main source of drinking water within premises  Houselisting and Housing Census Data Tables- District Level , Census of India__3": 192942,
      "Main Workers Agricultural Labourers - Males": 49346,
      "Marginal Workers Other worked for 0 - 3 moths during last year - Persons": 8660,
      "Currently married women married below 18years of age in percentage DLHS-4": 2.1,
      "Person Illiterates": 596788,
      "Main Workers Household Industry - Females": 7038,
      "Female Literates": 363955,
      "Marginal Workers Cultivators worked for 0 - 3 moths during last year - Males": 1347,
      "Male": "NA",
      "Households with improved source of drinking water in percentage DLHS-4": "Not available",
      "Upper Primary Schools with electricity in percentage DISE": "NA",
      "Households with electricity in percentage DLHS-4": "Not available",
      "Villages with Primary Health Centre within 10km in percentage DLHS-4": "Not applicable",
      "Births to women aged 15-19years out of Total births in percentage DLHS-4": "Not available",
      "Prevalence of Anaemia in women aged 15-49years in percentage DLHS-4": "Not available",
      "Marginal Workers Agricultural Labourers worked for 3 - 6 moths during last year - Persons": 26025,
      "Main Workers Household Industry - Males": 12634,
      "Scheduled Tribe Females": 264,
      "Marginal Workers worked for 0 - 3 moths during last year - Males": 10017,
      "Marginal Workers Other worked for 3 - 6 moths during last year - Males": 29699,
      "Primary Net Enrolment Ratio in percentage DISE": "NA",
      "Total": "NA",
      "Mean age at marriage for boys DLHS-4": 23.7,
      "Number of District Hospitals  DLHS-4": "Not applicable",
      "0-6 Age Group Females": 114607,
      "Marginal Workers Agricultural Labourers worked for 0 - 3 moths during last year - Persons": 5170,
      "Marginal Workers Household Industry worked for 0 - 3 moths during last year - Males": 691,
      "Total Workers  Females": 107322,
      "Marginal Workers worked for 3 - 6 moths during last year - Females": 39171,
      "Institutional Deliveries in percentage DLHS-4": 59.8,
      "Marginal Workers Other - Males": 34962,
      "Total Workers  Males": 388755,
      "Main Workers - Females": 59258,
      "Primary Gross Enrolment Ratio in percentage DISE": "NA",
      "Main Workers Cultivators - Persons": 123107,
      "Marginal Workers Household Industry worked for 0 - 3 moths during last year - Females": 1404,
      "Upper Primary Net Enrolment Ratio in percentage DISE": "NA",
      "Primary New Government Schools since 2003 in percentage DISE": "NA",
      "Tier": "Rural",
      "Marginal Workers Household Industry - Females": 6612,
      "Primary Schools with electricity in percentage DISE": "NA",
      "Main Workers Other - Persons": 183052,
      "Marginal Workers Household Industry worked for 3 - 6 moths during last year - Females": 5208,
      "Main Workers Cultivators - Males": 110442,
      "Main Workers Household Industry - Persons": 19672,
      "Marginal Workers Cultivators worked for 0 - 3 moths during last year - Persons": 2985,
      "Scheduled Caste Males": 153686,
      "Marginal Workers - Persons": 110669,
      "Deliveries at home conducted by skilled health personnel in percentage DLHS-4": 38.7,
      "Villages with Sub-Health Centres within 3km in percentage DLHS-4": "Not applicable",
      "Upper Primary New Government Schools since 2003 in percentage DISE": "NA",
      "0-6 Age Group Males": 134152,
      "Primary Schools with drinking water facility in percentage DISE": "NA",
      "Non Workers - Persons": 1023021,
      "Person Literates": 922310,
      "State": "UTTAR PRADESH",
      "Total Female Population": 710876,
      "Marginal Workers worked for 0 - 3 moths during last year - Persons": 18910,
      "Marginal Workers Cultivators - Females": 7429,
      "Marginal Workers Other - Persons": 55620,
      "Sex Ratio": 880,
      "Scheduled Tribe Persons": 572,
      "Marginal Workers Household Industry worked for 3 - 6 moths during last year - Males": 2679,
      "Marginal Workers Agricultural Labourers - Females": 13365,
      "Mean age at marriage for girls DLHS-4": 21.5,
      "Households with solar energy as main source of lighting  Houselisting and Housing Census Data Tables- District Level , Census of India__4": 522,
      "District": "GHAZIABAD",
      "Households receiving treated tap water within premises in percentage Houselisting and Housing Census Data Tables- District Level , Census of India__1": 12.87866616,
      "Total Workers  Persons": 496077,
      "Households receiving treated tap water within premises  Houselisting and Housing Census Data Tables- District Level , Census of India__4": 31260,
      "Primary Female Teachers in percentage DISE": "NA",
      "Number of Households": 248050,
      "Main Workers Agricultural Labourers - Persons": 59577
    }
  ],
  "Urban": [
    {
      "Marginal Workers Agricultural Labourers - Persons": 9258,
      "Marginal Workers Other - Females": 49200,
      "Marginal Workers Other worked for 0 - 3 moths during last year - Females": 3650,
      "Upper Primary Schools with boys toilet in percentage DISE": "NA",
      "Total Population": 3162547,
      "Households with electricity as main source of lighting in percentage Houselisting and Housing Census Data Tables- District Level , Census of India": 91.74575382,
      "Primary Girl's Enrolment in percentage DISE": "NA",
      "Marginal Workers worked for 3 - 6 moths during last year - Males": 88007,
      "Prevalence of Acute illness in percentage DLHS-4": "Not available",
      "Main Workers - Persons": 867503,
      "Main Workers Cultivators - Females": 2643,
      "Marginal Workers Agricultural Labourers worked for 3 - 6 moths during last year - Females": 2144,
      "Marginal Workers Other worked for 0 - 3 moths during last year - Males": 7898,
      "Upper Primary Schools with drinking water facility in percentage DISE": "NA",
      "Primary Schools with girls toilet in percentage DISE": "NA",
      "Marginal Workers worked for 3 - 6 moths during last year - Persons": 141664,
      "Upper Primary Drop Out Rate in percentage DISE": "NA",
      "Prevalence of Anaemia in pregnant women aged 15-49years in percentage DLHS-4": "Not available",
      "Current use of any modern method of family planning in percentage DLHS-4": 54.8,
      "Marginal Workers Agricultural Labourers - Males": 6619,
      "Upper Primary Female Teachers in percentage DISE": "NA",
      "Marginal Workers - Females": 58977,
      "Marginal Workers Other worked for 3 - 6 moths during last year - Persons": 120899,
      "Main Workers Agricultural Labourers - Females": 3346,
      "Marginal Workers Cultivators worked for 3 - 6 moths during last year - Females": 2167,
      "Households with no lighting  Houselisting and Housing Census Data Tables- District Level , Census of India__5": 2957,
      "Prevalence of Severe Anaemia  in percentage DLHS-4": "Not available",
      "Total unmet need for family planning in percentage DLHS-4": 9.7,
      "Main Workers Other - Males": 674853,
      "Children who received full vaccination in percentage DLHS-4": "Not available",
      "Marginal Workers Household Industry - Persons": 10086,
      "Primary Pupil-Teacher Ratio in percentage DISE": "NA",
      "Marginal Workers Agricultural Labourers worked for 3 - 6 moths during last year - Males": 5599,
      "Scheduled Caste Females": 226691,
      "Marginal Workers Cultivators - Males": 2860,
      "Marginal Workers - Males": 97981,
      "Marginal Workers worked for 0 - 3 moths during last year - Females": 5320,
      "Households with main source of drinking water within premises in percentage Houselisting and Housing Census Data Tables- District Level , Census of India": 82.89060424,
      "Marginal Workers Household Industry worked for 3 - 6 moths during last year - Persons": 8142,
      "Upper Primary Girl's Enrolment in percentage DISE": "NA",
      "Prevalence of Severe Anaemia in women aged 15-49years in percentage DLHS-4": "Not available",
      "Marginal Workers Agricultural Labourers worked for 0 - 3 moths during last year - Males": 1020,
      "Households with electricity as main source of lighting  Houselisting and Housing Census Data Tables- District Level , Census of India__3": 538654,
      "Households with computer or laptop with internet connection in percentage": 12.76,
      "PHCs functioning on a 24x7hours basis in percentage DLHS-4": 0,
      "Non Workers - Males": 837752,
      "Total Households in District Houselisting and Housing Census Data Tables- District Level , Census of India": 587116,
      "Upper Primary Schools with girls toilet in percentage DISE": "NA",
      "Households with mobile phone in percentage": 70.12,
      "Households receiving untreated tap water within premises in percentage Houselisting and Housing Census Data Tables- District Level , Census of India__2": 4.428085762,
      "Marginal Workers Cultivators worked for 3 - 6 moths during last year - Males": 2713,
      "Prevalence of Anaemia  in percentage DLHS-4": "Not available",
      "Prevalence of Chronic illness in percentage DLHS-4": "Not available",
      "Households with solar energy as main source of lighting in percentage Houselisting and Housing Census Data Tables- District Level , Census of India__1": 0.289210309,
      "Marginal Workers Agricultural Labourers worked for 0 - 3 moths during last year - Females": 495,
      "Main Workers - Males": 744879,
      "Female": "NA",
      "Sno": 1788,
      "Marginal Workers Other worked for 3 - 6 moths during last year - Females": 45550,
      "Marginal Workers Cultivators worked for 0 - 3 moths during last year - Females": 140,
      "Scheduled Tribe Males": 1796,
      "Male Illiterates": 427570,
      "Prevalence of Severe Anaemia in pregnant women aged 15-49years in percentage DLHS-4": "Not available",
      "0-6 Age Group Persons": 432472,
      "Upper Primary Student-Classroom Ratio in percentage DISE": "NA",
      "Currently married men married below 21years of age in percentage DLHS-4": 4.5,
      "Male Literates": 1253042,
      "Households with no lighting in percentage Houselisting and Housing Census Data Tables- District Level , Census of India__2": 0.503648342,
      "Primary Drop Out Rate in percentage DISE": "NA",
      "Marginal Workers Household Industry - Males": 5255,
      "Female Illiterates": 534023,
      "Main Workers Other - Females": 108346,
      "Marginal Workers Cultivators - Persons": 5167,
      "Upper Primary Gross Enrolment Ratio in percentage DISE": "NA",
      "Scheduled Caste Persons": 485755,
      "Marginal Workers Cultivators worked for 3 - 6 moths during last year - Persons": 4880,
      "Households with landline phone in percentage": 8.63,
      "Total Households in District  Houselisting and Housing Census Data Tables- District Level , Census of India": 587116,
      "Upper Primary Pupil-Teacher Ratio in percentage DISE": "NA",
      "Primary Student-Classroom Ratio in percentage DISE": "NA",
      "Primary Schools with boys toilet in percentage DISE": "NA",
      "Mean number of children ever born to women aged 40-49years  DLHS-4": "Not available",
      "Households receiving untreated tap water within premises  Houselisting and Housing Census Data Tables- District Level , Census of India__5": 25998,
      "Marginal Workers Household Industry worked for 0 - 3 moths during last year - Persons": 1944,
      "Total Male Population": 1680612,
      "Non Workers - Females": 1300334,
      "Current use of family planning methods in percentage DLHS-4": 73.4,
      "Households with main source of drinking water within premises  Houselisting and Housing Census Data Tables- District Level , Census of India__3": 486664,
      "Main Workers Agricultural Labourers - Males": 20304,
      "Marginal Workers Other worked for 0 - 3 moths during last year - Persons": 11548,
      "Currently married women married below 18years of age in percentage DLHS-4": 0.5,
      "Person Illiterates": 961593,
      "Main Workers Household Industry - Females": 8289,
      "Female Literates": 947912,
      "Marginal Workers Cultivators worked for 0 - 3 moths during last year - Males": 147,
      "Male": "NA",
      "Households with improved source of drinking water in percentage DLHS-4": "Not available",
      "Upper Primary Schools with electricity in percentage DISE": "NA",
      "Households with electricity in percentage DLHS-4": "Not available",
      "Villages with Primary Health Centre within 10km in percentage DLHS-4": 0,
      "Births to women aged 15-19years out of Total births in percentage DLHS-4": "Not available",
      "Prevalence of Anaemia in women aged 15-49years in percentage DLHS-4": "Not available",
      "Marginal Workers Agricultural Labourers worked for 3 - 6 moths during last year - Persons": 7743,
      "Main Workers Household Industry - Males": 35643,
      "Scheduled Tribe Females": 1600,
      "Marginal Workers worked for 0 - 3 moths during last year - Males": 9974,
      "Marginal Workers Other worked for 3 - 6 moths during last year - Males": 75349,
      "Primary Net Enrolment Ratio in percentage DISE": "NA",
      "Total": "NA",
      "Mean age at marriage for boys DLHS-4": 25.4,
      "Number of District Hospitals  DLHS-4": 0,
      "0-6 Age Group Females": 198462,
      "Marginal Workers Agricultural Labourers worked for 0 - 3 moths during last year - Persons": 1515,
      "Marginal Workers Household Industry worked for 0 - 3 moths during last year - Males": 909,
      "Total Workers  Females": 181601,
      "Marginal Workers worked for 3 - 6 moths during last year - Females": 53657,
      "Institutional Deliveries in percentage DLHS-4": 64.7,
      "Marginal Workers Other - Males": 83247,
      "Total Workers  Males": 842860,
      "Main Workers - Females": 122624,
      "Primary Gross Enrolment Ratio in percentage DISE": "NA",
      "Main Workers Cultivators - Persons": 16722,
      "Marginal Workers Household Industry worked for 0 - 3 moths during last year - Females": 1035,
      "Upper Primary Net Enrolment Ratio in percentage DISE": "NA",
      "Primary New Government Schools since 2003 in percentage DISE": "NA",
      "Tier": "Urban",
      "Marginal Workers Household Industry - Females": 4831,
      "Primary Schools with electricity in percentage DISE": "NA",
      "Main Workers Other - Persons": 783199,
      "Marginal Workers Household Industry worked for 3 - 6 moths during last year - Females": 3796,
      "Main Workers Cultivators - Males": 14079,
      "Main Workers Household Industry - Persons": 43932,
      "Marginal Workers Cultivators worked for 0 - 3 moths during last year - Persons": 287,
      "Scheduled Caste Males": 259064,
      "Marginal Workers - Persons": 156958,
      "Deliveries at home conducted by skilled health personnel in percentage DLHS-4": 51.9,
      "Villages with Sub-Health Centres within 3km in percentage DLHS-4": 0,
      "Upper Primary New Government Schools since 2003 in percentage DISE": "NA",
      "0-6 Age Group Males": 234010,
      "Primary Schools with drinking water facility in percentage DISE": "NA",
      "Non Workers - Persons": 2138086,
      "Person Literates": 2200954,
      "State": "UTTAR PRADESH",
      "Total Female Population": 1481935,
      "Marginal Workers worked for 0 - 3 moths during last year - Persons": 15294,
      "Marginal Workers Cultivators - Females": 2307,
      "Marginal Workers Other - Persons": 132447,
      "Sex Ratio": 882,
      "Scheduled Tribe Persons": 3396,
      "Marginal Workers Household Industry worked for 3 - 6 moths during last year - Males": 4346,
      "Marginal Workers Agricultural Labourers - Females": 2639,
      "Mean age at marriage for girls DLHS-4": 23,
      "Households with solar energy as main source of lighting  Houselisting and Housing Census Data Tables- District Level , Census of India__4": 1698,
      "District": "GHAZIABAD",
      "Households receiving treated tap water within premises in percentage Houselisting and Housing Census Data Tables- District Level , Census of India__1": 42.09611048,
      "Total Workers  Persons": 1024461,
      "Households receiving treated tap water within premises  Houselisting and Housing Census Data Tables- District Level , Census of India__4": 247153,
      "Primary Female Teachers in percentage DISE": "NA",
      "Number of Households": 602626,
      "Main Workers Agricultural Labourers - Persons": 23650
    }
  ]
}