{
  "Total": [
    {
      "Marginal Workers Agricultural Labourers - Persons": 177892,
      "Marginal Workers Other - Females": 27617,
      "Marginal Workers Other worked for 0 - 3 moths during last year - Females": 4790,
      "Upper Primary Schools with boys toilet in percentage DISE": 100,
      "Total Population": 4092845,
      "Households with electricity as main source of lighting in percentage Houselisting and Housing Census Data Tables- District Level , Census of India": 13.47610696,
      "Primary Girl's Enrolment in percentage DISE": 47.2,
      "Marginal Workers worked for 3 - 6 moths during last year - Males": 187989,
      "Prevalence of Acute illness in percentage DLHS-4": "Not available",
      "Main Workers - Persons": 969871,
      "Main Workers Cultivators - Females": 34978,
      "Marginal Workers Agricultural Labourers worked for 3 - 6 moths during last year - Females": 39328,
      "Marginal Workers Other worked for 0 - 3 moths during last year - Males": 6315,
      "Upper Primary Schools with drinking water facility in percentage DISE": 96.7,
      "Primary Schools with girls toilet in percentage DISE": 100,
      "Marginal Workers worked for 3 - 6 moths during last year - Persons": 281503,
      "Upper Primary Drop Out Rate in percentage DISE": 11.77,
      "Prevalence of Anaemia in pregnant women aged 15-49years in percentage DLHS-4": "Not available",
      "Current use of any modern method of family planning in percentage DLHS-4": 31.7,
      "Marginal Workers Agricultural Labourers - Males": 126388,
      "Upper Primary Female Teachers in percentage DISE": 32.6,
      "Marginal Workers - Females": 123264,
      "Marginal Workers Other worked for 3 - 6 moths during last year - Persons": 61408,
      "Main Workers Agricultural Labourers - Females": 24485,
      "Marginal Workers Cultivators worked for 3 - 6 moths during last year - Females": 22309,
      "Households with no lighting  Houselisting and Housing Census Data Tables- District Level , Census of India__5": 863,
      "Prevalence of Severe Anaemia  in percentage DLHS-4": "Not available",
      "Total unmet need for family planning in percentage DLHS-4": 30.9,
      "Main Workers Other - Males": 149491,
      "Children who received full vaccination in percentage DLHS-4": "Not available",
      "Marginal Workers Household Industry - Persons": 23369,
      "Primary Pupil-Teacher Ratio in percentage DISE": 47,
      "Marginal Workers Agricultural Labourers worked for 3 - 6 moths during last year - Males": 105815,
      "Scheduled Caste Females": 589282,
      "Marginal Workers Cultivators - Males": 43920,
      "Marginal Workers - Males": 225811,
      "Marginal Workers worked for 0 - 3 moths during last year - Females": 29750,
      "Households with main source of drinking water within premises in percentage Houselisting and Housing Census Data Tables- District Level , Census of India": 50.94148473,
      "Marginal Workers Household Industry worked for 3 - 6 moths during last year - Persons": 17111,
      "Upper Primary Girl's Enrolment in percentage DISE": 50.4,
      "Prevalence of Severe Anaemia in women aged 15-49years in percentage DLHS-4": "Not available",
      "Marginal Workers Agricultural Labourers worked for 0 - 3 moths during last year - Males": 20573,
      "Households with electricity as main source of lighting  Houselisting and Housing Census Data Tables- District Level , Census of India__3": 95508,
      "Households with computer or laptop with internet connection in percentage": 0.54,
      "PHCs functioning on a 24x7hours basis in percentage DLHS-4": "Not available",
      "Non Workers - Males": 1099490,
      "Total Households in District Houselisting and Housing Census Data Tables- District Level , Census of India": 708721,
      "Upper Primary Schools with girls toilet in percentage DISE": 100,
      "Households with mobile phone in percentage": 51.11,
      "Households receiving untreated tap water within premises in percentage Houselisting and Housing Census Data Tables- District Level , Census of India__2": 3.59224575,
      "Marginal Workers Cultivators worked for 3 - 6 moths during last year - Males": 35532,
      "Prevalence of Anaemia  in percentage DLHS-4": "Not available",
      "Prevalence of Chronic illness in percentage DLHS-4": "Not available",
      "Households with solar energy as main source of lighting in percentage Houselisting and Housing Census Data Tables- District Level , Census of India__1": 1.150805465,
      "Marginal Workers Agricultural Labourers worked for 0 - 3 moths during last year - Females": 12176,
      "Main Workers - Males": 866141,
      "Female": 53.19,
      "Sno": 1805,
      "Marginal Workers Other worked for 3 - 6 moths during last year - Females": 22827,
      "Marginal Workers Cultivators worked for 0 - 3 moths during last year - Females": 9072,
      "Scheduled Tribe Males": 186,
      "Male Illiterates": 816855,
      "Prevalence of Severe Anaemia in pregnant women aged 15-49years in percentage DLHS-4": "Not available",
      "0-6 Age Group Persons": 652496,
      "Upper Primary Student-Classroom Ratio in percentage DISE": 35,
      "Currently married men married below 21years of age in percentage DLHS-4": 23.6,
      "Male Literates": 1374587,
      "Households with no lighting in percentage Houselisting and Housing Census Data Tables- District Level , Census of India__2": 0.121768651,
      "Primary Drop Out Rate in percentage DISE": 5.1,
      "Marginal Workers Household Industry - Males": 10607,
      "Female Illiterates": 1054389,
      "Main Workers Other - Females": 33650,
      "Marginal Workers Cultivators - Persons": 75301,
      "Upper Primary Gross Enrolment Ratio in percentage DISE": 80.6,
      "Scheduled Caste Persons": 1274505,
      "Marginal Workers Cultivators worked for 3 - 6 moths during last year - Persons": 57841,
      "Households with landline phone in percentage": 2.17,
      "Total Households in District  Houselisting and Housing Census Data Tables- District Level , Census of India": 708721,
      "Upper Primary Pupil-Teacher Ratio in percentage DISE": 46,
      "Primary Student-Classroom Ratio in percentage DISE": 40,
      "Primary Schools with boys toilet in percentage DISE": 100.1,
      "Mean number of children ever born to women aged 40-49years  DLHS-4": "Not available",
      "Households receiving untreated tap water within premises  Houselisting and Housing Census Data Tables- District Level , Census of India__5": 25459,
      "Marginal Workers Household Industry worked for 0 - 3 moths during last year - Persons": 6258,
      "Total Male Population": 2191442,
      "Non Workers - Females": 1674409,
      "Current use of family planning methods in percentage DLHS-4": 54.7,
      "Households with main source of drinking water within premises  Houselisting and Housing Census Data Tables- District Level , Census of India__3": 361033,
      "Main Workers Agricultural Labourers - Males": 204453,
      "Marginal Workers Other worked for 0 - 3 moths during last year - Persons": 11105,
      "Currently married women married below 18years of age in percentage DLHS-4": 5.5,
      "Person Illiterates": 1871244,
      "Main Workers Household Industry - Females": 10617,
      "Female Literates": 847014,
      "Marginal Workers Cultivators worked for 0 - 3 moths during last year - Males": 8388,
      "Male": 74.39,
      "Households with improved source of drinking water in percentage DLHS-4": "Not available",
      "Upper Primary Schools with electricity in percentage DISE": 19.4,
      "Households with electricity in percentage DLHS-4": "Not available",
      "Villages with Primary Health Centre within 10km in percentage DLHS-4": "Not available",
      "Births to women aged 15-19years out of Total births in percentage DLHS-4": "Not available",
      "Prevalence of Anaemia in women aged 15-49years in percentage DLHS-4": "Not available",
      "Marginal Workers Agricultural Labourers worked for 3 - 6 moths during last year - Persons": 145143,
      "Main Workers Household Industry - Males": 25663,
      "Scheduled Tribe Females": 163,
      "Marginal Workers worked for 0 - 3 moths during last year - Males": 37822,
      "Marginal Workers Other worked for 3 - 6 moths during last year - Males": 38581,
      "Primary Net Enrolment Ratio in percentage DISE": 100,
      "Total": 64.57,
      "Mean age at marriage for boys DLHS-4": 23.2,
      "Number of District Hospitals  DLHS-4": "Not available",
      "0-6 Age Group Females": 308879,
      "Marginal Workers Agricultural Labourers worked for 0 - 3 moths during last year - Persons": 32749,
      "Marginal Workers Household Industry worked for 0 - 3 moths during last year - Males": 2546,
      "Total Workers  Females": 226994,
      "Marginal Workers worked for 3 - 6 moths during last year - Females": 93514,
      "Institutional Deliveries in percentage DLHS-4": 51.6,
      "Marginal Workers Other - Males": 44896,
      "Total Workers  Males": 1091952,
      "Main Workers - Females": 103730,
      "Primary Gross Enrolment Ratio in percentage DISE": 132.7,
      "Main Workers Cultivators - Persons": 521512,
      "Marginal Workers Household Industry worked for 0 - 3 moths during last year - Females": 3712,
      "Upper Primary Net Enrolment Ratio in percentage DISE": 69,
      "Primary New Government Schools since 2003 in percentage DISE": 21.4,
      "Tier": "Total",
      "Marginal Workers Household Industry - Females": 12762,
      "Primary Schools with electricity in percentage DISE": 19.8,
      "Main Workers Other - Persons": 183141,
      "Marginal Workers Household Industry worked for 3 - 6 moths during last year - Females": 9050,
      "Main Workers Cultivators - Males": 486534,
      "Main Workers Household Industry - Persons": 36280,
      "Marginal Workers Cultivators worked for 0 - 3 moths during last year - Persons": 17460,
      "Scheduled Caste Males": 685223,
      "Marginal Workers - Persons": 349075,
      "Deliveries at home conducted by skilled health personnel in percentage DLHS-4": 32.4,
      "Villages with Sub-Health Centres within 3km in percentage DLHS-4": "Not available",
      "Upper Primary New Government Schools since 2003 in percentage DISE": 59.2,
      "0-6 Age Group Males": 343617,
      "Primary Schools with drinking water facility in percentage DISE": 98.7,
      "Non Workers - Persons": 2773899,
      "Person Literates": 2221601,
      "State": "UTTAR PRADESH",
      "Total Female Population": 1901403,
      "Marginal Workers worked for 0 - 3 moths during last year - Persons": 67572,
      "Marginal Workers Cultivators - Females": 31381,
      "Marginal Workers Other - Persons": 72513,
      "Sex Ratio": 868,
      "Scheduled Tribe Persons": 349,
      "Marginal Workers Household Industry worked for 3 - 6 moths during last year - Males": 8061,
      "Marginal Workers Agricultural Labourers - Females": 51504,
      "Mean age at marriage for girls DLHS-4": 20.9,
      "Households with solar energy as main source of lighting  Houselisting and Housing Census Data Tables- District Level , Census of India__4": 8156,
      "District": "HARDOI",
      "Households receiving treated tap water within premises in percentage Houselisting and Housing Census Data Tables- District Level , Census of India__1": 9.460986763,
      "Total Workers  Persons": 1318946,
      "Households receiving treated tap water within premises  Houselisting and Housing Census Data Tables- District Level , Census of India__4": 67052,
      "Primary Female Teachers in percentage DISE": 39.8,
      "Number of Households": 730442,
      "Main Workers Agricultural Labourers - Persons": 228938
    }
  ],
  "Rural": [
    {
      "Marginal Workers Agricultural Labourers - Persons": 170186,
      "Marginal Workers Other - Females": 22337,
      "Marginal Workers Other worked for 0 - 3 moths during last year - Females": 4263,
      "Upper Primary Schools with boys toilet in percentage DISE": "NA",
      "Total Population": 3551039,
      "Households with electricity as main source of lighting in percentage Houselisting and Housing Census Data Tables- District Level , Census of India": 6.540327202,
      "Primary Girl's Enrolment in percentage DISE": "NA",
      "Marginal Workers worked for 3 - 6 moths during last year - Males": 166329,
      "Prevalence of Acute illness in percentage DLHS-4": "Not available",
      "Main Workers - Persons": 841702,
      "Main Workers Cultivators - Females": 34288,
      "Marginal Workers Agricultural Labourers worked for 3 - 6 moths during last year - Females": 38467,
      "Marginal Workers Other worked for 0 - 3 moths during last year - Males": 4838,
      "Upper Primary Schools with drinking water facility in percentage DISE": "NA",
      "Primary Schools with girls toilet in percentage DISE": "NA",
      "Marginal Workers worked for 3 - 6 moths during last year - Persons": 252473,
      "Upper Primary Drop Out Rate in percentage DISE": "NA",
      "Prevalence of Anaemia in pregnant women aged 15-49years in percentage DLHS-4": "Not available",
      "Current use of any modern method of family planning in percentage DLHS-4": 29.8,
      "Marginal Workers Agricultural Labourers - Males": 120170,
      "Upper Primary Female Teachers in percentage DISE": "NA",
      "Marginal Workers - Females": 114146,
      "Marginal Workers Other worked for 3 - 6 moths during last year - Persons": 43479,
      "Main Workers Agricultural Labourers - Females": 23687,
      "Marginal Workers Cultivators worked for 3 - 6 moths during last year - Females": 21996,
      "Households with no lighting  Houselisting and Housing Census Data Tables- District Level , Census of India__5": 399,
      "Prevalence of Severe Anaemia  in percentage DLHS-4": "Not available",
      "Total unmet need for family planning in percentage DLHS-4": 32.3,
      "Main Workers Other - Males": 72162,
      "Children who received full vaccination in percentage DLHS-4": "Not available",
      "Marginal Workers Household Industry - Persons": 18908,
      "Primary Pupil-Teacher Ratio in percentage DISE": "NA",
      "Marginal Workers Agricultural Labourers worked for 3 - 6 moths during last year - Males": 100298,
      "Scheduled Caste Females": 558948,
      "Marginal Workers Cultivators - Males": 42680,
      "Marginal Workers - Males": 201246,
      "Marginal Workers worked for 0 - 3 moths during last year - Females": 28002,
      "Households with main source of drinking water within premises in percentage Houselisting and Housing Census Data Tables- District Level , Census of India": 47.36712968,
      "Marginal Workers Household Industry worked for 3 - 6 moths during last year - Persons": 13836,
      "Upper Primary Girl's Enrolment in percentage DISE": "NA",
      "Prevalence of Severe Anaemia in women aged 15-49years in percentage DLHS-4": "Not available",
      "Marginal Workers Agricultural Labourers worked for 0 - 3 moths during last year - Males": 19872,
      "Households with electricity as main source of lighting  Houselisting and Housing Census Data Tables- District Level , Census of India__3": 40517,
      "Households with computer or laptop with internet connection in percentage": 0.31,
      "PHCs functioning on a 24x7hours basis in percentage DLHS-4": "Not applicable",
      "Non Workers - Males": 952401,
      "Total Households in District Houselisting and Housing Census Data Tables- District Level , Census of India": 619495,
      "Upper Primary Schools with girls toilet in percentage DISE": "NA",
      "Households with mobile phone in percentage": 49.68,
      "Households receiving untreated tap water within premises in percentage Houselisting and Housing Census Data Tables- District Level , Census of India__2": 3.655073891,
      "Marginal Workers Cultivators worked for 3 - 6 moths during last year - Males": 34397,
      "Prevalence of Anaemia  in percentage DLHS-4": "Not available",
      "Prevalence of Chronic illness in percentage DLHS-4": "Not available",
      "Households with solar energy as main source of lighting in percentage Houselisting and Housing Census Data Tables- District Level , Census of India__1": 1.290083052,
      "Marginal Workers Agricultural Labourers worked for 0 - 3 moths during last year - Females": 11549,
      "Main Workers - Males": 752500,
      "Female": "NA",
      "Sno": 1804,
      "Marginal Workers Other worked for 3 - 6 moths during last year - Females": 18074,
      "Marginal Workers Cultivators worked for 0 - 3 moths during last year - Females": 9042,
      "Scheduled Tribe Males": 154,
      "Male Illiterates": 723867,
      "Prevalence of Severe Anaemia in pregnant women aged 15-49years in percentage DLHS-4": "Not available",
      "0-6 Age Group Persons": 580096,
      "Upper Primary Student-Classroom Ratio in percentage DISE": "NA",
      "Currently married men married below 21years of age in percentage DLHS-4": 26.4,
      "Male Literates": 1182280,
      "Households with no lighting in percentage Houselisting and Housing Census Data Tables- District Level , Census of India__2": 0.0644,
      "Primary Drop Out Rate in percentage DISE": "NA",
      "Marginal Workers Household Industry - Males": 8153,
      "Female Illiterates": 943584,
      "Main Workers Other - Females": 23189,
      "Marginal Workers Cultivators - Persons": 73718,
      "Upper Primary Gross Enrolment Ratio in percentage DISE": "NA",
      "Scheduled Caste Persons": 1209207,
      "Marginal Workers Cultivators worked for 3 - 6 moths during last year - Persons": 56393,
      "Households with landline phone in percentage": 1.87,
      "Total Households in District  Houselisting and Housing Census Data Tables- District Level , Census of India": 619495,
      "Upper Primary Pupil-Teacher Ratio in percentage DISE": "NA",
      "Primary Student-Classroom Ratio in percentage DISE": "NA",
      "Primary Schools with boys toilet in percentage DISE": "NA",
      "Mean number of children ever born to women aged 40-49years  DLHS-4": "Not available",
      "Households receiving untreated tap water within premises  Houselisting and Housing Census Data Tables- District Level , Census of India__5": 22643,
      "Marginal Workers Household Industry worked for 0 - 3 moths during last year - Persons": 5072,
      "Total Male Population": 1906147,
      "Non Workers - Females": 1441544,
      "Current use of family planning methods in percentage DLHS-4": 53.1,
      "Households with main source of drinking water within premises  Houselisting and Housing Census Data Tables- District Level , Census of India__3": 293437,
      "Main Workers Agricultural Labourers - Males": 188378,
      "Marginal Workers Other worked for 0 - 3 moths during last year - Persons": 9101,
      "Currently married women married below 18years of age in percentage DLHS-4": 6,
      "Person Illiterates": 1667451,
      "Main Workers Household Industry - Females": 8038,
      "Female Literates": 701308,
      "Marginal Workers Cultivators worked for 0 - 3 moths during last year - Males": 8283,
      "Male": "NA",
      "Households with improved source of drinking water in percentage DLHS-4": "Not available",
      "Upper Primary Schools with electricity in percentage DISE": "NA",
      "Households with electricity in percentage DLHS-4": "Not available",
      "Villages with Primary Health Centre within 10km in percentage DLHS-4": "Not applicable",
      "Births to women aged 15-19years out of Total births in percentage DLHS-4": "Not available",
      "Prevalence of Anaemia in women aged 15-49years in percentage DLHS-4": "Not available",
      "Marginal Workers Agricultural Labourers worked for 3 - 6 moths during last year - Persons": 138765,
      "Main Workers Household Industry - Males": 17608,
      "Scheduled Tribe Females": 146,
      "Marginal Workers worked for 0 - 3 moths during last year - Males": 34917,
      "Marginal Workers Other worked for 3 - 6 moths during last year - Males": 25405,
      "Primary Net Enrolment Ratio in percentage DISE": "NA",
      "Total": "NA",
      "Mean age at marriage for boys DLHS-4": 22.9,
      "Number of District Hospitals  DLHS-4": "Not applicable",
      "0-6 Age Group Females": 274471,
      "Marginal Workers Agricultural Labourers worked for 0 - 3 moths during last year - Persons": 31421,
      "Marginal Workers Household Industry worked for 0 - 3 moths during last year - Males": 1924,
      "Total Workers  Females": 203348,
      "Marginal Workers worked for 3 - 6 moths during last year - Females": 86144,
      "Institutional Deliveries in percentage DLHS-4": 50.2,
      "Marginal Workers Other - Males": 30243,
      "Total Workers  Males": 953746,
      "Main Workers - Females": 89202,
      "Primary Gross Enrolment Ratio in percentage DISE": "NA",
      "Main Workers Cultivators - Persons": 508640,
      "Marginal Workers Household Industry worked for 0 - 3 moths during last year - Females": 3148,
      "Upper Primary Net Enrolment Ratio in percentage DISE": "NA",
      "Primary New Government Schools since 2003 in percentage DISE": "NA",
      "Tier": "Rural",
      "Marginal Workers Household Industry - Females": 10755,
      "Primary Schools with electricity in percentage DISE": "NA",
      "Main Workers Other - Persons": 95351,
      "Marginal Workers Household Industry worked for 3 - 6 moths during last year - Females": 7607,
      "Main Workers Cultivators - Males": 474352,
      "Main Workers Household Industry - Persons": 25646,
      "Marginal Workers Cultivators worked for 0 - 3 moths during last year - Persons": 17325,
      "Scheduled Caste Males": 650259,
      "Marginal Workers - Persons": 315392,
      "Deliveries at home conducted by skilled health personnel in percentage DLHS-4": 30.8,
      "Villages with Sub-Health Centres within 3km in percentage DLHS-4": "Not applicable",
      "Upper Primary New Government Schools since 2003 in percentage DISE": "NA",
      "0-6 Age Group Males": 305625,
      "Primary Schools with drinking water facility in percentage DISE": "NA",
      "Non Workers - Persons": 2393945,
      "Person Literates": 1883588,
      "State": "UTTAR PRADESH",
      "Total Female Population": 1644892,
      "Marginal Workers worked for 0 - 3 moths during last year - Persons": 62919,
      "Marginal Workers Cultivators - Females": 31038,
      "Marginal Workers Other - Persons": 52580,
      "Sex Ratio": 863,
      "Scheduled Tribe Persons": 300,
      "Marginal Workers Household Industry worked for 3 - 6 moths during last year - Males": 6229,
      "Marginal Workers Agricultural Labourers - Females": 50016,
      "Mean age at marriage for girls DLHS-4": 20.7,
      "Households with solar energy as main source of lighting  Houselisting and Housing Census Data Tables- District Level , Census of India__4": 7992,
      "District": "HARDOI",
      "Households receiving treated tap water within premises in percentage Houselisting and Housing Census Data Tables- District Level , Census of India__1": 7.145336121,
      "Total Workers  Persons": 1157094,
      "Households receiving treated tap water within premises  Houselisting and Housing Census Data Tables- District Level , Census of India__4": 44265,
      "Primary Female Teachers in percentage DISE": "NA",
      "Number of Households": 638627,
      "Main Workers Agricultural Labourers - Persons": 212065
    }
  ],
  "Urban": [
    {
      "Marginal Workers Agricultural Labourers - Persons": 7706,
      "Marginal Workers Other - Females": 5280,
      "Marginal Workers Other worked for 0 - 3 moths during last year - Females": 527,
      "Upper Primary Schools with boys toilet in percentage DISE": "NA",
      "Total Population": 541806,
      "Households with electricity as main source of lighting in percentage Houselisting and Housing Census Data Tables- District Level , Census of India": 61.63113891,
      "Primary Girl's Enrolment in percentage DISE": "NA",
      "Marginal Workers worked for 3 - 6 moths during last year - Males": 21660,
      "Prevalence of Acute illness in percentage DLHS-4": "Not available",
      "Main Workers - Persons": 128169,
      "Main Workers Cultivators - Females": 690,
      "Marginal Workers Agricultural Labourers worked for 3 - 6 moths during last year - Females": 861,
      "Marginal Workers Other worked for 0 - 3 moths during last year - Males": 1477,
      "Upper Primary Schools with drinking water facility in percentage DISE": "NA",
      "Primary Schools with girls toilet in percentage DISE": "NA",
      "Marginal Workers worked for 3 - 6 moths during last year - Persons": 29030,
      "Upper Primary Drop Out Rate in percentage DISE": "NA",
      "Prevalence of Anaemia in pregnant women aged 15-49years in percentage DLHS-4": "Not available",
      "Current use of any modern method of family planning in percentage DLHS-4": 43.5,
      "Marginal Workers Agricultural Labourers - Males": 6218,
      "Upper Primary Female Teachers in percentage DISE": "NA",
      "Marginal Workers - Females": 9118,
      "Marginal Workers Other worked for 3 - 6 moths during last year - Persons": 17929,
      "Main Workers Agricultural Labourers - Females": 798,
      "Marginal Workers Cultivators worked for 3 - 6 moths during last year - Females": 313,
      "Households with no lighting  Houselisting and Housing Census Data Tables- District Level , Census of India__5": 464,
      "Prevalence of Severe Anaemia  in percentage DLHS-4": "Not available",
      "Total unmet need for family planning in percentage DLHS-4": 21.5,
      "Main Workers Other - Males": 77329,
      "Children who received full vaccination in percentage DLHS-4": "Not available",
      "Marginal Workers Household Industry - Persons": 4461,
      "Primary Pupil-Teacher Ratio in percentage DISE": "NA",
      "Marginal Workers Agricultural Labourers worked for 3 - 6 moths during last year - Males": 5517,
      "Scheduled Caste Females": 30334,
      "Marginal Workers Cultivators - Males": 1240,
      "Marginal Workers - Males": 24565,
      "Marginal Workers worked for 0 - 3 moths during last year - Females": 1748,
      "Households with main source of drinking water within premises in percentage Houselisting and Housing Census Data Tables- District Level , Census of India": 75.75818708,
      "Marginal Workers Household Industry worked for 3 - 6 moths during last year - Persons": 3275,
      "Upper Primary Girl's Enrolment in percentage DISE": "NA",
      "Prevalence of Severe Anaemia in women aged 15-49years in percentage DLHS-4": "Not available",
      "Marginal Workers Agricultural Labourers worked for 0 - 3 moths during last year - Males": 701,
      "Households with electricity as main source of lighting  Houselisting and Housing Census Data Tables- District Level , Census of India__3": 54991,
      "Households with computer or laptop with internet connection in percentage": 2.16,
      "PHCs functioning on a 24x7hours basis in percentage DLHS-4": 0,
      "Non Workers - Males": 147089,
      "Total Households in District Houselisting and Housing Census Data Tables- District Level , Census of India": 89226,
      "Upper Primary Schools with girls toilet in percentage DISE": "NA",
      "Households with mobile phone in percentage": 61.06,
      "Households receiving untreated tap water within premises in percentage Houselisting and Housing Census Data Tables- District Level , Census of India__2": 3.156030753,
      "Marginal Workers Cultivators worked for 3 - 6 moths during last year - Males": 1135,
      "Prevalence of Anaemia  in percentage DLHS-4": "Not available",
      "Prevalence of Chronic illness in percentage DLHS-4": "Not available",
      "Households with solar energy as main source of lighting in percentage Houselisting and Housing Census Data Tables- District Level , Census of India__1": 0.183802927,
      "Marginal Workers Agricultural Labourers worked for 0 - 3 moths during last year - Females": 627,
      "Main Workers - Males": 113641,
      "Female": "NA",
      "Sno": 1806,
      "Marginal Workers Other worked for 3 - 6 moths during last year - Females": 4753,
      "Marginal Workers Cultivators worked for 0 - 3 moths during last year - Females": 30,
      "Scheduled Tribe Males": 32,
      "Male Illiterates": 92988,
      "Prevalence of Severe Anaemia in pregnant women aged 15-49years in percentage DLHS-4": "Not available",
      "0-6 Age Group Persons": 72400,
      "Upper Primary Student-Classroom Ratio in percentage DISE": "NA",
      "Currently married men married below 21years of age in percentage DLHS-4": 7.6,
      "Male Literates": 192307,
      "Households with no lighting in percentage Houselisting and Housing Census Data Tables- District Level , Census of India__2": 0.520027795,
      "Primary Drop Out Rate in percentage DISE": "NA",
      "Marginal Workers Household Industry - Males": 2454,
      "Female Illiterates": 110805,
      "Main Workers Other - Females": 10461,
      "Marginal Workers Cultivators - Persons": 1583,
      "Upper Primary Gross Enrolment Ratio in percentage DISE": "NA",
      "Scheduled Caste Persons": 65298,
      "Marginal Workers Cultivators worked for 3 - 6 moths during last year - Persons": 1448,
      "Households with landline phone in percentage": 4.23,
      "Total Households in District  Houselisting and Housing Census Data Tables- District Level , Census of India": 89226,
      "Upper Primary Pupil-Teacher Ratio in percentage DISE": "NA",
      "Primary Student-Classroom Ratio in percentage DISE": "NA",
      "Primary Schools with boys toilet in percentage DISE": "NA",
      "Mean number of children ever born to women aged 40-49years  DLHS-4": "Not available",
      "Households receiving untreated tap water within premises  Houselisting and Housing Census Data Tables- District Level , Census of India__5": 2816,
      "Marginal Workers Household Industry worked for 0 - 3 moths during last year - Persons": 1186,
      "Total Male Population": 285295,
      "Non Workers - Females": 232865,
      "Current use of family planning methods in percentage DLHS-4": 65.4,
      "Households with main source of drinking water within premises  Houselisting and Housing Census Data Tables- District Level , Census of India__3": 67596,
      "Main Workers Agricultural Labourers - Males": 16075,
      "Marginal Workers Other worked for 0 - 3 moths during last year - Persons": 2004,
      "Currently married women married below 18years of age in percentage DLHS-4": 2.2,
      "Person Illiterates": 203793,
      "Main Workers Household Industry - Females": 2579,
      "Female Literates": 145706,
      "Marginal Workers Cultivators worked for 0 - 3 moths during last year - Males": 105,
      "Male": "NA",
      "Households with improved source of drinking water in percentage DLHS-4": "Not available",
      "Upper Primary Schools with electricity in percentage DISE": "NA",
      "Households with electricity in percentage DLHS-4": "Not available",
      "Villages with Primary Health Centre within 10km in percentage DLHS-4": 0,
      "Births to women aged 15-19years out of Total births in percentage DLHS-4": "Not available",
      "Prevalence of Anaemia in women aged 15-49years in percentage DLHS-4": "Not available",
      "Marginal Workers Agricultural Labourers worked for 3 - 6 moths during last year - Persons": 6378,
      "Main Workers Household Industry - Males": 8055,
      "Scheduled Tribe Females": 17,
      "Marginal Workers worked for 0 - 3 moths during last year - Males": 2905,
      "Marginal Workers Other worked for 3 - 6 moths during last year - Males": 13176,
      "Primary Net Enrolment Ratio in percentage DISE": "NA",
      "Total": "NA",
      "Mean age at marriage for boys DLHS-4": 24.8,
      "Number of District Hospitals  DLHS-4": 0,
      "0-6 Age Group Females": 34408,
      "Marginal Workers Agricultural Labourers worked for 0 - 3 moths during last year - Persons": 1328,
      "Marginal Workers Household Industry worked for 0 - 3 moths during last year - Males": 622,
      "Total Workers  Females": 23646,
      "Marginal Workers worked for 3 - 6 moths during last year - Females": 7370,
      "Institutional Deliveries in percentage DLHS-4": 61.4,
      "Marginal Workers Other - Males": 14653,
      "Total Workers  Males": 138206,
      "Main Workers - Females": 14528,
      "Primary Gross Enrolment Ratio in percentage DISE": "NA",
      "Main Workers Cultivators - Persons": 12872,
      "Marginal Workers Household Industry worked for 0 - 3 moths during last year - Females": 564,
      "Upper Primary Net Enrolment Ratio in percentage DISE": "NA",
      "Primary New Government Schools since 2003 in percentage DISE": "NA",
      "Tier": "Urban",
      "Marginal Workers Household Industry - Females": 2007,
      "Primary Schools with electricity in percentage DISE": "NA",
      "Main Workers Other - Persons": 87790,
      "Marginal Workers Household Industry worked for 3 - 6 moths during last year - Females": 1443,
      "Main Workers Cultivators - Males": 12182,
      "Main Workers Household Industry - Persons": 10634,
      "Marginal Workers Cultivators worked for 0 - 3 moths during last year - Persons": 135,
      "Scheduled Caste Males": 34964,
      "Marginal Workers - Persons": 33683,
      "Deliveries at home conducted by skilled health personnel in percentage DLHS-4": 47.4,
      "Villages with Sub-Health Centres within 3km in percentage DLHS-4": 0,
      "Upper Primary New Government Schools since 2003 in percentage DISE": "NA",
      "0-6 Age Group Males": 37992,
      "Primary Schools with drinking water facility in percentage DISE": "NA",
      "Non Workers - Persons": 379954,
      "Person Literates": 338013,
      "State": "UTTAR PRADESH",
      "Total Female Population": 256511,
      "Marginal Workers worked for 0 - 3 moths during last year - Persons": 4653,
      "Marginal Workers Cultivators - Females": 343,
      "Marginal Workers Other - Persons": 19933,
      "Sex Ratio": 899,
      "Scheduled Tribe Persons": 49,
      "Marginal Workers Household Industry worked for 3 - 6 moths during last year - Males": 1832,
      "Marginal Workers Agricultural Labourers - Females": 1488,
      "Mean age at marriage for girls DLHS-4": 22,
      "Households with solar energy as main source of lighting  Houselisting and Housing Census Data Tables- District Level , Census of India__4": 164,
      "District": "HARDOI",
      "Households receiving treated tap water within premises in percentage Houselisting and Housing Census Data Tables- District Level , Census of India__1": 25.53852016,
      "Total Workers  Persons": 161852,
      "Households receiving treated tap water within premises  Houselisting and Housing Census Data Tables- District Level , Census of India__4": 22787,
      "Primary Female Teachers in percentage DISE": "NA",
      "Number of Households": 91815,
      "Main Workers Agricultural Labourers - Persons": 16873
    }
  ]
}