{
  "Total": [
    {
      "Marginal Workers Agricultural Labourers - Persons": 334191,
      "Marginal Workers Other - Females": 38882,
      "Marginal Workers Other worked for 0 - 3 moths during last year - Females": 7808,
      "Upper Primary Schools with boys toilet in percentage DISE": 100,
      "Total Population": 3405559,
      "Households with electricity as main source of lighting in percentage Houselisting and Housing Census Data Tables- District Level , Census of India": 40.34423206,
      "Primary Girl's Enrolment in percentage DISE": 49.2,
      "Marginal Workers worked for 3 - 6 moths during last year - Males": 272080,
      "Prevalence of Acute illness in percentage DLHS-4": "Not available",
      "Main Workers - Persons": 644869,
      "Main Workers Cultivators - Females": 34779,
      "Marginal Workers Agricultural Labourers worked for 3 - 6 moths during last year - Females": 94955,
      "Marginal Workers Other worked for 0 - 3 moths during last year - Males": 17016,
      "Upper Primary Schools with drinking water facility in percentage DISE": 93.2,
      "Primary Schools with girls toilet in percentage DISE": 100,
      "Marginal Workers worked for 3 - 6 moths during last year - Persons": 429424,
      "Upper Primary Drop Out Rate in percentage DISE": "Not available",
      "Prevalence of Anaemia in pregnant women aged 15-49years in percentage DLHS-4": "Not available",
      "Current use of any modern method of family planning in percentage DLHS-4": 28.6,
      "Marginal Workers Agricultural Labourers - Males": 201935,
      "Upper Primary Female Teachers in percentage DISE": 37.4,
      "Marginal Workers - Females": 213431,
      "Marginal Workers Other worked for 3 - 6 moths during last year - Persons": 95798,
      "Main Workers Agricultural Labourers - Females": 43484,
      "Marginal Workers Cultivators worked for 3 - 6 moths during last year - Females": 21670,
      "Households with no lighting  Houselisting and Housing Census Data Tables- District Level , Census of India__5": 770,
      "Prevalence of Severe Anaemia  in percentage DLHS-4": "Not available",
      "Total unmet need for family planning in percentage DLHS-4": 34.8,
      "Main Workers Other - Males": 162335,
      "Children who received full vaccination in percentage DLHS-4": "Not available",
      "Marginal Workers Household Industry - Persons": 28128,
      "Primary Pupil-Teacher Ratio in percentage DISE": 35,
      "Marginal Workers Agricultural Labourers worked for 3 - 6 moths during last year - Males": 158306,
      "Scheduled Caste Females": 503632,
      "Marginal Workers Cultivators - Males": 47985,
      "Marginal Workers - Males": 346410,
      "Marginal Workers worked for 0 - 3 moths during last year - Females": 56087,
      "Households with main source of drinking water within premises in percentage Houselisting and Housing Census Data Tables- District Level , Census of India": 28.14359171,
      "Marginal Workers Household Industry worked for 3 - 6 moths during last year - Persons": 20491,
      "Upper Primary Girl's Enrolment in percentage DISE": 53,
      "Prevalence of Severe Anaemia in women aged 15-49years in percentage DLHS-4": "Not available",
      "Marginal Workers Agricultural Labourers worked for 0 - 3 moths during last year - Males": 43629,
      "Households with electricity as main source of lighting  Houselisting and Housing Census Data Tables- District Level , Census of India__3": 247856,
      "Households with computer or laptop with internet connection in percentage": 0.84,
      "PHCs functioning on a 24x7hours basis in percentage DLHS-4": "Not available",
      "Non Workers - Males": 885149,
      "Total Households in District Houselisting and Housing Census Data Tables- District Level , Census of India": 614353,
      "Upper Primary Schools with girls toilet in percentage DISE": 100,
      "Households with mobile phone in percentage": 54.87,
      "Households receiving untreated tap water within premises in percentage Houselisting and Housing Census Data Tables- District Level , Census of India__2": 2.143230358,
      "Marginal Workers Cultivators worked for 3 - 6 moths during last year - Males": 38204,
      "Prevalence of Anaemia  in percentage DLHS-4": "Not available",
      "Prevalence of Chronic illness in percentage DLHS-4": "Not available",
      "Households with solar energy as main source of lighting in percentage Houselisting and Housing Census Data Tables- District Level , Census of India__1": 0.237811161,
      "Marginal Workers Agricultural Labourers worked for 0 - 3 moths during last year - Females": 37301,
      "Main Workers - Males": 520983,
      "Female": 56.29,
      "Sno": 1883,
      "Marginal Workers Other worked for 3 - 6 moths during last year - Females": 31074,
      "Marginal Workers Cultivators worked for 0 - 3 moths during last year - Females": 7245,
      "Scheduled Tribe Males": 876,
      "Male Illiterates": 586577,
      "Prevalence of Severe Anaemia in pregnant women aged 15-49years in percentage DLHS-4": "Not available",
      "0-6 Age Group Persons": 482517,
      "Upper Primary Student-Classroom Ratio in percentage DISE": 28,
      "Currently married men married below 21years of age in percentage DLHS-4": 10.7,
      "Male Literates": 1165965,
      "Households with no lighting in percentage Houselisting and Housing Census Data Tables- District Level , Census of India__2": 0.125335109,
      "Primary Drop Out Rate in percentage DISE": "Not available",
      "Marginal Workers Household Industry - Males": 14750,
      "Female Illiterates": 853139,
      "Main Workers Other - Females": 36206,
      "Marginal Workers Cultivators - Persons": 76900,
      "Upper Primary Gross Enrolment Ratio in percentage DISE": 51.9,
      "Scheduled Caste Persons": 1030367,
      "Marginal Workers Cultivators worked for 3 - 6 moths during last year - Persons": 59874,
      "Households with landline phone in percentage": 2.56,
      "Total Households in District  Houselisting and Housing Census Data Tables- District Level , Census of India": 614353,
      "Upper Primary Pupil-Teacher Ratio in percentage DISE": 30,
      "Primary Student-Classroom Ratio in percentage DISE": 30,
      "Primary Schools with boys toilet in percentage DISE": 100,
      "Mean number of children ever born to women aged 40-49years  DLHS-4": "Not available",
      "Households receiving untreated tap water within premises  Houselisting and Housing Census Data Tables- District Level , Census of India__5": 13167,
      "Marginal Workers Household Industry worked for 0 - 3 moths during last year - Persons": 7637,
      "Total Male Population": 1752542,
      "Non Workers - Females": 1315700,
      "Current use of family planning methods in percentage DLHS-4": 46.5,
      "Households with main source of drinking water within premises  Houselisting and Housing Census Data Tables- District Level , Census of India__3": 172901,
      "Main Workers Agricultural Labourers - Males": 130207,
      "Marginal Workers Other worked for 0 - 3 moths during last year - Persons": 24824,
      "Currently married women married below 18years of age in percentage DLHS-4": 1.9,
      "Person Illiterates": 1439716,
      "Main Workers Household Industry - Females": 9417,
      "Female Literates": 799878,
      "Marginal Workers Cultivators worked for 0 - 3 moths during last year - Males": 9781,
      "Male": 77.63,
      "Households with improved source of drinking water in percentage DLHS-4": "Not available",
      "Upper Primary Schools with electricity in percentage DISE": 42,
      "Households with electricity in percentage DLHS-4": "Not available",
      "Villages with Primary Health Centre within 10km in percentage DLHS-4": "Not available",
      "Births to women aged 15-19years out of Total births in percentage DLHS-4": "Not available",
      "Prevalence of Anaemia in women aged 15-49years in percentage DLHS-4": "Not available",
      "Marginal Workers Agricultural Labourers worked for 3 - 6 moths during last year - Persons": 253261,
      "Main Workers Household Industry - Males": 23229,
      "Scheduled Tribe Females": 880,
      "Marginal Workers worked for 0 - 3 moths during last year - Males": 74330,
      "Marginal Workers Other worked for 3 - 6 moths during last year - Males": 64724,
      "Primary Net Enrolment Ratio in percentage DISE": 69.9,
      "Total": 67.25,
      "Mean age at marriage for boys DLHS-4": 24.3,
      "Number of District Hospitals  DLHS-4": "Not available",
      "0-6 Age Group Females": 232016,
      "Marginal Workers Agricultural Labourers worked for 0 - 3 moths during last year - Persons": 80930,
      "Marginal Workers Household Industry worked for 0 - 3 moths during last year - Males": 3904,
      "Total Workers  Females": 337317,
      "Marginal Workers worked for 3 - 6 moths during last year - Females": 157344,
      "Institutional Deliveries in percentage DLHS-4": 67.8,
      "Marginal Workers Other - Males": 81740,
      "Total Workers  Males": 867393,
      "Main Workers - Females": 123886,
      "Primary Gross Enrolment Ratio in percentage DISE": 79.8,
      "Main Workers Cultivators - Persons": 239991,
      "Marginal Workers Household Industry worked for 0 - 3 moths during last year - Females": 3733,
      "Upper Primary Net Enrolment Ratio in percentage DISE": 41.6,
      "Primary New Government Schools since 2003 in percentage DISE": 31.8,
      "Tier": "Total",
      "Marginal Workers Household Industry - Females": 13378,
      "Primary Schools with electricity in percentage DISE": 34,
      "Main Workers Other - Persons": 198541,
      "Marginal Workers Household Industry worked for 3 - 6 moths during last year - Females": 9645,
      "Main Workers Cultivators - Males": 205212,
      "Main Workers Household Industry - Persons": 32646,
      "Marginal Workers Cultivators worked for 0 - 3 moths during last year - Persons": 17026,
      "Scheduled Caste Males": 526735,
      "Marginal Workers - Persons": 559841,
      "Deliveries at home conducted by skilled health personnel in percentage DLHS-4": 25.1,
      "Villages with Sub-Health Centres within 3km in percentage DLHS-4": "Not available",
      "Upper Primary New Government Schools since 2003 in percentage DISE": 65.7,
      "0-6 Age Group Males": 250501,
      "Primary Schools with drinking water facility in percentage DISE": 98.2,
      "Non Workers - Persons": 2200849,
      "Person Literates": 1965843,
      "State": "UTTAR PRADESH",
      "Total Female Population": 1653017,
      "Marginal Workers worked for 0 - 3 moths during last year - Persons": 130417,
      "Marginal Workers Cultivators - Females": 28915,
      "Marginal Workers Other - Persons": 120622,
      "Sex Ratio": 943,
      "Scheduled Tribe Persons": 1756,
      "Marginal Workers Household Industry worked for 3 - 6 moths during last year - Males": 10846,
      "Marginal Workers Agricultural Labourers - Females": 132256,
      "Mean age at marriage for girls DLHS-4": 22,
      "Households with solar energy as main source of lighting  Houselisting and Housing Census Data Tables- District Level , Census of India__4": 1461,
      "District": "RAE BARELI",
      "Households receiving treated tap water within premises in percentage Houselisting and Housing Census Data Tables- District Level , Census of India__1": 7.234114589,
      "Total Workers  Persons": 1204710,
      "Households receiving treated tap water within premises  Houselisting and Housing Census Data Tables- District Level , Census of India__4": 44443,
      "Primary Female Teachers in percentage DISE": 45.9,
      "Number of Households": 619707,
      "Main Workers Agricultural Labourers - Persons": 173691
    }
  ],
  "Rural": [
    {
      "Marginal Workers Agricultural Labourers - Persons": 329401,
      "Marginal Workers Other - Females": 34217,
      "Marginal Workers Other worked for 0 - 3 moths during last year - Females": 7339,
      "Upper Primary Schools with boys toilet in percentage DISE": "NA",
      "Total Population": 3097564,
      "Households with electricity as main source of lighting in percentage Houselisting and Housing Census Data Tables- District Level , Census of India": 37.06676395,
      "Primary Girl's Enrolment in percentage DISE": "NA",
      "Marginal Workers worked for 3 - 6 moths during last year - Males": 258319,
      "Prevalence of Acute illness in percentage DLHS-4": "Not available",
      "Main Workers - Persons": 572736,
      "Main Workers Cultivators - Females": 34490,
      "Marginal Workers Agricultural Labourers worked for 3 - 6 moths during last year - Females": 93969,
      "Marginal Workers Other worked for 0 - 3 moths during last year - Males": 15752,
      "Upper Primary Schools with drinking water facility in percentage DISE": "NA",
      "Primary Schools with girls toilet in percentage DISE": "NA",
      "Marginal Workers worked for 3 - 6 moths during last year - Persons": 409375,
      "Upper Primary Drop Out Rate in percentage DISE": "NA",
      "Prevalence of Anaemia in pregnant women aged 15-49years in percentage DLHS-4": "Not available",
      "Current use of any modern method of family planning in percentage DLHS-4": 27.9,
      "Marginal Workers Agricultural Labourers - Males": 198467,
      "Upper Primary Female Teachers in percentage DISE": "NA",
      "Marginal Workers - Females": 206042,
      "Marginal Workers Other worked for 3 - 6 moths during last year - Persons": 82042,
      "Main Workers Agricultural Labourers - Females": 42901,
      "Marginal Workers Cultivators worked for 3 - 6 moths during last year - Females": 21537,
      "Households with no lighting  Houselisting and Housing Census Data Tables- District Level , Census of India__5": 510,
      "Prevalence of Severe Anaemia  in percentage DLHS-4": "Not available",
      "Total unmet need for family planning in percentage DLHS-4": 34.9,
      "Main Workers Other - Males": 111396,
      "Children who received full vaccination in percentage DLHS-4": "Not available",
      "Marginal Workers Household Industry - Persons": 25443,
      "Primary Pupil-Teacher Ratio in percentage DISE": "NA",
      "Marginal Workers Agricultural Labourers worked for 3 - 6 moths during last year - Males": 155561,
      "Scheduled Caste Females": 481702,
      "Marginal Workers Cultivators - Males": 47593,
      "Marginal Workers - Males": 330289,
      "Marginal Workers worked for 0 - 3 moths during last year - Females": 54986,
      "Households with main source of drinking water within premises in percentage Houselisting and Housing Census Data Tables- District Level , Census of India": 24.95617587,
      "Marginal Workers Household Industry worked for 3 - 6 moths during last year - Persons": 18404,
      "Upper Primary Girl's Enrolment in percentage DISE": "NA",
      "Prevalence of Severe Anaemia in women aged 15-49years in percentage DLHS-4": "Not available",
      "Marginal Workers Agricultural Labourers worked for 0 - 3 moths during last year - Males": 42906,
      "Households with electricity as main source of lighting  Houselisting and Housing Census Data Tables- District Level , Census of India__3": 208280,
      "Households with computer or laptop with internet connection in percentage": 0.59,
      "PHCs functioning on a 24x7hours basis in percentage DLHS-4": "Not applicable",
      "Non Workers - Males": 802465,
      "Total Households in District Houselisting and Housing Census Data Tables- District Level , Census of India": 561905,
      "Upper Primary Schools with girls toilet in percentage DISE": "NA",
      "Households with mobile phone in percentage": 53.61,
      "Households receiving untreated tap water within premises in percentage Houselisting and Housing Census Data Tables- District Level , Census of India__2": 1.973109333,
      "Marginal Workers Cultivators worked for 3 - 6 moths during last year - Males": 37862,
      "Prevalence of Anaemia  in percentage DLHS-4": "Not available",
      "Prevalence of Chronic illness in percentage DLHS-4": "Not available",
      "Households with solar energy as main source of lighting in percentage Houselisting and Housing Census Data Tables- District Level , Census of India__1": 0.249330403,
      "Marginal Workers Agricultural Labourers worked for 0 - 3 moths during last year - Females": 36965,
      "Main Workers - Males": 459695,
      "Female": "NA",
      "Sno": 1882,
      "Marginal Workers Other worked for 3 - 6 moths during last year - Females": 26878,
      "Marginal Workers Cultivators worked for 0 - 3 moths during last year - Females": 7224,
      "Scheduled Tribe Males": 705,
      "Male Illiterates": 546060,
      "Prevalence of Severe Anaemia in pregnant women aged 15-49years in percentage DLHS-4": "Not available",
      "0-6 Age Group Persons": 447627,
      "Upper Primary Student-Classroom Ratio in percentage DISE": "NA",
      "Currently married men married below 21years of age in percentage DLHS-4": 11.2,
      "Male Literates": 1046389,
      "Households with no lighting in percentage Houselisting and Housing Census Data Tables- District Level , Census of India__2": 0.0908,
      "Primary Drop Out Rate in percentage DISE": "NA",
      "Marginal Workers Household Industry - Males": 13313,
      "Female Illiterates": 801478,
      "Main Workers Other - Females": 27513,
      "Marginal Workers Cultivators - Persons": 76354,
      "Upper Primary Gross Enrolment Ratio in percentage DISE": "NA",
      "Scheduled Caste Persons": 984420,
      "Marginal Workers Cultivators worked for 3 - 6 moths during last year - Persons": 59399,
      "Households with landline phone in percentage": 2.36,
      "Total Households in District  Houselisting and Housing Census Data Tables- District Level , Census of India": 561905,
      "Upper Primary Pupil-Teacher Ratio in percentage DISE": "NA",
      "Primary Student-Classroom Ratio in percentage DISE": "NA",
      "Primary Schools with boys toilet in percentage DISE": "NA",
      "Mean number of children ever born to women aged 40-49years  DLHS-4": "Not available",
      "Households receiving untreated tap water within premises  Houselisting and Housing Census Data Tables- District Level , Census of India__5": 11087,
      "Marginal Workers Household Industry worked for 0 - 3 moths during last year - Persons": 7039,
      "Total Male Population": 1592449,
      "Non Workers - Females": 1186032,
      "Current use of family planning methods in percentage DLHS-4": 46,
      "Households with main source of drinking water within premises  Houselisting and Housing Census Data Tables- District Level , Census of India__3": 140230,
      "Main Workers Agricultural Labourers - Males": 126621,
      "Marginal Workers Other worked for 0 - 3 moths during last year - Persons": 23091,
      "Currently married women married below 18years of age in percentage DLHS-4": 2,
      "Person Illiterates": 1347538,
      "Main Workers Household Industry - Females": 8137,
      "Female Literates": 703637,
      "Marginal Workers Cultivators worked for 0 - 3 moths during last year - Males": 9731,
      "Male": "NA",
      "Households with improved source of drinking water in percentage DLHS-4": "Not available",
      "Upper Primary Schools with electricity in percentage DISE": "NA",
      "Households with electricity in percentage DLHS-4": "Not available",
      "Villages with Primary Health Centre within 10km in percentage DLHS-4": "Not applicable",
      "Births to women aged 15-19years out of Total births in percentage DLHS-4": "Not available",
      "Prevalence of Anaemia in women aged 15-49years in percentage DLHS-4": "Not available",
      "Marginal Workers Agricultural Labourers worked for 3 - 6 moths during last year - Persons": 249530,
      "Main Workers Household Industry - Males": 18879,
      "Scheduled Tribe Females": 720,
      "Marginal Workers worked for 0 - 3 moths during last year - Males": 71970,
      "Marginal Workers Other worked for 3 - 6 moths during last year - Males": 55164,
      "Primary Net Enrolment Ratio in percentage DISE": "NA",
      "Total": "NA",
      "Mean age at marriage for boys DLHS-4": 23.9,
      "Number of District Hospitals  DLHS-4": "Not applicable",
      "0-6 Age Group Females": 215403,
      "Marginal Workers Agricultural Labourers worked for 0 - 3 moths during last year - Persons": 79871,
      "Marginal Workers Household Industry worked for 0 - 3 moths during last year - Males": 3581,
      "Total Workers  Females": 319083,
      "Marginal Workers worked for 3 - 6 moths during last year - Females": 151056,
      "Institutional Deliveries in percentage DLHS-4": 67.1,
      "Marginal Workers Other - Males": 70916,
      "Total Workers  Males": 789984,
      "Main Workers - Females": 113041,
      "Primary Gross Enrolment Ratio in percentage DISE": "NA",
      "Main Workers Cultivators - Persons": 237289,
      "Marginal Workers Household Industry worked for 0 - 3 moths during last year - Females": 3458,
      "Upper Primary Net Enrolment Ratio in percentage DISE": "NA",
      "Primary New Government Schools since 2003 in percentage DISE": "NA",
      "Tier": "Rural",
      "Marginal Workers Household Industry - Females": 12130,
      "Primary Schools with electricity in percentage DISE": "NA",
      "Main Workers Other - Persons": 138909,
      "Marginal Workers Household Industry worked for 3 - 6 moths during last year - Females": 8672,
      "Main Workers Cultivators - Males": 202799,
      "Main Workers Household Industry - Persons": 27016,
      "Marginal Workers Cultivators worked for 0 - 3 moths during last year - Persons": 16955,
      "Scheduled Caste Males": 502718,
      "Marginal Workers - Persons": 536331,
      "Deliveries at home conducted by skilled health personnel in percentage DLHS-4": 25.1,
      "Villages with Sub-Health Centres within 3km in percentage DLHS-4": "Not applicable",
      "Upper Primary New Government Schools since 2003 in percentage DISE": "NA",
      "0-6 Age Group Males": 232224,
      "Primary Schools with drinking water facility in percentage DISE": "NA",
      "Non Workers - Persons": 1988497,
      "Person Literates": 1750026,
      "State": "UTTAR PRADESH",
      "Total Female Population": 1505115,
      "Marginal Workers worked for 0 - 3 moths during last year - Persons": 126956,
      "Marginal Workers Cultivators - Females": 28761,
      "Marginal Workers Other - Persons": 105133,
      "Sex Ratio": 945,
      "Scheduled Tribe Persons": 1425,
      "Marginal Workers Household Industry worked for 3 - 6 moths during last year - Males": 9732,
      "Marginal Workers Agricultural Labourers - Females": 130934,
      "Mean age at marriage for girls DLHS-4": 21.9,
      "Households with solar energy as main source of lighting  Houselisting and Housing Census Data Tables- District Level , Census of India__4": 1401,
      "District": "RAE BARELI",
      "Households receiving treated tap water within premises in percentage Houselisting and Housing Census Data Tables- District Level , Census of India__1": 5.037150408,
      "Total Workers  Persons": 1109067,
      "Households receiving treated tap water within premises  Houselisting and Housing Census Data Tables- District Level , Census of India__4": 28304,
      "Primary Female Teachers in percentage DISE": "NA",
      "Number of Households": 565776,
      "Main Workers Agricultural Labourers - Persons": 169522
    }
  ],
  "Urban": [
    {
      "Marginal Workers Agricultural Labourers - Persons": 4790,
      "Marginal Workers Other - Females": 4665,
      "Marginal Workers Other worked for 0 - 3 moths during last year - Females": 469,
      "Upper Primary Schools with boys toilet in percentage DISE": "NA",
      "Total Population": 307995,
      "Households with electricity as main source of lighting in percentage Houselisting and Housing Census Data Tables- District Level , Census of India": 75.4575961,
      "Primary Girl's Enrolment in percentage DISE": "NA",
      "Marginal Workers worked for 3 - 6 moths during last year - Males": 13761,
      "Prevalence of Acute illness in percentage DLHS-4": "Not available",
      "Main Workers - Persons": 72133,
      "Main Workers Cultivators - Females": 289,
      "Marginal Workers Agricultural Labourers worked for 3 - 6 moths during last year - Females": 986,
      "Marginal Workers Other worked for 0 - 3 moths during last year - Males": 1264,
      "Upper Primary Schools with drinking water facility in percentage DISE": "NA",
      "Primary Schools with girls toilet in percentage DISE": "NA",
      "Marginal Workers worked for 3 - 6 moths during last year - Persons": 20049,
      "Upper Primary Drop Out Rate in percentage DISE": "NA",
      "Prevalence of Anaemia in pregnant women aged 15-49years in percentage DLHS-4": "Not available",
      "Current use of any modern method of family planning in percentage DLHS-4": 36.2,
      "Marginal Workers Agricultural Labourers - Males": 3468,
      "Upper Primary Female Teachers in percentage DISE": "NA",
      "Marginal Workers - Females": 7389,
      "Marginal Workers Other worked for 3 - 6 moths during last year - Persons": 13756,
      "Main Workers Agricultural Labourers - Females": 583,
      "Marginal Workers Cultivators worked for 3 - 6 moths during last year - Females": 133,
      "Households with no lighting  Houselisting and Housing Census Data Tables- District Level , Census of India__5": 260,
      "Prevalence of Severe Anaemia  in percentage DLHS-4": "Not available",
      "Total unmet need for family planning in percentage DLHS-4": 32.7,
      "Main Workers Other - Males": 50939,
      "Children who received full vaccination in percentage DLHS-4": "Not available",
      "Marginal Workers Household Industry - Persons": 2685,
      "Primary Pupil-Teacher Ratio in percentage DISE": "NA",
      "Marginal Workers Agricultural Labourers worked for 3 - 6 moths during last year - Males": 2745,
      "Scheduled Caste Females": 21930,
      "Marginal Workers Cultivators - Males": 392,
      "Marginal Workers - Males": 16121,
      "Marginal Workers worked for 0 - 3 moths during last year - Females": 1101,
      "Households with main source of drinking water within premises in percentage Houselisting and Housing Census Data Tables- District Level , Census of India": 62.29217511,
      "Marginal Workers Household Industry worked for 3 - 6 moths during last year - Persons": 2087,
      "Upper Primary Girl's Enrolment in percentage DISE": "NA",
      "Prevalence of Severe Anaemia in women aged 15-49years in percentage DLHS-4": "Not available",
      "Marginal Workers Agricultural Labourers worked for 0 - 3 moths during last year - Males": 723,
      "Households with electricity as main source of lighting  Houselisting and Housing Census Data Tables- District Level , Census of India__3": 39576,
      "Households with computer or laptop with internet connection in percentage": 3.58,
      "PHCs functioning on a 24x7hours basis in percentage DLHS-4": 0,
      "Non Workers - Males": 82684,
      "Total Households in District Houselisting and Housing Census Data Tables- District Level , Census of India": 52448,
      "Upper Primary Schools with girls toilet in percentage DISE": "NA",
      "Households with mobile phone in percentage": 68.4,
      "Households receiving untreated tap water within premises in percentage Houselisting and Housing Census Data Tables- District Level , Census of India__2": 3.965832825,
      "Marginal Workers Cultivators worked for 3 - 6 moths during last year - Males": 342,
      "Prevalence of Anaemia  in percentage DLHS-4": "Not available",
      "Prevalence of Chronic illness in percentage DLHS-4": "Not available",
      "Households with solar energy as main source of lighting in percentage Houselisting and Housing Census Data Tables- District Level , Census of India__1": 0.114399024,
      "Marginal Workers Agricultural Labourers worked for 0 - 3 moths during last year - Females": 336,
      "Main Workers - Males": 61288,
      "Female": "NA",
      "Sno": 1884,
      "Marginal Workers Other worked for 3 - 6 moths during last year - Females": 4196,
      "Marginal Workers Cultivators worked for 0 - 3 moths during last year - Females": 21,
      "Scheduled Tribe Males": 171,
      "Male Illiterates": 40517,
      "Prevalence of Severe Anaemia in pregnant women aged 15-49years in percentage DLHS-4": "Not available",
      "0-6 Age Group Persons": 34890,
      "Upper Primary Student-Classroom Ratio in percentage DISE": "NA",
      "Currently married men married below 21years of age in percentage DLHS-4": 5.8,
      "Male Literates": 119576,
      "Households with no lighting in percentage Houselisting and Housing Census Data Tables- District Level , Census of India__2": 0.495729103,
      "Primary Drop Out Rate in percentage DISE": "NA",
      "Marginal Workers Household Industry - Males": 1437,
      "Female Illiterates": 51661,
      "Main Workers Other - Females": 8693,
      "Marginal Workers Cultivators - Persons": 546,
      "Upper Primary Gross Enrolment Ratio in percentage DISE": "NA",
      "Scheduled Caste Persons": 45947,
      "Marginal Workers Cultivators worked for 3 - 6 moths during last year - Persons": 475,
      "Households with landline phone in percentage": 4.63,
      "Total Households in District  Houselisting and Housing Census Data Tables- District Level , Census of India": 52448,
      "Upper Primary Pupil-Teacher Ratio in percentage DISE": "NA",
      "Primary Student-Classroom Ratio in percentage DISE": "NA",
      "Primary Schools with boys toilet in percentage DISE": "NA",
      "Mean number of children ever born to women aged 40-49years  DLHS-4": "Not available",
      "Households receiving untreated tap water within premises  Houselisting and Housing Census Data Tables- District Level , Census of India__5": 2080,
      "Marginal Workers Household Industry worked for 0 - 3 moths during last year - Persons": 598,
      "Total Male Population": 160093,
      "Non Workers - Females": 129668,
      "Current use of family planning methods in percentage DLHS-4": 52.3,
      "Households with main source of drinking water within premises  Houselisting and Housing Census Data Tables- District Level , Census of India__3": 32671,
      "Main Workers Agricultural Labourers - Males": 3586,
      "Marginal Workers Other worked for 0 - 3 moths during last year - Persons": 1733,
      "Currently married women married below 18years of age in percentage DLHS-4": 0,
      "Person Illiterates": 92178,
      "Main Workers Household Industry - Females": 1280,
      "Female Literates": 96241,
      "Marginal Workers Cultivators worked for 0 - 3 moths during last year - Males": 50,
      "Male": "NA",
      "Households with improved source of drinking water in percentage DLHS-4": "Not available",
      "Upper Primary Schools with electricity in percentage DISE": "NA",
      "Households with electricity in percentage DLHS-4": "Not available",
      "Villages with Primary Health Centre within 10km in percentage DLHS-4": 0,
      "Births to women aged 15-19years out of Total births in percentage DLHS-4": "Not available",
      "Prevalence of Anaemia in women aged 15-49years in percentage DLHS-4": "Not available",
      "Marginal Workers Agricultural Labourers worked for 3 - 6 moths during last year - Persons": 3731,
      "Main Workers Household Industry - Males": 4350,
      "Scheduled Tribe Females": 160,
      "Marginal Workers worked for 0 - 3 moths during last year - Males": 2360,
      "Marginal Workers Other worked for 3 - 6 moths during last year - Males": 9560,
      "Primary Net Enrolment Ratio in percentage DISE": "NA",
      "Total": "NA",
      "Mean age at marriage for boys DLHS-4": 27.5,
      "Number of District Hospitals  DLHS-4": 0,
      "0-6 Age Group Females": 16613,
      "Marginal Workers Agricultural Labourers worked for 0 - 3 moths during last year - Persons": 1059,
      "Marginal Workers Household Industry worked for 0 - 3 moths during last year - Males": 323,
      "Total Workers  Females": 18234,
      "Marginal Workers worked for 3 - 6 moths during last year - Females": 6288,
      "Institutional Deliveries in percentage DLHS-4": 78.9,
      "Marginal Workers Other - Males": 10824,
      "Total Workers  Males": 77409,
      "Main Workers - Females": 10845,
      "Primary Gross Enrolment Ratio in percentage DISE": "NA",
      "Main Workers Cultivators - Persons": 2702,
      "Marginal Workers Household Industry worked for 0 - 3 moths during last year - Females": 275,
      "Upper Primary Net Enrolment Ratio in percentage DISE": "NA",
      "Primary New Government Schools since 2003 in percentage DISE": "NA",
      "Tier": "Urban",
      "Marginal Workers Household Industry - Females": 1248,
      "Primary Schools with electricity in percentage DISE": "NA",
      "Main Workers Other - Persons": 59632,
      "Marginal Workers Household Industry worked for 3 - 6 moths during last year - Females": 973,
      "Main Workers Cultivators - Males": 2413,
      "Main Workers Household Industry - Persons": 5630,
      "Marginal Workers Cultivators worked for 0 - 3 moths during last year - Persons": 71,
      "Scheduled Caste Males": 24017,
      "Marginal Workers - Persons": 23510,
      "Deliveries at home conducted by skilled health personnel in percentage DLHS-4": 24.2,
      "Villages with Sub-Health Centres within 3km in percentage DLHS-4": 0,
      "Upper Primary New Government Schools since 2003 in percentage DISE": "NA",
      "0-6 Age Group Males": 18277,
      "Primary Schools with drinking water facility in percentage DISE": "NA",
      "Non Workers - Persons": 212352,
      "Person Literates": 215817,
      "State": "UTTAR PRADESH",
      "Total Female Population": 147902,
      "Marginal Workers worked for 0 - 3 moths during last year - Persons": 3461,
      "Marginal Workers Cultivators - Females": 154,
      "Marginal Workers Other - Persons": 15489,
      "Sex Ratio": 924,
      "Scheduled Tribe Persons": 331,
      "Marginal Workers Household Industry worked for 3 - 6 moths during last year - Males": 1114,
      "Marginal Workers Agricultural Labourers - Females": 1322,
      "Mean age at marriage for girls DLHS-4": 24,
      "Households with solar energy as main source of lighting  Houselisting and Housing Census Data Tables- District Level , Census of India__4": 60,
      "District": "RAE BARELI",
      "Households receiving treated tap water within premises in percentage Houselisting and Housing Census Data Tables- District Level , Census of India__1": 30.77143075,
      "Total Workers  Persons": 95643,
      "Households receiving treated tap water within premises  Houselisting and Housing Census Data Tables- District Level , Census of India__4": 16139,
      "Primary Female Teachers in percentage DISE": "NA",
      "Number of Households": 53931,
      "Main Workers Agricultural Labourers - Persons": 4169
    }
  ]
}