{
  "Total": [
    {
      "Marginal Workers Agricultural Labourers - Persons": 79428,
      "Marginal Workers Other - Females": 17487,
      "Marginal Workers Other worked for 0 - 3 moths during last year - Females": 3612,
      "Upper Primary Schools with boys toilet in percentage DISE": 100,
      "Total Population": 2335819,
      "Households with electricity as main source of lighting in percentage Houselisting and Housing Census Data Tables- District Level , Census of India": 33.32443746,
      "Primary Girl's Enrolment in percentage DISE": 49.1,
      "Marginal Workers worked for 3 - 6 moths during last year - Males": 88644,
      "Prevalence of Acute illness in percentage DLHS-4": "Not available",
      "Main Workers - Persons": 564266,
      "Main Workers Cultivators - Females": 11104,
      "Marginal Workers Agricultural Labourers worked for 3 - 6 moths during last year - Females": 15383,
      "Marginal Workers Other worked for 0 - 3 moths during last year - Males": 4264,
      "Upper Primary Schools with drinking water facility in percentage DISE": 99.3,
      "Primary Schools with girls toilet in percentage DISE": 100,
      "Marginal Workers worked for 3 - 6 moths during last year - Persons": 135841,
      "Upper Primary Drop Out Rate in percentage DISE": 5.14,
      "Prevalence of Anaemia in pregnant women aged 15-49years in percentage DLHS-4": "Not available",
      "Current use of any modern method of family planning in percentage DLHS-4": 37.5,
      "Marginal Workers Agricultural Labourers - Males": 57732,
      "Upper Primary Female Teachers in percentage DISE": 33.6,
      "Marginal Workers - Females": 65426,
      "Marginal Workers Other worked for 3 - 6 moths during last year - Persons": 38803,
      "Main Workers Agricultural Labourers - Females": 12970,
      "Marginal Workers Cultivators worked for 3 - 6 moths during last year - Females": 7860,
      "Households with no lighting  Houselisting and Housing Census Data Tables- District Level , Census of India__5": 655,
      "Prevalence of Severe Anaemia  in percentage DLHS-4": "Not available",
      "Total unmet need for family planning in percentage DLHS-4": 27.4,
      "Main Workers Other - Males": 165496,
      "Children who received full vaccination in percentage DLHS-4": "Not available",
      "Marginal Workers Household Industry - Persons": 20385,
      "Primary Pupil-Teacher Ratio in percentage DISE": 71,
      "Marginal Workers Agricultural Labourers worked for 3 - 6 moths during last year - Males": 47751,
      "Scheduled Caste Females": 145092,
      "Marginal Workers Cultivators - Males": 13732,
      "Marginal Workers - Males": 107569,
      "Marginal Workers worked for 0 - 3 moths during last year - Females": 18229,
      "Households with main source of drinking water within premises in percentage Houselisting and Housing Census Data Tables- District Level , Census of India": 86.73778279,
      "Marginal Workers Household Industry worked for 3 - 6 moths during last year - Persons": 15785,
      "Upper Primary Girl's Enrolment in percentage DISE": 50.8,
      "Prevalence of Severe Anaemia in women aged 15-49years in percentage DLHS-4": "Not available",
      "Marginal Workers Agricultural Labourers worked for 0 - 3 moths during last year - Males": 9981,
      "Households with electricity as main source of lighting  Houselisting and Housing Census Data Tables- District Level , Census of India__3": 131112,
      "Households with computer or laptop with internet connection in percentage": 0.98,
      "PHCs functioning on a 24x7hours basis in percentage DLHS-4": "Not available",
      "Non Workers - Males": 614196,
      "Total Households in District Houselisting and Housing Census Data Tables- District Level , Census of India": 393441,
      "Upper Primary Schools with girls toilet in percentage DISE": 100,
      "Households with mobile phone in percentage": 59.15,
      "Households receiving untreated tap water within premises in percentage Houselisting and Housing Census Data Tables- District Level , Census of India__2": 10.56575192,
      "Marginal Workers Cultivators worked for 3 - 6 moths during last year - Males": 10259,
      "Prevalence of Anaemia  in percentage DLHS-4": "Not available",
      "Prevalence of Chronic illness in percentage DLHS-4": "Not available",
      "Households with solar energy as main source of lighting in percentage Houselisting and Housing Census Data Tables- District Level , Census of India__1": 0.621185896,
      "Marginal Workers Agricultural Labourers worked for 0 - 3 moths during last year - Females": 6313,
      "Main Workers - Males": 502124,
      "Female": 44.44,
      "Sno": 1886,
      "Marginal Workers Other worked for 3 - 6 moths during last year - Females": 13875,
      "Marginal Workers Cultivators worked for 0 - 3 moths during last year - Females": 4911,
      "Scheduled Tribe Males": 207,
      "Male Illiterates": 593481,
      "Prevalence of Severe Anaemia in pregnant women aged 15-49years in percentage DLHS-4": "Not available",
      "0-6 Age Group Persons": 379227,
      "Upper Primary Student-Classroom Ratio in percentage DISE": 20,
      "Currently married men married below 21years of age in percentage DLHS-4": 11.8,
      "Male Literates": 630408,
      "Households with no lighting in percentage Houselisting and Housing Census Data Tables- District Level , Census of India__2": 0.166479853,
      "Primary Drop Out Rate in percentage DISE": 15.8,
      "Marginal Workers Household Industry - Males": 6913,
      "Female Illiterates": 698672,
      "Main Workers Other - Females": 26423,
      "Marginal Workers Cultivators - Persons": 26503,
      "Upper Primary Gross Enrolment Ratio in percentage DISE": 53.5,
      "Scheduled Caste Persons": 307936,
      "Marginal Workers Cultivators worked for 3 - 6 moths during last year - Persons": 18119,
      "Households with landline phone in percentage": 3.82,
      "Total Households in District  Houselisting and Housing Census Data Tables- District Level , Census of India": 393441,
      "Upper Primary Pupil-Teacher Ratio in percentage DISE": 35,
      "Primary Student-Classroom Ratio in percentage DISE": 50,
      "Primary Schools with boys toilet in percentage DISE": 100.2,
      "Mean number of children ever born to women aged 40-49years  DLHS-4": "Not available",
      "Households receiving untreated tap water within premises  Houselisting and Housing Census Data Tables- District Level , Census of India__5": 41570,
      "Marginal Workers Household Industry worked for 0 - 3 moths during last year - Persons": 4600,
      "Total Male Population": 1223889,
      "Non Workers - Females": 984362,
      "Current use of family planning methods in percentage DLHS-4": 49.2,
      "Households with main source of drinking water within premises  Houselisting and Housing Census Data Tables- District Level , Census of India__3": 341262,
      "Main Workers Agricultural Labourers - Males": 137840,
      "Marginal Workers Other worked for 0 - 3 moths during last year - Persons": 7876,
      "Currently married women married below 18years of age in percentage DLHS-4": 2.3,
      "Person Illiterates": 1292153,
      "Main Workers Household Industry - Females": 11645,
      "Female Literates": 413258,
      "Marginal Workers Cultivators worked for 0 - 3 moths during last year - Males": 3473,
      "Male": 61.4,
      "Households with improved source of drinking water in percentage DLHS-4": "Not available",
      "Upper Primary Schools with electricity in percentage DISE": 52.5,
      "Households with electricity in percentage DLHS-4": "Not available",
      "Villages with Primary Health Centre within 10km in percentage DLHS-4": "Not available",
      "Births to women aged 15-19years out of Total births in percentage DLHS-4": "Not available",
      "Prevalence of Anaemia in women aged 15-49years in percentage DLHS-4": "Not available",
      "Marginal Workers Agricultural Labourers worked for 3 - 6 moths during last year - Persons": 63134,
      "Main Workers Household Industry - Males": 22208,
      "Scheduled Tribe Females": 151,
      "Marginal Workers worked for 0 - 3 moths during last year - Males": 18925,
      "Marginal Workers Other worked for 3 - 6 moths during last year - Males": 24928,
      "Primary Net Enrolment Ratio in percentage DISE": 100,
      "Total": 53.34,
      "Mean age at marriage for boys DLHS-4": 24.4,
      "Number of District Hospitals  DLHS-4": "Not available",
      "0-6 Age Group Females": 182076,
      "Marginal Workers Agricultural Labourers worked for 0 - 3 moths during last year - Persons": 16294,
      "Marginal Workers Household Industry worked for 0 - 3 moths during last year - Males": 1207,
      "Total Workers  Females": 127568,
      "Marginal Workers worked for 3 - 6 moths during last year - Females": 47197,
      "Institutional Deliveries in percentage DLHS-4": 55.2,
      "Marginal Workers Other - Males": 29192,
      "Total Workers  Males": 609693,
      "Main Workers - Females": 62142,
      "Primary Gross Enrolment Ratio in percentage DISE": 143.1,
      "Main Workers Cultivators - Persons": 187684,
      "Marginal Workers Household Industry worked for 0 - 3 moths during last year - Females": 3393,
      "Upper Primary Net Enrolment Ratio in percentage DISE": 40.3,
      "Primary New Government Schools since 2003 in percentage DISE": 16.1,
      "Tier": "Total",
      "Marginal Workers Household Industry - Females": 13472,
      "Primary Schools with electricity in percentage DISE": 48.6,
      "Main Workers Other - Persons": 191919,
      "Marginal Workers Household Industry worked for 3 - 6 moths during last year - Females": 10079,
      "Main Workers Cultivators - Males": 176580,
      "Main Workers Household Industry - Persons": 33853,
      "Marginal Workers Cultivators worked for 0 - 3 moths during last year - Persons": 8384,
      "Scheduled Caste Males": 162844,
      "Marginal Workers - Persons": 172995,
      "Deliveries at home conducted by skilled health personnel in percentage DLHS-4": 32,
      "Villages with Sub-Health Centres within 3km in percentage DLHS-4": "Not available",
      "Upper Primary New Government Schools since 2003 in percentage DISE": 59.9,
      "0-6 Age Group Males": 197151,
      "Primary Schools with drinking water facility in percentage DISE": 99.7,
      "Non Workers - Persons": 1598558,
      "Person Literates": 1043666,
      "State": "UTTAR PRADESH",
      "Total Female Population": 1111930,
      "Marginal Workers worked for 0 - 3 moths during last year - Persons": 37154,
      "Marginal Workers Cultivators - Females": 12771,
      "Marginal Workers Other - Persons": 46679,
      "Sex Ratio": 909,
      "Scheduled Tribe Persons": 358,
      "Marginal Workers Household Industry worked for 3 - 6 moths during last year - Males": 5706,
      "Marginal Workers Agricultural Labourers - Females": 21696,
      "Mean age at marriage for girls DLHS-4": 21.7,
      "Households with solar energy as main source of lighting  Houselisting and Housing Census Data Tables- District Level , Census of India__4": 2444,
      "District": "RAMPUR",
      "Households receiving treated tap water within premises in percentage Houselisting and Housing Census Data Tables- District Level , Census of India__1": 23.4817927,
      "Total Workers  Persons": 737261,
      "Households receiving treated tap water within premises  Houselisting and Housing Census Data Tables- District Level , Census of India__4": 92387,
      "Primary Female Teachers in percentage DISE": 39.6,
      "Number of Households": 393736,
      "Main Workers Agricultural Labourers - Persons": 150810
    }
  ],
  "Rural": [
    {
      "Marginal Workers Agricultural Labourers - Persons": 74993,
      "Marginal Workers Other - Females": 13933,
      "Marginal Workers Other worked for 0 - 3 moths during last year - Females": 3066,
      "Upper Primary Schools with boys toilet in percentage DISE": "NA",
      "Total Population": 1747172,
      "Households with electricity as main source of lighting in percentage Houselisting and Housing Census Data Tables- District Level , Census of India": 17.68974746,
      "Primary Girl's Enrolment in percentage DISE": "NA",
      "Marginal Workers worked for 3 - 6 moths during last year - Males": 73548,
      "Prevalence of Acute illness in percentage DLHS-4": "Not available",
      "Main Workers - Persons": 406223,
      "Main Workers Cultivators - Females": 10730,
      "Marginal Workers Agricultural Labourers worked for 3 - 6 moths during last year - Females": 14923,
      "Marginal Workers Other worked for 0 - 3 moths during last year - Males": 2662,
      "Upper Primary Schools with drinking water facility in percentage DISE": "NA",
      "Primary Schools with girls toilet in percentage DISE": "NA",
      "Marginal Workers worked for 3 - 6 moths during last year - Persons": 115552,
      "Upper Primary Drop Out Rate in percentage DISE": "NA",
      "Prevalence of Anaemia in pregnant women aged 15-49years in percentage DLHS-4": "Not available",
      "Current use of any modern method of family planning in percentage DLHS-4": 34.8,
      "Marginal Workers Agricultural Labourers - Males": 53998,
      "Upper Primary Female Teachers in percentage DISE": "NA",
      "Marginal Workers - Females": 58882,
      "Marginal Workers Other worked for 3 - 6 moths during last year - Persons": 25868,
      "Main Workers Agricultural Labourers - Females": 11647,
      "Marginal Workers Cultivators worked for 3 - 6 moths during last year - Females": 7710,
      "Households with no lighting  Houselisting and Housing Census Data Tables- District Level , Census of India__5": 342,
      "Prevalence of Severe Anaemia  in percentage DLHS-4": "Not available",
      "Total unmet need for family planning in percentage DLHS-4": 29.7,
      "Main Workers Other - Males": 61592,
      "Children who received full vaccination in percentage DLHS-4": "Not available",
      "Marginal Workers Household Industry - Persons": 16291,
      "Primary Pupil-Teacher Ratio in percentage DISE": "NA",
      "Marginal Workers Agricultural Labourers worked for 3 - 6 moths during last year - Males": 44723,
      "Scheduled Caste Females": 130950,
      "Marginal Workers Cultivators - Males": 13253,
      "Marginal Workers - Males": 89853,
      "Marginal Workers worked for 0 - 3 moths during last year - Females": 16878,
      "Households with main source of drinking water within premises in percentage Houselisting and Housing Census Data Tables- District Level , Census of India": 83.90543508,
      "Marginal Workers Household Industry worked for 3 - 6 moths during last year - Persons": 12505,
      "Upper Primary Girl's Enrolment in percentage DISE": "NA",
      "Prevalence of Severe Anaemia in women aged 15-49years in percentage DLHS-4": "Not available",
      "Marginal Workers Agricultural Labourers worked for 0 - 3 moths during last year - Males": 9275,
      "Households with electricity as main source of lighting  Houselisting and Housing Census Data Tables- District Level , Census of India__3": 51555,
      "Households with computer or laptop with internet connection in percentage": 0.61,
      "PHCs functioning on a 24x7hours basis in percentage DLHS-4": "Not applicable",
      "Non Workers - Males": 466072,
      "Total Households in District Houselisting and Housing Census Data Tables- District Level , Census of India": 291440,
      "Upper Primary Schools with girls toilet in percentage DISE": "NA",
      "Households with mobile phone in percentage": 58.41,
      "Households receiving untreated tap water within premises in percentage Houselisting and Housing Census Data Tables- District Level , Census of India__2": 11.87894592,
      "Marginal Workers Cultivators worked for 3 - 6 moths during last year - Males": 9823,
      "Prevalence of Anaemia  in percentage DLHS-4": "Not available",
      "Prevalence of Chronic illness in percentage DLHS-4": "Not available",
      "Households with solar energy as main source of lighting in percentage Houselisting and Housing Census Data Tables- District Level , Census of India__1": 0.796390338,
      "Marginal Workers Agricultural Labourers worked for 0 - 3 moths during last year - Females": 6072,
      "Main Workers - Males": 360953,
      "Female": "NA",
      "Sno": 1885,
      "Marginal Workers Other worked for 3 - 6 moths during last year - Females": 10867,
      "Marginal Workers Cultivators worked for 0 - 3 moths during last year - Females": 4892,
      "Scheduled Tribe Males": 66,
      "Male Illiterates": 446272,
      "Prevalence of Severe Anaemia in pregnant women aged 15-49years in percentage DLHS-4": "Not available",
      "0-6 Age Group Persons": 298914,
      "Upper Primary Student-Classroom Ratio in percentage DISE": "NA",
      "Currently married men married below 21years of age in percentage DLHS-4": 14.3,
      "Male Literates": 470606,
      "Households with no lighting in percentage Houselisting and Housing Census Data Tables- District Level , Census of India__2": 0.117348339,
      "Primary Drop Out Rate in percentage DISE": "NA",
      "Marginal Workers Household Industry - Males": 4939,
      "Female Illiterates": 541921,
      "Main Workers Other - Females": 15352,
      "Marginal Workers Cultivators - Persons": 25855,
      "Upper Primary Gross Enrolment Ratio in percentage DISE": "NA",
      "Scheduled Caste Persons": 277838,
      "Marginal Workers Cultivators worked for 3 - 6 moths during last year - Persons": 17533,
      "Households with landline phone in percentage": 3.79,
      "Total Households in District  Houselisting and Housing Census Data Tables- District Level , Census of India": 291440,
      "Upper Primary Pupil-Teacher Ratio in percentage DISE": "NA",
      "Primary Student-Classroom Ratio in percentage DISE": "NA",
      "Primary Schools with boys toilet in percentage DISE": "NA",
      "Mean number of children ever born to women aged 40-49years  DLHS-4": "Not available",
      "Households receiving untreated tap water within premises  Houselisting and Housing Census Data Tables- District Level , Census of India__5": 34620,
      "Marginal Workers Household Industry worked for 0 - 3 moths during last year - Persons": 3786,
      "Total Male Population": 916878,
      "Non Workers - Females": 726142,
      "Current use of family planning methods in percentage DLHS-4": 46.1,
      "Households with main source of drinking water within premises  Houselisting and Housing Census Data Tables- District Level , Census of India__3": 244534,
      "Main Workers Agricultural Labourers - Males": 121744,
      "Marginal Workers Other worked for 0 - 3 moths during last year - Persons": 5728,
      "Currently married women married below 18years of age in percentage DLHS-4": 2.2,
      "Person Illiterates": 988193,
      "Main Workers Household Industry - Females": 7541,
      "Female Literates": 288373,
      "Marginal Workers Cultivators worked for 0 - 3 moths during last year - Males": 3430,
      "Male": "NA",
      "Households with improved source of drinking water in percentage DLHS-4": "Not available",
      "Upper Primary Schools with electricity in percentage DISE": "NA",
      "Households with electricity in percentage DLHS-4": "Not available",
      "Villages with Primary Health Centre within 10km in percentage DLHS-4": "Not applicable",
      "Births to women aged 15-19years out of Total births in percentage DLHS-4": "Not available",
      "Prevalence of Anaemia in women aged 15-49years in percentage DLHS-4": "Not available",
      "Marginal Workers Agricultural Labourers worked for 3 - 6 moths during last year - Persons": 59646,
      "Main Workers Household Industry - Males": 9609,
      "Scheduled Tribe Females": 56,
      "Marginal Workers worked for 0 - 3 moths during last year - Males": 16305,
      "Marginal Workers Other worked for 3 - 6 moths during last year - Males": 15001,
      "Primary Net Enrolment Ratio in percentage DISE": "NA",
      "Total": "NA",
      "Mean age at marriage for boys DLHS-4": 23.4,
      "Number of District Hospitals  DLHS-4": "Not applicable",
      "0-6 Age Group Females": 143226,
      "Marginal Workers Agricultural Labourers worked for 0 - 3 moths during last year - Persons": 15347,
      "Marginal Workers Household Industry worked for 0 - 3 moths during last year - Males": 938,
      "Total Workers  Females": 104152,
      "Marginal Workers worked for 3 - 6 moths during last year - Females": 42004,
      "Institutional Deliveries in percentage DLHS-4": 52.8,
      "Marginal Workers Other - Males": 17663,
      "Total Workers  Males": 450806,
      "Main Workers - Females": 45270,
      "Primary Gross Enrolment Ratio in percentage DISE": "NA",
      "Main Workers Cultivators - Persons": 178738,
      "Marginal Workers Household Industry worked for 0 - 3 moths during last year - Females": 2848,
      "Upper Primary Net Enrolment Ratio in percentage DISE": "NA",
      "Primary New Government Schools since 2003 in percentage DISE": "NA",
      "Tier": "Rural",
      "Marginal Workers Household Industry - Females": 11352,
      "Primary Schools with electricity in percentage DISE": "NA",
      "Main Workers Other - Persons": 76944,
      "Marginal Workers Household Industry worked for 3 - 6 moths during last year - Females": 8504,
      "Main Workers Cultivators - Males": 168008,
      "Main Workers Household Industry - Persons": 17150,
      "Marginal Workers Cultivators worked for 0 - 3 moths during last year - Persons": 8322,
      "Scheduled Caste Males": 146888,
      "Marginal Workers - Persons": 148735,
      "Deliveries at home conducted by skilled health personnel in percentage DLHS-4": 28.2,
      "Villages with Sub-Health Centres within 3km in percentage DLHS-4": "Not applicable",
      "Upper Primary New Government Schools since 2003 in percentage DISE": "NA",
      "0-6 Age Group Males": 155688,
      "Primary Schools with drinking water facility in percentage DISE": "NA",
      "Non Workers - Persons": 1192214,
      "Person Literates": 758979,
      "State": "UTTAR PRADESH",
      "Total Female Population": 830294,
      "Marginal Workers worked for 0 - 3 moths during last year - Persons": 33183,
      "Marginal Workers Cultivators - Females": 12602,
      "Marginal Workers Other - Persons": 31596,
      "Sex Ratio": 906,
      "Scheduled Tribe Persons": 122,
      "Marginal Workers Household Industry worked for 3 - 6 moths during last year - Males": 4001,
      "Marginal Workers Agricultural Labourers - Females": 20995,
      "Mean age at marriage for girls DLHS-4": 21.2,
      "Households with solar energy as main source of lighting  Houselisting and Housing Census Data Tables- District Level , Census of India__4": 2321,
      "District": "RAMPUR",
      "Households receiving treated tap water within premises in percentage Houselisting and Housing Census Data Tables- District Level , Census of India__1": 19.44242383,
      "Total Workers  Persons": 554958,
      "Households receiving treated tap water within premises  Houselisting and Housing Census Data Tables- District Level , Census of India__4": 56663,
      "Primary Female Teachers in percentage DISE": "NA",
      "Number of Households": 290515,
      "Main Workers Agricultural Labourers - Persons": 133391
    }
  ],
  "Urban": [
    {
      "Marginal Workers Agricultural Labourers - Persons": 4435,
      "Marginal Workers Other - Females": 3554,
      "Marginal Workers Other worked for 0 - 3 moths during last year - Females": 546,
      "Upper Primary Schools with boys toilet in percentage DISE": "NA",
      "Total Population": 588647,
      "Households with electricity as main source of lighting in percentage Houselisting and Housing Census Data Tables- District Level , Census of India": 77.99629415,
      "Primary Girl's Enrolment in percentage DISE": "NA",
      "Marginal Workers worked for 3 - 6 moths during last year - Males": 15096,
      "Prevalence of Acute illness in percentage DLHS-4": "Not available",
      "Main Workers - Persons": 158043,
      "Main Workers Cultivators - Females": 374,
      "Marginal Workers Agricultural Labourers worked for 3 - 6 moths during last year - Females": 460,
      "Marginal Workers Other worked for 0 - 3 moths during last year - Males": 1602,
      "Upper Primary Schools with drinking water facility in percentage DISE": "NA",
      "Primary Schools with girls toilet in percentage DISE": "NA",
      "Marginal Workers worked for 3 - 6 moths during last year - Persons": 20289,
      "Upper Primary Drop Out Rate in percentage DISE": "NA",
      "Prevalence of Anaemia in pregnant women aged 15-49years in percentage DLHS-4": "Not available",
      "Current use of any modern method of family planning in percentage DLHS-4": 45.2,
      "Marginal Workers Agricultural Labourers - Males": 3734,
      "Upper Primary Female Teachers in percentage DISE": "NA",
      "Marginal Workers - Females": 6544,
      "Marginal Workers Other worked for 3 - 6 moths during last year - Persons": 12935,
      "Main Workers Agricultural Labourers - Females": 1323,
      "Marginal Workers Cultivators worked for 3 - 6 moths during last year - Females": 150,
      "Households with no lighting  Houselisting and Housing Census Data Tables- District Level , Census of India__5": 313,
      "Prevalence of Severe Anaemia  in percentage DLHS-4": "Not available",
      "Total unmet need for family planning in percentage DLHS-4": 20.6,
      "Main Workers Other - Males": 103904,
      "Children who received full vaccination in percentage DLHS-4": "Not available",
      "Marginal Workers Household Industry - Persons": 4094,
      "Primary Pupil-Teacher Ratio in percentage DISE": "NA",
      "Marginal Workers Agricultural Labourers worked for 3 - 6 moths during last year - Males": 3028,
      "Scheduled Caste Females": 14142,
      "Marginal Workers Cultivators - Males": 479,
      "Marginal Workers - Males": 17716,
      "Marginal Workers worked for 0 - 3 moths during last year - Females": 1351,
      "Households with main source of drinking water within premises in percentage Houselisting and Housing Census Data Tables- District Level , Census of India": 94.83044284,
      "Marginal Workers Household Industry worked for 3 - 6 moths during last year - Persons": 3280,
      "Upper Primary Girl's Enrolment in percentage DISE": "NA",
      "Prevalence of Severe Anaemia in women aged 15-49years in percentage DLHS-4": "Not available",
      "Marginal Workers Agricultural Labourers worked for 0 - 3 moths during last year - Males": 706,
      "Households with electricity as main source of lighting  Houselisting and Housing Census Data Tables- District Level , Census of India__3": 79557,
      "Households with computer or laptop with internet connection in percentage": 2.02,
      "PHCs functioning on a 24x7hours basis in percentage DLHS-4": 0,
      "Non Workers - Males": 148124,
      "Total Households in District Houselisting and Housing Census Data Tables- District Level , Census of India": 102001,
      "Upper Primary Schools with girls toilet in percentage DISE": "NA",
      "Households with mobile phone in percentage": 61.24,
      "Households receiving untreated tap water within premises in percentage Houselisting and Housing Census Data Tables- District Level , Census of India__2": 6.81365869,
      "Marginal Workers Cultivators worked for 3 - 6 moths during last year - Males": 436,
      "Prevalence of Anaemia  in percentage DLHS-4": "Not available",
      "Prevalence of Chronic illness in percentage DLHS-4": "Not available",
      "Households with solar energy as main source of lighting in percentage Houselisting and Housing Census Data Tables- District Level , Census of India__1": 0.120587053,
      "Marginal Workers Agricultural Labourers worked for 0 - 3 moths during last year - Females": 241,
      "Main Workers - Males": 141171,
      "Female": "NA",
      "Sno": 1887,
      "Marginal Workers Other worked for 3 - 6 moths during last year - Females": 3008,
      "Marginal Workers Cultivators worked for 0 - 3 moths during last year - Females": 19,
      "Scheduled Tribe Males": 141,
      "Male Illiterates": 147209,
      "Prevalence of Severe Anaemia in pregnant women aged 15-49years in percentage DLHS-4": "Not available",
      "0-6 Age Group Persons": 80313,
      "Upper Primary Student-Classroom Ratio in percentage DISE": "NA",
      "Currently married men married below 21years of age in percentage DLHS-4": 6.1,
      "Male Literates": 159802,
      "Households with no lighting in percentage Houselisting and Housing Census Data Tables- District Level , Census of India__2": 0.306859737,
      "Primary Drop Out Rate in percentage DISE": "NA",
      "Marginal Workers Household Industry - Males": 1974,
      "Female Illiterates": 156751,
      "Main Workers Other - Females": 11071,
      "Marginal Workers Cultivators - Persons": 648,
      "Upper Primary Gross Enrolment Ratio in percentage DISE": "NA",
      "Scheduled Caste Persons": 30098,
      "Marginal Workers Cultivators worked for 3 - 6 moths during last year - Persons": 586,
      "Households with landline phone in percentage": 3.91,
      "Total Households in District  Houselisting and Housing Census Data Tables- District Level , Census of India": 102001,
      "Upper Primary Pupil-Teacher Ratio in percentage DISE": "NA",
      "Primary Student-Classroom Ratio in percentage DISE": "NA",
      "Primary Schools with boys toilet in percentage DISE": "NA",
      "Mean number of children ever born to women aged 40-49years  DLHS-4": "Not available",
      "Households receiving untreated tap water within premises  Houselisting and Housing Census Data Tables- District Level , Census of India__5": 6950,
      "Marginal Workers Household Industry worked for 0 - 3 moths during last year - Persons": 814,
      "Total Male Population": 307011,
      "Non Workers - Females": 258220,
      "Current use of family planning methods in percentage DLHS-4": 58.3,
      "Households with main source of drinking water within premises  Houselisting and Housing Census Data Tables- District Level , Census of India__3": 96728,
      "Main Workers Agricultural Labourers - Males": 16096,
      "Marginal Workers Other worked for 0 - 3 moths during last year - Persons": 2148,
      "Currently married women married below 18years of age in percentage DLHS-4": 2.5,
      "Person Illiterates": 303960,
      "Main Workers Household Industry - Females": 4104,
      "Female Literates": 124885,
      "Marginal Workers Cultivators worked for 0 - 3 moths during last year - Males": 43,
      "Male": "NA",
      "Households with improved source of drinking water in percentage DLHS-4": "Not available",
      "Upper Primary Schools with electricity in percentage DISE": "NA",
      "Households with electricity in percentage DLHS-4": "Not available",
      "Villages with Primary Health Centre within 10km in percentage DLHS-4": 0,
      "Births to women aged 15-19years out of Total births in percentage DLHS-4": "Not available",
      "Prevalence of Anaemia in women aged 15-49years in percentage DLHS-4": "Not available",
      "Marginal Workers Agricultural Labourers worked for 3 - 6 moths during last year - Persons": 3488,
      "Main Workers Household Industry - Males": 12599,
      "Scheduled Tribe Females": 95,
      "Marginal Workers worked for 0 - 3 moths during last year - Males": 2620,
      "Marginal Workers Other worked for 3 - 6 moths during last year - Males": 9927,
      "Primary Net Enrolment Ratio in percentage DISE": "NA",
      "Total": "NA",
      "Mean age at marriage for boys DLHS-4": 27,
      "Number of District Hospitals  DLHS-4": 0,
      "0-6 Age Group Females": 38850,
      "Marginal Workers Agricultural Labourers worked for 0 - 3 moths during last year - Persons": 947,
      "Marginal Workers Household Industry worked for 0 - 3 moths during last year - Males": 269,
      "Total Workers  Females": 23416,
      "Marginal Workers worked for 3 - 6 moths during last year - Females": 5193,
      "Institutional Deliveries in percentage DLHS-4": 63.7,
      "Marginal Workers Other - Males": 11529,
      "Total Workers  Males": 158887,
      "Main Workers - Females": 16872,
      "Primary Gross Enrolment Ratio in percentage DISE": "NA",
      "Main Workers Cultivators - Persons": 8946,
      "Marginal Workers Household Industry worked for 0 - 3 moths during last year - Females": 545,
      "Upper Primary Net Enrolment Ratio in percentage DISE": "NA",
      "Primary New Government Schools since 2003 in percentage DISE": "NA",
      "Tier": "Urban",
      "Marginal Workers Household Industry - Females": 2120,
      "Primary Schools with electricity in percentage DISE": "NA",
      "Main Workers Other - Persons": 114975,
      "Marginal Workers Household Industry worked for 3 - 6 moths during last year - Females": 1575,
      "Main Workers Cultivators - Males": 8572,
      "Main Workers Household Industry - Persons": 16703,
      "Marginal Workers Cultivators worked for 0 - 3 moths during last year - Persons": 62,
      "Scheduled Caste Males": 15956,
      "Marginal Workers - Persons": 24260,
      "Deliveries at home conducted by skilled health personnel in percentage DLHS-4": 49.2,
      "Villages with Sub-Health Centres within 3km in percentage DLHS-4": 0,
      "Upper Primary New Government Schools since 2003 in percentage DISE": "NA",
      "0-6 Age Group Males": 41463,
      "Primary Schools with drinking water facility in percentage DISE": "NA",
      "Non Workers - Persons": 406344,
      "Person Literates": 284687,
      "State": "UTTAR PRADESH",
      "Total Female Population": 281636,
      "Marginal Workers worked for 0 - 3 moths during last year - Persons": 3971,
      "Marginal Workers Cultivators - Females": 169,
      "Marginal Workers Other - Persons": 15083,
      "Sex Ratio": 917,
      "Scheduled Tribe Persons": 236,
      "Marginal Workers Household Industry worked for 3 - 6 moths during last year - Males": 1705,
      "Marginal Workers Agricultural Labourers - Females": 701,
      "Mean age at marriage for girls DLHS-4": 22.9,
      "Households with solar energy as main source of lighting  Houselisting and Housing Census Data Tables- District Level , Census of India__4": 123,
      "District": "RAMPUR",
      "Households receiving treated tap water within premises in percentage Houselisting and Housing Census Data Tables- District Level , Census of India__1": 35.02318605,
      "Total Workers  Persons": 182303,
      "Households receiving treated tap water within premises  Houselisting and Housing Census Data Tables- District Level , Census of India__4": 35724,
      "Primary Female Teachers in percentage DISE": "NA",
      "Number of Households": 103221,
      "Main Workers Agricultural Labourers - Persons": 17419
    }
  ]
}