{
  "Total": [
    {
      "Marginal Workers Agricultural Labourers - Persons": 68303,
      "Marginal Workers Other - Females": 19053,
      "Marginal Workers Other worked for 0 - 3 moths during last year - Females": 5132,
      "Upper Primary Schools with boys toilet in percentage DISE": 100,
      "Total Population": 1578213,
      "Households with electricity as main source of lighting in percentage Houselisting and Housing Census Data Tables- District Level , Census of India": 37.88151217,
      "Primary Girl's Enrolment in percentage DISE": 49.1,
      "Marginal Workers worked for 3 - 6 moths during last year - Males": 83131,
      "Prevalence of Acute illness in percentage DLHS-4": "Not available",
      "Main Workers - Persons": 286978,
      "Main Workers Cultivators - Females": 11795,
      "Marginal Workers Agricultural Labourers worked for 3 - 6 moths during last year - Females": 23366,
      "Marginal Workers Other worked for 0 - 3 moths during last year - Males": 9126,
      "Upper Primary Schools with drinking water facility in percentage DISE": 98,
      "Primary Schools with girls toilet in percentage DISE": 100,
      "Marginal Workers worked for 3 - 6 moths during last year - Persons": 137196,
      "Upper Primary Drop Out Rate in percentage DISE": "Not available",
      "Prevalence of Anaemia in pregnant women aged 15-49years in percentage DLHS-4": "Not available",
      "Current use of any modern method of family planning in percentage DLHS-4": 38.9,
      "Marginal Workers Agricultural Labourers - Males": 34247,
      "Upper Primary Female Teachers in percentage DISE": 25.2,
      "Marginal Workers - Females": 77943,
      "Marginal Workers Other worked for 3 - 6 moths during last year - Persons": 50197,
      "Main Workers Agricultural Labourers - Females": 10524,
      "Marginal Workers Cultivators worked for 3 - 6 moths during last year - Females": 8834,
      "Households with no lighting  Houselisting and Housing Census Data Tables- District Level , Census of India__5": 827,
      "Prevalence of Severe Anaemia  in percentage DLHS-4": "Not available",
      "Total unmet need for family planning in percentage DLHS-4": 23.9,
      "Main Workers Other - Males": 127653,
      "Children who received full vaccination in percentage DLHS-4": "Not available",
      "Marginal Workers Household Industry - Persons": 23702,
      "Primary Pupil-Teacher Ratio in percentage DISE": 43,
      "Marginal Workers Agricultural Labourers worked for 3 - 6 moths during last year - Males": 26535,
      "Scheduled Caste Females": 170486,
      "Marginal Workers Cultivators - Males": 13814,
      "Marginal Workers - Males": 105687,
      "Marginal Workers worked for 0 - 3 moths during last year - Females": 23878,
      "Households with main source of drinking water within premises in percentage Houselisting and Housing Census Data Tables- District Level , Census of India": 27.6473132,
      "Marginal Workers Household Industry worked for 3 - 6 moths during last year - Persons": 18007,
      "Upper Primary Girl's Enrolment in percentage DISE": 51.8,
      "Prevalence of Severe Anaemia in women aged 15-49years in percentage DLHS-4": "Not available",
      "Marginal Workers Agricultural Labourers worked for 0 - 3 moths during last year - Males": 7712,
      "Households with electricity as main source of lighting  Houselisting and Housing Census Data Tables- District Level , Census of India__3": 83220,
      "Households with computer or laptop with internet connection in percentage": 1.32,
      "PHCs functioning on a 24x7hours basis in percentage DLHS-4": "Not available",
      "Non Workers - Males": 463944,
      "Total Households in District Houselisting and Housing Census Data Tables- District Level , Census of India": 219685,
      "Upper Primary Schools with girls toilet in percentage DISE": 100,
      "Households with mobile phone in percentage": 62.59,
      "Households receiving untreated tap water within premises in percentage Houselisting and Housing Census Data Tables- District Level , Census of India__2": 0.842114846,
      "Marginal Workers Cultivators worked for 3 - 6 moths during last year - Males": 10257,
      "Prevalence of Anaemia  in percentage DLHS-4": "Not available",
      "Prevalence of Chronic illness in percentage DLHS-4": "Not available",
      "Households with solar energy as main source of lighting in percentage Houselisting and Housing Census Data Tables- District Level , Census of India__1": 0.427885381,
      "Marginal Workers Agricultural Labourers worked for 0 - 3 moths during last year - Females": 10690,
      "Main Workers - Males": 237468,
      "Female": 56.03,
      "Sno": 1898,
      "Marginal Workers Other worked for 3 - 6 moths during last year - Females": 13921,
      "Marginal Workers Cultivators worked for 0 - 3 moths during last year - Females": 4522,
      "Scheduled Tribe Males": 986,
      "Male Illiterates": 260317,
      "Prevalence of Severe Anaemia in pregnant women aged 15-49years in percentage DLHS-4": "Not available",
      "0-6 Age Group Persons": 258583,
      "Upper Primary Student-Classroom Ratio in percentage DISE": 24,
      "Currently married men married below 21years of age in percentage DLHS-4": 24.8,
      "Male Literates": 546782,
      "Households with no lighting in percentage Houselisting and Housing Census Data Tables- District Level , Census of India__2": 0.376448096,
      "Primary Drop Out Rate in percentage DISE": 5.5,
      "Marginal Workers Household Industry - Males": 12224,
      "Female Illiterates": 407750,
      "Main Workers Other - Females": 17014,
      "Marginal Workers Cultivators - Persons": 27170,
      "Upper Primary Gross Enrolment Ratio in percentage DISE": 77.1,
      "Scheduled Caste Persons": 353103,
      "Marginal Workers Cultivators worked for 3 - 6 moths during last year - Persons": 19091,
      "Households with landline phone in percentage": 3.11,
      "Total Households in District  Houselisting and Housing Census Data Tables- District Level , Census of India": 219685,
      "Upper Primary Pupil-Teacher Ratio in percentage DISE": 37,
      "Primary Student-Classroom Ratio in percentage DISE": 29,
      "Primary Schools with boys toilet in percentage DISE": 100.1,
      "Mean number of children ever born to women aged 40-49years  DLHS-4": "Not available",
      "Households receiving untreated tap water within premises  Houselisting and Housing Census Data Tables- District Level , Census of India__5": 1850,
      "Marginal Workers Household Industry worked for 0 - 3 moths during last year - Persons": 5695,
      "Total Male Population": 807099,
      "Non Workers - Females": 643661,
      "Current use of family planning methods in percentage DLHS-4": 50.4,
      "Households with main source of drinking water within premises  Houselisting and Housing Census Data Tables- District Level , Census of India__3": 60737,
      "Main Workers Agricultural Labourers - Males": 25592,
      "Marginal Workers Other worked for 0 - 3 moths during last year - Persons": 14258,
      "Currently married women married below 18years of age in percentage DLHS-4": 7.7,
      "Person Illiterates": 668067,
      "Main Workers Household Industry - Females": 10177,
      "Female Literates": 363364,
      "Marginal Workers Cultivators worked for 0 - 3 moths during last year - Males": 3557,
      "Male": 81.47,
      "Households with improved source of drinking water in percentage DLHS-4": "Not available",
      "Upper Primary Schools with electricity in percentage DISE": 31.7,
      "Households with electricity in percentage DLHS-4": "Not available",
      "Villages with Primary Health Centre within 10km in percentage DLHS-4": "Not available",
      "Births to women aged 15-19years out of Total births in percentage DLHS-4": "Not available",
      "Prevalence of Anaemia in women aged 15-49years in percentage DLHS-4": "Not available",
      "Marginal Workers Agricultural Labourers worked for 3 - 6 moths during last year - Persons": 49901,
      "Main Workers Household Industry - Males": 28786,
      "Scheduled Tribe Females": 887,
      "Marginal Workers worked for 0 - 3 moths during last year - Males": 22556,
      "Marginal Workers Other worked for 3 - 6 moths during last year - Males": 36276,
      "Primary Net Enrolment Ratio in percentage DISE": 88.3,
      "Total": 68.97,
      "Mean age at marriage for boys DLHS-4": 22.8,
      "Number of District Hospitals  DLHS-4": "Not available",
      "0-6 Age Group Females": 122604,
      "Marginal Workers Agricultural Labourers worked for 0 - 3 moths during last year - Persons": 18402,
      "Marginal Workers Household Industry worked for 0 - 3 moths during last year - Males": 2161,
      "Total Workers  Females": 127453,
      "Marginal Workers worked for 3 - 6 moths during last year - Females": 54065,
      "Institutional Deliveries in percentage DLHS-4": 61.4,
      "Marginal Workers Other - Males": 45402,
      "Total Workers  Males": 343155,
      "Main Workers - Females": 49510,
      "Primary Gross Enrolment Ratio in percentage DISE": 98.6,
      "Main Workers Cultivators - Persons": 67232,
      "Marginal Workers Household Industry worked for 0 - 3 moths during last year - Females": 3534,
      "Upper Primary Net Enrolment Ratio in percentage DISE": 60.2,
      "Primary New Government Schools since 2003 in percentage DISE": 27.6,
      "Tier": "Total",
      "Marginal Workers Household Industry - Females": 11478,
      "Primary Schools with electricity in percentage DISE": 37.2,
      "Main Workers Other - Persons": 144667,
      "Marginal Workers Household Industry worked for 3 - 6 moths during last year - Females": 7944,
      "Main Workers Cultivators - Males": 55437,
      "Main Workers Household Industry - Persons": 38963,
      "Marginal Workers Cultivators worked for 0 - 3 moths during last year - Persons": 8079,
      "Scheduled Caste Males": 182617,
      "Marginal Workers - Persons": 183630,
      "Deliveries at home conducted by skilled health personnel in percentage DLHS-4": 35.2,
      "Villages with Sub-Health Centres within 3km in percentage DLHS-4": "Not available",
      "Upper Primary New Government Schools since 2003 in percentage DISE": 59.1,
      "0-6 Age Group Males": 135979,
      "Primary Schools with drinking water facility in percentage DISE": 98.9,
      "Non Workers - Persons": 1107605,
      "Person Literates": 910146,
      "State": "UTTAR PRADESH",
      "Total Female Population": 771114,
      "Marginal Workers worked for 0 - 3 moths during last year - Persons": 46434,
      "Marginal Workers Cultivators - Females": 13356,
      "Marginal Workers Other - Persons": 64455,
      "Sex Ratio": 955,
      "Scheduled Tribe Persons": 1873,
      "Marginal Workers Household Industry worked for 3 - 6 moths during last year - Males": 10063,
      "Marginal Workers Agricultural Labourers - Females": 34056,
      "Mean age at marriage for girls DLHS-4": 20.7,
      "Households with solar energy as main source of lighting  Houselisting and Housing Census Data Tables- District Level , Census of India__4": 940,
      "District": "SANT RAVIDAS NAGAR BHADOHI",
      "Households receiving treated tap water within premises in percentage Houselisting and Housing Census Data Tables- District Level , Census of India__1": 6.544370348,
      "Total Workers  Persons": 470608,
      "Households receiving treated tap water within premises  Houselisting and Housing Census Data Tables- District Level , Census of India__4": 14377,
      "Primary Female Teachers in percentage DISE": 33.2,
      "Number of Households": 222403,
      "Main Workers Agricultural Labourers - Persons": 36116
    }
  ],
  "Rural": [
    {
      "Marginal Workers Agricultural Labourers - Persons": 66024,
      "Marginal Workers Other - Females": 16781,
      "Marginal Workers Other worked for 0 - 3 moths during last year - Females": 4703,
      "Upper Primary Schools with boys toilet in percentage DISE": "NA",
      "Total Population": 1348911,
      "Households with electricity as main source of lighting in percentage Houselisting and Housing Census Data Tables- District Level , Census of India": 32.1343066,
      "Primary Girl's Enrolment in percentage DISE": "NA",
      "Marginal Workers worked for 3 - 6 moths during last year - Males": 75071,
      "Prevalence of Acute illness in percentage DLHS-4": "Not available",
      "Main Workers - Persons": 234519,
      "Main Workers Cultivators - Females": 11431,
      "Marginal Workers Agricultural Labourers worked for 3 - 6 moths during last year - Females": 22680,
      "Marginal Workers Other worked for 0 - 3 moths during last year - Males": 8427,
      "Upper Primary Schools with drinking water facility in percentage DISE": "NA",
      "Primary Schools with girls toilet in percentage DISE": "NA",
      "Marginal Workers worked for 3 - 6 moths during last year - Persons": 125361,
      "Upper Primary Drop Out Rate in percentage DISE": "NA",
      "Prevalence of Anaemia in pregnant women aged 15-49years in percentage DLHS-4": "Not available",
      "Current use of any modern method of family planning in percentage DLHS-4": 39.1,
      "Marginal Workers Agricultural Labourers - Males": 32867,
      "Upper Primary Female Teachers in percentage DISE": "NA",
      "Marginal Workers - Females": 73095,
      "Marginal Workers Other worked for 3 - 6 moths during last year - Persons": 43463,
      "Main Workers Agricultural Labourers - Females": 10055,
      "Marginal Workers Cultivators worked for 3 - 6 moths during last year - Females": 8656,
      "Households with no lighting  Houselisting and Housing Census Data Tables- District Level , Census of India__5": 684,
      "Prevalence of Severe Anaemia  in percentage DLHS-4": "Not available",
      "Total unmet need for family planning in percentage DLHS-4": 24.5,
      "Main Workers Other - Males": 93078,
      "Children who received full vaccination in percentage DLHS-4": "Not available",
      "Marginal Workers Household Industry - Persons": 20220,
      "Primary Pupil-Teacher Ratio in percentage DISE": "NA",
      "Marginal Workers Agricultural Labourers worked for 3 - 6 moths during last year - Males": 25472,
      "Scheduled Caste Females": 156072,
      "Marginal Workers Cultivators - Males": 13483,
      "Marginal Workers - Males": 96357,
      "Marginal Workers worked for 0 - 3 moths during last year - Females": 22805,
      "Households with main source of drinking water within premises in percentage Houselisting and Housing Census Data Tables- District Level , Census of India": 24.03568882,
      "Marginal Workers Household Industry worked for 3 - 6 moths during last year - Persons": 15131,
      "Upper Primary Girl's Enrolment in percentage DISE": "NA",
      "Prevalence of Severe Anaemia in women aged 15-49years in percentage DLHS-4": "Not available",
      "Marginal Workers Agricultural Labourers worked for 0 - 3 moths during last year - Males": 7395,
      "Households with electricity as main source of lighting  Houselisting and Housing Census Data Tables- District Level , Census of India__3": 60399,
      "Households with computer or laptop with internet connection in percentage": 1.01,
      "PHCs functioning on a 24x7hours basis in percentage DLHS-4": "Not applicable",
      "Non Workers - Males": 397981,
      "Total Households in District Houselisting and Housing Census Data Tables- District Level , Census of India": 187958,
      "Upper Primary Schools with girls toilet in percentage DISE": "NA",
      "Households with mobile phone in percentage": 62.42,
      "Households receiving untreated tap water within premises in percentage Houselisting and Housing Census Data Tables- District Level , Census of India__2": 0.628863895,
      "Marginal Workers Cultivators worked for 3 - 6 moths during last year - Males": 9959,
      "Prevalence of Anaemia  in percentage DLHS-4": "Not available",
      "Prevalence of Chronic illness in percentage DLHS-4": "Not available",
      "Households with solar energy as main source of lighting in percentage Houselisting and Housing Census Data Tables- District Level , Census of India__1": 0.466061567,
      "Marginal Workers Agricultural Labourers worked for 0 - 3 moths during last year - Females": 10477,
      "Main Workers - Males": 192251,
      "Female": "NA",
      "Sno": 1897,
      "Marginal Workers Other worked for 3 - 6 moths during last year - Females": 12078,
      "Marginal Workers Cultivators worked for 0 - 3 moths during last year - Females": 4476,
      "Scheduled Tribe Males": 920,
      "Male Illiterates": 222637,
      "Prevalence of Severe Anaemia in pregnant women aged 15-49years in percentage DLHS-4": "Not available",
      "0-6 Age Group Persons": 223738,
      "Upper Primary Student-Classroom Ratio in percentage DISE": "NA",
      "Currently married men married below 21years of age in percentage DLHS-4": 28.7,
      "Male Literates": 463952,
      "Households with no lighting in percentage Houselisting and Housing Census Data Tables- District Level , Census of India__2": 0.363911087,
      "Primary Drop Out Rate in percentage DISE": "NA",
      "Marginal Workers Household Industry - Males": 10195,
      "Female Illiterates": 358404,
      "Main Workers Other - Females": 12679,
      "Marginal Workers Cultivators - Persons": 26615,
      "Upper Primary Gross Enrolment Ratio in percentage DISE": "NA",
      "Scheduled Caste Persons": 322782,
      "Marginal Workers Cultivators worked for 3 - 6 moths during last year - Persons": 18615,
      "Households with landline phone in percentage": 2.95,
      "Total Households in District  Houselisting and Housing Census Data Tables- District Level , Census of India": 187958,
      "Upper Primary Pupil-Teacher Ratio in percentage DISE": "NA",
      "Primary Student-Classroom Ratio in percentage DISE": "NA",
      "Primary Schools with boys toilet in percentage DISE": "NA",
      "Mean number of children ever born to women aged 40-49years  DLHS-4": "Not available",
      "Households receiving untreated tap water within premises  Houselisting and Housing Census Data Tables- District Level , Census of India__5": 1182,
      "Marginal Workers Household Industry worked for 0 - 3 moths during last year - Persons": 5089,
      "Total Male Population": 686589,
      "Non Workers - Females": 546959,
      "Current use of family planning methods in percentage DLHS-4": 51,
      "Households with main source of drinking water within premises  Houselisting and Housing Census Data Tables- District Level , Census of India__3": 45177,
      "Main Workers Agricultural Labourers - Males": 24258,
      "Marginal Workers Other worked for 0 - 3 moths during last year - Persons": 13130,
      "Currently married women married below 18years of age in percentage DLHS-4": 8.7,
      "Person Illiterates": 581041,
      "Main Workers Household Industry - Females": 8103,
      "Female Literates": 303918,
      "Marginal Workers Cultivators worked for 0 - 3 moths during last year - Males": 3524,
      "Male": "NA",
      "Households with improved source of drinking water in percentage DLHS-4": "Not available",
      "Upper Primary Schools with electricity in percentage DISE": "NA",
      "Households with electricity in percentage DLHS-4": "Not available",
      "Villages with Primary Health Centre within 10km in percentage DLHS-4": "Not applicable",
      "Births to women aged 15-19years out of Total births in percentage DLHS-4": "Not available",
      "Prevalence of Anaemia in women aged 15-49years in percentage DLHS-4": "Not available",
      "Marginal Workers Agricultural Labourers worked for 3 - 6 moths during last year - Persons": 48152,
      "Main Workers Household Industry - Males": 21002,
      "Scheduled Tribe Females": 838,
      "Marginal Workers worked for 0 - 3 moths during last year - Males": 21286,
      "Marginal Workers Other worked for 3 - 6 moths during last year - Males": 31385,
      "Primary Net Enrolment Ratio in percentage DISE": "NA",
      "Total": "NA",
      "Mean age at marriage for boys DLHS-4": 22.2,
      "Number of District Hospitals  DLHS-4": "Not applicable",
      "0-6 Age Group Females": 105922,
      "Marginal Workers Agricultural Labourers worked for 0 - 3 moths during last year - Persons": 17872,
      "Marginal Workers Household Industry worked for 0 - 3 moths during last year - Males": 1940,
      "Total Workers  Females": 115363,
      "Marginal Workers worked for 3 - 6 moths during last year - Females": 50290,
      "Institutional Deliveries in percentage DLHS-4": 62.8,
      "Marginal Workers Other - Males": 39812,
      "Total Workers  Males": 288608,
      "Main Workers - Females": 42268,
      "Primary Gross Enrolment Ratio in percentage DISE": "NA",
      "Main Workers Cultivators - Persons": 65344,
      "Marginal Workers Household Industry worked for 0 - 3 moths during last year - Females": 3149,
      "Upper Primary Net Enrolment Ratio in percentage DISE": "NA",
      "Primary New Government Schools since 2003 in percentage DISE": "NA",
      "Tier": "Rural",
      "Marginal Workers Household Industry - Females": 10025,
      "Primary Schools with electricity in percentage DISE": "NA",
      "Main Workers Other - Persons": 105757,
      "Marginal Workers Household Industry worked for 3 - 6 moths during last year - Females": 6876,
      "Main Workers Cultivators - Males": 53913,
      "Main Workers Household Industry - Persons": 29105,
      "Marginal Workers Cultivators worked for 0 - 3 moths during last year - Persons": 8000,
      "Scheduled Caste Males": 166710,
      "Marginal Workers - Persons": 169452,
      "Deliveries at home conducted by skilled health personnel in percentage DLHS-4": 33,
      "Villages with Sub-Health Centres within 3km in percentage DLHS-4": "Not applicable",
      "Upper Primary New Government Schools since 2003 in percentage DISE": "NA",
      "0-6 Age Group Males": 117816,
      "Primary Schools with drinking water facility in percentage DISE": "NA",
      "Non Workers - Persons": 944940,
      "Person Literates": 767870,
      "State": "UTTAR PRADESH",
      "Total Female Population": 662322,
      "Marginal Workers worked for 0 - 3 moths during last year - Persons": 44091,
      "Marginal Workers Cultivators - Females": 13132,
      "Marginal Workers Other - Persons": 56593,
      "Sex Ratio": 965,
      "Scheduled Tribe Persons": 1758,
      "Marginal Workers Household Industry worked for 3 - 6 moths during last year - Males": 8255,
      "Marginal Workers Agricultural Labourers - Females": 33157,
      "Mean age at marriage for girls DLHS-4": 20.4,
      "Households with solar energy as main source of lighting  Houselisting and Housing Census Data Tables- District Level , Census of India__4": 876,
      "District": "SANT RAVIDAS NAGAR BHADOHI",
      "Households receiving treated tap water within premises in percentage Houselisting and Housing Census Data Tables- District Level , Census of India__1": 2.218048713,
      "Total Workers  Persons": 403971,
      "Households receiving treated tap water within premises  Houselisting and Housing Census Data Tables- District Level , Census of India__4": 4169,
      "Primary Female Teachers in percentage DISE": "NA",
      "Number of Households": 189745,
      "Main Workers Agricultural Labourers - Persons": 34313
    }
  ],
  "Urban": [
    {
      "Marginal Workers Agricultural Labourers - Persons": 2279,
      "Marginal Workers Other - Females": 2272,
      "Marginal Workers Other worked for 0 - 3 moths during last year - Females": 429,
      "Upper Primary Schools with boys toilet in percentage DISE": "NA",
      "Total Population": 229302,
      "Households with electricity as main source of lighting in percentage Houselisting and Housing Census Data Tables- District Level , Census of India": 71.9292716,
      "Primary Girl's Enrolment in percentage DISE": "NA",
      "Marginal Workers worked for 3 - 6 moths during last year - Males": 8060,
      "Prevalence of Acute illness in percentage DLHS-4": "Not available",
      "Main Workers - Persons": 52459,
      "Main Workers Cultivators - Females": 364,
      "Marginal Workers Agricultural Labourers worked for 3 - 6 moths during last year - Females": 686,
      "Marginal Workers Other worked for 0 - 3 moths during last year - Males": 699,
      "Upper Primary Schools with drinking water facility in percentage DISE": "NA",
      "Primary Schools with girls toilet in percentage DISE": "NA",
      "Marginal Workers worked for 3 - 6 moths during last year - Persons": 11835,
      "Upper Primary Drop Out Rate in percentage DISE": "NA",
      "Prevalence of Anaemia in pregnant women aged 15-49years in percentage DLHS-4": "Not available",
      "Current use of any modern method of family planning in percentage DLHS-4": 37,
      "Marginal Workers Agricultural Labourers - Males": 1380,
      "Upper Primary Female Teachers in percentage DISE": "NA",
      "Marginal Workers - Females": 4848,
      "Marginal Workers Other worked for 3 - 6 moths during last year - Persons": 6734,
      "Main Workers Agricultural Labourers - Females": 469,
      "Marginal Workers Cultivators worked for 3 - 6 moths during last year - Females": 178,
      "Households with no lighting  Houselisting and Housing Census Data Tables- District Level , Census of India__5": 143,
      "Prevalence of Severe Anaemia  in percentage DLHS-4": "Not available",
      "Total unmet need for family planning in percentage DLHS-4": 19.5,
      "Main Workers Other - Males": 34575,
      "Children who received full vaccination in percentage DLHS-4": "Not available",
      "Marginal Workers Household Industry - Persons": 3482,
      "Primary Pupil-Teacher Ratio in percentage DISE": "NA",
      "Marginal Workers Agricultural Labourers worked for 3 - 6 moths during last year - Males": 1063,
      "Scheduled Caste Females": 14414,
      "Marginal Workers Cultivators - Males": 331,
      "Marginal Workers - Males": 9330,
      "Marginal Workers worked for 0 - 3 moths during last year - Females": 1073,
      "Households with main source of drinking water within premises in percentage Houselisting and Housing Census Data Tables- District Level , Census of India": 49.04340152,
      "Marginal Workers Household Industry worked for 3 - 6 moths during last year - Persons": 2876,
      "Upper Primary Girl's Enrolment in percentage DISE": "NA",
      "Prevalence of Severe Anaemia in women aged 15-49years in percentage DLHS-4": "Not available",
      "Marginal Workers Agricultural Labourers worked for 0 - 3 moths during last year - Males": 317,
      "Households with electricity as main source of lighting  Houselisting and Housing Census Data Tables- District Level , Census of India__3": 22821,
      "Households with computer or laptop with internet connection in percentage": -3.15,
      "PHCs functioning on a 24x7hours basis in percentage DLHS-4": 0,
      "Non Workers - Males": 65963,
      "Total Households in District Houselisting and Housing Census Data Tables- District Level , Census of India": 31727,
      "Upper Primary Schools with girls toilet in percentage DISE": "NA",
      "Households with mobile phone in percentage": 63.55,
      "Households receiving untreated tap water within premises in percentage Houselisting and Housing Census Data Tables- District Level , Census of India__2": 2.105462225,
      "Marginal Workers Cultivators worked for 3 - 6 moths during last year - Males": 298,
      "Prevalence of Anaemia  in percentage DLHS-4": "Not available",
      "Prevalence of Chronic illness in percentage DLHS-4": "Not available",
      "Households with solar energy as main source of lighting in percentage Houselisting and Housing Census Data Tables- District Level , Census of India__1": 0.201720932,
      "Marginal Workers Agricultural Labourers worked for 0 - 3 moths during last year - Females": 213,
      "Main Workers - Males": 45217,
      "Female": "NA",
      "Sno": 1899,
      "Marginal Workers Other worked for 3 - 6 moths during last year - Females": 1843,
      "Marginal Workers Cultivators worked for 0 - 3 moths during last year - Females": 46,
      "Scheduled Tribe Males": 66,
      "Male Illiterates": 37680,
      "Prevalence of Severe Anaemia in pregnant women aged 15-49years in percentage DLHS-4": "Not available",
      "0-6 Age Group Persons": 34845,
      "Upper Primary Student-Classroom Ratio in percentage DISE": "NA",
      "Currently married men married below 21years of age in percentage DLHS-4": 6,
      "Male Literates": 82830,
      "Households with no lighting in percentage Houselisting and Housing Census Data Tables- District Level , Census of India__2": 0.450720207,
      "Primary Drop Out Rate in percentage DISE": "NA",
      "Marginal Workers Household Industry - Males": 2029,
      "Female Illiterates": 49346,
      "Main Workers Other - Females": 4335,
      "Marginal Workers Cultivators - Persons": 555,
      "Upper Primary Gross Enrolment Ratio in percentage DISE": "NA",
      "Scheduled Caste Persons": 30321,
      "Marginal Workers Cultivators worked for 3 - 6 moths during last year - Persons": 476,
      "Households with landline phone in percentage": 4.06,
      "Total Households in District  Houselisting and Housing Census Data Tables- District Level , Census of India": 31727,
      "Upper Primary Pupil-Teacher Ratio in percentage DISE": "NA",
      "Primary Student-Classroom Ratio in percentage DISE": "NA",
      "Primary Schools with boys toilet in percentage DISE": "NA",
      "Mean number of children ever born to women aged 40-49years  DLHS-4": "Not available",
      "Households receiving untreated tap water within premises  Houselisting and Housing Census Data Tables- District Level , Census of India__5": 668,
      "Marginal Workers Household Industry worked for 0 - 3 moths during last year - Persons": 606,
      "Total Male Population": 120510,
      "Non Workers - Females": 96702,
      "Current use of family planning methods in percentage DLHS-4": 45.8,
      "Households with main source of drinking water within premises  Houselisting and Housing Census Data Tables- District Level , Census of India__3": 15560,
      "Main Workers Agricultural Labourers - Males": 1334,
      "Marginal Workers Other worked for 0 - 3 moths during last year - Persons": 1128,
      "Currently married women married below 18years of age in percentage DLHS-4": 2.3,
      "Person Illiterates": 87026,
      "Main Workers Household Industry - Females": 2074,
      "Female Literates": 59446,
      "Marginal Workers Cultivators worked for 0 - 3 moths during last year - Males": 33,
      "Male": "NA",
      "Households with improved source of drinking water in percentage DLHS-4": "Not available",
      "Upper Primary Schools with electricity in percentage DISE": "NA",
      "Households with electricity in percentage DLHS-4": "Not available",
      "Villages with Primary Health Centre within 10km in percentage DLHS-4": 0,
      "Births to women aged 15-19years out of Total births in percentage DLHS-4": "Not available",
      "Prevalence of Anaemia in women aged 15-49years in percentage DLHS-4": "Not available",
      "Marginal Workers Agricultural Labourers worked for 3 - 6 moths during last year - Persons": 1749,
      "Main Workers Household Industry - Males": 7784,
      "Scheduled Tribe Females": 49,
      "Marginal Workers worked for 0 - 3 moths during last year - Males": 1270,
      "Marginal Workers Other worked for 3 - 6 moths during last year - Males": 4891,
      "Primary Net Enrolment Ratio in percentage DISE": "NA",
      "Total": "NA",
      "Mean age at marriage for boys DLHS-4": 25.7,
      "Number of District Hospitals  DLHS-4": 0,
      "0-6 Age Group Females": 16682,
      "Marginal Workers Agricultural Labourers worked for 0 - 3 moths during last year - Persons": 530,
      "Marginal Workers Household Industry worked for 0 - 3 moths during last year - Males": 221,
      "Total Workers  Females": 12090,
      "Marginal Workers worked for 3 - 6 moths during last year - Females": 3775,
      "Institutional Deliveries in percentage DLHS-4": 49.4,
      "Marginal Workers Other - Males": 5590,
      "Total Workers  Males": 54547,
      "Main Workers - Females": 7242,
      "Primary Gross Enrolment Ratio in percentage DISE": "NA",
      "Main Workers Cultivators - Persons": 1888,
      "Marginal Workers Household Industry worked for 0 - 3 moths during last year - Females": 385,
      "Upper Primary Net Enrolment Ratio in percentage DISE": "NA",
      "Primary New Government Schools since 2003 in percentage DISE": "NA",
      "Tier": "Urban",
      "Marginal Workers Household Industry - Females": 1453,
      "Primary Schools with electricity in percentage DISE": "NA",
      "Main Workers Other - Persons": 38910,
      "Marginal Workers Household Industry worked for 3 - 6 moths during last year - Females": 1068,
      "Main Workers Cultivators - Males": 1524,
      "Main Workers Household Industry - Persons": 9858,
      "Marginal Workers Cultivators worked for 0 - 3 moths during last year - Persons": 79,
      "Scheduled Caste Males": 15907,
      "Marginal Workers - Persons": 14178,
      "Deliveries at home conducted by skilled health personnel in percentage DLHS-4": 49.6,
      "Villages with Sub-Health Centres within 3km in percentage DLHS-4": 0,
      "Upper Primary New Government Schools since 2003 in percentage DISE": "NA",
      "0-6 Age Group Males": 18163,
      "Primary Schools with drinking water facility in percentage DISE": "NA",
      "Non Workers - Persons": 162665,
      "Person Literates": 142276,
      "State": "UTTAR PRADESH",
      "Total Female Population": 108792,
      "Marginal Workers worked for 0 - 3 moths during last year - Persons": 2343,
      "Marginal Workers Cultivators - Females": 224,
      "Marginal Workers Other - Persons": 7862,
      "Sex Ratio": 903,
      "Scheduled Tribe Persons": 115,
      "Marginal Workers Household Industry worked for 3 - 6 moths during last year - Males": 1808,
      "Marginal Workers Agricultural Labourers - Females": 899,
      "Mean age at marriage for girls DLHS-4": 22.6,
      "Households with solar energy as main source of lighting  Houselisting and Housing Census Data Tables- District Level , Census of India__4": 64,
      "District": "SANT RAVIDAS NAGAR BHADOHI",
      "Households receiving treated tap water within premises in percentage Houselisting and Housing Census Data Tables- District Level , Census of India__1": 32.17448861,
      "Total Workers  Persons": 66637,
      "Households receiving treated tap water within premises  Houselisting and Housing Census Data Tables- District Level , Census of India__4": 10208,
      "Primary Female Teachers in percentage DISE": "NA",
      "Number of Households": 32658,
      "Main Workers Agricultural Labourers - Persons": 1803
    }
  ]
}