{
  "Total": [
    {
      "Marginal Workers Agricultural Labourers - Persons": 100172,
      "Marginal Workers Other - Females": 17703,
      "Marginal Workers Other worked for 0 - 3 moths during last year - Females": 2824,
      "Upper Primary Schools with boys toilet in percentage DISE": 100,
      "Total Population": 3006538,
      "Households with electricity as main source of lighting in percentage Houselisting and Housing Census Data Tables- District Level , Census of India": 22.22361593,
      "Primary Girl's Enrolment in percentage DISE": 46.9,
      "Marginal Workers worked for 3 - 6 moths during last year - Males": 122198,
      "Prevalence of Acute illness in percentage DLHS-4": "Not available",
      "Main Workers - Persons": 699503,
      "Main Workers Cultivators - Females": 13207,
      "Marginal Workers Agricultural Labourers worked for 3 - 6 moths during last year - Females": 12591,
      "Marginal Workers Other worked for 0 - 3 moths during last year - Males": 5149,
      "Upper Primary Schools with drinking water facility in percentage DISE": 97.7,
      "Primary Schools with girls toilet in percentage DISE": 100,
      "Marginal Workers worked for 3 - 6 moths during last year - Persons": 159573,
      "Upper Primary Drop Out Rate in percentage DISE": 5.79,
      "Prevalence of Anaemia in pregnant women aged 15-49years in percentage DLHS-4": "Not available",
      "Current use of any modern method of family planning in percentage DLHS-4": 30.6,
      "Marginal Workers Agricultural Labourers - Males": 82160,
      "Upper Primary Female Teachers in percentage DISE": 36.7,
      "Marginal Workers - Females": 50118,
      "Marginal Workers Other worked for 3 - 6 moths during last year - Persons": 49441,
      "Main Workers Agricultural Labourers - Females": 10962,
      "Marginal Workers Cultivators worked for 3 - 6 moths during last year - Females": 5000,
      "Households with no lighting  Houselisting and Housing Census Data Tables- District Level , Census of India__5": 841,
      "Prevalence of Severe Anaemia  in percentage DLHS-4": "Not available",
      "Total unmet need for family planning in percentage DLHS-4": 26.3,
      "Main Workers Other - Males": 155619,
      "Children who received full vaccination in percentage DLHS-4": "Not available",
      "Marginal Workers Household Industry - Persons": 11636,
      "Primary Pupil-Teacher Ratio in percentage DISE": 53,
      "Marginal Workers Agricultural Labourers worked for 3 - 6 moths during last year - Males": 70641,
      "Scheduled Caste Females": 247393,
      "Marginal Workers Cultivators - Males": 15655,
      "Marginal Workers - Males": 142593,
      "Marginal Workers worked for 0 - 3 moths during last year - Females": 12743,
      "Households with main source of drinking water within premises in percentage Houselisting and Housing Census Data Tables- District Level , Census of India": 71.13089322,
      "Marginal Workers Household Industry worked for 3 - 6 moths during last year - Persons": 8992,
      "Upper Primary Girl's Enrolment in percentage DISE": 49.9,
      "Prevalence of Severe Anaemia in women aged 15-49years in percentage DLHS-4": "Not available",
      "Marginal Workers Agricultural Labourers worked for 0 - 3 moths during last year - Males": 11519,
      "Households with electricity as main source of lighting  Houselisting and Housing Census Data Tables- District Level , Census of India__3": 115163,
      "Households with computer or laptop with internet connection in percentage": 0.75,
      "PHCs functioning on a 24x7hours basis in percentage DLHS-4": "Not available",
      "Non Workers - Males": 823090,
      "Total Households in District Houselisting and Housing Census Data Tables- District Level , Census of India": 518201,
      "Upper Primary Schools with girls toilet in percentage DISE": 100,
      "Households with mobile phone in percentage": 51.78,
      "Households receiving untreated tap water within premises in percentage Houselisting and Housing Census Data Tables- District Level , Census of India__2": 6.345221256,
      "Marginal Workers Cultivators worked for 3 - 6 moths during last year - Males": 12908,
      "Prevalence of Anaemia  in percentage DLHS-4": "Not available",
      "Prevalence of Chronic illness in percentage DLHS-4": "Not available",
      "Households with solar energy as main source of lighting in percentage Houselisting and Housing Census Data Tables- District Level , Census of India__1": 0.346583662,
      "Marginal Workers Agricultural Labourers worked for 0 - 3 moths during last year - Females": 5421,
      "Main Workers - Males": 640720,
      "Female": 49.57,
      "Sno": 1901,
      "Marginal Workers Other worked for 3 - 6 moths during last year - Females": 14879,
      "Marginal Workers Cultivators worked for 0 - 3 moths during last year - Females": 2834,
      "Scheduled Tribe Males": 259,
      "Male Illiterates": 691261,
      "Prevalence of Severe Anaemia in pregnant women aged 15-49years in percentage DLHS-4": "Not available",
      "0-6 Age Group Persons": 502625,
      "Upper Primary Student-Classroom Ratio in percentage DISE": 29,
      "Currently married men married below 21years of age in percentage DLHS-4": 29.4,
      "Male Literates": 915142,
      "Households with no lighting in percentage Houselisting and Housing Census Data Tables- District Level , Census of India__2": 0.162292238,
      "Primary Drop Out Rate in percentage DISE": 6.7,
      "Marginal Workers Household Industry - Males": 5067,
      "Female Illiterates": 824347,
      "Main Workers Other - Females": 27875,
      "Marginal Workers Cultivators - Persons": 23489,
      "Upper Primary Gross Enrolment Ratio in percentage DISE": 79.9,
      "Scheduled Caste Persons": 532673,
      "Marginal Workers Cultivators worked for 3 - 6 moths during last year - Persons": 17908,
      "Households with landline phone in percentage": 2.33,
      "Total Households in District  Houselisting and Housing Census Data Tables- District Level , Census of India": 518201,
      "Upper Primary Pupil-Teacher Ratio in percentage DISE": 43,
      "Primary Student-Classroom Ratio in percentage DISE": 32,
      "Primary Schools with boys toilet in percentage DISE": 100,
      "Mean number of children ever born to women aged 40-49years  DLHS-4": "Not available",
      "Households receiving untreated tap water within premises  Houselisting and Housing Census Data Tables- District Level , Census of India__5": 32881,
      "Marginal Workers Household Industry worked for 0 - 3 moths during last year - Persons": 2644,
      "Total Male Population": 1606403,
      "Non Workers - Females": 1291234,
      "Current use of family planning methods in percentage DLHS-4": 51.6,
      "Households with main source of drinking water within premises  Houselisting and Housing Census Data Tables- District Level , Census of India__3": 368601,
      "Main Workers Agricultural Labourers - Males": 164058,
      "Marginal Workers Other worked for 0 - 3 moths during last year - Persons": 7973,
      "Currently married women married below 18years of age in percentage DLHS-4": 8.3,
      "Person Illiterates": 1515608,
      "Main Workers Household Industry - Females": 6739,
      "Female Literates": 575788,
      "Marginal Workers Cultivators worked for 0 - 3 moths during last year - Males": 2747,
      "Male": 68.18,
      "Households with improved source of drinking water in percentage DLHS-4": "Not available",
      "Upper Primary Schools with electricity in percentage DISE": 24.8,
      "Households with electricity in percentage DLHS-4": "Not available",
      "Villages with Primary Health Centre within 10km in percentage DLHS-4": "Not available",
      "Births to women aged 15-19years out of Total births in percentage DLHS-4": "Not available",
      "Prevalence of Anaemia in women aged 15-49years in percentage DLHS-4": "Not available",
      "Marginal Workers Agricultural Labourers worked for 3 - 6 moths during last year - Persons": 83232,
      "Main Workers Household Industry - Males": 12766,
      "Scheduled Tribe Females": 249,
      "Marginal Workers worked for 0 - 3 moths during last year - Males": 20395,
      "Marginal Workers Other worked for 3 - 6 moths during last year - Males": 34562,
      "Primary Net Enrolment Ratio in percentage DISE": 100,
      "Total": 59.54,
      "Mean age at marriage for boys DLHS-4": 22.5,
      "Number of District Hospitals  DLHS-4": "Not available",
      "0-6 Age Group Females": 238519,
      "Marginal Workers Agricultural Labourers worked for 0 - 3 moths during last year - Persons": 16940,
      "Marginal Workers Household Industry worked for 0 - 3 moths during last year - Males": 980,
      "Total Workers  Females": 108901,
      "Marginal Workers worked for 3 - 6 moths during last year - Females": 37375,
      "Institutional Deliveries in percentage DLHS-4": 47.1,
      "Marginal Workers Other - Males": 39711,
      "Total Workers  Males": 783313,
      "Main Workers - Females": 58783,
      "Primary Gross Enrolment Ratio in percentage DISE": 115,
      "Main Workers Cultivators - Persons": 321484,
      "Marginal Workers Household Industry worked for 0 - 3 moths during last year - Females": 1664,
      "Upper Primary Net Enrolment Ratio in percentage DISE": 64.6,
      "Primary New Government Schools since 2003 in percentage DISE": 16.9,
      "Tier": "Total",
      "Marginal Workers Household Industry - Females": 6569,
      "Primary Schools with electricity in percentage DISE": 27.5,
      "Main Workers Other - Persons": 183494,
      "Marginal Workers Household Industry worked for 3 - 6 moths during last year - Females": 4905,
      "Main Workers Cultivators - Males": 308277,
      "Main Workers Household Industry - Persons": 19505,
      "Marginal Workers Cultivators worked for 0 - 3 moths during last year - Persons": 5581,
      "Scheduled Caste Males": 285280,
      "Marginal Workers - Persons": 192711,
      "Deliveries at home conducted by skilled health personnel in percentage DLHS-4": 12.1,
      "Villages with Sub-Health Centres within 3km in percentage DLHS-4": "Not available",
      "Upper Primary New Government Schools since 2003 in percentage DISE": 70.4,
      "0-6 Age Group Males": 264106,
      "Primary Schools with drinking water facility in percentage DISE": 99.9,
      "Non Workers - Persons": 2114324,
      "Person Literates": 1490930,
      "State": "UTTAR PRADESH",
      "Total Female Population": 1400135,
      "Marginal Workers worked for 0 - 3 moths during last year - Persons": 33138,
      "Marginal Workers Cultivators - Females": 7834,
      "Marginal Workers Other - Persons": 57414,
      "Sex Ratio": 872,
      "Scheduled Tribe Persons": 508,
      "Marginal Workers Household Industry worked for 3 - 6 moths during last year - Males": 4087,
      "Marginal Workers Agricultural Labourers - Females": 18012,
      "Mean age at marriage for girls DLHS-4": 20.8,
      "Households with solar energy as main source of lighting  Houselisting and Housing Census Data Tables- District Level , Census of India__4": 1796,
      "District": "SHAHJAHANPUR",
      "Households receiving treated tap water within premises in percentage Houselisting and Housing Census Data Tables- District Level , Census of India__1": 16.90212871,
      "Total Workers  Persons": 892214,
      "Households receiving treated tap water within premises  Houselisting and Housing Census Data Tables- District Level , Census of India__4": 87587,
      "Primary Female Teachers in percentage DISE": 40.7,
      "Number of Households": 527501,
      "Main Workers Agricultural Labourers - Persons": 175020
    }
  ],
  "Rural": [
    {
      "Marginal Workers Agricultural Labourers - Persons": 93585,
      "Marginal Workers Other - Females": 12504,
      "Marginal Workers Other worked for 0 - 3 moths during last year - Females": 1996,
      "Upper Primary Schools with boys toilet in percentage DISE": "NA",
      "Total Population": 2412446,
      "Households with electricity as main source of lighting in percentage Houselisting and Housing Census Data Tables- District Level , Census of India": 11.66487976,
      "Primary Girl's Enrolment in percentage DISE": "NA",
      "Marginal Workers worked for 3 - 6 moths during last year - Males": 98679,
      "Prevalence of Acute illness in percentage DLHS-4": "Not available",
      "Main Workers - Persons": 560332,
      "Main Workers Cultivators - Females": 12897,
      "Marginal Workers Agricultural Labourers worked for 3 - 6 moths during last year - Females": 12015,
      "Marginal Workers Other worked for 0 - 3 moths during last year - Males": 2895,
      "Upper Primary Schools with drinking water facility in percentage DISE": "NA",
      "Primary Schools with girls toilet in percentage DISE": "NA",
      "Marginal Workers worked for 3 - 6 moths during last year - Persons": 130046,
      "Upper Primary Drop Out Rate in percentage DISE": "NA",
      "Prevalence of Anaemia in pregnant women aged 15-49years in percentage DLHS-4": "Not available",
      "Current use of any modern method of family planning in percentage DLHS-4": 26.2,
      "Marginal Workers Agricultural Labourers - Males": 76295,
      "Upper Primary Female Teachers in percentage DISE": "NA",
      "Marginal Workers - Females": 42854,
      "Marginal Workers Other worked for 3 - 6 moths during last year - Persons": 28578,
      "Main Workers Agricultural Labourers - Females": 10386,
      "Marginal Workers Cultivators worked for 3 - 6 moths during last year - Females": 4894,
      "Households with no lighting  Houselisting and Housing Census Data Tables- District Level , Census of India__5": 549,
      "Prevalence of Severe Anaemia  in percentage DLHS-4": "Not available",
      "Total unmet need for family planning in percentage DLHS-4": 29.4,
      "Main Workers Other - Males": 57959,
      "Children who received full vaccination in percentage DLHS-4": "Not available",
      "Marginal Workers Household Industry - Persons": 8906,
      "Primary Pupil-Teacher Ratio in percentage DISE": "NA",
      "Marginal Workers Agricultural Labourers worked for 3 - 6 moths during last year - Males": 65383,
      "Scheduled Caste Females": 222172,
      "Marginal Workers Cultivators - Males": 15107,
      "Marginal Workers - Males": 115924,
      "Marginal Workers worked for 0 - 3 moths during last year - Females": 11487,
      "Households with main source of drinking water within premises in percentage Houselisting and Housing Census Data Tables- District Level , Census of India": 66.62002402,
      "Marginal Workers Household Industry worked for 3 - 6 moths during last year - Persons": 6753,
      "Upper Primary Girl's Enrolment in percentage DISE": "NA",
      "Prevalence of Severe Anaemia in women aged 15-49years in percentage DLHS-4": "Not available",
      "Marginal Workers Agricultural Labourers worked for 0 - 3 moths during last year - Males": 10912,
      "Households with electricity as main source of lighting  Houselisting and Housing Census Data Tables- District Level , Census of India__3": 48851,
      "Households with computer or laptop with internet connection in percentage": 0.44,
      "PHCs functioning on a 24x7hours basis in percentage DLHS-4": "Not applicable",
      "Non Workers - Males": 662730,
      "Total Households in District Houselisting and Housing Census Data Tables- District Level , Census of India": 418787,
      "Upper Primary Schools with girls toilet in percentage DISE": "NA",
      "Households with mobile phone in percentage": 49.93,
      "Households receiving untreated tap water within premises in percentage Houselisting and Housing Census Data Tables- District Level , Census of India__2": 6.505216256,
      "Marginal Workers Cultivators worked for 3 - 6 moths during last year - Males": 12423,
      "Prevalence of Anaemia  in percentage DLHS-4": "Not available",
      "Prevalence of Chronic illness in percentage DLHS-4": "Not available",
      "Households with solar energy as main source of lighting in percentage Houselisting and Housing Census Data Tables- District Level , Census of India__1": 0.401874939,
      "Marginal Workers Agricultural Labourers worked for 0 - 3 moths during last year - Females": 5275,
      "Main Workers - Males": 515060,
      "Female": "NA",
      "Sno": 1900,
      "Marginal Workers Other worked for 3 - 6 moths during last year - Females": 10508,
      "Marginal Workers Cultivators worked for 0 - 3 moths during last year - Females": 2817,
      "Scheduled Tribe Males": 122,
      "Male Illiterates": 568351,
      "Prevalence of Severe Anaemia in pregnant women aged 15-49years in percentage DLHS-4": "Not available",
      "0-6 Age Group Persons": 425780,
      "Upper Primary Student-Classroom Ratio in percentage DISE": "NA",
      "Currently married men married below 21years of age in percentage DLHS-4": 35.4,
      "Male Literates": 725363,
      "Households with no lighting in percentage Houselisting and Housing Census Data Tables- District Level , Census of India__2": 0.131092894,
      "Primary Drop Out Rate in percentage DISE": "NA",
      "Marginal Workers Household Industry - Males": 3557,
      "Female Illiterates": 687273,
      "Main Workers Other - Females": 17057,
      "Marginal Workers Cultivators - Persons": 22818,
      "Upper Primary Gross Enrolment Ratio in percentage DISE": "NA",
      "Scheduled Caste Persons": 479352,
      "Marginal Workers Cultivators worked for 3 - 6 moths during last year - Persons": 17317,
      "Households with landline phone in percentage": 1.99,
      "Total Households in District  Houselisting and Housing Census Data Tables- District Level , Census of India": 418787,
      "Upper Primary Pupil-Teacher Ratio in percentage DISE": "NA",
      "Primary Student-Classroom Ratio in percentage DISE": "NA",
      "Primary Schools with boys toilet in percentage DISE": "NA",
      "Mean number of children ever born to women aged 40-49years  DLHS-4": "Not available",
      "Households receiving untreated tap water within premises  Houselisting and Housing Census Data Tables- District Level , Census of India__5": 27243,
      "Marginal Workers Household Industry worked for 0 - 3 moths during last year - Persons": 2153,
      "Total Male Population": 1293714,
      "Non Workers - Females": 1030606,
      "Current use of family planning methods in percentage DLHS-4": 48,
      "Households with main source of drinking water within premises  Houselisting and Housing Census Data Tables- District Level , Census of India__3": 278996,
      "Main Workers Agricultural Labourers - Males": 148310,
      "Marginal Workers Other worked for 0 - 3 moths during last year - Persons": 4891,
      "Currently married women married below 18years of age in percentage DLHS-4": 10,
      "Person Illiterates": 1255624,
      "Main Workers Household Industry - Females": 4932,
      "Female Literates": 431459,
      "Marginal Workers Cultivators worked for 0 - 3 moths during last year - Males": 2684,
      "Male": "NA",
      "Households with improved source of drinking water in percentage DLHS-4": "Not available",
      "Upper Primary Schools with electricity in percentage DISE": "NA",
      "Households with electricity in percentage DLHS-4": "Not available",
      "Villages with Primary Health Centre within 10km in percentage DLHS-4": "Not applicable",
      "Births to women aged 15-19years out of Total births in percentage DLHS-4": "Not available",
      "Prevalence of Anaemia in women aged 15-49years in percentage DLHS-4": "Not available",
      "Marginal Workers Agricultural Labourers worked for 3 - 6 moths during last year - Persons": 77398,
      "Main Workers Household Industry - Males": 7083,
      "Scheduled Tribe Females": 129,
      "Marginal Workers worked for 0 - 3 moths during last year - Males": 17245,
      "Marginal Workers Other worked for 3 - 6 moths during last year - Males": 18070,
      "Primary Net Enrolment Ratio in percentage DISE": "NA",
      "Total": "NA",
      "Mean age at marriage for boys DLHS-4": 21.9,
      "Number of District Hospitals  DLHS-4": "Not applicable",
      "0-6 Age Group Females": 202446,
      "Marginal Workers Agricultural Labourers worked for 0 - 3 moths during last year - Persons": 16187,
      "Marginal Workers Household Industry worked for 0 - 3 moths during last year - Males": 754,
      "Total Workers  Females": 88126,
      "Marginal Workers worked for 3 - 6 moths during last year - Females": 31367,
      "Institutional Deliveries in percentage DLHS-4": 45,
      "Marginal Workers Other - Males": 20965,
      "Total Workers  Males": 630984,
      "Main Workers - Females": 45272,
      "Primary Gross Enrolment Ratio in percentage DISE": "NA",
      "Main Workers Cultivators - Persons": 314605,
      "Marginal Workers Household Industry worked for 0 - 3 moths during last year - Females": 1399,
      "Upper Primary Net Enrolment Ratio in percentage DISE": "NA",
      "Primary New Government Schools since 2003 in percentage DISE": "NA",
      "Tier": "Rural",
      "Marginal Workers Household Industry - Females": 5349,
      "Primary Schools with electricity in percentage DISE": "NA",
      "Main Workers Other - Persons": 75016,
      "Marginal Workers Household Industry worked for 3 - 6 moths during last year - Females": 3950,
      "Main Workers Cultivators - Males": 301708,
      "Main Workers Household Industry - Persons": 12015,
      "Marginal Workers Cultivators worked for 0 - 3 moths during last year - Persons": 5501,
      "Scheduled Caste Males": 257180,
      "Marginal Workers - Persons": 158778,
      "Deliveries at home conducted by skilled health personnel in percentage DLHS-4": 10.7,
      "Villages with Sub-Health Centres within 3km in percentage DLHS-4": "Not applicable",
      "Upper Primary New Government Schools since 2003 in percentage DISE": "NA",
      "0-6 Age Group Males": 223334,
      "Primary Schools with drinking water facility in percentage DISE": "NA",
      "Non Workers - Persons": 1693336,
      "Person Literates": 1156822,
      "State": "UTTAR PRADESH",
      "Total Female Population": 1118732,
      "Marginal Workers worked for 0 - 3 moths during last year - Persons": 28732,
      "Marginal Workers Cultivators - Females": 7711,
      "Marginal Workers Other - Persons": 33469,
      "Sex Ratio": 865,
      "Scheduled Tribe Persons": 251,
      "Marginal Workers Household Industry worked for 3 - 6 moths during last year - Males": 2803,
      "Marginal Workers Agricultural Labourers - Females": 17290,
      "Mean age at marriage for girls DLHS-4": 20.4,
      "Households with solar energy as main source of lighting  Houselisting and Housing Census Data Tables- District Level , Census of India__4": 1683,
      "District": "SHAHJAHANPUR",
      "Households receiving treated tap water within premises in percentage Houselisting and Housing Census Data Tables- District Level , Census of India__1": 15.74786228,
      "Total Workers  Persons": 719110,
      "Households receiving treated tap water within premises  Houselisting and Housing Census Data Tables- District Level , Census of India__4": 65950,
      "Primary Female Teachers in percentage DISE": "NA",
      "Number of Households": 425057,
      "Main Workers Agricultural Labourers - Persons": 158696
    }
  ],
  "Urban": [
    {
      "Marginal Workers Agricultural Labourers - Persons": 6587,
      "Marginal Workers Other - Females": 5199,
      "Marginal Workers Other worked for 0 - 3 moths during last year - Females": 828,
      "Upper Primary Schools with boys toilet in percentage DISE": "NA",
      "Total Population": 594092,
      "Households with electricity as main source of lighting in percentage Houselisting and Housing Census Data Tables- District Level , Census of India": 66.70287887,
      "Primary Girl's Enrolment in percentage DISE": "NA",
      "Marginal Workers worked for 3 - 6 moths during last year - Males": 23519,
      "Prevalence of Acute illness in percentage DLHS-4": "Not available",
      "Main Workers - Persons": 139171,
      "Main Workers Cultivators - Females": 310,
      "Marginal Workers Agricultural Labourers worked for 3 - 6 moths during last year - Females": 576,
      "Marginal Workers Other worked for 0 - 3 moths during last year - Males": 2254,
      "Upper Primary Schools with drinking water facility in percentage DISE": "NA",
      "Primary Schools with girls toilet in percentage DISE": "NA",
      "Marginal Workers worked for 3 - 6 moths during last year - Persons": 29527,
      "Upper Primary Drop Out Rate in percentage DISE": "NA",
      "Prevalence of Anaemia in pregnant women aged 15-49years in percentage DLHS-4": "Not available",
      "Current use of any modern method of family planning in percentage DLHS-4": 51.6,
      "Marginal Workers Agricultural Labourers - Males": 5865,
      "Upper Primary Female Teachers in percentage DISE": "NA",
      "Marginal Workers - Females": 7264,
      "Marginal Workers Other worked for 3 - 6 moths during last year - Persons": 20863,
      "Main Workers Agricultural Labourers - Females": 576,
      "Marginal Workers Cultivators worked for 3 - 6 moths during last year - Females": 106,
      "Households with no lighting  Houselisting and Housing Census Data Tables- District Level , Census of India__5": 292,
      "Prevalence of Severe Anaemia  in percentage DLHS-4": "Not available",
      "Total unmet need for family planning in percentage DLHS-4": 11.2,
      "Main Workers Other - Males": 97660,
      "Children who received full vaccination in percentage DLHS-4": "Not available",
      "Marginal Workers Household Industry - Persons": 2730,
      "Primary Pupil-Teacher Ratio in percentage DISE": "NA",
      "Marginal Workers Agricultural Labourers worked for 3 - 6 moths during last year - Males": 5258,
      "Scheduled Caste Females": 25221,
      "Marginal Workers Cultivators - Males": 548,
      "Marginal Workers - Males": 26669,
      "Marginal Workers worked for 0 - 3 moths during last year - Females": 1256,
      "Households with main source of drinking water within premises in percentage Houselisting and Housing Census Data Tables- District Level , Census of India": 90.13318044,
      "Marginal Workers Household Industry worked for 3 - 6 moths during last year - Persons": 2239,
      "Upper Primary Girl's Enrolment in percentage DISE": "NA",
      "Prevalence of Severe Anaemia in women aged 15-49years in percentage DLHS-4": "Not available",
      "Marginal Workers Agricultural Labourers worked for 0 - 3 moths during last year - Males": 607,
      "Households with electricity as main source of lighting  Houselisting and Housing Census Data Tables- District Level , Census of India__3": 66312,
      "Households with computer or laptop with internet connection in percentage": 2.05,
      "PHCs functioning on a 24x7hours basis in percentage DLHS-4": 0,
      "Non Workers - Males": 160360,
      "Total Households in District Houselisting and Housing Census Data Tables- District Level , Census of India": 99414,
      "Upper Primary Schools with girls toilet in percentage DISE": "NA",
      "Households with mobile phone in percentage": 59.58,
      "Households receiving untreated tap water within premises in percentage Houselisting and Housing Census Data Tables- District Level , Census of India__2": 5.671233428,
      "Marginal Workers Cultivators worked for 3 - 6 moths during last year - Males": 485,
      "Prevalence of Anaemia  in percentage DLHS-4": "Not available",
      "Prevalence of Chronic illness in percentage DLHS-4": "Not available",
      "Households with solar energy as main source of lighting in percentage Houselisting and Housing Census Data Tables- District Level , Census of India__1": 0.113666083,
      "Marginal Workers Agricultural Labourers worked for 0 - 3 moths during last year - Females": 146,
      "Main Workers - Males": 125660,
      "Female": "NA",
      "Sno": 1902,
      "Marginal Workers Other worked for 3 - 6 moths during last year - Females": 4371,
      "Marginal Workers Cultivators worked for 0 - 3 moths during last year - Females": 17,
      "Scheduled Tribe Males": 137,
      "Male Illiterates": 122910,
      "Prevalence of Severe Anaemia in pregnant women aged 15-49years in percentage DLHS-4": "Not available",
      "0-6 Age Group Persons": 76845,
      "Upper Primary Student-Classroom Ratio in percentage DISE": "NA",
      "Currently married men married below 21years of age in percentage DLHS-4": 6.8,
      "Male Literates": 189779,
      "Households with no lighting in percentage Houselisting and Housing Census Data Tables- District Level , Census of India__2": 0.293721206,
      "Primary Drop Out Rate in percentage DISE": "NA",
      "Marginal Workers Household Industry - Males": 1510,
      "Female Illiterates": 137074,
      "Main Workers Other - Females": 10818,
      "Marginal Workers Cultivators - Persons": 671,
      "Upper Primary Gross Enrolment Ratio in percentage DISE": "NA",
      "Scheduled Caste Persons": 53321,
      "Marginal Workers Cultivators worked for 3 - 6 moths during last year - Persons": 591,
      "Households with landline phone in percentage": 3.78,
      "Total Households in District  Houselisting and Housing Census Data Tables- District Level , Census of India": 99414,
      "Upper Primary Pupil-Teacher Ratio in percentage DISE": "NA",
      "Primary Student-Classroom Ratio in percentage DISE": "NA",
      "Primary Schools with boys toilet in percentage DISE": "NA",
      "Mean number of children ever born to women aged 40-49years  DLHS-4": "Not available",
      "Households receiving untreated tap water within premises  Houselisting and Housing Census Data Tables- District Level , Census of India__5": 5638,
      "Marginal Workers Household Industry worked for 0 - 3 moths during last year - Persons": 491,
      "Total Male Population": 312689,
      "Non Workers - Females": 260628,
      "Current use of family planning methods in percentage DLHS-4": 69.2,
      "Households with main source of drinking water within premises  Houselisting and Housing Census Data Tables- District Level , Census of India__3": 89605,
      "Main Workers Agricultural Labourers - Males": 15748,
      "Marginal Workers Other worked for 0 - 3 moths during last year - Persons": 3082,
      "Currently married women married below 18years of age in percentage DLHS-4": 0.7,
      "Person Illiterates": 259984,
      "Main Workers Household Industry - Females": 1807,
      "Female Literates": 144329,
      "Marginal Workers Cultivators worked for 0 - 3 moths during last year - Males": 63,
      "Male": "NA",
      "Households with improved source of drinking water in percentage DLHS-4": "Not available",
      "Upper Primary Schools with electricity in percentage DISE": "NA",
      "Households with electricity in percentage DLHS-4": "Not available",
      "Villages with Primary Health Centre within 10km in percentage DLHS-4": 0,
      "Births to women aged 15-19years out of Total births in percentage DLHS-4": "Not available",
      "Prevalence of Anaemia in women aged 15-49years in percentage DLHS-4": "Not available",
      "Marginal Workers Agricultural Labourers worked for 3 - 6 moths during last year - Persons": 5834,
      "Main Workers Household Industry - Males": 5683,
      "Scheduled Tribe Females": 120,
      "Marginal Workers worked for 0 - 3 moths during last year - Males": 3150,
      "Marginal Workers Other worked for 3 - 6 moths during last year - Males": 16492,
      "Primary Net Enrolment Ratio in percentage DISE": "NA",
      "Total": "NA",
      "Mean age at marriage for boys DLHS-4": 25.2,
      "Number of District Hospitals  DLHS-4": 0,
      "0-6 Age Group Females": 36073,
      "Marginal Workers Agricultural Labourers worked for 0 - 3 moths during last year - Persons": 753,
      "Marginal Workers Household Industry worked for 0 - 3 moths during last year - Males": 226,
      "Total Workers  Females": 20775,
      "Marginal Workers worked for 3 - 6 moths during last year - Females": 6008,
      "Institutional Deliveries in percentage DLHS-4": 60.8,
      "Marginal Workers Other - Males": 18746,
      "Total Workers  Males": 152329,
      "Main Workers - Females": 13511,
      "Primary Gross Enrolment Ratio in percentage DISE": "NA",
      "Main Workers Cultivators - Persons": 6879,
      "Marginal Workers Household Industry worked for 0 - 3 moths during last year - Females": 265,
      "Upper Primary Net Enrolment Ratio in percentage DISE": "NA",
      "Primary New Government Schools since 2003 in percentage DISE": "NA",
      "Tier": "Urban",
      "Marginal Workers Household Industry - Females": 1220,
      "Primary Schools with electricity in percentage DISE": "NA",
      "Main Workers Other - Persons": 108478,
      "Marginal Workers Household Industry worked for 3 - 6 moths during last year - Females": 955,
      "Main Workers Cultivators - Males": 6569,
      "Main Workers Household Industry - Persons": 7490,
      "Marginal Workers Cultivators worked for 0 - 3 moths during last year - Persons": 80,
      "Scheduled Caste Males": 28100,
      "Marginal Workers - Persons": 33933,
      "Deliveries at home conducted by skilled health personnel in percentage DLHS-4": 25.1,
      "Villages with Sub-Health Centres within 3km in percentage DLHS-4": 0,
      "Upper Primary New Government Schools since 2003 in percentage DISE": "NA",
      "0-6 Age Group Males": 40772,
      "Primary Schools with drinking water facility in percentage DISE": "NA",
      "Non Workers - Persons": 420988,
      "Person Literates": 334108,
      "State": "UTTAR PRADESH",
      "Total Female Population": 281403,
      "Marginal Workers worked for 0 - 3 moths during last year - Persons": 4406,
      "Marginal Workers Cultivators - Females": 123,
      "Marginal Workers Other - Persons": 23945,
      "Sex Ratio": 900,
      "Scheduled Tribe Persons": 257,
      "Marginal Workers Household Industry worked for 3 - 6 moths during last year - Males": 1284,
      "Marginal Workers Agricultural Labourers - Females": 722,
      "Mean age at marriage for girls DLHS-4": 22.7,
      "Households with solar energy as main source of lighting  Houselisting and Housing Census Data Tables- District Level , Census of India__4": 113,
      "District": "SHAHJAHANPUR",
      "Households receiving treated tap water within premises in percentage Houselisting and Housing Census Data Tables- District Level , Census of India__1": 21.76454021,
      "Total Workers  Persons": 173104,
      "Households receiving treated tap water within premises  Houselisting and Housing Census Data Tables- District Level , Census of India__4": 21637,
      "Primary Female Teachers in percentage DISE": "NA",
      "Number of Households": 102444,
      "Main Workers Agricultural Labourers - Persons": 16324
    }
  ]
}