{
  "Total": [
    {
      "Marginal Workers Agricultural Labourers - Persons": 311907,
      "Marginal Workers Other - Females": 39382,
      "Marginal Workers Other worked for 0 - 3 moths during last year - Females": 7942,
      "Upper Primary Schools with boys toilet in percentage DISE": 100,
      "Total Population": 3797117,
      "Households with electricity as main source of lighting in percentage Houselisting and Housing Census Data Tables- District Level , Census of India": 37.21797985,
      "Primary Girl's Enrolment in percentage DISE": 49,
      "Marginal Workers worked for 3 - 6 moths during last year - Males": 250504,
      "Prevalence of Acute illness in percentage DLHS-4": "Not available",
      "Main Workers - Persons": 690967,
      "Main Workers Cultivators - Females": 38094,
      "Marginal Workers Agricultural Labourers worked for 3 - 6 moths during last year - Females": 95187,
      "Marginal Workers Other worked for 0 - 3 moths during last year - Males": 13816,
      "Upper Primary Schools with drinking water facility in percentage DISE": 91.3,
      "Primary Schools with girls toilet in percentage DISE": 100,
      "Marginal Workers worked for 3 - 6 moths during last year - Persons": 416951,
      "Upper Primary Drop Out Rate in percentage DISE": "Not available",
      "Prevalence of Anaemia in pregnant women aged 15-49years in percentage DLHS-4": "Not available",
      "Current use of any modern method of family planning in percentage DLHS-4": 38.6,
      "Marginal Workers Agricultural Labourers - Males": 178808,
      "Upper Primary Female Teachers in percentage DISE": 29.8,
      "Marginal Workers - Females": 230142,
      "Marginal Workers Other worked for 3 - 6 moths during last year - Persons": 89732,
      "Main Workers Agricultural Labourers - Females": 50416,
      "Marginal Workers Cultivators worked for 3 - 6 moths during last year - Females": 26512,
      "Households with no lighting  Houselisting and Housing Census Data Tables- District Level , Census of India__5": 642,
      "Prevalence of Severe Anaemia  in percentage DLHS-4": "Not available",
      "Total unmet need for family planning in percentage DLHS-4": 44,
      "Main Workers Other - Males": 164856,
      "Children who received full vaccination in percentage DLHS-4": "Not available",
      "Marginal Workers Household Industry - Persons": 39422,
      "Primary Pupil-Teacher Ratio in percentage DISE": 36,
      "Marginal Workers Agricultural Labourers worked for 3 - 6 moths during last year - Males": 138822,
      "Scheduled Caste Females": 420149,
      "Marginal Workers Cultivators - Males": 50460,
      "Marginal Workers - Males": 321523,
      "Marginal Workers worked for 0 - 3 moths during last year - Females": 63695,
      "Households with main source of drinking water within premises in percentage Houselisting and Housing Census Data Tables- District Level , Census of India": 36.20416451,
      "Marginal Workers Household Industry worked for 3 - 6 moths during last year - Persons": 28195,
      "Upper Primary Girl's Enrolment in percentage DISE": 52.2,
      "Prevalence of Severe Anaemia in women aged 15-49years in percentage DLHS-4": "Not available",
      "Marginal Workers Agricultural Labourers worked for 0 - 3 moths during last year - Males": 39986,
      "Households with electricity as main source of lighting  Houselisting and Housing Census Data Tables- District Level , Census of India__3": 233701,
      "Households with computer or laptop with internet connection in percentage": 0.95,
      "PHCs functioning on a 24x7hours basis in percentage DLHS-4": "Not available",
      "Non Workers - Males": 1044748,
      "Total Households in District Houselisting and Housing Census Data Tables- District Level , Census of India": 627925,
      "Upper Primary Schools with girls toilet in percentage DISE": 100,
      "Households with mobile phone in percentage": 64.72,
      "Households receiving untreated tap water within premises in percentage Houselisting and Housing Census Data Tables- District Level , Census of India__2": 2.880758052,
      "Marginal Workers Cultivators worked for 3 - 6 moths during last year - Males": 38503,
      "Prevalence of Anaemia  in percentage DLHS-4": "Not available",
      "Prevalence of Chronic illness in percentage DLHS-4": "Not available",
      "Households with solar energy as main source of lighting in percentage Houselisting and Housing Census Data Tables- District Level , Census of India__1": 0.33937174,
      "Marginal Workers Agricultural Labourers worked for 0 - 3 moths during last year - Females": 37912,
      "Main Workers - Males": 548315,
      "Female": 58.28,
      "Sno": 1919,
      "Marginal Workers Other worked for 3 - 6 moths during last year - Females": 31440,
      "Marginal Workers Cultivators worked for 0 - 3 moths during last year - Females": 11874,
      "Scheduled Tribe Males": 358,
      "Male Illiterates": 614338,
      "Prevalence of Severe Anaemia in pregnant women aged 15-49years in percentage DLHS-4": "Not available",
      "0-6 Age Group Persons": 563373,
      "Upper Primary Student-Classroom Ratio in percentage DISE": 23,
      "Currently married men married below 21years of age in percentage DLHS-4": 22.2,
      "Male Literates": 1300248,
      "Households with no lighting in percentage Houselisting and Housing Census Data Tables- District Level , Census of India__2": 0.10224151,
      "Primary Drop Out Rate in percentage DISE": 2.6,
      "Marginal Workers Household Industry - Males": 20147,
      "Female Illiterates": 942877,
      "Main Workers Other - Females": 39977,
      "Marginal Workers Cultivators - Persons": 88846,
      "Upper Primary Gross Enrolment Ratio in percentage DISE": 52.1,
      "Scheduled Caste Persons": 851587,
      "Marginal Workers Cultivators worked for 3 - 6 moths during last year - Persons": 65015,
      "Households with landline phone in percentage": 3.12,
      "Total Households in District  Houselisting and Housing Census Data Tables- District Level , Census of India": 627925,
      "Upper Primary Pupil-Teacher Ratio in percentage DISE": 28,
      "Primary Student-Classroom Ratio in percentage DISE": 28,
      "Primary Schools with boys toilet in percentage DISE": 100,
      "Mean number of children ever born to women aged 40-49years  DLHS-4": "Not available",
      "Households receiving untreated tap water within premises  Houselisting and Housing Census Data Tables- District Level , Census of India__5": 18089,
      "Marginal Workers Household Industry worked for 0 - 3 moths during last year - Persons": 11227,
      "Total Male Population": 1914586,
      "Non Workers - Females": 1509737,
      "Current use of family planning methods in percentage DLHS-4": 50.5,
      "Households with main source of drinking water within premises  Houselisting and Housing Census Data Tables- District Level , Census of India__3": 227335,
      "Main Workers Agricultural Labourers - Males": 139311,
      "Marginal Workers Other worked for 0 - 3 moths during last year - Persons": 21758,
      "Currently married women married below 18years of age in percentage DLHS-4": 5.3,
      "Person Illiterates": 1557215,
      "Main Workers Household Industry - Females": 14165,
      "Female Literates": 939654,
      "Marginal Workers Cultivators worked for 0 - 3 moths during last year - Males": 11957,
      "Male": 80.19,
      "Households with improved source of drinking water in percentage DLHS-4": "Not available",
      "Upper Primary Schools with electricity in percentage DISE": 29,
      "Households with electricity in percentage DLHS-4": "Not available",
      "Villages with Primary Health Centre within 10km in percentage DLHS-4": "Not available",
      "Births to women aged 15-19years out of Total births in percentage DLHS-4": "Not available",
      "Prevalence of Anaemia in women aged 15-49years in percentage DLHS-4": "Not available",
      "Marginal Workers Agricultural Labourers worked for 3 - 6 moths during last year - Persons": 234009,
      "Main Workers Household Industry - Males": 32198,
      "Scheduled Tribe Females": 338,
      "Marginal Workers worked for 0 - 3 moths during last year - Males": 71019,
      "Marginal Workers Other worked for 3 - 6 moths during last year - Males": 58292,
      "Primary Net Enrolment Ratio in percentage DISE": 59.9,
      "Total": 69.27,
      "Mean age at marriage for boys DLHS-4": 22.8,
      "Number of District Hospitals  DLHS-4": "Not available",
      "0-6 Age Group Females": 270330,
      "Marginal Workers Agricultural Labourers worked for 0 - 3 moths during last year - Persons": 77898,
      "Marginal Workers Household Industry worked for 0 - 3 moths during last year - Males": 5260,
      "Total Workers  Females": 372794,
      "Marginal Workers worked for 3 - 6 moths during last year - Females": 166447,
      "Institutional Deliveries in percentage DLHS-4": 64.2,
      "Marginal Workers Other - Males": 72108,
      "Total Workers  Males": 869838,
      "Main Workers - Females": 142652,
      "Primary Gross Enrolment Ratio in percentage DISE": 67.5,
      "Main Workers Cultivators - Persons": 250044,
      "Marginal Workers Household Industry worked for 0 - 3 moths during last year - Females": 5967,
      "Upper Primary Net Enrolment Ratio in percentage DISE": 40.9,
      "Primary New Government Schools since 2003 in percentage DISE": 18.9,
      "Tier": "Total",
      "Marginal Workers Household Industry - Females": 19275,
      "Primary Schools with electricity in percentage DISE": 30.4,
      "Main Workers Other - Persons": 204833,
      "Marginal Workers Household Industry worked for 3 - 6 moths during last year - Females": 13308,
      "Main Workers Cultivators - Males": 211950,
      "Main Workers Household Industry - Persons": 46363,
      "Marginal Workers Cultivators worked for 0 - 3 moths during last year - Persons": 23831,
      "Scheduled Caste Males": 431438,
      "Marginal Workers - Persons": 551665,
      "Deliveries at home conducted by skilled health personnel in percentage DLHS-4": 47.8,
      "Villages with Sub-Health Centres within 3km in percentage DLHS-4": "Not available",
      "Upper Primary New Government Schools since 2003 in percentage DISE": 73.5,
      "0-6 Age Group Males": 293043,
      "Primary Schools with drinking water facility in percentage DISE": 97.5,
      "Non Workers - Persons": 2554485,
      "Person Literates": 2239902,
      "State": "UTTAR PRADESH",
      "Total Female Population": 1882531,
      "Marginal Workers worked for 0 - 3 moths during last year - Persons": 134714,
      "Marginal Workers Cultivators - Females": 38386,
      "Marginal Workers Other - Persons": 111490,
      "Sex Ratio": 983,
      "Scheduled Tribe Persons": 696,
      "Marginal Workers Household Industry worked for 3 - 6 moths during last year - Males": 14887,
      "Marginal Workers Agricultural Labourers - Females": 133099,
      "Mean age at marriage for girls DLHS-4": 21.3,
      "Households with solar energy as main source of lighting  Houselisting and Housing Census Data Tables- District Level , Census of India__4": 2131,
      "District": "SULTANPUR",
      "Households receiving treated tap water within premises in percentage Houselisting and Housing Census Data Tables- District Level , Census of India__1": 8.089501135,
      "Total Workers  Persons": 1242632,
      "Households receiving treated tap water within premises  Houselisting and Housing Census Data Tables- District Level , Census of India__4": 50796,
      "Primary Female Teachers in percentage DISE": 44.6,
      "Number of Households": 623523,
      "Main Workers Agricultural Labourers - Persons": 189727
    }
  ],
  "Rural": [
    {
      "Marginal Workers Agricultural Labourers - Persons": 310035,
      "Marginal Workers Other - Females": 36534,
      "Marginal Workers Other worked for 0 - 3 moths during last year - Females": 7387,
      "Upper Primary Schools with boys toilet in percentage DISE": "NA",
      "Total Population": 3597201,
      "Households with electricity as main source of lighting in percentage Houselisting and Housing Census Data Tables- District Level , Census of India": 34.64832929,
      "Primary Girl's Enrolment in percentage DISE": "NA",
      "Marginal Workers worked for 3 - 6 moths during last year - Males": 243848,
      "Prevalence of Acute illness in percentage DLHS-4": "Not available",
      "Main Workers - Persons": 644098,
      "Main Workers Cultivators - Females": 37813,
      "Marginal Workers Agricultural Labourers worked for 3 - 6 moths during last year - Females": 94777,
      "Marginal Workers Other worked for 0 - 3 moths during last year - Males": 13151,
      "Upper Primary Schools with drinking water facility in percentage DISE": "NA",
      "Primary Schools with girls toilet in percentage DISE": "NA",
      "Marginal Workers worked for 3 - 6 moths during last year - Persons": 407165,
      "Upper Primary Drop Out Rate in percentage DISE": "NA",
      "Prevalence of Anaemia in pregnant women aged 15-49years in percentage DLHS-4": "Not available",
      "Current use of any modern method of family planning in percentage DLHS-4": 38.4,
      "Marginal Workers Agricultural Labourers - Males": 177433,
      "Upper Primary Female Teachers in percentage DISE": "NA",
      "Marginal Workers - Females": 226255,
      "Marginal Workers Other worked for 3 - 6 moths during last year - Persons": 82726,
      "Main Workers Agricultural Labourers - Females": 50068,
      "Marginal Workers Cultivators worked for 3 - 6 moths during last year - Females": 26392,
      "Households with no lighting  Houselisting and Housing Census Data Tables- District Level , Census of India__5": 595,
      "Prevalence of Severe Anaemia  in percentage DLHS-4": "Not available",
      "Total unmet need for family planning in percentage DLHS-4": 44.1,
      "Main Workers Other - Males": 131864,
      "Children who received full vaccination in percentage DLHS-4": "Not available",
      "Marginal Workers Household Industry - Persons": 38395,
      "Primary Pupil-Teacher Ratio in percentage DISE": "NA",
      "Marginal Workers Agricultural Labourers worked for 3 - 6 moths during last year - Males": 137640,
      "Scheduled Caste Females": 410987,
      "Marginal Workers Cultivators - Males": 50187,
      "Marginal Workers - Males": 313873,
      "Marginal Workers worked for 0 - 3 moths during last year - Females": 62938,
      "Households with main source of drinking water within premises in percentage Houselisting and Housing Census Data Tables- District Level , Census of India": 34.21173316,
      "Marginal Workers Household Industry worked for 3 - 6 moths during last year - Persons": 27368,
      "Upper Primary Girl's Enrolment in percentage DISE": "NA",
      "Prevalence of Severe Anaemia in women aged 15-49years in percentage DLHS-4": "Not available",
      "Marginal Workers Agricultural Labourers worked for 0 - 3 moths during last year - Males": 39793,
      "Households with electricity as main source of lighting  Houselisting and Housing Census Data Tables- District Level , Census of India__3": 206257,
      "Households with computer or laptop with internet connection in percentage": 0.7,
      "PHCs functioning on a 24x7hours basis in percentage DLHS-4": "Not applicable",
      "Non Workers - Males": 988422,
      "Total Households in District Houselisting and Housing Census Data Tables- District Level , Census of India": 595287,
      "Upper Primary Schools with girls toilet in percentage DISE": "NA",
      "Households with mobile phone in percentage": 64.3,
      "Households receiving untreated tap water within premises in percentage Houselisting and Housing Census Data Tables- District Level , Census of India__2": 2.881803231,
      "Marginal Workers Cultivators worked for 3 - 6 moths during last year - Males": 38262,
      "Prevalence of Anaemia  in percentage DLHS-4": "Not available",
      "Prevalence of Chronic illness in percentage DLHS-4": "Not available",
      "Households with solar energy as main source of lighting in percentage Houselisting and Housing Census Data Tables- District Level , Census of India__1": 0.346387541,
      "Marginal Workers Agricultural Labourers worked for 0 - 3 moths during last year - Females": 37825,
      "Main Workers - Males": 508201,
      "Female": "NA",
      "Sno": 1918,
      "Marginal Workers Other worked for 3 - 6 moths during last year - Females": 29147,
      "Marginal Workers Cultivators worked for 0 - 3 moths during last year - Females": 11855,
      "Scheduled Tribe Males": 349,
      "Male Illiterates": 591301,
      "Prevalence of Severe Anaemia in pregnant women aged 15-49years in percentage DLHS-4": "Not available",
      "0-6 Age Group Persons": 539343,
      "Upper Primary Student-Classroom Ratio in percentage DISE": "NA",
      "Currently married men married below 21years of age in percentage DLHS-4": 24.2,
      "Male Literates": 1219195,
      "Households with no lighting in percentage Houselisting and Housing Census Data Tables- District Level , Census of India__2": 0.1,
      "Primary Drop Out Rate in percentage DISE": "NA",
      "Marginal Workers Household Industry - Males": 19523,
      "Female Illiterates": 912226,
      "Main Workers Other - Females": 34674,
      "Marginal Workers Cultivators - Persons": 88434,
      "Upper Primary Gross Enrolment Ratio in percentage DISE": "NA",
      "Scheduled Caste Persons": 832547,
      "Marginal Workers Cultivators worked for 3 - 6 moths during last year - Persons": 64654,
      "Households with landline phone in percentage": 2.97,
      "Total Households in District  Houselisting and Housing Census Data Tables- District Level , Census of India": 595287,
      "Upper Primary Pupil-Teacher Ratio in percentage DISE": "NA",
      "Primary Student-Classroom Ratio in percentage DISE": "NA",
      "Primary Schools with boys toilet in percentage DISE": "NA",
      "Mean number of children ever born to women aged 40-49years  DLHS-4": "Not available",
      "Households receiving untreated tap water within premises  Houselisting and Housing Census Data Tables- District Level , Census of India__5": 17155,
      "Marginal Workers Household Industry worked for 0 - 3 moths during last year - Persons": 11027,
      "Total Male Population": 1810496,
      "Non Workers - Females": 1424553,
      "Current use of family planning methods in percentage DLHS-4": 49.3,
      "Households with main source of drinking water within premises  Houselisting and Housing Census Data Tables- District Level , Census of India__3": 203658,
      "Main Workers Agricultural Labourers - Males": 137486,
      "Marginal Workers Other worked for 0 - 3 moths during last year - Persons": 20538,
      "Currently married women married below 18years of age in percentage DLHS-4": 5.5,
      "Person Illiterates": 1503527,
      "Main Workers Household Industry - Females": 13342,
      "Female Literates": 874479,
      "Marginal Workers Cultivators worked for 0 - 3 moths during last year - Males": 11925,
      "Male": "NA",
      "Households with improved source of drinking water in percentage DLHS-4": "Not available",
      "Upper Primary Schools with electricity in percentage DISE": "NA",
      "Households with electricity in percentage DLHS-4": "Not available",
      "Villages with Primary Health Centre within 10km in percentage DLHS-4": "Not applicable",
      "Births to women aged 15-19years out of Total births in percentage DLHS-4": "Not available",
      "Prevalence of Anaemia in women aged 15-49years in percentage DLHS-4": "Not available",
      "Marginal Workers Agricultural Labourers worked for 3 - 6 moths during last year - Persons": 232417,
      "Main Workers Household Industry - Males": 28845,
      "Scheduled Tribe Females": 332,
      "Marginal Workers worked for 0 - 3 moths during last year - Males": 70025,
      "Marginal Workers Other worked for 3 - 6 moths during last year - Males": 53579,
      "Primary Net Enrolment Ratio in percentage DISE": "NA",
      "Total": "NA",
      "Mean age at marriage for boys DLHS-4": 22.5,
      "Number of District Hospitals  DLHS-4": "Not applicable",
      "0-6 Age Group Females": 258927,
      "Marginal Workers Agricultural Labourers worked for 0 - 3 moths during last year - Persons": 77618,
      "Marginal Workers Household Industry worked for 0 - 3 moths during last year - Males": 5156,
      "Total Workers  Females": 362152,
      "Marginal Workers worked for 3 - 6 moths during last year - Females": 163317,
      "Institutional Deliveries in percentage DLHS-4": 63.8,
      "Marginal Workers Other - Males": 66730,
      "Total Workers  Males": 822074,
      "Main Workers - Females": 135897,
      "Primary Gross Enrolment Ratio in percentage DISE": "NA",
      "Main Workers Cultivators - Persons": 247819,
      "Marginal Workers Household Industry worked for 0 - 3 moths during last year - Females": 5871,
      "Upper Primary Net Enrolment Ratio in percentage DISE": "NA",
      "Primary New Government Schools since 2003 in percentage DISE": "NA",
      "Tier": "Rural",
      "Marginal Workers Household Industry - Females": 18872,
      "Primary Schools with electricity in percentage DISE": "NA",
      "Main Workers Other - Persons": 166538,
      "Marginal Workers Household Industry worked for 3 - 6 moths during last year - Females": 13001,
      "Main Workers Cultivators - Males": 210006,
      "Main Workers Household Industry - Persons": 42187,
      "Marginal Workers Cultivators worked for 0 - 3 moths during last year - Persons": 23780,
      "Scheduled Caste Males": 421560,
      "Marginal Workers - Persons": 540128,
      "Deliveries at home conducted by skilled health personnel in percentage DLHS-4": 46.5,
      "Villages with Sub-Health Centres within 3km in percentage DLHS-4": "Not applicable",
      "Upper Primary New Government Schools since 2003 in percentage DISE": "NA",
      "0-6 Age Group Males": 280416,
      "Primary Schools with drinking water facility in percentage DISE": "NA",
      "Non Workers - Persons": 2412975,
      "Person Literates": 2093674,
      "State": "UTTAR PRADESH",
      "Total Female Population": 1786705,
      "Marginal Workers worked for 0 - 3 moths during last year - Persons": 132963,
      "Marginal Workers Cultivators - Females": 38247,
      "Marginal Workers Other - Persons": 103264,
      "Sex Ratio": 987,
      "Scheduled Tribe Persons": 681,
      "Marginal Workers Household Industry worked for 3 - 6 moths during last year - Males": 14367,
      "Marginal Workers Agricultural Labourers - Females": 132602,
      "Mean age at marriage for girls DLHS-4": 21.2,
      "Households with solar energy as main source of lighting  Houselisting and Housing Census Data Tables- District Level , Census of India__4": 2062,
      "District": "SULTANPUR",
      "Households receiving treated tap water within premises in percentage Houselisting and Housing Census Data Tables- District Level , Census of India__1": 6.123096926,
      "Total Workers  Persons": 1184226,
      "Households receiving treated tap water within premises  Houselisting and Housing Census Data Tables- District Level , Census of India__4": 36450,
      "Primary Female Teachers in percentage DISE": "NA",
      "Number of Households": 590446,
      "Main Workers Agricultural Labourers - Persons": 187554
    }
  ],
  "Urban": [
    {
      "Marginal Workers Agricultural Labourers - Persons": 1872,
      "Marginal Workers Other - Females": 2848,
      "Marginal Workers Other worked for 0 - 3 moths during last year - Females": 555,
      "Upper Primary Schools with boys toilet in percentage DISE": "NA",
      "Total Population": 199916,
      "Households with electricity as main source of lighting in percentage Houselisting and Housing Census Data Tables- District Level , Census of India": 84.08603468,
      "Primary Girl's Enrolment in percentage DISE": "NA",
      "Marginal Workers worked for 3 - 6 moths during last year - Males": 6656,
      "Prevalence of Acute illness in percentage DLHS-4": "Not available",
      "Main Workers - Persons": 46869,
      "Main Workers Cultivators - Females": 281,
      "Marginal Workers Agricultural Labourers worked for 3 - 6 moths during last year - Females": 410,
      "Marginal Workers Other worked for 0 - 3 moths during last year - Males": 665,
      "Upper Primary Schools with drinking water facility in percentage DISE": "NA",
      "Primary Schools with girls toilet in percentage DISE": "NA",
      "Marginal Workers worked for 3 - 6 moths during last year - Persons": 9786,
      "Upper Primary Drop Out Rate in percentage DISE": "NA",
      "Prevalence of Anaemia in pregnant women aged 15-49years in percentage DLHS-4": "Not available",
      "Current use of any modern method of family planning in percentage DLHS-4": "Not available",
      "Marginal Workers Agricultural Labourers - Males": 1375,
      "Upper Primary Female Teachers in percentage DISE": "NA",
      "Marginal Workers - Females": 3887,
      "Marginal Workers Other worked for 3 - 6 moths during last year - Persons": 7006,
      "Main Workers Agricultural Labourers - Females": 348,
      "Marginal Workers Cultivators worked for 3 - 6 moths during last year - Females": 120,
      "Households with no lighting  Houselisting and Housing Census Data Tables- District Level , Census of India__5": 47,
      "Prevalence of Severe Anaemia  in percentage DLHS-4": "Not available",
      "Total unmet need for family planning in percentage DLHS-4": "Not available",
      "Main Workers Other - Males": 32992,
      "Children who received full vaccination in percentage DLHS-4": "Not available",
      "Marginal Workers Household Industry - Persons": 1027,
      "Primary Pupil-Teacher Ratio in percentage DISE": "NA",
      "Marginal Workers Agricultural Labourers worked for 3 - 6 moths during last year - Males": 1182,
      "Scheduled Caste Females": 9162,
      "Marginal Workers Cultivators - Males": 273,
      "Marginal Workers - Males": 7650,
      "Marginal Workers worked for 0 - 3 moths during last year - Females": 757,
      "Households with main source of drinking water within premises in percentage Houselisting and Housing Census Data Tables- District Level , Census of India": 72.54427355,
      "Marginal Workers Household Industry worked for 3 - 6 moths during last year - Persons": 827,
      "Upper Primary Girl's Enrolment in percentage DISE": "NA",
      "Prevalence of Severe Anaemia in women aged 15-49years in percentage DLHS-4": "Not available",
      "Marginal Workers Agricultural Labourers worked for 0 - 3 moths during last year - Males": 193,
      "Households with electricity as main source of lighting  Houselisting and Housing Census Data Tables- District Level , Census of India__3": 27444,
      "Households with computer or laptop with internet connection in percentage": 5.54,
      "PHCs functioning on a 24x7hours basis in percentage DLHS-4": 0,
      "Non Workers - Males": 56326,
      "Total Households in District Houselisting and Housing Census Data Tables- District Level , Census of India": 32638,
      "Upper Primary Schools with girls toilet in percentage DISE": "NA",
      "Households with mobile phone in percentage": 72.45,
      "Households receiving untreated tap water within premises in percentage Houselisting and Housing Census Data Tables- District Level , Census of India__2": 2.861694957,
      "Marginal Workers Cultivators worked for 3 - 6 moths during last year - Males": 241,
      "Prevalence of Anaemia  in percentage DLHS-4": "Not available",
      "Prevalence of Chronic illness in percentage DLHS-4": "Not available",
      "Households with solar energy as main source of lighting in percentage Houselisting and Housing Census Data Tables- District Level , Census of India__1": 0.211410013,
      "Marginal Workers Agricultural Labourers worked for 0 - 3 moths during last year - Females": 87,
      "Main Workers - Males": 40114,
      "Female": "NA",
      "Sno": 1920,
      "Marginal Workers Other worked for 3 - 6 moths during last year - Females": 2293,
      "Marginal Workers Cultivators worked for 0 - 3 moths during last year - Females": 19,
      "Scheduled Tribe Males": 9,
      "Male Illiterates": 23037,
      "Prevalence of Severe Anaemia in pregnant women aged 15-49years in percentage DLHS-4": "Not available",
      "0-6 Age Group Persons": 24030,
      "Upper Primary Student-Classroom Ratio in percentage DISE": "NA",
      "Currently married men married below 21years of age in percentage DLHS-4": "Not available",
      "Male Literates": 81053,
      "Households with no lighting in percentage Houselisting and Housing Census Data Tables- District Level , Census of India__2": 0,
      "Primary Drop Out Rate in percentage DISE": "NA",
      "Marginal Workers Household Industry - Males": 624,
      "Female Illiterates": 30651,
      "Main Workers Other - Females": 5303,
      "Marginal Workers Cultivators - Persons": 412,
      "Upper Primary Gross Enrolment Ratio in percentage DISE": "NA",
      "Scheduled Caste Persons": 19040,
      "Marginal Workers Cultivators worked for 3 - 6 moths during last year - Persons": 361,
      "Households with landline phone in percentage": 5.69,
      "Total Households in District  Houselisting and Housing Census Data Tables- District Level , Census of India": 32638,
      "Upper Primary Pupil-Teacher Ratio in percentage DISE": "NA",
      "Primary Student-Classroom Ratio in percentage DISE": "NA",
      "Primary Schools with boys toilet in percentage DISE": "NA",
      "Mean number of children ever born to women aged 40-49years  DLHS-4": "Not available",
      "Households receiving untreated tap water within premises  Houselisting and Housing Census Data Tables- District Level , Census of India__5": 934,
      "Marginal Workers Household Industry worked for 0 - 3 moths during last year - Persons": 200,
      "Total Male Population": 104090,
      "Non Workers - Females": 85184,
      "Current use of family planning methods in percentage DLHS-4": "Not available",
      "Households with main source of drinking water within premises  Houselisting and Housing Census Data Tables- District Level , Census of India__3": 23677,
      "Main Workers Agricultural Labourers - Males": 1825,
      "Marginal Workers Other worked for 0 - 3 moths during last year - Persons": 1220,
      "Currently married women married below 18years of age in percentage DLHS-4": "Not available",
      "Person Illiterates": 53688,
      "Main Workers Household Industry - Females": 823,
      "Female Literates": 65175,
      "Marginal Workers Cultivators worked for 0 - 3 moths during last year - Males": 32,
      "Male": "NA",
      "Households with improved source of drinking water in percentage DLHS-4": "Not available",
      "Upper Primary Schools with electricity in percentage DISE": "NA",
      "Households with electricity in percentage DLHS-4": "Not available",
      "Villages with Primary Health Centre within 10km in percentage DLHS-4": 0,
      "Births to women aged 15-19years out of Total births in percentage DLHS-4": "Not available",
      "Prevalence of Anaemia in women aged 15-49years in percentage DLHS-4": "Not available",
      "Marginal Workers Agricultural Labourers worked for 3 - 6 moths during last year - Persons": 1592,
      "Main Workers Household Industry - Males": 3353,
      "Scheduled Tribe Females": 6,
      "Marginal Workers worked for 0 - 3 moths during last year - Males": 994,
      "Marginal Workers Other worked for 3 - 6 moths during last year - Males": 4713,
      "Primary Net Enrolment Ratio in percentage DISE": "NA",
      "Total": "NA",
      "Mean age at marriage for boys DLHS-4": "Not available",
      "Number of District Hospitals  DLHS-4": 0,
      "0-6 Age Group Females": 11403,
      "Marginal Workers Agricultural Labourers worked for 0 - 3 moths during last year - Persons": 280,
      "Marginal Workers Household Industry worked for 0 - 3 moths during last year - Males": 104,
      "Total Workers  Females": 10642,
      "Marginal Workers worked for 3 - 6 moths during last year - Females": 3130,
      "Institutional Deliveries in percentage DLHS-4": "Not available",
      "Marginal Workers Other - Males": 5378,
      "Total Workers  Males": 47764,
      "Main Workers - Females": 6755,
      "Primary Gross Enrolment Ratio in percentage DISE": "NA",
      "Main Workers Cultivators - Persons": 2225,
      "Marginal Workers Household Industry worked for 0 - 3 moths during last year - Females": 96,
      "Upper Primary Net Enrolment Ratio in percentage DISE": "NA",
      "Primary New Government Schools since 2003 in percentage DISE": "NA",
      "Tier": "Urban",
      "Marginal Workers Household Industry - Females": 403,
      "Primary Schools with electricity in percentage DISE": "NA",
      "Main Workers Other - Persons": 38295,
      "Marginal Workers Household Industry worked for 3 - 6 moths during last year - Females": 307,
      "Main Workers Cultivators - Males": 1944,
      "Main Workers Household Industry - Persons": 4176,
      "Marginal Workers Cultivators worked for 0 - 3 moths during last year - Persons": 51,
      "Scheduled Caste Males": 9878,
      "Marginal Workers - Persons": 11537,
      "Deliveries at home conducted by skilled health personnel in percentage DLHS-4": "Not available",
      "Villages with Sub-Health Centres within 3km in percentage DLHS-4": 0,
      "Upper Primary New Government Schools since 2003 in percentage DISE": "NA",
      "0-6 Age Group Males": 12627,
      "Primary Schools with drinking water facility in percentage DISE": "NA",
      "Non Workers - Persons": 141510,
      "Person Literates": 146228,
      "State": "UTTAR PRADESH",
      "Total Female Population": 95826,
      "Marginal Workers worked for 0 - 3 moths during last year - Persons": 1751,
      "Marginal Workers Cultivators - Females": 139,
      "Marginal Workers Other - Persons": 8226,
      "Sex Ratio": 921,
      "Scheduled Tribe Persons": 15,
      "Marginal Workers Household Industry worked for 3 - 6 moths during last year - Males": 520,
      "Marginal Workers Agricultural Labourers - Females": 497,
      "Mean age at marriage for girls DLHS-4": "Not available",
      "Households with solar energy as main source of lighting  Houselisting and Housing Census Data Tables- District Level , Census of India__4": 69,
      "District": "SULTANPUR",
      "Households receiving treated tap water within premises in percentage Houselisting and Housing Census Data Tables- District Level , Census of India__1": 43.9548992,
      "Total Workers  Persons": 58406,
      "Households receiving treated tap water within premises  Houselisting and Housing Census Data Tables- District Level , Census of India__4": 14346,
      "Primary Female Teachers in percentage DISE": "NA",
      "Number of Households": 33077,
      "Main Workers Agricultural Labourers - Persons": 2173
    }
  ]
}