[
    {
      "value": "LAKSHADWEEP (UT)",
      "synonyms": [
        "LAKSHADWEEP (UT)"
      ]
    },
    {
      "value": "RAJASTHAN",
      "synonyms": [
        "RAJASTHAN"
      ]
    },
    {
      "value": "ANDHRA PRADESH",
      "synonyms": [
        "ANDHRA PRADESH"
      ]
    },
    {
      "value": "UTTAR PRADESH",
      "synonyms": [
        "UTTAR PRADESH"
      ]
    },
    {
      "value": "WEST BENGAL",
      "synonyms": [
        "WEST BENGAL"
      ]
    },
    {
      "value": "JHARKHAND",
      "synonyms": [
        "JHARKHAND"
      ]
    },
    {
      "value": "MEGHALAYA",
      "synonyms": [
        "MEGHALAYA"
      ]
    },
    {
      "value": "MIZORAM",
      "synonyms": [
        "MIZORAM"
      ]
    },
    {
      "value": "HIMACHAL PRADESH",
      "synonyms": [
        "HIMACHAL PRADESH"
      ]
    },
    {
      "value": "MANIPUR",
      "synonyms": [
        "MANIPUR"
      ]
    },
    {
      "value": "BIHAR",
      "synonyms": [
        "BIHAR"
      ]
    },
    {
      "value": "KERALA",
      "synonyms": [
        "KERALA"
      ]
    },
    {
      "value": "SIKKIM",
      "synonyms": [
        "SIKKIM"
      ]
    },
    {
      "value": "ANDAMAN & NICOBAR ISLANDS",
      "synonyms": [
        "ANDAMAN & NICOBAR ISLANDS"
      ]
    },
    {
      "value": "MAHARASHTRA",
      "synonyms": [
        "MAHARASHTRA"
      ]
    },
    {
      "value": "TAMIL NADU",
      "synonyms": [
        "TAMIL NADU"
      ]
    },
    {
      "value": "DADRA AND NAGAR HAVELI (UT)",
      "synonyms": [
        "DADRA AND NAGAR HAVELI (UT)"
      ]
    },
    {
      "value": "TRIPURA",
      "synonyms": [
        "TRIPURA"
      ]
    },
    {
      "value": "ASSAM",
      "synonyms": [
        "ASSAM"
      ]
    },
    {
      "value": "DAMAN & DIU (UT)",
      "synonyms": [
        "DAMAN & DIU (UT)"
      ]
    },
    {
      "value": "KARNATAKA",
      "synonyms": [
        "KARNATAKA"
      ]
    },
    {
      "value": "CHANDIGARH (UT)",
      "synonyms": [
        "CHANDIGARH (UT)"
      ]
    },
    {
      "value": "CHHATTISGARH",
      "synonyms": [
        "CHHATTISGARH"
      ]
    },
    {
      "value": "GOA",
      "synonyms": [
        "GOA"
      ]
    },
    {
      "value": "HARAYANA",
      "synonyms": [
        "HARAYANA"
      ]
    },
    {
      "value": "MADHYA PRADESH",
      "synonyms": [
        "MADHYA PRADESH"
      ]
    },
    {
      "value": "JAMMU AND KASHMIR",
      "synonyms": [
        "JAMMU AND KASHMIR"
      ]
    },
    {
      "value": "NAGALAND",
      "synonyms": [
        "NAGALAND"
      ]
    },
    {
      "value": "PUNJAB",
      "synonyms": [
        "PUNJAB"
      ]
    },
    {
      "value": "DELHI (NCT)",
      "synonyms": [
        "DELHI (NCT)"
      ]
    },
    {
      "value": "GUJRAT",
      "synonyms": [
        "GUJRAT"
      ]
    },
    {
      "value": "ODISHA",
      "synonyms": [
        "ODISHA"
      ]
    },
    {
      "value": "TELANGANA",
      "synonyms": [
        "TELANGANA"
      ]
    },
    {
      "value": "UTTARAKHAND",
      "synonyms": [
        "UTTARAKHAND"
      ]
    },
    {
      "value": "ARUNACHAL PRADESH",
      "synonyms": [
        "ARUNACHAL PRADESH"
      ]
    },
    {
      "value": "PUDUCHERRY (UT)",
      "synonyms": [
        "PUDUCHERRY (UT)"
      ]
    }
]
