{
  "Total": [
    {
      "Marginal Workers Agricultural Labourers - Persons": 7125,
      "Marginal Workers Other - Females": 11055,
      "Marginal Workers Other worked for 0 - 3 moths during last year - Females": 2074,
      "Upper Primary Schools with boys toilet in percentage DISE": 100,
      "Total Population": 640537,
      "Households with electricity as main source of lighting in percentage Houselisting and Housing Census Data Tables- District Level , Census of India": 96.57825893,
      "Primary Girl's Enrolment in percentage DISE": 47.5,
      "Marginal Workers worked for 3 - 6 moths during last year - Males": 20285,
      "Prevalence of Acute illness in percentage DLHS-4": 1.4,
      "Main Workers - Persons": 206616,
      "Main Workers Cultivators - Females": 4863,
      "Marginal Workers Agricultural Labourers worked for 3 - 6 moths during last year - Females": 2670,
      "Marginal Workers Other worked for 0 - 3 moths during last year - Males": 3774,
      "Upper Primary Schools with drinking water facility in percentage DISE": 100,
      "Primary Schools with girls toilet in percentage DISE": 96.9,
      "Marginal Workers worked for 3 - 6 moths during last year - Persons": 33852,
      "Upper Primary Drop Out Rate in percentage DISE": "not available",
      "Prevalence of Anaemia in pregnant women aged 15-49years in percentage DLHS-4": 55.2,
      "Current use of any modern method of family planning in percentage DLHS-4": 26.9,
      "Marginal Workers Agricultural Labourers - Males": 3160,
      "Upper Primary Female Teachers in percentage DISE": 76.9,
      "Marginal Workers - Females": 17440,
      "Marginal Workers Other worked for 3 - 6 moths during last year - Persons": 25377,
      "Main Workers Agricultural Labourers - Females": 2478,
      "Marginal Workers Cultivators worked for 3 - 6 moths during last year - Females": 1206,
      "Households with no lighting  Houselisting and Housing Census Data Tables- District Level , Census of India__5": 684,
      "Prevalence of Severe Anaemia  in percentage DLHS-4": 18.2,
      "Total unmet need for family planning in percentage DLHS-4": 33.4,
      "Main Workers Other - Males": 140634,
      "Children who received full vaccination in percentage DLHS-4": 83.3,
      "Marginal Workers Household Industry - Persons": 1580,
      "Primary Pupil-Teacher Ratio in percentage DISE": 20,
      "Marginal Workers Agricultural Labourers worked for 3 - 6 moths during last year - Males": 2153,
      "Scheduled Caste Females": 3928,
      "Marginal Workers Cultivators - Males": 1557,
      "Marginal Workers - Males": 25534,
      "Marginal Workers worked for 0 - 3 moths during last year - Females": 3873,
      "Households with main source of drinking water within premises in percentage Houselisting and Housing Census Data Tables- District Level , Census of India": 78.84615385,
      "Marginal Workers Household Industry worked for 3 - 6 moths during last year - Persons": 1199,
      "Upper Primary Girl's Enrolment in percentage DISE": 43.7,
      "Prevalence of Severe Anaemia in women aged 15-49years in percentage DLHS-4": "NA",
      "Marginal Workers Agricultural Labourers worked for 0 - 3 moths during last year - Males": 1007,
      "Households with electricity as main source of lighting  Houselisting and Housing Census Data Tables- District Level , Census of India__3": 138810,
      "Households with computer or laptop with internet connection in percentage": 12.26,
      "PHCs functioning on a 24x7hours basis in percentage DLHS-4": 42.8,
      "Non Workers - Males": 142052,
      "Total Households in District Houselisting and Housing Census Data Tables- District Level , Census of India": 143728,
      "Upper Primary Schools with girls toilet in percentage DISE": 100,
      "Households with mobile phone in percentage": 51.74,
      "Households receiving untreated tap water within premises in percentage Houselisting and Housing Census Data Tables- District Level , Census of India__2": 1.996131582,
      "Marginal Workers Cultivators worked for 3 - 6 moths during last year - Males": 1247,
      "Prevalence of Anaemia  in percentage DLHS-4": 73.9,
      "Prevalence of Chronic illness in percentage DLHS-4": 9.8,
      "Households with solar energy as main source of lighting in percentage Houselisting and Housing Census Data Tables- District Level , Census of India__1": 0.19133363,
      "Marginal Workers Agricultural Labourers worked for 0 - 3 moths during last year - Females": 1295,
      "Main Workers - Males": 154877,
      "Female": 83.47,
      "Sno": 425,
      "Marginal Workers Other worked for 3 - 6 moths during last year - Females": 8981,
      "Marginal Workers Cultivators worked for 0 - 3 moths during last year - Females": 281,
      "Scheduled Tribe Males": 45124,
      "Male Illiterates": 58378,
      "Prevalence of Severe Anaemia in pregnant women aged 15-49years in percentage DLHS-4": 3.4,
      "0-6 Age Group Persons": 66906,
      "Upper Primary Student-Classroom Ratio in percentage DISE": 31,
      "Currently married men married below 21years of age in percentage DLHS-4": 2.2,
      "Male Literates": 264085,
      "Households with no lighting in percentage Houselisting and Housing Census Data Tables- District Level , Census of India__2": 0.47589892,
      "Primary Drop Out Rate in percentage DISE": 0.4,
      "Marginal Workers Household Industry - Males": 647,
      "Female Illiterates": 79732,
      "Main Workers Other - Females": 43293,
      "Marginal Workers Cultivators - Persons": 3044,
      "Upper Primary Gross Enrolment Ratio in percentage DISE": 110.2,
      "Scheduled Caste Persons": 7843,
      "Marginal Workers Cultivators worked for 3 - 6 moths during last year - Persons": 2453,
      "Households with landline phone in percentage": 13.09,
      "Total Households in District  Houselisting and Housing Census Data Tables- District Level , Census of India": 143728,
      "Upper Primary Pupil-Teacher Ratio in percentage DISE": 24,
      "Primary Student-Classroom Ratio in percentage DISE": 20,
      "Primary Schools with boys toilet in percentage DISE": 82.6,
      "Mean number of children ever born to women aged 40-49years  DLHS-4": 2.03,
      "Households receiving untreated tap water within premises  Houselisting and Housing Census Data Tables- District Level , Census of India__5": 2869,
      "Marginal Workers Household Industry worked for 0 - 3 moths during last year - Persons": 381,
      "Total Male Population": 322463,
      "Non Workers - Females": 248895,
      "Current use of family planning methods in percentage DLHS-4": 30.4,
      "Households with main source of drinking water within premises  Houselisting and Housing Census Data Tables- District Level , Census of India__3": 113324,
      "Main Workers Agricultural Labourers - Males": 3037,
      "Marginal Workers Other worked for 0 - 3 moths during last year - Persons": 5848,
      "Currently married women married below 18years of age in percentage DLHS-4": 0,
      "Person Illiterates": 138110,
      "Main Workers Household Industry - Females": 1105,
      "Female Literates": 238342,
      "Marginal Workers Cultivators worked for 0 - 3 moths during last year - Males": 310,
      "Male": 91.67,
      "Households with improved source of drinking water in percentage DLHS-4": 98.8,
      "Upper Primary Schools with electricity in percentage DISE": 100,
      "Households with electricity in percentage DLHS-4": 99.7,
      "Villages with Primary Health Centre within 10km in percentage DLHS-4": 80,
      "Births to women aged 15-19years out of Total births in percentage DLHS-4": 2.9,
      "Prevalence of Anaemia in women aged 15-49years in percentage DLHS-4": "NA",
      "Marginal Workers Agricultural Labourers worked for 3 - 6 moths during last year - Persons": 4823,
      "Main Workers Household Industry - Males": 3161,
      "Scheduled Tribe Females": 47545,
      "Marginal Workers worked for 0 - 3 moths during last year - Males": 5249,
      "Marginal Workers Other worked for 3 - 6 moths during last year - Males": 16396,
      "Primary Net Enrolment Ratio in percentage DISE": 100,
      "Total": 87.59,
      "Mean age at marriage for boys DLHS-4": 29.2,
      "Number of District Hospitals  DLHS-4": 1,
      "0-6 Age Group Females": 32527,
      "Marginal Workers Agricultural Labourers worked for 0 - 3 moths during last year - Persons": 2302,
      "Marginal Workers Household Industry worked for 0 - 3 moths during last year - Males": 158,
      "Total Workers  Females": 69179,
      "Marginal Workers worked for 3 - 6 moths during last year - Females": 13567,
      "Institutional Deliveries in percentage DLHS-4": 96.2,
      "Marginal Workers Other - Males": 20170,
      "Total Workers  Males": 180411,
      "Main Workers - Females": 51739,
      "Primary Gross Enrolment Ratio in percentage DISE": 115.3,
      "Main Workers Cultivators - Persons": 12908,
      "Marginal Workers Household Industry worked for 0 - 3 moths during last year - Females": 223,
      "Upper Primary Net Enrolment Ratio in percentage DISE": 92,
      "Primary New Government Schools since 2003 in percentage DISE": 0,
      "Tier": "Total",
      "Marginal Workers Household Industry - Females": 933,
      "Primary Schools with electricity in percentage DISE": 97.2,
      "Main Workers Other - Persons": 183927,
      "Marginal Workers Household Industry worked for 3 - 6 moths during last year - Females": 710,
      "Main Workers Cultivators - Males": 8045,
      "Main Workers Household Industry - Persons": 4266,
      "Marginal Workers Cultivators worked for 0 - 3 moths during last year - Persons": 591,
      "Scheduled Caste Males": 3915,
      "Marginal Workers - Persons": 42974,
      "Deliveries at home conducted by skilled health personnel in percentage DLHS-4": 1.9,
      "Villages with Sub-Health Centres within 3km in percentage DLHS-4": 92,
      "Upper Primary New Government Schools since 2003 in percentage DISE": 0,
      "0-6 Age Group Males": 34379,
      "Primary Schools with drinking water facility in percentage DISE": 99.2,
      "Non Workers - Persons": 390947,
      "Person Literates": 502427,
      "State": "GOA",
      "Total Female Population": 318074,
      "Marginal Workers worked for 0 - 3 moths during last year - Persons": 9122,
      "Marginal Workers Cultivators - Females": 1487,
      "Marginal Workers Other - Persons": 31225,
      "Sex Ratio": 986,
      "Scheduled Tribe Persons": 92669,
      "Marginal Workers Household Industry worked for 3 - 6 moths during last year - Males": 489,
      "Marginal Workers Agricultural Labourers - Females": 3965,
      "Mean age at marriage for girls DLHS-4": 25.8,
      "Households with solar energy as main source of lighting  Houselisting and Housing Census Data Tables- District Level , Census of India__4": 275,
      "District": "SOUTH GOA",
      "Households receiving treated tap water within premises in percentage Houselisting and Housing Census Data Tables- District Level , Census of India__1": 72.25036179,
      "Total Workers  Persons": 249590,
      "Households receiving treated tap water within premises  Houselisting and Housing Census Data Tables- District Level , Census of India__4": 103844,
      "Primary Female Teachers in percentage DISE": 88.5,
      "Number of Households": 151845,
      "Main Workers Agricultural Labourers - Persons": 5515
    }
  ],
  "Rural": [
    {
      "Marginal Workers Agricultural Labourers - Persons": 5394,
      "Marginal Workers Other - Females": 3980,
      "Marginal Workers Other worked for 0 - 3 moths during last year - Females": 952,
      "Upper Primary Schools with boys toilet in percentage DISE": "NA",
      "Total Population": 226804,
      "Households with electricity as main source of lighting in percentage Houselisting and Housing Census Data Tables- District Level , Census of India": 94.65660321,
      "Primary Girl's Enrolment in percentage DISE": "NA",
      "Marginal Workers worked for 3 - 6 moths during last year - Males": 8353,
      "Prevalence of Acute illness in percentage DLHS-4": 1.7,
      "Main Workers - Persons": 69321,
      "Main Workers Cultivators - Females": 4523,
      "Marginal Workers Agricultural Labourers worked for 3 - 6 moths during last year - Females": 2090,
      "Marginal Workers Other worked for 0 - 3 moths during last year - Males": 1444,
      "Upper Primary Schools with drinking water facility in percentage DISE": "NA",
      "Primary Schools with girls toilet in percentage DISE": "NA",
      "Marginal Workers worked for 3 - 6 moths during last year - Persons": 14700,
      "Upper Primary Drop Out Rate in percentage DISE": "NA",
      "Prevalence of Anaemia in pregnant women aged 15-49years in percentage DLHS-4": 40,
      "Current use of any modern method of family planning in percentage DLHS-4": 26.9,
      "Marginal Workers Agricultural Labourers - Males": 2240,
      "Upper Primary Female Teachers in percentage DISE": "NA",
      "Marginal Workers - Females": 8767,
      "Marginal Workers Other worked for 3 - 6 moths during last year - Persons": 8678,
      "Main Workers Agricultural Labourers - Females": 2103,
      "Marginal Workers Cultivators worked for 3 - 6 moths during last year - Females": 953,
      "Households with no lighting  Houselisting and Housing Census Data Tables- District Level , Census of India__5": 450,
      "Prevalence of Severe Anaemia  in percentage DLHS-4": 12.9,
      "Total unmet need for family planning in percentage DLHS-4": 28.9,
      "Main Workers Other - Males": 39552,
      "Children who received full vaccination in percentage DLHS-4": 78.3,
      "Marginal Workers Household Industry - Persons": 791,
      "Primary Pupil-Teacher Ratio in percentage DISE": "NA",
      "Marginal Workers Agricultural Labourers worked for 3 - 6 moths during last year - Males": 1516,
      "Scheduled Caste Females": 821,
      "Marginal Workers Cultivators - Males": 1207,
      "Marginal Workers - Males": 10892,
      "Marginal Workers worked for 0 - 3 moths during last year - Females": 2420,
      "Households with main source of drinking water within premises in percentage Houselisting and Housing Census Data Tables- District Level , Census of India": 66.94266081,
      "Marginal Workers Household Industry worked for 3 - 6 moths during last year - Persons": 521,
      "Upper Primary Girl's Enrolment in percentage DISE": "NA",
      "Prevalence of Severe Anaemia in women aged 15-49years in percentage DLHS-4": "NA",
      "Marginal Workers Agricultural Labourers worked for 0 - 3 moths during last year - Males": 724,
      "Households with electricity as main source of lighting  Houselisting and Housing Census Data Tables- District Level , Census of India__3": 50416,
      "Households with computer or laptop with internet connection in percentage": 7.79,
      "PHCs functioning on a 24x7hours basis in percentage DLHS-4": "Not applicable",
      "Non Workers - Males": 50581,
      "Total Households in District Houselisting and Housing Census Data Tables- District Level , Census of India": 53262,
      "Upper Primary Schools with girls toilet in percentage DISE": "NA",
      "Households with mobile phone in percentage": 46.89,
      "Households receiving untreated tap water within premises in percentage Houselisting and Housing Census Data Tables- District Level , Census of India__2": 3.272501971,
      "Marginal Workers Cultivators worked for 3 - 6 moths during last year - Males": 942,
      "Prevalence of Anaemia  in percentage DLHS-4": 61.3,
      "Prevalence of Chronic illness in percentage DLHS-4": 8.7,
      "Households with solar energy as main source of lighting in percentage Houselisting and Housing Census Data Tables- District Level , Census of India__1": 0.315421877,
      "Marginal Workers Agricultural Labourers worked for 0 - 3 moths during last year - Females": 1064,
      "Main Workers - Males": 50055,
      "Female": "NA",
      "Sno": 424,
      "Marginal Workers Other worked for 3 - 6 moths during last year - Females": 3028,
      "Marginal Workers Cultivators worked for 0 - 3 moths during last year - Females": 240,
      "Scheduled Tribe Males": 29663,
      "Male Illiterates": 21970,
      "Prevalence of Severe Anaemia in pregnant women aged 15-49years in percentage DLHS-4": 0,
      "0-6 Age Group Persons": 23279,
      "Upper Primary Student-Classroom Ratio in percentage DISE": "NA",
      "Currently married men married below 21years of age in percentage DLHS-4": 2.1,
      "Male Literates": 89558,
      "Households with no lighting in percentage Houselisting and Housing Census Data Tables- District Level , Census of India__2": 0.844880027,
      "Primary Drop Out Rate in percentage DISE": "NA",
      "Marginal Workers Household Industry - Males": 351,
      "Female Illiterates": 32190,
      "Main Workers Other - Females": 12223,
      "Marginal Workers Cultivators - Persons": 2400,
      "Upper Primary Gross Enrolment Ratio in percentage DISE": "NA",
      "Scheduled Caste Persons": 1618,
      "Marginal Workers Cultivators worked for 3 - 6 moths during last year - Persons": 1895,
      "Households with landline phone in percentage": 15.8,
      "Total Households in District  Houselisting and Housing Census Data Tables- District Level , Census of India": 53262,
      "Upper Primary Pupil-Teacher Ratio in percentage DISE": "NA",
      "Primary Student-Classroom Ratio in percentage DISE": "NA",
      "Primary Schools with boys toilet in percentage DISE": "NA",
      "Mean number of children ever born to women aged 40-49years  DLHS-4": 2.01,
      "Households receiving untreated tap water within premises  Houselisting and Housing Census Data Tables- District Level , Census of India__5": 1743,
      "Marginal Workers Household Industry worked for 0 - 3 moths during last year - Persons": 270,
      "Total Male Population": 111528,
      "Non Workers - Females": 87243,
      "Current use of family planning methods in percentage DLHS-4": 31.8,
      "Households with main source of drinking water within premises  Houselisting and Housing Census Data Tables- District Level , Census of India__3": 35655,
      "Main Workers Agricultural Labourers - Males": 2318,
      "Marginal Workers Other worked for 0 - 3 moths during last year - Persons": 2396,
      "Currently married women married below 18years of age in percentage DLHS-4": 0,
      "Person Illiterates": 54160,
      "Main Workers Household Industry - Females": 417,
      "Female Literates": 83086,
      "Marginal Workers Cultivators worked for 0 - 3 moths during last year - Males": 265,
      "Male": "NA",
      "Households with improved source of drinking water in percentage DLHS-4": 98.1,
      "Upper Primary Schools with electricity in percentage DISE": "NA",
      "Households with electricity in percentage DLHS-4": 99.8,
      "Villages with Primary Health Centre within 10km in percentage DLHS-4": "Not applicable",
      "Births to women aged 15-19years out of Total births in percentage DLHS-4": 0,
      "Prevalence of Anaemia in women aged 15-49years in percentage DLHS-4": "NA",
      "Marginal Workers Agricultural Labourers worked for 3 - 6 moths during last year - Persons": 3606,
      "Main Workers Household Industry - Males": 1213,
      "Scheduled Tribe Females": 30282,
      "Marginal Workers worked for 0 - 3 moths during last year - Males": 2539,
      "Marginal Workers Other worked for 3 - 6 moths during last year - Males": 5650,
      "Primary Net Enrolment Ratio in percentage DISE": "NA",
      "Total": "NA",
      "Mean age at marriage for boys DLHS-4": 29.3,
      "Number of District Hospitals  DLHS-4": "Not applicable",
      "0-6 Age Group Females": 11387,
      "Marginal Workers Agricultural Labourers worked for 0 - 3 moths during last year - Persons": 1788,
      "Marginal Workers Household Industry worked for 0 - 3 moths during last year - Males": 106,
      "Total Workers  Females": 28033,
      "Marginal Workers worked for 3 - 6 moths during last year - Females": 6347,
      "Institutional Deliveries in percentage DLHS-4": 97.8,
      "Marginal Workers Other - Males": 7094,
      "Total Workers  Males": 60947,
      "Main Workers - Females": 19266,
      "Primary Gross Enrolment Ratio in percentage DISE": "NA",
      "Main Workers Cultivators - Persons": 11495,
      "Marginal Workers Household Industry worked for 0 - 3 moths during last year - Females": 164,
      "Upper Primary Net Enrolment Ratio in percentage DISE": "NA",
      "Primary New Government Schools since 2003 in percentage DISE": "NA",
      "Tier": "Rural",
      "Marginal Workers Household Industry - Females": 440,
      "Primary Schools with electricity in percentage DISE": "NA",
      "Main Workers Other - Persons": 51775,
      "Marginal Workers Household Industry worked for 3 - 6 moths during last year - Females": 276,
      "Main Workers Cultivators - Males": 6972,
      "Main Workers Household Industry - Persons": 1630,
      "Marginal Workers Cultivators worked for 0 - 3 moths during last year - Persons": 505,
      "Scheduled Caste Males": 797,
      "Marginal Workers - Persons": 19659,
      "Deliveries at home conducted by skilled health personnel in percentage DLHS-4": 1.1,
      "Villages with Sub-Health Centres within 3km in percentage DLHS-4": "Not applicable",
      "Upper Primary New Government Schools since 2003 in percentage DISE": "NA",
      "0-6 Age Group Males": 11892,
      "Primary Schools with drinking water facility in percentage DISE": "NA",
      "Non Workers - Persons": 137824,
      "Person Literates": 172644,
      "State": "GOA",
      "Total Female Population": 115276,
      "Marginal Workers worked for 0 - 3 moths during last year - Persons": 4959,
      "Marginal Workers Cultivators - Females": 1193,
      "Marginal Workers Other - Persons": 11074,
      "Sex Ratio": 1034,
      "Scheduled Tribe Persons": 59945,
      "Marginal Workers Household Industry worked for 3 - 6 moths during last year - Males": 245,
      "Marginal Workers Agricultural Labourers - Females": 3154,
      "Mean age at marriage for girls DLHS-4": 25.5,
      "Households with solar energy as main source of lighting  Houselisting and Housing Census Data Tables- District Level , Census of India__4": 168,
      "District": "SOUTH GOA",
      "Households receiving treated tap water within premises in percentage Houselisting and Housing Census Data Tables- District Level , Census of India__1": 56.41545567,
      "Total Workers  Persons": 88980,
      "Households receiving treated tap water within premises  Houselisting and Housing Census Data Tables- District Level , Census of India__4": 30048,
      "Primary Female Teachers in percentage DISE": "NA",
      "Number of Households": 53504,
      "Main Workers Agricultural Labourers - Persons": 4421
    }
  ],
  "Urban": [
    {
      "Marginal Workers Agricultural Labourers - Persons": 1731,
      "Marginal Workers Other - Females": 7075,
      "Marginal Workers Other worked for 0 - 3 moths during last year - Females": 1122,
      "Upper Primary Schools with boys toilet in percentage DISE": "NA",
      "Total Population": 413733,
      "Households with electricity as main source of lighting in percentage Houselisting and Housing Census Data Tables- District Level , Census of India": 97.70963677,
      "Primary Girl's Enrolment in percentage DISE": "NA",
      "Marginal Workers worked for 3 - 6 moths during last year - Males": 11932,
      "Prevalence of Acute illness in percentage DLHS-4": "Not available",
      "Main Workers - Persons": 137295,
      "Main Workers Cultivators - Females": 340,
      "Marginal Workers Agricultural Labourers worked for 3 - 6 moths during last year - Females": 580,
      "Marginal Workers Other worked for 0 - 3 moths during last year - Males": 2330,
      "Upper Primary Schools with drinking water facility in percentage DISE": "NA",
      "Primary Schools with girls toilet in percentage DISE": "NA",
      "Marginal Workers worked for 3 - 6 moths during last year - Persons": 19152,
      "Upper Primary Drop Out Rate in percentage DISE": "NA",
      "Prevalence of Anaemia in pregnant women aged 15-49years in percentage DLHS-4": "Not available",
      "Current use of any modern method of family planning in percentage DLHS-4": "Not available",
      "Marginal Workers Agricultural Labourers - Males": 920,
      "Upper Primary Female Teachers in percentage DISE": "NA",
      "Marginal Workers - Females": 8673,
      "Marginal Workers Other worked for 3 - 6 moths during last year - Persons": 16699,
      "Main Workers Agricultural Labourers - Females": 375,
      "Marginal Workers Cultivators worked for 3 - 6 moths during last year - Females": 253,
      "Households with no lighting  Houselisting and Housing Census Data Tables- District Level , Census of India__5": 234,
      "Prevalence of Severe Anaemia  in percentage DLHS-4": "Not available",
      "Total unmet need for family planning in percentage DLHS-4": "Not available",
      "Main Workers Other - Males": 101082,
      "Children who received full vaccination in percentage DLHS-4": "Not available",
      "Marginal Workers Household Industry - Persons": 789,
      "Primary Pupil-Teacher Ratio in percentage DISE": "NA",
      "Marginal Workers Agricultural Labourers worked for 3 - 6 moths during last year - Males": 637,
      "Scheduled Caste Females": 3107,
      "Marginal Workers Cultivators - Males": 350,
      "Marginal Workers - Males": 14642,
      "Marginal Workers worked for 0 - 3 moths during last year - Females": 1453,
      "Households with main source of drinking water within premises in percentage Houselisting and Housing Census Data Tables- District Level , Census of India": 85.85435412,
      "Marginal Workers Household Industry worked for 3 - 6 moths during last year - Persons": 678,
      "Upper Primary Girl's Enrolment in percentage DISE": "NA",
      "Prevalence of Severe Anaemia in women aged 15-49years in percentage DLHS-4": "NA",
      "Marginal Workers Agricultural Labourers worked for 0 - 3 moths during last year - Males": 283,
      "Households with electricity as main source of lighting  Houselisting and Housing Census Data Tables- District Level , Census of India__3": 88394,
      "Households with computer or laptop with internet connection in percentage": 14.9,
      "PHCs functioning on a 24x7hours basis in percentage DLHS-4": 0,
      "Non Workers - Males": 91471,
      "Total Households in District Houselisting and Housing Census Data Tables- District Level , Census of India": 90466,
      "Upper Primary Schools with girls toilet in percentage DISE": "NA",
      "Households with mobile phone in percentage": 54.6,
      "Households receiving untreated tap water within premises in percentage Houselisting and Housing Census Data Tables- District Level , Census of India__2": 1.244666505,
      "Marginal Workers Cultivators worked for 3 - 6 moths during last year - Males": 305,
      "Prevalence of Anaemia  in percentage DLHS-4": "Not available",
      "Prevalence of Chronic illness in percentage DLHS-4": "Not available",
      "Households with solar energy as main source of lighting in percentage Houselisting and Housing Census Data Tables- District Level , Census of India__1": 0.11827648,
      "Marginal Workers Agricultural Labourers worked for 0 - 3 moths during last year - Females": 231,
      "Main Workers - Males": 104822,
      "Female": "NA",
      "Sno": 426,
      "Marginal Workers Other worked for 3 - 6 moths during last year - Females": 5953,
      "Marginal Workers Cultivators worked for 0 - 3 moths during last year - Females": 41,
      "Scheduled Tribe Males": 15461,
      "Male Illiterates": 36408,
      "Prevalence of Severe Anaemia in pregnant women aged 15-49years in percentage DLHS-4": "Not available",
      "0-6 Age Group Persons": 43627,
      "Upper Primary Student-Classroom Ratio in percentage DISE": "NA",
      "Currently married men married below 21years of age in percentage DLHS-4": "Not available",
      "Male Literates": 174527,
      "Households with no lighting in percentage Houselisting and Housing Census Data Tables- District Level , Census of India__2": 0.258660712,
      "Primary Drop Out Rate in percentage DISE": "NA",
      "Marginal Workers Household Industry - Males": 296,
      "Female Illiterates": 47542,
      "Main Workers Other - Females": 31070,
      "Marginal Workers Cultivators - Persons": 644,
      "Upper Primary Gross Enrolment Ratio in percentage DISE": "NA",
      "Scheduled Caste Persons": 6225,
      "Marginal Workers Cultivators worked for 3 - 6 moths during last year - Persons": 558,
      "Households with landline phone in percentage": 11.49,
      "Total Households in District  Houselisting and Housing Census Data Tables- District Level , Census of India": 90466,
      "Upper Primary Pupil-Teacher Ratio in percentage DISE": "NA",
      "Primary Student-Classroom Ratio in percentage DISE": "NA",
      "Primary Schools with boys toilet in percentage DISE": "NA",
      "Mean number of children ever born to women aged 40-49years  DLHS-4": "Not available",
      "Households receiving untreated tap water within premises  Houselisting and Housing Census Data Tables- District Level , Census of India__5": 1126,
      "Marginal Workers Household Industry worked for 0 - 3 moths during last year - Persons": 111,
      "Total Male Population": 210935,
      "Non Workers - Females": 161652,
      "Current use of family planning methods in percentage DLHS-4": "Not available",
      "Households with main source of drinking water within premises  Houselisting and Housing Census Data Tables- District Level , Census of India__3": 77669,
      "Main Workers Agricultural Labourers - Males": 719,
      "Marginal Workers Other worked for 0 - 3 moths during last year - Persons": 3452,
      "Currently married women married below 18years of age in percentage DLHS-4": "Not available",
      "Person Illiterates": 83950,
      "Main Workers Household Industry - Females": 688,
      "Female Literates": 155256,
      "Marginal Workers Cultivators worked for 0 - 3 moths during last year - Males": 45,
      "Male": "NA",
      "Households with improved source of drinking water in percentage DLHS-4": "Not Available",
      "Upper Primary Schools with electricity in percentage DISE": "NA",
      "Households with electricity in percentage DLHS-4": "Not Available",
      "Villages with Primary Health Centre within 10km in percentage DLHS-4": 0,
      "Births to women aged 15-19years out of Total births in percentage DLHS-4": "Not available",
      "Prevalence of Anaemia in women aged 15-49years in percentage DLHS-4": "NA",
      "Marginal Workers Agricultural Labourers worked for 3 - 6 moths during last year - Persons": 1217,
      "Main Workers Household Industry - Males": 1948,
      "Scheduled Tribe Females": 17263,
      "Marginal Workers worked for 0 - 3 moths during last year - Males": 2710,
      "Marginal Workers Other worked for 3 - 6 moths during last year - Males": 10746,
      "Primary Net Enrolment Ratio in percentage DISE": "NA",
      "Total": "NA",
      "Mean age at marriage for boys DLHS-4": "Not available",
      "Number of District Hospitals  DLHS-4": 0,
      "0-6 Age Group Females": 21140,
      "Marginal Workers Agricultural Labourers worked for 0 - 3 moths during last year - Persons": 514,
      "Marginal Workers Household Industry worked for 0 - 3 moths during last year - Males": 52,
      "Total Workers  Females": 41146,
      "Marginal Workers worked for 3 - 6 moths during last year - Females": 7220,
      "Institutional Deliveries in percentage DLHS-4": "Not available",
      "Marginal Workers Other - Males": 13076,
      "Total Workers  Males": 119464,
      "Main Workers - Females": 32473,
      "Primary Gross Enrolment Ratio in percentage DISE": "NA",
      "Main Workers Cultivators - Persons": 1413,
      "Marginal Workers Household Industry worked for 0 - 3 moths during last year - Females": 59,
      "Upper Primary Net Enrolment Ratio in percentage DISE": "NA",
      "Primary New Government Schools since 2003 in percentage DISE": "NA",
      "Tier": "Urban",
      "Marginal Workers Household Industry - Females": 493,
      "Primary Schools with electricity in percentage DISE": "NA",
      "Main Workers Other - Persons": 132152,
      "Marginal Workers Household Industry worked for 3 - 6 moths during last year - Females": 434,
      "Main Workers Cultivators - Males": 1073,
      "Main Workers Household Industry - Persons": 2636,
      "Marginal Workers Cultivators worked for 0 - 3 moths during last year - Persons": 86,
      "Scheduled Caste Males": 3118,
      "Marginal Workers - Persons": 23315,
      "Deliveries at home conducted by skilled health personnel in percentage DLHS-4": "Not available",
      "Villages with Sub-Health Centres within 3km in percentage DLHS-4": 0,
      "Upper Primary New Government Schools since 2003 in percentage DISE": "NA",
      "0-6 Age Group Males": 22487,
      "Primary Schools with drinking water facility in percentage DISE": "NA",
      "Non Workers - Persons": 253123,
      "Person Literates": 329783,
      "State": "GOA",
      "Total Female Population": 202798,
      "Marginal Workers worked for 0 - 3 moths during last year - Persons": 4163,
      "Marginal Workers Cultivators - Females": 294,
      "Marginal Workers Other - Persons": 20151,
      "Sex Ratio": 961,
      "Scheduled Tribe Persons": 32724,
      "Marginal Workers Household Industry worked for 3 - 6 moths during last year - Males": 244,
      "Marginal Workers Agricultural Labourers - Females": 811,
      "Mean age at marriage for girls DLHS-4": "Not available",
      "Households with solar energy as main source of lighting  Houselisting and Housing Census Data Tables- District Level , Census of India__4": 107,
      "District": "SOUTH GOA",
      "Households receiving treated tap water within premises in percentage Houselisting and Housing Census Data Tables- District Level , Census of India__1": 81.57318772,
      "Total Workers  Persons": 160610,
      "Households receiving treated tap water within premises  Houselisting and Housing Census Data Tables- District Level , Census of India__4": 73796,
      "Primary Female Teachers in percentage DISE": "NA",
      "Number of Households": 98341,
      "Main Workers Agricultural Labourers - Persons": 1094
    }
  ]
}