{
  "Total": [
    {
      "Marginal Workers Agricultural Labourers - Persons": 128981,
      "Marginal Workers Other - Females": 14359,
      "Marginal Workers Other worked for 0 - 3 moths during last year - Females": 3032,
      "Upper Primary Schools with boys toilet in percentage DISE": 0,
      "Total Population": 1734495,
      "Households with electricity as main source of lighting in percentage Houselisting and Housing Census Data Tables- District Level , Census of India": 58.72249168,
      "Primary Girl's Enrolment in percentage DISE": 51.9,
      "Marginal Workers worked for 3 - 6 moths during last year - Males": 138929,
      "Prevalence of Acute illness in percentage DLHS-4": "Not available",
      "Main Workers - Persons": 327316,
      "Main Workers Cultivators - Females": 29450,
      "Marginal Workers Agricultural Labourers worked for 3 - 6 moths during last year - Females": 55581,
      "Marginal Workers Other worked for 0 - 3 moths during last year - Males": 5428,
      "Upper Primary Schools with drinking water facility in percentage DISE": 0,
      "Primary Schools with girls toilet in percentage DISE": 60,
      "Marginal Workers worked for 3 - 6 moths during last year - Persons": 266740,
      "Upper Primary Drop Out Rate in percentage DISE": "Not available",
      "Prevalence of Anaemia in pregnant women aged 15-49years in percentage DLHS-4": "Not available",
      "Current use of any modern method of family planning in percentage DLHS-4": 55.6,
      "Marginal Workers Agricultural Labourers - Males": 57632,
      "Upper Primary Female Teachers in percentage DISE": 0,
      "Marginal Workers - Females": 165847,
      "Marginal Workers Other worked for 3 - 6 moths during last year - Persons": 52046,
      "Main Workers Agricultural Labourers - Females": 14073,
      "Marginal Workers Cultivators worked for 3 - 6 moths during last year - Females": 57915,
      "Households with no lighting  Houselisting and Housing Census Data Tables- District Level , Census of India__5": 161,
      "Prevalence of Severe Anaemia  in percentage DLHS-4": "Not available",
      "Total unmet need for family planning in percentage DLHS-4": 17.2,
      "Main Workers Other - Males": 143620,
      "Children who received full vaccination in percentage DLHS-4": "Not available",
      "Marginal Workers Household Industry - Persons": 8044,
      "Primary Pupil-Teacher Ratio in percentage DISE": 32,
      "Marginal Workers Agricultural Labourers worked for 3 - 6 moths during last year - Males": 49669,
      "Scheduled Caste Females": 148502,
      "Marginal Workers Cultivators - Males": 53922,
      "Marginal Workers - Males": 161473,
      "Marginal Workers worked for 0 - 3 moths during last year - Females": 38036,
      "Households with main source of drinking water within premises in percentage Houselisting and Housing Census Data Tables- District Level , Census of India": 26.07501984,
      "Marginal Workers Household Industry worked for 3 - 6 moths during last year - Persons": 6067,
      "Upper Primary Girl's Enrolment in percentage DISE": 0,
      "Prevalence of Severe Anaemia in women aged 15-49years in percentage DLHS-4": "Not available",
      "Marginal Workers Agricultural Labourers worked for 0 - 3 moths during last year - Males": 7963,
      "Households with electricity as main source of lighting  Houselisting and Housing Census Data Tables- District Level , Census of India__3": 176888,
      "Households with computer or laptop with internet connection in percentage": 1.17,
      "PHCs functioning on a 24x7hours basis in percentage DLHS-4": "Not available",
      "Non Workers - Males": 467409,
      "Total Households in District Houselisting and Housing Census Data Tables- District Level , Census of India": 301227,
      "Upper Primary Schools with girls toilet in percentage DISE": 0,
      "Households with mobile phone in percentage": 62.87,
      "Households receiving untreated tap water within premises in percentage Houselisting and Housing Census Data Tables- District Level , Census of India__2": 0.992274929,
      "Marginal Workers Cultivators worked for 3 - 6 moths during last year - Males": 45462,
      "Prevalence of Anaemia  in percentage DLHS-4": "Not available",
      "Prevalence of Chronic illness in percentage DLHS-4": "Not available",
      "Households with solar energy as main source of lighting in percentage Houselisting and Housing Census Data Tables- District Level , Census of India__1": 0.335627284,
      "Marginal Workers Agricultural Labourers worked for 0 - 3 moths during last year - Females": 15768,
      "Main Workers - Males": 261999,
      "Female": 58.95,
      "Sno": 719,
      "Marginal Workers Other worked for 3 - 6 moths during last year - Females": 11327,
      "Marginal Workers Cultivators worked for 0 - 3 moths during last year - Females": 17952,
      "Scheduled Tribe Males": 60796,
      "Male Illiterates": 294768,
      "Prevalence of Severe Anaemia in pregnant women aged 15-49years in percentage DLHS-4": "Not available",
      "0-6 Age Group Persons": 281863,
      "Upper Primary Student-Classroom Ratio in percentage DISE": 0,
      "Currently married men married below 21years of age in percentage DLHS-4": 13.5,
      "Male Literates": 596113,
      "Households with no lighting in percentage Houselisting and Housing Census Data Tables- District Level , Census of India__2": 0.0534,
      "Primary Drop Out Rate in percentage DISE": 6.2,
      "Marginal Workers Household Industry - Males": 3772,
      "Female Illiterates": 426478,
      "Main Workers Other - Females": 19515,
      "Marginal Workers Cultivators - Persons": 129789,
      "Upper Primary Gross Enrolment Ratio in percentage DISE": 80.6,
      "Scheduled Caste Persons": 303515,
      "Marginal Workers Cultivators worked for 3 - 6 moths during last year - Persons": 103377,
      "Households with landline phone in percentage": 2.49,
      "Total Households in District  Houselisting and Housing Census Data Tables- District Level , Census of India": 301227,
      "Upper Primary Pupil-Teacher Ratio in percentage DISE": 0,
      "Primary Student-Classroom Ratio in percentage DISE": 21,
      "Primary Schools with boys toilet in percentage DISE": 61.1,
      "Mean number of children ever born to women aged 40-49years  DLHS-4": "Not available",
      "Households receiving untreated tap water within premises  Houselisting and Housing Census Data Tables- District Level , Census of India__5": 2989,
      "Marginal Workers Household Industry worked for 0 - 3 moths during last year - Persons": 1977,
      "Total Male Population": 890881,
      "Non Workers - Females": 612450,
      "Current use of family planning methods in percentage DLHS-4": 66.8,
      "Households with main source of drinking water within premises  Houselisting and Housing Census Data Tables- District Level , Census of India__3": 78545,
      "Main Workers Agricultural Labourers - Males": 29331,
      "Marginal Workers Other worked for 0 - 3 moths during last year - Persons": 8460,
      "Currently married women married below 18years of age in percentage DLHS-4": 11.4,
      "Person Illiterates": 721246,
      "Main Workers Household Industry - Females": 2279,
      "Female Literates": 417136,
      "Marginal Workers Cultivators worked for 0 - 3 moths during last year - Males": 8460,
      "Male": 80.01,
      "Households with improved source of drinking water in percentage DLHS-4": "Not available",
      "Upper Primary Schools with electricity in percentage DISE": 0,
      "Households with electricity in percentage DLHS-4": "Not available",
      "Villages with Primary Health Centre within 10km in percentage DLHS-4": "Not available",
      "Births to women aged 15-19years out of Total births in percentage DLHS-4": "Not available",
      "Prevalence of Anaemia in women aged 15-49years in percentage DLHS-4": "Not available",
      "Marginal Workers Agricultural Labourers worked for 3 - 6 moths during last year - Persons": 105250,
      "Main Workers Household Industry - Males": 5827,
      "Scheduled Tribe Females": 60972,
      "Marginal Workers worked for 0 - 3 moths during last year - Males": 22544,
      "Marginal Workers Other worked for 3 - 6 moths during last year - Males": 40719,
      "Primary Net Enrolment Ratio in percentage DISE": 89,
      "Total": 69.75,
      "Mean age at marriage for boys DLHS-4": 24.2,
      "Number of District Hospitals  DLHS-4": "Not available",
      "0-6 Age Group Females": 136042,
      "Marginal Workers Agricultural Labourers worked for 0 - 3 moths during last year - Persons": 23731,
      "Marginal Workers Household Industry worked for 0 - 3 moths during last year - Males": 693,
      "Total Workers  Females": 231164,
      "Marginal Workers worked for 3 - 6 moths during last year - Females": 127811,
      "Institutional Deliveries in percentage DLHS-4": 54.2,
      "Marginal Workers Other - Males": 46147,
      "Total Workers  Males": 423472,
      "Main Workers - Females": 65317,
      "Primary Gross Enrolment Ratio in percentage DISE": 91.8,
      "Main Workers Cultivators - Persons": 112671,
      "Marginal Workers Household Industry worked for 0 - 3 moths during last year - Females": 1284,
      "Upper Primary Net Enrolment Ratio in percentage DISE": 76.6,
      "Primary New Government Schools since 2003 in percentage DISE": 43.9,
      "Tier": "Total",
      "Marginal Workers Household Industry - Females": 4272,
      "Primary Schools with electricity in percentage DISE": 5.3,
      "Main Workers Other - Persons": 163135,
      "Marginal Workers Household Industry worked for 3 - 6 moths during last year - Females": 2988,
      "Main Workers Cultivators - Males": 83221,
      "Main Workers Household Industry - Persons": 8106,
      "Marginal Workers Cultivators worked for 0 - 3 moths during last year - Persons": 26412,
      "Scheduled Caste Males": 155013,
      "Marginal Workers - Persons": 327320,
      "Deliveries at home conducted by skilled health personnel in percentage DLHS-4": 33.9,
      "Villages with Sub-Health Centres within 3km in percentage DLHS-4": "Not available",
      "Upper Primary New Government Schools since 2003 in percentage DISE": 0,
      "0-6 Age Group Males": 145821,
      "Primary Schools with drinking water facility in percentage DISE": 90,
      "Non Workers - Persons": 1079859,
      "Person Literates": 1013249,
      "State": "JHARKHAND",
      "Total Female Population": 843614,
      "Marginal Workers worked for 0 - 3 moths during last year - Persons": 60580,
      "Marginal Workers Cultivators - Females": 75867,
      "Marginal Workers Other - Persons": 60506,
      "Sex Ratio": 947,
      "Scheduled Tribe Persons": 121768,
      "Marginal Workers Household Industry worked for 3 - 6 moths during last year - Males": 3079,
      "Marginal Workers Agricultural Labourers - Females": 71349,
      "Mean age at marriage for girls DLHS-4": 20.3,
      "Households with solar energy as main source of lighting  Houselisting and Housing Census Data Tables- District Level , Census of India__4": 1011,
      "District": "HAZARIBAGH",
      "Households receiving treated tap water within premises in percentage Houselisting and Housing Census Data Tables- District Level , Census of India__1": 3.667997889,
      "Total Workers  Persons": 654636,
      "Households receiving treated tap water within premises  Houselisting and Housing Census Data Tables- District Level , Census of India__4": 11049,
      "Primary Female Teachers in percentage DISE": 36.5,
      "Number of Households": 304749,
      "Main Workers Agricultural Labourers - Persons": 43404
    }
  ],
  "Rural": [
    {
      "Marginal Workers Agricultural Labourers - Persons": 127700,
      "Marginal Workers Other - Females": 12451,
      "Marginal Workers Other worked for 0 - 3 moths during last year - Females": 2753,
      "Upper Primary Schools with boys toilet in percentage DISE": "NA",
      "Total Population": 1459188,
      "Households with electricity as main source of lighting in percentage Houselisting and Housing Census Data Tables- District Level , Census of India": 52.47537282,
      "Primary Girl's Enrolment in percentage DISE": "NA",
      "Marginal Workers worked for 3 - 6 moths during last year - Males": 131483,
      "Prevalence of Acute illness in percentage DLHS-4": "Not available",
      "Main Workers - Persons": 263276,
      "Main Workers Cultivators - Females": 29211,
      "Marginal Workers Agricultural Labourers worked for 3 - 6 moths during last year - Females": 55235,
      "Marginal Workers Other worked for 0 - 3 moths during last year - Males": 4636,
      "Upper Primary Schools with drinking water facility in percentage DISE": "NA",
      "Primary Schools with girls toilet in percentage DISE": "NA",
      "Marginal Workers worked for 3 - 6 moths during last year - Persons": 256531,
      "Upper Primary Drop Out Rate in percentage DISE": "NA",
      "Prevalence of Anaemia in pregnant women aged 15-49years in percentage DLHS-4": "Not available",
      "Current use of any modern method of family planning in percentage DLHS-4": 55.2,
      "Marginal Workers Agricultural Labourers - Males": 56827,
      "Upper Primary Female Teachers in percentage DISE": "NA",
      "Marginal Workers - Females": 162454,
      "Marginal Workers Other worked for 3 - 6 moths during last year - Persons": 44355,
      "Main Workers Agricultural Labourers - Females": 13858,
      "Marginal Workers Cultivators worked for 3 - 6 moths during last year - Females": 57281,
      "Households with no lighting  Houselisting and Housing Census Data Tables- District Level , Census of India__5": 104,
      "Prevalence of Severe Anaemia  in percentage DLHS-4": "Not available",
      "Total unmet need for family planning in percentage DLHS-4": 16.9,
      "Main Workers Other - Males": 89917,
      "Children who received full vaccination in percentage DLHS-4": "Not available",
      "Marginal Workers Household Industry - Persons": 7594,
      "Primary Pupil-Teacher Ratio in percentage DISE": "NA",
      "Marginal Workers Agricultural Labourers worked for 3 - 6 moths during last year - Males": 49058,
      "Scheduled Caste Females": 133711,
      "Marginal Workers Cultivators - Males": 53268,
      "Marginal Workers - Males": 152890,
      "Marginal Workers worked for 0 - 3 moths during last year - Females": 37406,
      "Households with main source of drinking water within premises in percentage Houselisting and Housing Census Data Tables- District Level , Census of India": 18.5153695,
      "Marginal Workers Household Industry worked for 3 - 6 moths during last year - Persons": 5680,
      "Upper Primary Girl's Enrolment in percentage DISE": "NA",
      "Prevalence of Severe Anaemia in women aged 15-49years in percentage DLHS-4": "Not available",
      "Marginal Workers Agricultural Labourers worked for 0 - 3 moths during last year - Males": 7769,
      "Households with electricity as main source of lighting  Houselisting and Housing Census Data Tables- District Level , Census of India__3": 132695,
      "Households with computer or laptop with internet connection in percentage": 0.49,
      "PHCs functioning on a 24x7hours basis in percentage DLHS-4": "Not applicable",
      "Non Workers - Males": 388760,
      "Total Households in District Houselisting and Housing Census Data Tables- District Level , Census of India": 252871,
      "Upper Primary Schools with girls toilet in percentage DISE": "NA",
      "Households with mobile phone in percentage": 61.34,
      "Households receiving untreated tap water within premises in percentage Houselisting and Housing Census Data Tables- District Level , Census of India__2": 0.311225882,
      "Marginal Workers Cultivators worked for 3 - 6 moths during last year - Males": 44922,
      "Prevalence of Anaemia  in percentage DLHS-4": "Not available",
      "Prevalence of Chronic illness in percentage DLHS-4": "Not available",
      "Households with solar energy as main source of lighting in percentage Houselisting and Housing Census Data Tables- District Level , Census of India__1": 0.358680908,
      "Marginal Workers Agricultural Labourers worked for 0 - 3 moths during last year - Females": 15638,
      "Main Workers - Males": 205284,
      "Female": "NA",
      "Sno": 718,
      "Marginal Workers Other worked for 3 - 6 moths during last year - Females": 9698,
      "Marginal Workers Cultivators worked for 0 - 3 moths during last year - Females": 17757,
      "Scheduled Tribe Males": 53800,
      "Male Illiterates": 264598,
      "Prevalence of Severe Anaemia in pregnant women aged 15-49years in percentage DLHS-4": "Not available",
      "0-6 Age Group Persons": 246642,
      "Upper Primary Student-Classroom Ratio in percentage DISE": "NA",
      "Currently married men married below 21years of age in percentage DLHS-4": 15.8,
      "Male Literates": 482336,
      "Households with no lighting in percentage Houselisting and Housing Census Data Tables- District Level , Census of India__2": 0.0411,
      "Primary Drop Out Rate in percentage DISE": "NA",
      "Marginal Workers Household Industry - Males": 3502,
      "Female Illiterates": 386581,
      "Main Workers Other - Females": 12939,
      "Marginal Workers Cultivators - Persons": 128306,
      "Upper Primary Gross Enrolment Ratio in percentage DISE": "NA",
      "Scheduled Caste Persons": 272868,
      "Marginal Workers Cultivators worked for 3 - 6 moths during last year - Persons": 102203,
      "Households with landline phone in percentage": 2.08,
      "Total Households in District  Houselisting and Housing Census Data Tables- District Level , Census of India": 252871,
      "Upper Primary Pupil-Teacher Ratio in percentage DISE": "NA",
      "Primary Student-Classroom Ratio in percentage DISE": "NA",
      "Primary Schools with boys toilet in percentage DISE": "NA",
      "Mean number of children ever born to women aged 40-49years  DLHS-4": "Not available",
      "Households receiving untreated tap water within premises  Houselisting and Housing Census Data Tables- District Level , Census of India__5": 787,
      "Marginal Workers Household Industry worked for 0 - 3 moths during last year - Persons": 1914,
      "Total Male Population": 746934,
      "Non Workers - Females": 491808,
      "Current use of family planning methods in percentage DLHS-4": 66.6,
      "Households with main source of drinking water within premises  Houselisting and Housing Census Data Tables- District Level , Census of India__3": 46820,
      "Main Workers Agricultural Labourers - Males": 28429,
      "Marginal Workers Other worked for 0 - 3 moths during last year - Persons": 7389,
      "Currently married women married below 18years of age in percentage DLHS-4": 12.9,
      "Person Illiterates": 651179,
      "Main Workers Household Industry - Females": 1984,
      "Female Literates": 325673,
      "Marginal Workers Cultivators worked for 0 - 3 moths during last year - Males": 8346,
      "Male": "NA",
      "Households with improved source of drinking water in percentage DLHS-4": "Not available",
      "Upper Primary Schools with electricity in percentage DISE": "NA",
      "Households with electricity in percentage DLHS-4": "Not available",
      "Villages with Primary Health Centre within 10km in percentage DLHS-4": "Not applicable",
      "Births to women aged 15-19years out of Total births in percentage DLHS-4": "Not available",
      "Prevalence of Anaemia in women aged 15-49years in percentage DLHS-4": "Not available",
      "Marginal Workers Agricultural Labourers worked for 3 - 6 moths during last year - Persons": 104293,
      "Main Workers Household Industry - Males": 4599,
      "Scheduled Tribe Females": 53753,
      "Marginal Workers worked for 0 - 3 moths during last year - Males": 21407,
      "Marginal Workers Other worked for 3 - 6 moths during last year - Males": 34657,
      "Primary Net Enrolment Ratio in percentage DISE": "NA",
      "Total": "NA",
      "Mean age at marriage for boys DLHS-4": 23.7,
      "Number of District Hospitals  DLHS-4": "Not applicable",
      "0-6 Age Group Females": 119175,
      "Marginal Workers Agricultural Labourers worked for 0 - 3 moths during last year - Persons": 23407,
      "Marginal Workers Household Industry worked for 0 - 3 moths during last year - Males": 656,
      "Total Workers  Females": 220446,
      "Marginal Workers worked for 3 - 6 moths during last year - Females": 125048,
      "Institutional Deliveries in percentage DLHS-4": 49.5,
      "Marginal Workers Other - Males": 39293,
      "Total Workers  Males": 358174,
      "Main Workers - Females": 57992,
      "Primary Gross Enrolment Ratio in percentage DISE": "NA",
      "Main Workers Cultivators - Persons": 111550,
      "Marginal Workers Household Industry worked for 0 - 3 moths during last year - Females": 1258,
      "Upper Primary Net Enrolment Ratio in percentage DISE": "NA",
      "Primary New Government Schools since 2003 in percentage DISE": "NA",
      "Tier": "Rural",
      "Marginal Workers Household Industry - Females": 4092,
      "Primary Schools with electricity in percentage DISE": "NA",
      "Main Workers Other - Persons": 102856,
      "Marginal Workers Household Industry worked for 3 - 6 moths during last year - Females": 2834,
      "Main Workers Cultivators - Males": 82339,
      "Main Workers Household Industry - Persons": 6583,
      "Marginal Workers Cultivators worked for 0 - 3 moths during last year - Persons": 26103,
      "Scheduled Caste Males": 139157,
      "Marginal Workers - Persons": 315344,
      "Deliveries at home conducted by skilled health personnel in percentage DLHS-4": 33.5,
      "Villages with Sub-Health Centres within 3km in percentage DLHS-4": "Not applicable",
      "Upper Primary New Government Schools since 2003 in percentage DISE": "NA",
      "0-6 Age Group Males": 127467,
      "Primary Schools with drinking water facility in percentage DISE": "NA",
      "Non Workers - Persons": 880568,
      "Person Literates": 808009,
      "State": "JHARKHAND",
      "Total Female Population": 712254,
      "Marginal Workers worked for 0 - 3 moths during last year - Persons": 58813,
      "Marginal Workers Cultivators - Females": 75038,
      "Marginal Workers Other - Persons": 51744,
      "Sex Ratio": 954,
      "Scheduled Tribe Persons": 107553,
      "Marginal Workers Household Industry worked for 3 - 6 moths during last year - Males": 2846,
      "Marginal Workers Agricultural Labourers - Females": 70873,
      "Mean age at marriage for girls DLHS-4": 20,
      "Households with solar energy as main source of lighting  Houselisting and Housing Census Data Tables- District Level , Census of India__4": 907,
      "District": "HAZARIBAGH",
      "Households receiving treated tap water within premises in percentage Houselisting and Housing Census Data Tables- District Level , Census of India__1": 0.701938933,
      "Total Workers  Persons": 578620,
      "Households receiving treated tap water within premises  Houselisting and Housing Census Data Tables- District Level , Census of India__4": 1775,
      "Primary Female Teachers in percentage DISE": "NA",
      "Number of Households": 255451,
      "Main Workers Agricultural Labourers - Persons": 42287
    }
  ],
  "Urban": [
    {
      "Marginal Workers Agricultural Labourers - Persons": 1281,
      "Marginal Workers Other - Females": 1908,
      "Marginal Workers Other worked for 0 - 3 moths during last year - Females": 279,
      "Upper Primary Schools with boys toilet in percentage DISE": "NA",
      "Total Population": 275307,
      "Households with electricity as main source of lighting in percentage Houselisting and Housing Census Data Tables- District Level , Census of India": 91.39093391,
      "Primary Girl's Enrolment in percentage DISE": "NA",
      "Marginal Workers worked for 3 - 6 moths during last year - Males": 7446,
      "Prevalence of Acute illness in percentage DLHS-4": "Not available",
      "Main Workers - Persons": 64040,
      "Main Workers Cultivators - Females": 239,
      "Marginal Workers Agricultural Labourers worked for 3 - 6 moths during last year - Females": 346,
      "Marginal Workers Other worked for 0 - 3 moths during last year - Males": 792,
      "Upper Primary Schools with drinking water facility in percentage DISE": "NA",
      "Primary Schools with girls toilet in percentage DISE": "NA",
      "Marginal Workers worked for 3 - 6 moths during last year - Persons": 10209,
      "Upper Primary Drop Out Rate in percentage DISE": "NA",
      "Prevalence of Anaemia in pregnant women aged 15-49years in percentage DLHS-4": "Not available",
      "Current use of any modern method of family planning in percentage DLHS-4": 57.1,
      "Marginal Workers Agricultural Labourers - Males": 805,
      "Upper Primary Female Teachers in percentage DISE": "NA",
      "Marginal Workers - Females": 3393,
      "Marginal Workers Other worked for 3 - 6 moths during last year - Persons": 7691,
      "Main Workers Agricultural Labourers - Females": 215,
      "Marginal Workers Cultivators worked for 3 - 6 moths during last year - Females": 634,
      "Households with no lighting  Houselisting and Housing Census Data Tables- District Level , Census of India__5": 57,
      "Prevalence of Severe Anaemia  in percentage DLHS-4": "Not available",
      "Total unmet need for family planning in percentage DLHS-4": 18.6,
      "Main Workers Other - Males": 53703,
      "Children who received full vaccination in percentage DLHS-4": "Not available",
      "Marginal Workers Household Industry - Persons": 450,
      "Primary Pupil-Teacher Ratio in percentage DISE": "NA",
      "Marginal Workers Agricultural Labourers worked for 3 - 6 moths during last year - Males": 611,
      "Scheduled Caste Females": 14791,
      "Marginal Workers Cultivators - Males": 654,
      "Marginal Workers - Males": 8583,
      "Marginal Workers worked for 0 - 3 moths during last year - Females": 630,
      "Households with main source of drinking water within premises in percentage Houselisting and Housing Census Data Tables- District Level , Census of India": 65.60716354,
      "Marginal Workers Household Industry worked for 3 - 6 moths during last year - Persons": 387,
      "Upper Primary Girl's Enrolment in percentage DISE": "NA",
      "Prevalence of Severe Anaemia in women aged 15-49years in percentage DLHS-4": "Not available",
      "Marginal Workers Agricultural Labourers worked for 0 - 3 moths during last year - Males": 194,
      "Households with electricity as main source of lighting  Houselisting and Housing Census Data Tables- District Level , Census of India__3": 44193,
      "Households with computer or laptop with internet connection in percentage": 4.73,
      "PHCs functioning on a 24x7hours basis in percentage DLHS-4": 0,
      "Non Workers - Males": 78649,
      "Total Households in District Houselisting and Housing Census Data Tables- District Level , Census of India": 48356,
      "Upper Primary Schools with girls toilet in percentage DISE": "NA",
      "Households with mobile phone in percentage": 70.89,
      "Households receiving untreated tap water within premises in percentage Houselisting and Housing Census Data Tables- District Level , Census of India__2": 4.553726528,
      "Marginal Workers Cultivators worked for 3 - 6 moths during last year - Males": 540,
      "Prevalence of Anaemia  in percentage DLHS-4": "Not available",
      "Prevalence of Chronic illness in percentage DLHS-4": "Not available",
      "Households with solar energy as main source of lighting in percentage Houselisting and Housing Census Data Tables- District Level , Census of India__1": 0.215071553,
      "Marginal Workers Agricultural Labourers worked for 0 - 3 moths during last year - Females": 130,
      "Main Workers - Males": 56715,
      "Female": "NA",
      "Sno": 720,
      "Marginal Workers Other worked for 3 - 6 moths during last year - Females": 1629,
      "Marginal Workers Cultivators worked for 0 - 3 moths during last year - Females": 195,
      "Scheduled Tribe Males": 6996,
      "Male Illiterates": 30170,
      "Prevalence of Severe Anaemia in pregnant women aged 15-49years in percentage DLHS-4": "Not available",
      "0-6 Age Group Persons": 35221,
      "Upper Primary Student-Classroom Ratio in percentage DISE": "NA",
      "Currently married men married below 21years of age in percentage DLHS-4": 5.8,
      "Male Literates": 113777,
      "Households with no lighting in percentage Houselisting and Housing Census Data Tables- District Level , Census of India__2": 0.117875755,
      "Primary Drop Out Rate in percentage DISE": "NA",
      "Marginal Workers Household Industry - Males": 270,
      "Female Illiterates": 39897,
      "Main Workers Other - Females": 6576,
      "Marginal Workers Cultivators - Persons": 1483,
      "Upper Primary Gross Enrolment Ratio in percentage DISE": "NA",
      "Scheduled Caste Persons": 30647,
      "Marginal Workers Cultivators worked for 3 - 6 moths during last year - Persons": 1174,
      "Households with landline phone in percentage": 4.65,
      "Total Households in District  Houselisting and Housing Census Data Tables- District Level , Census of India": 48356,
      "Upper Primary Pupil-Teacher Ratio in percentage DISE": "NA",
      "Primary Student-Classroom Ratio in percentage DISE": "NA",
      "Primary Schools with boys toilet in percentage DISE": "NA",
      "Mean number of children ever born to women aged 40-49years  DLHS-4": "Not available",
      "Households receiving untreated tap water within premises  Houselisting and Housing Census Data Tables- District Level , Census of India__5": 2202,
      "Marginal Workers Household Industry worked for 0 - 3 moths during last year - Persons": 63,
      "Total Male Population": 143947,
      "Non Workers - Females": 120642,
      "Current use of family planning methods in percentage DLHS-4": 67.5,
      "Households with main source of drinking water within premises  Houselisting and Housing Census Data Tables- District Level , Census of India__3": 31725,
      "Main Workers Agricultural Labourers - Males": 902,
      "Marginal Workers Other worked for 0 - 3 moths during last year - Persons": 1071,
      "Currently married women married below 18years of age in percentage DLHS-4": 6.2,
      "Person Illiterates": 70067,
      "Main Workers Household Industry - Females": 295,
      "Female Literates": 91463,
      "Marginal Workers Cultivators worked for 0 - 3 moths during last year - Males": 114,
      "Male": "NA",
      "Households with improved source of drinking water in percentage DLHS-4": "Not available",
      "Upper Primary Schools with electricity in percentage DISE": "NA",
      "Households with electricity in percentage DLHS-4": "Not available",
      "Villages with Primary Health Centre within 10km in percentage DLHS-4": 0,
      "Births to women aged 15-19years out of Total births in percentage DLHS-4": "Not available",
      "Prevalence of Anaemia in women aged 15-49years in percentage DLHS-4": "Not available",
      "Marginal Workers Agricultural Labourers worked for 3 - 6 moths during last year - Persons": 957,
      "Main Workers Household Industry - Males": 1228,
      "Scheduled Tribe Females": 7219,
      "Marginal Workers worked for 0 - 3 moths during last year - Males": 1137,
      "Marginal Workers Other worked for 3 - 6 moths during last year - Males": 6062,
      "Primary Net Enrolment Ratio in percentage DISE": "NA",
      "Total": "NA",
      "Mean age at marriage for boys DLHS-4": 26.2,
      "Number of District Hospitals  DLHS-4": 0,
      "0-6 Age Group Females": 16867,
      "Marginal Workers Agricultural Labourers worked for 0 - 3 moths during last year - Persons": 324,
      "Marginal Workers Household Industry worked for 0 - 3 moths during last year - Males": 37,
      "Total Workers  Females": 10718,
      "Marginal Workers worked for 3 - 6 moths during last year - Females": 2763,
      "Institutional Deliveries in percentage DLHS-4": 76.6,
      "Marginal Workers Other - Males": 6854,
      "Total Workers  Males": 65298,
      "Main Workers - Females": 7325,
      "Primary Gross Enrolment Ratio in percentage DISE": "NA",
      "Main Workers Cultivators - Persons": 1121,
      "Marginal Workers Household Industry worked for 0 - 3 moths during last year - Females": 26,
      "Upper Primary Net Enrolment Ratio in percentage DISE": "NA",
      "Primary New Government Schools since 2003 in percentage DISE": "NA",
      "Tier": "Urban",
      "Marginal Workers Household Industry - Females": 180,
      "Primary Schools with electricity in percentage DISE": "NA",
      "Main Workers Other - Persons": 60279,
      "Marginal Workers Household Industry worked for 3 - 6 moths during last year - Females": 154,
      "Main Workers Cultivators - Males": 882,
      "Main Workers Household Industry - Persons": 1523,
      "Marginal Workers Cultivators worked for 0 - 3 moths during last year - Persons": 309,
      "Scheduled Caste Males": 15856,
      "Marginal Workers - Persons": 11976,
      "Deliveries at home conducted by skilled health personnel in percentage DLHS-4": 37.1,
      "Villages with Sub-Health Centres within 3km in percentage DLHS-4": 0,
      "Upper Primary New Government Schools since 2003 in percentage DISE": "NA",
      "0-6 Age Group Males": 18354,
      "Primary Schools with drinking water facility in percentage DISE": "NA",
      "Non Workers - Persons": 199291,
      "Person Literates": 205240,
      "State": "JHARKHAND",
      "Total Female Population": 131360,
      "Marginal Workers worked for 0 - 3 moths during last year - Persons": 1767,
      "Marginal Workers Cultivators - Females": 829,
      "Marginal Workers Other - Persons": 8762,
      "Sex Ratio": 913,
      "Scheduled Tribe Persons": 14215,
      "Marginal Workers Household Industry worked for 3 - 6 moths during last year - Males": 233,
      "Marginal Workers Agricultural Labourers - Females": 476,
      "Mean age at marriage for girls DLHS-4": 21.4,
      "Households with solar energy as main source of lighting  Houselisting and Housing Census Data Tables- District Level , Census of India__4": 104,
      "District": "HAZARIBAGH",
      "Households receiving treated tap water within premises in percentage Houselisting and Housing Census Data Tables- District Level , Census of India__1": 19.17859211,
      "Total Workers  Persons": 76016,
      "Households receiving treated tap water within premises  Houselisting and Housing Census Data Tables- District Level , Census of India__4": 9274,
      "Primary Female Teachers in percentage DISE": "NA",
      "Number of Households": 49298,
      "Main Workers Agricultural Labourers - Persons": 1117
    }
  ]
}