{
  "Total": [
    {
      "Marginal Workers Agricultural Labourers - Persons": 195065,
      "Marginal Workers Other - Females": 17142,
      "Marginal Workers Other worked for 0 - 3 moths during last year - Females": 7238,
      "Upper Primary Schools with boys toilet in percentage DISE": 50,
      "Total Population": 1502338,
      "Households with electricity as main source of lighting in percentage Houselisting and Housing Census Data Tables- District Level , Census of India": 40.667527,
      "Primary Girl's Enrolment in percentage DISE": 49.3,
      "Marginal Workers worked for 3 - 6 moths during last year - Males": 127949,
      "Prevalence of Acute illness in percentage DLHS-4": "Not available",
      "Main Workers - Persons": 343008,
      "Main Workers Cultivators - Females": 41576,
      "Marginal Workers Agricultural Labourers worked for 3 - 6 moths during last year - Females": 95736,
      "Marginal Workers Other worked for 0 - 3 moths during last year - Males": 5019,
      "Upper Primary Schools with drinking water facility in percentage DISE": 100,
      "Primary Schools with girls toilet in percentage DISE": 61.2,
      "Marginal Workers worked for 3 - 6 moths during last year - Persons": 285747,
      "Upper Primary Drop Out Rate in percentage DISE": 7.29,
      "Prevalence of Anaemia in pregnant women aged 15-49years in percentage DLHS-4": "Not available",
      "Current use of any modern method of family planning in percentage DLHS-4": 32.3,
      "Marginal Workers Agricultural Labourers - Males": 75690,
      "Upper Primary Female Teachers in percentage DISE": 50,
      "Marginal Workers - Females": 199009,
      "Marginal Workers Other worked for 3 - 6 moths during last year - Persons": 27751,
      "Main Workers Agricultural Labourers - Females": 33197,
      "Marginal Workers Cultivators worked for 3 - 6 moths during last year - Females": 47405,
      "Households with no lighting  Houselisting and Housing Census Data Tables- District Level , Census of India__5": 157,
      "Prevalence of Severe Anaemia  in percentage DLHS-4": "Not available",
      "Total unmet need for family planning in percentage DLHS-4": 41.2,
      "Main Workers Other - Males": 95980,
      "Children who received full vaccination in percentage DLHS-4": "Not available",
      "Marginal Workers Household Industry - Persons": 10074,
      "Primary Pupil-Teacher Ratio in percentage DISE": 37,
      "Marginal Workers Agricultural Labourers worked for 3 - 6 moths during last year - Males": 63654,
      "Scheduled Caste Females": 28842,
      "Marginal Workers Cultivators - Males": 50054,
      "Marginal Workers - Males": 152846,
      "Marginal Workers worked for 0 - 3 moths during last year - Females": 41211,
      "Households with main source of drinking water within premises in percentage Houselisting and Housing Census Data Tables- District Level , Census of India": 9.963885916,
      "Marginal Workers Household Industry worked for 3 - 6 moths during last year - Persons": 8349,
      "Upper Primary Girl's Enrolment in percentage DISE": 40.9,
      "Prevalence of Severe Anaemia in women aged 15-49years in percentage DLHS-4": "Not available",
      "Marginal Workers Agricultural Labourers worked for 0 - 3 moths during last year - Males": 12036,
      "Households with electricity as main source of lighting  Houselisting and Housing Census Data Tables- District Level , Census of India__3": 121955,
      "Households with computer or laptop with internet connection in percentage": 0.65,
      "PHCs functioning on a 24x7hours basis in percentage DLHS-4": "Not available",
      "Non Workers - Males": 356695,
      "Total Households in District Houselisting and Housing Census Data Tables- District Level , Census of India": 299883,
      "Upper Primary Schools with girls toilet in percentage DISE": 100,
      "Households with mobile phone in percentage": 23.01,
      "Households receiving untreated tap water within premises in percentage Houselisting and Housing Census Data Tables- District Level , Census of India__2": 0.37347899,
      "Marginal Workers Cultivators worked for 3 - 6 moths during last year - Males": 42852,
      "Prevalence of Anaemia  in percentage DLHS-4": "Not available",
      "Prevalence of Chronic illness in percentage DLHS-4": "Not available",
      "Households with solar energy as main source of lighting in percentage Houselisting and Housing Census Data Tables- District Level , Census of India__1": 3.64108669,
      "Marginal Workers Agricultural Labourers worked for 0 - 3 moths during last year - Females": 23639,
      "Main Workers - Males": 239844,
      "Female": 46.25,
      "Sno": 743,
      "Marginal Workers Other worked for 3 - 6 moths during last year - Females": 9904,
      "Marginal Workers Cultivators worked for 0 - 3 moths during last year - Females": 9249,
      "Scheduled Tribe Males": 500949,
      "Male Illiterates": 310112,
      "Prevalence of Severe Anaemia in pregnant women aged 15-49years in percentage DLHS-4": "Not available",
      "0-6 Age Group Persons": 261493,
      "Upper Primary Student-Classroom Ratio in percentage DISE": 52,
      "Currently married men married below 21years of age in percentage DLHS-4": 12.5,
      "Male Literates": 439273,
      "Households with no lighting in percentage Houselisting and Housing Census Data Tables- District Level , Census of India__2": 0.0524,
      "Primary Drop Out Rate in percentage DISE": 8.6,
      "Marginal Workers Household Industry - Males": 4236,
      "Female Illiterates": 464665,
      "Main Workers Other - Females": 22403,
      "Marginal Workers Cultivators - Persons": 106708,
      "Upper Primary Gross Enrolment Ratio in percentage DISE": 71.4,
      "Scheduled Caste Persons": 56986,
      "Marginal Workers Cultivators worked for 3 - 6 moths during last year - Persons": 90257,
      "Households with landline phone in percentage": 1.31,
      "Total Households in District  Houselisting and Housing Census Data Tables- District Level , Census of India": 299883,
      "Upper Primary Pupil-Teacher Ratio in percentage DISE": 96,
      "Primary Student-Classroom Ratio in percentage DISE": 24,
      "Primary Schools with boys toilet in percentage DISE": 61.6,
      "Mean number of children ever born to women aged 40-49years  DLHS-4": "Not available",
      "Households receiving untreated tap water within premises  Houselisting and Housing Census Data Tables- District Level , Census of India__5": 1120,
      "Marginal Workers Household Industry worked for 0 - 3 moths during last year - Persons": 1725,
      "Total Male Population": 749385,
      "Non Workers - Females": 450780,
      "Current use of family planning methods in percentage DLHS-4": 39.4,
      "Households with main source of drinking water within premises  Houselisting and Housing Census Data Tables- District Level , Census of India__3": 29880,
      "Main Workers Agricultural Labourers - Males": 39213,
      "Marginal Workers Other worked for 0 - 3 moths during last year - Persons": 12257,
      "Currently married women married below 18years of age in percentage DLHS-4": 8.3,
      "Person Illiterates": 774777,
      "Main Workers Household Industry - Females": 5988,
      "Female Literates": 288288,
      "Marginal Workers Cultivators worked for 0 - 3 moths during last year - Males": 7202,
      "Male": 71.13,
      "Households with improved source of drinking water in percentage DLHS-4": "Not available",
      "Upper Primary Schools with electricity in percentage DISE": 50,
      "Households with electricity in percentage DLHS-4": "Not available",
      "Villages with Primary Health Centre within 10km in percentage DLHS-4": "Not available",
      "Births to women aged 15-19years out of Total births in percentage DLHS-4": "Not available",
      "Prevalence of Anaemia in women aged 15-49years in percentage DLHS-4": "Not available",
      "Marginal Workers Agricultural Labourers worked for 3 - 6 moths during last year - Persons": 159390,
      "Main Workers Household Industry - Males": 8763,
      "Scheduled Tribe Females": 510347,
      "Marginal Workers worked for 0 - 3 moths during last year - Males": 24897,
      "Marginal Workers Other worked for 3 - 6 moths during last year - Males": 17847,
      "Primary Net Enrolment Ratio in percentage DISE": 99.4,
      "Total": 58.63,
      "Mean age at marriage for boys DLHS-4": 25.2,
      "Number of District Hospitals  DLHS-4": "Not available",
      "0-6 Age Group Females": 129657,
      "Marginal Workers Agricultural Labourers worked for 0 - 3 moths during last year - Persons": 35675,
      "Marginal Workers Household Industry worked for 0 - 3 moths during last year - Males": 640,
      "Total Workers  Females": 302173,
      "Marginal Workers worked for 3 - 6 moths during last year - Females": 157798,
      "Institutional Deliveries in percentage DLHS-4": 38.5,
      "Marginal Workers Other - Males": 22866,
      "Total Workers  Males": 392690,
      "Main Workers - Females": 103164,
      "Primary Gross Enrolment Ratio in percentage DISE": 112.1,
      "Main Workers Cultivators - Persons": 137464,
      "Marginal Workers Household Industry worked for 0 - 3 moths during last year - Females": 1085,
      "Upper Primary Net Enrolment Ratio in percentage DISE": 59.4,
      "Primary New Government Schools since 2003 in percentage DISE": 44.6,
      "Tier": "Total",
      "Marginal Workers Household Industry - Females": 5838,
      "Primary Schools with electricity in percentage DISE": 3,
      "Main Workers Other - Persons": 118383,
      "Marginal Workers Household Industry worked for 3 - 6 moths during last year - Females": 4753,
      "Main Workers Cultivators - Males": 95888,
      "Main Workers Household Industry - Persons": 14751,
      "Marginal Workers Cultivators worked for 0 - 3 moths during last year - Persons": 16451,
      "Scheduled Caste Males": 28144,
      "Marginal Workers - Persons": 351855,
      "Deliveries at home conducted by skilled health personnel in percentage DLHS-4": 23.5,
      "Villages with Sub-Health Centres within 3km in percentage DLHS-4": "Not available",
      "Upper Primary New Government Schools since 2003 in percentage DISE": 0,
      "0-6 Age Group Males": 131836,
      "Primary Schools with drinking water facility in percentage DISE": 82.4,
      "Non Workers - Persons": 807475,
      "Person Literates": 727561,
      "State": "JHARKHAND",
      "Total Female Population": 752953,
      "Marginal Workers worked for 0 - 3 moths during last year - Persons": 66108,
      "Marginal Workers Cultivators - Females": 56654,
      "Marginal Workers Other - Persons": 40008,
      "Sex Ratio": 1005,
      "Scheduled Tribe Persons": 1011296,
      "Marginal Workers Household Industry worked for 3 - 6 moths during last year - Males": 3596,
      "Marginal Workers Agricultural Labourers - Females": 119375,
      "Mean age at marriage for girls DLHS-4": 21.3,
      "Households with solar energy as main source of lighting  Houselisting and Housing Census Data Tables- District Level , Census of India__4": 10919,
      "District": "PASHCHIMI SINGHBHUM",
      "Households receiving treated tap water within premises in percentage Houselisting and Housing Census Data Tables- District Level , Census of India__1": 4.266997462,
      "Total Workers  Persons": 694863,
      "Households receiving treated tap water within premises  Houselisting and Housing Census Data Tables- District Level , Census of India__4": 12796,
      "Primary Female Teachers in percentage DISE": 43.8,
      "Number of Households": 302046,
      "Main Workers Agricultural Labourers - Persons": 72410
    }
  ],
  "Rural": [
    {
      "Marginal Workers Agricultural Labourers - Persons": 192673,
      "Marginal Workers Other - Females": 14643,
      "Marginal Workers Other worked for 0 - 3 moths during last year - Females": 6508,
      "Upper Primary Schools with boys toilet in percentage DISE": "NA",
      "Total Population": 1284304,
      "Households with electricity as main source of lighting in percentage Houselisting and Housing Census Data Tables- District Level , Census of India": 34.24472402,
      "Primary Girl's Enrolment in percentage DISE": "NA",
      "Marginal Workers worked for 3 - 6 moths during last year - Males": 122468,
      "Prevalence of Acute illness in percentage DLHS-4": "Not available",
      "Main Workers - Persons": 285411,
      "Main Workers Cultivators - Females": 41337,
      "Marginal Workers Agricultural Labourers worked for 3 - 6 moths during last year - Females": 94908,
      "Marginal Workers Other worked for 0 - 3 moths during last year - Males": 4064,
      "Upper Primary Schools with drinking water facility in percentage DISE": "NA",
      "Primary Schools with girls toilet in percentage DISE": "NA",
      "Marginal Workers worked for 3 - 6 moths during last year - Persons": 277433,
      "Upper Primary Drop Out Rate in percentage DISE": "NA",
      "Prevalence of Anaemia in pregnant women aged 15-49years in percentage DLHS-4": "Not available",
      "Current use of any modern method of family planning in percentage DLHS-4": 28,
      "Marginal Workers Agricultural Labourers - Males": 74589,
      "Upper Primary Female Teachers in percentage DISE": "NA",
      "Marginal Workers - Females": 194894,
      "Marginal Workers Other worked for 3 - 6 moths during last year - Persons": 21819,
      "Main Workers Agricultural Labourers - Females": 32864,
      "Marginal Workers Cultivators worked for 3 - 6 moths during last year - Females": 47315,
      "Households with no lighting  Houselisting and Housing Census Data Tables- District Level , Census of India__5": 113,
      "Prevalence of Severe Anaemia  in percentage DLHS-4": "Not available",
      "Total unmet need for family planning in percentage DLHS-4": 44.1,
      "Main Workers Other - Males": 50336,
      "Children who received full vaccination in percentage DLHS-4": "Not available",
      "Marginal Workers Household Industry - Persons": 9591,
      "Primary Pupil-Teacher Ratio in percentage DISE": "NA",
      "Marginal Workers Agricultural Labourers worked for 3 - 6 moths during last year - Males": 62751,
      "Scheduled Caste Females": 19299,
      "Marginal Workers Cultivators - Males": 49847,
      "Marginal Workers - Males": 146148,
      "Marginal Workers worked for 0 - 3 moths during last year - Females": 39929,
      "Households with main source of drinking water within premises in percentage Houselisting and Housing Census Data Tables- District Level , Census of India": 3.50208383,
      "Marginal Workers Household Industry worked for 3 - 6 moths during last year - Persons": 7975,
      "Upper Primary Girl's Enrolment in percentage DISE": "NA",
      "Prevalence of Severe Anaemia in women aged 15-49years in percentage DLHS-4": "Not available",
      "Marginal Workers Agricultural Labourers worked for 0 - 3 moths during last year - Males": 11838,
      "Households with electricity as main source of lighting  Houselisting and Housing Census Data Tables- District Level , Census of India__3": 87673,
      "Households with computer or laptop with internet connection in percentage": 0.24,
      "PHCs functioning on a 24x7hours basis in percentage DLHS-4": "Not applicable",
      "Non Workers - Males": 300115,
      "Total Households in District Houselisting and Housing Census Data Tables- District Level , Census of India": 256019,
      "Upper Primary Schools with girls toilet in percentage DISE": "NA",
      "Households with mobile phone in percentage": 16.35,
      "Households receiving untreated tap water within premises in percentage Houselisting and Housing Census Data Tables- District Level , Census of India__2": 0.0906,
      "Marginal Workers Cultivators worked for 3 - 6 moths during last year - Males": 42665,
      "Prevalence of Anaemia  in percentage DLHS-4": "Not available",
      "Prevalence of Chronic illness in percentage DLHS-4": "Not available",
      "Households with solar energy as main source of lighting in percentage Houselisting and Housing Census Data Tables- District Level , Census of India__1": 4.235232541,
      "Marginal Workers Agricultural Labourers worked for 0 - 3 moths during last year - Females": 23176,
      "Main Workers - Males": 191394,
      "Female": "NA",
      "Sno": 742,
      "Marginal Workers Other worked for 3 - 6 moths during last year - Females": 8135,
      "Marginal Workers Cultivators worked for 0 - 3 moths during last year - Females": 9225,
      "Scheduled Tribe Males": 472040,
      "Male Illiterates": 285712,
      "Prevalence of Severe Anaemia in pregnant women aged 15-49years in percentage DLHS-4": "Not available",
      "0-6 Age Group Persons": 234093,
      "Upper Primary Student-Classroom Ratio in percentage DISE": "NA",
      "Currently married men married below 21years of age in percentage DLHS-4": 14.3,
      "Male Literates": 351945,
      "Households with no lighting in percentage Houselisting and Housing Census Data Tables- District Level , Census of India__2": 0.0441,
      "Primary Drop Out Rate in percentage DISE": "NA",
      "Marginal Workers Household Industry - Males": 3964,
      "Female Illiterates": 428188,
      "Main Workers Other - Females": 14296,
      "Marginal Workers Cultivators - Persons": 106387,
      "Upper Primary Gross Enrolment Ratio in percentage DISE": "NA",
      "Scheduled Caste Persons": 38215,
      "Marginal Workers Cultivators worked for 3 - 6 moths during last year - Persons": 89980,
      "Households with landline phone in percentage": 1.15,
      "Total Households in District  Houselisting and Housing Census Data Tables- District Level , Census of India": 256019,
      "Upper Primary Pupil-Teacher Ratio in percentage DISE": "NA",
      "Primary Student-Classroom Ratio in percentage DISE": "NA",
      "Primary Schools with boys toilet in percentage DISE": "NA",
      "Mean number of children ever born to women aged 40-49years  DLHS-4": "Not available",
      "Households receiving untreated tap water within premises  Houselisting and Housing Census Data Tables- District Level , Census of India__5": 232,
      "Marginal Workers Household Industry worked for 0 - 3 moths during last year - Persons": 1616,
      "Total Male Population": 637657,
      "Non Workers - Females": 357736,
      "Current use of family planning methods in percentage DLHS-4": 35.4,
      "Households with main source of drinking water within premises  Houselisting and Housing Census Data Tables- District Level , Census of India__3": 8966,
      "Main Workers Agricultural Labourers - Males": 38441,
      "Marginal Workers Other worked for 0 - 3 moths during last year - Persons": 10572,
      "Currently married women married below 18years of age in percentage DLHS-4": 9,
      "Person Illiterates": 713900,
      "Main Workers Household Industry - Females": 5520,
      "Female Literates": 218459,
      "Marginal Workers Cultivators worked for 0 - 3 moths during last year - Males": 7182,
      "Male": "NA",
      "Households with improved source of drinking water in percentage DLHS-4": "Not available",
      "Upper Primary Schools with electricity in percentage DISE": "NA",
      "Households with electricity in percentage DLHS-4": "Not available",
      "Villages with Primary Health Centre within 10km in percentage DLHS-4": "Not applicable",
      "Births to women aged 15-19years out of Total births in percentage DLHS-4": "Not available",
      "Prevalence of Anaemia in women aged 15-49years in percentage DLHS-4": "Not available",
      "Marginal Workers Agricultural Labourers worked for 3 - 6 moths during last year - Persons": 157659,
      "Main Workers Household Industry - Males": 7467,
      "Scheduled Tribe Females": 481066,
      "Marginal Workers worked for 0 - 3 moths during last year - Males": 23680,
      "Marginal Workers Other worked for 3 - 6 moths during last year - Males": 13684,
      "Primary Net Enrolment Ratio in percentage DISE": "NA",
      "Total": "NA",
      "Mean age at marriage for boys DLHS-4": 24.7,
      "Number of District Hospitals  DLHS-4": "Not applicable",
      "0-6 Age Group Females": 116214,
      "Marginal Workers Agricultural Labourers worked for 0 - 3 moths during last year - Persons": 35014,
      "Marginal Workers Household Industry worked for 0 - 3 moths during last year - Males": 596,
      "Total Workers  Females": 288911,
      "Marginal Workers worked for 3 - 6 moths during last year - Females": 154965,
      "Institutional Deliveries in percentage DLHS-4": 32.2,
      "Marginal Workers Other - Males": 17748,
      "Total Workers  Males": 337542,
      "Main Workers - Females": 94017,
      "Primary Gross Enrolment Ratio in percentage DISE": "NA",
      "Main Workers Cultivators - Persons": 136487,
      "Marginal Workers Household Industry worked for 0 - 3 moths during last year - Females": 1020,
      "Upper Primary Net Enrolment Ratio in percentage DISE": "NA",
      "Primary New Government Schools since 2003 in percentage DISE": "NA",
      "Tier": "Rural",
      "Marginal Workers Household Industry - Females": 5627,
      "Primary Schools with electricity in percentage DISE": "NA",
      "Main Workers Other - Persons": 64632,
      "Marginal Workers Household Industry worked for 3 - 6 moths during last year - Females": 4607,
      "Main Workers Cultivators - Males": 95150,
      "Main Workers Household Industry - Persons": 12987,
      "Marginal Workers Cultivators worked for 0 - 3 moths during last year - Persons": 16407,
      "Scheduled Caste Males": 18916,
      "Marginal Workers - Persons": 341042,
      "Deliveries at home conducted by skilled health personnel in percentage DLHS-4": 23.3,
      "Villages with Sub-Health Centres within 3km in percentage DLHS-4": "Not applicable",
      "Upper Primary New Government Schools since 2003 in percentage DISE": "NA",
      "0-6 Age Group Males": 117879,
      "Primary Schools with drinking water facility in percentage DISE": "NA",
      "Non Workers - Persons": 657851,
      "Person Literates": 570404,
      "State": "JHARKHAND",
      "Total Female Population": 646647,
      "Marginal Workers worked for 0 - 3 moths during last year - Persons": 63609,
      "Marginal Workers Cultivators - Females": 56540,
      "Marginal Workers Other - Persons": 32391,
      "Sex Ratio": 1014,
      "Scheduled Tribe Persons": 953106,
      "Marginal Workers Household Industry worked for 3 - 6 moths during last year - Males": 3368,
      "Marginal Workers Agricultural Labourers - Females": 118084,
      "Mean age at marriage for girls DLHS-4": 21.1,
      "Households with solar energy as main source of lighting  Houselisting and Housing Census Data Tables- District Level , Census of India__4": 10843,
      "District": "PASHCHIMI SINGHBHUM",
      "Households receiving treated tap water within premises in percentage Houselisting and Housing Census Data Tables- District Level , Census of India__1": 0.310523828,
      "Total Workers  Persons": 626453,
      "Households receiving treated tap water within premises  Houselisting and Housing Census Data Tables- District Level , Census of India__4": 795,
      "Primary Female Teachers in percentage DISE": "NA",
      "Number of Households": 257294,
      "Main Workers Agricultural Labourers - Persons": 71305
    }
  ],
  "Urban": [
    {
      "Marginal Workers Agricultural Labourers - Persons": 2392,
      "Marginal Workers Other - Females": 2499,
      "Marginal Workers Other worked for 0 - 3 moths during last year - Females": 730,
      "Upper Primary Schools with boys toilet in percentage DISE": "NA",
      "Total Population": 218034,
      "Households with electricity as main source of lighting in percentage Houselisting and Housing Census Data Tables- District Level , Census of India": 78.155207,
      "Primary Girl's Enrolment in percentage DISE": "NA",
      "Marginal Workers worked for 3 - 6 moths during last year - Males": 5481,
      "Prevalence of Acute illness in percentage DLHS-4": "Not available",
      "Main Workers - Persons": 57597,
      "Main Workers Cultivators - Females": 239,
      "Marginal Workers Agricultural Labourers worked for 3 - 6 moths during last year - Females": 828,
      "Marginal Workers Other worked for 0 - 3 moths during last year - Males": 955,
      "Upper Primary Schools with drinking water facility in percentage DISE": "NA",
      "Primary Schools with girls toilet in percentage DISE": "NA",
      "Marginal Workers worked for 3 - 6 moths during last year - Persons": 8314,
      "Upper Primary Drop Out Rate in percentage DISE": "NA",
      "Prevalence of Anaemia in pregnant women aged 15-49years in percentage DLHS-4": "Not available",
      "Current use of any modern method of family planning in percentage DLHS-4": 50.2,
      "Marginal Workers Agricultural Labourers - Males": 1101,
      "Upper Primary Female Teachers in percentage DISE": "NA",
      "Marginal Workers - Females": 4115,
      "Marginal Workers Other worked for 3 - 6 moths during last year - Persons": 5932,
      "Main Workers Agricultural Labourers - Females": 333,
      "Marginal Workers Cultivators worked for 3 - 6 moths during last year - Females": 90,
      "Households with no lighting  Houselisting and Housing Census Data Tables- District Level , Census of India__5": 44,
      "Prevalence of Severe Anaemia  in percentage DLHS-4": "Not available",
      "Total unmet need for family planning in percentage DLHS-4": 29,
      "Main Workers Other - Males": 45644,
      "Children who received full vaccination in percentage DLHS-4": "Not available",
      "Marginal Workers Household Industry - Persons": 483,
      "Primary Pupil-Teacher Ratio in percentage DISE": "NA",
      "Marginal Workers Agricultural Labourers worked for 3 - 6 moths during last year - Males": 903,
      "Scheduled Caste Females": 9543,
      "Marginal Workers Cultivators - Males": 207,
      "Marginal Workers - Males": 6698,
      "Marginal Workers worked for 0 - 3 moths during last year - Females": 1282,
      "Households with main source of drinking water within premises in percentage Houselisting and Housing Census Data Tables- District Level , Census of India": 47.67919022,
      "Marginal Workers Household Industry worked for 3 - 6 moths during last year - Persons": 374,
      "Upper Primary Girl's Enrolment in percentage DISE": "NA",
      "Prevalence of Severe Anaemia in women aged 15-49years in percentage DLHS-4": "Not available",
      "Marginal Workers Agricultural Labourers worked for 0 - 3 moths during last year - Males": 198,
      "Households with electricity as main source of lighting  Houselisting and Housing Census Data Tables- District Level , Census of India__3": 34282,
      "Households with computer or laptop with internet connection in percentage": 3.09,
      "PHCs functioning on a 24x7hours basis in percentage DLHS-4": 0,
      "Non Workers - Males": 56580,
      "Total Households in District Houselisting and Housing Census Data Tables- District Level , Census of India": 43864,
      "Upper Primary Schools with girls toilet in percentage DISE": "NA",
      "Households with mobile phone in percentage": 61.88,
      "Households receiving untreated tap water within premises in percentage Houselisting and Housing Census Data Tables- District Level , Census of India__2": 2.024439176,
      "Marginal Workers Cultivators worked for 3 - 6 moths during last year - Males": 187,
      "Prevalence of Anaemia  in percentage DLHS-4": "Not available",
      "Prevalence of Chronic illness in percentage DLHS-4": "Not available",
      "Households with solar energy as main source of lighting in percentage Houselisting and Housing Census Data Tables- District Level , Census of India__1": 0.173262812,
      "Marginal Workers Agricultural Labourers worked for 0 - 3 moths during last year - Females": 463,
      "Main Workers - Males": 48450,
      "Female": "NA",
      "Sno": 744,
      "Marginal Workers Other worked for 3 - 6 moths during last year - Females": 1769,
      "Marginal Workers Cultivators worked for 0 - 3 moths during last year - Females": 24,
      "Scheduled Tribe Males": 28909,
      "Male Illiterates": 24400,
      "Prevalence of Severe Anaemia in pregnant women aged 15-49years in percentage DLHS-4": "Not available",
      "0-6 Age Group Persons": 27400,
      "Upper Primary Student-Classroom Ratio in percentage DISE": "NA",
      "Currently married men married below 21years of age in percentage DLHS-4": 4.2,
      "Male Literates": 87328,
      "Households with no lighting in percentage Houselisting and Housing Census Data Tables- District Level , Census of India__2": 0.100310049,
      "Primary Drop Out Rate in percentage DISE": "NA",
      "Marginal Workers Household Industry - Males": 272,
      "Female Illiterates": 36477,
      "Main Workers Other - Females": 8107,
      "Marginal Workers Cultivators - Persons": 321,
      "Upper Primary Gross Enrolment Ratio in percentage DISE": "NA",
      "Scheduled Caste Persons": 18771,
      "Marginal Workers Cultivators worked for 3 - 6 moths during last year - Persons": 277,
      "Households with landline phone in percentage": 2.25,
      "Total Households in District  Houselisting and Housing Census Data Tables- District Level , Census of India": 43864,
      "Upper Primary Pupil-Teacher Ratio in percentage DISE": "NA",
      "Primary Student-Classroom Ratio in percentage DISE": "NA",
      "Primary Schools with boys toilet in percentage DISE": "NA",
      "Mean number of children ever born to women aged 40-49years  DLHS-4": "Not available",
      "Households receiving untreated tap water within premises  Houselisting and Housing Census Data Tables- District Level , Census of India__5": 888,
      "Marginal Workers Household Industry worked for 0 - 3 moths during last year - Persons": 109,
      "Total Male Population": 111728,
      "Non Workers - Females": 93044,
      "Current use of family planning methods in percentage DLHS-4": 56.1,
      "Households with main source of drinking water within premises  Houselisting and Housing Census Data Tables- District Level , Census of India__3": 20914,
      "Main Workers Agricultural Labourers - Males": 772,
      "Marginal Workers Other worked for 0 - 3 moths during last year - Persons": 1685,
      "Currently married women married below 18years of age in percentage DLHS-4": 5.2,
      "Person Illiterates": 60877,
      "Main Workers Household Industry - Females": 468,
      "Female Literates": 69829,
      "Marginal Workers Cultivators worked for 0 - 3 moths during last year - Males": 20,
      "Male": "NA",
      "Households with improved source of drinking water in percentage DLHS-4": "Not available",
      "Upper Primary Schools with electricity in percentage DISE": "NA",
      "Households with electricity in percentage DLHS-4": "Not available",
      "Villages with Primary Health Centre within 10km in percentage DLHS-4": 0,
      "Births to women aged 15-19years out of Total births in percentage DLHS-4": "Not available",
      "Prevalence of Anaemia in women aged 15-49years in percentage DLHS-4": "Not available",
      "Marginal Workers Agricultural Labourers worked for 3 - 6 moths during last year - Persons": 1731,
      "Main Workers Household Industry - Males": 1296,
      "Scheduled Tribe Females": 29281,
      "Marginal Workers worked for 0 - 3 moths during last year - Males": 1217,
      "Marginal Workers Other worked for 3 - 6 moths during last year - Males": 4163,
      "Primary Net Enrolment Ratio in percentage DISE": "NA",
      "Total": "NA",
      "Mean age at marriage for boys DLHS-4": 27.6,
      "Number of District Hospitals  DLHS-4": 0,
      "0-6 Age Group Females": 13443,
      "Marginal Workers Agricultural Labourers worked for 0 - 3 moths during last year - Persons": 661,
      "Marginal Workers Household Industry worked for 0 - 3 moths during last year - Males": 44,
      "Total Workers  Females": 13262,
      "Marginal Workers worked for 3 - 6 moths during last year - Females": 2833,
      "Institutional Deliveries in percentage DLHS-4": 78.6,
      "Marginal Workers Other - Males": 5118,
      "Total Workers  Males": 55148,
      "Main Workers - Females": 9147,
      "Primary Gross Enrolment Ratio in percentage DISE": "NA",
      "Main Workers Cultivators - Persons": 977,
      "Marginal Workers Household Industry worked for 0 - 3 moths during last year - Females": 65,
      "Upper Primary Net Enrolment Ratio in percentage DISE": "NA",
      "Primary New Government Schools since 2003 in percentage DISE": "NA",
      "Tier": "Urban",
      "Marginal Workers Household Industry - Females": 211,
      "Primary Schools with electricity in percentage DISE": "NA",
      "Main Workers Other - Persons": 53751,
      "Marginal Workers Household Industry worked for 3 - 6 moths during last year - Females": 146,
      "Main Workers Cultivators - Males": 738,
      "Main Workers Household Industry - Persons": 1764,
      "Marginal Workers Cultivators worked for 0 - 3 moths during last year - Persons": 44,
      "Scheduled Caste Males": 9228,
      "Marginal Workers - Persons": 10813,
      "Deliveries at home conducted by skilled health personnel in percentage DLHS-4": 27.3,
      "Villages with Sub-Health Centres within 3km in percentage DLHS-4": 0,
      "Upper Primary New Government Schools since 2003 in percentage DISE": "NA",
      "0-6 Age Group Males": 13957,
      "Primary Schools with drinking water facility in percentage DISE": "NA",
      "Non Workers - Persons": 149624,
      "Person Literates": 157157,
      "State": "JHARKHAND",
      "Total Female Population": 106306,
      "Marginal Workers worked for 0 - 3 moths during last year - Persons": 2499,
      "Marginal Workers Cultivators - Females": 114,
      "Marginal Workers Other - Persons": 7617,
      "Sex Ratio": 951,
      "Scheduled Tribe Persons": 58190,
      "Marginal Workers Household Industry worked for 3 - 6 moths during last year - Males": 228,
      "Marginal Workers Agricultural Labourers - Females": 1291,
      "Mean age at marriage for girls DLHS-4": 22.7,
      "Households with solar energy as main source of lighting  Houselisting and Housing Census Data Tables- District Level , Census of India__4": 76,
      "District": "PASHCHIMI SINGHBHUM",
      "Households receiving treated tap water within premises in percentage Houselisting and Housing Census Data Tables- District Level , Census of India__1": 27.35956593,
      "Total Workers  Persons": 68410,
      "Households receiving treated tap water within premises  Houselisting and Housing Census Data Tables- District Level , Census of India__4": 12001,
      "Primary Female Teachers in percentage DISE": "NA",
      "Number of Households": 44752,
      "Main Workers Agricultural Labourers - Persons": 1105
    }
  ]
}