{
  "Total": [
    {
      "Marginal Workers Agricultural Labourers - Persons": 163590,
      "Marginal Workers Other - Females": 36505,
      "Marginal Workers Other worked for 0 - 3 moths during last year - Females": 6208,
      "Upper Primary Schools with boys toilet in percentage DISE": 0,
      "Total Population": 2914253,
      "Households with electricity as main source of lighting in percentage Houselisting and Housing Census Data Tables- District Level , Census of India": 63.02351519,
      "Primary Girl's Enrolment in percentage DISE": 50.9,
      "Marginal Workers worked for 3 - 6 moths during last year - Males": 159105,
      "Prevalence of Acute illness in percentage DLHS-4": "Not available",
      "Main Workers - Persons": 756176,
      "Main Workers Cultivators - Females": 72389,
      "Marginal Workers Agricultural Labourers worked for 3 - 6 moths during last year - Females": 73746,
      "Marginal Workers Other worked for 0 - 3 moths during last year - Males": 8801,
      "Upper Primary Schools with drinking water facility in percentage DISE": 0,
      "Primary Schools with girls toilet in percentage DISE": 96.7,
      "Marginal Workers worked for 3 - 6 moths during last year - Persons": 318026,
      "Upper Primary Drop Out Rate in percentage DISE": 2.6,
      "Prevalence of Anaemia in pregnant women aged 15-49years in percentage DLHS-4": "Not available",
      "Current use of any modern method of family planning in percentage DLHS-4": 42.4,
      "Marginal Workers Agricultural Labourers - Males": 72231,
      "Upper Primary Female Teachers in percentage DISE": 0,
      "Marginal Workers - Females": 196673,
      "Marginal Workers Other worked for 3 - 6 moths during last year - Persons": 83773,
      "Main Workers Agricultural Labourers - Females": 42948,
      "Marginal Workers Cultivators worked for 3 - 6 moths during last year - Females": 48514,
      "Households with no lighting  Houselisting and Housing Census Data Tables- District Level , Census of India__5": 528,
      "Prevalence of Severe Anaemia  in percentage DLHS-4": "Not available",
      "Total unmet need for family planning in percentage DLHS-4": 21.7,
      "Main Workers Other - Males": 341409,
      "Children who received full vaccination in percentage DLHS-4": "Not available",
      "Marginal Workers Household Industry - Persons": 14843,
      "Primary Pupil-Teacher Ratio in percentage DISE": 27,
      "Marginal Workers Agricultural Labourers worked for 3 - 6 moths during last year - Males": 60473,
      "Scheduled Caste Females": 74330,
      "Marginal Workers Cultivators - Males": 49440,
      "Marginal Workers - Males": 190018,
      "Marginal Workers worked for 0 - 3 moths during last year - Females": 37752,
      "Households with main source of drinking water within premises in percentage Houselisting and Housing Census Data Tables- District Level , Census of India": 35.75124509,
      "Marginal Workers Household Industry worked for 3 - 6 moths during last year - Persons": 11037,
      "Upper Primary Girl's Enrolment in percentage DISE": 0,
      "Prevalence of Severe Anaemia in women aged 15-49years in percentage DLHS-4": "Not available",
      "Marginal Workers Agricultural Labourers worked for 0 - 3 moths during last year - Males": 11758,
      "Households with electricity as main source of lighting  Houselisting and Housing Census Data Tables- District Level , Census of India__3": 350908,
      "Households with computer or laptop with internet connection in percentage": 4.05,
      "PHCs functioning on a 24x7hours basis in percentage DLHS-4": "Not available",
      "Non Workers - Males": 750970,
      "Total Households in District Houselisting and Housing Census Data Tables- District Level , Census of India": 556789,
      "Upper Primary Schools with girls toilet in percentage DISE": 0,
      "Households with mobile phone in percentage": 52.68,
      "Households receiving untreated tap water within premises in percentage Houselisting and Housing Census Data Tables- District Level , Census of India__2": 1.218235274,
      "Marginal Workers Cultivators worked for 3 - 6 moths during last year - Males": 40483,
      "Prevalence of Anaemia  in percentage DLHS-4": "Not available",
      "Prevalence of Chronic illness in percentage DLHS-4": "Not available",
      "Households with solar energy as main source of lighting in percentage Houselisting and Housing Census Data Tables- District Level , Census of India__1": 0.313224579,
      "Marginal Workers Agricultural Labourers worked for 0 - 3 moths during last year - Females": 17613,
      "Main Workers - Males": 553949,
      "Female": 67.44,
      "Sno": 752,
      "Marginal Workers Other worked for 3 - 6 moths during last year - Females": 30297,
      "Marginal Workers Cultivators worked for 0 - 3 moths during last year - Females": 11522,
      "Scheduled Tribe Males": 520582,
      "Male Illiterates": 409693,
      "Prevalence of Severe Anaemia in pregnant women aged 15-49years in percentage DLHS-4": "Not available",
      "0-6 Age Group Persons": 401214,
      "Upper Primary Student-Classroom Ratio in percentage DISE": 0,
      "Currently married men married below 21years of age in percentage DLHS-4": 9.9,
      "Male Literates": 1085244,
      "Households with no lighting in percentage Houselisting and Housing Census Data Tables- District Level , Census of India__2": 0.0948,
      "Primary Drop Out Rate in percentage DISE": 6.3,
      "Marginal Workers Household Industry - Males": 6070,
      "Female Illiterates": 593127,
      "Main Workers Other - Females": 79377,
      "Marginal Workers Cultivators - Persons": 109476,
      "Upper Primary Gross Enrolment Ratio in percentage DISE": 89.9,
      "Scheduled Caste Persons": 152943,
      "Marginal Workers Cultivators worked for 3 - 6 moths during last year - Persons": 88997,
      "Households with landline phone in percentage": 3.42,
      "Total Households in District  Houselisting and Housing Census Data Tables- District Level , Census of India": 556789,
      "Upper Primary Pupil-Teacher Ratio in percentage DISE": 0,
      "Primary Student-Classroom Ratio in percentage DISE": 20,
      "Primary Schools with boys toilet in percentage DISE": 96.9,
      "Mean number of children ever born to women aged 40-49years  DLHS-4": "Not available",
      "Households receiving untreated tap water within premises  Houselisting and Housing Census Data Tables- District Level , Census of India__5": 6783,
      "Marginal Workers Household Industry worked for 0 - 3 moths during last year - Persons": 3806,
      "Total Male Population": 1494937,
      "Non Workers - Females": 1020416,
      "Current use of family planning methods in percentage DLHS-4": 55.8,
      "Households with main source of drinking water within premises  Houselisting and Housing Census Data Tables- District Level , Census of India__3": 199059,
      "Main Workers Agricultural Labourers - Males": 60822,
      "Marginal Workers Other worked for 0 - 3 moths during last year - Persons": 15009,
      "Currently married women married below 18years of age in percentage DLHS-4": 5.6,
      "Person Illiterates": 1002820,
      "Main Workers Household Industry - Females": 7513,
      "Female Literates": 826189,
      "Marginal Workers Cultivators worked for 0 - 3 moths during last year - Males": 8957,
      "Male": 84.26,
      "Households with improved source of drinking water in percentage DLHS-4": "Not available",
      "Upper Primary Schools with electricity in percentage DISE": 0,
      "Households with electricity in percentage DLHS-4": "Not available",
      "Villages with Primary Health Centre within 10km in percentage DLHS-4": "Not available",
      "Births to women aged 15-19years out of Total births in percentage DLHS-4": "Not available",
      "Prevalence of Anaemia in women aged 15-49years in percentage DLHS-4": "Not available",
      "Marginal Workers Agricultural Labourers worked for 3 - 6 moths during last year - Persons": 134219,
      "Main Workers Household Industry - Males": 16096,
      "Scheduled Tribe Females": 521434,
      "Marginal Workers worked for 0 - 3 moths during last year - Males": 30913,
      "Marginal Workers Other worked for 3 - 6 moths during last year - Males": 53476,
      "Primary Net Enrolment Ratio in percentage DISE": 96.3,
      "Total": 76.06,
      "Mean age at marriage for boys DLHS-4": 25.8,
      "Number of District Hospitals  DLHS-4": "Not available",
      "0-6 Age Group Females": 194185,
      "Marginal Workers Agricultural Labourers worked for 0 - 3 moths during last year - Persons": 29371,
      "Marginal Workers Household Industry worked for 0 - 3 moths during last year - Males": 1397,
      "Total Workers  Females": 398900,
      "Marginal Workers worked for 3 - 6 moths during last year - Females": 158921,
      "Institutional Deliveries in percentage DLHS-4": 64.2,
      "Marginal Workers Other - Males": 62277,
      "Total Workers  Males": 743967,
      "Main Workers - Females": 202227,
      "Primary Gross Enrolment Ratio in percentage DISE": 109.9,
      "Main Workers Cultivators - Persons": 208011,
      "Marginal Workers Household Industry worked for 0 - 3 moths during last year - Females": 2409,
      "Upper Primary Net Enrolment Ratio in percentage DISE": 74.3,
      "Primary New Government Schools since 2003 in percentage DISE": 41.5,
      "Tier": "Total",
      "Marginal Workers Household Industry - Females": 8773,
      "Primary Schools with electricity in percentage DISE": 8.9,
      "Main Workers Other - Persons": 420786,
      "Marginal Workers Household Industry worked for 3 - 6 moths during last year - Females": 6364,
      "Main Workers Cultivators - Males": 135622,
      "Main Workers Household Industry - Persons": 23609,
      "Marginal Workers Cultivators worked for 0 - 3 moths during last year - Persons": 20479,
      "Scheduled Caste Males": 78613,
      "Marginal Workers - Persons": 386691,
      "Deliveries at home conducted by skilled health personnel in percentage DLHS-4": 30.8,
      "Villages with Sub-Health Centres within 3km in percentage DLHS-4": "Not available",
      "Upper Primary New Government Schools since 2003 in percentage DISE": 0,
      "0-6 Age Group Males": 207029,
      "Primary Schools with drinking water facility in percentage DISE": 91.8,
      "Non Workers - Persons": 1771386,
      "Person Literates": 1911433,
      "State": "JHARKHAND",
      "Total Female Population": 1419316,
      "Marginal Workers worked for 0 - 3 moths during last year - Persons": 68665,
      "Marginal Workers Cultivators - Females": 60036,
      "Marginal Workers Other - Persons": 98782,
      "Sex Ratio": 949,
      "Scheduled Tribe Persons": 1042016,
      "Marginal Workers Household Industry worked for 3 - 6 moths during last year - Males": 4673,
      "Marginal Workers Agricultural Labourers - Females": 91359,
      "Mean age at marriage for girls DLHS-4": 21.9,
      "Households with solar energy as main source of lighting  Houselisting and Housing Census Data Tables- District Level , Census of India__4": 1744,
      "District": "RANCHI",
      "Households receiving treated tap water within premises in percentage Houselisting and Housing Census Data Tables- District Level , Census of India__1": 12.18558556,
      "Total Workers  Persons": 1142867,
      "Households receiving treated tap water within premises  Houselisting and Housing Census Data Tables- District Level , Census of India__4": 67848,
      "Primary Female Teachers in percentage DISE": 50.2,
      "Number of Households": 569444,
      "Main Workers Agricultural Labourers - Persons": 103770
    }
  ],
  "Rural": [
    {
      "Marginal Workers Agricultural Labourers - Persons": 156006,
      "Marginal Workers Other - Females": 19544,
      "Marginal Workers Other worked for 0 - 3 moths during last year - Females": 4056,
      "Upper Primary Schools with boys toilet in percentage DISE": "NA",
      "Total Population": 1656918,
      "Households with electricity as main source of lighting in percentage Houselisting and Housing Census Data Tables- District Level , Census of India": 43.20578656,
      "Primary Girl's Enrolment in percentage DISE": "NA",
      "Marginal Workers worked for 3 - 6 moths during last year - Males": 125064,
      "Prevalence of Acute illness in percentage DLHS-4": "Not available",
      "Main Workers - Persons": 427225,
      "Main Workers Cultivators - Females": 70996,
      "Marginal Workers Agricultural Labourers worked for 3 - 6 moths during last year - Females": 71192,
      "Marginal Workers Other worked for 0 - 3 moths during last year - Males": 4583,
      "Upper Primary Schools with drinking water facility in percentage DISE": "NA",
      "Primary Schools with girls toilet in percentage DISE": "NA",
      "Marginal Workers worked for 3 - 6 moths during last year - Persons": 263900,
      "Upper Primary Drop Out Rate in percentage DISE": "NA",
      "Prevalence of Anaemia in pregnant women aged 15-49years in percentage DLHS-4": "Not available",
      "Current use of any modern method of family planning in percentage DLHS-4": 39.6,
      "Marginal Workers Agricultural Labourers - Males": 67810,
      "Upper Primary Female Teachers in percentage DISE": "NA",
      "Marginal Workers - Females": 173398,
      "Marginal Workers Other worked for 3 - 6 moths during last year - Persons": 41826,
      "Main Workers Agricultural Labourers - Females": 40822,
      "Marginal Workers Cultivators worked for 3 - 6 moths during last year - Females": 47164,
      "Households with no lighting  Houselisting and Housing Census Data Tables- District Level , Census of India__5": 319,
      "Prevalence of Severe Anaemia  in percentage DLHS-4": "Not available",
      "Total unmet need for family planning in percentage DLHS-4": 25.8,
      "Main Workers Other - Males": 90734,
      "Children who received full vaccination in percentage DLHS-4": "Not available",
      "Marginal Workers Household Industry - Persons": 11371,
      "Primary Pupil-Teacher Ratio in percentage DISE": "NA",
      "Marginal Workers Agricultural Labourers worked for 3 - 6 moths during last year - Males": 56768,
      "Scheduled Caste Females": 41182,
      "Marginal Workers Cultivators - Males": 47594,
      "Marginal Workers - Males": 150583,
      "Marginal Workers worked for 0 - 3 moths during last year - Females": 34562,
      "Households with main source of drinking water within premises in percentage Houselisting and Housing Census Data Tables- District Level , Census of India": 10.39547042,
      "Marginal Workers Household Industry worked for 3 - 6 moths during last year - Persons": 8140,
      "Upper Primary Girl's Enrolment in percentage DISE": "NA",
      "Prevalence of Severe Anaemia in women aged 15-49years in percentage DLHS-4": "Not available",
      "Marginal Workers Agricultural Labourers worked for 0 - 3 moths during last year - Males": 11042,
      "Households with electricity as main source of lighting  Houselisting and Housing Census Data Tables- District Level , Census of India__3": 139416,
      "Households with computer or laptop with internet connection in percentage": 0.51,
      "PHCs functioning on a 24x7hours basis in percentage DLHS-4": "Not applicable",
      "Non Workers - Males": 405116,
      "Total Households in District Houselisting and Housing Census Data Tables- District Level , Census of India": 322679,
      "Upper Primary Schools with girls toilet in percentage DISE": "NA",
      "Households with mobile phone in percentage": 39.96,
      "Households receiving untreated tap water within premises in percentage Houselisting and Housing Census Data Tables- District Level , Census of India__2": 0.2643494,
      "Marginal Workers Cultivators worked for 3 - 6 moths during last year - Males": 38810,
      "Prevalence of Anaemia  in percentage DLHS-4": "Not available",
      "Prevalence of Chronic illness in percentage DLHS-4": "Not available",
      "Households with solar energy as main source of lighting in percentage Houselisting and Housing Census Data Tables- District Level , Census of India__1": 0.414033761,
      "Marginal Workers Agricultural Labourers worked for 0 - 3 moths during last year - Females": 17004,
      "Main Workers - Males": 284829,
      "Female": "NA",
      "Sno": 751,
      "Marginal Workers Other worked for 3 - 6 moths during last year - Females": 15488,
      "Marginal Workers Cultivators worked for 0 - 3 moths during last year - Females": 11381,
      "Scheduled Tribe Males": 395718,
      "Male Illiterates": 280176,
      "Prevalence of Severe Anaemia in pregnant women aged 15-49years in percentage DLHS-4": "Not available",
      "0-6 Age Group Persons": 250753,
      "Upper Primary Student-Classroom Ratio in percentage DISE": "NA",
      "Currently married men married below 21years of age in percentage DLHS-4": 12.7,
      "Male Literates": 560352,
      "Households with no lighting in percentage Houselisting and Housing Census Data Tables- District Level , Census of India__2": 0.0989,
      "Primary Drop Out Rate in percentage DISE": "NA",
      "Marginal Workers Household Industry - Males": 4258,
      "Female Illiterates": 423270,
      "Main Workers Other - Females": 25458,
      "Marginal Workers Cultivators - Persons": 106139,
      "Upper Primary Gross Enrolment Ratio in percentage DISE": "NA",
      "Scheduled Caste Persons": 84270,
      "Marginal Workers Cultivators worked for 3 - 6 moths during last year - Persons": 85974,
      "Households with landline phone in percentage": 1.75,
      "Total Households in District  Houselisting and Housing Census Data Tables- District Level , Census of India": 322679,
      "Upper Primary Pupil-Teacher Ratio in percentage DISE": "NA",
      "Primary Student-Classroom Ratio in percentage DISE": "NA",
      "Primary Schools with boys toilet in percentage DISE": "NA",
      "Mean number of children ever born to women aged 40-49years  DLHS-4": "Not available",
      "Households receiving untreated tap water within premises  Houselisting and Housing Census Data Tables- District Level , Census of India__5": 853,
      "Marginal Workers Household Industry worked for 0 - 3 moths during last year - Persons": 3231,
      "Total Male Population": 840528,
      "Non Workers - Females": 500596,
      "Current use of family planning methods in percentage DLHS-4": 49.9,
      "Households with main source of drinking water within premises  Houselisting and Housing Census Data Tables- District Level , Census of India__3": 33544,
      "Main Workers Agricultural Labourers - Males": 55054,
      "Marginal Workers Other worked for 0 - 3 moths during last year - Persons": 8639,
      "Currently married women married below 18years of age in percentage DLHS-4": 7.1,
      "Person Illiterates": 703446,
      "Main Workers Household Industry - Females": 5120,
      "Female Literates": 393120,
      "Marginal Workers Cultivators worked for 0 - 3 moths during last year - Males": 8784,
      "Male": "NA",
      "Households with improved source of drinking water in percentage DLHS-4": "Not available",
      "Upper Primary Schools with electricity in percentage DISE": "NA",
      "Households with electricity in percentage DLHS-4": "Not available",
      "Villages with Primary Health Centre within 10km in percentage DLHS-4": "Not applicable",
      "Births to women aged 15-19years out of Total births in percentage DLHS-4": "Not available",
      "Prevalence of Anaemia in women aged 15-49years in percentage DLHS-4": "Not available",
      "Marginal Workers Agricultural Labourers worked for 3 - 6 moths during last year - Persons": 127960,
      "Main Workers Household Industry - Males": 7664,
      "Scheduled Tribe Females": 394120,
      "Marginal Workers worked for 0 - 3 moths during last year - Males": 25519,
      "Marginal Workers Other worked for 3 - 6 moths during last year - Males": 26338,
      "Primary Net Enrolment Ratio in percentage DISE": "NA",
      "Total": "NA",
      "Mean age at marriage for boys DLHS-4": 24.8,
      "Number of District Hospitals  DLHS-4": "Not applicable",
      "0-6 Age Group Females": 122845,
      "Marginal Workers Agricultural Labourers worked for 0 - 3 moths during last year - Persons": 28046,
      "Marginal Workers Household Industry worked for 0 - 3 moths during last year - Males": 1110,
      "Total Workers  Females": 315794,
      "Marginal Workers worked for 3 - 6 moths during last year - Females": 138836,
      "Institutional Deliveries in percentage DLHS-4": 53.3,
      "Marginal Workers Other - Males": 30921,
      "Total Workers  Males": 435412,
      "Main Workers - Females": 142396,
      "Primary Gross Enrolment Ratio in percentage DISE": "NA",
      "Main Workers Cultivators - Persons": 202373,
      "Marginal Workers Household Industry worked for 0 - 3 moths during last year - Females": 2121,
      "Upper Primary Net Enrolment Ratio in percentage DISE": "NA",
      "Primary New Government Schools since 2003 in percentage DISE": "NA",
      "Tier": "Rural",
      "Marginal Workers Household Industry - Females": 7113,
      "Primary Schools with electricity in percentage DISE": "NA",
      "Main Workers Other - Persons": 116192,
      "Marginal Workers Household Industry worked for 3 - 6 moths during last year - Females": 4992,
      "Main Workers Cultivators - Males": 131377,
      "Main Workers Household Industry - Persons": 12784,
      "Marginal Workers Cultivators worked for 0 - 3 moths during last year - Persons": 20165,
      "Scheduled Caste Males": 43088,
      "Marginal Workers - Persons": 323981,
      "Deliveries at home conducted by skilled health personnel in percentage DLHS-4": 30,
      "Villages with Sub-Health Centres within 3km in percentage DLHS-4": "Not applicable",
      "Upper Primary New Government Schools since 2003 in percentage DISE": "NA",
      "0-6 Age Group Males": 127908,
      "Primary Schools with drinking water facility in percentage DISE": "NA",
      "Non Workers - Persons": 905712,
      "Person Literates": 953472,
      "State": "JHARKHAND",
      "Total Female Population": 816390,
      "Marginal Workers worked for 0 - 3 moths during last year - Persons": 60081,
      "Marginal Workers Cultivators - Females": 58545,
      "Marginal Workers Other - Persons": 50465,
      "Sex Ratio": 971,
      "Scheduled Tribe Persons": 789838,
      "Marginal Workers Household Industry worked for 3 - 6 moths during last year - Males": 3148,
      "Marginal Workers Agricultural Labourers - Females": 88196,
      "Mean age at marriage for girls DLHS-4": 21.2,
      "Households with solar energy as main source of lighting  Houselisting and Housing Census Data Tables- District Level , Census of India__4": 1336,
      "District": "RANCHI",
      "Households receiving treated tap water within premises in percentage Houselisting and Housing Census Data Tables- District Level , Census of India__1": 0.858128357,
      "Total Workers  Persons": 751206,
      "Households receiving treated tap water within premises  Houselisting and Housing Census Data Tables- District Level , Census of India__4": 2769,
      "Primary Female Teachers in percentage DISE": "NA",
      "Number of Households": 326235,
      "Main Workers Agricultural Labourers - Persons": 95876
    }
  ],
  "Urban": [
    {
      "Marginal Workers Agricultural Labourers - Persons": 7584,
      "Marginal Workers Other - Females": 16961,
      "Marginal Workers Other worked for 0 - 3 moths during last year - Females": 2152,
      "Upper Primary Schools with boys toilet in percentage DISE": "NA",
      "Total Population": 1257335,
      "Households with electricity as main source of lighting in percentage Houselisting and Housing Census Data Tables- District Level , Census of India": 86.99436469,
      "Primary Girl's Enrolment in percentage DISE": "NA",
      "Marginal Workers worked for 3 - 6 moths during last year - Males": 34041,
      "Prevalence of Acute illness in percentage DLHS-4": "Not available",
      "Main Workers - Persons": 328951,
      "Main Workers Cultivators - Females": 1393,
      "Marginal Workers Agricultural Labourers worked for 3 - 6 moths during last year - Females": 2554,
      "Marginal Workers Other worked for 0 - 3 moths during last year - Males": 4218,
      "Upper Primary Schools with drinking water facility in percentage DISE": "NA",
      "Primary Schools with girls toilet in percentage DISE": "NA",
      "Marginal Workers worked for 3 - 6 moths during last year - Persons": 54126,
      "Upper Primary Drop Out Rate in percentage DISE": "NA",
      "Prevalence of Anaemia in pregnant women aged 15-49years in percentage DLHS-4": "Not available",
      "Current use of any modern method of family planning in percentage DLHS-4": 46.6,
      "Marginal Workers Agricultural Labourers - Males": 4421,
      "Upper Primary Female Teachers in percentage DISE": "NA",
      "Marginal Workers - Females": 23275,
      "Marginal Workers Other worked for 3 - 6 moths during last year - Persons": 41947,
      "Main Workers Agricultural Labourers - Females": 2126,
      "Marginal Workers Cultivators worked for 3 - 6 moths during last year - Females": 1350,
      "Households with no lighting  Houselisting and Housing Census Data Tables- District Level , Census of India__5": 209,
      "Prevalence of Severe Anaemia  in percentage DLHS-4": "Not available",
      "Total unmet need for family planning in percentage DLHS-4": 15.4,
      "Main Workers Other - Males": 250675,
      "Children who received full vaccination in percentage DLHS-4": "Not available",
      "Marginal Workers Household Industry - Persons": 3472,
      "Primary Pupil-Teacher Ratio in percentage DISE": "NA",
      "Marginal Workers Agricultural Labourers worked for 3 - 6 moths during last year - Males": 3705,
      "Scheduled Caste Females": 33148,
      "Marginal Workers Cultivators - Males": 1846,
      "Marginal Workers - Males": 39435,
      "Marginal Workers worked for 0 - 3 moths during last year - Females": 3190,
      "Households with main source of drinking water within premises in percentage Houselisting and Housing Census Data Tables- District Level , Census of India": 68.08234955,
      "Marginal Workers Household Industry worked for 3 - 6 moths during last year - Persons": 2897,
      "Upper Primary Girl's Enrolment in percentage DISE": "NA",
      "Prevalence of Severe Anaemia in women aged 15-49years in percentage DLHS-4": "Not available",
      "Marginal Workers Agricultural Labourers worked for 0 - 3 moths during last year - Males": 716,
      "Households with electricity as main source of lighting  Houselisting and Housing Census Data Tables- District Level , Census of India__3": 211492,
      "Households with computer or laptop with internet connection in percentage": 8.92,
      "PHCs functioning on a 24x7hours basis in percentage DLHS-4": 0,
      "Non Workers - Males": 345854,
      "Total Households in District Houselisting and Housing Census Data Tables- District Level , Census of India": 243110,
      "Upper Primary Schools with girls toilet in percentage DISE": "NA",
      "Households with mobile phone in percentage": 70.2,
      "Households receiving untreated tap water within premises in percentage Houselisting and Housing Census Data Tables- District Level , Census of India__2": 2.439225042,
      "Marginal Workers Cultivators worked for 3 - 6 moths during last year - Males": 1673,
      "Prevalence of Anaemia  in percentage DLHS-4": "Not available",
      "Prevalence of Chronic illness in percentage DLHS-4": "Not available",
      "Households with solar energy as main source of lighting in percentage Houselisting and Housing Census Data Tables- District Level , Census of India__1": 0.167825264,
      "Marginal Workers Agricultural Labourers worked for 0 - 3 moths during last year - Females": 609,
      "Main Workers - Males": 269120,
      "Female": "NA",
      "Sno": 753,
      "Marginal Workers Other worked for 3 - 6 moths during last year - Females": 14809,
      "Marginal Workers Cultivators worked for 0 - 3 moths during last year - Females": 141,
      "Scheduled Tribe Males": 124864,
      "Male Illiterates": 129517,
      "Prevalence of Severe Anaemia in pregnant women aged 15-49years in percentage DLHS-4": "Not available",
      "0-6 Age Group Persons": 150461,
      "Upper Primary Student-Classroom Ratio in percentage DISE": "NA",
      "Currently married men married below 21years of age in percentage DLHS-4": 5.6,
      "Male Literates": 524892,
      "Households with no lighting in percentage Houselisting and Housing Census Data Tables- District Level , Census of India__2": 0.086,
      "Primary Drop Out Rate in percentage DISE": "NA",
      "Marginal Workers Household Industry - Males": 1812,
      "Female Illiterates": 169857,
      "Main Workers Other - Females": 53919,
      "Marginal Workers Cultivators - Persons": 3337,
      "Upper Primary Gross Enrolment Ratio in percentage DISE": "NA",
      "Scheduled Caste Persons": 68673,
      "Marginal Workers Cultivators worked for 3 - 6 moths during last year - Persons": 3023,
      "Households with landline phone in percentage": 5.74,
      "Total Households in District  Houselisting and Housing Census Data Tables- District Level , Census of India": 243110,
      "Upper Primary Pupil-Teacher Ratio in percentage DISE": "NA",
      "Primary Student-Classroom Ratio in percentage DISE": "NA",
      "Primary Schools with boys toilet in percentage DISE": "NA",
      "Mean number of children ever born to women aged 40-49years  DLHS-4": "Not available",
      "Households receiving untreated tap water within premises  Houselisting and Housing Census Data Tables- District Level , Census of India__5": 5930,
      "Marginal Workers Household Industry worked for 0 - 3 moths during last year - Persons": 575,
      "Total Male Population": 654409,
      "Non Workers - Females": 519820,
      "Current use of family planning methods in percentage DLHS-4": 64.7,
      "Households with main source of drinking water within premises  Houselisting and Housing Census Data Tables- District Level , Census of India__3": 165515,
      "Main Workers Agricultural Labourers - Males": 5768,
      "Marginal Workers Other worked for 0 - 3 moths during last year - Persons": 6370,
      "Currently married women married below 18years of age in percentage DLHS-4": 3.4,
      "Person Illiterates": 299374,
      "Main Workers Household Industry - Females": 2393,
      "Female Literates": 433069,
      "Marginal Workers Cultivators worked for 0 - 3 moths during last year - Males": 173,
      "Male": "NA",
      "Households with improved source of drinking water in percentage DLHS-4": "Not available",
      "Upper Primary Schools with electricity in percentage DISE": "NA",
      "Households with electricity in percentage DLHS-4": "Not available",
      "Villages with Primary Health Centre within 10km in percentage DLHS-4": 0,
      "Births to women aged 15-19years out of Total births in percentage DLHS-4": "Not available",
      "Prevalence of Anaemia in women aged 15-49years in percentage DLHS-4": "Not available",
      "Marginal Workers Agricultural Labourers worked for 3 - 6 moths during last year - Persons": 6259,
      "Main Workers Household Industry - Males": 8432,
      "Scheduled Tribe Females": 127314,
      "Marginal Workers worked for 0 - 3 moths during last year - Males": 5394,
      "Marginal Workers Other worked for 3 - 6 moths during last year - Males": 27138,
      "Primary Net Enrolment Ratio in percentage DISE": "NA",
      "Total": "NA",
      "Mean age at marriage for boys DLHS-4": 27.3,
      "Number of District Hospitals  DLHS-4": 0,
      "0-6 Age Group Females": 71340,
      "Marginal Workers Agricultural Labourers worked for 0 - 3 moths during last year - Persons": 1325,
      "Marginal Workers Household Industry worked for 0 - 3 moths during last year - Males": 287,
      "Total Workers  Females": 83106,
      "Marginal Workers worked for 3 - 6 moths during last year - Females": 20085,
      "Institutional Deliveries in percentage DLHS-4": 85.8,
      "Marginal Workers Other - Males": 31356,
      "Total Workers  Males": 308555,
      "Main Workers - Females": 59831,
      "Primary Gross Enrolment Ratio in percentage DISE": "NA",
      "Main Workers Cultivators - Persons": 5638,
      "Marginal Workers Household Industry worked for 0 - 3 moths during last year - Females": 288,
      "Upper Primary Net Enrolment Ratio in percentage DISE": "NA",
      "Primary New Government Schools since 2003 in percentage DISE": "NA",
      "Tier": "Urban",
      "Marginal Workers Household Industry - Females": 1660,
      "Primary Schools with electricity in percentage DISE": "NA",
      "Main Workers Other - Persons": 304594,
      "Marginal Workers Household Industry worked for 3 - 6 moths during last year - Females": 1372,
      "Main Workers Cultivators - Males": 4245,
      "Main Workers Household Industry - Persons": 10825,
      "Marginal Workers Cultivators worked for 0 - 3 moths during last year - Persons": 314,
      "Scheduled Caste Males": 35525,
      "Marginal Workers - Persons": 62710,
      "Deliveries at home conducted by skilled health personnel in percentage DLHS-4": 35.7,
      "Villages with Sub-Health Centres within 3km in percentage DLHS-4": 0,
      "Upper Primary New Government Schools since 2003 in percentage DISE": "NA",
      "0-6 Age Group Males": 79121,
      "Primary Schools with drinking water facility in percentage DISE": "NA",
      "Non Workers - Persons": 865674,
      "Person Literates": 957961,
      "State": "JHARKHAND",
      "Total Female Population": 602926,
      "Marginal Workers worked for 0 - 3 moths during last year - Persons": 8584,
      "Marginal Workers Cultivators - Females": 1491,
      "Marginal Workers Other - Persons": 48317,
      "Sex Ratio": 921,
      "Scheduled Tribe Persons": 252178,
      "Marginal Workers Household Industry worked for 3 - 6 moths during last year - Males": 1525,
      "Marginal Workers Agricultural Labourers - Females": 3163,
      "Mean age at marriage for girls DLHS-4": 23,
      "Households with solar energy as main source of lighting  Houselisting and Housing Census Data Tables- District Level , Census of India__4": 408,
      "District": "RANCHI",
      "Households receiving treated tap water within premises in percentage Houselisting and Housing Census Data Tables- District Level , Census of India__1": 26.76936366,
      "Total Workers  Persons": 391661,
      "Households receiving treated tap water within premises  Houselisting and Housing Census Data Tables- District Level , Census of India__4": 65079,
      "Primary Female Teachers in percentage DISE": "NA",
      "Number of Households": 243209,
      "Main Workers Agricultural Labourers - Persons": 7894
    }
  ]
}