{
  "Total": [
    {
      "Marginal Workers Agricultural Labourers - Persons": 110799,
      "Marginal Workers Other - Females": 9452,
      "Marginal Workers Other worked for 0 - 3 moths during last year - Females": 2395,
      "Upper Primary Schools with boys toilet in percentage DISE": 100,
      "Total Population": 1065056,
      "Households with electricity as main source of lighting in percentage Houselisting and Housing Census Data Tables- District Level , Census of India": 63.36458802,
      "Primary Girl's Enrolment in percentage DISE": 49.7,
      "Marginal Workers worked for 3 - 6 moths during last year - Males": 86225,
      "Prevalence of Acute illness in percentage DLHS-4": "Not available",
      "Main Workers - Persons": 228598,
      "Main Workers Cultivators - Females": 13445,
      "Marginal Workers Agricultural Labourers worked for 3 - 6 moths during last year - Females": 46614,
      "Marginal Workers Other worked for 0 - 3 moths during last year - Males": 2687,
      "Upper Primary Schools with drinking water facility in percentage DISE": 100,
      "Primary Schools with girls toilet in percentage DISE": 99,
      "Marginal Workers worked for 3 - 6 moths during last year - Persons": 163233,
      "Upper Primary Drop Out Rate in percentage DISE": 11.78,
      "Prevalence of Anaemia in pregnant women aged 15-49years in percentage DLHS-4": "Not available",
      "Current use of any modern method of family planning in percentage DLHS-4": "Not available",
      "Marginal Workers Agricultural Labourers - Males": 50735,
      "Upper Primary Female Teachers in percentage DISE": 19,
      "Marginal Workers - Females": 99228,
      "Marginal Workers Other worked for 3 - 6 moths during last year - Persons": 22092,
      "Main Workers Agricultural Labourers - Females": 13107,
      "Marginal Workers Cultivators worked for 3 - 6 moths during last year - Females": 21742,
      "Households with no lighting  Houselisting and Housing Census Data Tables- District Level , Census of India__5": 56,
      "Prevalence of Severe Anaemia  in percentage DLHS-4": "Not available",
      "Total unmet need for family planning in percentage DLHS-4": "Not available",
      "Main Workers Other - Males": 114198,
      "Children who received full vaccination in percentage DLHS-4": "Not available",
      "Marginal Workers Household Industry - Persons": 4190,
      "Primary Pupil-Teacher Ratio in percentage DISE": 25,
      "Marginal Workers Agricultural Labourers worked for 3 - 6 moths during last year - Males": 42252,
      "Scheduled Caste Females": 27952,
      "Marginal Workers Cultivators - Males": 31871,
      "Marginal Workers - Males": 102225,
      "Marginal Workers worked for 0 - 3 moths during last year - Females": 22220,
      "Households with main source of drinking water within premises in percentage Houselisting and Housing Census Data Tables- District Level , Census of India": 20.51570227,
      "Marginal Workers Household Industry worked for 3 - 6 moths during last year - Persons": 3102,
      "Upper Primary Girl's Enrolment in percentage DISE": 48,
      "Prevalence of Severe Anaemia in women aged 15-49years in percentage DLHS-4": "Not available",
      "Marginal Workers Agricultural Labourers worked for 0 - 3 moths during last year - Males": 8483,
      "Households with electricity as main source of lighting  Houselisting and Housing Census Data Tables- District Level , Census of India__3": 138131,
      "Households with computer or laptop with internet connection in percentage": 1.2,
      "PHCs functioning on a 24x7hours basis in percentage DLHS-4": "Not available",
      "Non Workers - Males": 261130,
      "Total Households in District Houselisting and Housing Census Data Tables- District Level , Census of India": 217994,
      "Upper Primary Schools with girls toilet in percentage DISE": 100,
      "Households with mobile phone in percentage": 38.02,
      "Households receiving untreated tap water within premises in percentage Houselisting and Housing Census Data Tables- District Level , Census of India__2": 0.75598411,
      "Marginal Workers Cultivators worked for 3 - 6 moths during last year - Males": 27431,
      "Prevalence of Anaemia  in percentage DLHS-4": "Not available",
      "Prevalence of Chronic illness in percentage DLHS-4": "Not available",
      "Households with solar energy as main source of lighting in percentage Houselisting and Housing Census Data Tables- District Level , Census of India__1": 1.855555657,
      "Marginal Workers Agricultural Labourers worked for 0 - 3 moths during last year - Females": 13450,
      "Main Workers - Males": 181056,
      "Female": 55.88,
      "Sno": 758,
      "Marginal Workers Other worked for 3 - 6 moths during last year - Females": 7057,
      "Marginal Workers Cultivators worked for 0 - 3 moths during last year - Females": 5677,
      "Scheduled Tribe Males": 187149,
      "Male Illiterates": 179079,
      "Prevalence of Severe Anaemia in pregnant women aged 15-49years in percentage DLHS-4": "Not available",
      "0-6 Age Group Persons": 159596,
      "Upper Primary Student-Classroom Ratio in percentage DISE": 20,
      "Currently married men married below 21years of age in percentage DLHS-4": "Not available",
      "Male Literates": 365332,
      "Households with no lighting in percentage Houselisting and Housing Census Data Tables- District Level , Census of India__2": 0.0257,
      "Primary Drop Out Rate in percentage DISE": 15,
      "Marginal Workers Household Industry - Males": 1897,
      "Female Illiterates": 272984,
      "Main Workers Other - Females": 18731,
      "Marginal Workers Cultivators - Persons": 59290,
      "Upper Primary Gross Enrolment Ratio in percentage DISE": 77.6,
      "Scheduled Caste Persons": 56195,
      "Marginal Workers Cultivators worked for 3 - 6 moths during last year - Persons": 49173,
      "Households with landline phone in percentage": 1.73,
      "Total Households in District  Houselisting and Housing Census Data Tables- District Level , Census of India": 217994,
      "Upper Primary Pupil-Teacher Ratio in percentage DISE": 33,
      "Primary Student-Classroom Ratio in percentage DISE": 18,
      "Primary Schools with boys toilet in percentage DISE": 98.9,
      "Mean number of children ever born to women aged 40-49years  DLHS-4": "Not available",
      "Households receiving untreated tap water within premises  Houselisting and Housing Census Data Tables- District Level , Census of India__5": 1648,
      "Marginal Workers Household Industry worked for 0 - 3 moths during last year - Persons": 1088,
      "Total Male Population": 544411,
      "Non Workers - Females": 373875,
      "Current use of family planning methods in percentage DLHS-4": "Not available",
      "Households with main source of drinking water within premises  Houselisting and Housing Census Data Tables- District Level , Census of India__3": 44723,
      "Main Workers Agricultural Labourers - Males": 19060,
      "Marginal Workers Other worked for 0 - 3 moths during last year - Persons": 5082,
      "Currently married women married below 18years of age in percentage DLHS-4": "Not available",
      "Person Illiterates": 452063,
      "Main Workers Household Industry - Females": 2259,
      "Female Literates": 247661,
      "Marginal Workers Cultivators worked for 0 - 3 moths during last year - Males": 4440,
      "Male": 79.03,
      "Households with improved source of drinking water in percentage DLHS-4": "Not available",
      "Upper Primary Schools with electricity in percentage DISE": 25,
      "Households with electricity in percentage DLHS-4": "Not available",
      "Villages with Primary Health Centre within 10km in percentage DLHS-4": "Not available",
      "Births to women aged 15-19years out of Total births in percentage DLHS-4": "Not available",
      "Prevalence of Anaemia in women aged 15-49years in percentage DLHS-4": "Not available",
      "Marginal Workers Agricultural Labourers worked for 3 - 6 moths during last year - Persons": 88866,
      "Main Workers Household Industry - Males": 3802,
      "Scheduled Tribe Females": 187493,
      "Marginal Workers worked for 0 - 3 moths during last year - Males": 16000,
      "Marginal Workers Other worked for 3 - 6 moths during last year - Males": 15035,
      "Primary Net Enrolment Ratio in percentage DISE": 84.1,
      "Total": 67.7,
      "Mean age at marriage for boys DLHS-4": "Not available",
      "Number of District Hospitals  DLHS-4": "Not available",
      "0-6 Age Group Females": 77476,
      "Marginal Workers Agricultural Labourers worked for 0 - 3 moths during last year - Persons": 21933,
      "Marginal Workers Household Industry worked for 0 - 3 moths during last year - Males": 390,
      "Total Workers  Females": 146770,
      "Marginal Workers worked for 3 - 6 moths during last year - Females": 77008,
      "Institutional Deliveries in percentage DLHS-4": "Not available",
      "Marginal Workers Other - Males": 17722,
      "Total Workers  Males": 283281,
      "Main Workers - Females": 47542,
      "Primary Gross Enrolment Ratio in percentage DISE": 96.3,
      "Main Workers Cultivators - Persons": 57441,
      "Marginal Workers Household Industry worked for 0 - 3 moths during last year - Females": 698,
      "Upper Primary Net Enrolment Ratio in percentage DISE": 63.8,
      "Primary New Government Schools since 2003 in percentage DISE": 34.9,
      "Tier": "Total",
      "Marginal Workers Household Industry - Females": 2293,
      "Primary Schools with electricity in percentage DISE": 4.7,
      "Main Workers Other - Persons": 132929,
      "Marginal Workers Household Industry worked for 3 - 6 moths during last year - Females": 1595,
      "Main Workers Cultivators - Males": 43996,
      "Main Workers Household Industry - Persons": 6061,
      "Marginal Workers Cultivators worked for 0 - 3 moths during last year - Persons": 10117,
      "Scheduled Caste Males": 28243,
      "Marginal Workers - Persons": 201453,
      "Deliveries at home conducted by skilled health personnel in percentage DLHS-4": "Not available",
      "Villages with Sub-Health Centres within 3km in percentage DLHS-4": "Not available",
      "Upper Primary New Government Schools since 2003 in percentage DISE": 0,
      "0-6 Age Group Males": 82120,
      "Primary Schools with drinking water facility in percentage DISE": 89.1,
      "Non Workers - Persons": 635005,
      "Person Literates": 612993,
      "State": "JHARKHAND",
      "Total Female Population": 520645,
      "Marginal Workers worked for 0 - 3 moths during last year - Persons": 38220,
      "Marginal Workers Cultivators - Females": 27419,
      "Marginal Workers Other - Persons": 27174,
      "Sex Ratio": 956,
      "Scheduled Tribe Persons": 374642,
      "Marginal Workers Household Industry worked for 3 - 6 moths during last year - Males": 1507,
      "Marginal Workers Agricultural Labourers - Females": 60064,
      "Mean age at marriage for girls DLHS-4": "Not available",
      "Households with solar energy as main source of lighting  Houselisting and Housing Census Data Tables- District Level , Census of India__4": 4045,
      "District": "SARIKELA-KHARSWANA",
      "Households receiving treated tap water within premises in percentage Houselisting and Housing Census Data Tables- District Level , Census of India__1": 4.545537951,
      "Total Workers  Persons": 430051,
      "Households receiving treated tap water within premises  Houselisting and Housing Census Data Tables- District Level , Census of India__4": 9909,
      "Primary Female Teachers in percentage DISE": 32.3,
      "Number of Households": 221232,
      "Main Workers Agricultural Labourers - Persons": 32167
    }
  ],
  "Rural": [
    {
      "Marginal Workers Agricultural Labourers - Persons": 109881,
      "Marginal Workers Other - Females": 7494,
      "Marginal Workers Other worked for 0 - 3 moths during last year - Females": 2074,
      "Upper Primary Schools with boys toilet in percentage DISE": "NA",
      "Total Population": 806310,
      "Households with electricity as main source of lighting in percentage Houselisting and Housing Census Data Tables- District Level , Census of India": 55.71215857,
      "Primary Girl's Enrolment in percentage DISE": "NA",
      "Marginal Workers worked for 3 - 6 moths during last year - Males": 81663,
      "Prevalence of Acute illness in percentage DLHS-4": "Not available",
      "Main Workers - Persons": 157725,
      "Main Workers Cultivators - Females": 13372,
      "Marginal Workers Agricultural Labourers worked for 3 - 6 moths during last year - Females": 46409,
      "Marginal Workers Other worked for 0 - 3 moths during last year - Males": 2072,
      "Upper Primary Schools with drinking water facility in percentage DISE": "NA",
      "Primary Schools with girls toilet in percentage DISE": "NA",
      "Marginal Workers worked for 3 - 6 moths during last year - Persons": 156601,
      "Upper Primary Drop Out Rate in percentage DISE": "NA",
      "Prevalence of Anaemia in pregnant women aged 15-49years in percentage DLHS-4": "Not available",
      "Current use of any modern method of family planning in percentage DLHS-4": "Not available",
      "Marginal Workers Agricultural Labourers - Males": 50077,
      "Upper Primary Female Teachers in percentage DISE": "NA",
      "Marginal Workers - Females": 96735,
      "Marginal Workers Other worked for 3 - 6 moths during last year - Persons": 16787,
      "Main Workers Agricultural Labourers - Females": 12948,
      "Marginal Workers Cultivators worked for 3 - 6 moths during last year - Females": 21628,
      "Households with no lighting  Houselisting and Housing Census Data Tables- District Level , Census of India__5": 20,
      "Prevalence of Severe Anaemia  in percentage DLHS-4": "Not available",
      "Total unmet need for family planning in percentage DLHS-4": "Not available",
      "Main Workers Other - Males": 54375,
      "Children who received full vaccination in percentage DLHS-4": "Not available",
      "Marginal Workers Household Industry - Persons": 3872,
      "Primary Pupil-Teacher Ratio in percentage DISE": "NA",
      "Marginal Workers Agricultural Labourers worked for 3 - 6 moths during last year - Males": 41671,
      "Scheduled Caste Females": 21759,
      "Marginal Workers Cultivators - Males": 31685,
      "Marginal Workers - Males": 96928,
      "Marginal Workers worked for 0 - 3 moths during last year - Females": 21797,
      "Households with main source of drinking water within premises in percentage Houselisting and Housing Census Data Tables- District Level , Census of India": 8.05206079,
      "Marginal Workers Household Industry worked for 3 - 6 moths during last year - Persons": 2848,
      "Upper Primary Girl's Enrolment in percentage DISE": "NA",
      "Prevalence of Severe Anaemia in women aged 15-49years in percentage DLHS-4": "Not available",
      "Marginal Workers Agricultural Labourers worked for 0 - 3 moths during last year - Males": 8406,
      "Households with electricity as main source of lighting  Houselisting and Housing Census Data Tables- District Level , Census of India__3": 92417,
      "Households with computer or laptop with internet connection in percentage": 0.33,
      "PHCs functioning on a 24x7hours basis in percentage DLHS-4": "Not applicable",
      "Non Workers - Males": 192984,
      "Total Households in District Houselisting and Housing Census Data Tables- District Level , Census of India": 165883,
      "Upper Primary Schools with girls toilet in percentage DISE": "NA",
      "Households with mobile phone in percentage": 31.09,
      "Households receiving untreated tap water within premises in percentage Houselisting and Housing Census Data Tables- District Level , Census of India__2": 0.258616012,
      "Marginal Workers Cultivators worked for 3 - 6 moths during last year - Males": 27258,
      "Prevalence of Anaemia  in percentage DLHS-4": "Not available",
      "Prevalence of Chronic illness in percentage DLHS-4": "Not available",
      "Households with solar energy as main source of lighting in percentage Houselisting and Housing Census Data Tables- District Level , Census of India__1": 2.404104097,
      "Marginal Workers Agricultural Labourers worked for 0 - 3 moths during last year - Females": 13395,
      "Main Workers - Males": 118936,
      "Female": "NA",
      "Sno": 757,
      "Marginal Workers Other worked for 3 - 6 moths during last year - Females": 5420,
      "Marginal Workers Cultivators worked for 0 - 3 moths during last year - Females": 5664,
      "Scheduled Tribe Males": 172347,
      "Male Illiterates": 144302,
      "Prevalence of Severe Anaemia in pregnant women aged 15-49years in percentage DLHS-4": "Not available",
      "0-6 Age Group Persons": 122667,
      "Upper Primary Student-Classroom Ratio in percentage DISE": "NA",
      "Currently married men married below 21years of age in percentage DLHS-4": "Not available",
      "Male Literates": 264546,
      "Households with no lighting in percentage Houselisting and Housing Census Data Tables- District Level , Census of India__2": 0.0121,
      "Primary Drop Out Rate in percentage DISE": "NA",
      "Marginal Workers Household Industry - Males": 1727,
      "Female Illiterates": 227660,
      "Main Workers Other - Females": 10481,
      "Marginal Workers Cultivators - Persons": 58977,
      "Upper Primary Gross Enrolment Ratio in percentage DISE": "NA",
      "Scheduled Caste Persons": 43683,
      "Marginal Workers Cultivators worked for 3 - 6 moths during last year - Persons": 48886,
      "Households with landline phone in percentage": 1.22,
      "Total Households in District  Houselisting and Housing Census Data Tables- District Level , Census of India": 165883,
      "Upper Primary Pupil-Teacher Ratio in percentage DISE": "NA",
      "Primary Student-Classroom Ratio in percentage DISE": "NA",
      "Primary Schools with boys toilet in percentage DISE": "NA",
      "Mean number of children ever born to women aged 40-49years  DLHS-4": "Not available",
      "Households receiving untreated tap water within premises  Houselisting and Housing Census Data Tables- District Level , Census of India__5": 429,
      "Marginal Workers Household Industry worked for 0 - 3 moths during last year - Persons": 1024,
      "Total Male Population": 408848,
      "Non Workers - Females": 261938,
      "Current use of family planning methods in percentage DLHS-4": "Not available",
      "Households with main source of drinking water within premises  Houselisting and Housing Census Data Tables- District Level , Census of India__3": 13357,
      "Main Workers Agricultural Labourers - Males": 18377,
      "Marginal Workers Other worked for 0 - 3 moths during last year - Persons": 4146,
      "Currently married women married below 18years of age in percentage DLHS-4": "Not available",
      "Person Illiterates": 371962,
      "Main Workers Household Industry - Females": 1988,
      "Female Literates": 169802,
      "Marginal Workers Cultivators worked for 0 - 3 moths during last year - Males": 4427,
      "Male": "NA",
      "Households with improved source of drinking water in percentage DLHS-4": "Not available",
      "Upper Primary Schools with electricity in percentage DISE": "NA",
      "Households with electricity in percentage DLHS-4": "Not available",
      "Villages with Primary Health Centre within 10km in percentage DLHS-4": "Not applicable",
      "Births to women aged 15-19years out of Total births in percentage DLHS-4": "Not available",
      "Prevalence of Anaemia in women aged 15-49years in percentage DLHS-4": "Not available",
      "Marginal Workers Agricultural Labourers worked for 3 - 6 moths during last year - Persons": 88080,
      "Main Workers Household Industry - Males": 2740,
      "Scheduled Tribe Females": 172840,
      "Marginal Workers worked for 0 - 3 moths during last year - Males": 15265,
      "Marginal Workers Other worked for 3 - 6 moths during last year - Males": 11367,
      "Primary Net Enrolment Ratio in percentage DISE": "NA",
      "Total": "NA",
      "Mean age at marriage for boys DLHS-4": "Not available",
      "Number of District Hospitals  DLHS-4": "Not applicable",
      "0-6 Age Group Females": 59761,
      "Marginal Workers Agricultural Labourers worked for 0 - 3 moths during last year - Persons": 21801,
      "Marginal Workers Household Industry worked for 0 - 3 moths during last year - Males": 360,
      "Total Workers  Females": 135524,
      "Marginal Workers worked for 3 - 6 moths during last year - Females": 74938,
      "Institutional Deliveries in percentage DLHS-4": "Not available",
      "Marginal Workers Other - Males": 13439,
      "Total Workers  Males": 215864,
      "Main Workers - Females": 38789,
      "Primary Gross Enrolment Ratio in percentage DISE": "NA",
      "Main Workers Cultivators - Persons": 56816,
      "Marginal Workers Household Industry worked for 0 - 3 moths during last year - Females": 664,
      "Upper Primary Net Enrolment Ratio in percentage DISE": "NA",
      "Primary New Government Schools since 2003 in percentage DISE": "NA",
      "Tier": "Rural",
      "Marginal Workers Household Industry - Females": 2145,
      "Primary Schools with electricity in percentage DISE": "NA",
      "Main Workers Other - Persons": 64856,
      "Marginal Workers Household Industry worked for 3 - 6 moths during last year - Females": 1481,
      "Main Workers Cultivators - Males": 43444,
      "Main Workers Household Industry - Persons": 4728,
      "Marginal Workers Cultivators worked for 0 - 3 moths during last year - Persons": 10091,
      "Scheduled Caste Males": 21924,
      "Marginal Workers - Persons": 193663,
      "Deliveries at home conducted by skilled health personnel in percentage DLHS-4": "Not available",
      "Villages with Sub-Health Centres within 3km in percentage DLHS-4": "Not applicable",
      "Upper Primary New Government Schools since 2003 in percentage DISE": "NA",
      "0-6 Age Group Males": 62906,
      "Primary Schools with drinking water facility in percentage DISE": "NA",
      "Non Workers - Persons": 454922,
      "Person Literates": 434348,
      "State": "JHARKHAND",
      "Total Female Population": 397462,
      "Marginal Workers worked for 0 - 3 moths during last year - Persons": 37062,
      "Marginal Workers Cultivators - Females": 27292,
      "Marginal Workers Other - Persons": 20933,
      "Sex Ratio": 972,
      "Scheduled Tribe Persons": 345187,
      "Marginal Workers Household Industry worked for 3 - 6 moths during last year - Males": 1367,
      "Marginal Workers Agricultural Labourers - Females": 59804,
      "Mean age at marriage for girls DLHS-4": "Not available",
      "Households with solar energy as main source of lighting  Houselisting and Housing Census Data Tables- District Level , Census of India__4": 3988,
      "District": "SARIKELA-KHARSWANA",
      "Households receiving treated tap water within premises in percentage Houselisting and Housing Census Data Tables- District Level , Census of India__1": 1.038081057,
      "Total Workers  Persons": 351388,
      "Households receiving treated tap water within premises  Houselisting and Housing Census Data Tables- District Level , Census of India__4": 1722,
      "Primary Female Teachers in percentage DISE": "NA",
      "Number of Households": 167591,
      "Main Workers Agricultural Labourers - Persons": 31325
    }
  ],
  "Urban": [
    {
      "Marginal Workers Agricultural Labourers - Persons": 918,
      "Marginal Workers Other - Females": 1958,
      "Marginal Workers Other worked for 0 - 3 moths during last year - Females": 321,
      "Upper Primary Schools with boys toilet in percentage DISE": "NA",
      "Total Population": 258746,
      "Households with electricity as main source of lighting in percentage Houselisting and Housing Census Data Tables- District Level , Census of India": 87.72428086,
      "Primary Girl's Enrolment in percentage DISE": "NA",
      "Marginal Workers worked for 3 - 6 moths during last year - Males": 4562,
      "Prevalence of Acute illness in percentage DLHS-4": "Not available",
      "Main Workers - Persons": 70873,
      "Main Workers Cultivators - Females": 73,
      "Marginal Workers Agricultural Labourers worked for 3 - 6 moths during last year - Females": 205,
      "Marginal Workers Other worked for 0 - 3 moths during last year - Males": 615,
      "Upper Primary Schools with drinking water facility in percentage DISE": "NA",
      "Primary Schools with girls toilet in percentage DISE": "NA",
      "Marginal Workers worked for 3 - 6 moths during last year - Persons": 6632,
      "Upper Primary Drop Out Rate in percentage DISE": "NA",
      "Prevalence of Anaemia in pregnant women aged 15-49years in percentage DLHS-4": "Not available",
      "Current use of any modern method of family planning in percentage DLHS-4": "Not available",
      "Marginal Workers Agricultural Labourers - Males": 658,
      "Upper Primary Female Teachers in percentage DISE": "NA",
      "Marginal Workers - Females": 2493,
      "Marginal Workers Other worked for 3 - 6 moths during last year - Persons": 5305,
      "Main Workers Agricultural Labourers - Females": 159,
      "Marginal Workers Cultivators worked for 3 - 6 moths during last year - Females": 114,
      "Households with no lighting  Houselisting and Housing Census Data Tables- District Level , Census of India__5": 36,
      "Prevalence of Severe Anaemia  in percentage DLHS-4": "Not available",
      "Total unmet need for family planning in percentage DLHS-4": "Not available",
      "Main Workers Other - Males": 59823,
      "Children who received full vaccination in percentage DLHS-4": "Not available",
      "Marginal Workers Household Industry - Persons": 318,
      "Primary Pupil-Teacher Ratio in percentage DISE": "NA",
      "Marginal Workers Agricultural Labourers worked for 3 - 6 moths during last year - Males": 581,
      "Scheduled Caste Females": 6193,
      "Marginal Workers Cultivators - Males": 186,
      "Marginal Workers - Males": 5297,
      "Marginal Workers worked for 0 - 3 moths during last year - Females": 423,
      "Households with main source of drinking water within premises in percentage Houselisting and Housing Census Data Tables- District Level , Census of India": 60.19074668,
      "Marginal Workers Household Industry worked for 3 - 6 moths during last year - Persons": 254,
      "Upper Primary Girl's Enrolment in percentage DISE": "NA",
      "Prevalence of Severe Anaemia in women aged 15-49years in percentage DLHS-4": "Not available",
      "Marginal Workers Agricultural Labourers worked for 0 - 3 moths during last year - Males": 77,
      "Households with electricity as main source of lighting  Houselisting and Housing Census Data Tables- District Level , Census of India__3": 45714,
      "Households with computer or laptop with internet connection in percentage": 3.94,
      "PHCs functioning on a 24x7hours basis in percentage DLHS-4": 0,
      "Non Workers - Males": 68146,
      "Total Households in District Houselisting and Housing Census Data Tables- District Level , Census of India": 52111,
      "Upper Primary Schools with girls toilet in percentage DISE": "NA",
      "Households with mobile phone in percentage": 60.06,
      "Households receiving untreated tap water within premises in percentage Houselisting and Housing Census Data Tables- District Level , Census of India__2": 2.339237397,
      "Marginal Workers Cultivators worked for 3 - 6 moths during last year - Males": 173,
      "Prevalence of Anaemia  in percentage DLHS-4": "Not available",
      "Prevalence of Chronic illness in percentage DLHS-4": "Not available",
      "Households with solar energy as main source of lighting in percentage Houselisting and Housing Census Data Tables- District Level , Census of India__1": 0.109381896,
      "Marginal Workers Agricultural Labourers worked for 0 - 3 moths during last year - Females": 55,
      "Main Workers - Males": 62120,
      "Female": "NA",
      "Sno": 759,
      "Marginal Workers Other worked for 3 - 6 moths during last year - Females": 1637,
      "Marginal Workers Cultivators worked for 0 - 3 moths during last year - Females": 13,
      "Scheduled Tribe Males": 14802,
      "Male Illiterates": 34777,
      "Prevalence of Severe Anaemia in pregnant women aged 15-49years in percentage DLHS-4": "Not available",
      "0-6 Age Group Persons": 36929,
      "Upper Primary Student-Classroom Ratio in percentage DISE": "NA",
      "Currently married men married below 21years of age in percentage DLHS-4": "Not available",
      "Male Literates": 100786,
      "Households with no lighting in percentage Houselisting and Housing Census Data Tables- District Level , Census of India__2": 0.0691,
      "Primary Drop Out Rate in percentage DISE": "NA",
      "Marginal Workers Household Industry - Males": 170,
      "Female Illiterates": 45324,
      "Main Workers Other - Females": 8250,
      "Marginal Workers Cultivators - Persons": 313,
      "Upper Primary Gross Enrolment Ratio in percentage DISE": "NA",
      "Scheduled Caste Persons": 12512,
      "Marginal Workers Cultivators worked for 3 - 6 moths during last year - Persons": 287,
      "Households with landline phone in percentage": 3.36,
      "Total Households in District  Houselisting and Housing Census Data Tables- District Level , Census of India": 52111,
      "Upper Primary Pupil-Teacher Ratio in percentage DISE": "NA",
      "Primary Student-Classroom Ratio in percentage DISE": "NA",
      "Primary Schools with boys toilet in percentage DISE": "NA",
      "Mean number of children ever born to women aged 40-49years  DLHS-4": "Not available",
      "Households receiving untreated tap water within premises  Houselisting and Housing Census Data Tables- District Level , Census of India__5": 1219,
      "Marginal Workers Household Industry worked for 0 - 3 moths during last year - Persons": 64,
      "Total Male Population": 135563,
      "Non Workers - Females": 111937,
      "Current use of family planning methods in percentage DLHS-4": "Not available",
      "Households with main source of drinking water within premises  Houselisting and Housing Census Data Tables- District Level , Census of India__3": 31366,
      "Main Workers Agricultural Labourers - Males": 683,
      "Marginal Workers Other worked for 0 - 3 moths during last year - Persons": 936,
      "Currently married women married below 18years of age in percentage DLHS-4": "Not available",
      "Person Illiterates": 80101,
      "Main Workers Household Industry - Females": 271,
      "Female Literates": 77859,
      "Marginal Workers Cultivators worked for 0 - 3 moths during last year - Males": 13,
      "Male": "NA",
      "Households with improved source of drinking water in percentage DLHS-4": "Not available",
      "Upper Primary Schools with electricity in percentage DISE": "NA",
      "Households with electricity in percentage DLHS-4": "Not available",
      "Villages with Primary Health Centre within 10km in percentage DLHS-4": 0,
      "Births to women aged 15-19years out of Total births in percentage DLHS-4": "Not available",
      "Prevalence of Anaemia in women aged 15-49years in percentage DLHS-4": "Not available",
      "Marginal Workers Agricultural Labourers worked for 3 - 6 moths during last year - Persons": 786,
      "Main Workers Household Industry - Males": 1062,
      "Scheduled Tribe Females": 14653,
      "Marginal Workers worked for 0 - 3 moths during last year - Males": 735,
      "Marginal Workers Other worked for 3 - 6 moths during last year - Males": 3668,
      "Primary Net Enrolment Ratio in percentage DISE": "NA",
      "Total": "NA",
      "Mean age at marriage for boys DLHS-4": "Not available",
      "Number of District Hospitals  DLHS-4": 0,
      "0-6 Age Group Females": 17715,
      "Marginal Workers Agricultural Labourers worked for 0 - 3 moths during last year - Persons": 132,
      "Marginal Workers Household Industry worked for 0 - 3 moths during last year - Males": 30,
      "Total Workers  Females": 11246,
      "Marginal Workers worked for 3 - 6 moths during last year - Females": 2070,
      "Institutional Deliveries in percentage DLHS-4": "Not available",
      "Marginal Workers Other - Males": 4283,
      "Total Workers  Males": 67417,
      "Main Workers - Females": 8753,
      "Primary Gross Enrolment Ratio in percentage DISE": "NA",
      "Main Workers Cultivators - Persons": 625,
      "Marginal Workers Household Industry worked for 0 - 3 moths during last year - Females": 34,
      "Upper Primary Net Enrolment Ratio in percentage DISE": "NA",
      "Primary New Government Schools since 2003 in percentage DISE": "NA",
      "Tier": "Urban",
      "Marginal Workers Household Industry - Females": 148,
      "Primary Schools with electricity in percentage DISE": "NA",
      "Main Workers Other - Persons": 68073,
      "Marginal Workers Household Industry worked for 3 - 6 moths during last year - Females": 114,
      "Main Workers Cultivators - Males": 552,
      "Main Workers Household Industry - Persons": 1333,
      "Marginal Workers Cultivators worked for 0 - 3 moths during last year - Persons": 26,
      "Scheduled Caste Males": 6319,
      "Marginal Workers - Persons": 7790,
      "Deliveries at home conducted by skilled health personnel in percentage DLHS-4": "Not available",
      "Villages with Sub-Health Centres within 3km in percentage DLHS-4": 0,
      "Upper Primary New Government Schools since 2003 in percentage DISE": "NA",
      "0-6 Age Group Males": 19214,
      "Primary Schools with drinking water facility in percentage DISE": "NA",
      "Non Workers - Persons": 180083,
      "Person Literates": 178645,
      "State": "JHARKHAND",
      "Total Female Population": 123183,
      "Marginal Workers worked for 0 - 3 moths during last year - Persons": 1158,
      "Marginal Workers Cultivators - Females": 127,
      "Marginal Workers Other - Persons": 6241,
      "Sex Ratio": 909,
      "Scheduled Tribe Persons": 29455,
      "Marginal Workers Household Industry worked for 3 - 6 moths during last year - Males": 140,
      "Marginal Workers Agricultural Labourers - Females": 260,
      "Mean age at marriage for girls DLHS-4": "Not available",
      "Households with solar energy as main source of lighting  Houselisting and Housing Census Data Tables- District Level , Census of India__4": 57,
      "District": "SARIKELA-KHARSWANA",
      "Households receiving treated tap water within premises in percentage Houselisting and Housing Census Data Tables- District Level , Census of India__1": 15.71069448,
      "Total Workers  Persons": 78663,
      "Households receiving treated tap water within premises  Houselisting and Housing Census Data Tables- District Level , Census of India__4": 8187,
      "Primary Female Teachers in percentage DISE": "NA",
      "Number of Households": 53641,
      "Main Workers Agricultural Labourers - Persons": 842
    }
  ]
}