{
  "Total": [
    {
      "Marginal Workers Agricultural Labourers - Persons": 27989,
      "Marginal Workers Other - Females": 4010,
      "Marginal Workers Other worked for 0 - 3 moths during last year - Females": 653,
      "Upper Primary Schools with boys toilet in percentage DISE": 100,
      "Total Population": 1177345,
      "Households with electricity as main source of lighting in percentage Houselisting and Housing Census Data Tables- District Level , Census of India": 70.08161521,
      "Primary Girl's Enrolment in percentage DISE": 47.6,
      "Marginal Workers worked for 3 - 6 moths during last year - Males": 19993,
      "Prevalence of Acute illness in percentage DLHS-4": 7.6,
      "Main Workers - Persons": 514371,
      "Main Workers Cultivators - Females": 92423,
      "Marginal Workers Agricultural Labourers worked for 3 - 6 moths during last year - Females": 15862,
      "Marginal Workers Other worked for 0 - 3 moths during last year - Males": 839,
      "Upper Primary Schools with drinking water facility in percentage DISE": 100,
      "Primary Schools with girls toilet in percentage DISE": 100,
      "Marginal Workers worked for 3 - 6 moths during last year - Persons": 48537,
      "Upper Primary Drop Out Rate in percentage DISE": 5.47,
      "Prevalence of Anaemia in pregnant women aged 15-49years in percentage DLHS-4": 68.1,
      "Current use of any modern method of family planning in percentage DLHS-4": 64.9,
      "Marginal Workers Agricultural Labourers - Males": 10609,
      "Upper Primary Female Teachers in percentage DISE": 0,
      "Marginal Workers - Females": 32240,
      "Marginal Workers Other worked for 3 - 6 moths during last year - Persons": 9700,
      "Main Workers Agricultural Labourers - Females": 95586,
      "Marginal Workers Cultivators worked for 3 - 6 moths during last year - Females": 8649,
      "Households with no lighting  Houselisting and Housing Census Data Tables- District Level , Census of India__5": 3602,
      "Prevalence of Severe Anaemia  in percentage DLHS-4": 12.8,
      "Total unmet need for family planning in percentage DLHS-4": 22.9,
      "Main Workers Other - Males": 66152,
      "Children who received full vaccination in percentage DLHS-4": 58.1,
      "Marginal Workers Household Industry - Persons": 1301,
      "Primary Pupil-Teacher Ratio in percentage DISE": 24,
      "Marginal Workers Agricultural Labourers worked for 3 - 6 moths during last year - Males": 9571,
      "Scheduled Caste Females": 89186,
      "Marginal Workers Cultivators - Males": 4331,
      "Marginal Workers - Males": 22571,
      "Marginal Workers worked for 0 - 3 moths during last year - Females": 3696,
      "Households with main source of drinking water within premises in percentage Houselisting and Housing Census Data Tables- District Level , Census of India": 36.79908034,
      "Marginal Workers Household Industry worked for 3 - 6 moths during last year - Persons": 1041,
      "Upper Primary Girl's Enrolment in percentage DISE": 45,
      "Prevalence of Severe Anaemia in women aged 15-49years in percentage DLHS-4": 8.5,
      "Marginal Workers Agricultural Labourers worked for 0 - 3 moths during last year - Males": 1038,
      "Households with electricity as main source of lighting  Houselisting and Housing Census Data Tables- District Level , Census of India__3": 159114,
      "Households with computer or laptop with internet connection in percentage": 0.54,
      "PHCs functioning on a 24x7hours basis in percentage DLHS-4": 88.2,
      "Non Workers - Males": 275391,
      "Total Households in District Houselisting and Housing Census Data Tables- District Level , Census of India": 227041,
      "Upper Primary Schools with girls toilet in percentage DISE": 100,
      "Households with mobile phone in percentage": 54.72,
      "Households receiving untreated tap water within premises in percentage Houselisting and Housing Census Data Tables- District Level , Census of India__2": 9.604873129,
      "Marginal Workers Cultivators worked for 3 - 6 moths during last year - Males": 3714,
      "Prevalence of Anaemia  in percentage DLHS-4": 65,
      "Prevalence of Chronic illness in percentage DLHS-4": 5,
      "Households with solar energy as main source of lighting in percentage Houselisting and Housing Census Data Tables- District Level , Census of India__1": 0.149312239,
      "Marginal Workers Agricultural Labourers worked for 0 - 3 moths during last year - Females": 1518,
      "Main Workers - Males": 308332,
      "Female": 68.95,
      "Sno": 1085,
      "Marginal Workers Other worked for 3 - 6 moths during last year - Females": 3357,
      "Marginal Workers Cultivators worked for 0 - 3 moths during last year - Females": 1349,
      "Scheduled Tribe Males": 57674,
      "Male Illiterates": 155743,
      "Prevalence of Severe Anaemia in pregnant women aged 15-49years in percentage DLHS-4": 6.9,
      "0-6 Age Group Persons": 165716,
      "Upper Primary Student-Classroom Ratio in percentage DISE": 40,
      "Currently married men married below 21years of age in percentage DLHS-4": 17.6,
      "Male Literates": 450551,
      "Households with no lighting in percentage Houselisting and Housing Census Data Tables- District Level , Census of India__2": 1.586497593,
      "Primary Drop Out Rate in percentage DISE": 2.8,
      "Marginal Workers Household Industry - Males": 449,
      "Female Illiterates": 230859,
      "Main Workers Other - Females": 15474,
      "Marginal Workers Cultivators - Persons": 14329,
      "Upper Primary Gross Enrolment Ratio in percentage DISE": 84.2,
      "Scheduled Caste Persons": 182565,
      "Marginal Workers Cultivators worked for 3 - 6 moths during last year - Persons": 12363,
      "Households with landline phone in percentage": 2.54,
      "Total Households in District  Houselisting and Housing Census Data Tables- District Level , Census of India": 227041,
      "Upper Primary Pupil-Teacher Ratio in percentage DISE": 20,
      "Primary Student-Classroom Ratio in percentage DISE": 21,
      "Primary Schools with boys toilet in percentage DISE": 101.8,
      "Mean number of children ever born to women aged 40-49years  DLHS-4": 3.1,
      "Households receiving untreated tap water within premises  Houselisting and Housing Census Data Tables- District Level , Census of India__5": 21807,
      "Marginal Workers Household Industry worked for 0 - 3 moths during last year - Persons": 260,
      "Total Male Population": 606294,
      "Non Workers - Females": 332772,
      "Current use of family planning methods in percentage DLHS-4": 66,
      "Households with main source of drinking water within premises  Houselisting and Housing Census Data Tables- District Level , Census of India__3": 83549,
      "Main Workers Agricultural Labourers - Males": 102908,
      "Marginal Workers Other worked for 0 - 3 moths during last year - Persons": 1492,
      "Currently married women married below 18years of age in percentage DLHS-4": 20.7,
      "Person Illiterates": 386602,
      "Main Workers Household Industry - Females": 2556,
      "Female Literates": 340192,
      "Marginal Workers Cultivators worked for 0 - 3 moths during last year - Males": 617,
      "Male": 86.94,
      "Households with improved source of drinking water in percentage DLHS-4": 96.5,
      "Upper Primary Schools with electricity in percentage DISE": 100,
      "Households with electricity in percentage DLHS-4": 96.8,
      "Villages with Primary Health Centre within 10km in percentage DLHS-4": 68,
      "Births to women aged 15-19years out of Total births in percentage DLHS-4": 6.5,
      "Prevalence of Anaemia in women aged 15-49years in percentage DLHS-4": 58.4,
      "Marginal Workers Agricultural Labourers worked for 3 - 6 moths during last year - Persons": 25433,
      "Main Workers Household Industry - Males": 4411,
      "Scheduled Tribe Females": 54280,
      "Marginal Workers worked for 0 - 3 moths during last year - Males": 2578,
      "Marginal Workers Other worked for 3 - 6 moths during last year - Males": 6343,
      "Primary Net Enrolment Ratio in percentage DISE": 88.5,
      "Total": 78.17,
      "Mean age at marriage for boys DLHS-4": 23.7,
      "Number of District Hospitals  DLHS-4": 1,
      "0-6 Age Group Females": 77664,
      "Marginal Workers Agricultural Labourers worked for 0 - 3 moths during last year - Persons": 2556,
      "Marginal Workers Household Industry worked for 0 - 3 moths during last year - Males": 84,
      "Total Workers  Females": 238279,
      "Marginal Workers worked for 3 - 6 moths during last year - Females": 28544,
      "Institutional Deliveries in percentage DLHS-4": 94.1,
      "Marginal Workers Other - Males": 7182,
      "Total Workers  Males": 330903,
      "Main Workers - Females": 206039,
      "Primary Gross Enrolment Ratio in percentage DISE": 101.1,
      "Main Workers Cultivators - Persons": 227284,
      "Marginal Workers Household Industry worked for 0 - 3 moths during last year - Females": 176,
      "Upper Primary Net Enrolment Ratio in percentage DISE": 61.7,
      "Primary New Government Schools since 2003 in percentage DISE": 8.2,
      "Tier": "Total",
      "Marginal Workers Household Industry - Females": 852,
      "Primary Schools with electricity in percentage DISE": 68.2,
      "Main Workers Other - Persons": 81626,
      "Marginal Workers Household Industry worked for 3 - 6 moths during last year - Females": 676,
      "Main Workers Cultivators - Males": 134861,
      "Main Workers Household Industry - Persons": 6967,
      "Marginal Workers Cultivators worked for 0 - 3 moths during last year - Persons": 1966,
      "Scheduled Caste Males": 93379,
      "Marginal Workers - Persons": 54811,
      "Deliveries at home conducted by skilled health personnel in percentage DLHS-4": 2,
      "Villages with Sub-Health Centres within 3km in percentage DLHS-4": 72,
      "Upper Primary New Government Schools since 2003 in percentage DISE": 100,
      "0-6 Age Group Males": 88052,
      "Primary Schools with drinking water facility in percentage DISE": 100,
      "Non Workers - Persons": 608163,
      "Person Literates": 790743,
      "State": "MAHARASHTRA",
      "Total Female Population": 571051,
      "Marginal Workers worked for 0 - 3 moths during last year - Persons": 6274,
      "Marginal Workers Cultivators - Females": 9998,
      "Marginal Workers Other - Persons": 11192,
      "Sex Ratio": 942,
      "Scheduled Tribe Persons": 111954,
      "Marginal Workers Household Industry worked for 3 - 6 moths during last year - Males": 365,
      "Marginal Workers Agricultural Labourers - Females": 17380,
      "Mean age at marriage for girls DLHS-4": 19,
      "Households with solar energy as main source of lighting  Houselisting and Housing Census Data Tables- District Level , Census of India__4": 339,
      "District": "HINGOLI",
      "Households receiving treated tap water within premises in percentage Houselisting and Housing Census Data Tables- District Level , Census of India__1": 13.30772856,
      "Total Workers  Persons": 569182,
      "Households receiving treated tap water within premises  Houselisting and Housing Census Data Tables- District Level , Census of India__4": 30214,
      "Primary Female Teachers in percentage DISE": 27.2,
      "Number of Households": 228868,
      "Main Workers Agricultural Labourers - Persons": 198494
    }
  ],
  "Rural": [
    {
      "Marginal Workers Agricultural Labourers - Persons": 26794,
      "Marginal Workers Other - Females": 2889,
      "Marginal Workers Other worked for 0 - 3 moths during last year - Females": 510,
      "Upper Primary Schools with boys toilet in percentage DISE": "NA",
      "Total Population": 998612,
      "Households with electricity as main source of lighting in percentage Houselisting and Housing Census Data Tables- District Level , Census of India": 66.4241095,
      "Primary Girl's Enrolment in percentage DISE": "NA",
      "Marginal Workers worked for 3 - 6 moths during last year - Males": 16503,
      "Prevalence of Acute illness in percentage DLHS-4": 8.8,
      "Main Workers - Persons": 463701,
      "Main Workers Cultivators - Females": 92111,
      "Marginal Workers Agricultural Labourers worked for 3 - 6 moths during last year - Females": 15379,
      "Marginal Workers Other worked for 0 - 3 moths during last year - Males": 428,
      "Upper Primary Schools with drinking water facility in percentage DISE": "NA",
      "Primary Schools with girls toilet in percentage DISE": "NA",
      "Marginal Workers worked for 3 - 6 moths during last year - Persons": 43426,
      "Upper Primary Drop Out Rate in percentage DISE": "NA",
      "Prevalence of Anaemia in pregnant women aged 15-49years in percentage DLHS-4": 63.4,
      "Current use of any modern method of family planning in percentage DLHS-4": 66.2,
      "Marginal Workers Agricultural Labourers - Males": 9984,
      "Upper Primary Female Teachers in percentage DISE": "NA",
      "Marginal Workers - Females": 30348,
      "Marginal Workers Other worked for 3 - 6 moths during last year - Persons": 5950,
      "Main Workers Agricultural Labourers - Females": 93491,
      "Marginal Workers Cultivators worked for 3 - 6 moths during last year - Females": 8597,
      "Households with no lighting  Houselisting and Housing Census Data Tables- District Level , Census of India__5": 3275,
      "Prevalence of Severe Anaemia  in percentage DLHS-4": 14.3,
      "Total unmet need for family planning in percentage DLHS-4": 21,
      "Main Workers Other - Males": 31893,
      "Children who received full vaccination in percentage DLHS-4": 57.6,
      "Marginal Workers Household Industry - Persons": 1073,
      "Primary Pupil-Teacher Ratio in percentage DISE": "NA",
      "Marginal Workers Agricultural Labourers worked for 3 - 6 moths during last year - Males": 9053,
      "Scheduled Caste Females": 78907,
      "Marginal Workers Cultivators - Males": 4193,
      "Marginal Workers - Males": 18541,
      "Marginal Workers worked for 0 - 3 moths during last year - Females": 3425,
      "Households with main source of drinking water within premises in percentage Houselisting and Housing Census Data Tables- District Level , Census of India": 32.37574497,
      "Marginal Workers Household Industry worked for 3 - 6 moths during last year - Persons": 863,
      "Upper Primary Girl's Enrolment in percentage DISE": "NA",
      "Prevalence of Severe Anaemia in women aged 15-49years in percentage DLHS-4": 10,
      "Marginal Workers Agricultural Labourers worked for 0 - 3 moths during last year - Males": 931,
      "Households with electricity as main source of lighting  Houselisting and Housing Census Data Tables- District Level , Census of India__3": 129622,
      "Households with computer or laptop with internet connection in percentage": 0.28,
      "PHCs functioning on a 24x7hours basis in percentage DLHS-4": "Not applicable",
      "Non Workers - Males": 228890,
      "Total Households in District Houselisting and Housing Census Data Tables- District Level , Census of India": 195143,
      "Upper Primary Schools with girls toilet in percentage DISE": "NA",
      "Households with mobile phone in percentage": 53.21,
      "Households receiving untreated tap water within premises in percentage Houselisting and Housing Census Data Tables- District Level , Census of India__2": 10.99347658,
      "Marginal Workers Cultivators worked for 3 - 6 moths during last year - Males": 3584,
      "Prevalence of Anaemia  in percentage DLHS-4": 71.4,
      "Prevalence of Chronic illness in percentage DLHS-4": 5.6,
      "Households with solar energy as main source of lighting in percentage Houselisting and Housing Census Data Tables- District Level , Census of India__1": 0.151683637,
      "Marginal Workers Agricultural Labourers worked for 0 - 3 moths during last year - Females": 1431,
      "Main Workers - Males": 266999,
      "Female": "NA",
      "Sno": 1084,
      "Marginal Workers Other worked for 3 - 6 moths during last year - Females": 2379,
      "Marginal Workers Cultivators worked for 0 - 3 moths during last year - Females": 1344,
      "Scheduled Tribe Males": 54901,
      "Male Illiterates": 135733,
      "Prevalence of Severe Anaemia in pregnant women aged 15-49years in percentage DLHS-4": 4.9,
      "0-6 Age Group Persons": 141780,
      "Upper Primary Student-Classroom Ratio in percentage DISE": "NA",
      "Currently married men married below 21years of age in percentage DLHS-4": 17.6,
      "Male Literates": 378697,
      "Households with no lighting in percentage Houselisting and Housing Census Data Tables- District Level , Census of India__2": 1.678256458,
      "Primary Drop Out Rate in percentage DISE": "NA",
      "Marginal Workers Household Industry - Males": 365,
      "Female Illiterates": 204727,
      "Main Workers Other - Females": 8890,
      "Marginal Workers Cultivators - Persons": 14134,
      "Upper Primary Gross Enrolment Ratio in percentage DISE": "NA",
      "Scheduled Caste Persons": 161751,
      "Marginal Workers Cultivators worked for 3 - 6 moths during last year - Persons": 12181,
      "Households with landline phone in percentage": 2.08,
      "Total Households in District  Houselisting and Housing Census Data Tables- District Level , Census of India": 195143,
      "Upper Primary Pupil-Teacher Ratio in percentage DISE": "NA",
      "Primary Student-Classroom Ratio in percentage DISE": "NA",
      "Primary Schools with boys toilet in percentage DISE": "NA",
      "Mean number of children ever born to women aged 40-49years  DLHS-4": 3.1,
      "Households receiving untreated tap water within premises  Houselisting and Housing Census Data Tables- District Level , Census of India__5": 21453,
      "Marginal Workers Household Industry worked for 0 - 3 moths during last year - Persons": 210,
      "Total Male Population": 514430,
      "Non Workers - Females": 257132,
      "Current use of family planning methods in percentage DLHS-4": 67,
      "Households with main source of drinking water within premises  Houselisting and Housing Census Data Tables- District Level , Census of India__3": 63179,
      "Main Workers Agricultural Labourers - Males": 98710,
      "Marginal Workers Other worked for 0 - 3 moths during last year - Persons": 938,
      "Currently married women married below 18years of age in percentage DLHS-4": 30.3,
      "Person Illiterates": 340460,
      "Main Workers Household Industry - Females": 2210,
      "Female Literates": 279455,
      "Marginal Workers Cultivators worked for 0 - 3 moths during last year - Males": 609,
      "Male": "NA",
      "Households with improved source of drinking water in percentage DLHS-4": 93.1,
      "Upper Primary Schools with electricity in percentage DISE": "NA",
      "Households with electricity in percentage DLHS-4": 95.6,
      "Villages with Primary Health Centre within 10km in percentage DLHS-4": "Not applicable",
      "Births to women aged 15-19years out of Total births in percentage DLHS-4": 9.9,
      "Prevalence of Anaemia in women aged 15-49years in percentage DLHS-4": 56.7,
      "Marginal Workers Agricultural Labourers worked for 3 - 6 moths during last year - Persons": 24432,
      "Main Workers Household Industry - Males": 3617,
      "Scheduled Tribe Females": 51838,
      "Marginal Workers worked for 0 - 3 moths during last year - Males": 2038,
      "Marginal Workers Other worked for 3 - 6 moths during last year - Males": 3571,
      "Primary Net Enrolment Ratio in percentage DISE": "NA",
      "Total": "NA",
      "Mean age at marriage for boys DLHS-4": 23.2,
      "Number of District Hospitals  DLHS-4": "Not applicable",
      "0-6 Age Group Females": 66512,
      "Marginal Workers Agricultural Labourers worked for 0 - 3 moths during last year - Persons": 2362,
      "Marginal Workers Household Industry worked for 0 - 3 moths during last year - Males": 70,
      "Total Workers  Females": 227050,
      "Marginal Workers worked for 3 - 6 moths during last year - Females": 26923,
      "Institutional Deliveries in percentage DLHS-4": 91,
      "Marginal Workers Other - Males": 3999,
      "Total Workers  Males": 285540,
      "Main Workers - Females": 196702,
      "Primary Gross Enrolment Ratio in percentage DISE": "NA",
      "Main Workers Cultivators - Persons": 224890,
      "Marginal Workers Household Industry worked for 0 - 3 moths during last year - Females": 140,
      "Upper Primary Net Enrolment Ratio in percentage DISE": "NA",
      "Primary New Government Schools since 2003 in percentage DISE": "NA",
      "Tier": "Rural",
      "Marginal Workers Household Industry - Females": 708,
      "Primary Schools with electricity in percentage DISE": "NA",
      "Main Workers Other - Persons": 40783,
      "Marginal Workers Household Industry worked for 3 - 6 moths during last year - Females": 568,
      "Main Workers Cultivators - Males": 132779,
      "Main Workers Household Industry - Persons": 5827,
      "Marginal Workers Cultivators worked for 0 - 3 moths during last year - Persons": 1953,
      "Scheduled Caste Males": 82844,
      "Marginal Workers - Persons": 48889,
      "Deliveries at home conducted by skilled health personnel in percentage DLHS-4": 3.4,
      "Villages with Sub-Health Centres within 3km in percentage DLHS-4": "Not applicable",
      "Upper Primary New Government Schools since 2003 in percentage DISE": "NA",
      "0-6 Age Group Males": 75268,
      "Primary Schools with drinking water facility in percentage DISE": "NA",
      "Non Workers - Persons": 486022,
      "Person Literates": 658152,
      "State": "MAHARASHTRA",
      "Total Female Population": 484182,
      "Marginal Workers worked for 0 - 3 moths during last year - Persons": 5463,
      "Marginal Workers Cultivators - Females": 9941,
      "Marginal Workers Other - Persons": 6888,
      "Sex Ratio": 941,
      "Scheduled Tribe Persons": 106739,
      "Marginal Workers Household Industry worked for 3 - 6 moths during last year - Males": 295,
      "Marginal Workers Agricultural Labourers - Females": 16810,
      "Mean age at marriage for girls DLHS-4": 18.1,
      "Households with solar energy as main source of lighting  Houselisting and Housing Census Data Tables- District Level , Census of India__4": 296,
      "District": "HINGOLI",
      "Households receiving treated tap water within premises in percentage Houselisting and Housing Census Data Tables- District Level , Census of India__1": 8.743331813,
      "Total Workers  Persons": 512590,
      "Households receiving treated tap water within premises  Houselisting and Housing Census Data Tables- District Level , Census of India__4": 17062,
      "Primary Female Teachers in percentage DISE": "NA",
      "Number of Households": 196255,
      "Main Workers Agricultural Labourers - Persons": 192201
    }
  ],
  "Urban": [
    {
      "Marginal Workers Agricultural Labourers - Persons": 1195,
      "Marginal Workers Other - Females": 1121,
      "Marginal Workers Other worked for 0 - 3 moths during last year - Females": 143,
      "Upper Primary Schools with boys toilet in percentage DISE": "NA",
      "Total Population": 178733,
      "Households with electricity as main source of lighting in percentage Houselisting and Housing Census Data Tables- District Level , Census of India": 92.45720735,
      "Primary Girl's Enrolment in percentage DISE": "NA",
      "Marginal Workers worked for 3 - 6 moths during last year - Males": 3490,
      "Prevalence of Acute illness in percentage DLHS-4": "Not available",
      "Main Workers - Persons": 50670,
      "Main Workers Cultivators - Females": 312,
      "Marginal Workers Agricultural Labourers worked for 3 - 6 moths during last year - Females": 483,
      "Marginal Workers Other worked for 0 - 3 moths during last year - Males": 411,
      "Upper Primary Schools with drinking water facility in percentage DISE": "NA",
      "Primary Schools with girls toilet in percentage DISE": "NA",
      "Marginal Workers worked for 3 - 6 moths during last year - Persons": 5111,
      "Upper Primary Drop Out Rate in percentage DISE": "NA",
      "Prevalence of Anaemia in pregnant women aged 15-49years in percentage DLHS-4": "Not available",
      "Current use of any modern method of family planning in percentage DLHS-4": "Not available",
      "Marginal Workers Agricultural Labourers - Males": 625,
      "Upper Primary Female Teachers in percentage DISE": "NA",
      "Marginal Workers - Females": 1892,
      "Marginal Workers Other worked for 3 - 6 moths during last year - Persons": 3750,
      "Main Workers Agricultural Labourers - Females": 2095,
      "Marginal Workers Cultivators worked for 3 - 6 moths during last year - Females": 52,
      "Households with no lighting  Houselisting and Housing Census Data Tables- District Level , Census of India__5": 327,
      "Prevalence of Severe Anaemia  in percentage DLHS-4": "Not available",
      "Total unmet need for family planning in percentage DLHS-4": "Not available",
      "Main Workers Other - Males": 34259,
      "Children who received full vaccination in percentage DLHS-4": "Not available",
      "Marginal Workers Household Industry - Persons": 228,
      "Primary Pupil-Teacher Ratio in percentage DISE": "NA",
      "Marginal Workers Agricultural Labourers worked for 3 - 6 moths during last year - Males": 518,
      "Scheduled Caste Females": 10279,
      "Marginal Workers Cultivators - Males": 138,
      "Marginal Workers - Males": 4030,
      "Marginal Workers worked for 0 - 3 moths during last year - Females": 271,
      "Households with main source of drinking water within premises in percentage Houselisting and Housing Census Data Tables- District Level , Census of India": 63.85980312,
      "Marginal Workers Household Industry worked for 3 - 6 moths during last year - Persons": 178,
      "Upper Primary Girl's Enrolment in percentage DISE": "NA",
      "Prevalence of Severe Anaemia in women aged 15-49years in percentage DLHS-4": "Not available",
      "Marginal Workers Agricultural Labourers worked for 0 - 3 moths during last year - Males": 107,
      "Households with electricity as main source of lighting  Houselisting and Housing Census Data Tables- District Level , Census of India__3": 29492,
      "Households with computer or laptop with internet connection in percentage": 2.13,
      "PHCs functioning on a 24x7hours basis in percentage DLHS-4": 0,
      "Non Workers - Males": 46501,
      "Total Households in District Houselisting and Housing Census Data Tables- District Level , Census of India": 31898,
      "Upper Primary Schools with girls toilet in percentage DISE": "NA",
      "Households with mobile phone in percentage": 64.01,
      "Households receiving untreated tap water within premises in percentage Houselisting and Housing Census Data Tables- District Level , Census of India__2": 1.109787447,
      "Marginal Workers Cultivators worked for 3 - 6 moths during last year - Males": 130,
      "Prevalence of Anaemia  in percentage DLHS-4": "Not available",
      "Prevalence of Chronic illness in percentage DLHS-4": "Not available",
      "Households with solar energy as main source of lighting in percentage Houselisting and Housing Census Data Tables- District Level , Census of India__1": 0.13480469,
      "Marginal Workers Agricultural Labourers worked for 0 - 3 moths during last year - Females": 87,
      "Main Workers - Males": 41333,
      "Female": "NA",
      "Sno": 1086,
      "Marginal Workers Other worked for 3 - 6 moths during last year - Females": 978,
      "Marginal Workers Cultivators worked for 0 - 3 moths during last year - Females": 5,
      "Scheduled Tribe Males": 2773,
      "Male Illiterates": 20010,
      "Prevalence of Severe Anaemia in pregnant women aged 15-49years in percentage DLHS-4": "Not available",
      "0-6 Age Group Persons": 23936,
      "Upper Primary Student-Classroom Ratio in percentage DISE": "NA",
      "Currently married men married below 21years of age in percentage DLHS-4": "Not available",
      "Male Literates": 71854,
      "Households with no lighting in percentage Houselisting and Housing Census Data Tables- District Level , Census of India__2": 1.025142642,
      "Primary Drop Out Rate in percentage DISE": "NA",
      "Marginal Workers Household Industry - Males": 84,
      "Female Illiterates": 26132,
      "Main Workers Other - Females": 6584,
      "Marginal Workers Cultivators - Persons": 195,
      "Upper Primary Gross Enrolment Ratio in percentage DISE": "NA",
      "Scheduled Caste Persons": 20814,
      "Marginal Workers Cultivators worked for 3 - 6 moths during last year - Persons": 182,
      "Households with landline phone in percentage": 5.35,
      "Total Households in District  Houselisting and Housing Census Data Tables- District Level , Census of India": 31898,
      "Upper Primary Pupil-Teacher Ratio in percentage DISE": "NA",
      "Primary Student-Classroom Ratio in percentage DISE": "NA",
      "Primary Schools with boys toilet in percentage DISE": "NA",
      "Mean number of children ever born to women aged 40-49years  DLHS-4": "Not available",
      "Households receiving untreated tap water within premises  Houselisting and Housing Census Data Tables- District Level , Census of India__5": 354,
      "Marginal Workers Household Industry worked for 0 - 3 moths during last year - Persons": 50,
      "Total Male Population": 91864,
      "Non Workers - Females": 75640,
      "Current use of family planning methods in percentage DLHS-4": "Not available",
      "Households with main source of drinking water within premises  Houselisting and Housing Census Data Tables- District Level , Census of India__3": 20370,
      "Main Workers Agricultural Labourers - Males": 4198,
      "Marginal Workers Other worked for 0 - 3 moths during last year - Persons": 554,
      "Currently married women married below 18years of age in percentage DLHS-4": "Not available",
      "Person Illiterates": 46142,
      "Main Workers Household Industry - Females": 346,
      "Female Literates": 60737,
      "Marginal Workers Cultivators worked for 0 - 3 moths during last year - Males": 8,
      "Male": "NA",
      "Households with improved source of drinking water in percentage DLHS-4": "Not available",
      "Upper Primary Schools with electricity in percentage DISE": "NA",
      "Households with electricity in percentage DLHS-4": "Not available",
      "Villages with Primary Health Centre within 10km in percentage DLHS-4": 0,
      "Births to women aged 15-19years out of Total births in percentage DLHS-4": "Not available",
      "Prevalence of Anaemia in women aged 15-49years in percentage DLHS-4": "Not available",
      "Marginal Workers Agricultural Labourers worked for 3 - 6 moths during last year - Persons": 1001,
      "Main Workers Household Industry - Males": 794,
      "Scheduled Tribe Females": 2442,
      "Marginal Workers worked for 0 - 3 moths during last year - Males": 540,
      "Marginal Workers Other worked for 3 - 6 moths during last year - Males": 2772,
      "Primary Net Enrolment Ratio in percentage DISE": "NA",
      "Total": "NA",
      "Mean age at marriage for boys DLHS-4": "Not available",
      "Number of District Hospitals  DLHS-4": 0,
      "0-6 Age Group Females": 11152,
      "Marginal Workers Agricultural Labourers worked for 0 - 3 moths during last year - Persons": 194,
      "Marginal Workers Household Industry worked for 0 - 3 moths during last year - Males": 14,
      "Total Workers  Females": 11229,
      "Marginal Workers worked for 3 - 6 moths during last year - Females": 1621,
      "Institutional Deliveries in percentage DLHS-4": "Not available",
      "Marginal Workers Other - Males": 3183,
      "Total Workers  Males": 45363,
      "Main Workers - Females": 9337,
      "Primary Gross Enrolment Ratio in percentage DISE": "NA",
      "Main Workers Cultivators - Persons": 2394,
      "Marginal Workers Household Industry worked for 0 - 3 moths during last year - Females": 36,
      "Upper Primary Net Enrolment Ratio in percentage DISE": "NA",
      "Primary New Government Schools since 2003 in percentage DISE": "NA",
      "Tier": "Urban",
      "Marginal Workers Household Industry - Females": 144,
      "Primary Schools with electricity in percentage DISE": "NA",
      "Main Workers Other - Persons": 40843,
      "Marginal Workers Household Industry worked for 3 - 6 moths during last year - Females": 108,
      "Main Workers Cultivators - Males": 2082,
      "Main Workers Household Industry - Persons": 1140,
      "Marginal Workers Cultivators worked for 0 - 3 moths during last year - Persons": 13,
      "Scheduled Caste Males": 10535,
      "Marginal Workers - Persons": 5922,
      "Deliveries at home conducted by skilled health personnel in percentage DLHS-4": "Not available",
      "Villages with Sub-Health Centres within 3km in percentage DLHS-4": 0,
      "Upper Primary New Government Schools since 2003 in percentage DISE": "NA",
      "0-6 Age Group Males": 12784,
      "Primary Schools with drinking water facility in percentage DISE": "NA",
      "Non Workers - Persons": 122141,
      "Person Literates": 132591,
      "State": "MAHARASHTRA",
      "Total Female Population": 86869,
      "Marginal Workers worked for 0 - 3 moths during last year - Persons": 811,
      "Marginal Workers Cultivators - Females": 57,
      "Marginal Workers Other - Persons": 4304,
      "Sex Ratio": 946,
      "Scheduled Tribe Persons": 5215,
      "Marginal Workers Household Industry worked for 3 - 6 moths during last year - Males": 70,
      "Marginal Workers Agricultural Labourers - Females": 570,
      "Mean age at marriage for girls DLHS-4": "Not available",
      "Households with solar energy as main source of lighting  Houselisting and Housing Census Data Tables- District Level , Census of India__4": 43,
      "District": "HINGOLI",
      "Households receiving treated tap water within premises in percentage Houselisting and Housing Census Data Tables- District Level , Census of India__1": 41.23142517,
      "Total Workers  Persons": 56592,
      "Households receiving treated tap water within premises  Houselisting and Housing Census Data Tables- District Level , Census of India__4": 13152,
      "Primary Female Teachers in percentage DISE": "NA",
      "Number of Households": 32613,
      "Main Workers Agricultural Labourers - Persons": 6293
    }
  ]
}