{
  "Total": [
    {
      "Marginal Workers Agricultural Labourers - Persons": 48451,
      "Marginal Workers Other - Females": 68524,
      "Marginal Workers Other worked for 0 - 3 moths during last year - Females": 9275,
      "Upper Primary Schools with boys toilet in percentage DISE": 100,
      "Total Population": 9429408,
      "Households with electricity as main source of lighting in percentage Houselisting and Housing Census Data Tables- District Level , Census of India": 92.7002076,
      "Primary Girl's Enrolment in percentage DISE": 47.5,
      "Marginal Workers worked for 3 - 6 moths during last year - Males": 129153,
      "Prevalence of Acute illness in percentage DLHS-4": 4.5,
      "Main Workers - Persons": 3751221,
      "Main Workers Cultivators - Females": 350149,
      "Marginal Workers Agricultural Labourers worked for 3 - 6 moths during last year - Females": 28069,
      "Marginal Workers Other worked for 0 - 3 moths during last year - Males": 15224,
      "Upper Primary Schools with drinking water facility in percentage DISE": 100,
      "Primary Schools with girls toilet in percentage DISE": 99.1,
      "Marginal Workers worked for 3 - 6 moths during last year - Persons": 255529,
      "Upper Primary Drop Out Rate in percentage DISE": "Not available",
      "Prevalence of Anaemia in pregnant women aged 15-49years in percentage DLHS-4": 56.8,
      "Current use of any modern method of family planning in percentage DLHS-4": 66.6,
      "Marginal Workers Agricultural Labourers - Males": 16083,
      "Upper Primary Female Teachers in percentage DISE": 78.4,
      "Marginal Workers - Females": 146788,
      "Marginal Workers Other worked for 3 - 6 moths during last year - Persons": 155302,
      "Main Workers Agricultural Labourers - Females": 186005,
      "Marginal Workers Cultivators worked for 3 - 6 moths during last year - Females": 31191,
      "Households with no lighting  Houselisting and Housing Census Data Tables- District Level , Census of India__5": 10353,
      "Prevalence of Severe Anaemia  in percentage DLHS-4": 25.9,
      "Total unmet need for family planning in percentage DLHS-4": 17.9,
      "Main Workers Other - Males": 1942950,
      "Children who received full vaccination in percentage DLHS-4": 85.4,
      "Marginal Workers Household Industry - Persons": 15251,
      "Primary Pupil-Teacher Ratio in percentage DISE": 24,
      "Marginal Workers Agricultural Labourers worked for 3 - 6 moths during last year - Males": 13755,
      "Scheduled Caste Females": 577948,
      "Marginal Workers Cultivators - Males": 18458,
      "Marginal Workers - Males": 150984,
      "Marginal Workers worked for 0 - 3 moths during last year - Females": 20412,
      "Households with main source of drinking water within premises in percentage Houselisting and Housing Census Data Tables- District Level , Census of India": 75.88927515,
      "Marginal Workers Household Industry worked for 3 - 6 moths during last year - Persons": 11873,
      "Upper Primary Girl's Enrolment in percentage DISE": 54.4,
      "Prevalence of Severe Anaemia in women aged 15-49years in percentage DLHS-4": 11,
      "Marginal Workers Agricultural Labourers worked for 0 - 3 moths during last year - Males": 2328,
      "Households with electricity as main source of lighting  Houselisting and Housing Census Data Tables- District Level , Census of India__3": 1925019,
      "Households with computer or laptop with internet connection in percentage": 11.32,
      "PHCs functioning on a 24x7hours basis in percentage DLHS-4": 54.5,
      "Non Workers - Males": 2114289,
      "Total Households in District Houselisting and Housing Census Data Tables- District Level , Census of India": 2076607,
      "Upper Primary Schools with girls toilet in percentage DISE": 100,
      "Households with mobile phone in percentage": 69.88,
      "Households receiving untreated tap water within premises in percentage Houselisting and Housing Census Data Tables- District Level , Census of India__2": 3.842951507,
      "Marginal Workers Cultivators worked for 3 - 6 moths during last year - Males": 15339,
      "Prevalence of Anaemia  in percentage DLHS-4": 73.8,
      "Prevalence of Chronic illness in percentage DLHS-4": 10.1,
      "Households with solar energy as main source of lighting in percentage Houselisting and Housing Census Data Tables- District Level , Census of India__1": 0.0894,
      "Marginal Workers Agricultural Labourers worked for 0 - 3 moths during last year - Females": 4299,
      "Main Workers - Males": 2658832,
      "Female": 81.05,
      "Sno": 1124,
      "Marginal Workers Other worked for 3 - 6 moths during last year - Females": 59249,
      "Marginal Workers Cultivators worked for 0 - 3 moths during last year - Females": 4620,
      "Scheduled Tribe Males": 179132,
      "Male Illiterates": 983895,
      "Prevalence of Severe Anaemia in pregnant women aged 15-49years in percentage DLHS-4": 11.4,
      "0-6 Age Group Persons": 1104959,
      "Upper Primary Student-Classroom Ratio in percentage DISE": 35,
      "Currently married men married below 21years of age in percentage DLHS-4": 7.7,
      "Male Literates": 3940210,
      "Households with no lighting in percentage Houselisting and Housing Census Data Tables- District Level , Census of India__2": 0.49855365,
      "Primary Drop Out Rate in percentage DISE": "Not available",
      "Marginal Workers Household Industry - Males": 5166,
      "Female Illiterates": 1273790,
      "Main Workers Other - Females": 519540,
      "Marginal Workers Cultivators - Persons": 54269,
      "Upper Primary Gross Enrolment Ratio in percentage DISE": 100.6,
      "Scheduled Caste Persons": 1180703,
      "Marginal Workers Cultivators worked for 3 - 6 moths during last year - Persons": 46530,
      "Households with landline phone in percentage": 6.3,
      "Total Households in District  Houselisting and Housing Census Data Tables- District Level , Census of India": 2076607,
      "Upper Primary Pupil-Teacher Ratio in percentage DISE": 36,
      "Primary Student-Classroom Ratio in percentage DISE": 24,
      "Primary Schools with boys toilet in percentage DISE": 97.6,
      "Mean number of children ever born to women aged 40-49years  DLHS-4": 2.5,
      "Households receiving untreated tap water within premises  Houselisting and Housing Census Data Tables- District Level , Census of India__5": 79803,
      "Marginal Workers Household Industry worked for 0 - 3 moths during last year - Persons": 3378,
      "Total Male Population": 4924105,
      "Non Workers - Females": 3266126,
      "Current use of family planning methods in percentage DLHS-4": 68.9,
      "Households with main source of drinking water within premises  Houselisting and Housing Census Data Tables- District Level , Census of India__3": 1575922,
      "Main Workers Agricultural Labourers - Males": 180005,
      "Marginal Workers Other worked for 0 - 3 moths during last year - Persons": 24499,
      "Currently married women married below 18years of age in percentage DLHS-4": 5.6,
      "Person Illiterates": 2257685,
      "Main Workers Household Industry - Females": 36695,
      "Female Literates": 3231513,
      "Marginal Workers Cultivators worked for 0 - 3 moths during last year - Males": 3119,
      "Male": 90.84,
      "Households with improved source of drinking water in percentage DLHS-4": 96,
      "Upper Primary Schools with electricity in percentage DISE": 100,
      "Households with electricity in percentage DLHS-4": 98.1,
      "Villages with Primary Health Centre within 10km in percentage DLHS-4": 84,
      "Births to women aged 15-19years out of Total births in percentage DLHS-4": 3,
      "Prevalence of Anaemia in women aged 15-49years in percentage DLHS-4": 63.4,
      "Marginal Workers Agricultural Labourers worked for 3 - 6 moths during last year - Persons": 41824,
      "Main Workers Household Industry - Males": 53765,
      "Scheduled Tribe Females": 169744,
      "Marginal Workers worked for 0 - 3 moths during last year - Males": 21831,
      "Marginal Workers Other worked for 3 - 6 moths during last year - Males": 96053,
      "Primary Net Enrolment Ratio in percentage DISE": 95.6,
      "Total": 86.15,
      "Mean age at marriage for boys DLHS-4": 25.5,
      "Number of District Hospitals  DLHS-4": 1,
      "0-6 Age Group Females": 518294,
      "Marginal Workers Agricultural Labourers worked for 0 - 3 moths during last year - Persons": 6627,
      "Marginal Workers Household Industry worked for 0 - 3 moths during last year - Males": 1160,
      "Total Workers  Females": 1239177,
      "Marginal Workers worked for 3 - 6 moths during last year - Females": 126376,
      "Institutional Deliveries in percentage DLHS-4": 95.2,
      "Marginal Workers Other - Males": 111277,
      "Total Workers  Males": 2809816,
      "Main Workers - Females": 1092389,
      "Primary Gross Enrolment Ratio in percentage DISE": 109.3,
      "Main Workers Cultivators - Persons": 832261,
      "Marginal Workers Household Industry worked for 0 - 3 moths during last year - Females": 2218,
      "Upper Primary Net Enrolment Ratio in percentage DISE": 79.6,
      "Primary New Government Schools since 2003 in percentage DISE": 10.6,
      "Tier": "Total",
      "Marginal Workers Household Industry - Females": 10085,
      "Primary Schools with electricity in percentage DISE": 93.3,
      "Main Workers Other - Persons": 2462490,
      "Marginal Workers Household Industry worked for 3 - 6 moths during last year - Females": 7867,
      "Main Workers Cultivators - Males": 482112,
      "Main Workers Household Industry - Persons": 90460,
      "Marginal Workers Cultivators worked for 0 - 3 moths during last year - Persons": 7739,
      "Scheduled Caste Males": 602755,
      "Marginal Workers - Persons": 297772,
      "Deliveries at home conducted by skilled health personnel in percentage DLHS-4": 2.5,
      "Villages with Sub-Health Centres within 3km in percentage DLHS-4": 72,
      "Upper Primary New Government Schools since 2003 in percentage DISE": 16.7,
      "0-6 Age Group Males": 586665,
      "Primary Schools with drinking water facility in percentage DISE": 99.8,
      "Non Workers - Persons": 5380415,
      "Person Literates": 7171723,
      "State": "MAHARASHTRA",
      "Total Female Population": 4505303,
      "Marginal Workers worked for 0 - 3 moths during last year - Persons": 42243,
      "Marginal Workers Cultivators - Females": 35811,
      "Marginal Workers Other - Persons": 179801,
      "Sex Ratio": 915,
      "Scheduled Tribe Persons": 348876,
      "Marginal Workers Household Industry worked for 3 - 6 moths during last year - Males": 4006,
      "Marginal Workers Agricultural Labourers - Females": 32368,
      "Mean age at marriage for girls DLHS-4": 21.2,
      "Households with solar energy as main source of lighting  Houselisting and Housing Census Data Tables- District Level , Census of India__4": 1857,
      "District": "PUNE",
      "Households receiving treated tap water within premises in percentage Houselisting and Housing Census Data Tables- District Level , Census of India__1": 65.26911447,
      "Total Workers  Persons": 4048993,
      "Households receiving treated tap water within premises  Houselisting and Housing Census Data Tables- District Level , Census of India__4": 1355383,
      "Primary Female Teachers in percentage DISE": 59.6,
      "Number of Households": 2151503,
      "Main Workers Agricultural Labourers - Persons": 366010
    }
  ],
  "Rural": [
    {
      "Marginal Workers Agricultural Labourers - Persons": 45123,
      "Marginal Workers Other - Females": 18700,
      "Marginal Workers Other worked for 0 - 3 moths during last year - Females": 2995,
      "Upper Primary Schools with boys toilet in percentage DISE": "NA",
      "Total Population": 3678226,
      "Households with electricity as main source of lighting in percentage Houselisting and Housing Census Data Tables- District Level , Census of India": 83.28831335,
      "Primary Girl's Enrolment in percentage DISE": "NA",
      "Marginal Workers worked for 3 - 6 moths during last year - Males": 53564,
      "Prevalence of Acute illness in percentage DLHS-4": 5.1,
      "Main Workers - Persons": 1676770,
      "Main Workers Cultivators - Females": 343716,
      "Marginal Workers Agricultural Labourers worked for 3 - 6 moths during last year - Females": 26566,
      "Marginal Workers Other worked for 0 - 3 moths during last year - Males": 4379,
      "Upper Primary Schools with drinking water facility in percentage DISE": "NA",
      "Primary Schools with girls toilet in percentage DISE": "NA",
      "Marginal Workers worked for 3 - 6 moths during last year - Persons": 129146,
      "Upper Primary Drop Out Rate in percentage DISE": "NA",
      "Prevalence of Anaemia in pregnant women aged 15-49years in percentage DLHS-4": 65.2,
      "Current use of any modern method of family planning in percentage DLHS-4": 70.5,
      "Marginal Workers Agricultural Labourers - Males": 14535,
      "Upper Primary Female Teachers in percentage DISE": "NA",
      "Marginal Workers - Females": 88169,
      "Marginal Workers Other worked for 3 - 6 moths during last year - Persons": 41586,
      "Main Workers Agricultural Labourers - Females": 179535,
      "Marginal Workers Cultivators worked for 3 - 6 moths during last year - Females": 29531,
      "Households with no lighting  Houselisting and Housing Census Data Tables- District Level , Census of India__5": 8011,
      "Prevalence of Severe Anaemia  in percentage DLHS-4": 30.6,
      "Total unmet need for family planning in percentage DLHS-4": 16.6,
      "Main Workers Other - Males": 392619,
      "Children who received full vaccination in percentage DLHS-4": 88.9,
      "Marginal Workers Household Industry - Persons": 7249,
      "Primary Pupil-Teacher Ratio in percentage DISE": "NA",
      "Marginal Workers Agricultural Labourers worked for 3 - 6 moths during last year - Males": 12400,
      "Scheduled Caste Females": 175941,
      "Marginal Workers Cultivators - Males": 16428,
      "Marginal Workers - Males": 63648,
      "Marginal Workers worked for 0 - 3 moths during last year - Females": 12587,
      "Households with main source of drinking water within premises in percentage Houselisting and Housing Census Data Tables- District Level , Census of India": 53.64030243,
      "Marginal Workers Household Industry worked for 3 - 6 moths during last year - Persons": 5658,
      "Upper Primary Girl's Enrolment in percentage DISE": "NA",
      "Prevalence of Severe Anaemia in women aged 15-49years in percentage DLHS-4": 15.4,
      "Marginal Workers Agricultural Labourers worked for 0 - 3 moths during last year - Males": 2135,
      "Households with electricity as main source of lighting  Houselisting and Housing Census Data Tables- District Level , Census of India__3": 619760,
      "Households with computer or laptop with internet connection in percentage": 2.03,
      "PHCs functioning on a 24x7hours basis in percentage DLHS-4": "Not applicable",
      "Non Workers - Males": 793723,
      "Total Households in District Houselisting and Housing Census Data Tables- District Level , Census of India": 744114,
      "Upper Primary Schools with girls toilet in percentage DISE": "NA",
      "Households with mobile phone in percentage": 69.26,
      "Households receiving untreated tap water within premises in percentage Houselisting and Housing Census Data Tables- District Level , Census of India__2": 8.652572052,
      "Marginal Workers Cultivators worked for 3 - 6 moths during last year - Males": 13405,
      "Prevalence of Anaemia  in percentage DLHS-4": 75,
      "Prevalence of Chronic illness in percentage DLHS-4": 7.8,
      "Households with solar energy as main source of lighting in percentage Houselisting and Housing Census Data Tables- District Level , Census of India__1": 0.171613489,
      "Marginal Workers Agricultural Labourers worked for 0 - 3 moths during last year - Females": 4022,
      "Main Workers - Males": 1046069,
      "Female": "NA",
      "Sno": 1123,
      "Marginal Workers Other worked for 3 - 6 moths during last year - Females": 15705,
      "Marginal Workers Cultivators worked for 0 - 3 moths during last year - Females": 4526,
      "Scheduled Tribe Males": 129711,
      "Male Illiterates": 431249,
      "Prevalence of Severe Anaemia in pregnant women aged 15-49years in percentage DLHS-4": 13.6,
      "0-6 Age Group Persons": 440102,
      "Upper Primary Student-Classroom Ratio in percentage DISE": "NA",
      "Currently married men married below 21years of age in percentage DLHS-4": 9.9,
      "Male Literates": 1472191,
      "Households with no lighting in percentage Houselisting and Housing Census Data Tables- District Level , Census of India__2": 1.076582352,
      "Primary Drop Out Rate in percentage DISE": "NA",
      "Marginal Workers Household Industry - Males": 2425,
      "Female Illiterates": 624755,
      "Main Workers Other - Females": 93929,
      "Marginal Workers Cultivators - Persons": 50485,
      "Upper Primary Gross Enrolment Ratio in percentage DISE": "NA",
      "Scheduled Caste Persons": 361029,
      "Marginal Workers Cultivators worked for 3 - 6 moths during last year - Persons": 42936,
      "Households with landline phone in percentage": 3.99,
      "Total Households in District  Houselisting and Housing Census Data Tables- District Level , Census of India": 744114,
      "Upper Primary Pupil-Teacher Ratio in percentage DISE": "NA",
      "Primary Student-Classroom Ratio in percentage DISE": "NA",
      "Primary Schools with boys toilet in percentage DISE": "NA",
      "Mean number of children ever born to women aged 40-49years  DLHS-4": 2.6,
      "Households receiving untreated tap water within premises  Houselisting and Housing Census Data Tables- District Level , Census of India__5": 64385,
      "Marginal Workers Household Industry worked for 0 - 3 moths during last year - Persons": 1591,
      "Total Male Population": 1903440,
      "Non Workers - Females": 1055916,
      "Current use of family planning methods in percentage DLHS-4": 71,
      "Households with main source of drinking water within premises  Houselisting and Housing Census Data Tables- District Level , Census of India__3": 399145,
      "Main Workers Agricultural Labourers - Males": 168487,
      "Marginal Workers Other worked for 0 - 3 moths during last year - Persons": 7374,
      "Currently married women married below 18years of age in percentage DLHS-4": 6.1,
      "Person Illiterates": 1056004,
      "Main Workers Household Industry - Females": 13521,
      "Female Literates": 1150031,
      "Marginal Workers Cultivators worked for 0 - 3 moths during last year - Males": 3023,
      "Male": "NA",
      "Households with improved source of drinking water in percentage DLHS-4": 92.5,
      "Upper Primary Schools with electricity in percentage DISE": "NA",
      "Households with electricity in percentage DLHS-4": 96.9,
      "Villages with Primary Health Centre within 10km in percentage DLHS-4": "Not applicable",
      "Births to women aged 15-19years out of Total births in percentage DLHS-4": 3.3,
      "Prevalence of Anaemia in women aged 15-49years in percentage DLHS-4": 70.6,
      "Marginal Workers Agricultural Labourers worked for 3 - 6 moths during last year - Persons": 38966,
      "Main Workers Household Industry - Males": 20692,
      "Scheduled Tribe Females": 125678,
      "Marginal Workers worked for 0 - 3 moths during last year - Males": 10084,
      "Marginal Workers Other worked for 3 - 6 moths during last year - Males": 25881,
      "Primary Net Enrolment Ratio in percentage DISE": "NA",
      "Total": "NA",
      "Mean age at marriage for boys DLHS-4": 24.9,
      "Number of District Hospitals  DLHS-4": "Not applicable",
      "0-6 Age Group Females": 204854,
      "Marginal Workers Agricultural Labourers worked for 0 - 3 moths during last year - Persons": 6157,
      "Marginal Workers Household Industry worked for 0 - 3 moths during last year - Males": 547,
      "Total Workers  Females": 718870,
      "Marginal Workers worked for 3 - 6 moths during last year - Females": 75582,
      "Institutional Deliveries in percentage DLHS-4": 93.3,
      "Marginal Workers Other - Males": 30260,
      "Total Workers  Males": 1109717,
      "Main Workers - Females": 630701,
      "Primary Gross Enrolment Ratio in percentage DISE": "NA",
      "Main Workers Cultivators - Persons": 807987,
      "Marginal Workers Household Industry worked for 0 - 3 moths during last year - Females": 1044,
      "Upper Primary Net Enrolment Ratio in percentage DISE": "NA",
      "Primary New Government Schools since 2003 in percentage DISE": "NA",
      "Tier": "Rural",
      "Marginal Workers Household Industry - Females": 4824,
      "Primary Schools with electricity in percentage DISE": "NA",
      "Main Workers Other - Persons": 486548,
      "Marginal Workers Household Industry worked for 3 - 6 moths during last year - Females": 3780,
      "Main Workers Cultivators - Males": 464271,
      "Main Workers Household Industry - Persons": 34213,
      "Marginal Workers Cultivators worked for 0 - 3 moths during last year - Persons": 7549,
      "Scheduled Caste Males": 185088,
      "Marginal Workers - Persons": 151817,
      "Deliveries at home conducted by skilled health personnel in percentage DLHS-4": 3.6,
      "Villages with Sub-Health Centres within 3km in percentage DLHS-4": "Not applicable",
      "Upper Primary New Government Schools since 2003 in percentage DISE": "NA",
      "0-6 Age Group Males": 235248,
      "Primary Schools with drinking water facility in percentage DISE": "NA",
      "Non Workers - Persons": 1849639,
      "Person Literates": 2622222,
      "State": "MAHARASHTRA",
      "Total Female Population": 1774786,
      "Marginal Workers worked for 0 - 3 moths during last year - Persons": 22671,
      "Marginal Workers Cultivators - Females": 34057,
      "Marginal Workers Other - Persons": 48960,
      "Sex Ratio": 932,
      "Scheduled Tribe Persons": 255389,
      "Marginal Workers Household Industry worked for 3 - 6 moths during last year - Males": 1878,
      "Marginal Workers Agricultural Labourers - Females": 30588,
      "Mean age at marriage for girls DLHS-4": 19.7,
      "Households with solar energy as main source of lighting  Houselisting and Housing Census Data Tables- District Level , Census of India__4": 1277,
      "District": "PUNE",
      "Households receiving treated tap water within premises in percentage Houselisting and Housing Census Data Tables- District Level , Census of India__1": 28.17498394,
      "Total Workers  Persons": 1828587,
      "Households receiving treated tap water within premises  Houselisting and Housing Census Data Tables- District Level , Census of India__4": 209654,
      "Primary Female Teachers in percentage DISE": "NA",
      "Number of Households": 779972,
      "Main Workers Agricultural Labourers - Persons": 348022
    }
  ],
  "Urban": [
    {
      "Marginal Workers Agricultural Labourers - Persons": 3328,
      "Marginal Workers Other - Females": 49824,
      "Marginal Workers Other worked for 0 - 3 moths during last year - Females": 6280,
      "Upper Primary Schools with boys toilet in percentage DISE": "NA",
      "Total Population": 5751182,
      "Households with electricity as main source of lighting in percentage Houselisting and Housing Census Data Tables- District Level , Census of India": 97.95616187,
      "Primary Girl's Enrolment in percentage DISE": "NA",
      "Marginal Workers worked for 3 - 6 moths during last year - Males": 75589,
      "Prevalence of Acute illness in percentage DLHS-4": "Not available",
      "Main Workers - Persons": 2074451,
      "Main Workers Cultivators - Females": 6433,
      "Marginal Workers Agricultural Labourers worked for 3 - 6 moths during last year - Females": 1503,
      "Marginal Workers Other worked for 0 - 3 moths during last year - Males": 10845,
      "Upper Primary Schools with drinking water facility in percentage DISE": "NA",
      "Primary Schools with girls toilet in percentage DISE": "NA",
      "Marginal Workers worked for 3 - 6 moths during last year - Persons": 126383,
      "Upper Primary Drop Out Rate in percentage DISE": "NA",
      "Prevalence of Anaemia in pregnant women aged 15-49years in percentage DLHS-4": "Not available",
      "Current use of any modern method of family planning in percentage DLHS-4": "Not available",
      "Marginal Workers Agricultural Labourers - Males": 1548,
      "Upper Primary Female Teachers in percentage DISE": "NA",
      "Marginal Workers - Females": 58619,
      "Marginal Workers Other worked for 3 - 6 moths during last year - Persons": 113716,
      "Main Workers Agricultural Labourers - Females": 6470,
      "Marginal Workers Cultivators worked for 3 - 6 moths during last year - Females": 1660,
      "Households with no lighting  Houselisting and Housing Census Data Tables- District Level , Census of India__5": 2342,
      "Prevalence of Severe Anaemia  in percentage DLHS-4": "Not available",
      "Total unmet need for family planning in percentage DLHS-4": "Not available",
      "Main Workers Other - Males": 1550331,
      "Children who received full vaccination in percentage DLHS-4": "Not available",
      "Marginal Workers Household Industry - Persons": 8002,
      "Primary Pupil-Teacher Ratio in percentage DISE": "NA",
      "Marginal Workers Agricultural Labourers worked for 3 - 6 moths during last year - Males": 1355,
      "Scheduled Caste Females": 402007,
      "Marginal Workers Cultivators - Males": 2030,
      "Marginal Workers - Males": 87336,
      "Marginal Workers worked for 0 - 3 moths during last year - Females": 7825,
      "Households with main source of drinking water within premises in percentage Houselisting and Housing Census Data Tables- District Level , Census of India": 88.31393486,
      "Marginal Workers Household Industry worked for 3 - 6 moths during last year - Persons": 6215,
      "Upper Primary Girl's Enrolment in percentage DISE": "NA",
      "Prevalence of Severe Anaemia in women aged 15-49years in percentage DLHS-4": "Not available",
      "Marginal Workers Agricultural Labourers worked for 0 - 3 moths during last year - Males": 193,
      "Households with electricity as main source of lighting  Houselisting and Housing Census Data Tables- District Level , Census of India__3": 1305259,
      "Households with computer or laptop with internet connection in percentage": 16.5,
      "PHCs functioning on a 24x7hours basis in percentage DLHS-4": 0,
      "Non Workers - Males": 1320566,
      "Total Households in District Houselisting and Housing Census Data Tables- District Level , Census of India": 1332493,
      "Upper Primary Schools with girls toilet in percentage DISE": "NA",
      "Households with mobile phone in percentage": 70.22,
      "Households receiving untreated tap water within premises in percentage Houselisting and Housing Census Data Tables- District Level , Census of India__2": 1.157079249,
      "Marginal Workers Cultivators worked for 3 - 6 moths during last year - Males": 1934,
      "Prevalence of Anaemia  in percentage DLHS-4": "Not available",
      "Prevalence of Chronic illness in percentage DLHS-4": "Not available",
      "Households with solar energy as main source of lighting in percentage Houselisting and Housing Census Data Tables- District Level , Census of India__1": 0.0435,
      "Marginal Workers Agricultural Labourers worked for 0 - 3 moths during last year - Females": 277,
      "Main Workers - Males": 1612763,
      "Female": "NA",
      "Sno": 1125,
      "Marginal Workers Other worked for 3 - 6 moths during last year - Females": 43544,
      "Marginal Workers Cultivators worked for 0 - 3 moths during last year - Females": 94,
      "Scheduled Tribe Males": 49421,
      "Male Illiterates": 552646,
      "Prevalence of Severe Anaemia in pregnant women aged 15-49years in percentage DLHS-4": "Not available",
      "0-6 Age Group Persons": 664857,
      "Upper Primary Student-Classroom Ratio in percentage DISE": "NA",
      "Currently married men married below 21years of age in percentage DLHS-4": "Not available",
      "Male Literates": 2468019,
      "Households with no lighting in percentage Houselisting and Housing Census Data Tables- District Level , Census of India__2": 0.175760773,
      "Primary Drop Out Rate in percentage DISE": "NA",
      "Marginal Workers Household Industry - Males": 2741,
      "Female Illiterates": 649035,
      "Main Workers Other - Females": 425611,
      "Marginal Workers Cultivators - Persons": 3784,
      "Upper Primary Gross Enrolment Ratio in percentage DISE": "NA",
      "Scheduled Caste Persons": 819674,
      "Marginal Workers Cultivators worked for 3 - 6 moths during last year - Persons": 3594,
      "Households with landline phone in percentage": 7.59,
      "Total Households in District  Houselisting and Housing Census Data Tables- District Level , Census of India": 1332493,
      "Upper Primary Pupil-Teacher Ratio in percentage DISE": "NA",
      "Primary Student-Classroom Ratio in percentage DISE": "NA",
      "Primary Schools with boys toilet in percentage DISE": "NA",
      "Mean number of children ever born to women aged 40-49years  DLHS-4": "Not available",
      "Households receiving untreated tap water within premises  Houselisting and Housing Census Data Tables- District Level , Census of India__5": 15418,
      "Marginal Workers Household Industry worked for 0 - 3 moths during last year - Persons": 1787,
      "Total Male Population": 3020665,
      "Non Workers - Females": 2210210,
      "Current use of family planning methods in percentage DLHS-4": "Not available",
      "Households with main source of drinking water within premises  Houselisting and Housing Census Data Tables- District Level , Census of India__3": 1176777,
      "Main Workers Agricultural Labourers - Males": 11518,
      "Marginal Workers Other worked for 0 - 3 moths during last year - Persons": 17125,
      "Currently married women married below 18years of age in percentage DLHS-4": "Not available",
      "Person Illiterates": 1201681,
      "Main Workers Household Industry - Females": 23174,
      "Female Literates": 2081482,
      "Marginal Workers Cultivators worked for 0 - 3 moths during last year - Males": 96,
      "Male": "NA",
      "Households with improved source of drinking water in percentage DLHS-4": "Not available",
      "Upper Primary Schools with electricity in percentage DISE": "NA",
      "Households with electricity in percentage DLHS-4": "Not available",
      "Villages with Primary Health Centre within 10km in percentage DLHS-4": 0,
      "Births to women aged 15-19years out of Total births in percentage DLHS-4": "Not available",
      "Prevalence of Anaemia in women aged 15-49years in percentage DLHS-4": "Not available",
      "Marginal Workers Agricultural Labourers worked for 3 - 6 moths during last year - Persons": 2858,
      "Main Workers Household Industry - Males": 33073,
      "Scheduled Tribe Females": 44066,
      "Marginal Workers worked for 0 - 3 moths during last year - Males": 11747,
      "Marginal Workers Other worked for 3 - 6 moths during last year - Males": 70172,
      "Primary Net Enrolment Ratio in percentage DISE": "NA",
      "Total": "NA",
      "Mean age at marriage for boys DLHS-4": "Not available",
      "Number of District Hospitals  DLHS-4": 0,
      "0-6 Age Group Females": 313440,
      "Marginal Workers Agricultural Labourers worked for 0 - 3 moths during last year - Persons": 470,
      "Marginal Workers Household Industry worked for 0 - 3 moths during last year - Males": 613,
      "Total Workers  Females": 520307,
      "Marginal Workers worked for 3 - 6 moths during last year - Females": 50794,
      "Institutional Deliveries in percentage DLHS-4": "Not available",
      "Marginal Workers Other - Males": 81017,
      "Total Workers  Males": 1700099,
      "Main Workers - Females": 461688,
      "Primary Gross Enrolment Ratio in percentage DISE": "NA",
      "Main Workers Cultivators - Persons": 24274,
      "Marginal Workers Household Industry worked for 0 - 3 moths during last year - Females": 1174,
      "Upper Primary Net Enrolment Ratio in percentage DISE": "NA",
      "Primary New Government Schools since 2003 in percentage DISE": "NA",
      "Tier": "Urban",
      "Marginal Workers Household Industry - Females": 5261,
      "Primary Schools with electricity in percentage DISE": "NA",
      "Main Workers Other - Persons": 1975942,
      "Marginal Workers Household Industry worked for 3 - 6 moths during last year - Females": 4087,
      "Main Workers Cultivators - Males": 17841,
      "Main Workers Household Industry - Persons": 56247,
      "Marginal Workers Cultivators worked for 0 - 3 moths during last year - Persons": 190,
      "Scheduled Caste Males": 417667,
      "Marginal Workers - Persons": 145955,
      "Deliveries at home conducted by skilled health personnel in percentage DLHS-4": "Not available",
      "Villages with Sub-Health Centres within 3km in percentage DLHS-4": 0,
      "Upper Primary New Government Schools since 2003 in percentage DISE": "NA",
      "0-6 Age Group Males": 351417,
      "Primary Schools with drinking water facility in percentage DISE": "NA",
      "Non Workers - Persons": 3530776,
      "Person Literates": 4549501,
      "State": "MAHARASHTRA",
      "Total Female Population": 2730517,
      "Marginal Workers worked for 0 - 3 moths during last year - Persons": 19572,
      "Marginal Workers Cultivators - Females": 1754,
      "Marginal Workers Other - Persons": 130841,
      "Sex Ratio": 904,
      "Scheduled Tribe Persons": 93487,
      "Marginal Workers Household Industry worked for 3 - 6 moths during last year - Males": 2128,
      "Marginal Workers Agricultural Labourers - Females": 1780,
      "Mean age at marriage for girls DLHS-4": "Not available",
      "Households with solar energy as main source of lighting  Houselisting and Housing Census Data Tables- District Level , Census of India__4": 580,
      "District": "PUNE",
      "Households receiving treated tap water within premises in percentage Houselisting and Housing Census Data Tables- District Level , Census of India__1": 85.98386633,
      "Total Workers  Persons": 2220406,
      "Households receiving treated tap water within premises  Houselisting and Housing Census Data Tables- District Level , Census of India__4": 1145729,
      "Primary Female Teachers in percentage DISE": "NA",
      "Number of Households": 1371531,
      "Main Workers Agricultural Labourers - Persons": 17988
    }
  ]
}