{
  "Total": [
    {
      "Marginal Workers Agricultural Labourers - Persons": 79870,
      "Marginal Workers Other - Females": 18519,
      "Marginal Workers Other worked for 0 - 3 moths during last year - Females": 3546,
      "Upper Primary Schools with boys toilet in percentage DISE": 100,
      "Total Population": 1889752,
      "Households with electricity as main source of lighting in percentage Houselisting and Housing Census Data Tables- District Level , Census of India": 84.80824589,
      "Primary Girl's Enrolment in percentage DISE": 47.3,
      "Marginal Workers worked for 3 - 6 moths during last year - Males": 50157,
      "Prevalence of Acute illness in percentage DLHS-4": 1.3,
      "Main Workers - Persons": 676407,
      "Main Workers Cultivators - Females": 41134,
      "Marginal Workers Agricultural Labourers worked for 3 - 6 moths during last year - Females": 52580,
      "Marginal Workers Other worked for 0 - 3 moths during last year - Males": 3479,
      "Upper Primary Schools with drinking water facility in percentage DISE": 100,
      "Primary Schools with girls toilet in percentage DISE": 100,
      "Marginal Workers worked for 3 - 6 moths during last year - Persons": 126936,
      "Upper Primary Drop Out Rate in percentage DISE": 3.86,
      "Prevalence of Anaemia in pregnant women aged 15-49years in percentage DLHS-4": 63.3,
      "Current use of any modern method of family planning in percentage DLHS-4": 59.5,
      "Marginal Workers Agricultural Labourers - Males": 23560,
      "Upper Primary Female Teachers in percentage DISE": 44.4,
      "Marginal Workers - Females": 85509,
      "Marginal Workers Other worked for 3 - 6 moths during last year - Persons": 36066,
      "Main Workers Agricultural Labourers - Females": 118600,
      "Marginal Workers Cultivators worked for 3 - 6 moths during last year - Females": 4964,
      "Households with no lighting  Houselisting and Housing Census Data Tables- District Level , Census of India__5": 2222,
      "Prevalence of Severe Anaemia  in percentage DLHS-4": 8.5,
      "Total unmet need for family planning in percentage DLHS-4": 10.3,
      "Main Workers Other - Males": 181304,
      "Children who received full vaccination in percentage DLHS-4": 82.1,
      "Marginal Workers Household Industry - Persons": 8992,
      "Primary Pupil-Teacher Ratio in percentage DISE": 23,
      "Marginal Workers Agricultural Labourers worked for 3 - 6 moths during last year - Males": 22001,
      "Scheduled Caste Females": 161014,
      "Marginal Workers Cultivators - Males": 4134,
      "Marginal Workers - Males": 56165,
      "Marginal Workers worked for 0 - 3 moths during last year - Females": 8730,
      "Households with main source of drinking water within premises in percentage Houselisting and Housing Census Data Tables- District Level , Census of India": 28.83895131,
      "Marginal Workers Household Industry worked for 3 - 6 moths during last year - Persons": 7629,
      "Upper Primary Girl's Enrolment in percentage DISE": 65.6,
      "Prevalence of Severe Anaemia in women aged 15-49years in percentage DLHS-4": 3.1,
      "Marginal Workers Agricultural Labourers worked for 0 - 3 moths during last year - Males": 1559,
      "Households with electricity as main source of lighting  Houselisting and Housing Census Data Tables- District Level , Census of India__3": 301389,
      "Households with computer or laptop with internet connection in percentage": 1.05,
      "PHCs functioning on a 24x7hours basis in percentage DLHS-4": 100,
      "Non Workers - Males": 438536,
      "Total Households in District Houselisting and Housing Census Data Tables- District Level , Census of India": 355377,
      "Upper Primary Schools with girls toilet in percentage DISE": 100,
      "Households with mobile phone in percentage": 57.7,
      "Households receiving untreated tap water within premises in percentage Houselisting and Housing Census Data Tables- District Level , Census of India__2": 6.600595987,
      "Marginal Workers Cultivators worked for 3 - 6 moths during last year - Males": 3696,
      "Prevalence of Anaemia  in percentage DLHS-4": 75.2,
      "Prevalence of Chronic illness in percentage DLHS-4": 1.2,
      "Households with solar energy as main source of lighting in percentage Houselisting and Housing Census Data Tables- District Level , Census of India__1": 0.176432352,
      "Marginal Workers Agricultural Labourers worked for 0 - 3 moths during last year - Females": 3730,
      "Main Workers - Males": 455410,
      "Female": 58.4,
      "Sno": 764,
      "Marginal Workers Other worked for 3 - 6 moths during last year - Females": 14973,
      "Marginal Workers Cultivators worked for 0 - 3 moths during last year - Females": 623,
      "Scheduled Tribe Males": 48470,
      "Male Illiterates": 308723,
      "Prevalence of Severe Anaemia in pregnant women aged 15-49years in percentage DLHS-4": 2.8,
      "0-6 Age Group Persons": 271908,
      "Upper Primary Student-Classroom Ratio in percentage DISE": 20,
      "Currently married men married below 21years of age in percentage DLHS-4": 10.1,
      "Male Literates": 641388,
      "Households with no lighting in percentage Houselisting and Housing Census Data Tables- District Level , Census of India__2": 0.625251493,
      "Primary Drop Out Rate in percentage DISE": 1.9,
      "Marginal Workers Household Industry - Males": 3899,
      "Female Illiterates": 467617,
      "Main Workers Other - Females": 49447,
      "Marginal Workers Cultivators - Persons": 9721,
      "Upper Primary Gross Enrolment Ratio in percentage DISE": 87.4,
      "Scheduled Caste Persons": 319149,
      "Marginal Workers Cultivators worked for 3 - 6 moths during last year - Persons": 8660,
      "Households with landline phone in percentage": 4.09,
      "Total Households in District  Houselisting and Housing Census Data Tables- District Level , Census of India": 355377,
      "Upper Primary Pupil-Teacher Ratio in percentage DISE": 20,
      "Primary Student-Classroom Ratio in percentage DISE": 18,
      "Primary Schools with boys toilet in percentage DISE": 100.5,
      "Mean number of children ever born to women aged 40-49years  DLHS-4": 3.5,
      "Households receiving untreated tap water within premises  Houselisting and Housing Census Data Tables- District Level , Census of India__5": 23457,
      "Marginal Workers Household Industry worked for 0 - 3 moths during last year - Persons": 1363,
      "Total Male Population": 950111,
      "Non Workers - Females": 633135,
      "Current use of family planning methods in percentage DLHS-4": 60.2,
      "Households with main source of drinking water within premises  Houselisting and Housing Census Data Tables- District Level , Census of India__3": 102487,
      "Main Workers Agricultural Labourers - Males": 104773,
      "Marginal Workers Other worked for 0 - 3 moths during last year - Persons": 7025,
      "Currently married women married below 18years of age in percentage DLHS-4": 25.2,
      "Person Illiterates": 776340,
      "Main Workers Household Industry - Females": 11816,
      "Female Literates": 472024,
      "Marginal Workers Cultivators worked for 0 - 3 moths during last year - Males": 438,
      "Male": 79.23,
      "Households with improved source of drinking water in percentage DLHS-4": 98.5,
      "Upper Primary Schools with electricity in percentage DISE": 100,
      "Households with electricity in percentage DLHS-4": 94.3,
      "Villages with Primary Health Centre within 10km in percentage DLHS-4": 72.73,
      "Births to women aged 15-19years out of Total births in percentage DLHS-4": 10.5,
      "Prevalence of Anaemia in women aged 15-49years in percentage DLHS-4": 58.1,
      "Marginal Workers Agricultural Labourers worked for 3 - 6 moths during last year - Persons": 74581,
      "Main Workers Household Industry - Males": 23989,
      "Scheduled Tribe Females": 48733,
      "Marginal Workers worked for 0 - 3 moths during last year - Males": 6008,
      "Marginal Workers Other worked for 3 - 6 moths during last year - Males": 21093,
      "Primary Net Enrolment Ratio in percentage DISE": 97.7,
      "Total": 68.82,
      "Mean age at marriage for boys DLHS-4": 25.1,
      "Number of District Hospitals  DLHS-4": 1,
      "0-6 Age Group Females": 131357,
      "Marginal Workers Agricultural Labourers worked for 0 - 3 moths during last year - Persons": 5289,
      "Marginal Workers Household Industry worked for 0 - 3 moths during last year - Males": 532,
      "Total Workers  Females": 306506,
      "Marginal Workers worked for 3 - 6 moths during last year - Females": 76779,
      "Institutional Deliveries in percentage DLHS-4": 86.7,
      "Marginal Workers Other - Males": 24572,
      "Total Workers  Males": 511575,
      "Main Workers - Females": 220997,
      "Primary Gross Enrolment Ratio in percentage DISE": 103.9,
      "Main Workers Cultivators - Persons": 186478,
      "Marginal Workers Household Industry worked for 0 - 3 moths during last year - Females": 831,
      "Upper Primary Net Enrolment Ratio in percentage DISE": 83.2,
      "Primary New Government Schools since 2003 in percentage DISE": 41.2,
      "Tier": "Total",
      "Marginal Workers Household Industry - Females": 5093,
      "Primary Schools with electricity in percentage DISE": 96.4,
      "Main Workers Other - Persons": 230751,
      "Marginal Workers Household Industry worked for 3 - 6 moths during last year - Females": 4262,
      "Main Workers Cultivators - Males": 145344,
      "Main Workers Household Industry - Persons": 35805,
      "Marginal Workers Cultivators worked for 0 - 3 moths during last year - Persons": 1061,
      "Scheduled Caste Males": 158135,
      "Marginal Workers - Persons": 141674,
      "Deliveries at home conducted by skilled health personnel in percentage DLHS-4": 2.8,
      "Villages with Sub-Health Centres within 3km in percentage DLHS-4": 81.8,
      "Upper Primary New Government Schools since 2003 in percentage DISE": 100,
      "0-6 Age Group Males": 140551,
      "Primary Schools with drinking water facility in percentage DISE": 100,
      "Non Workers - Persons": 1071671,
      "Person Literates": 1113412,
      "State": "KARNATAKA",
      "Total Female Population": 939641,
      "Marginal Workers worked for 0 - 3 moths during last year - Persons": 14738,
      "Marginal Workers Cultivators - Females": 5587,
      "Marginal Workers Other - Persons": 43091,
      "Sex Ratio": 989,
      "Scheduled Tribe Persons": 97203,
      "Marginal Workers Household Industry worked for 3 - 6 moths during last year - Males": 3367,
      "Marginal Workers Agricultural Labourers - Females": 56310,
      "Mean age at marriage for girls DLHS-4": 19.1,
      "Households with solar energy as main source of lighting  Houselisting and Housing Census Data Tables- District Level , Census of India__4": 627,
      "District": "BAGALKOT",
      "Households receiving treated tap water within premises in percentage Houselisting and Housing Census Data Tables- District Level , Census of India__1": 15.55587447,
      "Total Workers  Persons": 818081,
      "Households receiving treated tap water within premises  Houselisting and Housing Census Data Tables- District Level , Census of India__4": 55282,
      "Primary Female Teachers in percentage DISE": 43.3,
      "Number of Households": 361149,
      "Main Workers Agricultural Labourers - Persons": 223373
    }
  ],
  "Rural": [
    {
      "Marginal Workers Agricultural Labourers - Persons": 75330,
      "Marginal Workers Other - Females": 9805,
      "Marginal Workers Other worked for 0 - 3 moths during last year - Females": 2212,
      "Upper Primary Schools with boys toilet in percentage DISE": "NA",
      "Total Population": 1291906,
      "Households with electricity as main source of lighting in percentage Houselisting and Housing Census Data Tables- District Level , Census of India": 82.03153142,
      "Primary Girl's Enrolment in percentage DISE": "NA",
      "Marginal Workers worked for 3 - 6 moths during last year - Males": 35238,
      "Prevalence of Acute illness in percentage DLHS-4": 1.2,
      "Main Workers - Persons": 485014,
      "Main Workers Cultivators - Females": 39856,
      "Marginal Workers Agricultural Labourers worked for 3 - 6 moths during last year - Females": 50097,
      "Marginal Workers Other worked for 0 - 3 moths during last year - Males": 1937,
      "Upper Primary Schools with drinking water facility in percentage DISE": "NA",
      "Primary Schools with girls toilet in percentage DISE": "NA",
      "Marginal Workers worked for 3 - 6 moths during last year - Persons": 99691,
      "Upper Primary Drop Out Rate in percentage DISE": "NA",
      "Prevalence of Anaemia in pregnant women aged 15-49years in percentage DLHS-4": 39.5,
      "Current use of any modern method of family planning in percentage DLHS-4": 60.9,
      "Marginal Workers Agricultural Labourers - Males": 21772,
      "Upper Primary Female Teachers in percentage DISE": "NA",
      "Marginal Workers - Females": 71091,
      "Marginal Workers Other worked for 3 - 6 moths during last year - Persons": 17505,
      "Main Workers Agricultural Labourers - Females": 109231,
      "Marginal Workers Cultivators worked for 3 - 6 moths during last year - Females": 4757,
      "Households with no lighting  Houselisting and Housing Census Data Tables- District Level , Census of India__5": 1577,
      "Prevalence of Severe Anaemia  in percentage DLHS-4": 10.1,
      "Total unmet need for family planning in percentage DLHS-4": 10.1,
      "Main Workers Other - Males": 72022,
      "Children who received full vaccination in percentage DLHS-4": 83.5,
      "Marginal Workers Household Industry - Persons": 4176,
      "Primary Pupil-Teacher Ratio in percentage DISE": "NA",
      "Marginal Workers Agricultural Labourers worked for 3 - 6 moths during last year - Males": 20367,
      "Scheduled Caste Females": 119960,
      "Marginal Workers Cultivators - Males": 3850,
      "Marginal Workers - Males": 39287,
      "Marginal Workers worked for 0 - 3 moths during last year - Females": 6638,
      "Households with main source of drinking water within premises in percentage Houselisting and Housing Census Data Tables- District Level , Census of India": 20.66422055,
      "Marginal Workers Household Industry worked for 3 - 6 moths during last year - Persons": 3542,
      "Upper Primary Girl's Enrolment in percentage DISE": "NA",
      "Prevalence of Severe Anaemia in women aged 15-49years in percentage DLHS-4": 3.2,
      "Marginal Workers Agricultural Labourers worked for 0 - 3 moths during last year - Males": 1405,
      "Households with electricity as main source of lighting  Houselisting and Housing Census Data Tables- District Level , Census of India__3": 195847,
      "Households with computer or laptop with internet connection in percentage": 0.36,
      "PHCs functioning on a 24x7hours basis in percentage DLHS-4": "Not applicable",
      "Non Workers - Males": 298971,
      "Total Households in District Houselisting and Housing Census Data Tables- District Level , Census of India": 238746,
      "Upper Primary Schools with girls toilet in percentage DISE": "NA",
      "Households with mobile phone in percentage": 56.3,
      "Households receiving untreated tap water within premises in percentage Houselisting and Housing Census Data Tables- District Level , Census of India__2": 7.944426294,
      "Marginal Workers Cultivators worked for 3 - 6 moths during last year - Males": 3423,
      "Prevalence of Anaemia  in percentage DLHS-4": 78.4,
      "Prevalence of Chronic illness in percentage DLHS-4": 1.2,
      "Households with solar energy as main source of lighting in percentage Houselisting and Housing Census Data Tables- District Level , Census of India__1": 0.185133992,
      "Marginal Workers Agricultural Labourers worked for 0 - 3 moths during last year - Females": 3461,
      "Main Workers - Males": 312009,
      "Female": "NA",
      "Sno": 763,
      "Marginal Workers Other worked for 3 - 6 moths during last year - Females": 7593,
      "Marginal Workers Cultivators worked for 0 - 3 moths during last year - Females": 611,
      "Scheduled Tribe Males": 40322,
      "Male Illiterates": 233421,
      "Prevalence of Severe Anaemia in pregnant women aged 15-49years in percentage DLHS-4": 2.3,
      "0-6 Age Group Persons": 193893,
      "Upper Primary Student-Classroom Ratio in percentage DISE": "NA",
      "Currently married men married below 21years of age in percentage DLHS-4": 13.7,
      "Male Literates": 416846,
      "Households with no lighting in percentage Houselisting and Housing Census Data Tables- District Level , Census of India__2": 0.660534627,
      "Primary Drop Out Rate in percentage DISE": "NA",
      "Marginal Workers Household Industry - Males": 1816,
      "Female Illiterates": 353573,
      "Main Workers Other - Females": 20604,
      "Marginal Workers Cultivators - Persons": 9218,
      "Upper Primary Gross Enrolment Ratio in percentage DISE": "NA",
      "Scheduled Caste Persons": 238014,
      "Marginal Workers Cultivators worked for 3 - 6 moths during last year - Persons": 8180,
      "Households with landline phone in percentage": 3.84,
      "Total Households in District  Houselisting and Housing Census Data Tables- District Level , Census of India": 238746,
      "Upper Primary Pupil-Teacher Ratio in percentage DISE": "NA",
      "Primary Student-Classroom Ratio in percentage DISE": "NA",
      "Primary Schools with boys toilet in percentage DISE": "NA",
      "Mean number of children ever born to women aged 40-49years  DLHS-4": 3.6,
      "Households receiving untreated tap water within premises  Houselisting and Housing Census Data Tables- District Level , Census of India__5": 18967,
      "Marginal Workers Household Industry worked for 0 - 3 moths during last year - Persons": 634,
      "Total Male Population": 650267,
      "Non Workers - Females": 397543,
      "Current use of family planning methods in percentage DLHS-4": 61.7,
      "Households with main source of drinking water within premises  Houselisting and Housing Census Data Tables- District Level , Census of India__3": 49335,
      "Main Workers Agricultural Labourers - Males": 93841,
      "Marginal Workers Other worked for 0 - 3 moths during last year - Persons": 4149,
      "Currently married women married below 18years of age in percentage DLHS-4": 32.9,
      "Person Illiterates": 586994,
      "Main Workers Household Industry - Females": 3314,
      "Female Literates": 288066,
      "Marginal Workers Cultivators worked for 0 - 3 moths during last year - Males": 427,
      "Male": "NA",
      "Households with improved source of drinking water in percentage DLHS-4": 99.7,
      "Upper Primary Schools with electricity in percentage DISE": "NA",
      "Households with electricity in percentage DLHS-4": 92,
      "Villages with Primary Health Centre within 10km in percentage DLHS-4": "Not applicable",
      "Births to women aged 15-19years out of Total births in percentage DLHS-4": 12.5,
      "Prevalence of Anaemia in women aged 15-49years in percentage DLHS-4": 59.2,
      "Marginal Workers Agricultural Labourers worked for 3 - 6 moths during last year - Persons": 70464,
      "Main Workers Household Industry - Males": 7918,
      "Scheduled Tribe Females": 40498,
      "Marginal Workers worked for 0 - 3 moths during last year - Males": 4049,
      "Marginal Workers Other worked for 3 - 6 moths during last year - Males": 9912,
      "Primary Net Enrolment Ratio in percentage DISE": "NA",
      "Total": "NA",
      "Mean age at marriage for boys DLHS-4": 24.2,
      "Number of District Hospitals  DLHS-4": "Not applicable",
      "0-6 Age Group Females": 93743,
      "Marginal Workers Agricultural Labourers worked for 0 - 3 moths during last year - Persons": 4866,
      "Marginal Workers Household Industry worked for 0 - 3 moths during last year - Males": 280,
      "Total Workers  Females": 244096,
      "Marginal Workers worked for 3 - 6 moths during last year - Females": 64453,
      "Institutional Deliveries in percentage DLHS-4": 83.2,
      "Marginal Workers Other - Males": 11849,
      "Total Workers  Males": 351296,
      "Main Workers - Females": 173005,
      "Primary Gross Enrolment Ratio in percentage DISE": "NA",
      "Main Workers Cultivators - Persons": 178084,
      "Marginal Workers Household Industry worked for 0 - 3 moths during last year - Females": 354,
      "Upper Primary Net Enrolment Ratio in percentage DISE": "NA",
      "Primary New Government Schools since 2003 in percentage DISE": "NA",
      "Tier": "Rural",
      "Marginal Workers Household Industry - Females": 2360,
      "Primary Schools with electricity in percentage DISE": "NA",
      "Main Workers Other - Persons": 92626,
      "Marginal Workers Household Industry worked for 3 - 6 moths during last year - Females": 2006,
      "Main Workers Cultivators - Males": 138228,
      "Main Workers Household Industry - Persons": 11232,
      "Marginal Workers Cultivators worked for 0 - 3 moths during last year - Persons": 1038,
      "Scheduled Caste Males": 118054,
      "Marginal Workers - Persons": 110378,
      "Deliveries at home conducted by skilled health personnel in percentage DLHS-4": 3,
      "Villages with Sub-Health Centres within 3km in percentage DLHS-4": "Not applicable",
      "Upper Primary New Government Schools since 2003 in percentage DISE": "NA",
      "0-6 Age Group Males": 100150,
      "Primary Schools with drinking water facility in percentage DISE": "NA",
      "Non Workers - Persons": 696514,
      "Person Literates": 704912,
      "State": "KARNATAKA",
      "Total Female Population": 641639,
      "Marginal Workers worked for 0 - 3 moths during last year - Persons": 10687,
      "Marginal Workers Cultivators - Females": 5368,
      "Marginal Workers Other - Persons": 21654,
      "Sex Ratio": 987,
      "Scheduled Tribe Persons": 80820,
      "Marginal Workers Household Industry worked for 3 - 6 moths during last year - Males": 1536,
      "Marginal Workers Agricultural Labourers - Females": 53558,
      "Mean age at marriage for girls DLHS-4": 18.3,
      "Households with solar energy as main source of lighting  Houselisting and Housing Census Data Tables- District Level , Census of India__4": 442,
      "District": "BAGALKOT",
      "Households receiving treated tap water within premises in percentage Houselisting and Housing Census Data Tables- District Level , Census of India__1": 6.560109908,
      "Total Workers  Persons": 595392,
      "Households receiving treated tap water within premises  Houselisting and Housing Census Data Tables- District Level , Census of India__4": 15662,
      "Primary Female Teachers in percentage DISE": "NA",
      "Number of Households": 242690,
      "Main Workers Agricultural Labourers - Persons": 203072
    }
  ],
  "Urban": [
    {
      "Marginal Workers Agricultural Labourers - Persons": 4540,
      "Marginal Workers Other - Females": 8714,
      "Marginal Workers Other worked for 0 - 3 moths during last year - Females": 1334,
      "Upper Primary Schools with boys toilet in percentage DISE": "NA",
      "Total Population": 597846,
      "Households with electricity as main source of lighting in percentage Houselisting and Housing Census Data Tables- District Level , Census of India": 90.4922362,
      "Primary Girl's Enrolment in percentage DISE": "NA",
      "Marginal Workers worked for 3 - 6 moths during last year - Males": 14919,
      "Prevalence of Acute illness in percentage DLHS-4": "Not available",
      "Main Workers - Persons": 191393,
      "Main Workers Cultivators - Females": 1278,
      "Marginal Workers Agricultural Labourers worked for 3 - 6 moths during last year - Females": 2483,
      "Marginal Workers Other worked for 0 - 3 moths during last year - Males": 1542,
      "Upper Primary Schools with drinking water facility in percentage DISE": "NA",
      "Primary Schools with girls toilet in percentage DISE": "NA",
      "Marginal Workers worked for 3 - 6 moths during last year - Persons": 27245,
      "Upper Primary Drop Out Rate in percentage DISE": "NA",
      "Prevalence of Anaemia in pregnant women aged 15-49years in percentage DLHS-4": "Not available",
      "Current use of any modern method of family planning in percentage DLHS-4": "Not available",
      "Marginal Workers Agricultural Labourers - Males": 1788,
      "Upper Primary Female Teachers in percentage DISE": "NA",
      "Marginal Workers - Females": 14418,
      "Marginal Workers Other worked for 3 - 6 moths during last year - Persons": 18561,
      "Main Workers Agricultural Labourers - Females": 9369,
      "Marginal Workers Cultivators worked for 3 - 6 moths during last year - Females": 207,
      "Households with no lighting  Houselisting and Housing Census Data Tables- District Level , Census of India__5": 645,
      "Prevalence of Severe Anaemia  in percentage DLHS-4": "Not available",
      "Total unmet need for family planning in percentage DLHS-4": "Not available",
      "Main Workers Other - Males": 109282,
      "Children who received full vaccination in percentage DLHS-4": "Not available",
      "Marginal Workers Household Industry - Persons": 4816,
      "Primary Pupil-Teacher Ratio in percentage DISE": "NA",
      "Marginal Workers Agricultural Labourers worked for 3 - 6 moths during last year - Males": 1634,
      "Scheduled Caste Females": 41054,
      "Marginal Workers Cultivators - Males": 284,
      "Marginal Workers - Males": 16878,
      "Marginal Workers worked for 0 - 3 moths during last year - Females": 2092,
      "Households with main source of drinking water within premises in percentage Houselisting and Housing Census Data Tables- District Level , Census of India": 45.5736468,
      "Marginal Workers Household Industry worked for 3 - 6 moths during last year - Persons": 4087,
      "Upper Primary Girl's Enrolment in percentage DISE": "NA",
      "Prevalence of Severe Anaemia in women aged 15-49years in percentage DLHS-4": "Not available",
      "Marginal Workers Agricultural Labourers worked for 0 - 3 moths during last year - Males": 154,
      "Households with electricity as main source of lighting  Houselisting and Housing Census Data Tables- District Level , Census of India__3": 105542,
      "Households with computer or laptop with internet connection in percentage": 2.48,
      "PHCs functioning on a 24x7hours basis in percentage DLHS-4": 0,
      "Non Workers - Males": 139565,
      "Total Households in District Houselisting and Housing Census Data Tables- District Level , Census of India": 116631,
      "Upper Primary Schools with girls toilet in percentage DISE": "NA",
      "Households with mobile phone in percentage": 60.56,
      "Households receiving untreated tap water within premises in percentage Houselisting and Housing Census Data Tables- District Level , Census of India__2": 3.849748352,
      "Marginal Workers Cultivators worked for 3 - 6 moths during last year - Males": 273,
      "Prevalence of Anaemia  in percentage DLHS-4": "Not available",
      "Prevalence of Chronic illness in percentage DLHS-4": "Not available",
      "Households with solar energy as main source of lighting in percentage Houselisting and Housing Census Data Tables- District Level , Census of India__1": 0.158619921,
      "Marginal Workers Agricultural Labourers worked for 0 - 3 moths during last year - Females": 269,
      "Main Workers - Males": 143401,
      "Female": "NA",
      "Sno": 765,
      "Marginal Workers Other worked for 3 - 6 moths during last year - Females": 7380,
      "Marginal Workers Cultivators worked for 0 - 3 moths during last year - Females": 12,
      "Scheduled Tribe Males": 8148,
      "Male Illiterates": 75302,
      "Prevalence of Severe Anaemia in pregnant women aged 15-49years in percentage DLHS-4": "Not available",
      "0-6 Age Group Persons": 78015,
      "Upper Primary Student-Classroom Ratio in percentage DISE": "NA",
      "Currently married men married below 21years of age in percentage DLHS-4": "Not available",
      "Male Literates": 224542,
      "Households with no lighting in percentage Houselisting and Housing Census Data Tables- District Level , Census of India__2": 0.553026211,
      "Primary Drop Out Rate in percentage DISE": "NA",
      "Marginal Workers Household Industry - Males": 2083,
      "Female Illiterates": 114044,
      "Main Workers Other - Females": 28843,
      "Marginal Workers Cultivators - Persons": 503,
      "Upper Primary Gross Enrolment Ratio in percentage DISE": "NA",
      "Scheduled Caste Persons": 81135,
      "Marginal Workers Cultivators worked for 3 - 6 moths during last year - Persons": 480,
      "Households with landline phone in percentage": 4.62,
      "Total Households in District  Houselisting and Housing Census Data Tables- District Level , Census of India": 116631,
      "Upper Primary Pupil-Teacher Ratio in percentage DISE": "NA",
      "Primary Student-Classroom Ratio in percentage DISE": "NA",
      "Primary Schools with boys toilet in percentage DISE": "NA",
      "Mean number of children ever born to women aged 40-49years  DLHS-4": "Not available",
      "Households receiving untreated tap water within premises  Houselisting and Housing Census Data Tables- District Level , Census of India__5": 4490,
      "Marginal Workers Household Industry worked for 0 - 3 moths during last year - Persons": 729,
      "Total Male Population": 299844,
      "Non Workers - Females": 235592,
      "Current use of family planning methods in percentage DLHS-4": "Not available",
      "Households with main source of drinking water within premises  Houselisting and Housing Census Data Tables- District Level , Census of India__3": 53153,
      "Main Workers Agricultural Labourers - Males": 10932,
      "Marginal Workers Other worked for 0 - 3 moths during last year - Persons": 2876,
      "Currently married women married below 18years of age in percentage DLHS-4": "Not available",
      "Person Illiterates": 189346,
      "Main Workers Household Industry - Females": 8502,
      "Female Literates": 183958,
      "Marginal Workers Cultivators worked for 0 - 3 moths during last year - Males": 11,
      "Male": "NA",
      "Households with improved source of drinking water in percentage DLHS-4": "Not available",
      "Upper Primary Schools with electricity in percentage DISE": "NA",
      "Households with electricity in percentage DLHS-4": "Not available",
      "Villages with Primary Health Centre within 10km in percentage DLHS-4": 0,
      "Births to women aged 15-19years out of Total births in percentage DLHS-4": "Not available",
      "Prevalence of Anaemia in women aged 15-49years in percentage DLHS-4": "Not available",
      "Marginal Workers Agricultural Labourers worked for 3 - 6 moths during last year - Persons": 4117,
      "Main Workers Household Industry - Males": 16071,
      "Scheduled Tribe Females": 8235,
      "Marginal Workers worked for 0 - 3 moths during last year - Males": 1959,
      "Marginal Workers Other worked for 3 - 6 moths during last year - Males": 11181,
      "Primary Net Enrolment Ratio in percentage DISE": "NA",
      "Total": "NA",
      "Mean age at marriage for boys DLHS-4": "Not available",
      "Number of District Hospitals  DLHS-4": 0,
      "0-6 Age Group Females": 37614,
      "Marginal Workers Agricultural Labourers worked for 0 - 3 moths during last year - Persons": 423,
      "Marginal Workers Household Industry worked for 0 - 3 moths during last year - Males": 252,
      "Total Workers  Females": 62410,
      "Marginal Workers worked for 3 - 6 moths during last year - Females": 12326,
      "Institutional Deliveries in percentage DLHS-4": "Not available",
      "Marginal Workers Other - Males": 12723,
      "Total Workers  Males": 160279,
      "Main Workers - Females": 47992,
      "Primary Gross Enrolment Ratio in percentage DISE": "NA",
      "Main Workers Cultivators - Persons": 8394,
      "Marginal Workers Household Industry worked for 0 - 3 moths during last year - Females": 477,
      "Upper Primary Net Enrolment Ratio in percentage DISE": "NA",
      "Primary New Government Schools since 2003 in percentage DISE": "NA",
      "Tier": "Urban",
      "Marginal Workers Household Industry - Females": 2733,
      "Primary Schools with electricity in percentage DISE": "NA",
      "Main Workers Other - Persons": 138125,
      "Marginal Workers Household Industry worked for 3 - 6 moths during last year - Females": 2256,
      "Main Workers Cultivators - Males": 7116,
      "Main Workers Household Industry - Persons": 24573,
      "Marginal Workers Cultivators worked for 0 - 3 moths during last year - Persons": 23,
      "Scheduled Caste Males": 40081,
      "Marginal Workers - Persons": 31296,
      "Deliveries at home conducted by skilled health personnel in percentage DLHS-4": "Not available",
      "Villages with Sub-Health Centres within 3km in percentage DLHS-4": 0,
      "Upper Primary New Government Schools since 2003 in percentage DISE": "NA",
      "0-6 Age Group Males": 40401,
      "Primary Schools with drinking water facility in percentage DISE": "NA",
      "Non Workers - Persons": 375157,
      "Person Literates": 408500,
      "State": "KARNATAKA",
      "Total Female Population": 298002,
      "Marginal Workers worked for 0 - 3 moths during last year - Persons": 4051,
      "Marginal Workers Cultivators - Females": 219,
      "Marginal Workers Other - Persons": 21437,
      "Sex Ratio": 994,
      "Scheduled Tribe Persons": 16383,
      "Marginal Workers Household Industry worked for 3 - 6 moths during last year - Males": 1831,
      "Marginal Workers Agricultural Labourers - Females": 2752,
      "Mean age at marriage for girls DLHS-4": "Not available",
      "Households with solar energy as main source of lighting  Houselisting and Housing Census Data Tables- District Level , Census of India__4": 185,
      "District": "BAGALKOT",
      "Households receiving treated tap water within premises in percentage Houselisting and Housing Census Data Tables- District Level , Census of India__1": 33.97038523,
      "Total Workers  Persons": 222689,
      "Households receiving treated tap water within premises  Houselisting and Housing Census Data Tables- District Level , Census of India__4": 39620,
      "Primary Female Teachers in percentage DISE": "NA",
      "Number of Households": 118459,
      "Main Workers Agricultural Labourers - Persons": 20301
    }
  ]
}