{
  "Total": [
    {
      "Marginal Workers Agricultural Labourers - Persons": 60003,
      "Marginal Workers Other - Females": 10454,
      "Marginal Workers Other worked for 0 - 3 moths during last year - Females": 2388,
      "Upper Primary Schools with boys toilet in percentage DISE": 100,
      "Total Population": 1020791,
      "Households with electricity as main source of lighting in percentage Houselisting and Housing Census Data Tables- District Level , Census of India": 86.87868042,
      "Primary Girl's Enrolment in percentage DISE": 48.2,
      "Marginal Workers worked for 3 - 6 moths during last year - Males": 45840,
      "Prevalence of Acute illness in percentage DLHS-4": 5.4,
      "Main Workers - Persons": 381408,
      "Main Workers Cultivators - Females": 18113,
      "Marginal Workers Agricultural Labourers worked for 3 - 6 moths during last year - Females": 28535,
      "Marginal Workers Other worked for 0 - 3 moths during last year - Males": 3634,
      "Upper Primary Schools with drinking water facility in percentage DISE": 100,
      "Primary Schools with girls toilet in percentage DISE": 100,
      "Marginal Workers worked for 3 - 6 moths during last year - Persons": 88173,
      "Upper Primary Drop Out Rate in percentage DISE": 7.27,
      "Prevalence of Anaemia in pregnant women aged 15-49years in percentage DLHS-4": 72.9,
      "Current use of any modern method of family planning in percentage DLHS-4": 68.1,
      "Marginal Workers Agricultural Labourers - Males": 29018,
      "Upper Primary Female Teachers in percentage DISE": 60.4,
      "Marginal Workers - Females": 48080,
      "Marginal Workers Other worked for 3 - 6 moths during last year - Persons": 21807,
      "Main Workers Agricultural Labourers - Females": 60583,
      "Marginal Workers Cultivators worked for 3 - 6 moths during last year - Females": 3969,
      "Households with no lighting  Houselisting and Housing Census Data Tables- District Level , Census of India__5": 1173,
      "Prevalence of Severe Anaemia  in percentage DLHS-4": 17.7,
      "Total unmet need for family planning in percentage DLHS-4": 17.2,
      "Main Workers Other - Males": 86497,
      "Children who received full vaccination in percentage DLHS-4": 82.5,
      "Marginal Workers Household Industry - Persons": 3766,
      "Primary Pupil-Teacher Ratio in percentage DISE": 15,
      "Marginal Workers Agricultural Labourers worked for 3 - 6 moths during last year - Males": 26808,
      "Scheduled Caste Females": 128551,
      "Marginal Workers Cultivators - Males": 4308,
      "Marginal Workers - Males": 52205,
      "Marginal Workers worked for 0 - 3 moths during last year - Females": 5747,
      "Households with main source of drinking water within premises in percentage Houselisting and Housing Census Data Tables- District Level , Census of India": 31.5674166,
      "Marginal Workers Household Industry worked for 3 - 6 moths during last year - Persons": 2966,
      "Upper Primary Girl's Enrolment in percentage DISE": 46.7,
      "Prevalence of Severe Anaemia in women aged 15-49years in percentage DLHS-4": 9.7,
      "Marginal Workers Agricultural Labourers worked for 0 - 3 moths during last year - Males": 2210,
      "Households with electricity as main source of lighting  Houselisting and Housing Census Data Tables- District Level , Census of India__3": 212156,
      "Households with computer or laptop with internet connection in percentage": 0.55,
      "PHCs functioning on a 24x7hours basis in percentage DLHS-4": 57.9,
      "Non Workers - Males": 187905,
      "Total Households in District Houselisting and Housing Census Data Tables- District Level , Census of India": 244198,
      "Upper Primary Schools with girls toilet in percentage DISE": 100,
      "Households with mobile phone in percentage": 43.83,
      "Households receiving untreated tap water within premises in percentage Houselisting and Housing Census Data Tables- District Level , Census of India__2": 9.382959729,
      "Marginal Workers Cultivators worked for 3 - 6 moths during last year - Males": 4088,
      "Prevalence of Anaemia  in percentage DLHS-4": 80.5,
      "Prevalence of Chronic illness in percentage DLHS-4": 6.7,
      "Households with solar energy as main source of lighting in percentage Houselisting and Housing Census Data Tables- District Level , Census of India__1": 0.253892333,
      "Marginal Workers Agricultural Labourers worked for 0 - 3 moths during last year - Females": 2450,
      "Main Workers - Males": 272121,
      "Female": 54.92,
      "Sno": 785,
      "Marginal Workers Other worked for 3 - 6 moths during last year - Females": 8066,
      "Marginal Workers Cultivators worked for 0 - 3 moths during last year - Females": 410,
      "Scheduled Tribe Males": 59369,
      "Male Illiterates": 199274,
      "Prevalence of Severe Anaemia in pregnant women aged 15-49years in percentage DLHS-4": 8.6,
      "0-6 Age Group Persons": 100648,
      "Upper Primary Student-Classroom Ratio in percentage DISE": 25,
      "Currently married men married below 21years of age in percentage DLHS-4": 5,
      "Male Literates": 312957,
      "Households with no lighting in percentage Houselisting and Housing Census Data Tables- District Level , Census of India__2": 0.480347914,
      "Primary Drop Out Rate in percentage DISE": 3.9,
      "Marginal Workers Household Industry - Males": 1504,
      "Female Illiterates": 256238,
      "Main Workers Other - Females": 25952,
      "Marginal Workers Cultivators - Persons": 8687,
      "Upper Primary Gross Enrolment Ratio in percentage DISE": 83.1,
      "Scheduled Caste Persons": 259445,
      "Marginal Workers Cultivators worked for 3 - 6 moths during last year - Persons": 8057,
      "Households with landline phone in percentage": 4.16,
      "Total Households in District  Houselisting and Housing Census Data Tables- District Level , Census of India": 244198,
      "Upper Primary Pupil-Teacher Ratio in percentage DISE": 27,
      "Primary Student-Classroom Ratio in percentage DISE": 13,
      "Primary Schools with boys toilet in percentage DISE": 99.8,
      "Mean number of children ever born to women aged 40-49years  DLHS-4": 2.9,
      "Households receiving untreated tap water within premises  Houselisting and Housing Census Data Tables- District Level , Census of India__5": 22913,
      "Marginal Workers Household Industry worked for 0 - 3 moths during last year - Persons": 800,
      "Total Male Population": 512231,
      "Non Workers - Females": 351193,
      "Current use of family planning methods in percentage DLHS-4": 69.2,
      "Households with main source of drinking water within premises  Houselisting and Housing Census Data Tables- District Level , Census of India__3": 77087,
      "Main Workers Agricultural Labourers - Males": 93717,
      "Marginal Workers Other worked for 0 - 3 moths during last year - Persons": 6022,
      "Currently married women married below 18years of age in percentage DLHS-4": 16.9,
      "Person Illiterates": 455512,
      "Main Workers Household Industry - Females": 4639,
      "Female Literates": 252322,
      "Marginal Workers Cultivators worked for 0 - 3 moths during last year - Males": 220,
      "Male": 67.93,
      "Households with improved source of drinking water in percentage DLHS-4": 99.5,
      "Upper Primary Schools with electricity in percentage DISE": 91.7,
      "Households with electricity in percentage DLHS-4": 96.2,
      "Villages with Primary Health Centre within 10km in percentage DLHS-4": 88,
      "Births to women aged 15-19years out of Total births in percentage DLHS-4": 8.6,
      "Prevalence of Anaemia in women aged 15-49years in percentage DLHS-4": 74.2,
      "Marginal Workers Agricultural Labourers worked for 3 - 6 moths during last year - Persons": 55343,
      "Main Workers Household Industry - Males": 5602,
      "Scheduled Tribe Females": 60850,
      "Marginal Workers worked for 0 - 3 moths during last year - Males": 6365,
      "Marginal Workers Other worked for 3 - 6 moths during last year - Males": 13741,
      "Primary Net Enrolment Ratio in percentage DISE": 85.3,
      "Total": 61.43,
      "Mean age at marriage for boys DLHS-4": 26.7,
      "Number of District Hospitals  DLHS-4": 1,
      "0-6 Age Group Females": 49119,
      "Marginal Workers Agricultural Labourers worked for 0 - 3 moths during last year - Persons": 4660,
      "Marginal Workers Household Industry worked for 0 - 3 moths during last year - Males": 301,
      "Total Workers  Females": 157367,
      "Marginal Workers worked for 3 - 6 moths during last year - Females": 42333,
      "Institutional Deliveries in percentage DLHS-4": 96.2,
      "Marginal Workers Other - Males": 17375,
      "Total Workers  Males": 324326,
      "Main Workers - Females": 109287,
      "Primary Gross Enrolment Ratio in percentage DISE": 93.5,
      "Main Workers Cultivators - Persons": 104418,
      "Marginal Workers Household Industry worked for 0 - 3 moths during last year - Females": 499,
      "Upper Primary Net Enrolment Ratio in percentage DISE": 76.4,
      "Primary New Government Schools since 2003 in percentage DISE": 10.6,
      "Tier": "Total",
      "Marginal Workers Household Industry - Females": 2262,
      "Primary Schools with electricity in percentage DISE": 86.2,
      "Main Workers Other - Persons": 112449,
      "Marginal Workers Household Industry worked for 3 - 6 moths during last year - Females": 1763,
      "Main Workers Cultivators - Males": 86305,
      "Main Workers Household Industry - Persons": 10241,
      "Marginal Workers Cultivators worked for 0 - 3 moths during last year - Persons": 630,
      "Scheduled Caste Males": 130894,
      "Marginal Workers - Persons": 100285,
      "Deliveries at home conducted by skilled health personnel in percentage DLHS-4": 1.1,
      "Villages with Sub-Health Centres within 3km in percentage DLHS-4": 80,
      "Upper Primary New Government Schools since 2003 in percentage DISE": 0,
      "0-6 Age Group Males": 51529,
      "Primary Schools with drinking water facility in percentage DISE": 100,
      "Non Workers - Persons": 539098,
      "Person Literates": 565279,
      "State": "KARNATAKA",
      "Total Female Population": 508560,
      "Marginal Workers worked for 0 - 3 moths during last year - Persons": 12112,
      "Marginal Workers Cultivators - Females": 4379,
      "Marginal Workers Other - Persons": 27829,
      "Sex Ratio": 993,
      "Scheduled Tribe Persons": 120219,
      "Marginal Workers Household Industry worked for 3 - 6 moths during last year - Males": 1203,
      "Marginal Workers Agricultural Labourers - Females": 30985,
      "Mean age at marriage for girls DLHS-4": 20.7,
      "Households with solar energy as main source of lighting  Houselisting and Housing Census Data Tables- District Level , Census of India__4": 620,
      "District": "CHAMARAJANAGAR",
      "Households receiving treated tap water within premises in percentage Houselisting and Housing Census Data Tables- District Level , Census of India__1": 16.63117634,
      "Total Workers  Persons": 481693,
      "Households receiving treated tap water within premises  Houselisting and Housing Census Data Tables- District Level , Census of India__4": 40613,
      "Primary Female Teachers in percentage DISE": 45.6,
      "Number of Households": 244874,
      "Main Workers Agricultural Labourers - Persons": 154300
    }
  ],
  "Rural": [
    {
      "Marginal Workers Agricultural Labourers - Persons": 58106,
      "Marginal Workers Other - Females": 8317,
      "Marginal Workers Other worked for 0 - 3 moths during last year - Females": 1771,
      "Upper Primary Schools with boys toilet in percentage DISE": "NA",
      "Total Population": 845817,
      "Households with electricity as main source of lighting in percentage Houselisting and Housing Census Data Tables- District Level , Census of India": 85.64452166,
      "Primary Girl's Enrolment in percentage DISE": "NA",
      "Marginal Workers worked for 3 - 6 moths during last year - Males": 41493,
      "Prevalence of Acute illness in percentage DLHS-4": 6.2,
      "Main Workers - Persons": 323531,
      "Main Workers Cultivators - Females": 17982,
      "Marginal Workers Agricultural Labourers worked for 3 - 6 moths during last year - Females": 27801,
      "Marginal Workers Other worked for 0 - 3 moths during last year - Males": 2108,
      "Upper Primary Schools with drinking water facility in percentage DISE": "NA",
      "Primary Schools with girls toilet in percentage DISE": "NA",
      "Marginal Workers worked for 3 - 6 moths during last year - Persons": 81338,
      "Upper Primary Drop Out Rate in percentage DISE": "NA",
      "Prevalence of Anaemia in pregnant women aged 15-49years in percentage DLHS-4": 73.3,
      "Current use of any modern method of family planning in percentage DLHS-4": 75.3,
      "Marginal Workers Agricultural Labourers - Males": 27969,
      "Upper Primary Female Teachers in percentage DISE": "NA",
      "Marginal Workers - Females": 44790,
      "Marginal Workers Other worked for 3 - 6 moths during last year - Persons": 17044,
      "Main Workers Agricultural Labourers - Females": 58756,
      "Marginal Workers Cultivators worked for 3 - 6 moths during last year - Females": 3951,
      "Households with no lighting  Houselisting and Housing Census Data Tables- District Level , Census of India__5": 895,
      "Prevalence of Severe Anaemia  in percentage DLHS-4": 16.2,
      "Total unmet need for family planning in percentage DLHS-4": 12.5,
      "Main Workers Other - Males": 49676,
      "Children who received full vaccination in percentage DLHS-4": 86.2,
      "Marginal Workers Household Industry - Persons": 3283,
      "Primary Pupil-Teacher Ratio in percentage DISE": "NA",
      "Marginal Workers Agricultural Labourers worked for 3 - 6 moths during last year - Males": 25953,
      "Scheduled Caste Females": 109764,
      "Marginal Workers Cultivators - Males": 4192,
      "Marginal Workers - Males": 46072,
      "Marginal Workers worked for 0 - 3 moths during last year - Females": 4945,
      "Households with main source of drinking water within premises in percentage Houselisting and Housing Census Data Tables- District Level , Census of India": 26.52737696,
      "Marginal Workers Household Industry worked for 3 - 6 moths during last year - Persons": 2610,
      "Upper Primary Girl's Enrolment in percentage DISE": "NA",
      "Prevalence of Severe Anaemia in women aged 15-49years in percentage DLHS-4": 9.2,
      "Marginal Workers Agricultural Labourers worked for 0 - 3 moths during last year - Males": 2016,
      "Households with electricity as main source of lighting  Houselisting and Housing Census Data Tables- District Level , Census of India__3": 174499,
      "Households with computer or laptop with internet connection in percentage": 0.33,
      "PHCs functioning on a 24x7hours basis in percentage DLHS-4": "Not applicable",
      "Non Workers - Males": 151437,
      "Total Households in District Houselisting and Housing Census Data Tables- District Level , Census of India": 203748,
      "Upper Primary Schools with girls toilet in percentage DISE": "NA",
      "Households with mobile phone in percentage": 41.21,
      "Households receiving untreated tap water within premises in percentage Houselisting and Housing Census Data Tables- District Level , Census of India__2": 10.1537193,
      "Marginal Workers Cultivators worked for 3 - 6 moths during last year - Males": 3979,
      "Prevalence of Anaemia  in percentage DLHS-4": 81,
      "Prevalence of Chronic illness in percentage DLHS-4": 6.1,
      "Households with solar energy as main source of lighting in percentage Houselisting and Housing Census Data Tables- District Level , Census of India__1": 0.283192964,
      "Marginal Workers Agricultural Labourers worked for 0 - 3 moths during last year - Females": 2336,
      "Main Workers - Males": 227375,
      "Female": "NA",
      "Sno": 784,
      "Marginal Workers Other worked for 3 - 6 moths during last year - Females": 6546,
      "Marginal Workers Cultivators worked for 0 - 3 moths during last year - Females": 407,
      "Scheduled Tribe Males": 47749,
      "Male Illiterates": 176975,
      "Prevalence of Severe Anaemia in pregnant women aged 15-49years in percentage DLHS-4": 6.9,
      "0-6 Age Group Persons": 82603,
      "Upper Primary Student-Classroom Ratio in percentage DISE": "NA",
      "Currently married men married below 21years of age in percentage DLHS-4": 5.6,
      "Male Literates": 247909,
      "Households with no lighting in percentage Houselisting and Housing Census Data Tables- District Level , Census of India__2": 0.439268116,
      "Primary Drop Out Rate in percentage DISE": "NA",
      "Marginal Workers Household Industry - Males": 1305,
      "Female Illiterates": 226582,
      "Main Workers Other - Females": 16203,
      "Marginal Workers Cultivators - Persons": 8550,
      "Upper Primary Gross Enrolment Ratio in percentage DISE": "NA",
      "Scheduled Caste Persons": 221650,
      "Marginal Workers Cultivators worked for 3 - 6 moths during last year - Persons": 7930,
      "Households with landline phone in percentage": 3.8,
      "Total Households in District  Houselisting and Housing Census Data Tables- District Level , Census of India": 203748,
      "Upper Primary Pupil-Teacher Ratio in percentage DISE": "NA",
      "Primary Student-Classroom Ratio in percentage DISE": "NA",
      "Primary Schools with boys toilet in percentage DISE": "NA",
      "Mean number of children ever born to women aged 40-49years  DLHS-4": 2.9,
      "Households receiving untreated tap water within premises  Houselisting and Housing Census Data Tables- District Level , Census of India__5": 20688,
      "Marginal Workers Household Industry worked for 0 - 3 moths during last year - Persons": 673,
      "Total Male Population": 424884,
      "Non Workers - Females": 279987,
      "Current use of family planning methods in percentage DLHS-4": 75.6,
      "Households with main source of drinking water within premises  Houselisting and Housing Census Data Tables- District Level , Census of India__3": 54049,
      "Main Workers Agricultural Labourers - Males": 89699,
      "Marginal Workers Other worked for 0 - 3 moths during last year - Persons": 3879,
      "Currently married women married below 18years of age in percentage DLHS-4": 25.3,
      "Person Illiterates": 403557,
      "Main Workers Household Industry - Females": 3215,
      "Female Literates": 194351,
      "Marginal Workers Cultivators worked for 0 - 3 moths during last year - Males": 213,
      "Male": "NA",
      "Households with improved source of drinking water in percentage DLHS-4": 99.2,
      "Upper Primary Schools with electricity in percentage DISE": "NA",
      "Households with electricity in percentage DLHS-4": 94.8,
      "Villages with Primary Health Centre within 10km in percentage DLHS-4": "Not applicable",
      "Births to women aged 15-19years out of Total births in percentage DLHS-4": 13.8,
      "Prevalence of Anaemia in women aged 15-49years in percentage DLHS-4": 71.7,
      "Marginal Workers Agricultural Labourers worked for 3 - 6 moths during last year - Persons": 53754,
      "Main Workers Household Industry - Males": 4433,
      "Scheduled Tribe Females": 48685,
      "Marginal Workers worked for 0 - 3 moths during last year - Males": 4579,
      "Marginal Workers Other worked for 3 - 6 moths during last year - Males": 10498,
      "Primary Net Enrolment Ratio in percentage DISE": "NA",
      "Total": "NA",
      "Mean age at marriage for boys DLHS-4": 26,
      "Number of District Hospitals  DLHS-4": "Not applicable",
      "0-6 Age Group Females": 40322,
      "Marginal Workers Agricultural Labourers worked for 0 - 3 moths during last year - Persons": 4352,
      "Marginal Workers Household Industry worked for 0 - 3 moths during last year - Males": 242,
      "Total Workers  Females": 140946,
      "Marginal Workers worked for 3 - 6 moths during last year - Females": 39845,
      "Institutional Deliveries in percentage DLHS-4": 91.8,
      "Marginal Workers Other - Males": 12606,
      "Total Workers  Males": 273447,
      "Main Workers - Females": 96156,
      "Primary Gross Enrolment Ratio in percentage DISE": "NA",
      "Main Workers Cultivators - Persons": 101549,
      "Marginal Workers Household Industry worked for 0 - 3 moths during last year - Females": 431,
      "Upper Primary Net Enrolment Ratio in percentage DISE": "NA",
      "Primary New Government Schools since 2003 in percentage DISE": "NA",
      "Tier": "Rural",
      "Marginal Workers Household Industry - Females": 1978,
      "Primary Schools with electricity in percentage DISE": "NA",
      "Main Workers Other - Persons": 65879,
      "Marginal Workers Household Industry worked for 3 - 6 moths during last year - Females": 1547,
      "Main Workers Cultivators - Males": 83567,
      "Main Workers Household Industry - Persons": 7648,
      "Marginal Workers Cultivators worked for 0 - 3 moths during last year - Persons": 620,
      "Scheduled Caste Males": 111886,
      "Marginal Workers - Persons": 90862,
      "Deliveries at home conducted by skilled health personnel in percentage DLHS-4": 2.5,
      "Villages with Sub-Health Centres within 3km in percentage DLHS-4": "Not applicable",
      "Upper Primary New Government Schools since 2003 in percentage DISE": "NA",
      "0-6 Age Group Males": 42281,
      "Primary Schools with drinking water facility in percentage DISE": "NA",
      "Non Workers - Persons": 431424,
      "Person Literates": 442260,
      "State": "KARNATAKA",
      "Total Female Population": 420933,
      "Marginal Workers worked for 0 - 3 moths during last year - Persons": 9524,
      "Marginal Workers Cultivators - Females": 4358,
      "Marginal Workers Other - Persons": 20923,
      "Sex Ratio": 991,
      "Scheduled Tribe Persons": 96434,
      "Marginal Workers Household Industry worked for 3 - 6 moths during last year - Males": 1063,
      "Marginal Workers Agricultural Labourers - Females": 30137,
      "Mean age at marriage for girls DLHS-4": 19.3,
      "Households with solar energy as main source of lighting  Houselisting and Housing Census Data Tables- District Level , Census of India__4": 577,
      "District": "CHAMARAJANAGAR",
      "Households receiving treated tap water within premises in percentage Houselisting and Housing Census Data Tables- District Level , Census of India__1": 10.28868995,
      "Total Workers  Persons": 414393,
      "Households receiving treated tap water within premises  Houselisting and Housing Census Data Tables- District Level , Census of India__4": 20963,
      "Primary Female Teachers in percentage DISE": "NA",
      "Number of Households": 204137,
      "Main Workers Agricultural Labourers - Persons": 148455
    }
  ],
  "Urban": [
    {
      "Marginal Workers Agricultural Labourers - Persons": 1897,
      "Marginal Workers Other - Females": 2137,
      "Marginal Workers Other worked for 0 - 3 moths during last year - Females": 617,
      "Upper Primary Schools with boys toilet in percentage DISE": "NA",
      "Total Population": 174974,
      "Households with electricity as main source of lighting in percentage Houselisting and Housing Census Data Tables- District Level , Census of India": 93.09517923,
      "Primary Girl's Enrolment in percentage DISE": "NA",
      "Marginal Workers worked for 3 - 6 moths during last year - Males": 4347,
      "Prevalence of Acute illness in percentage DLHS-4": "Not available",
      "Main Workers - Persons": 57877,
      "Main Workers Cultivators - Females": 131,
      "Marginal Workers Agricultural Labourers worked for 3 - 6 moths during last year - Females": 734,
      "Marginal Workers Other worked for 0 - 3 moths during last year - Males": 1526,
      "Upper Primary Schools with drinking water facility in percentage DISE": "NA",
      "Primary Schools with girls toilet in percentage DISE": "NA",
      "Marginal Workers worked for 3 - 6 moths during last year - Persons": 6835,
      "Upper Primary Drop Out Rate in percentage DISE": "NA",
      "Prevalence of Anaemia in pregnant women aged 15-49years in percentage DLHS-4": "Not available",
      "Current use of any modern method of family planning in percentage DLHS-4": "Not available",
      "Marginal Workers Agricultural Labourers - Males": 1049,
      "Upper Primary Female Teachers in percentage DISE": "NA",
      "Marginal Workers - Females": 3290,
      "Marginal Workers Other worked for 3 - 6 moths during last year - Persons": 4763,
      "Main Workers Agricultural Labourers - Females": 1827,
      "Marginal Workers Cultivators worked for 3 - 6 moths during last year - Females": 18,
      "Households with no lighting  Houselisting and Housing Census Data Tables- District Level , Census of India__5": 278,
      "Prevalence of Severe Anaemia  in percentage DLHS-4": "Not available",
      "Total unmet need for family planning in percentage DLHS-4": "Not available",
      "Main Workers Other - Males": 36821,
      "Children who received full vaccination in percentage DLHS-4": "Not available",
      "Marginal Workers Household Industry - Persons": 483,
      "Primary Pupil-Teacher Ratio in percentage DISE": "NA",
      "Marginal Workers Agricultural Labourers worked for 3 - 6 moths during last year - Males": 855,
      "Scheduled Caste Females": 18787,
      "Marginal Workers Cultivators - Males": 116,
      "Marginal Workers - Males": 6133,
      "Marginal Workers worked for 0 - 3 moths during last year - Females": 802,
      "Households with main source of drinking water within premises in percentage Houselisting and Housing Census Data Tables- District Level , Census of India": 56.95426452,
      "Marginal Workers Household Industry worked for 3 - 6 moths during last year - Persons": 356,
      "Upper Primary Girl's Enrolment in percentage DISE": "NA",
      "Prevalence of Severe Anaemia in women aged 15-49years in percentage DLHS-4": "Not available",
      "Marginal Workers Agricultural Labourers worked for 0 - 3 moths during last year - Males": 194,
      "Households with electricity as main source of lighting  Houselisting and Housing Census Data Tables- District Level , Census of India__3": 37657,
      "Households with computer or laptop with internet connection in percentage": 1.62,
      "PHCs functioning on a 24x7hours basis in percentage DLHS-4": 0,
      "Non Workers - Males": 36468,
      "Total Households in District Houselisting and Housing Census Data Tables- District Level , Census of India": 40450,
      "Upper Primary Schools with girls toilet in percentage DISE": "NA",
      "Households with mobile phone in percentage": 57.01,
      "Households receiving untreated tap water within premises in percentage Houselisting and Housing Census Data Tables- District Level , Census of India__2": 5.500618047,
      "Marginal Workers Cultivators worked for 3 - 6 moths during last year - Males": 109,
      "Prevalence of Anaemia  in percentage DLHS-4": "Not available",
      "Prevalence of Chronic illness in percentage DLHS-4": "Not available",
      "Households with solar energy as main source of lighting in percentage Houselisting and Housing Census Data Tables- District Level , Census of India__1": 0.106304079,
      "Marginal Workers Agricultural Labourers worked for 0 - 3 moths during last year - Females": 114,
      "Main Workers - Males": 44746,
      "Female": "NA",
      "Sno": 786,
      "Marginal Workers Other worked for 3 - 6 moths during last year - Females": 1520,
      "Marginal Workers Cultivators worked for 0 - 3 moths during last year - Females": 3,
      "Scheduled Tribe Males": 11620,
      "Male Illiterates": 22299,
      "Prevalence of Severe Anaemia in pregnant women aged 15-49years in percentage DLHS-4": "Not available",
      "0-6 Age Group Persons": 18045,
      "Upper Primary Student-Classroom Ratio in percentage DISE": "NA",
      "Currently married men married below 21years of age in percentage DLHS-4": "Not available",
      "Male Literates": 65048,
      "Households with no lighting in percentage Houselisting and Housing Census Data Tables- District Level , Census of India__2": 0.687268232,
      "Primary Drop Out Rate in percentage DISE": "NA",
      "Marginal Workers Household Industry - Males": 199,
      "Female Illiterates": 29656,
      "Main Workers Other - Females": 9749,
      "Marginal Workers Cultivators - Persons": 137,
      "Upper Primary Gross Enrolment Ratio in percentage DISE": "NA",
      "Scheduled Caste Persons": 37795,
      "Marginal Workers Cultivators worked for 3 - 6 moths during last year - Persons": 127,
      "Households with landline phone in percentage": 5.97,
      "Total Households in District  Houselisting and Housing Census Data Tables- District Level , Census of India": 40450,
      "Upper Primary Pupil-Teacher Ratio in percentage DISE": "NA",
      "Primary Student-Classroom Ratio in percentage DISE": "NA",
      "Primary Schools with boys toilet in percentage DISE": "NA",
      "Mean number of children ever born to women aged 40-49years  DLHS-4": "Not available",
      "Households receiving untreated tap water within premises  Houselisting and Housing Census Data Tables- District Level , Census of India__5": 2225,
      "Marginal Workers Household Industry worked for 0 - 3 moths during last year - Persons": 127,
      "Total Male Population": 87347,
      "Non Workers - Females": 71206,
      "Current use of family planning methods in percentage DLHS-4": "Not available",
      "Households with main source of drinking water within premises  Houselisting and Housing Census Data Tables- District Level , Census of India__3": 23038,
      "Main Workers Agricultural Labourers - Males": 4018,
      "Marginal Workers Other worked for 0 - 3 moths during last year - Persons": 2143,
      "Currently married women married below 18years of age in percentage DLHS-4": "Not available",
      "Person Illiterates": 51955,
      "Main Workers Household Industry - Females": 1424,
      "Female Literates": 57971,
      "Marginal Workers Cultivators worked for 0 - 3 moths during last year - Males": 7,
      "Male": "NA",
      "Households with improved source of drinking water in percentage DLHS-4": "Not available",
      "Upper Primary Schools with electricity in percentage DISE": "NA",
      "Households with electricity in percentage DLHS-4": "Not available",
      "Villages with Primary Health Centre within 10km in percentage DLHS-4": 0,
      "Births to women aged 15-19years out of Total births in percentage DLHS-4": "Not available",
      "Prevalence of Anaemia in women aged 15-49years in percentage DLHS-4": "Not available",
      "Marginal Workers Agricultural Labourers worked for 3 - 6 moths during last year - Persons": 1589,
      "Main Workers Household Industry - Males": 1169,
      "Scheduled Tribe Females": 12165,
      "Marginal Workers worked for 0 - 3 moths during last year - Males": 1786,
      "Marginal Workers Other worked for 3 - 6 moths during last year - Males": 3243,
      "Primary Net Enrolment Ratio in percentage DISE": "NA",
      "Total": "NA",
      "Mean age at marriage for boys DLHS-4": "Not available",
      "Number of District Hospitals  DLHS-4": 0,
      "0-6 Age Group Females": 8797,
      "Marginal Workers Agricultural Labourers worked for 0 - 3 moths during last year - Persons": 308,
      "Marginal Workers Household Industry worked for 0 - 3 moths during last year - Males": 59,
      "Total Workers  Females": 16421,
      "Marginal Workers worked for 3 - 6 moths during last year - Females": 2488,
      "Institutional Deliveries in percentage DLHS-4": "Not available",
      "Marginal Workers Other - Males": 4769,
      "Total Workers  Males": 50879,
      "Main Workers - Females": 13131,
      "Primary Gross Enrolment Ratio in percentage DISE": "NA",
      "Main Workers Cultivators - Persons": 2869,
      "Marginal Workers Household Industry worked for 0 - 3 moths during last year - Females": 68,
      "Upper Primary Net Enrolment Ratio in percentage DISE": "NA",
      "Primary New Government Schools since 2003 in percentage DISE": "NA",
      "Tier": "Urban",
      "Marginal Workers Household Industry - Females": 284,
      "Primary Schools with electricity in percentage DISE": "NA",
      "Main Workers Other - Persons": 46570,
      "Marginal Workers Household Industry worked for 3 - 6 moths during last year - Females": 216,
      "Main Workers Cultivators - Males": 2738,
      "Main Workers Household Industry - Persons": 2593,
      "Marginal Workers Cultivators worked for 0 - 3 moths during last year - Persons": 10,
      "Scheduled Caste Males": 19008,
      "Marginal Workers - Persons": 9423,
      "Deliveries at home conducted by skilled health personnel in percentage DLHS-4": "Not available",
      "Villages with Sub-Health Centres within 3km in percentage DLHS-4": 0,
      "Upper Primary New Government Schools since 2003 in percentage DISE": "NA",
      "0-6 Age Group Males": 9248,
      "Primary Schools with drinking water facility in percentage DISE": "NA",
      "Non Workers - Persons": 107674,
      "Person Literates": 123019,
      "State": "KARNATAKA",
      "Total Female Population": 87627,
      "Marginal Workers worked for 0 - 3 moths during last year - Persons": 2588,
      "Marginal Workers Cultivators - Females": 21,
      "Marginal Workers Other - Persons": 6906,
      "Sex Ratio": 1003,
      "Scheduled Tribe Persons": 23785,
      "Marginal Workers Household Industry worked for 3 - 6 moths during last year - Males": 140,
      "Marginal Workers Agricultural Labourers - Females": 848,
      "Mean age at marriage for girls DLHS-4": "Not available",
      "Households with solar energy as main source of lighting  Houselisting and Housing Census Data Tables- District Level , Census of India__4": 43,
      "District": "CHAMARAJANAGAR",
      "Households receiving treated tap water within premises in percentage Houselisting and Housing Census Data Tables- District Level , Census of India__1": 48.57849197,
      "Total Workers  Persons": 67300,
      "Households receiving treated tap water within premises  Houselisting and Housing Census Data Tables- District Level , Census of India__4": 19650,
      "Primary Female Teachers in percentage DISE": "NA",
      "Number of Households": 40737,
      "Main Workers Agricultural Labourers - Persons": 5845
    }
  ]
}