{
  "Total": [
    {
      "Marginal Workers Agricultural Labourers - Persons": 34563,
      "Marginal Workers Other - Females": 14239,
      "Marginal Workers Other worked for 0 - 3 moths during last year - Females": 2786,
      "Upper Primary Schools with boys toilet in percentage DISE": 100,
      "Total Population": 1137961,
      "Households with electricity as main source of lighting in percentage Houselisting and Housing Census Data Tables- District Level , Census of India": 87.62992655,
      "Primary Girl's Enrolment in percentage DISE": 49.1,
      "Marginal Workers worked for 3 - 6 moths during last year - Males": 27547,
      "Prevalence of Acute illness in percentage DLHS-4": 8.6,
      "Main Workers - Persons": 480229,
      "Main Workers Cultivators - Females": 30016,
      "Marginal Workers Agricultural Labourers worked for 3 - 6 moths during last year - Females": 21468,
      "Marginal Workers Other worked for 0 - 3 moths during last year - Males": 2334,
      "Upper Primary Schools with drinking water facility in percentage DISE": 100,
      "Primary Schools with girls toilet in percentage DISE": 99.4,
      "Marginal Workers worked for 3 - 6 moths during last year - Persons": 75529,
      "Upper Primary Drop Out Rate in percentage DISE": 3.61,
      "Prevalence of Anaemia in pregnant women aged 15-49years in percentage DLHS-4": 72.1,
      "Current use of any modern method of family planning in percentage DLHS-4": 70.6,
      "Marginal Workers Agricultural Labourers - Males": 11217,
      "Upper Primary Female Teachers in percentage DISE": 41.7,
      "Marginal Workers - Females": 53911,
      "Marginal Workers Other worked for 3 - 6 moths during last year - Persons": 23823,
      "Main Workers Agricultural Labourers - Females": 44021,
      "Marginal Workers Cultivators worked for 3 - 6 moths during last year - Females": 13814,
      "Households with no lighting  Houselisting and Housing Census Data Tables- District Level , Census of India__5": 1250,
      "Prevalence of Severe Anaemia  in percentage DLHS-4": 10.2,
      "Total unmet need for family planning in percentage DLHS-4": 16,
      "Main Workers Other - Males": 167760,
      "Children who received full vaccination in percentage DLHS-4": 81.9,
      "Marginal Workers Household Industry - Persons": 2568,
      "Primary Pupil-Teacher Ratio in percentage DISE": 10,
      "Marginal Workers Agricultural Labourers worked for 3 - 6 moths during last year - Males": 10180,
      "Scheduled Caste Females": 128635,
      "Marginal Workers Cultivators - Males": 4687,
      "Marginal Workers - Males": 31634,
      "Marginal Workers worked for 0 - 3 moths during last year - Females": 5929,
      "Households with main source of drinking water within premises in percentage Houselisting and Housing Census Data Tables- District Level , Census of India": 79.28006941,
      "Marginal Workers Household Industry worked for 3 - 6 moths during last year - Persons": 2069,
      "Upper Primary Girl's Enrolment in percentage DISE": 57.7,
      "Prevalence of Severe Anaemia in women aged 15-49years in percentage DLHS-4": 6.7,
      "Marginal Workers Agricultural Labourers worked for 0 - 3 moths during last year - Males": 1037,
      "Households with electricity as main source of lighting  Houselisting and Housing Census Data Tables- District Level , Census of India__3": 238505,
      "Households with computer or laptop with internet connection in percentage": 1.66,
      "PHCs functioning on a 24x7hours basis in percentage DLHS-4": 30.3,
      "Non Workers - Males": 208733,
      "Total Households in District Houselisting and Housing Census Data Tables- District Level , Census of India": 272173,
      "Upper Primary Schools with girls toilet in percentage DISE": 100,
      "Households with mobile phone in percentage": 45.23,
      "Households receiving untreated tap water within premises in percentage Houselisting and Housing Census Data Tables- District Level , Census of India__2": 8.804089435,
      "Marginal Workers Cultivators worked for 3 - 6 moths during last year - Males": 4175,
      "Prevalence of Anaemia  in percentage DLHS-4": 80.4,
      "Prevalence of Chronic illness in percentage DLHS-4": 11.8,
      "Households with solar energy as main source of lighting in percentage Houselisting and Housing Census Data Tables- District Level , Census of India__1": 0.39754127,
      "Marginal Workers Agricultural Labourers worked for 0 - 3 moths during last year - Females": 1878,
      "Main Workers - Males": 326255,
      "Female": 73.16,
      "Sno": 791,
      "Marginal Workers Other worked for 3 - 6 moths during last year - Females": 11453,
      "Marginal Workers Cultivators worked for 0 - 3 moths during last year - Females": 970,
      "Scheduled Tribe Males": 21990,
      "Male Illiterates": 128365,
      "Prevalence of Severe Anaemia in pregnant women aged 15-49years in percentage DLHS-4": 10.9,
      "0-6 Age Group Persons": 105328,
      "Upper Primary Student-Classroom Ratio in percentage DISE": 46,
      "Currently married men married below 21years of age in percentage DLHS-4": 6.1,
      "Male Literates": 438257,
      "Households with no lighting in percentage Houselisting and Housing Census Data Tables- District Level , Census of India__2": 0.459266716,
      "Primary Drop Out Rate in percentage DISE": 3.5,
      "Marginal Workers Household Industry - Males": 1026,
      "Female Illiterates": 191251,
      "Main Workers Other - Females": 78206,
      "Marginal Workers Cultivators - Persons": 19471,
      "Upper Primary Gross Enrolment Ratio in percentage DISE": 84.9,
      "Scheduled Caste Persons": 253651,
      "Marginal Workers Cultivators worked for 3 - 6 moths during last year - Persons": 17989,
      "Households with landline phone in percentage": 14.07,
      "Total Households in District  Houselisting and Housing Census Data Tables- District Level , Census of India": 272173,
      "Upper Primary Pupil-Teacher Ratio in percentage DISE": 30,
      "Primary Student-Classroom Ratio in percentage DISE": 9,
      "Primary Schools with boys toilet in percentage DISE": 98.6,
      "Mean number of children ever born to women aged 40-49years  DLHS-4": 2.5,
      "Households receiving untreated tap water within premises  Houselisting and Housing Census Data Tables- District Level , Census of India__5": 37443,
      "Marginal Workers Household Industry worked for 0 - 3 moths during last year - Persons": 499,
      "Total Male Population": 566622,
      "Non Workers - Females": 363454,
      "Current use of family planning methods in percentage DLHS-4": 71.8,
      "Households with main source of drinking water within premises  Houselisting and Housing Census Data Tables- District Level , Census of India__3": 337171,
      "Main Workers Agricultural Labourers - Males": 48016,
      "Marginal Workers Other worked for 0 - 3 moths during last year - Persons": 5120,
      "Currently married women married below 18years of age in percentage DLHS-4": 4.7,
      "Person Illiterates": 319616,
      "Main Workers Household Industry - Females": 1731,
      "Female Literates": 380088,
      "Marginal Workers Cultivators worked for 0 - 3 moths during last year - Males": 512,
      "Male": 85.41,
      "Households with improved source of drinking water in percentage DLHS-4": 92.5,
      "Upper Primary Schools with electricity in percentage DISE": 100,
      "Households with electricity in percentage DLHS-4": 96.3,
      "Villages with Primary Health Centre within 10km in percentage DLHS-4": 84.1,
      "Births to women aged 15-19years out of Total births in percentage DLHS-4": 2.2,
      "Prevalence of Anaemia in women aged 15-49years in percentage DLHS-4": 64.5,
      "Marginal Workers Agricultural Labourers worked for 3 - 6 moths during last year - Persons": 31648,
      "Main Workers Household Industry - Males": 4574,
      "Scheduled Tribe Females": 22980,
      "Marginal Workers worked for 0 - 3 moths during last year - Males": 4087,
      "Marginal Workers Other worked for 3 - 6 moths during last year - Males": 12370,
      "Primary Net Enrolment Ratio in percentage DISE": 91.1,
      "Total": 79.25,
      "Mean age at marriage for boys DLHS-4": 27.1,
      "Number of District Hospitals  DLHS-4": 1,
      "0-6 Age Group Females": 51835,
      "Marginal Workers Agricultural Labourers worked for 0 - 3 moths during last year - Persons": 2915,
      "Marginal Workers Household Industry worked for 0 - 3 moths during last year - Males": 204,
      "Total Workers  Females": 207885,
      "Marginal Workers worked for 3 - 6 moths during last year - Females": 47982,
      "Institutional Deliveries in percentage DLHS-4": 97.7,
      "Marginal Workers Other - Males": 14704,
      "Total Workers  Males": 357889,
      "Main Workers - Females": 153974,
      "Primary Gross Enrolment Ratio in percentage DISE": 96.7,
      "Main Workers Cultivators - Persons": 135921,
      "Marginal Workers Household Industry worked for 0 - 3 moths during last year - Females": 295,
      "Upper Primary Net Enrolment Ratio in percentage DISE": 74.9,
      "Primary New Government Schools since 2003 in percentage DISE": 10.2,
      "Tier": "Total",
      "Marginal Workers Household Industry - Females": 1542,
      "Primary Schools with electricity in percentage DISE": 97.1,
      "Main Workers Other - Persons": 245966,
      "Marginal Workers Household Industry worked for 3 - 6 moths during last year - Females": 1247,
      "Main Workers Cultivators - Males": 105905,
      "Main Workers Household Industry - Persons": 6305,
      "Marginal Workers Cultivators worked for 0 - 3 moths during last year - Persons": 1482,
      "Scheduled Caste Males": 125016,
      "Marginal Workers - Persons": 85545,
      "Deliveries at home conducted by skilled health personnel in percentage DLHS-4": 0,
      "Villages with Sub-Health Centres within 3km in percentage DLHS-4": 72.7,
      "Upper Primary New Government Schools since 2003 in percentage DISE": 0,
      "0-6 Age Group Males": 53493,
      "Primary Schools with drinking water facility in percentage DISE": 99.7,
      "Non Workers - Persons": 572187,
      "Person Literates": 818345,
      "State": "KARNATAKA",
      "Total Female Population": 571339,
      "Marginal Workers worked for 0 - 3 moths during last year - Persons": 10016,
      "Marginal Workers Cultivators - Females": 14784,
      "Marginal Workers Other - Persons": 28943,
      "Sex Ratio": 1008,
      "Scheduled Tribe Persons": 44970,
      "Marginal Workers Household Industry worked for 3 - 6 moths during last year - Males": 822,
      "Marginal Workers Agricultural Labourers - Females": 23346,
      "Mean age at marriage for girls DLHS-4": 22.4,
      "Households with solar energy as main source of lighting  Houselisting and Housing Census Data Tables- District Level , Census of India__4": 1082,
      "District": "CHIKMAGALUR",
      "Households receiving treated tap water within premises in percentage Houselisting and Housing Census Data Tables- District Level , Census of India__1": 28.48496676,
      "Total Workers  Persons": 565774,
      "Households receiving treated tap water within premises  Houselisting and Housing Census Data Tables- District Level , Census of India__4": 121144,
      "Primary Female Teachers in percentage DISE": 42.9,
      "Number of Households": 276085,
      "Main Workers Agricultural Labourers - Persons": 92037
    }
  ],
  "Rural": [
    {
      "Marginal Workers Agricultural Labourers - Persons": 33100,
      "Marginal Workers Other - Females": 10428,
      "Marginal Workers Other worked for 0 - 3 moths during last year - Females": 2263,
      "Upper Primary Schools with boys toilet in percentage DISE": "NA",
      "Total Population": 898453,
      "Households with electricity as main source of lighting in percentage Houselisting and Housing Census Data Tables- District Level , Census of India": 85.32651602,
      "Primary Girl's Enrolment in percentage DISE": "NA",
      "Marginal Workers worked for 3 - 6 moths during last year - Males": 22012,
      "Prevalence of Acute illness in percentage DLHS-4": 9.8,
      "Main Workers - Persons": 398443,
      "Main Workers Cultivators - Females": 29667,
      "Marginal Workers Agricultural Labourers worked for 3 - 6 moths during last year - Females": 20911,
      "Marginal Workers Other worked for 0 - 3 moths during last year - Males": 1799,
      "Upper Primary Schools with drinking water facility in percentage DISE": "NA",
      "Primary Schools with girls toilet in percentage DISE": "NA",
      "Marginal Workers worked for 3 - 6 moths during last year - Persons": 65808,
      "Upper Primary Drop Out Rate in percentage DISE": "NA",
      "Prevalence of Anaemia in pregnant women aged 15-49years in percentage DLHS-4": 76.3,
      "Current use of any modern method of family planning in percentage DLHS-4": 73.8,
      "Marginal Workers Agricultural Labourers - Males": 10483,
      "Upper Primary Female Teachers in percentage DISE": "NA",
      "Marginal Workers - Females": 48996,
      "Marginal Workers Other worked for 3 - 6 moths during last year - Persons": 15965,
      "Main Workers Agricultural Labourers - Females": 42329,
      "Marginal Workers Cultivators worked for 3 - 6 moths during last year - Females": 13744,
      "Households with no lighting  Houselisting and Housing Census Data Tables- District Level , Census of India__5": 1150,
      "Prevalence of Severe Anaemia  in percentage DLHS-4": 10.2,
      "Total unmet need for family planning in percentage DLHS-4": 13.5,
      "Main Workers Other - Males": 110681,
      "Children who received full vaccination in percentage DLHS-4": 84.2,
      "Marginal Workers Household Industry - Persons": 1997,
      "Primary Pupil-Teacher Ratio in percentage DISE": "NA",
      "Marginal Workers Agricultural Labourers worked for 3 - 6 moths during last year - Males": 9594,
      "Scheduled Caste Females": 110627,
      "Marginal Workers Cultivators - Males": 4542,
      "Marginal Workers - Males": 25379,
      "Marginal Workers worked for 0 - 3 moths during last year - Females": 5200,
      "Households with main source of drinking water within premises in percentage Houselisting and Housing Census Data Tables- District Level , Census of India": 72.18553844,
      "Marginal Workers Household Industry worked for 3 - 6 moths during last year - Persons": 1561,
      "Upper Primary Girl's Enrolment in percentage DISE": "NA",
      "Prevalence of Severe Anaemia in women aged 15-49years in percentage DLHS-4": 7.7,
      "Marginal Workers Agricultural Labourers worked for 0 - 3 moths during last year - Males": 889,
      "Households with electricity as main source of lighting  Houselisting and Housing Census Data Tables- District Level , Census of India__3": 183737,
      "Households with computer or laptop with internet connection in percentage": 1.09,
      "PHCs functioning on a 24x7hours basis in percentage DLHS-4": "Not applicable",
      "Non Workers - Males": 159848,
      "Total Households in District Houselisting and Housing Census Data Tables- District Level , Census of India": 215334,
      "Upper Primary Schools with girls toilet in percentage DISE": "NA",
      "Households with mobile phone in percentage": 39.8,
      "Households receiving untreated tap water within premises in percentage Houselisting and Housing Census Data Tables- District Level , Census of India__2": 9.718938797,
      "Marginal Workers Cultivators worked for 3 - 6 moths during last year - Males": 4033,
      "Prevalence of Anaemia  in percentage DLHS-4": 82.3,
      "Prevalence of Chronic illness in percentage DLHS-4": 10.9,
      "Households with solar energy as main source of lighting in percentage Houselisting and Housing Census Data Tables- District Level , Census of India__1": 0.474611534,
      "Marginal Workers Agricultural Labourers worked for 0 - 3 moths during last year - Females": 1706,
      "Main Workers - Males": 262318,
      "Female": "NA",
      "Sno": 790,
      "Marginal Workers Other worked for 3 - 6 moths during last year - Females": 8165,
      "Marginal Workers Cultivators worked for 0 - 3 moths during last year - Females": 965,
      "Scheduled Tribe Males": 19627,
      "Male Illiterates": 107359,
      "Prevalence of Severe Anaemia in pregnant women aged 15-49years in percentage DLHS-4": 15.1,
      "0-6 Age Group Persons": 82205,
      "Upper Primary Student-Classroom Ratio in percentage DISE": "NA",
      "Currently married men married below 21years of age in percentage DLHS-4": 9.2,
      "Male Literates": 340186,
      "Households with no lighting in percentage Houselisting and Housing Census Data Tables- District Level , Census of India__2": 0.534054074,
      "Primary Drop Out Rate in percentage DISE": "NA",
      "Marginal Workers Household Industry - Males": 755,
      "Female Illiterates": 163011,
      "Main Workers Other - Females": 62710,
      "Marginal Workers Cultivators - Persons": 19251,
      "Upper Primary Gross Enrolment Ratio in percentage DISE": "NA",
      "Scheduled Caste Persons": 218406,
      "Marginal Workers Cultivators worked for 3 - 6 moths during last year - Persons": 17777,
      "Households with landline phone in percentage": 15.89,
      "Total Households in District  Houselisting and Housing Census Data Tables- District Level , Census of India": 215334,
      "Upper Primary Pupil-Teacher Ratio in percentage DISE": "NA",
      "Primary Student-Classroom Ratio in percentage DISE": "NA",
      "Primary Schools with boys toilet in percentage DISE": "NA",
      "Mean number of children ever born to women aged 40-49years  DLHS-4": 2.7,
      "Households receiving untreated tap water within premises  Houselisting and Housing Census Data Tables- District Level , Census of India__5": 21460,
      "Marginal Workers Household Industry worked for 0 - 3 moths during last year - Persons": 436,
      "Total Male Population": 447545,
      "Non Workers - Females": 265787,
      "Current use of family planning methods in percentage DLHS-4": 74.8,
      "Households with main source of drinking water within premises  Houselisting and Housing Census Data Tables- District Level , Census of India__3": 159390,
      "Main Workers Agricultural Labourers - Males": 45197,
      "Marginal Workers Other worked for 0 - 3 moths during last year - Persons": 4062,
      "Currently married women married below 18years of age in percentage DLHS-4": 5.9,
      "Person Illiterates": 270370,
      "Main Workers Household Industry - Females": 1419,
      "Female Literates": 287897,
      "Marginal Workers Cultivators worked for 0 - 3 moths during last year - Males": 509,
      "Male": "NA",
      "Households with improved source of drinking water in percentage DLHS-4": 88.7,
      "Upper Primary Schools with electricity in percentage DISE": "NA",
      "Households with electricity in percentage DLHS-4": 95.3,
      "Villages with Primary Health Centre within 10km in percentage DLHS-4": "Not applicable",
      "Births to women aged 15-19years out of Total births in percentage DLHS-4": 3,
      "Prevalence of Anaemia in women aged 15-49years in percentage DLHS-4": 68.8,
      "Marginal Workers Agricultural Labourers worked for 3 - 6 moths during last year - Persons": 30505,
      "Main Workers Household Industry - Males": 3614,
      "Scheduled Tribe Females": 20515,
      "Marginal Workers worked for 0 - 3 moths during last year - Males": 3367,
      "Marginal Workers Other worked for 3 - 6 moths during last year - Males": 7800,
      "Primary Net Enrolment Ratio in percentage DISE": "NA",
      "Total": "NA",
      "Mean age at marriage for boys DLHS-4": 23.8,
      "Number of District Hospitals  DLHS-4": "Not applicable",
      "0-6 Age Group Females": 40491,
      "Marginal Workers Agricultural Labourers worked for 0 - 3 moths during last year - Persons": 2595,
      "Marginal Workers Household Industry worked for 0 - 3 moths during last year - Males": 170,
      "Total Workers  Females": 185121,
      "Marginal Workers worked for 3 - 6 moths during last year - Females": 43796,
      "Institutional Deliveries in percentage DLHS-4": 96.4,
      "Marginal Workers Other - Males": 9599,
      "Total Workers  Males": 287697,
      "Main Workers - Females": 136125,
      "Primary Gross Enrolment Ratio in percentage DISE": "NA",
      "Main Workers Cultivators - Persons": 132493,
      "Marginal Workers Household Industry worked for 0 - 3 moths during last year - Females": 266,
      "Upper Primary Net Enrolment Ratio in percentage DISE": "NA",
      "Primary New Government Schools since 2003 in percentage DISE": "NA",
      "Tier": "Rural",
      "Marginal Workers Household Industry - Females": 1242,
      "Primary Schools with electricity in percentage DISE": "NA",
      "Main Workers Other - Persons": 173391,
      "Marginal Workers Household Industry worked for 3 - 6 moths during last year - Females": 976,
      "Main Workers Cultivators - Males": 102826,
      "Main Workers Household Industry - Persons": 5033,
      "Marginal Workers Cultivators worked for 0 - 3 moths during last year - Persons": 1474,
      "Scheduled Caste Males": 107779,
      "Marginal Workers - Persons": 74375,
      "Deliveries at home conducted by skilled health personnel in percentage DLHS-4": 0,
      "Villages with Sub-Health Centres within 3km in percentage DLHS-4": "Not applicable",
      "Upper Primary New Government Schools since 2003 in percentage DISE": "NA",
      "0-6 Age Group Males": 41714,
      "Primary Schools with drinking water facility in percentage DISE": "NA",
      "Non Workers - Persons": 425635,
      "Person Literates": 628083,
      "State": "KARNATAKA",
      "Total Female Population": 450908,
      "Marginal Workers worked for 0 - 3 moths during last year - Persons": 8567,
      "Marginal Workers Cultivators - Females": 14709,
      "Marginal Workers Other - Persons": 20027,
      "Sex Ratio": 1008,
      "Scheduled Tribe Persons": 40142,
      "Marginal Workers Household Industry worked for 3 - 6 moths during last year - Males": 585,
      "Marginal Workers Agricultural Labourers - Females": 22617,
      "Mean age at marriage for girls DLHS-4": 22,
      "Households with solar energy as main source of lighting  Houselisting and Housing Census Data Tables- District Level , Census of India__4": 1022,
      "District": "CHIKMAGALUR",
      "Households receiving treated tap water within premises in percentage Houselisting and Housing Census Data Tables- District Level , Census of India__1": 10.0975517,
      "Total Workers  Persons": 472818,
      "Households receiving treated tap water within premises  Houselisting and Housing Census Data Tables- District Level , Census of India__4": 22296,
      "Primary Female Teachers in percentage DISE": "NA",
      "Number of Households": 218247,
      "Main Workers Agricultural Labourers - Persons": 87526
    }
  ],
  "Urban": [
    {
      "Marginal Workers Agricultural Labourers - Persons": 1463,
      "Marginal Workers Other - Females": 3811,
      "Marginal Workers Other worked for 0 - 3 moths during last year - Females": 523,
      "Upper Primary Schools with boys toilet in percentage DISE": "NA",
      "Total Population": 239508,
      "Households with electricity as main source of lighting in percentage Houselisting and Housing Census Data Tables- District Level , Census of India": 96.35637502,
      "Primary Girl's Enrolment in percentage DISE": "NA",
      "Marginal Workers worked for 3 - 6 moths during last year - Males": 5535,
      "Prevalence of Acute illness in percentage DLHS-4": "Not available",
      "Main Workers - Persons": 81786,
      "Main Workers Cultivators - Females": 349,
      "Marginal Workers Agricultural Labourers worked for 3 - 6 moths during last year - Females": 557,
      "Marginal Workers Other worked for 0 - 3 moths during last year - Males": 535,
      "Upper Primary Schools with drinking water facility in percentage DISE": "NA",
      "Primary Schools with girls toilet in percentage DISE": "NA",
      "Marginal Workers worked for 3 - 6 moths during last year - Persons": 9721,
      "Upper Primary Drop Out Rate in percentage DISE": "NA",
      "Prevalence of Anaemia in pregnant women aged 15-49years in percentage DLHS-4": "Not available",
      "Current use of any modern method of family planning in percentage DLHS-4": "Not available",
      "Marginal Workers Agricultural Labourers - Males": 734,
      "Upper Primary Female Teachers in percentage DISE": "NA",
      "Marginal Workers - Females": 4915,
      "Marginal Workers Other worked for 3 - 6 moths during last year - Persons": 7858,
      "Main Workers Agricultural Labourers - Females": 1692,
      "Marginal Workers Cultivators worked for 3 - 6 moths during last year - Females": 70,
      "Households with no lighting  Houselisting and Housing Census Data Tables- District Level , Census of India__5": 100,
      "Prevalence of Severe Anaemia  in percentage DLHS-4": "Not available",
      "Total unmet need for family planning in percentage DLHS-4": "Not available",
      "Main Workers Other - Males": 57079,
      "Children who received full vaccination in percentage DLHS-4": "Not available",
      "Marginal Workers Household Industry - Persons": 571,
      "Primary Pupil-Teacher Ratio in percentage DISE": "NA",
      "Marginal Workers Agricultural Labourers worked for 3 - 6 moths during last year - Males": 586,
      "Scheduled Caste Females": 18008,
      "Marginal Workers Cultivators - Males": 145,
      "Marginal Workers - Males": 6255,
      "Marginal Workers worked for 0 - 3 moths during last year - Females": 729,
      "Households with main source of drinking water within premises in percentage Houselisting and Housing Census Data Tables- District Level , Census of India": 86.94085141,
      "Marginal Workers Household Industry worked for 3 - 6 moths during last year - Persons": 508,
      "Upper Primary Girl's Enrolment in percentage DISE": "NA",
      "Prevalence of Severe Anaemia in women aged 15-49years in percentage DLHS-4": "Not available",
      "Marginal Workers Agricultural Labourers worked for 0 - 3 moths during last year - Males": 148,
      "Households with electricity as main source of lighting  Houselisting and Housing Census Data Tables- District Level , Census of India__3": 54768,
      "Households with computer or laptop with internet connection in percentage": 3.82,
      "PHCs functioning on a 24x7hours basis in percentage DLHS-4": 0,
      "Non Workers - Males": 48885,
      "Total Households in District Houselisting and Housing Census Data Tables- District Level , Census of India": 56839,
      "Upper Primary Schools with girls toilet in percentage DISE": "NA",
      "Households with mobile phone in percentage": 65.82,
      "Households receiving untreated tap water within premises in percentage Houselisting and Housing Census Data Tables- District Level , Census of India__2": 7.816221239,
      "Marginal Workers Cultivators worked for 3 - 6 moths during last year - Males": 142,
      "Prevalence of Anaemia  in percentage DLHS-4": "Not available",
      "Prevalence of Chronic illness in percentage DLHS-4": "Not available",
      "Households with solar energy as main source of lighting in percentage Houselisting and Housing Census Data Tables- District Level , Census of India__1": 0.105561322,
      "Marginal Workers Agricultural Labourers worked for 0 - 3 moths during last year - Females": 172,
      "Main Workers - Males": 63937,
      "Female": "NA",
      "Sno": 792,
      "Marginal Workers Other worked for 3 - 6 moths during last year - Females": 3288,
      "Marginal Workers Cultivators worked for 0 - 3 moths during last year - Females": 5,
      "Scheduled Tribe Males": 2363,
      "Male Illiterates": 21006,
      "Prevalence of Severe Anaemia in pregnant women aged 15-49years in percentage DLHS-4": "Not available",
      "0-6 Age Group Persons": 23123,
      "Upper Primary Student-Classroom Ratio in percentage DISE": "NA",
      "Currently married men married below 21years of age in percentage DLHS-4": "Not available",
      "Male Literates": 98071,
      "Households with no lighting in percentage Houselisting and Housing Census Data Tables- District Level , Census of India__2": 0.175935537,
      "Primary Drop Out Rate in percentage DISE": "NA",
      "Marginal Workers Household Industry - Males": 271,
      "Female Illiterates": 28240,
      "Main Workers Other - Females": 15496,
      "Marginal Workers Cultivators - Persons": 220,
      "Upper Primary Gross Enrolment Ratio in percentage DISE": "NA",
      "Scheduled Caste Persons": 35245,
      "Marginal Workers Cultivators worked for 3 - 6 moths during last year - Persons": 212,
      "Households with landline phone in percentage": 7.2,
      "Total Households in District  Houselisting and Housing Census Data Tables- District Level , Census of India": 56839,
      "Upper Primary Pupil-Teacher Ratio in percentage DISE": "NA",
      "Primary Student-Classroom Ratio in percentage DISE": "NA",
      "Primary Schools with boys toilet in percentage DISE": "NA",
      "Mean number of children ever born to women aged 40-49years  DLHS-4": "Not available",
      "Households receiving untreated tap water within premises  Houselisting and Housing Census Data Tables- District Level , Census of India__5": 15983,
      "Marginal Workers Household Industry worked for 0 - 3 moths during last year - Persons": 63,
      "Total Male Population": 119077,
      "Non Workers - Females": 97667,
      "Current use of family planning methods in percentage DLHS-4": "Not available",
      "Households with main source of drinking water within premises  Houselisting and Housing Census Data Tables- District Level , Census of India__3": 177781,
      "Main Workers Agricultural Labourers - Males": 2819,
      "Marginal Workers Other worked for 0 - 3 moths during last year - Persons": 1058,
      "Currently married women married below 18years of age in percentage DLHS-4": "Not available",
      "Person Illiterates": 49246,
      "Main Workers Household Industry - Females": 312,
      "Female Literates": 92191,
      "Marginal Workers Cultivators worked for 0 - 3 moths during last year - Males": 3,
      "Male": "NA",
      "Households with improved source of drinking water in percentage DLHS-4": "Not available",
      "Upper Primary Schools with electricity in percentage DISE": "NA",
      "Households with electricity in percentage DLHS-4": "Not available",
      "Villages with Primary Health Centre within 10km in percentage DLHS-4": 0,
      "Births to women aged 15-19years out of Total births in percentage DLHS-4": "Not available",
      "Prevalence of Anaemia in women aged 15-49years in percentage DLHS-4": "Not available",
      "Marginal Workers Agricultural Labourers worked for 3 - 6 moths during last year - Persons": 1143,
      "Main Workers Household Industry - Males": 960,
      "Scheduled Tribe Females": 2465,
      "Marginal Workers worked for 0 - 3 moths during last year - Males": 720,
      "Marginal Workers Other worked for 3 - 6 moths during last year - Males": 4570,
      "Primary Net Enrolment Ratio in percentage DISE": "NA",
      "Total": "NA",
      "Mean age at marriage for boys DLHS-4": "Not available",
      "Number of District Hospitals  DLHS-4": 0,
      "0-6 Age Group Females": 11344,
      "Marginal Workers Agricultural Labourers worked for 0 - 3 moths during last year - Persons": 320,
      "Marginal Workers Household Industry worked for 0 - 3 moths during last year - Males": 34,
      "Total Workers  Females": 22764,
      "Marginal Workers worked for 3 - 6 moths during last year - Females": 4186,
      "Institutional Deliveries in percentage DLHS-4": "Not available",
      "Marginal Workers Other - Males": 5105,
      "Total Workers  Males": 70192,
      "Main Workers - Females": 17849,
      "Primary Gross Enrolment Ratio in percentage DISE": "NA",
      "Main Workers Cultivators - Persons": 3428,
      "Marginal Workers Household Industry worked for 0 - 3 moths during last year - Females": 29,
      "Upper Primary Net Enrolment Ratio in percentage DISE": "NA",
      "Primary New Government Schools since 2003 in percentage DISE": "NA",
      "Tier": "Urban",
      "Marginal Workers Household Industry - Females": 300,
      "Primary Schools with electricity in percentage DISE": "NA",
      "Main Workers Other - Persons": 72575,
      "Marginal Workers Household Industry worked for 3 - 6 moths during last year - Females": 271,
      "Main Workers Cultivators - Males": 3079,
      "Main Workers Household Industry - Persons": 1272,
      "Marginal Workers Cultivators worked for 0 - 3 moths during last year - Persons": 8,
      "Scheduled Caste Males": 17237,
      "Marginal Workers - Persons": 11170,
      "Deliveries at home conducted by skilled health personnel in percentage DLHS-4": "Not available",
      "Villages with Sub-Health Centres within 3km in percentage DLHS-4": 0,
      "Upper Primary New Government Schools since 2003 in percentage DISE": "NA",
      "0-6 Age Group Males": 11779,
      "Primary Schools with drinking water facility in percentage DISE": "NA",
      "Non Workers - Persons": 146552,
      "Person Literates": 190262,
      "State": "KARNATAKA",
      "Total Female Population": 120431,
      "Marginal Workers worked for 0 - 3 moths during last year - Persons": 1449,
      "Marginal Workers Cultivators - Females": 75,
      "Marginal Workers Other - Persons": 8916,
      "Sex Ratio": 1011,
      "Scheduled Tribe Persons": 4828,
      "Marginal Workers Household Industry worked for 3 - 6 moths during last year - Males": 237,
      "Marginal Workers Agricultural Labourers - Females": 729,
      "Mean age at marriage for girls DLHS-4": "Not available",
      "Households with solar energy as main source of lighting  Houselisting and Housing Census Data Tables- District Level , Census of India__4": 60,
      "District": "CHIKMAGALUR",
      "Households receiving treated tap water within premises in percentage Houselisting and Housing Census Data Tables- District Level , Census of India__1": 48.33997604,
      "Total Workers  Persons": 92956,
      "Households receiving treated tap water within premises  Houselisting and Housing Census Data Tables- District Level , Census of India__4": 98848,
      "Primary Female Teachers in percentage DISE": "NA",
      "Number of Households": 57838,
      "Main Workers Agricultural Labourers - Persons": 4511
    }
  ]
}