{
  "Total": [
    {
      "Marginal Workers Agricultural Labourers - Persons": 101568,
      "Marginal Workers Other - Females": 24165,
      "Marginal Workers Other worked for 0 - 3 moths during last year - Females": 5323,
      "Upper Primary Schools with boys toilet in percentage DISE": 100,
      "Total Population": 1659456,
      "Households with electricity as main source of lighting in percentage Houselisting and Housing Census Data Tables- District Level , Census of India": 86.7607153,
      "Primary Girl's Enrolment in percentage DISE": 49.1,
      "Marginal Workers worked for 3 - 6 moths during last year - Males": 58629,
      "Prevalence of Acute illness in percentage DLHS-4": 1.5,
      "Main Workers - Persons": 667479,
      "Main Workers Cultivators - Females": 67245,
      "Marginal Workers Agricultural Labourers worked for 3 - 6 moths during last year - Females": 63889,
      "Marginal Workers Other worked for 0 - 3 moths during last year - Males": 4871,
      "Upper Primary Schools with drinking water facility in percentage DISE": 100,
      "Primary Schools with girls toilet in percentage DISE": 100,
      "Marginal Workers worked for 3 - 6 moths during last year - Persons": 163550,
      "Upper Primary Drop Out Rate in percentage DISE": 5.49,
      "Prevalence of Anaemia in pregnant women aged 15-49years in percentage DLHS-4": 46.2,
      "Current use of any modern method of family planning in percentage DLHS-4": 64.2,
      "Marginal Workers Agricultural Labourers - Males": 31629,
      "Upper Primary Female Teachers in percentage DISE": 53.8,
      "Marginal Workers - Females": 119821,
      "Marginal Workers Other worked for 3 - 6 moths during last year - Persons": 38660,
      "Main Workers Agricultural Labourers - Females": 99367,
      "Marginal Workers Cultivators worked for 3 - 6 moths during last year - Females": 17924,
      "Households with no lighting  Houselisting and Housing Census Data Tables- District Level , Census of India__5": 2608,
      "Prevalence of Severe Anaemia  in percentage DLHS-4": 11.2,
      "Total unmet need for family planning in percentage DLHS-4": 14.2,
      "Main Workers Other - Males": 150511,
      "Children who received full vaccination in percentage DLHS-4": 79.7,
      "Marginal Workers Household Industry - Persons": 9517,
      "Primary Pupil-Teacher Ratio in percentage DISE": 13,
      "Marginal Workers Agricultural Labourers worked for 3 - 6 moths during last year - Males": 28289,
      "Scheduled Caste Females": 192298,
      "Marginal Workers Cultivators - Males": 9147,
      "Marginal Workers - Males": 69287,
      "Marginal Workers worked for 0 - 3 moths during last year - Females": 14900,
      "Households with main source of drinking water within premises in percentage Houselisting and Housing Census Data Tables- District Level , Census of India": 39.69423859,
      "Marginal Workers Household Industry worked for 3 - 6 moths during last year - Persons": 7044,
      "Upper Primary Girl's Enrolment in percentage DISE": 54,
      "Prevalence of Severe Anaemia in women aged 15-49years in percentage DLHS-4": 3.2,
      "Marginal Workers Agricultural Labourers worked for 0 - 3 moths during last year - Males": 3340,
      "Households with electricity as main source of lighting  Houselisting and Housing Census Data Tables- District Level , Census of India__3": 307257,
      "Households with computer or laptop with internet connection in percentage": 1.61,
      "PHCs functioning on a 24x7hours basis in percentage DLHS-4": 33.3,
      "Non Workers - Males": 327532,
      "Total Households in District Houselisting and Housing Census Data Tables- District Level , Census of India": 354143,
      "Upper Primary Schools with girls toilet in percentage DISE": 100,
      "Households with mobile phone in percentage": 47.69,
      "Households receiving untreated tap water within premises in percentage Houselisting and Housing Census Data Tables- District Level , Census of India__2": 13.6765954,
      "Marginal Workers Cultivators worked for 3 - 6 moths during last year - Males": 7744,
      "Prevalence of Anaemia  in percentage DLHS-4": 63.6,
      "Prevalence of Chronic illness in percentage DLHS-4": 2.8,
      "Households with solar energy as main source of lighting in percentage Houselisting and Housing Census Data Tables- District Level , Census of India__1": 0.555425351,
      "Marginal Workers Agricultural Labourers worked for 0 - 3 moths during last year - Females": 6050,
      "Main Workers - Males": 444024,
      "Female": 65.88,
      "Sno": 794,
      "Marginal Workers Other worked for 3 - 6 moths during last year - Females": 18842,
      "Marginal Workers Cultivators worked for 0 - 3 moths during last year - Females": 2098,
      "Scheduled Tribe Males": 152939,
      "Male Illiterates": 233655,
      "Prevalence of Severe Anaemia in pregnant women aged 15-49years in percentage DLHS-4": 3.2,
      "0-6 Age Group Persons": 184280,
      "Upper Primary Student-Classroom Ratio in percentage DISE": 19,
      "Currently married men married below 21years of age in percentage DLHS-4": 8.4,
      "Male Literates": 607188,
      "Households with no lighting in percentage Houselisting and Housing Census Data Tables- District Level , Census of India__2": 0.736425681,
      "Primary Drop Out Rate in percentage DISE": 3.8,
      "Marginal Workers Household Industry - Males": 3822,
      "Female Illiterates": 338409,
      "Main Workers Other - Females": 50405,
      "Marginal Workers Cultivators - Persons": 29169,
      "Upper Primary Gross Enrolment Ratio in percentage DISE": 86.9,
      "Scheduled Caste Persons": 389117,
      "Marginal Workers Cultivators worked for 3 - 6 moths during last year - Persons": 25668,
      "Households with landline phone in percentage": 5.12,
      "Total Households in District  Houselisting and Housing Census Data Tables- District Level , Census of India": 354143,
      "Upper Primary Pupil-Teacher Ratio in percentage DISE": 21,
      "Primary Student-Classroom Ratio in percentage DISE": 12,
      "Primary Schools with boys toilet in percentage DISE": 99.9,
      "Mean number of children ever born to women aged 40-49years  DLHS-4": 3.1,
      "Households receiving untreated tap water within premises  Houselisting and Housing Census Data Tables- District Level , Census of India__5": 37224,
      "Marginal Workers Household Industry worked for 0 - 3 moths during last year - Persons": 2473,
      "Total Male Population": 840843,
      "Non Workers - Females": 475337,
      "Current use of family planning methods in percentage DLHS-4": 65,
      "Households with main source of drinking water within premises  Houselisting and Housing Census Data Tables- District Level , Census of India__3": 108037,
      "Main Workers Agricultural Labourers - Males": 93402,
      "Marginal Workers Other worked for 0 - 3 moths during last year - Persons": 10194,
      "Currently married women married below 18years of age in percentage DLHS-4": 9.9,
      "Person Illiterates": 572064,
      "Main Workers Household Industry - Females": 6438,
      "Female Literates": 480204,
      "Marginal Workers Cultivators worked for 0 - 3 moths during last year - Males": 1403,
      "Male": 81.37,
      "Households with improved source of drinking water in percentage DLHS-4": 98.9,
      "Upper Primary Schools with electricity in percentage DISE": 72.2,
      "Households with electricity in percentage DLHS-4": 95,
      "Villages with Primary Health Centre within 10km in percentage DLHS-4": 76,
      "Births to women aged 15-19years out of Total births in percentage DLHS-4": 6.7,
      "Prevalence of Anaemia in women aged 15-49years in percentage DLHS-4": 46.2,
      "Marginal Workers Agricultural Labourers worked for 3 - 6 moths during last year - Persons": 92178,
      "Main Workers Household Industry - Males": 10280,
      "Scheduled Tribe Females": 149615,
      "Marginal Workers worked for 0 - 3 moths during last year - Males": 10658,
      "Marginal Workers Other worked for 3 - 6 moths during last year - Males": 19818,
      "Primary Net Enrolment Ratio in percentage DISE": 88.3,
      "Total": 73.71,
      "Mean age at marriage for boys DLHS-4": 26.4,
      "Number of District Hospitals  DLHS-4": 1,
      "0-6 Age Group Females": 89651,
      "Marginal Workers Agricultural Labourers worked for 0 - 3 moths during last year - Persons": 9390,
      "Marginal Workers Household Industry worked for 0 - 3 moths during last year - Males": 1044,
      "Total Workers  Females": 343276,
      "Marginal Workers worked for 3 - 6 moths during last year - Females": 104921,
      "Institutional Deliveries in percentage DLHS-4": 91.6,
      "Marginal Workers Other - Males": 24689,
      "Total Workers  Males": 513311,
      "Main Workers - Females": 223455,
      "Primary Gross Enrolment Ratio in percentage DISE": 96.7,
      "Main Workers Cultivators - Persons": 257076,
      "Marginal Workers Household Industry worked for 0 - 3 moths during last year - Females": 1429,
      "Upper Primary Net Enrolment Ratio in percentage DISE": 78.3,
      "Primary New Government Schools since 2003 in percentage DISE": 16,
      "Tier": "Total",
      "Marginal Workers Household Industry - Females": 5695,
      "Primary Schools with electricity in percentage DISE": 99.4,
      "Main Workers Other - Persons": 200916,
      "Marginal Workers Household Industry worked for 3 - 6 moths during last year - Females": 4266,
      "Main Workers Cultivators - Males": 189831,
      "Main Workers Household Industry - Persons": 16718,
      "Marginal Workers Cultivators worked for 0 - 3 moths during last year - Persons": 3501,
      "Scheduled Caste Males": 196819,
      "Marginal Workers - Persons": 189108,
      "Deliveries at home conducted by skilled health personnel in percentage DLHS-4": 2.6,
      "Villages with Sub-Health Centres within 3km in percentage DLHS-4": 80,
      "Upper Primary New Government Schools since 2003 in percentage DISE": 33.3,
      "0-6 Age Group Males": 94629,
      "Primary Schools with drinking water facility in percentage DISE": 99.9,
      "Non Workers - Persons": 802869,
      "Person Literates": 1087392,
      "State": "KARNATAKA",
      "Total Female Population": 818613,
      "Marginal Workers worked for 0 - 3 moths during last year - Persons": 25558,
      "Marginal Workers Cultivators - Females": 20022,
      "Marginal Workers Other - Persons": 48854,
      "Sex Ratio": 974,
      "Scheduled Tribe Persons": 302554,
      "Marginal Workers Household Industry worked for 3 - 6 moths during last year - Males": 2778,
      "Marginal Workers Agricultural Labourers - Females": 69939,
      "Mean age at marriage for girls DLHS-4": 20.9,
      "Households with solar energy as main source of lighting  Houselisting and Housing Census Data Tables- District Level , Census of India__4": 1967,
      "District": "CHITRADURGA",
      "Households receiving treated tap water within premises in percentage Houselisting and Housing Census Data Tables- District Level , Census of India__1": 17.65347775,
      "Total Workers  Persons": 856587,
      "Households receiving treated tap water within premises  Houselisting and Housing Census Data Tables- District Level , Census of India__4": 48048,
      "Primary Female Teachers in percentage DISE": 44,
      "Number of Households": 357003,
      "Main Workers Agricultural Labourers - Persons": 192769
    }
  ],
  "Rural": [
    {
      "Marginal Workers Agricultural Labourers - Persons": 100696,
      "Marginal Workers Other - Females": 18732,
      "Marginal Workers Other worked for 0 - 3 moths during last year - Females": 4462,
      "Upper Primary Schools with boys toilet in percentage DISE": "NA",
      "Total Population": 1329923,
      "Households with electricity as main source of lighting in percentage Houselisting and Housing Census Data Tables- District Level , Census of India": 85.24177449,
      "Primary Girl's Enrolment in percentage DISE": "NA",
      "Marginal Workers worked for 3 - 6 moths during last year - Males": 51450,
      "Prevalence of Acute illness in percentage DLHS-4": 1.9,
      "Main Workers - Persons": 560184,
      "Main Workers Cultivators - Females": 66700,
      "Marginal Workers Agricultural Labourers worked for 3 - 6 moths during last year - Females": 63410,
      "Marginal Workers Other worked for 0 - 3 moths during last year - Males": 3583,
      "Upper Primary Schools with drinking water facility in percentage DISE": "NA",
      "Primary Schools with girls toilet in percentage DISE": "NA",
      "Marginal Workers worked for 3 - 6 moths during last year - Persons": 150449,
      "Upper Primary Drop Out Rate in percentage DISE": "NA",
      "Prevalence of Anaemia in pregnant women aged 15-49years in percentage DLHS-4": 53,
      "Current use of any modern method of family planning in percentage DLHS-4": 69.3,
      "Marginal Workers Agricultural Labourers - Males": 31278,
      "Upper Primary Female Teachers in percentage DISE": "NA",
      "Marginal Workers - Females": 112673,
      "Marginal Workers Other worked for 3 - 6 moths during last year - Persons": 27959,
      "Main Workers Agricultural Labourers - Females": 98076,
      "Marginal Workers Cultivators worked for 3 - 6 moths during last year - Females": 17819,
      "Households with no lighting  Houselisting and Housing Census Data Tables- District Level , Census of India__5": 2146,
      "Prevalence of Severe Anaemia  in percentage DLHS-4": 10.8,
      "Total unmet need for family planning in percentage DLHS-4": 11.9,
      "Main Workers Other - Males": 75155,
      "Children who received full vaccination in percentage DLHS-4": 84.8,
      "Marginal Workers Household Industry - Persons": 7461,
      "Primary Pupil-Teacher Ratio in percentage DISE": "NA",
      "Marginal Workers Agricultural Labourers worked for 3 - 6 moths during last year - Males": 27974,
      "Scheduled Caste Females": 164411,
      "Marginal Workers Cultivators - Males": 8986,
      "Marginal Workers - Males": 60385,
      "Marginal Workers worked for 0 - 3 moths during last year - Females": 13674,
      "Households with main source of drinking water within premises in percentage Houselisting and Housing Census Data Tables- District Level , Census of India": 33.26135213,
      "Marginal Workers Household Industry worked for 3 - 6 moths during last year - Persons": 5698,
      "Upper Primary Girl's Enrolment in percentage DISE": "NA",
      "Prevalence of Severe Anaemia in women aged 15-49years in percentage DLHS-4": 3.1,
      "Marginal Workers Agricultural Labourers worked for 0 - 3 moths during last year - Males": 3304,
      "Households with electricity as main source of lighting  Houselisting and Housing Census Data Tables- District Level , Census of India__3": 240398,
      "Households with computer or laptop with internet connection in percentage": 1.02,
      "PHCs functioning on a 24x7hours basis in percentage DLHS-4": "Not applicable",
      "Non Workers - Males": 254970,
      "Total Households in District Houselisting and Housing Census Data Tables- District Level , Census of India": 282019,
      "Upper Primary Schools with girls toilet in percentage DISE": "NA",
      "Households with mobile phone in percentage": 44.08,
      "Households receiving untreated tap water within premises in percentage Houselisting and Housing Census Data Tables- District Level , Census of India__2": 14.46079114,
      "Marginal Workers Cultivators worked for 3 - 6 moths during last year - Males": 7589,
      "Prevalence of Anaemia  in percentage DLHS-4": 72.3,
      "Prevalence of Chronic illness in percentage DLHS-4": 1.9,
      "Households with solar energy as main source of lighting in percentage Houselisting and Housing Census Data Tables- District Level , Census of India__1": 0.631163149,
      "Marginal Workers Agricultural Labourers worked for 0 - 3 moths during last year - Females": 6008,
      "Main Workers - Males": 360218,
      "Female": "NA",
      "Sno": 793,
      "Marginal Workers Other worked for 3 - 6 moths during last year - Females": 14270,
      "Marginal Workers Cultivators worked for 0 - 3 moths during last year - Females": 2092,
      "Scheduled Tribe Males": 135209,
      "Male Illiterates": 201288,
      "Prevalence of Severe Anaemia in pregnant women aged 15-49years in percentage DLHS-4": 3.1,
      "0-6 Age Group Persons": 149294,
      "Upper Primary Student-Classroom Ratio in percentage DISE": "NA",
      "Currently married men married below 21years of age in percentage DLHS-4": 7.1,
      "Male Literates": 474285,
      "Households with no lighting in percentage Houselisting and Housing Census Data Tables- District Level , Census of India__2": 0.760941639,
      "Primary Drop Out Rate in percentage DISE": "NA",
      "Marginal Workers Household Industry - Males": 2849,
      "Female Illiterates": 294216,
      "Main Workers Other - Females": 30194,
      "Marginal Workers Cultivators - Persons": 28897,
      "Upper Primary Gross Enrolment Ratio in percentage DISE": "NA",
      "Scheduled Caste Persons": 333571,
      "Marginal Workers Cultivators worked for 3 - 6 moths during last year - Persons": 25408,
      "Households with landline phone in percentage": 4.83,
      "Total Households in District  Houselisting and Housing Census Data Tables- District Level , Census of India": 282019,
      "Upper Primary Pupil-Teacher Ratio in percentage DISE": "NA",
      "Primary Student-Classroom Ratio in percentage DISE": "NA",
      "Primary Schools with boys toilet in percentage DISE": "NA",
      "Mean number of children ever born to women aged 40-49years  DLHS-4": 3.3,
      "Households receiving untreated tap water within premises  Houselisting and Housing Census Data Tables- District Level , Census of India__5": 31139,
      "Marginal Workers Household Industry worked for 0 - 3 moths during last year - Persons": 1763,
      "Total Male Population": 675573,
      "Non Workers - Females": 341711,
      "Current use of family planning methods in percentage DLHS-4": 69.4,
      "Households with main source of drinking water within premises  Houselisting and Housing Census Data Tables- District Level , Census of India__3": 71623,
      "Main Workers Agricultural Labourers - Males": 91420,
      "Marginal Workers Other worked for 0 - 3 moths during last year - Persons": 8045,
      "Currently married women married below 18years of age in percentage DLHS-4": 17.6,
      "Person Illiterates": 495504,
      "Main Workers Household Industry - Females": 4996,
      "Female Literates": 360134,
      "Marginal Workers Cultivators worked for 0 - 3 moths during last year - Males": 1397,
      "Male": "NA",
      "Households with improved source of drinking water in percentage DLHS-4": 98.2,
      "Upper Primary Schools with electricity in percentage DISE": "NA",
      "Households with electricity in percentage DLHS-4": 92.8,
      "Villages with Primary Health Centre within 10km in percentage DLHS-4": "Not applicable",
      "Births to women aged 15-19years out of Total births in percentage DLHS-4": 10.3,
      "Prevalence of Anaemia in women aged 15-49years in percentage DLHS-4": 53,
      "Marginal Workers Agricultural Labourers worked for 3 - 6 moths during last year - Persons": 91384,
      "Main Workers Household Industry - Males": 6664,
      "Scheduled Tribe Females": 131317,
      "Marginal Workers worked for 0 - 3 moths during last year - Males": 8935,
      "Marginal Workers Other worked for 3 - 6 moths during last year - Males": 13689,
      "Primary Net Enrolment Ratio in percentage DISE": "NA",
      "Total": "NA",
      "Mean age at marriage for boys DLHS-4": 26.2,
      "Number of District Hospitals  DLHS-4": "Not applicable",
      "0-6 Age Group Females": 72627,
      "Marginal Workers Agricultural Labourers worked for 0 - 3 moths during last year - Persons": 9312,
      "Marginal Workers Household Industry worked for 0 - 3 moths during last year - Males": 651,
      "Total Workers  Females": 312639,
      "Marginal Workers worked for 3 - 6 moths during last year - Females": 98999,
      "Institutional Deliveries in percentage DLHS-4": 88.8,
      "Marginal Workers Other - Males": 17272,
      "Total Workers  Males": 420603,
      "Main Workers - Females": 199966,
      "Primary Gross Enrolment Ratio in percentage DISE": "NA",
      "Main Workers Cultivators - Persons": 253679,
      "Marginal Workers Household Industry worked for 0 - 3 moths during last year - Females": 1112,
      "Upper Primary Net Enrolment Ratio in percentage DISE": "NA",
      "Primary New Government Schools since 2003 in percentage DISE": "NA",
      "Tier": "Rural",
      "Marginal Workers Household Industry - Females": 4612,
      "Primary Schools with electricity in percentage DISE": "NA",
      "Main Workers Other - Persons": 105349,
      "Marginal Workers Household Industry worked for 3 - 6 moths during last year - Females": 3500,
      "Main Workers Cultivators - Males": 186979,
      "Main Workers Household Industry - Persons": 11660,
      "Marginal Workers Cultivators worked for 0 - 3 moths during last year - Persons": 3489,
      "Scheduled Caste Males": 169160,
      "Marginal Workers - Persons": 173058,
      "Deliveries at home conducted by skilled health personnel in percentage DLHS-4": 3.5,
      "Villages with Sub-Health Centres within 3km in percentage DLHS-4": "Not applicable",
      "Upper Primary New Government Schools since 2003 in percentage DISE": "NA",
      "0-6 Age Group Males": 76667,
      "Primary Schools with drinking water facility in percentage DISE": "NA",
      "Non Workers - Persons": 596681,
      "Person Literates": 834419,
      "State": "KARNATAKA",
      "Total Female Population": 654350,
      "Marginal Workers worked for 0 - 3 moths during last year - Persons": 22609,
      "Marginal Workers Cultivators - Females": 19911,
      "Marginal Workers Other - Persons": 36004,
      "Sex Ratio": 969,
      "Scheduled Tribe Persons": 266526,
      "Marginal Workers Household Industry worked for 3 - 6 moths during last year - Males": 2198,
      "Marginal Workers Agricultural Labourers - Females": 69418,
      "Mean age at marriage for girls DLHS-4": 19.7,
      "Households with solar energy as main source of lighting  Houselisting and Housing Census Data Tables- District Level , Census of India__4": 1780,
      "District": "CHITRADURGA",
      "Households receiving treated tap water within premises in percentage Houselisting and Housing Census Data Tables- District Level , Census of India__1": 9.901362534,
      "Total Workers  Persons": 733242,
      "Households receiving treated tap water within premises  Houselisting and Housing Census Data Tables- District Level , Census of India__4": 21321,
      "Primary Female Teachers in percentage DISE": "NA",
      "Number of Households": 283669,
      "Main Workers Agricultural Labourers - Persons": 189496
    }
  ],
  "Urban": [
    {
      "Marginal Workers Agricultural Labourers - Persons": 872,
      "Marginal Workers Other - Females": 5433,
      "Marginal Workers Other worked for 0 - 3 moths during last year - Females": 861,
      "Upper Primary Schools with boys toilet in percentage DISE": "NA",
      "Total Population": 329533,
      "Households with electricity as main source of lighting in percentage Houselisting and Housing Census Data Tables- District Level , Census of India": 92.7000721,
      "Primary Girl's Enrolment in percentage DISE": "NA",
      "Marginal Workers worked for 3 - 6 moths during last year - Males": 7179,
      "Prevalence of Acute illness in percentage DLHS-4": "Not available",
      "Main Workers - Persons": 107295,
      "Main Workers Cultivators - Females": 545,
      "Marginal Workers Agricultural Labourers worked for 3 - 6 moths during last year - Females": 479,
      "Marginal Workers Other worked for 0 - 3 moths during last year - Males": 1288,
      "Upper Primary Schools with drinking water facility in percentage DISE": "NA",
      "Primary Schools with girls toilet in percentage DISE": "NA",
      "Marginal Workers worked for 3 - 6 moths during last year - Persons": 13101,
      "Upper Primary Drop Out Rate in percentage DISE": "NA",
      "Prevalence of Anaemia in pregnant women aged 15-49years in percentage DLHS-4": "Not available",
      "Current use of any modern method of family planning in percentage DLHS-4": "Not available",
      "Marginal Workers Agricultural Labourers - Males": 351,
      "Upper Primary Female Teachers in percentage DISE": "NA",
      "Marginal Workers - Females": 7148,
      "Marginal Workers Other worked for 3 - 6 moths during last year - Persons": 10701,
      "Main Workers Agricultural Labourers - Females": 1291,
      "Marginal Workers Cultivators worked for 3 - 6 moths during last year - Females": 105,
      "Households with no lighting  Houselisting and Housing Census Data Tables- District Level , Census of India__5": 462,
      "Prevalence of Severe Anaemia  in percentage DLHS-4": "Not available",
      "Total unmet need for family planning in percentage DLHS-4": "Not available",
      "Main Workers Other - Males": 75356,
      "Children who received full vaccination in percentage DLHS-4": "Not available",
      "Marginal Workers Household Industry - Persons": 2056,
      "Primary Pupil-Teacher Ratio in percentage DISE": "NA",
      "Marginal Workers Agricultural Labourers worked for 3 - 6 moths during last year - Males": 315,
      "Scheduled Caste Females": 27887,
      "Marginal Workers Cultivators - Males": 161,
      "Marginal Workers - Males": 8902,
      "Marginal Workers worked for 0 - 3 moths during last year - Females": 1226,
      "Households with main source of drinking water within premises in percentage Houselisting and Housing Census Data Tables- District Level , Census of India": 64.06516652,
      "Marginal Workers Household Industry worked for 3 - 6 moths during last year - Persons": 1346,
      "Upper Primary Girl's Enrolment in percentage DISE": "NA",
      "Prevalence of Severe Anaemia in women aged 15-49years in percentage DLHS-4": "Not available",
      "Marginal Workers Agricultural Labourers worked for 0 - 3 moths during last year - Males": 36,
      "Households with electricity as main source of lighting  Houselisting and Housing Census Data Tables- District Level , Census of India__3": 66859,
      "Households with computer or laptop with internet connection in percentage": 3.94,
      "PHCs functioning on a 24x7hours basis in percentage DLHS-4": 0,
      "Non Workers - Males": 72562,
      "Total Households in District Houselisting and Housing Census Data Tables- District Level , Census of India": 72124,
      "Upper Primary Schools with girls toilet in percentage DISE": "NA",
      "Households with mobile phone in percentage": 61.83,
      "Households receiving untreated tap water within premises in percentage Houselisting and Housing Census Data Tables- District Level , Census of India__2": 10.70567744,
      "Marginal Workers Cultivators worked for 3 - 6 moths during last year - Males": 155,
      "Prevalence of Anaemia  in percentage DLHS-4": "Not available",
      "Prevalence of Chronic illness in percentage DLHS-4": "Not available",
      "Households with solar energy as main source of lighting in percentage Houselisting and Housing Census Data Tables- District Level , Census of India__1": 0.259275692,
      "Marginal Workers Agricultural Labourers worked for 0 - 3 moths during last year - Females": 42,
      "Main Workers - Males": 83806,
      "Female": "NA",
      "Sno": 795,
      "Marginal Workers Other worked for 3 - 6 moths during last year - Females": 4572,
      "Marginal Workers Cultivators worked for 0 - 3 moths during last year - Females": 6,
      "Scheduled Tribe Males": 17730,
      "Male Illiterates": 32367,
      "Prevalence of Severe Anaemia in pregnant women aged 15-49years in percentage DLHS-4": "Not available",
      "0-6 Age Group Persons": 34986,
      "Upper Primary Student-Classroom Ratio in percentage DISE": "NA",
      "Currently married men married below 21years of age in percentage DLHS-4": "Not available",
      "Male Literates": 132903,
      "Households with no lighting in percentage Houselisting and Housing Census Data Tables- District Level , Census of India__2": 0.640563474,
      "Primary Drop Out Rate in percentage DISE": "NA",
      "Marginal Workers Household Industry - Males": 973,
      "Female Illiterates": 44193,
      "Main Workers Other - Females": 20211,
      "Marginal Workers Cultivators - Persons": 272,
      "Upper Primary Gross Enrolment Ratio in percentage DISE": "NA",
      "Scheduled Caste Persons": 55546,
      "Marginal Workers Cultivators worked for 3 - 6 moths during last year - Persons": 260,
      "Households with landline phone in percentage": 6.28,
      "Total Households in District  Houselisting and Housing Census Data Tables- District Level , Census of India": 72124,
      "Upper Primary Pupil-Teacher Ratio in percentage DISE": "NA",
      "Primary Student-Classroom Ratio in percentage DISE": "NA",
      "Primary Schools with boys toilet in percentage DISE": "NA",
      "Mean number of children ever born to women aged 40-49years  DLHS-4": "Not available",
      "Households receiving untreated tap water within premises  Houselisting and Housing Census Data Tables- District Level , Census of India__5": 6085,
      "Marginal Workers Household Industry worked for 0 - 3 moths during last year - Persons": 710,
      "Total Male Population": 165270,
      "Non Workers - Females": 133626,
      "Current use of family planning methods in percentage DLHS-4": "Not available",
      "Households with main source of drinking water within premises  Houselisting and Housing Census Data Tables- District Level , Census of India__3": 36414,
      "Main Workers Agricultural Labourers - Males": 1982,
      "Marginal Workers Other worked for 0 - 3 moths during last year - Persons": 2149,
      "Currently married women married below 18years of age in percentage DLHS-4": "Not available",
      "Person Illiterates": 76560,
      "Main Workers Household Industry - Females": 1442,
      "Female Literates": 120070,
      "Marginal Workers Cultivators worked for 0 - 3 moths during last year - Males": 6,
      "Male": "NA",
      "Households with improved source of drinking water in percentage DLHS-4": "Not available",
      "Upper Primary Schools with electricity in percentage DISE": "NA",
      "Households with electricity in percentage DLHS-4": "Not available",
      "Villages with Primary Health Centre within 10km in percentage DLHS-4": 0,
      "Births to women aged 15-19years out of Total births in percentage DLHS-4": "Not available",
      "Prevalence of Anaemia in women aged 15-49years in percentage DLHS-4": "Not available",
      "Marginal Workers Agricultural Labourers worked for 3 - 6 moths during last year - Persons": 794,
      "Main Workers Household Industry - Males": 3616,
      "Scheduled Tribe Females": 18298,
      "Marginal Workers worked for 0 - 3 moths during last year - Males": 1723,
      "Marginal Workers Other worked for 3 - 6 moths during last year - Males": 6129,
      "Primary Net Enrolment Ratio in percentage DISE": "NA",
      "Total": "NA",
      "Mean age at marriage for boys DLHS-4": "Not available",
      "Number of District Hospitals  DLHS-4": 0,
      "0-6 Age Group Females": 17024,
      "Marginal Workers Agricultural Labourers worked for 0 - 3 moths during last year - Persons": 78,
      "Marginal Workers Household Industry worked for 0 - 3 moths during last year - Males": 393,
      "Total Workers  Females": 30637,
      "Marginal Workers worked for 3 - 6 moths during last year - Females": 5922,
      "Institutional Deliveries in percentage DLHS-4": "Not available",
      "Marginal Workers Other - Males": 7417,
      "Total Workers  Males": 92708,
      "Main Workers - Females": 23489,
      "Primary Gross Enrolment Ratio in percentage DISE": "NA",
      "Main Workers Cultivators - Persons": 3397,
      "Marginal Workers Household Industry worked for 0 - 3 moths during last year - Females": 317,
      "Upper Primary Net Enrolment Ratio in percentage DISE": "NA",
      "Primary New Government Schools since 2003 in percentage DISE": "NA",
      "Tier": "Urban",
      "Marginal Workers Household Industry - Females": 1083,
      "Primary Schools with electricity in percentage DISE": "NA",
      "Main Workers Other - Persons": 95567,
      "Marginal Workers Household Industry worked for 3 - 6 moths during last year - Females": 766,
      "Main Workers Cultivators - Males": 2852,
      "Main Workers Household Industry - Persons": 5058,
      "Marginal Workers Cultivators worked for 0 - 3 moths during last year - Persons": 12,
      "Scheduled Caste Males": 27659,
      "Marginal Workers - Persons": 16050,
      "Deliveries at home conducted by skilled health personnel in percentage DLHS-4": "Not available",
      "Villages with Sub-Health Centres within 3km in percentage DLHS-4": 0,
      "Upper Primary New Government Schools since 2003 in percentage DISE": "NA",
      "0-6 Age Group Males": 17962,
      "Primary Schools with drinking water facility in percentage DISE": "NA",
      "Non Workers - Persons": 206188,
      "Person Literates": 252973,
      "State": "KARNATAKA",
      "Total Female Population": 164263,
      "Marginal Workers worked for 0 - 3 moths during last year - Persons": 2949,
      "Marginal Workers Cultivators - Females": 111,
      "Marginal Workers Other - Persons": 12850,
      "Sex Ratio": 994,
      "Scheduled Tribe Persons": 36028,
      "Marginal Workers Household Industry worked for 3 - 6 moths during last year - Males": 580,
      "Marginal Workers Agricultural Labourers - Females": 521,
      "Mean age at marriage for girls DLHS-4": "Not available",
      "Households with solar energy as main source of lighting  Houselisting and Housing Census Data Tables- District Level , Census of India__4": 187,
      "District": "CHITRADURGA",
      "Households receiving treated tap water within premises in percentage Houselisting and Housing Census Data Tables- District Level , Census of India__1": 47.02229103,
      "Total Workers  Persons": 123345,
      "Households receiving treated tap water within premises  Houselisting and Housing Census Data Tables- District Level , Census of India__4": 26727,
      "Primary Female Teachers in percentage DISE": "NA",
      "Number of Households": 73334,
      "Main Workers Agricultural Labourers - Persons": 3273
    }
  ]
}