{
  "Total": [
    {
      "Marginal Workers Agricultural Labourers - Persons": 79320,
      "Marginal Workers Other - Females": 25345,
      "Marginal Workers Other worked for 0 - 3 moths during last year - Females": 4607,
      "Upper Primary Schools with boys toilet in percentage DISE": 100,
      "Total Population": 1945497,
      "Households with electricity as main source of lighting in percentage Houselisting and Housing Census Data Tables- District Level , Census of India": 92.05389784,
      "Primary Girl's Enrolment in percentage DISE": 48.4,
      "Marginal Workers worked for 3 - 6 moths during last year - Males": 70565,
      "Prevalence of Acute illness in percentage DLHS-4": 6.8,
      "Main Workers - Persons": 705099,
      "Main Workers Cultivators - Females": 36772,
      "Marginal Workers Agricultural Labourers worked for 3 - 6 moths during last year - Females": 45192,
      "Marginal Workers Other worked for 0 - 3 moths during last year - Males": 6280,
      "Upper Primary Schools with drinking water facility in percentage DISE": 100,
      "Primary Schools with girls toilet in percentage DISE": 100,
      "Marginal Workers worked for 3 - 6 moths during last year - Persons": 148867,
      "Upper Primary Drop Out Rate in percentage DISE": 6.15,
      "Prevalence of Anaemia in pregnant women aged 15-49years in percentage DLHS-4": 59.5,
      "Current use of any modern method of family planning in percentage DLHS-4": 69.4,
      "Marginal Workers Agricultural Labourers - Males": 30729,
      "Upper Primary Female Teachers in percentage DISE": 46.3,
      "Marginal Workers - Females": 88842,
      "Marginal Workers Other worked for 3 - 6 moths during last year - Persons": 53096,
      "Main Workers Agricultural Labourers - Females": 99739,
      "Marginal Workers Cultivators worked for 3 - 6 moths during last year - Females": 7586,
      "Households with no lighting  Houselisting and Housing Census Data Tables- District Level , Census of India__5": 1608,
      "Prevalence of Severe Anaemia  in percentage DLHS-4": 16.4,
      "Total unmet need for family planning in percentage DLHS-4": 11.6,
      "Main Workers Other - Males": 197954,
      "Children who received full vaccination in percentage DLHS-4": 80.7,
      "Marginal Workers Household Industry - Persons": 11041,
      "Primary Pupil-Teacher Ratio in percentage DISE": 15,
      "Marginal Workers Agricultural Labourers worked for 3 - 6 moths during last year - Males": 28294,
      "Scheduled Caste Females": 194296,
      "Marginal Workers Cultivators - Males": 7183,
      "Marginal Workers - Males": 81266,
      "Marginal Workers worked for 0 - 3 moths during last year - Females": 10540,
      "Households with main source of drinking water within premises in percentage Houselisting and Housing Census Data Tables- District Level , Census of India": 31.40796784,
      "Marginal Workers Household Industry worked for 3 - 6 moths during last year - Persons": 8121,
      "Upper Primary Girl's Enrolment in percentage DISE": 49.8,
      "Prevalence of Severe Anaemia in women aged 15-49years in percentage DLHS-4": 7.9,
      "Marginal Workers Agricultural Labourers worked for 0 - 3 moths during last year - Males": 2435,
      "Households with electricity as main source of lighting  Houselisting and Housing Census Data Tables- District Level , Census of India__3": 372671,
      "Households with computer or laptop with internet connection in percentage": 1.81,
      "PHCs functioning on a 24x7hours basis in percentage DLHS-4": 45.7,
      "Non Workers - Males": 400761,
      "Total Households in District Houselisting and Housing Census Data Tables- District Level , Census of India": 404840,
      "Upper Primary Schools with girls toilet in percentage DISE": 100,
      "Households with mobile phone in percentage": 59.16,
      "Households receiving untreated tap water within premises in percentage Houselisting and Housing Census Data Tables- District Level , Census of India__2": 5.695063891,
      "Marginal Workers Cultivators worked for 3 - 6 moths during last year - Males": 6578,
      "Prevalence of Anaemia  in percentage DLHS-4": 73.5,
      "Prevalence of Chronic illness in percentage DLHS-4": 5.8,
      "Households with solar energy as main source of lighting in percentage Houselisting and Housing Census Data Tables- District Level , Census of India__1": 0.142772453,
      "Marginal Workers Agricultural Labourers worked for 0 - 3 moths during last year - Females": 3399,
      "Main Workers - Males": 504373,
      "Female": 68.91,
      "Sno": 800,
      "Marginal Workers Other worked for 3 - 6 moths during last year - Females": 20738,
      "Marginal Workers Cultivators worked for 0 - 3 moths during last year - Females": 995,
      "Scheduled Tribe Males": 117808,
      "Male Illiterates": 265763,
      "Prevalence of Severe Anaemia in pregnant women aged 15-49years in percentage DLHS-4": 8.3,
      "0-6 Age Group Persons": 217731,
      "Upper Primary Student-Classroom Ratio in percentage DISE": 18,
      "Currently married men married below 21years of age in percentage DLHS-4": 5.4,
      "Male Literates": 720637,
      "Households with no lighting in percentage Houselisting and Housing Census Data Tables- District Level , Census of India__2": 0.397193953,
      "Primary Drop Out Rate in percentage DISE": 3.2,
      "Marginal Workers Household Industry - Males": 4716,
      "Female Illiterates": 371194,
      "Main Workers Other - Females": 55113,
      "Marginal Workers Cultivators - Persons": 15764,
      "Upper Primary Gross Enrolment Ratio in percentage DISE": 92.2,
      "Scheduled Caste Persons": 392595,
      "Marginal Workers Cultivators worked for 3 - 6 moths during last year - Persons": 14164,
      "Households with landline phone in percentage": 5.87,
      "Total Households in District  Houselisting and Housing Census Data Tables- District Level , Census of India": 404840,
      "Upper Primary Pupil-Teacher Ratio in percentage DISE": 18,
      "Primary Student-Classroom Ratio in percentage DISE": 13,
      "Primary Schools with boys toilet in percentage DISE": 100,
      "Mean number of children ever born to women aged 40-49years  DLHS-4": 3,
      "Households receiving untreated tap water within premises  Houselisting and Housing Census Data Tables- District Level , Census of India__5": 26496,
      "Marginal Workers Household Industry worked for 0 - 3 moths during last year - Persons": 2920,
      "Total Male Population": 986400,
      "Non Workers - Females": 669529,
      "Current use of family planning methods in percentage DLHS-4": 69.8,
      "Households with main source of drinking water within premises  Houselisting and Housing Census Data Tables- District Level , Census of India__3": 146124,
      "Main Workers Agricultural Labourers - Males": 116814,
      "Marginal Workers Other worked for 0 - 3 moths during last year - Persons": 10887,
      "Currently married women married below 18years of age in percentage DLHS-4": 7,
      "Person Illiterates": 636957,
      "Main Workers Household Industry - Females": 9102,
      "Female Literates": 587903,
      "Marginal Workers Cultivators worked for 0 - 3 moths during last year - Males": 605,
      "Male": 82.4,
      "Households with improved source of drinking water in percentage DLHS-4": 99,
      "Upper Primary Schools with electricity in percentage DISE": 91.2,
      "Households with electricity in percentage DLHS-4": 96.1,
      "Villages with Primary Health Centre within 10km in percentage DLHS-4": 88.6,
      "Births to women aged 15-19years out of Total births in percentage DLHS-4": 4.6,
      "Prevalence of Anaemia in women aged 15-49years in percentage DLHS-4": 57,
      "Marginal Workers Agricultural Labourers worked for 3 - 6 moths during last year - Persons": 73486,
      "Main Workers Household Industry - Males": 11295,
      "Scheduled Tribe Females": 115304,
      "Marginal Workers worked for 0 - 3 moths during last year - Males": 10701,
      "Marginal Workers Other worked for 3 - 6 moths during last year - Males": 32358,
      "Primary Net Enrolment Ratio in percentage DISE": 94.6,
      "Total": 75.74,
      "Mean age at marriage for boys DLHS-4": 27.2,
      "Number of District Hospitals  DLHS-4": 1,
      "0-6 Age Group Females": 105938,
      "Marginal Workers Agricultural Labourers worked for 0 - 3 moths during last year - Persons": 5834,
      "Marginal Workers Household Industry worked for 0 - 3 moths during last year - Males": 1381,
      "Total Workers  Females": 289568,
      "Marginal Workers worked for 3 - 6 moths during last year - Females": 78302,
      "Institutional Deliveries in percentage DLHS-4": 95.2,
      "Marginal Workers Other - Males": 38638,
      "Total Workers  Males": 585639,
      "Main Workers - Females": 200726,
      "Primary Gross Enrolment Ratio in percentage DISE": 104.6,
      "Main Workers Cultivators - Persons": 215082,
      "Marginal Workers Household Industry worked for 0 - 3 moths during last year - Females": 1539,
      "Upper Primary Net Enrolment Ratio in percentage DISE": 83.9,
      "Primary New Government Schools since 2003 in percentage DISE": 9.3,
      "Tier": "Total",
      "Marginal Workers Household Industry - Females": 6325,
      "Primary Schools with electricity in percentage DISE": 95.2,
      "Main Workers Other - Persons": 253067,
      "Marginal Workers Household Industry worked for 3 - 6 moths during last year - Females": 4786,
      "Main Workers Cultivators - Males": 178310,
      "Main Workers Household Industry - Persons": 20397,
      "Marginal Workers Cultivators worked for 0 - 3 moths during last year - Persons": 1600,
      "Scheduled Caste Males": 198299,
      "Marginal Workers - Persons": 170108,
      "Deliveries at home conducted by skilled health personnel in percentage DLHS-4": 1.4,
      "Villages with Sub-Health Centres within 3km in percentage DLHS-4": 79.6,
      "Upper Primary New Government Schools since 2003 in percentage DISE": 33.3,
      "0-6 Age Group Males": 111793,
      "Primary Schools with drinking water facility in percentage DISE": 100,
      "Non Workers - Persons": 1070290,
      "Person Literates": 1308540,
      "State": "KARNATAKA",
      "Total Female Population": 959097,
      "Marginal Workers worked for 0 - 3 moths during last year - Persons": 21241,
      "Marginal Workers Cultivators - Females": 8581,
      "Marginal Workers Other - Persons": 63983,
      "Sex Ratio": 972,
      "Scheduled Tribe Persons": 233112,
      "Marginal Workers Household Industry worked for 3 - 6 moths during last year - Males": 3335,
      "Marginal Workers Agricultural Labourers - Females": 48591,
      "Mean age at marriage for girls DLHS-4": 21.2,
      "Households with solar energy as main source of lighting  Houselisting and Housing Census Data Tables- District Level , Census of India__4": 578,
      "District": "DAVANAGERE",
      "Households receiving treated tap water within premises in percentage Houselisting and Housing Census Data Tables- District Level , Census of India__1": 20.22224849,
      "Total Workers  Persons": 875207,
      "Households receiving treated tap water within premises  Houselisting and Housing Census Data Tables- District Level , Census of India__4": 94083,
      "Primary Female Teachers in percentage DISE": 54.4,
      "Number of Households": 410176,
      "Main Workers Agricultural Labourers - Persons": 216553
    }
  ],
  "Rural": [
    {
      "Marginal Workers Agricultural Labourers - Persons": 76181,
      "Marginal Workers Other - Females": 14213,
      "Marginal Workers Other worked for 0 - 3 moths during last year - Females": 2868,
      "Upper Primary Schools with boys toilet in percentage DISE": "NA",
      "Total Population": 1316487,
      "Households with electricity as main source of lighting in percentage Houselisting and Housing Census Data Tables- District Level , Census of India": 90.10511891,
      "Primary Girl's Enrolment in percentage DISE": "NA",
      "Marginal Workers worked for 3 - 6 moths during last year - Males": 47235,
      "Prevalence of Acute illness in percentage DLHS-4": 8.2,
      "Main Workers - Persons": 513459,
      "Main Workers Cultivators - Females": 36091,
      "Marginal Workers Agricultural Labourers worked for 3 - 6 moths during last year - Females": 43815,
      "Marginal Workers Other worked for 0 - 3 moths during last year - Males": 2648,
      "Upper Primary Schools with drinking water facility in percentage DISE": "NA",
      "Primary Schools with girls toilet in percentage DISE": "NA",
      "Marginal Workers worked for 3 - 6 moths during last year - Persons": 112763,
      "Upper Primary Drop Out Rate in percentage DISE": "NA",
      "Prevalence of Anaemia in pregnant women aged 15-49years in percentage DLHS-4": 65.6,
      "Current use of any modern method of family planning in percentage DLHS-4": 73.3,
      "Marginal Workers Agricultural Labourers - Males": 29137,
      "Upper Primary Female Teachers in percentage DISE": "NA",
      "Marginal Workers - Females": 73663,
      "Marginal Workers Other worked for 3 - 6 moths during last year - Persons": 23522,
      "Main Workers Agricultural Labourers - Females": 96340,
      "Marginal Workers Cultivators worked for 3 - 6 moths during last year - Females": 7387,
      "Households with no lighting  Houselisting and Housing Census Data Tables- District Level , Census of India__5": 1347,
      "Prevalence of Severe Anaemia  in percentage DLHS-4": 16.8,
      "Total unmet need for family planning in percentage DLHS-4": 9.6,
      "Main Workers Other - Males": 63096,
      "Children who received full vaccination in percentage DLHS-4": 83.3,
      "Marginal Workers Household Industry - Persons": 6870,
      "Primary Pupil-Teacher Ratio in percentage DISE": "NA",
      "Marginal Workers Agricultural Labourers worked for 3 - 6 moths during last year - Males": 26946,
      "Scheduled Caste Females": 156222,
      "Marginal Workers Cultivators - Males": 6706,
      "Marginal Workers - Males": 53499,
      "Marginal Workers worked for 0 - 3 moths during last year - Females": 8135,
      "Households with main source of drinking water within premises in percentage Houselisting and Housing Census Data Tables- District Level , Census of India": 16.71454847,
      "Marginal Workers Household Industry worked for 3 - 6 moths during last year - Persons": 4950,
      "Upper Primary Girl's Enrolment in percentage DISE": "NA",
      "Prevalence of Severe Anaemia in women aged 15-49years in percentage DLHS-4": 6.9,
      "Marginal Workers Agricultural Labourers worked for 0 - 3 moths during last year - Males": 2191,
      "Households with electricity as main source of lighting  Houselisting and Housing Census Data Tables- District Level , Census of India__3": 245923,
      "Households with computer or laptop with internet connection in percentage": 0.6,
      "PHCs functioning on a 24x7hours basis in percentage DLHS-4": "Not applicable",
      "Non Workers - Males": 260234,
      "Total Households in District Houselisting and Housing Census Data Tables- District Level , Census of India": 272929,
      "Upper Primary Schools with girls toilet in percentage DISE": "NA",
      "Households with mobile phone in percentage": 56.16,
      "Households receiving untreated tap water within premises in percentage Houselisting and Housing Census Data Tables- District Level , Census of India__2": 5.550009469,
      "Marginal Workers Cultivators worked for 3 - 6 moths during last year - Males": 6143,
      "Prevalence of Anaemia  in percentage DLHS-4": 75.8,
      "Prevalence of Chronic illness in percentage DLHS-4": 6.3,
      "Households with solar energy as main source of lighting in percentage Houselisting and Housing Census Data Tables- District Level , Census of India__1": 0.16194688,
      "Marginal Workers Agricultural Labourers worked for 0 - 3 moths during last year - Females": 3229,
      "Main Workers - Males": 354534,
      "Female": "NA",
      "Sno": 799,
      "Marginal Workers Other worked for 3 - 6 moths during last year - Females": 11345,
      "Marginal Workers Cultivators worked for 0 - 3 moths during last year - Females": 980,
      "Scheduled Tribe Males": 96936,
      "Male Illiterates": 196579,
      "Prevalence of Severe Anaemia in pregnant women aged 15-49years in percentage DLHS-4": 5.2,
      "0-6 Age Group Persons": 147770,
      "Upper Primary Student-Classroom Ratio in percentage DISE": "NA",
      "Currently married men married below 21years of age in percentage DLHS-4": 7,
      "Male Literates": 471688,
      "Households with no lighting in percentage Houselisting and Housing Census Data Tables- District Level , Census of India__2": 0.493534949,
      "Primary Drop Out Rate in percentage DISE": "NA",
      "Marginal Workers Household Industry - Males": 2831,
      "Female Illiterates": 281085,
      "Main Workers Other - Females": 23194,
      "Marginal Workers Cultivators - Persons": 15073,
      "Upper Primary Gross Enrolment Ratio in percentage DISE": "NA",
      "Scheduled Caste Persons": 315926,
      "Marginal Workers Cultivators worked for 3 - 6 moths during last year - Persons": 13530,
      "Households with landline phone in percentage": 5.5,
      "Total Households in District  Houselisting and Housing Census Data Tables- District Level , Census of India": 272929,
      "Upper Primary Pupil-Teacher Ratio in percentage DISE": "NA",
      "Primary Student-Classroom Ratio in percentage DISE": "NA",
      "Primary Schools with boys toilet in percentage DISE": "NA",
      "Mean number of children ever born to women aged 40-49years  DLHS-4": 3.1,
      "Households receiving untreated tap water within premises  Houselisting and Housing Census Data Tables- District Level , Census of India__5": 17290,
      "Marginal Workers Household Industry worked for 0 - 3 moths during last year - Persons": 1920,
      "Total Male Population": 668267,
      "Non Workers - Females": 415632,
      "Current use of family planning methods in percentage DLHS-4": 73.5,
      "Households with main source of drinking water within premises  Houselisting and Housing Census Data Tables- District Level , Census of India__3": 52071,
      "Main Workers Agricultural Labourers - Males": 111457,
      "Marginal Workers Other worked for 0 - 3 moths during last year - Persons": 5516,
      "Currently married women married below 18years of age in percentage DLHS-4": 8.2,
      "Person Illiterates": 477664,
      "Main Workers Household Industry - Females": 3300,
      "Female Literates": 367135,
      "Marginal Workers Cultivators worked for 0 - 3 moths during last year - Males": 563,
      "Male": "NA",
      "Households with improved source of drinking water in percentage DLHS-4": 98.5,
      "Upper Primary Schools with electricity in percentage DISE": "NA",
      "Households with electricity in percentage DLHS-4": 94.3,
      "Villages with Primary Health Centre within 10km in percentage DLHS-4": "Not applicable",
      "Births to women aged 15-19years out of Total births in percentage DLHS-4": 4.4,
      "Prevalence of Anaemia in women aged 15-49years in percentage DLHS-4": 59.8,
      "Marginal Workers Agricultural Labourers worked for 3 - 6 moths during last year - Persons": 70761,
      "Main Workers Household Industry - Males": 6680,
      "Scheduled Tribe Females": 94818,
      "Marginal Workers worked for 0 - 3 moths during last year - Males": 6264,
      "Marginal Workers Other worked for 3 - 6 moths during last year - Males": 12177,
      "Primary Net Enrolment Ratio in percentage DISE": "NA",
      "Total": "NA",
      "Mean age at marriage for boys DLHS-4": 27.1,
      "Number of District Hospitals  DLHS-4": "Not applicable",
      "0-6 Age Group Females": 71819,
      "Marginal Workers Agricultural Labourers worked for 0 - 3 moths during last year - Persons": 5420,
      "Marginal Workers Household Industry worked for 0 - 3 moths during last year - Males": 862,
      "Total Workers  Females": 232588,
      "Marginal Workers worked for 3 - 6 moths during last year - Females": 65528,
      "Institutional Deliveries in percentage DLHS-4": 95.2,
      "Marginal Workers Other - Males": 14825,
      "Total Workers  Males": 408033,
      "Main Workers - Females": 158925,
      "Primary Gross Enrolment Ratio in percentage DISE": "NA",
      "Main Workers Cultivators - Persons": 209392,
      "Marginal Workers Household Industry worked for 0 - 3 moths during last year - Females": 1058,
      "Upper Primary Net Enrolment Ratio in percentage DISE": "NA",
      "Primary New Government Schools since 2003 in percentage DISE": "NA",
      "Tier": "Rural",
      "Marginal Workers Household Industry - Females": 4039,
      "Primary Schools with electricity in percentage DISE": "NA",
      "Main Workers Other - Persons": 86290,
      "Marginal Workers Household Industry worked for 3 - 6 moths during last year - Females": 2981,
      "Main Workers Cultivators - Males": 173301,
      "Main Workers Household Industry - Persons": 9980,
      "Marginal Workers Cultivators worked for 0 - 3 moths during last year - Persons": 1543,
      "Scheduled Caste Males": 159704,
      "Marginal Workers - Persons": 127162,
      "Deliveries at home conducted by skilled health personnel in percentage DLHS-4": 1.5,
      "Villages with Sub-Health Centres within 3km in percentage DLHS-4": "Not applicable",
      "Upper Primary New Government Schools since 2003 in percentage DISE": "NA",
      "0-6 Age Group Males": 75951,
      "Primary Schools with drinking water facility in percentage DISE": "NA",
      "Non Workers - Persons": 675866,
      "Person Literates": 838823,
      "State": "KARNATAKA",
      "Total Female Population": 648220,
      "Marginal Workers worked for 0 - 3 moths during last year - Persons": 14399,
      "Marginal Workers Cultivators - Females": 8367,
      "Marginal Workers Other - Persons": 29038,
      "Sex Ratio": 970,
      "Scheduled Tribe Persons": 191754,
      "Marginal Workers Household Industry worked for 3 - 6 moths during last year - Males": 1969,
      "Marginal Workers Agricultural Labourers - Females": 47044,
      "Mean age at marriage for girls DLHS-4": 20.6,
      "Households with solar energy as main source of lighting  Houselisting and Housing Census Data Tables- District Level , Census of India__4": 442,
      "District": "DAVANAGERE",
      "Households receiving treated tap water within premises in percentage Houselisting and Housing Census Data Tables- District Level , Census of India__1": 8.24604935,
      "Total Workers  Persons": 640621,
      "Households receiving treated tap water within premises  Houselisting and Housing Census Data Tables- District Level , Census of India__4": 25689,
      "Primary Female Teachers in percentage DISE": "NA",
      "Number of Households": 275421,
      "Main Workers Agricultural Labourers - Persons": 207797
    }
  ],
  "Urban": [
    {
      "Marginal Workers Agricultural Labourers - Persons": 3139,
      "Marginal Workers Other - Females": 11132,
      "Marginal Workers Other worked for 0 - 3 moths during last year - Females": 1739,
      "Upper Primary Schools with boys toilet in percentage DISE": "NA",
      "Total Population": 629010,
      "Households with electricity as main source of lighting in percentage Houselisting and Housing Census Data Tables- District Level , Census of India": 96.08599738,
      "Primary Girl's Enrolment in percentage DISE": "NA",
      "Marginal Workers worked for 3 - 6 moths during last year - Males": 23330,
      "Prevalence of Acute illness in percentage DLHS-4": "Not available",
      "Main Workers - Persons": 191640,
      "Main Workers Cultivators - Females": 681,
      "Marginal Workers Agricultural Labourers worked for 3 - 6 moths during last year - Females": 1377,
      "Marginal Workers Other worked for 0 - 3 moths during last year - Males": 3632,
      "Upper Primary Schools with drinking water facility in percentage DISE": "NA",
      "Primary Schools with girls toilet in percentage DISE": "NA",
      "Marginal Workers worked for 3 - 6 moths during last year - Persons": 36104,
      "Upper Primary Drop Out Rate in percentage DISE": "NA",
      "Prevalence of Anaemia in pregnant women aged 15-49years in percentage DLHS-4": "Not available",
      "Current use of any modern method of family planning in percentage DLHS-4": "Not available",
      "Marginal Workers Agricultural Labourers - Males": 1592,
      "Upper Primary Female Teachers in percentage DISE": "NA",
      "Marginal Workers - Females": 15179,
      "Marginal Workers Other worked for 3 - 6 moths during last year - Persons": 29574,
      "Main Workers Agricultural Labourers - Females": 3399,
      "Marginal Workers Cultivators worked for 3 - 6 moths during last year - Females": 199,
      "Households with no lighting  Houselisting and Housing Census Data Tables- District Level , Census of India__5": 261,
      "Prevalence of Severe Anaemia  in percentage DLHS-4": "Not available",
      "Total unmet need for family planning in percentage DLHS-4": "Not available",
      "Main Workers Other - Males": 134858,
      "Children who received full vaccination in percentage DLHS-4": "Not available",
      "Marginal Workers Household Industry - Persons": 4171,
      "Primary Pupil-Teacher Ratio in percentage DISE": "NA",
      "Marginal Workers Agricultural Labourers worked for 3 - 6 moths during last year - Males": 1348,
      "Scheduled Caste Females": 38074,
      "Marginal Workers Cultivators - Males": 477,
      "Marginal Workers - Males": 27767,
      "Marginal Workers worked for 0 - 3 moths during last year - Females": 2405,
      "Households with main source of drinking water within premises in percentage Houselisting and Housing Census Data Tables- District Level , Census of India": 61.18700964,
      "Marginal Workers Household Industry worked for 3 - 6 moths during last year - Persons": 3171,
      "Upper Primary Girl's Enrolment in percentage DISE": "NA",
      "Prevalence of Severe Anaemia in women aged 15-49years in percentage DLHS-4": "Not available",
      "Marginal Workers Agricultural Labourers worked for 0 - 3 moths during last year - Males": 244,
      "Households with electricity as main source of lighting  Houselisting and Housing Census Data Tables- District Level , Census of India__3": 126748,
      "Households with computer or laptop with internet connection in percentage": 4.31,
      "PHCs functioning on a 24x7hours basis in percentage DLHS-4": 0,
      "Non Workers - Males": 140527,
      "Total Households in District Houselisting and Housing Census Data Tables- District Level , Census of India": 131911,
      "Upper Primary Schools with girls toilet in percentage DISE": "NA",
      "Households with mobile phone in percentage": 65.38,
      "Households receiving untreated tap water within premises in percentage Houselisting and Housing Census Data Tables- District Level , Census of India__2": 5.989044589,
      "Marginal Workers Cultivators worked for 3 - 6 moths during last year - Males": 435,
      "Prevalence of Anaemia  in percentage DLHS-4": "Not available",
      "Prevalence of Chronic illness in percentage DLHS-4": "Not available",
      "Households with solar energy as main source of lighting in percentage Houselisting and Housing Census Data Tables- District Level , Census of India__1": 0.103099817,
      "Marginal Workers Agricultural Labourers worked for 0 - 3 moths during last year - Females": 170,
      "Main Workers - Males": 149839,
      "Female": "NA",
      "Sno": 801,
      "Marginal Workers Other worked for 3 - 6 moths during last year - Females": 9393,
      "Marginal Workers Cultivators worked for 0 - 3 moths during last year - Females": 15,
      "Scheduled Tribe Males": 20872,
      "Male Illiterates": 69184,
      "Prevalence of Severe Anaemia in pregnant women aged 15-49years in percentage DLHS-4": "Not available",
      "0-6 Age Group Persons": 69961,
      "Upper Primary Student-Classroom Ratio in percentage DISE": "NA",
      "Currently married men married below 21years of age in percentage DLHS-4": "Not available",
      "Male Literates": 248949,
      "Households with no lighting in percentage Houselisting and Housing Census Data Tables- District Level , Census of India__2": 0.197860679,
      "Primary Drop Out Rate in percentage DISE": "NA",
      "Marginal Workers Household Industry - Males": 1885,
      "Female Illiterates": 90109,
      "Main Workers Other - Females": 31919,
      "Marginal Workers Cultivators - Persons": 691,
      "Upper Primary Gross Enrolment Ratio in percentage DISE": "NA",
      "Scheduled Caste Persons": 76669,
      "Marginal Workers Cultivators worked for 3 - 6 moths during last year - Persons": 634,
      "Households with landline phone in percentage": 6.64,
      "Total Households in District  Houselisting and Housing Census Data Tables- District Level , Census of India": 131911,
      "Upper Primary Pupil-Teacher Ratio in percentage DISE": "NA",
      "Primary Student-Classroom Ratio in percentage DISE": "NA",
      "Primary Schools with boys toilet in percentage DISE": "NA",
      "Mean number of children ever born to women aged 40-49years  DLHS-4": "Not available",
      "Households receiving untreated tap water within premises  Houselisting and Housing Census Data Tables- District Level , Census of India__5": 9206,
      "Marginal Workers Household Industry worked for 0 - 3 moths during last year - Persons": 1000,
      "Total Male Population": 318133,
      "Non Workers - Females": 253897,
      "Current use of family planning methods in percentage DLHS-4": "Not available",
      "Households with main source of drinking water within premises  Houselisting and Housing Census Data Tables- District Level , Census of India__3": 94053,
      "Main Workers Agricultural Labourers - Males": 5357,
      "Marginal Workers Other worked for 0 - 3 moths during last year - Persons": 5371,
      "Currently married women married below 18years of age in percentage DLHS-4": "Not available",
      "Person Illiterates": 159293,
      "Main Workers Household Industry - Females": 5802,
      "Female Literates": 220768,
      "Marginal Workers Cultivators worked for 0 - 3 moths during last year - Males": 42,
      "Male": "NA",
      "Households with improved source of drinking water in percentage DLHS-4": "Not available",
      "Upper Primary Schools with electricity in percentage DISE": "NA",
      "Households with electricity in percentage DLHS-4": "Not available",
      "Villages with Primary Health Centre within 10km in percentage DLHS-4": 0,
      "Births to women aged 15-19years out of Total births in percentage DLHS-4": "Not available",
      "Prevalence of Anaemia in women aged 15-49years in percentage DLHS-4": "Not available",
      "Marginal Workers Agricultural Labourers worked for 3 - 6 moths during last year - Persons": 2725,
      "Main Workers Household Industry - Males": 4615,
      "Scheduled Tribe Females": 20486,
      "Marginal Workers worked for 0 - 3 moths during last year - Males": 4437,
      "Marginal Workers Other worked for 3 - 6 moths during last year - Males": 20181,
      "Primary Net Enrolment Ratio in percentage DISE": "NA",
      "Total": "NA",
      "Mean age at marriage for boys DLHS-4": "Not available",
      "Number of District Hospitals  DLHS-4": 0,
      "0-6 Age Group Females": 34119,
      "Marginal Workers Agricultural Labourers worked for 0 - 3 moths during last year - Persons": 414,
      "Marginal Workers Household Industry worked for 0 - 3 moths during last year - Males": 519,
      "Total Workers  Females": 56980,
      "Marginal Workers worked for 3 - 6 moths during last year - Females": 12774,
      "Institutional Deliveries in percentage DLHS-4": "Not available",
      "Marginal Workers Other - Males": 23813,
      "Total Workers  Males": 177606,
      "Main Workers - Females": 41801,
      "Primary Gross Enrolment Ratio in percentage DISE": "NA",
      "Main Workers Cultivators - Persons": 5690,
      "Marginal Workers Household Industry worked for 0 - 3 moths during last year - Females": 481,
      "Upper Primary Net Enrolment Ratio in percentage DISE": "NA",
      "Primary New Government Schools since 2003 in percentage DISE": "NA",
      "Tier": "Urban",
      "Marginal Workers Household Industry - Females": 2286,
      "Primary Schools with electricity in percentage DISE": "NA",
      "Main Workers Other - Persons": 166777,
      "Marginal Workers Household Industry worked for 3 - 6 moths during last year - Females": 1805,
      "Main Workers Cultivators - Males": 5009,
      "Main Workers Household Industry - Persons": 10417,
      "Marginal Workers Cultivators worked for 0 - 3 moths during last year - Persons": 57,
      "Scheduled Caste Males": 38595,
      "Marginal Workers - Persons": 42946,
      "Deliveries at home conducted by skilled health personnel in percentage DLHS-4": "Not available",
      "Villages with Sub-Health Centres within 3km in percentage DLHS-4": 0,
      "Upper Primary New Government Schools since 2003 in percentage DISE": "NA",
      "0-6 Age Group Males": 35842,
      "Primary Schools with drinking water facility in percentage DISE": "NA",
      "Non Workers - Persons": 394424,
      "Person Literates": 469717,
      "State": "KARNATAKA",
      "Total Female Population": 310877,
      "Marginal Workers worked for 0 - 3 moths during last year - Persons": 6842,
      "Marginal Workers Cultivators - Females": 214,
      "Marginal Workers Other - Persons": 34945,
      "Sex Ratio": 977,
      "Scheduled Tribe Persons": 41358,
      "Marginal Workers Household Industry worked for 3 - 6 moths during last year - Males": 1366,
      "Marginal Workers Agricultural Labourers - Females": 1547,
      "Mean age at marriage for girls DLHS-4": "Not available",
      "Households with solar energy as main source of lighting  Houselisting and Housing Census Data Tables- District Level , Census of India__4": 136,
      "District": "DAVANAGERE",
      "Households receiving treated tap water within premises in percentage Houselisting and Housing Census Data Tables- District Level , Census of India__1": 44.49432062,
      "Total Workers  Persons": 234586,
      "Households receiving treated tap water within premises  Houselisting and Housing Census Data Tables- District Level , Census of India__4": 68394,
      "Primary Female Teachers in percentage DISE": "NA",
      "Number of Households": 134755,
      "Main Workers Agricultural Labourers - Persons": 8756
    }
  ]
}