{
  "Total": [
    {
      "Marginal Workers Agricultural Labourers - Persons": 38117,
      "Marginal Workers Other - Females": 13999,
      "Marginal Workers Other worked for 0 - 3 moths during last year - Females": 2479,
      "Upper Primary Schools with boys toilet in percentage DISE": 100,
      "Total Population": 1847023,
      "Households with electricity as main source of lighting in percentage Houselisting and Housing Census Data Tables- District Level , Census of India": 93.52459589,
      "Primary Girl's Enrolment in percentage DISE": 48.8,
      "Marginal Workers worked for 3 - 6 moths during last year - Males": 35357,
      "Prevalence of Acute illness in percentage DLHS-4": 6.6,
      "Main Workers - Persons": 690948,
      "Main Workers Cultivators - Females": 36717,
      "Marginal Workers Agricultural Labourers worked for 3 - 6 moths during last year - Females": 24813,
      "Marginal Workers Other worked for 0 - 3 moths during last year - Males": 4740,
      "Upper Primary Schools with drinking water facility in percentage DISE": 100,
      "Primary Schools with girls toilet in percentage DISE": 100,
      "Marginal Workers worked for 3 - 6 moths during last year - Persons": 79901,
      "Upper Primary Drop Out Rate in percentage DISE": 5.89,
      "Prevalence of Anaemia in pregnant women aged 15-49years in percentage DLHS-4": 66,
      "Current use of any modern method of family planning in percentage DLHS-4": 62.9,
      "Marginal Workers Agricultural Labourers - Males": 10900,
      "Upper Primary Female Teachers in percentage DISE": 91.7,
      "Marginal Workers - Females": 51009,
      "Marginal Workers Other worked for 3 - 6 moths during last year - Persons": 33839,
      "Main Workers Agricultural Labourers - Females": 84827,
      "Marginal Workers Cultivators worked for 3 - 6 moths during last year - Females": 6830,
      "Households with no lighting  Houselisting and Housing Census Data Tables- District Level , Census of India__5": 850,
      "Prevalence of Severe Anaemia  in percentage DLHS-4": 15,
      "Total unmet need for family planning in percentage DLHS-4": 18.4,
      "Main Workers Other - Males": 290681,
      "Children who received full vaccination in percentage DLHS-4": 67,
      "Marginal Workers Household Industry - Persons": 3409,
      "Primary Pupil-Teacher Ratio in percentage DISE": 20,
      "Marginal Workers Agricultural Labourers worked for 3 - 6 moths during last year - Males": 9340,
      "Scheduled Caste Females": 88718,
      "Marginal Workers Cultivators - Males": 3283,
      "Marginal Workers - Males": 42876,
      "Marginal Workers worked for 0 - 3 moths during last year - Females": 6465,
      "Households with main source of drinking water within premises in percentage Houselisting and Housing Census Data Tables- District Level , Census of India": 34.45673341,
      "Marginal Workers Household Industry worked for 3 - 6 moths during last year - Persons": 2642,
      "Upper Primary Girl's Enrolment in percentage DISE": 83.8,
      "Prevalence of Severe Anaemia in women aged 15-49years in percentage DLHS-4": 5.8,
      "Marginal Workers Agricultural Labourers worked for 0 - 3 moths during last year - Males": 1560,
      "Households with electricity as main source of lighting  Houselisting and Housing Census Data Tables- District Level , Census of India__3": 347962,
      "Households with computer or laptop with internet connection in percentage": 4.04,
      "PHCs functioning on a 24x7hours basis in percentage DLHS-4": 75,
      "Non Workers - Males": 393430,
      "Total Households in District Houselisting and Housing Census Data Tables- District Level , Census of India": 372054,
      "Upper Primary Schools with girls toilet in percentage DISE": 100,
      "Households with mobile phone in percentage": 56.84,
      "Households receiving untreated tap water within premises in percentage Houselisting and Housing Census Data Tables- District Level , Census of India__2": 9.636331448,
      "Marginal Workers Cultivators worked for 3 - 6 moths during last year - Males": 2437,
      "Prevalence of Anaemia  in percentage DLHS-4": 15,
      "Prevalence of Chronic illness in percentage DLHS-4": 5,
      "Households with solar energy as main source of lighting in percentage Houselisting and Housing Census Data Tables- District Level , Census of India__1": 0.11127417,
      "Marginal Workers Agricultural Labourers worked for 0 - 3 moths during last year - Females": 2404,
      "Main Workers - Males": 500900,
      "Female": 73.46,
      "Sno": 803,
      "Marginal Workers Other worked for 3 - 6 moths during last year - Females": 11520,
      "Marginal Workers Cultivators worked for 0 - 3 moths during last year - Females": 1188,
      "Scheduled Tribe Males": 44173,
      "Male Illiterates": 225430,
      "Prevalence of Severe Anaemia in pregnant women aged 15-49years in percentage DLHS-4": 3.8,
      "0-6 Age Group Persons": 219942,
      "Upper Primary Student-Classroom Ratio in percentage DISE": 16,
      "Currently married men married below 21years of age in percentage DLHS-4": 3,
      "Male Literates": 711776,
      "Households with no lighting in percentage Houselisting and Housing Census Data Tables- District Level , Census of India__2": 0.22846146,
      "Primary Drop Out Rate in percentage DISE": 5.4,
      "Marginal Workers Household Industry - Males": 1634,
      "Female Illiterates": 319929,
      "Main Workers Other - Females": 64710,
      "Marginal Workers Cultivators - Persons": 11301,
      "Upper Primary Gross Enrolment Ratio in percentage DISE": 88.7,
      "Scheduled Caste Persons": 177855,
      "Marginal Workers Cultivators worked for 3 - 6 moths during last year - Persons": 9267,
      "Households with landline phone in percentage": 6.52,
      "Total Households in District  Houselisting and Housing Census Data Tables- District Level , Census of India": 372054,
      "Upper Primary Pupil-Teacher Ratio in percentage DISE": 11,
      "Primary Student-Classroom Ratio in percentage DISE": 16,
      "Primary Schools with boys toilet in percentage DISE": 99.4,
      "Mean number of children ever born to women aged 40-49years  DLHS-4": 3.1,
      "Households receiving untreated tap water within premises  Houselisting and Housing Census Data Tables- District Level , Census of India__5": 41368,
      "Marginal Workers Household Industry worked for 0 - 3 moths during last year - Persons": 767,
      "Total Male Population": 937206,
      "Non Workers - Females": 668760,
      "Current use of family planning methods in percentage DLHS-4": 63,
      "Households with main source of drinking water within premises  Houselisting and Housing Census Data Tables- District Level , Census of India__3": 147920,
      "Main Workers Agricultural Labourers - Males": 84698,
      "Marginal Workers Other worked for 0 - 3 moths during last year - Persons": 7219,
      "Currently married women married below 18years of age in percentage DLHS-4": 13.1,
      "Person Illiterates": 545359,
      "Main Workers Household Industry - Females": 3794,
      "Female Literates": 589888,
      "Marginal Workers Cultivators worked for 0 - 3 moths during last year - Males": 846,
      "Male": 86.37,
      "Households with improved source of drinking water in percentage DLHS-4": 91.7,
      "Upper Primary Schools with electricity in percentage DISE": 100,
      "Households with electricity in percentage DLHS-4": 95.7,
      "Villages with Primary Health Centre within 10km in percentage DLHS-4": 76,
      "Births to women aged 15-19years out of Total births in percentage DLHS-4": 9.4,
      "Prevalence of Anaemia in women aged 15-49years in percentage DLHS-4": 68,
      "Marginal Workers Agricultural Labourers worked for 3 - 6 moths during last year - Persons": 34153,
      "Main Workers Household Industry - Males": 9260,
      "Scheduled Tribe Females": 43375,
      "Marginal Workers worked for 0 - 3 moths during last year - Males": 7519,
      "Marginal Workers Other worked for 3 - 6 moths during last year - Males": 22319,
      "Primary Net Enrolment Ratio in percentage DISE": 90.7,
      "Total": 80,
      "Mean age at marriage for boys DLHS-4": 26.3,
      "Number of District Hospitals  DLHS-4": 1,
      "0-6 Age Group Females": 106815,
      "Marginal Workers Agricultural Labourers worked for 0 - 3 moths during last year - Persons": 3964,
      "Marginal Workers Household Industry worked for 0 - 3 moths during last year - Males": 373,
      "Total Workers  Females": 241057,
      "Marginal Workers worked for 3 - 6 moths during last year - Females": 44544,
      "Institutional Deliveries in percentage DLHS-4": 93.3,
      "Marginal Workers Other - Males": 27059,
      "Total Workers  Males": 543776,
      "Main Workers - Females": 190048,
      "Primary Gross Enrolment Ratio in percentage DISE": 97.6,
      "Main Workers Cultivators - Persons": 152978,
      "Marginal Workers Household Industry worked for 0 - 3 moths during last year - Females": 394,
      "Upper Primary Net Enrolment Ratio in percentage DISE": 82.6,
      "Primary New Government Schools since 2003 in percentage DISE": 25.9,
      "Tier": "Total",
      "Marginal Workers Household Industry - Females": 1775,
      "Primary Schools with electricity in percentage DISE": 92.9,
      "Main Workers Other - Persons": 355391,
      "Marginal Workers Household Industry worked for 3 - 6 moths during last year - Females": 1381,
      "Main Workers Cultivators - Males": 116261,
      "Main Workers Household Industry - Persons": 13054,
      "Marginal Workers Cultivators worked for 0 - 3 moths during last year - Persons": 2034,
      "Scheduled Caste Males": 89137,
      "Marginal Workers - Persons": 93885,
      "Deliveries at home conducted by skilled health personnel in percentage DLHS-4": 1.5,
      "Villages with Sub-Health Centres within 3km in percentage DLHS-4": 80,
      "Upper Primary New Government Schools since 2003 in percentage DISE": 100,
      "0-6 Age Group Males": 113127,
      "Primary Schools with drinking water facility in percentage DISE": 100,
      "Non Workers - Persons": 1062190,
      "Person Literates": 1301664,
      "State": "KARNATAKA",
      "Total Female Population": 909817,
      "Marginal Workers worked for 0 - 3 moths during last year - Persons": 13984,
      "Marginal Workers Cultivators - Females": 8018,
      "Marginal Workers Other - Persons": 41058,
      "Sex Ratio": 971,
      "Scheduled Tribe Persons": 87548,
      "Marginal Workers Household Industry worked for 3 - 6 moths during last year - Males": 1261,
      "Marginal Workers Agricultural Labourers - Females": 27217,
      "Mean age at marriage for girls DLHS-4": 20.2,
      "Households with solar energy as main source of lighting  Houselisting and Housing Census Data Tables- District Level , Census of India__4": 414,
      "District": "DHARWAD",
      "Households receiving treated tap water within premises in percentage Houselisting and Housing Census Data Tables- District Level , Census of India__1": 16.81233286,
      "Total Workers  Persons": 784833,
      "Households receiving treated tap water within premises  Houselisting and Housing Census Data Tables- District Level , Census of India__4": 72174,
      "Primary Female Teachers in percentage DISE": 67.4,
      "Number of Households": 382700,
      "Main Workers Agricultural Labourers - Persons": 169525
    }
  ],
  "Rural": [
    {
      "Marginal Workers Agricultural Labourers - Persons": 33701,
      "Marginal Workers Other - Females": 3512,
      "Marginal Workers Other worked for 0 - 3 moths during last year - Females": 794,
      "Upper Primary Schools with boys toilet in percentage DISE": "NA",
      "Total Population": 797484,
      "Households with electricity as main source of lighting in percentage Houselisting and Housing Census Data Tables- District Level , Census of India": 90.81666245,
      "Primary Girl's Enrolment in percentage DISE": "NA",
      "Marginal Workers worked for 3 - 6 moths during last year - Males": 14407,
      "Prevalence of Acute illness in percentage DLHS-4": 5.6,
      "Main Workers - Persons": 352687,
      "Main Workers Cultivators - Females": 33555,
      "Marginal Workers Agricultural Labourers worked for 3 - 6 moths during last year - Females": 22678,
      "Marginal Workers Other worked for 0 - 3 moths during last year - Males": 942,
      "Upper Primary Schools with drinking water facility in percentage DISE": "NA",
      "Primary Schools with girls toilet in percentage DISE": "NA",
      "Marginal Workers worked for 3 - 6 moths during last year - Persons": 46872,
      "Upper Primary Drop Out Rate in percentage DISE": "NA",
      "Prevalence of Anaemia in pregnant women aged 15-49years in percentage DLHS-4": 73.6,
      "Current use of any modern method of family planning in percentage DLHS-4": 65.8,
      "Marginal Workers Agricultural Labourers - Males": 8773,
      "Upper Primary Female Teachers in percentage DISE": "NA",
      "Marginal Workers - Females": 36820,
      "Marginal Workers Other worked for 3 - 6 moths during last year - Persons": 7242,
      "Main Workers Agricultural Labourers - Females": 73685,
      "Marginal Workers Cultivators worked for 3 - 6 moths during last year - Females": 6553,
      "Households with no lighting  Houselisting and Housing Census Data Tables- District Level , Census of India__5": 407,
      "Prevalence of Severe Anaemia  in percentage DLHS-4": 14.2,
      "Total unmet need for family planning in percentage DLHS-4": 17.8,
      "Main Workers Other - Males": 54716,
      "Children who received full vaccination in percentage DLHS-4": 67.2,
      "Marginal Workers Household Industry - Persons": 1222,
      "Primary Pupil-Teacher Ratio in percentage DISE": "NA",
      "Marginal Workers Agricultural Labourers worked for 3 - 6 moths during last year - Males": 7372,
      "Scheduled Caste Females": 35021,
      "Marginal Workers Cultivators - Males": 2908,
      "Marginal Workers - Males": 17713,
      "Marginal Workers worked for 0 - 3 moths during last year - Females": 4355,
      "Households with main source of drinking water within premises in percentage Houselisting and Housing Census Data Tables- District Level , Census of India": 25.31191988,
      "Marginal Workers Household Industry worked for 3 - 6 moths during last year - Persons": 945,
      "Upper Primary Girl's Enrolment in percentage DISE": "NA",
      "Prevalence of Severe Anaemia in women aged 15-49years in percentage DLHS-4": 5.4,
      "Marginal Workers Agricultural Labourers worked for 0 - 3 moths during last year - Males": 1401,
      "Households with electricity as main source of lighting  Houselisting and Housing Census Data Tables- District Level , Census of India__3": 143454,
      "Households with computer or laptop with internet connection in percentage": 0.38,
      "PHCs functioning on a 24x7hours basis in percentage DLHS-4": "Not applicable",
      "Non Workers - Males": 158797,
      "Total Households in District Houselisting and Housing Census Data Tables- District Level , Census of India": 157960,
      "Upper Primary Schools with girls toilet in percentage DISE": "NA",
      "Households with mobile phone in percentage": 52.59,
      "Households receiving untreated tap water within premises in percentage Houselisting and Housing Census Data Tables- District Level , Census of India__2": 9.603984572,
      "Marginal Workers Cultivators worked for 3 - 6 moths during last year - Males": 2082,
      "Prevalence of Anaemia  in percentage DLHS-4": 14.2,
      "Prevalence of Chronic illness in percentage DLHS-4": 3.4,
      "Households with solar energy as main source of lighting in percentage Houselisting and Housing Census Data Tables- District Level , Census of India__1": 0.136110408,
      "Marginal Workers Agricultural Labourers worked for 0 - 3 moths during last year - Females": 2250,
      "Main Workers - Males": 232906,
      "Female": "NA",
      "Sno": 802,
      "Marginal Workers Other worked for 3 - 6 moths during last year - Females": 2718,
      "Marginal Workers Cultivators worked for 0 - 3 moths during last year - Females": 1171,
      "Scheduled Tribe Males": 25586,
      "Male Illiterates": 120245,
      "Prevalence of Severe Anaemia in pregnant women aged 15-49years in percentage DLHS-4": 5.7,
      "0-6 Age Group Persons": 101160,
      "Upper Primary Student-Classroom Ratio in percentage DISE": "NA",
      "Currently married men married below 21years of age in percentage DLHS-4": 2,
      "Male Literates": 289171,
      "Households with no lighting in percentage Houselisting and Housing Census Data Tables- District Level , Census of India__2": 0.257660167,
      "Primary Drop Out Rate in percentage DISE": "NA",
      "Marginal Workers Household Industry - Males": 566,
      "Female Illiterates": 175285,
      "Main Workers Other - Females": 11393,
      "Marginal Workers Cultivators - Persons": 10632,
      "Upper Primary Gross Enrolment Ratio in percentage DISE": "NA",
      "Scheduled Caste Persons": 71387,
      "Marginal Workers Cultivators worked for 3 - 6 moths during last year - Persons": 8635,
      "Households with landline phone in percentage": 4.66,
      "Total Households in District  Houselisting and Housing Census Data Tables- District Level , Census of India": 157960,
      "Upper Primary Pupil-Teacher Ratio in percentage DISE": "NA",
      "Primary Student-Classroom Ratio in percentage DISE": "NA",
      "Primary Schools with boys toilet in percentage DISE": "NA",
      "Mean number of children ever born to women aged 40-49years  DLHS-4": 3.2,
      "Households receiving untreated tap water within premises  Houselisting and Housing Census Data Tables- District Level , Census of India__5": 32645,
      "Marginal Workers Household Industry worked for 0 - 3 moths during last year - Persons": 277,
      "Total Male Population": 409416,
      "Non Workers - Females": 231467,
      "Current use of family planning methods in percentage DLHS-4": 65.8,
      "Households with main source of drinking water within premises  Houselisting and Housing Census Data Tables- District Level , Census of India__3": 86038,
      "Main Workers Agricultural Labourers - Males": 71519,
      "Marginal Workers Other worked for 0 - 3 moths during last year - Persons": 1736,
      "Currently married women married below 18years of age in percentage DLHS-4": 16.8,
      "Person Illiterates": 295530,
      "Main Workers Household Industry - Females": 1148,
      "Female Literates": 212783,
      "Marginal Workers Cultivators worked for 0 - 3 moths during last year - Males": 826,
      "Male": "NA",
      "Households with improved source of drinking water in percentage DLHS-4": 87.7,
      "Upper Primary Schools with electricity in percentage DISE": "NA",
      "Households with electricity in percentage DLHS-4": 93.5,
      "Villages with Primary Health Centre within 10km in percentage DLHS-4": "Not applicable",
      "Births to women aged 15-19years out of Total births in percentage DLHS-4": 9,
      "Prevalence of Anaemia in women aged 15-49years in percentage DLHS-4": 72.5,
      "Marginal Workers Agricultural Labourers worked for 3 - 6 moths during last year - Persons": 30050,
      "Main Workers Household Industry - Males": 3581,
      "Scheduled Tribe Females": 24503,
      "Marginal Workers worked for 0 - 3 moths during last year - Males": 3306,
      "Marginal Workers Other worked for 3 - 6 moths during last year - Males": 4524,
      "Primary Net Enrolment Ratio in percentage DISE": "NA",
      "Total": "NA",
      "Mean age at marriage for boys DLHS-4": 25.7,
      "Number of District Hospitals  DLHS-4": "Not applicable",
      "0-6 Age Group Females": 48829,
      "Marginal Workers Agricultural Labourers worked for 0 - 3 moths during last year - Persons": 3651,
      "Marginal Workers Household Industry worked for 0 - 3 moths during last year - Males": 137,
      "Total Workers  Females": 156601,
      "Marginal Workers worked for 3 - 6 moths during last year - Females": 32465,
      "Institutional Deliveries in percentage DLHS-4": 91.6,
      "Marginal Workers Other - Males": 5466,
      "Total Workers  Males": 250619,
      "Main Workers - Females": 119781,
      "Primary Gross Enrolment Ratio in percentage DISE": "NA",
      "Main Workers Cultivators - Persons": 136645,
      "Marginal Workers Household Industry worked for 0 - 3 moths during last year - Females": 140,
      "Upper Primary Net Enrolment Ratio in percentage DISE": "NA",
      "Primary New Government Schools since 2003 in percentage DISE": "NA",
      "Tier": "Rural",
      "Marginal Workers Household Industry - Females": 656,
      "Primary Schools with electricity in percentage DISE": "NA",
      "Main Workers Other - Persons": 66109,
      "Marginal Workers Household Industry worked for 3 - 6 moths during last year - Females": 516,
      "Main Workers Cultivators - Males": 103090,
      "Main Workers Household Industry - Persons": 4729,
      "Marginal Workers Cultivators worked for 0 - 3 moths during last year - Persons": 1997,
      "Scheduled Caste Males": 36366,
      "Marginal Workers - Persons": 54533,
      "Deliveries at home conducted by skilled health personnel in percentage DLHS-4": 1.1,
      "Villages with Sub-Health Centres within 3km in percentage DLHS-4": "Not applicable",
      "Upper Primary New Government Schools since 2003 in percentage DISE": "NA",
      "0-6 Age Group Males": 52331,
      "Primary Schools with drinking water facility in percentage DISE": "NA",
      "Non Workers - Persons": 390264,
      "Person Literates": 501954,
      "State": "KARNATAKA",
      "Total Female Population": 388068,
      "Marginal Workers worked for 0 - 3 moths during last year - Persons": 7661,
      "Marginal Workers Cultivators - Females": 7724,
      "Marginal Workers Other - Persons": 8978,
      "Sex Ratio": 948,
      "Scheduled Tribe Persons": 50089,
      "Marginal Workers Household Industry worked for 3 - 6 moths during last year - Males": 429,
      "Marginal Workers Agricultural Labourers - Females": 24928,
      "Mean age at marriage for girls DLHS-4": 19.5,
      "Households with solar energy as main source of lighting  Houselisting and Housing Census Data Tables- District Level , Census of India__4": 215,
      "District": "DHARWAD",
      "Households receiving treated tap water within premises in percentage Houselisting and Housing Census Data Tables- District Level , Census of India__1": 7.564921406,
      "Total Workers  Persons": 407220,
      "Households receiving treated tap water within premises  Houselisting and Housing Census Data Tables- District Level , Census of India__4": 25714,
      "Primary Female Teachers in percentage DISE": "NA",
      "Number of Households": 160674,
      "Main Workers Agricultural Labourers - Persons": 145204
    }
  ],
  "Urban": [
    {
      "Marginal Workers Agricultural Labourers - Persons": 4416,
      "Marginal Workers Other - Females": 10487,
      "Marginal Workers Other worked for 0 - 3 moths during last year - Females": 1685,
      "Upper Primary Schools with boys toilet in percentage DISE": "NA",
      "Total Population": 1049539,
      "Households with electricity as main source of lighting in percentage Houselisting and Housing Census Data Tables- District Level , Census of India": 95.52252749,
      "Primary Girl's Enrolment in percentage DISE": "NA",
      "Marginal Workers worked for 3 - 6 moths during last year - Males": 20950,
      "Prevalence of Acute illness in percentage DLHS-4": "Not available",
      "Main Workers - Persons": 338261,
      "Main Workers Cultivators - Females": 3162,
      "Marginal Workers Agricultural Labourers worked for 3 - 6 moths during last year - Females": 2135,
      "Marginal Workers Other worked for 0 - 3 moths during last year - Males": 3798,
      "Upper Primary Schools with drinking water facility in percentage DISE": "NA",
      "Primary Schools with girls toilet in percentage DISE": "NA",
      "Marginal Workers worked for 3 - 6 moths during last year - Persons": 33029,
      "Upper Primary Drop Out Rate in percentage DISE": "NA",
      "Prevalence of Anaemia in pregnant women aged 15-49years in percentage DLHS-4": "Not available",
      "Current use of any modern method of family planning in percentage DLHS-4": "Not available",
      "Marginal Workers Agricultural Labourers - Males": 2127,
      "Upper Primary Female Teachers in percentage DISE": "NA",
      "Marginal Workers - Females": 14189,
      "Marginal Workers Other worked for 3 - 6 moths during last year - Persons": 26597,
      "Main Workers Agricultural Labourers - Females": 11142,
      "Marginal Workers Cultivators worked for 3 - 6 moths during last year - Females": 277,
      "Households with no lighting  Houselisting and Housing Census Data Tables- District Level , Census of India__5": 443,
      "Prevalence of Severe Anaemia  in percentage DLHS-4": "Not available",
      "Total unmet need for family planning in percentage DLHS-4": "Not available",
      "Main Workers Other - Males": 235965,
      "Children who received full vaccination in percentage DLHS-4": "Not available",
      "Marginal Workers Household Industry - Persons": 2187,
      "Primary Pupil-Teacher Ratio in percentage DISE": "NA",
      "Marginal Workers Agricultural Labourers worked for 3 - 6 moths during last year - Males": 1968,
      "Scheduled Caste Females": 53697,
      "Marginal Workers Cultivators - Males": 375,
      "Marginal Workers - Males": 25163,
      "Marginal Workers worked for 0 - 3 moths during last year - Females": 2110,
      "Households with main source of drinking water within premises in percentage Houselisting and Housing Census Data Tables- District Level , Census of India": 69.23395352,
      "Marginal Workers Household Industry worked for 3 - 6 moths during last year - Persons": 1697,
      "Upper Primary Girl's Enrolment in percentage DISE": "NA",
      "Prevalence of Severe Anaemia in women aged 15-49years in percentage DLHS-4": "Not available",
      "Marginal Workers Agricultural Labourers worked for 0 - 3 moths during last year - Males": 159,
      "Households with electricity as main source of lighting  Houselisting and Housing Census Data Tables- District Level , Census of India__3": 204508,
      "Households with computer or laptop with internet connection in percentage": 6.73,
      "PHCs functioning on a 24x7hours basis in percentage DLHS-4": 0,
      "Non Workers - Males": 234633,
      "Total Households in District Houselisting and Housing Census Data Tables- District Level , Census of India": 214094,
      "Upper Primary Schools with girls toilet in percentage DISE": "NA",
      "Households with mobile phone in percentage": 59.98,
      "Households receiving untreated tap water within premises in percentage Houselisting and Housing Census Data Tables- District Level , Census of India__2": 9.759344827,
      "Marginal Workers Cultivators worked for 3 - 6 moths during last year - Males": 355,
      "Prevalence of Anaemia  in percentage DLHS-4": "Not available",
      "Prevalence of Chronic illness in percentage DLHS-4": "Not available",
      "Households with solar energy as main source of lighting in percentage Houselisting and Housing Census Data Tables- District Level , Census of India__1": 0.0929,
      "Marginal Workers Agricultural Labourers worked for 0 - 3 moths during last year - Females": 154,
      "Main Workers - Males": 267994,
      "Female": "NA",
      "Sno": 804,
      "Marginal Workers Other worked for 3 - 6 moths during last year - Females": 8802,
      "Marginal Workers Cultivators worked for 0 - 3 moths during last year - Females": 17,
      "Scheduled Tribe Males": 18587,
      "Male Illiterates": 105185,
      "Prevalence of Severe Anaemia in pregnant women aged 15-49years in percentage DLHS-4": "Not available",
      "0-6 Age Group Persons": 118782,
      "Upper Primary Student-Classroom Ratio in percentage DISE": "NA",
      "Currently married men married below 21years of age in percentage DLHS-4": "Not available",
      "Male Literates": 422605,
      "Households with no lighting in percentage Houselisting and Housing Census Data Tables- District Level , Census of India__2": 0.206918456,
      "Primary Drop Out Rate in percentage DISE": "NA",
      "Marginal Workers Household Industry - Males": 1068,
      "Female Illiterates": 144644,
      "Main Workers Other - Females": 53317,
      "Marginal Workers Cultivators - Persons": 669,
      "Upper Primary Gross Enrolment Ratio in percentage DISE": "NA",
      "Scheduled Caste Persons": 106468,
      "Marginal Workers Cultivators worked for 3 - 6 moths during last year - Persons": 632,
      "Households with landline phone in percentage": 7.88,
      "Total Households in District  Houselisting and Housing Census Data Tables- District Level , Census of India": 214094,
      "Upper Primary Pupil-Teacher Ratio in percentage DISE": "NA",
      "Primary Student-Classroom Ratio in percentage DISE": "NA",
      "Primary Schools with boys toilet in percentage DISE": "NA",
      "Mean number of children ever born to women aged 40-49years  DLHS-4": "Not available",
      "Households receiving untreated tap water within premises  Houselisting and Housing Census Data Tables- District Level , Census of India__5": 8723,
      "Marginal Workers Household Industry worked for 0 - 3 moths during last year - Persons": 490,
      "Total Male Population": 527790,
      "Non Workers - Females": 437293,
      "Current use of family planning methods in percentage DLHS-4": "Not available",
      "Households with main source of drinking water within premises  Houselisting and Housing Census Data Tables- District Level , Census of India__3": 61882,
      "Main Workers Agricultural Labourers - Males": 13179,
      "Marginal Workers Other worked for 0 - 3 moths during last year - Persons": 5483,
      "Currently married women married below 18years of age in percentage DLHS-4": "Not available",
      "Person Illiterates": 249829,
      "Main Workers Household Industry - Females": 2646,
      "Female Literates": 377105,
      "Marginal Workers Cultivators worked for 0 - 3 moths during last year - Males": 20,
      "Male": "NA",
      "Households with improved source of drinking water in percentage DLHS-4": "Not available",
      "Upper Primary Schools with electricity in percentage DISE": "NA",
      "Households with electricity in percentage DLHS-4": "Not available",
      "Villages with Primary Health Centre within 10km in percentage DLHS-4": 0,
      "Births to women aged 15-19years out of Total births in percentage DLHS-4": "Not available",
      "Prevalence of Anaemia in women aged 15-49years in percentage DLHS-4": "Not available",
      "Marginal Workers Agricultural Labourers worked for 3 - 6 moths during last year - Persons": 4103,
      "Main Workers Household Industry - Males": 5679,
      "Scheduled Tribe Females": 18872,
      "Marginal Workers worked for 0 - 3 moths during last year - Males": 4213,
      "Marginal Workers Other worked for 3 - 6 moths during last year - Males": 17795,
      "Primary Net Enrolment Ratio in percentage DISE": "NA",
      "Total": "NA",
      "Mean age at marriage for boys DLHS-4": "Not available",
      "Number of District Hospitals  DLHS-4": 0,
      "0-6 Age Group Females": 57986,
      "Marginal Workers Agricultural Labourers worked for 0 - 3 moths during last year - Persons": 313,
      "Marginal Workers Household Industry worked for 0 - 3 moths during last year - Males": 236,
      "Total Workers  Females": 84456,
      "Marginal Workers worked for 3 - 6 moths during last year - Females": 12079,
      "Institutional Deliveries in percentage DLHS-4": "Not available",
      "Marginal Workers Other - Males": 21593,
      "Total Workers  Males": 293157,
      "Main Workers - Females": 70267,
      "Primary Gross Enrolment Ratio in percentage DISE": "NA",
      "Main Workers Cultivators - Persons": 16333,
      "Marginal Workers Household Industry worked for 0 - 3 moths during last year - Females": 254,
      "Upper Primary Net Enrolment Ratio in percentage DISE": "NA",
      "Primary New Government Schools since 2003 in percentage DISE": "NA",
      "Tier": "Urban",
      "Marginal Workers Household Industry - Females": 1119,
      "Primary Schools with electricity in percentage DISE": "NA",
      "Main Workers Other - Persons": 289282,
      "Marginal Workers Household Industry worked for 3 - 6 moths during last year - Females": 865,
      "Main Workers Cultivators - Males": 13171,
      "Main Workers Household Industry - Persons": 8325,
      "Marginal Workers Cultivators worked for 0 - 3 moths during last year - Persons": 37,
      "Scheduled Caste Males": 52771,
      "Marginal Workers - Persons": 39352,
      "Deliveries at home conducted by skilled health personnel in percentage DLHS-4": "Not available",
      "Villages with Sub-Health Centres within 3km in percentage DLHS-4": 0,
      "Upper Primary New Government Schools since 2003 in percentage DISE": "NA",
      "0-6 Age Group Males": 60796,
      "Primary Schools with drinking water facility in percentage DISE": "NA",
      "Non Workers - Persons": 671926,
      "Person Literates": 799710,
      "State": "KARNATAKA",
      "Total Female Population": 521749,
      "Marginal Workers worked for 0 - 3 moths during last year - Persons": 6323,
      "Marginal Workers Cultivators - Females": 294,
      "Marginal Workers Other - Persons": 32080,
      "Sex Ratio": 989,
      "Scheduled Tribe Persons": 37459,
      "Marginal Workers Household Industry worked for 3 - 6 moths during last year - Males": 832,
      "Marginal Workers Agricultural Labourers - Females": 2289,
      "Mean age at marriage for girls DLHS-4": "Not available",
      "Households with solar energy as main source of lighting  Houselisting and Housing Census Data Tables- District Level , Census of India__4": 199,
      "District": "DHARWAD",
      "Households receiving treated tap water within premises in percentage Houselisting and Housing Census Data Tables- District Level , Census of India__1": 51.97972724,
      "Total Workers  Persons": 377613,
      "Households receiving treated tap water within premises  Houselisting and Housing Census Data Tables- District Level , Census of India__4": 46460,
      "Primary Female Teachers in percentage DISE": "NA",
      "Number of Households": 222026,
      "Main Workers Agricultural Labourers - Persons": 24321
    }
  ]
}