{
  "Total": [
    {
      "Marginal Workers Agricultural Labourers - Persons": 59184,
      "Marginal Workers Other - Females": 20942,
      "Marginal Workers Other worked for 0 - 3 moths during last year - Females": 3370,
      "Upper Primary Schools with boys toilet in percentage DISE": 100,
      "Total Population": 1536401,
      "Households with electricity as main source of lighting in percentage Houselisting and Housing Census Data Tables- District Level , Census of India": 93.50554397,
      "Primary Girl's Enrolment in percentage DISE": 52,
      "Marginal Workers worked for 3 - 6 moths during last year - Males": 52434,
      "Prevalence of Acute illness in percentage DLHS-4": 4.3,
      "Main Workers - Persons": 584590,
      "Main Workers Cultivators - Females": 51370,
      "Marginal Workers Agricultural Labourers worked for 3 - 6 moths during last year - Females": 33489,
      "Marginal Workers Other worked for 0 - 3 moths during last year - Males": 4058,
      "Upper Primary Schools with drinking water facility in percentage DISE": 100,
      "Primary Schools with girls toilet in percentage DISE": 99.9,
      "Marginal Workers worked for 3 - 6 moths during last year - Persons": 116776,
      "Upper Primary Drop Out Rate in percentage DISE": 7.5,
      "Prevalence of Anaemia in pregnant women aged 15-49years in percentage DLHS-4": 83.8,
      "Current use of any modern method of family planning in percentage DLHS-4": 67.3,
      "Marginal Workers Agricultural Labourers - Males": 22147,
      "Upper Primary Female Teachers in percentage DISE": 75,
      "Marginal Workers - Females": 73410,
      "Marginal Workers Other worked for 3 - 6 moths during last year - Persons": 41664,
      "Main Workers Agricultural Labourers - Females": 67871,
      "Marginal Workers Cultivators worked for 3 - 6 moths during last year - Females": 9582,
      "Households with no lighting  Houselisting and Housing Census Data Tables- District Level , Census of India__5": 1170,
      "Prevalence of Severe Anaemia  in percentage DLHS-4": 25.6,
      "Total unmet need for family planning in percentage DLHS-4": 14.2,
      "Main Workers Other - Males": 197590,
      "Children who received full vaccination in percentage DLHS-4": 83.7,
      "Marginal Workers Household Industry - Persons": 7417,
      "Primary Pupil-Teacher Ratio in percentage DISE": 12,
      "Marginal Workers Agricultural Labourers worked for 3 - 6 moths during last year - Males": 20260,
      "Scheduled Caste Females": 233321,
      "Marginal Workers Cultivators - Males": 6651,
      "Marginal Workers - Males": 59872,
      "Marginal Workers worked for 0 - 3 moths during last year - Females": 9068,
      "Households with main source of drinking water within premises in percentage Houselisting and Housing Census Data Tables- District Level , Census of India": 54.96482361,
      "Marginal Workers Household Industry worked for 3 - 6 moths during last year - Persons": 6126,
      "Upper Primary Girl's Enrolment in percentage DISE": 64.6,
      "Prevalence of Severe Anaemia in women aged 15-49years in percentage DLHS-4": 19.2,
      "Marginal Workers Agricultural Labourers worked for 0 - 3 moths during last year - Males": 1887,
      "Households with electricity as main source of lighting  Houselisting and Housing Census Data Tables- District Level , Census of India__3": 309494,
      "Households with computer or laptop with internet connection in percentage": 1.53,
      "PHCs functioning on a 24x7hours basis in percentage DLHS-4": 81.3,
      "Non Workers - Males": 322348,
      "Total Households in District Houselisting and Housing Census Data Tables- District Level , Census of India": 330990,
      "Upper Primary Schools with girls toilet in percentage DISE": 100,
      "Households with mobile phone in percentage": 53.51,
      "Households receiving untreated tap water within premises in percentage Houselisting and Housing Census Data Tables- District Level , Census of India__2": 7.177718488,
      "Marginal Workers Cultivators worked for 3 - 6 moths during last year - Males": 5655,
      "Prevalence of Anaemia  in percentage DLHS-4": 83.2,
      "Prevalence of Chronic illness in percentage DLHS-4": 4.6,
      "Households with solar energy as main source of lighting in percentage Houselisting and Housing Census Data Tables- District Level , Census of India__1": 0.156500196,
      "Marginal Workers Agricultural Labourers worked for 0 - 3 moths during last year - Females": 3548,
      "Main Workers - Males": 394176,
      "Female": 66.84,
      "Sno": 821,
      "Marginal Workers Other worked for 3 - 6 moths during last year - Females": 17572,
      "Marginal Workers Cultivators worked for 0 - 3 moths during last year - Females": 1356,
      "Scheduled Tribe Males": 39997,
      "Male Illiterates": 212286,
      "Prevalence of Severe Anaemia in pregnant women aged 15-49years in percentage DLHS-4": 18.9,
      "0-6 Age Group Persons": 170423,
      "Upper Primary Student-Classroom Ratio in percentage DISE": 23,
      "Currently married men married below 21years of age in percentage DLHS-4": 6.3,
      "Male Literates": 564110,
      "Households with no lighting in percentage Houselisting and Housing Census Data Tables- District Level , Census of India__2": 0.353485,
      "Primary Drop Out Rate in percentage DISE": 1.3,
      "Marginal Workers Household Industry - Males": 2924,
      "Female Illiterates": 307896,
      "Main Workers Other - Females": 62722,
      "Marginal Workers Cultivators - Persons": 17589,
      "Upper Primary Gross Enrolment Ratio in percentage DISE": 79.3,
      "Scheduled Caste Persons": 465867,
      "Marginal Workers Cultivators worked for 3 - 6 moths during last year - Persons": 15237,
      "Households with landline phone in percentage": 7.2,
      "Total Households in District  Houselisting and Housing Census Data Tables- District Level , Census of India": 330990,
      "Upper Primary Pupil-Teacher Ratio in percentage DISE": 22,
      "Primary Student-Classroom Ratio in percentage DISE": 12,
      "Primary Schools with boys toilet in percentage DISE": 99.9,
      "Mean number of children ever born to women aged 40-49years  DLHS-4": 2.9,
      "Households receiving untreated tap water within premises  Houselisting and Housing Census Data Tables- District Level , Census of India__5": 9927,
      "Marginal Workers Household Industry worked for 0 - 3 moths during last year - Persons": 1291,
      "Total Male Population": 776396,
      "Non Workers - Females": 496181,
      "Current use of family planning methods in percentage DLHS-4": 67.8,
      "Households with main source of drinking water within premises  Houselisting and Housing Census Data Tables- District Level , Census of India__3": 76018,
      "Main Workers Agricultural Labourers - Males": 74178,
      "Marginal Workers Other worked for 0 - 3 moths during last year - Persons": 7428,
      "Currently married women married below 18years of age in percentage DLHS-4": 13.1,
      "Person Illiterates": 520182,
      "Main Workers Household Industry - Females": 8451,
      "Female Literates": 452109,
      "Marginal Workers Cultivators worked for 0 - 3 moths during last year - Males": 996,
      "Male": 81.81,
      "Households with improved source of drinking water in percentage DLHS-4": 99,
      "Upper Primary Schools with electricity in percentage DISE": 100,
      "Households with electricity in percentage DLHS-4": 98.4,
      "Villages with Primary Health Centre within 10km in percentage DLHS-4": 81.8,
      "Births to women aged 15-19years out of Total births in percentage DLHS-4": 10,
      "Prevalence of Anaemia in women aged 15-49years in percentage DLHS-4": 82.5,
      "Marginal Workers Agricultural Labourers worked for 3 - 6 moths during last year - Persons": 53749,
      "Main Workers Household Industry - Males": 8310,
      "Scheduled Tribe Females": 38878,
      "Marginal Workers worked for 0 - 3 moths during last year - Males": 7438,
      "Marginal Workers Other worked for 3 - 6 moths during last year - Males": 24092,
      "Primary Net Enrolment Ratio in percentage DISE": 51.4,
      "Total": 74.39,
      "Mean age at marriage for boys DLHS-4": 26.3,
      "Number of District Hospitals  DLHS-4": 1,
      "0-6 Age Group Females": 83578,
      "Marginal Workers Agricultural Labourers worked for 0 - 3 moths during last year - Persons": 5435,
      "Marginal Workers Household Industry worked for 0 - 3 moths during last year - Males": 497,
      "Total Workers  Females": 263824,
      "Marginal Workers worked for 3 - 6 moths during last year - Females": 64342,
      "Institutional Deliveries in percentage DLHS-4": 93.5,
      "Marginal Workers Other - Males": 28150,
      "Total Workers  Males": 454048,
      "Main Workers - Females": 190414,
      "Primary Gross Enrolment Ratio in percentage DISE": 95.2,
      "Main Workers Cultivators - Persons": 165468,
      "Marginal Workers Household Industry worked for 0 - 3 moths during last year - Females": 794,
      "Upper Primary Net Enrolment Ratio in percentage DISE": 42.8,
      "Primary New Government Schools since 2003 in percentage DISE": 7.2,
      "Tier": "Total",
      "Marginal Workers Household Industry - Females": 4493,
      "Primary Schools with electricity in percentage DISE": 97.5,
      "Main Workers Other - Persons": 260312,
      "Marginal Workers Household Industry worked for 3 - 6 moths during last year - Females": 3699,
      "Main Workers Cultivators - Males": 114098,
      "Main Workers Household Industry - Persons": 16761,
      "Marginal Workers Cultivators worked for 0 - 3 moths during last year - Persons": 2352,
      "Scheduled Caste Males": 232546,
      "Marginal Workers - Persons": 133282,
      "Deliveries at home conducted by skilled health personnel in percentage DLHS-4": 1.2,
      "Villages with Sub-Health Centres within 3km in percentage DLHS-4": 75,
      "Upper Primary New Government Schools since 2003 in percentage DISE": 37.5,
      "0-6 Age Group Males": 86845,
      "Primary Schools with drinking water facility in percentage DISE": 100,
      "Non Workers - Persons": 818529,
      "Person Literates": 1016219,
      "State": "KARNATAKA",
      "Total Female Population": 760005,
      "Marginal Workers worked for 0 - 3 moths during last year - Persons": 16506,
      "Marginal Workers Cultivators - Females": 10938,
      "Marginal Workers Other - Persons": 49092,
      "Sex Ratio": 979,
      "Scheduled Tribe Persons": 78875,
      "Marginal Workers Household Industry worked for 3 - 6 moths during last year - Males": 2427,
      "Marginal Workers Agricultural Labourers - Females": 37037,
      "Mean age at marriage for girls DLHS-4": 20.1,
      "Households with solar energy as main source of lighting  Houselisting and Housing Census Data Tables- District Level , Census of India__4": 518,
      "District": "KOLAR",
      "Households receiving treated tap water within premises in percentage Houselisting and Housing Census Data Tables- District Level , Census of India__1": 22.28223538,
      "Total Workers  Persons": 717872,
      "Households receiving treated tap water within premises  Houselisting and Housing Census Data Tables- District Level , Census of India__4": 30817,
      "Primary Female Teachers in percentage DISE": 48.8,
      "Number of Households": 333348,
      "Main Workers Agricultural Labourers - Persons": 142049
    }
  ],
  "Rural": [
    {
      "Marginal Workers Agricultural Labourers - Persons": 57835,
      "Marginal Workers Other - Females": 15924,
      "Marginal Workers Other worked for 0 - 3 moths during last year - Females": 2748,
      "Upper Primary Schools with boys toilet in percentage DISE": "NA",
      "Total Population": 1056328,
      "Households with electricity as main source of lighting in percentage Houselisting and Housing Census Data Tables- District Level , Census of India": 92.36712414,
      "Primary Girl's Enrolment in percentage DISE": "NA",
      "Marginal Workers worked for 3 - 6 moths during last year - Males": 41376,
      "Prevalence of Acute illness in percentage DLHS-4": 4.9,
      "Main Workers - Persons": 431414,
      "Main Workers Cultivators - Females": 50658,
      "Marginal Workers Agricultural Labourers worked for 3 - 6 moths during last year - Females": 33049,
      "Marginal Workers Other worked for 0 - 3 moths during last year - Males": 2680,
      "Upper Primary Schools with drinking water facility in percentage DISE": "NA",
      "Primary Schools with girls toilet in percentage DISE": "NA",
      "Marginal Workers worked for 3 - 6 moths during last year - Persons": 99741,
      "Upper Primary Drop Out Rate in percentage DISE": "NA",
      "Prevalence of Anaemia in pregnant women aged 15-49years in percentage DLHS-4": 81.1,
      "Current use of any modern method of family planning in percentage DLHS-4": 70.7,
      "Marginal Workers Agricultural Labourers - Males": 21310,
      "Upper Primary Female Teachers in percentage DISE": "NA",
      "Marginal Workers - Females": 66507,
      "Marginal Workers Other worked for 3 - 6 moths during last year - Persons": 28148,
      "Main Workers Agricultural Labourers - Females": 65518,
      "Marginal Workers Cultivators worked for 3 - 6 moths during last year - Females": 9451,
      "Households with no lighting  Houselisting and Housing Census Data Tables- District Level , Census of India__5": 851,
      "Prevalence of Severe Anaemia  in percentage DLHS-4": 27,
      "Total unmet need for family planning in percentage DLHS-4": 9.9,
      "Main Workers Other - Males": 90484,
      "Children who received full vaccination in percentage DLHS-4": 83.9,
      "Marginal Workers Household Industry - Persons": 5074,
      "Primary Pupil-Teacher Ratio in percentage DISE": "NA",
      "Marginal Workers Agricultural Labourers worked for 3 - 6 moths during last year - Males": 19525,
      "Scheduled Caste Females": 163406,
      "Marginal Workers Cultivators - Males": 6399,
      "Marginal Workers - Males": 47173,
      "Marginal Workers worked for 0 - 3 moths during last year - Females": 8142,
      "Households with main source of drinking water within premises in percentage Houselisting and Housing Census Data Tables- District Level , Census of India": 50.83411386,
      "Marginal Workers Household Industry worked for 3 - 6 moths during last year - Persons": 4143,
      "Upper Primary Girl's Enrolment in percentage DISE": "NA",
      "Prevalence of Severe Anaemia in women aged 15-49years in percentage DLHS-4": 21.4,
      "Marginal Workers Agricultural Labourers worked for 0 - 3 moths during last year - Males": 1785,
      "Households with electricity as main source of lighting  Houselisting and Housing Census Data Tables- District Level , Census of India__3": 208976,
      "Households with computer or laptop with internet connection in percentage": 0.56,
      "PHCs functioning on a 24x7hours basis in percentage DLHS-4": "Not applicable",
      "Non Workers - Males": 211990,
      "Total Households in District Houselisting and Housing Census Data Tables- District Level , Census of India": 226245,
      "Upper Primary Schools with girls toilet in percentage DISE": "NA",
      "Households with mobile phone in percentage": 49.9,
      "Households receiving untreated tap water within premises in percentage Houselisting and Housing Census Data Tables- District Level , Census of India__2": 7.389312204,
      "Marginal Workers Cultivators worked for 3 - 6 moths during last year - Males": 5425,
      "Prevalence of Anaemia  in percentage DLHS-4": 82.2,
      "Prevalence of Chronic illness in percentage DLHS-4": 4.1,
      "Households with solar energy as main source of lighting in percentage Houselisting and Housing Census Data Tables- District Level , Census of India__1": 0.154699551,
      "Marginal Workers Agricultural Labourers worked for 0 - 3 moths during last year - Females": 3476,
      "Main Workers - Males": 276268,
      "Female": "NA",
      "Sno": 820,
      "Marginal Workers Other worked for 3 - 6 moths during last year - Females": 13176,
      "Marginal Workers Cultivators worked for 0 - 3 moths during last year - Females": 1345,
      "Scheduled Tribe Males": 36448,
      "Male Illiterates": 163646,
      "Prevalence of Severe Anaemia in pregnant women aged 15-49years in percentage DLHS-4": 20.8,
      "0-6 Age Group Persons": 116231,
      "Upper Primary Student-Classroom Ratio in percentage DISE": "NA",
      "Currently married men married below 21years of age in percentage DLHS-4": 7.7,
      "Male Literates": 371785,
      "Households with no lighting in percentage Houselisting and Housing Census Data Tables- District Level , Census of India__2": 0.376140909,
      "Primary Drop Out Rate in percentage DISE": "NA",
      "Marginal Workers Household Industry - Males": 1812,
      "Female Illiterates": 243261,
      "Main Workers Other - Females": 35430,
      "Marginal Workers Cultivators - Persons": 17195,
      "Upper Primary Gross Enrolment Ratio in percentage DISE": "NA",
      "Scheduled Caste Persons": 327424,
      "Marginal Workers Cultivators worked for 3 - 6 moths during last year - Persons": 14876,
      "Households with landline phone in percentage": 7.55,
      "Total Households in District  Houselisting and Housing Census Data Tables- District Level , Census of India": 226245,
      "Upper Primary Pupil-Teacher Ratio in percentage DISE": "NA",
      "Primary Student-Classroom Ratio in percentage DISE": "NA",
      "Primary Schools with boys toilet in percentage DISE": "NA",
      "Mean number of children ever born to women aged 40-49years  DLHS-4": 3,
      "Households receiving untreated tap water within premises  Houselisting and Housing Census Data Tables- District Level , Census of India__5": 8757,
      "Marginal Workers Household Industry worked for 0 - 3 moths during last year - Persons": 931,
      "Total Male Population": 535431,
      "Non Workers - Females": 299244,
      "Current use of family planning methods in percentage DLHS-4": 70.9,
      "Households with main source of drinking water within premises  Houselisting and Housing Census Data Tables- District Level , Census of India__3": 60243,
      "Main Workers Agricultural Labourers - Males": 70512,
      "Marginal Workers Other worked for 0 - 3 moths during last year - Persons": 5428,
      "Currently married women married below 18years of age in percentage DLHS-4": 17.6,
      "Person Illiterates": 406907,
      "Main Workers Household Industry - Females": 3540,
      "Female Literates": 277636,
      "Marginal Workers Cultivators worked for 0 - 3 moths during last year - Males": 974,
      "Male": "NA",
      "Households with improved source of drinking water in percentage DLHS-4": 99.1,
      "Upper Primary Schools with electricity in percentage DISE": "NA",
      "Households with electricity in percentage DLHS-4": 97.8,
      "Villages with Primary Health Centre within 10km in percentage DLHS-4": "Not applicable",
      "Births to women aged 15-19years out of Total births in percentage DLHS-4": 12,
      "Prevalence of Anaemia in women aged 15-49years in percentage DLHS-4": 83.3,
      "Marginal Workers Agricultural Labourers worked for 3 - 6 moths during last year - Persons": 52574,
      "Main Workers Household Industry - Males": 4228,
      "Scheduled Tribe Females": 35695,
      "Marginal Workers worked for 0 - 3 moths during last year - Males": 5797,
      "Marginal Workers Other worked for 3 - 6 moths during last year - Males": 14972,
      "Primary Net Enrolment Ratio in percentage DISE": "NA",
      "Total": "NA",
      "Mean age at marriage for boys DLHS-4": 26,
      "Number of District Hospitals  DLHS-4": "Not applicable",
      "0-6 Age Group Females": 56772,
      "Marginal Workers Agricultural Labourers worked for 0 - 3 moths during last year - Persons": 5261,
      "Marginal Workers Household Industry worked for 0 - 3 moths during last year - Males": 358,
      "Total Workers  Females": 221653,
      "Marginal Workers worked for 3 - 6 moths during last year - Females": 58365,
      "Institutional Deliveries in percentage DLHS-4": 93.4,
      "Marginal Workers Other - Males": 17652,
      "Total Workers  Males": 323441,
      "Main Workers - Females": 155146,
      "Primary Gross Enrolment Ratio in percentage DISE": "NA",
      "Main Workers Cultivators - Persons": 161702,
      "Marginal Workers Household Industry worked for 0 - 3 moths during last year - Females": 573,
      "Upper Primary Net Enrolment Ratio in percentage DISE": "NA",
      "Primary New Government Schools since 2003 in percentage DISE": "NA",
      "Tier": "Rural",
      "Marginal Workers Household Industry - Females": 3262,
      "Primary Schools with electricity in percentage DISE": "NA",
      "Main Workers Other - Persons": 125914,
      "Marginal Workers Household Industry worked for 3 - 6 moths during last year - Females": 2689,
      "Main Workers Cultivators - Males": 111044,
      "Main Workers Household Industry - Persons": 7768,
      "Marginal Workers Cultivators worked for 0 - 3 moths during last year - Persons": 2319,
      "Scheduled Caste Males": 164018,
      "Marginal Workers - Persons": 113680,
      "Deliveries at home conducted by skilled health personnel in percentage DLHS-4": 1.6,
      "Villages with Sub-Health Centres within 3km in percentage DLHS-4": "Not applicable",
      "Upper Primary New Government Schools since 2003 in percentage DISE": "NA",
      "0-6 Age Group Males": 59459,
      "Primary Schools with drinking water facility in percentage DISE": "NA",
      "Non Workers - Persons": 511234,
      "Person Literates": 649421,
      "State": "KARNATAKA",
      "Total Female Population": 520897,
      "Marginal Workers worked for 0 - 3 moths during last year - Persons": 13939,
      "Marginal Workers Cultivators - Females": 10796,
      "Marginal Workers Other - Persons": 33576,
      "Sex Ratio": 973,
      "Scheduled Tribe Persons": 72143,
      "Marginal Workers Household Industry worked for 3 - 6 moths during last year - Males": 1454,
      "Marginal Workers Agricultural Labourers - Females": 36525,
      "Mean age at marriage for girls DLHS-4": 19.3,
      "Households with solar energy as main source of lighting  Houselisting and Housing Census Data Tables- District Level , Census of India__4": 350,
      "District": "KOLAR",
      "Households receiving treated tap water within premises in percentage Houselisting and Housing Census Data Tables- District Level , Census of India__1": 16.20467644,
      "Total Workers  Persons": 545094,
      "Households receiving treated tap water within premises  Houselisting and Housing Census Data Tables- District Level , Census of India__4": 19204,
      "Primary Female Teachers in percentage DISE": "NA",
      "Number of Households": 227058,
      "Main Workers Agricultural Labourers - Persons": 136030
    }
  ],
  "Urban": [
    {
      "Marginal Workers Agricultural Labourers - Persons": 1349,
      "Marginal Workers Other - Females": 5018,
      "Marginal Workers Other worked for 0 - 3 moths during last year - Females": 622,
      "Upper Primary Schools with boys toilet in percentage DISE": "NA",
      "Total Population": 480073,
      "Households with electricity as main source of lighting in percentage Houselisting and Housing Census Data Tables- District Level , Census of India": 95.96448518,
      "Primary Girl's Enrolment in percentage DISE": "NA",
      "Marginal Workers worked for 3 - 6 moths during last year - Males": 11058,
      "Prevalence of Acute illness in percentage DLHS-4": "Not available",
      "Main Workers - Persons": 153176,
      "Main Workers Cultivators - Females": 712,
      "Marginal Workers Agricultural Labourers worked for 3 - 6 moths during last year - Females": 440,
      "Marginal Workers Other worked for 0 - 3 moths during last year - Males": 1378,
      "Upper Primary Schools with drinking water facility in percentage DISE": "NA",
      "Primary Schools with girls toilet in percentage DISE": "NA",
      "Marginal Workers worked for 3 - 6 moths during last year - Persons": 17035,
      "Upper Primary Drop Out Rate in percentage DISE": "NA",
      "Prevalence of Anaemia in pregnant women aged 15-49years in percentage DLHS-4": "Not available",
      "Current use of any modern method of family planning in percentage DLHS-4": "Not available",
      "Marginal Workers Agricultural Labourers - Males": 837,
      "Upper Primary Female Teachers in percentage DISE": "NA",
      "Marginal Workers - Females": 6903,
      "Marginal Workers Other worked for 3 - 6 moths during last year - Persons": 13516,
      "Main Workers Agricultural Labourers - Females": 2353,
      "Marginal Workers Cultivators worked for 3 - 6 moths during last year - Females": 131,
      "Households with no lighting  Houselisting and Housing Census Data Tables- District Level , Census of India__5": 319,
      "Prevalence of Severe Anaemia  in percentage DLHS-4": "Not available",
      "Total unmet need for family planning in percentage DLHS-4": "Not available",
      "Main Workers Other - Males": 107106,
      "Children who received full vaccination in percentage DLHS-4": "Not available",
      "Marginal Workers Household Industry - Persons": 2343,
      "Primary Pupil-Teacher Ratio in percentage DISE": "NA",
      "Marginal Workers Agricultural Labourers worked for 3 - 6 moths during last year - Males": 735,
      "Scheduled Caste Females": 69915,
      "Marginal Workers Cultivators - Males": 252,
      "Marginal Workers - Males": 12699,
      "Marginal Workers worked for 0 - 3 moths during last year - Females": 926,
      "Households with main source of drinking water within premises in percentage Houselisting and Housing Census Data Tables- District Level , Census of India": 79.69586743,
      "Marginal Workers Household Industry worked for 3 - 6 moths during last year - Persons": 1983,
      "Upper Primary Girl's Enrolment in percentage DISE": "NA",
      "Prevalence of Severe Anaemia in women aged 15-49years in percentage DLHS-4": "Not available",
      "Marginal Workers Agricultural Labourers worked for 0 - 3 moths during last year - Males": 102,
      "Households with electricity as main source of lighting  Houselisting and Housing Census Data Tables- District Level , Census of India__3": 100518,
      "Households with computer or laptop with internet connection in percentage": 3.62,
      "PHCs functioning on a 24x7hours basis in percentage DLHS-4": 0,
      "Non Workers - Males": 110358,
      "Total Households in District Houselisting and Housing Census Data Tables- District Level , Census of India": 104745,
      "Upper Primary Schools with girls toilet in percentage DISE": "NA",
      "Households with mobile phone in percentage": 61.3,
      "Households receiving untreated tap water within premises in percentage Houselisting and Housing Census Data Tables- District Level , Census of India__2": 5.910882085,
      "Marginal Workers Cultivators worked for 3 - 6 moths during last year - Males": 230,
      "Prevalence of Anaemia  in percentage DLHS-4": "Not available",
      "Prevalence of Chronic illness in percentage DLHS-4": "Not available",
      "Households with solar energy as main source of lighting in percentage Houselisting and Housing Census Data Tables- District Level , Census of India__1": 0.160389517,
      "Marginal Workers Agricultural Labourers worked for 0 - 3 moths during last year - Females": 72,
      "Main Workers - Males": 117908,
      "Female": "NA",
      "Sno": 822,
      "Marginal Workers Other worked for 3 - 6 moths during last year - Females": 4396,
      "Marginal Workers Cultivators worked for 0 - 3 moths during last year - Females": 11,
      "Scheduled Tribe Males": 3549,
      "Male Illiterates": 48640,
      "Prevalence of Severe Anaemia in pregnant women aged 15-49years in percentage DLHS-4": "Not available",
      "0-6 Age Group Persons": 54192,
      "Upper Primary Student-Classroom Ratio in percentage DISE": "NA",
      "Currently married men married below 21years of age in percentage DLHS-4": "Not available",
      "Male Literates": 192325,
      "Households with no lighting in percentage Houselisting and Housing Census Data Tables- District Level , Census of India__2": 0.304549143,
      "Primary Drop Out Rate in percentage DISE": "NA",
      "Marginal Workers Household Industry - Males": 1112,
      "Female Illiterates": 64635,
      "Main Workers Other - Females": 27292,
      "Marginal Workers Cultivators - Persons": 394,
      "Upper Primary Gross Enrolment Ratio in percentage DISE": "NA",
      "Scheduled Caste Persons": 138443,
      "Marginal Workers Cultivators worked for 3 - 6 moths during last year - Persons": 361,
      "Households with landline phone in percentage": 6.46,
      "Total Households in District  Houselisting and Housing Census Data Tables- District Level , Census of India": 104745,
      "Upper Primary Pupil-Teacher Ratio in percentage DISE": "NA",
      "Primary Student-Classroom Ratio in percentage DISE": "NA",
      "Primary Schools with boys toilet in percentage DISE": "NA",
      "Mean number of children ever born to women aged 40-49years  DLHS-4": "Not available",
      "Households receiving untreated tap water within premises  Houselisting and Housing Census Data Tables- District Level , Census of India__5": 1170,
      "Marginal Workers Household Industry worked for 0 - 3 moths during last year - Persons": 360,
      "Total Male Population": 240965,
      "Non Workers - Females": 196937,
      "Current use of family planning methods in percentage DLHS-4": "Not available",
      "Households with main source of drinking water within premises  Houselisting and Housing Census Data Tables- District Level , Census of India__3": 15775,
      "Main Workers Agricultural Labourers - Males": 3666,
      "Marginal Workers Other worked for 0 - 3 moths during last year - Persons": 2000,
      "Currently married women married below 18years of age in percentage DLHS-4": "Not available",
      "Person Illiterates": 113275,
      "Main Workers Household Industry - Females": 4911,
      "Female Literates": 174473,
      "Marginal Workers Cultivators worked for 0 - 3 moths during last year - Males": 22,
      "Male": "NA",
      "Households with improved source of drinking water in percentage DLHS-4": "Not available",
      "Upper Primary Schools with electricity in percentage DISE": "NA",
      "Households with electricity in percentage DLHS-4": "Not available",
      "Villages with Primary Health Centre within 10km in percentage DLHS-4": 0,
      "Births to women aged 15-19years out of Total births in percentage DLHS-4": "Not available",
      "Prevalence of Anaemia in women aged 15-49years in percentage DLHS-4": "Not available",
      "Marginal Workers Agricultural Labourers worked for 3 - 6 moths during last year - Persons": 1175,
      "Main Workers Household Industry - Males": 4082,
      "Scheduled Tribe Females": 3183,
      "Marginal Workers worked for 0 - 3 moths during last year - Males": 1641,
      "Marginal Workers Other worked for 3 - 6 moths during last year - Males": 9120,
      "Primary Net Enrolment Ratio in percentage DISE": "NA",
      "Total": "NA",
      "Mean age at marriage for boys DLHS-4": "Not available",
      "Number of District Hospitals  DLHS-4": 0,
      "0-6 Age Group Females": 26806,
      "Marginal Workers Agricultural Labourers worked for 0 - 3 moths during last year - Persons": 174,
      "Marginal Workers Household Industry worked for 0 - 3 moths during last year - Males": 139,
      "Total Workers  Females": 42171,
      "Marginal Workers worked for 3 - 6 moths during last year - Females": 5977,
      "Institutional Deliveries in percentage DLHS-4": "Not available",
      "Marginal Workers Other - Males": 10498,
      "Total Workers  Males": 130607,
      "Main Workers - Females": 35268,
      "Primary Gross Enrolment Ratio in percentage DISE": "NA",
      "Main Workers Cultivators - Persons": 3766,
      "Marginal Workers Household Industry worked for 0 - 3 moths during last year - Females": 221,
      "Upper Primary Net Enrolment Ratio in percentage DISE": "NA",
      "Primary New Government Schools since 2003 in percentage DISE": "NA",
      "Tier": "Urban",
      "Marginal Workers Household Industry - Females": 1231,
      "Primary Schools with electricity in percentage DISE": "NA",
      "Main Workers Other - Persons": 134398,
      "Marginal Workers Household Industry worked for 3 - 6 moths during last year - Females": 1010,
      "Main Workers Cultivators - Males": 3054,
      "Main Workers Household Industry - Persons": 8993,
      "Marginal Workers Cultivators worked for 0 - 3 moths during last year - Persons": 33,
      "Scheduled Caste Males": 68528,
      "Marginal Workers - Persons": 19602,
      "Deliveries at home conducted by skilled health personnel in percentage DLHS-4": "Not available",
      "Villages with Sub-Health Centres within 3km in percentage DLHS-4": 0,
      "Upper Primary New Government Schools since 2003 in percentage DISE": "NA",
      "0-6 Age Group Males": 27386,
      "Primary Schools with drinking water facility in percentage DISE": "NA",
      "Non Workers - Persons": 307295,
      "Person Literates": 366798,
      "State": "KARNATAKA",
      "Total Female Population": 239108,
      "Marginal Workers worked for 0 - 3 moths during last year - Persons": 2567,
      "Marginal Workers Cultivators - Females": 142,
      "Marginal Workers Other - Persons": 15516,
      "Sex Ratio": 992,
      "Scheduled Tribe Persons": 6732,
      "Marginal Workers Household Industry worked for 3 - 6 moths during last year - Males": 973,
      "Marginal Workers Agricultural Labourers - Females": 512,
      "Mean age at marriage for girls DLHS-4": "Not available",
      "Households with solar energy as main source of lighting  Houselisting and Housing Census Data Tables- District Level , Census of India__4": 168,
      "District": "KOLAR",
      "Households receiving treated tap water within premises in percentage Houselisting and Housing Census Data Tables- District Level , Census of India__1": 58.66929373,
      "Total Workers  Persons": 172778,
      "Households receiving treated tap water within premises  Houselisting and Housing Census Data Tables- District Level , Census of India__4": 11613,
      "Primary Female Teachers in percentage DISE": "NA",
      "Number of Households": 106290,
      "Main Workers Agricultural Labourers - Persons": 6019
    }
  ]
}