{
  "Total": [
    {
      "Marginal Workers Agricultural Labourers - Persons": 69066,
      "Marginal Workers Other - Females": 19481,
      "Marginal Workers Other worked for 0 - 3 moths during last year - Females": 3129,
      "Upper Primary Schools with boys toilet in percentage DISE": 100,
      "Total Population": 1805769,
      "Households with electricity as main source of lighting in percentage Houselisting and Housing Census Data Tables- District Level , Census of India": 91.66740901,
      "Primary Girl's Enrolment in percentage DISE": 50.3,
      "Marginal Workers worked for 3 - 6 moths during last year - Males": 52919,
      "Prevalence of Acute illness in percentage DLHS-4": 7.9,
      "Main Workers - Persons": 714901,
      "Main Workers Cultivators - Females": 77015,
      "Marginal Workers Agricultural Labourers worked for 3 - 6 moths during last year - Females": 42570,
      "Marginal Workers Other worked for 0 - 3 moths during last year - Males": 3510,
      "Upper Primary Schools with drinking water facility in percentage DISE": 100,
      "Primary Schools with girls toilet in percentage DISE": 100,
      "Marginal Workers worked for 3 - 6 moths during last year - Persons": 137169,
      "Upper Primary Drop Out Rate in percentage DISE": 2.27,
      "Prevalence of Anaemia in pregnant women aged 15-49years in percentage DLHS-4": 90.2,
      "Current use of any modern method of family planning in percentage DLHS-4": 69.6,
      "Marginal Workers Agricultural Labourers - Males": 23042,
      "Upper Primary Female Teachers in percentage DISE": 59.2,
      "Marginal Workers - Females": 95452,
      "Marginal Workers Other worked for 3 - 6 moths during last year - Persons": 36243,
      "Main Workers Agricultural Labourers - Females": 68913,
      "Marginal Workers Cultivators worked for 3 - 6 moths during last year - Females": 22126,
      "Households with no lighting  Houselisting and Housing Census Data Tables- District Level , Census of India__5": 1135,
      "Prevalence of Severe Anaemia  in percentage DLHS-4": 24.8,
      "Total unmet need for family planning in percentage DLHS-4": 11.8,
      "Main Workers Other - Males": 155079,
      "Children who received full vaccination in percentage DLHS-4": 83,
      "Marginal Workers Household Industry - Persons": 6568,
      "Primary Pupil-Teacher Ratio in percentage DISE": 12,
      "Marginal Workers Agricultural Labourers worked for 3 - 6 moths during last year - Males": 21150,
      "Scheduled Caste Females": 133619,
      "Marginal Workers Cultivators - Males": 12065,
      "Marginal Workers - Males": 61055,
      "Marginal Workers worked for 0 - 3 moths during last year - Females": 11202,
      "Households with main source of drinking water within premises in percentage Houselisting and Housing Census Data Tables- District Level , Census of India": 29.5099194,
      "Marginal Workers Household Industry worked for 3 - 6 moths during last year - Persons": 5110,
      "Upper Primary Girl's Enrolment in percentage DISE": 49.3,
      "Prevalence of Severe Anaemia in women aged 15-49years in percentage DLHS-4": 12.2,
      "Marginal Workers Agricultural Labourers worked for 0 - 3 moths during last year - Males": 1892,
      "Households with electricity as main source of lighting  Houselisting and Housing Census Data Tables- District Level , Census of India__3": 391033,
      "Households with computer or laptop with internet connection in percentage": 0.79,
      "PHCs functioning on a 24x7hours basis in percentage DLHS-4": 47.1,
      "Non Workers - Males": 329882,
      "Total Households in District Houselisting and Housing Census Data Tables- District Level , Census of India": 426578,
      "Upper Primary Schools with girls toilet in percentage DISE": 100,
      "Households with mobile phone in percentage": 51.89,
      "Households receiving untreated tap water within premises in percentage Houselisting and Housing Census Data Tables- District Level , Census of India__2": 8.335065475,
      "Marginal Workers Cultivators worked for 3 - 6 moths during last year - Males": 9970,
      "Prevalence of Anaemia  in percentage DLHS-4": 85.6,
      "Prevalence of Chronic illness in percentage DLHS-4": 9.1,
      "Households with solar energy as main source of lighting in percentage Houselisting and Housing Census Data Tables- District Level , Census of India__1": 0.0956,
      "Marginal Workers Agricultural Labourers worked for 0 - 3 moths during last year - Females": 3454,
      "Main Workers - Males": 514148,
      "Female": 84.01,
      "Sno": 827,
      "Marginal Workers Other worked for 3 - 6 moths during last year - Females": 16352,
      "Marginal Workers Cultivators worked for 0 - 3 moths during last year - Females": 3800,
      "Scheduled Tribe Males": 11310,
      "Male Illiterates": 266417,
      "Prevalence of Severe Anaemia in pregnant women aged 15-49years in percentage DLHS-4": 13.6,
      "0-6 Age Group Persons": 172685,
      "Upper Primary Student-Classroom Ratio in percentage DISE": 26,
      "Currently married men married below 21years of age in percentage DLHS-4": 1.8,
      "Male Literates": 638668,
      "Households with no lighting in percentage Houselisting and Housing Census Data Tables- District Level , Census of India__2": 0.266070918,
      "Primary Drop Out Rate in percentage DISE": 2.2,
      "Marginal Workers Household Industry - Males": 2547,
      "Female Illiterates": 389703,
      "Main Workers Other - Females": 50473,
      "Marginal Workers Cultivators - Persons": 37991,
      "Upper Primary Gross Enrolment Ratio in percentage DISE": 84,
      "Scheduled Caste Persons": 265294,
      "Marginal Workers Cultivators worked for 3 - 6 moths during last year - Persons": 32096,
      "Households with landline phone in percentage": 6.68,
      "Total Households in District  Houselisting and Housing Census Data Tables- District Level , Census of India": 426578,
      "Upper Primary Pupil-Teacher Ratio in percentage DISE": 22,
      "Primary Student-Classroom Ratio in percentage DISE": 10,
      "Primary Schools with boys toilet in percentage DISE": 100.5,
      "Mean number of children ever born to women aged 40-49years  DLHS-4": 2.6,
      "Households receiving untreated tap water within premises  Houselisting and Housing Census Data Tables- District Level , Census of India__5": 21654,
      "Marginal Workers Household Industry worked for 0 - 3 moths during last year - Persons": 1458,
      "Total Male Population": 905085,
      "Non Workers - Females": 604479,
      "Current use of family planning methods in percentage DLHS-4": 72.1,
      "Households with main source of drinking water within premises  Houselisting and Housing Census Data Tables- District Level , Census of India__3": 76665,
      "Main Workers Agricultural Labourers - Males": 78180,
      "Marginal Workers Other worked for 0 - 3 moths during last year - Persons": 6639,
      "Currently married women married below 18years of age in percentage DLHS-4": 11.1,
      "Person Illiterates": 656120,
      "Main Workers Household Industry - Females": 4352,
      "Female Literates": 510981,
      "Marginal Workers Cultivators worked for 0 - 3 moths during last year - Males": 2095,
      "Male": 91.01,
      "Households with improved source of drinking water in percentage DLHS-4": 98.4,
      "Upper Primary Schools with electricity in percentage DISE": 100,
      "Households with electricity in percentage DLHS-4": 95.3,
      "Villages with Primary Health Centre within 10km in percentage DLHS-4": 88,
      "Births to women aged 15-19years out of Total births in percentage DLHS-4": 7.8,
      "Prevalence of Anaemia in women aged 15-49years in percentage DLHS-4": 82.9,
      "Marginal Workers Agricultural Labourers worked for 3 - 6 moths during last year - Persons": 63720,
      "Main Workers Household Industry - Males": 6914,
      "Scheduled Tribe Females": 11092,
      "Marginal Workers worked for 0 - 3 moths during last year - Males": 8136,
      "Marginal Workers Other worked for 3 - 6 moths during last year - Males": 19891,
      "Primary Net Enrolment Ratio in percentage DISE": 81.3,
      "Total": 87.67,
      "Mean age at marriage for boys DLHS-4": 27.9,
      "Number of District Hospitals  DLHS-4": 1,
      "0-6 Age Group Females": 83622,
      "Marginal Workers Agricultural Labourers worked for 0 - 3 moths during last year - Persons": 5346,
      "Marginal Workers Household Industry worked for 0 - 3 moths during last year - Males": 639,
      "Total Workers  Females": 296205,
      "Marginal Workers worked for 3 - 6 moths during last year - Females": 84250,
      "Institutional Deliveries in percentage DLHS-4": 96.9,
      "Marginal Workers Other - Males": 23401,
      "Total Workers  Males": 575203,
      "Main Workers - Females": 200753,
      "Primary Gross Enrolment Ratio in percentage DISE": 91.2,
      "Main Workers Cultivators - Persons": 350990,
      "Marginal Workers Household Industry worked for 0 - 3 moths during last year - Females": 819,
      "Upper Primary Net Enrolment Ratio in percentage DISE": 73.9,
      "Primary New Government Schools since 2003 in percentage DISE": 0.9,
      "Tier": "Total",
      "Marginal Workers Household Industry - Females": 4021,
      "Primary Schools with electricity in percentage DISE": 100,
      "Main Workers Other - Persons": 205552,
      "Marginal Workers Household Industry worked for 3 - 6 moths during last year - Females": 3202,
      "Main Workers Cultivators - Males": 273975,
      "Main Workers Household Industry - Persons": 11266,
      "Marginal Workers Cultivators worked for 0 - 3 moths during last year - Persons": 5895,
      "Scheduled Caste Males": 131675,
      "Marginal Workers - Persons": 156507,
      "Deliveries at home conducted by skilled health personnel in percentage DLHS-4": 0.4,
      "Villages with Sub-Health Centres within 3km in percentage DLHS-4": 76,
      "Upper Primary New Government Schools since 2003 in percentage DISE": 25,
      "0-6 Age Group Males": 89063,
      "Primary Schools with drinking water facility in percentage DISE": 100,
      "Non Workers - Persons": 934361,
      "Person Literates": 1149649,
      "State": "KARNATAKA",
      "Total Female Population": 900684,
      "Marginal Workers worked for 0 - 3 moths during last year - Persons": 19338,
      "Marginal Workers Cultivators - Females": 25926,
      "Marginal Workers Other - Persons": 42882,
      "Sex Ratio": 916,
      "Scheduled Tribe Persons": 22402,
      "Marginal Workers Household Industry worked for 3 - 6 moths during last year - Males": 1908,
      "Marginal Workers Agricultural Labourers - Females": 46024,
      "Mean age at marriage for girls DLHS-4": 20.6,
      "Households with solar energy as main source of lighting  Houselisting and Housing Census Data Tables- District Level , Census of India__4": 408,
      "District": "MANDYA",
      "Households receiving treated tap water within premises in percentage Houselisting and Housing Census Data Tables- District Level , Census of India__1": 18.29680439,
      "Total Workers  Persons": 871408,
      "Households receiving treated tap water within premises  Houselisting and Housing Census Data Tables- District Level , Census of India__4": 47534,
      "Primary Female Teachers in percentage DISE": 44.5,
      "Number of Households": 428625,
      "Main Workers Agricultural Labourers - Persons": 147093
    }
  ],
  "Rural": [
    {
      "Marginal Workers Agricultural Labourers - Persons": 66210,
      "Marginal Workers Other - Females": 15112,
      "Marginal Workers Other worked for 0 - 3 moths during last year - Females": 2256,
      "Upper Primary Schools with boys toilet in percentage DISE": "NA",
      "Total Population": 1497407,
      "Households with electricity as main source of lighting in percentage Houselisting and Housing Census Data Tables- District Level , Census of India": 90.80692221,
      "Primary Girl's Enrolment in percentage DISE": "NA",
      "Marginal Workers worked for 3 - 6 moths during last year - Males": 44639,
      "Prevalence of Acute illness in percentage DLHS-4": 8.8,
      "Main Workers - Persons": 609829,
      "Main Workers Cultivators - Females": 76218,
      "Marginal Workers Agricultural Labourers worked for 3 - 6 moths during last year - Females": 41178,
      "Marginal Workers Other worked for 0 - 3 moths during last year - Males": 2366,
      "Upper Primary Schools with drinking water facility in percentage DISE": "NA",
      "Primary Schools with girls toilet in percentage DISE": "NA",
      "Marginal Workers worked for 3 - 6 moths during last year - Persons": 123080,
      "Upper Primary Drop Out Rate in percentage DISE": "NA",
      "Prevalence of Anaemia in pregnant women aged 15-49years in percentage DLHS-4": 85.7,
      "Current use of any modern method of family planning in percentage DLHS-4": 73.1,
      "Marginal Workers Agricultural Labourers - Males": 21734,
      "Upper Primary Female Teachers in percentage DISE": "NA",
      "Marginal Workers - Females": 88437,
      "Marginal Workers Other worked for 3 - 6 moths during last year - Persons": 26233,
      "Main Workers Agricultural Labourers - Females": 66823,
      "Marginal Workers Cultivators worked for 3 - 6 moths during last year - Females": 22019,
      "Households with no lighting  Houselisting and Housing Census Data Tables- District Level , Census of India__5": 986,
      "Prevalence of Severe Anaemia  in percentage DLHS-4": 12.9,
      "Total unmet need for family planning in percentage DLHS-4": 7.1,
      "Main Workers Other - Males": 84646,
      "Children who received full vaccination in percentage DLHS-4": 88.9,
      "Marginal Workers Household Industry - Persons": 5146,
      "Primary Pupil-Teacher Ratio in percentage DISE": "NA",
      "Marginal Workers Agricultural Labourers worked for 3 - 6 moths during last year - Males": 19944,
      "Scheduled Caste Females": 111702,
      "Marginal Workers Cultivators - Males": 11818,
      "Marginal Workers - Males": 51399,
      "Marginal Workers worked for 0 - 3 moths during last year - Females": 9996,
      "Households with main source of drinking water within premises in percentage Houselisting and Housing Census Data Tables- District Level , Census of India": 17.34566945,
      "Marginal Workers Household Industry worked for 3 - 6 moths during last year - Persons": 3970,
      "Upper Primary Girl's Enrolment in percentage DISE": "NA",
      "Prevalence of Severe Anaemia in women aged 15-49years in percentage DLHS-4": 9,
      "Marginal Workers Agricultural Labourers worked for 0 - 3 moths during last year - Males": 1790,
      "Households with electricity as main source of lighting  Houselisting and Housing Census Data Tables- District Level , Census of India__3": 321501,
      "Households with computer or laptop with internet connection in percentage": 0.42,
      "PHCs functioning on a 24x7hours basis in percentage DLHS-4": "Not applicable",
      "Non Workers - Males": 266947,
      "Total Households in District Houselisting and Housing Census Data Tables- District Level , Census of India": 354049,
      "Upper Primary Schools with girls toilet in percentage DISE": "NA",
      "Households with mobile phone in percentage": 49.18,
      "Households receiving untreated tap water within premises in percentage Houselisting and Housing Census Data Tables- District Level , Census of India__2": 6.839652097,
      "Marginal Workers Cultivators worked for 3 - 6 moths during last year - Males": 9736,
      "Prevalence of Anaemia  in percentage DLHS-4": 85.9,
      "Prevalence of Chronic illness in percentage DLHS-4": 8.1,
      "Households with solar energy as main source of lighting in percentage Houselisting and Housing Census Data Tables- District Level , Census of India__1": 0.101398394,
      "Marginal Workers Agricultural Labourers worked for 0 - 3 moths during last year - Females": 3298,
      "Main Workers - Males": 432897,
      "Female": "NA",
      "Sno": 826,
      "Marginal Workers Other worked for 3 - 6 moths during last year - Females": 12856,
      "Marginal Workers Cultivators worked for 0 - 3 moths during last year - Females": 3788,
      "Scheduled Tribe Males": 8814,
      "Male Illiterates": 233339,
      "Prevalence of Severe Anaemia in pregnant women aged 15-49years in percentage DLHS-4": 14.8,
      "0-6 Age Group Persons": 141058,
      "Upper Primary Student-Classroom Ratio in percentage DISE": "NA",
      "Currently married men married below 21years of age in percentage DLHS-4": 0.8,
      "Male Literates": 517904,
      "Households with no lighting in percentage Houselisting and Housing Census Data Tables- District Level , Census of India__2": 0.278492525,
      "Primary Drop Out Rate in percentage DISE": "NA",
      "Marginal Workers Household Industry - Males": 2104,
      "Female Illiterates": 344779,
      "Main Workers Other - Females": 30867,
      "Marginal Workers Cultivators - Persons": 37625,
      "Upper Primary Gross Enrolment Ratio in percentage DISE": "NA",
      "Scheduled Caste Persons": 221943,
      "Marginal Workers Cultivators worked for 3 - 6 moths during last year - Persons": 31755,
      "Households with landline phone in percentage": 6.81,
      "Total Households in District  Houselisting and Housing Census Data Tables- District Level , Census of India": 354049,
      "Upper Primary Pupil-Teacher Ratio in percentage DISE": "NA",
      "Primary Student-Classroom Ratio in percentage DISE": "NA",
      "Primary Schools with boys toilet in percentage DISE": "NA",
      "Mean number of children ever born to women aged 40-49years  DLHS-4": 2.7,
      "Households receiving untreated tap water within premises  Houselisting and Housing Census Data Tables- District Level , Census of India__5": 13691,
      "Marginal Workers Household Industry worked for 0 - 3 moths during last year - Persons": 1176,
      "Total Male Population": 751243,
      "Non Workers - Females": 480795,
      "Current use of family planning methods in percentage DLHS-4": 74.9,
      "Households with main source of drinking water within premises  Houselisting and Housing Census Data Tables- District Level , Census of India__3": 34721,
      "Main Workers Agricultural Labourers - Males": 74824,
      "Marginal Workers Other worked for 0 - 3 moths during last year - Persons": 4622,
      "Currently married women married below 18years of age in percentage DLHS-4": 16,
      "Person Illiterates": 578118,
      "Main Workers Household Industry - Females": 3024,
      "Female Literates": 401385,
      "Marginal Workers Cultivators worked for 0 - 3 moths during last year - Males": 2082,
      "Male": "NA",
      "Households with improved source of drinking water in percentage DLHS-4": 98,
      "Upper Primary Schools with electricity in percentage DISE": "NA",
      "Households with electricity in percentage DLHS-4": 96.1,
      "Villages with Primary Health Centre within 10km in percentage DLHS-4": "Not applicable",
      "Births to women aged 15-19years out of Total births in percentage DLHS-4": 11.7,
      "Prevalence of Anaemia in women aged 15-49years in percentage DLHS-4": 82.2,
      "Marginal Workers Agricultural Labourers worked for 3 - 6 moths during last year - Persons": 61122,
      "Main Workers Household Industry - Males": 5734,
      "Scheduled Tribe Females": 8547,
      "Marginal Workers worked for 0 - 3 moths during last year - Males": 6760,
      "Marginal Workers Other worked for 3 - 6 moths during last year - Males": 13377,
      "Primary Net Enrolment Ratio in percentage DISE": "NA",
      "Total": "NA",
      "Mean age at marriage for boys DLHS-4": 28.5,
      "Number of District Hospitals  DLHS-4": "Not applicable",
      "0-6 Age Group Females": 68266,
      "Marginal Workers Agricultural Labourers worked for 0 - 3 moths during last year - Persons": 5088,
      "Marginal Workers Household Industry worked for 0 - 3 moths during last year - Males": 522,
      "Total Workers  Females": 265369,
      "Marginal Workers worked for 3 - 6 moths during last year - Females": 78441,
      "Institutional Deliveries in percentage DLHS-4": 97.5,
      "Marginal Workers Other - Males": 15743,
      "Total Workers  Males": 484296,
      "Main Workers - Females": 176932,
      "Primary Gross Enrolment Ratio in percentage DISE": "NA",
      "Main Workers Cultivators - Persons": 343911,
      "Marginal Workers Household Industry worked for 0 - 3 moths during last year - Females": 654,
      "Upper Primary Net Enrolment Ratio in percentage DISE": "NA",
      "Primary New Government Schools since 2003 in percentage DISE": "NA",
      "Tier": "Rural",
      "Marginal Workers Household Industry - Females": 3042,
      "Primary Schools with electricity in percentage DISE": "NA",
      "Main Workers Other - Persons": 115513,
      "Marginal Workers Household Industry worked for 3 - 6 moths during last year - Females": 2388,
      "Main Workers Cultivators - Males": 267693,
      "Main Workers Household Industry - Persons": 8758,
      "Marginal Workers Cultivators worked for 0 - 3 moths during last year - Persons": 5870,
      "Scheduled Caste Males": 110241,
      "Marginal Workers - Persons": 139836,
      "Deliveries at home conducted by skilled health personnel in percentage DLHS-4": 0.8,
      "Villages with Sub-Health Centres within 3km in percentage DLHS-4": "Not applicable",
      "Upper Primary New Government Schools since 2003 in percentage DISE": "NA",
      "0-6 Age Group Males": 72792,
      "Primary Schools with drinking water facility in percentage DISE": "NA",
      "Non Workers - Persons": 747742,
      "Person Literates": 919289,
      "State": "KARNATAKA",
      "Total Female Population": 746164,
      "Marginal Workers worked for 0 - 3 moths during last year - Persons": 16756,
      "Marginal Workers Cultivators - Females": 25807,
      "Marginal Workers Other - Persons": 30855,
      "Sex Ratio": 877,
      "Scheduled Tribe Persons": 17361,
      "Marginal Workers Household Industry worked for 3 - 6 moths during last year - Males": 1582,
      "Marginal Workers Agricultural Labourers - Females": 44476,
      "Mean age at marriage for girls DLHS-4": 19.8,
      "Households with solar energy as main source of lighting  Houselisting and Housing Census Data Tables- District Level , Census of India__4": 359,
      "District": "MANDYA",
      "Households receiving treated tap water within premises in percentage Houselisting and Housing Census Data Tables- District Level , Census of India__1": 7.597004561,
      "Total Workers  Persons": 749665,
      "Households receiving treated tap water within premises  Houselisting and Housing Census Data Tables- District Level , Census of India__4": 15207,
      "Primary Female Teachers in percentage DISE": "NA",
      "Number of Households": 355271,
      "Main Workers Agricultural Labourers - Persons": 141647
    }
  ],
  "Urban": [
    {
      "Marginal Workers Agricultural Labourers - Persons": 2856,
      "Marginal Workers Other - Females": 4369,
      "Marginal Workers Other worked for 0 - 3 moths during last year - Females": 873,
      "Upper Primary Schools with boys toilet in percentage DISE": "NA",
      "Total Population": 308362,
      "Households with electricity as main source of lighting in percentage Houselisting and Housing Census Data Tables- District Level , Census of India": 95.86785975,
      "Primary Girl's Enrolment in percentage DISE": "NA",
      "Marginal Workers worked for 3 - 6 moths during last year - Males": 8280,
      "Prevalence of Acute illness in percentage DLHS-4": "Not available",
      "Main Workers - Persons": 105072,
      "Main Workers Cultivators - Females": 797,
      "Marginal Workers Agricultural Labourers worked for 3 - 6 moths during last year - Females": 1392,
      "Marginal Workers Other worked for 0 - 3 moths during last year - Males": 1144,
      "Upper Primary Schools with drinking water facility in percentage DISE": "NA",
      "Primary Schools with girls toilet in percentage DISE": "NA",
      "Marginal Workers worked for 3 - 6 moths during last year - Persons": 14089,
      "Upper Primary Drop Out Rate in percentage DISE": "NA",
      "Prevalence of Anaemia in pregnant women aged 15-49years in percentage DLHS-4": "Not available",
      "Current use of any modern method of family planning in percentage DLHS-4": "Not available",
      "Marginal Workers Agricultural Labourers - Males": 1308,
      "Upper Primary Female Teachers in percentage DISE": "NA",
      "Marginal Workers - Females": 7015,
      "Marginal Workers Other worked for 3 - 6 moths during last year - Persons": 10010,
      "Main Workers Agricultural Labourers - Females": 2090,
      "Marginal Workers Cultivators worked for 3 - 6 moths during last year - Females": 107,
      "Households with no lighting  Houselisting and Housing Census Data Tables- District Level , Census of India__5": 149,
      "Prevalence of Severe Anaemia  in percentage DLHS-4": "Not available",
      "Total unmet need for family planning in percentage DLHS-4": "Not available",
      "Main Workers Other - Males": 70433,
      "Children who received full vaccination in percentage DLHS-4": "Not available",
      "Marginal Workers Household Industry - Persons": 1422,
      "Primary Pupil-Teacher Ratio in percentage DISE": "NA",
      "Marginal Workers Agricultural Labourers worked for 3 - 6 moths during last year - Males": 1206,
      "Scheduled Caste Females": 21917,
      "Marginal Workers Cultivators - Males": 247,
      "Marginal Workers - Males": 9656,
      "Marginal Workers worked for 0 - 3 moths during last year - Females": 1206,
      "Households with main source of drinking water within premises in percentage Houselisting and Housing Census Data Tables- District Level , Census of India": 70.34869094,
      "Marginal Workers Household Industry worked for 3 - 6 moths during last year - Persons": 1140,
      "Upper Primary Girl's Enrolment in percentage DISE": "NA",
      "Prevalence of Severe Anaemia in women aged 15-49years in percentage DLHS-4": "Not available",
      "Marginal Workers Agricultural Labourers worked for 0 - 3 moths during last year - Males": 102,
      "Households with electricity as main source of lighting  Houselisting and Housing Census Data Tables- District Level , Census of India__3": 69532,
      "Households with computer or laptop with internet connection in percentage": 2.61,
      "PHCs functioning on a 24x7hours basis in percentage DLHS-4": 0,
      "Non Workers - Males": 62935,
      "Total Households in District Houselisting and Housing Census Data Tables- District Level , Census of India": 72529,
      "Upper Primary Schools with girls toilet in percentage DISE": "NA",
      "Households with mobile phone in percentage": 65.12,
      "Households receiving untreated tap water within premises in percentage Houselisting and Housing Census Data Tables- District Level , Census of India__2": 13.35558425,
      "Marginal Workers Cultivators worked for 3 - 6 moths during last year - Males": 234,
      "Prevalence of Anaemia  in percentage DLHS-4": "Not available",
      "Prevalence of Chronic illness in percentage DLHS-4": "Not available",
      "Households with solar energy as main source of lighting in percentage Houselisting and Housing Census Data Tables- District Level , Census of India__1": 0.0676,
      "Marginal Workers Agricultural Labourers worked for 0 - 3 moths during last year - Females": 156,
      "Main Workers - Males": 81251,
      "Female": "NA",
      "Sno": 828,
      "Marginal Workers Other worked for 3 - 6 moths during last year - Females": 3496,
      "Marginal Workers Cultivators worked for 0 - 3 moths during last year - Females": 12,
      "Scheduled Tribe Males": 2496,
      "Male Illiterates": 33078,
      "Prevalence of Severe Anaemia in pregnant women aged 15-49years in percentage DLHS-4": "Not available",
      "0-6 Age Group Persons": 31627,
      "Upper Primary Student-Classroom Ratio in percentage DISE": "NA",
      "Currently married men married below 21years of age in percentage DLHS-4": "Not available",
      "Male Literates": 120764,
      "Households with no lighting in percentage Houselisting and Housing Census Data Tables- District Level , Census of India__2": 0.205435067,
      "Primary Drop Out Rate in percentage DISE": "NA",
      "Marginal Workers Household Industry - Males": 443,
      "Female Illiterates": 44924,
      "Main Workers Other - Females": 19606,
      "Marginal Workers Cultivators - Persons": 366,
      "Upper Primary Gross Enrolment Ratio in percentage DISE": "NA",
      "Scheduled Caste Persons": 43351,
      "Marginal Workers Cultivators worked for 3 - 6 moths during last year - Persons": 341,
      "Households with landline phone in percentage": 6.06,
      "Total Households in District  Houselisting and Housing Census Data Tables- District Level , Census of India": 72529,
      "Upper Primary Pupil-Teacher Ratio in percentage DISE": "NA",
      "Primary Student-Classroom Ratio in percentage DISE": "NA",
      "Primary Schools with boys toilet in percentage DISE": "NA",
      "Mean number of children ever born to women aged 40-49years  DLHS-4": "Not available",
      "Households receiving untreated tap water within premises  Houselisting and Housing Census Data Tables- District Level , Census of India__5": 7963,
      "Marginal Workers Household Industry worked for 0 - 3 moths during last year - Persons": 282,
      "Total Male Population": 153842,
      "Non Workers - Females": 123684,
      "Current use of family planning methods in percentage DLHS-4": "Not available",
      "Households with main source of drinking water within premises  Houselisting and Housing Census Data Tables- District Level , Census of India__3": 41944,
      "Main Workers Agricultural Labourers - Males": 3356,
      "Marginal Workers Other worked for 0 - 3 moths during last year - Persons": 2017,
      "Currently married women married below 18years of age in percentage DLHS-4": "Not available",
      "Person Illiterates": 78002,
      "Main Workers Household Industry - Females": 1328,
      "Female Literates": 109596,
      "Marginal Workers Cultivators worked for 0 - 3 moths during last year - Males": 13,
      "Male": "NA",
      "Households with improved source of drinking water in percentage DLHS-4": "Not available",
      "Upper Primary Schools with electricity in percentage DISE": "NA",
      "Households with electricity in percentage DLHS-4": "Not available",
      "Villages with Primary Health Centre within 10km in percentage DLHS-4": 0,
      "Births to women aged 15-19years out of Total births in percentage DLHS-4": "Not available",
      "Prevalence of Anaemia in women aged 15-49years in percentage DLHS-4": "Not available",
      "Marginal Workers Agricultural Labourers worked for 3 - 6 moths during last year - Persons": 2598,
      "Main Workers Household Industry - Males": 1180,
      "Scheduled Tribe Females": 2545,
      "Marginal Workers worked for 0 - 3 moths during last year - Males": 1376,
      "Marginal Workers Other worked for 3 - 6 moths during last year - Males": 6514,
      "Primary Net Enrolment Ratio in percentage DISE": "NA",
      "Total": "NA",
      "Mean age at marriage for boys DLHS-4": "Not available",
      "Number of District Hospitals  DLHS-4": 0,
      "0-6 Age Group Females": 15356,
      "Marginal Workers Agricultural Labourers worked for 0 - 3 moths during last year - Persons": 258,
      "Marginal Workers Household Industry worked for 0 - 3 moths during last year - Males": 117,
      "Total Workers  Females": 30836,
      "Marginal Workers worked for 3 - 6 moths during last year - Females": 5809,
      "Institutional Deliveries in percentage DLHS-4": "Not available",
      "Marginal Workers Other - Males": 7658,
      "Total Workers  Males": 90907,
      "Main Workers - Females": 23821,
      "Primary Gross Enrolment Ratio in percentage DISE": "NA",
      "Main Workers Cultivators - Persons": 7079,
      "Marginal Workers Household Industry worked for 0 - 3 moths during last year - Females": 165,
      "Upper Primary Net Enrolment Ratio in percentage DISE": "NA",
      "Primary New Government Schools since 2003 in percentage DISE": "NA",
      "Tier": "Urban",
      "Marginal Workers Household Industry - Females": 979,
      "Primary Schools with electricity in percentage DISE": "NA",
      "Main Workers Other - Persons": 90039,
      "Marginal Workers Household Industry worked for 3 - 6 moths during last year - Females": 814,
      "Main Workers Cultivators - Males": 6282,
      "Main Workers Household Industry - Persons": 2508,
      "Marginal Workers Cultivators worked for 0 - 3 moths during last year - Persons": 25,
      "Scheduled Caste Males": 21434,
      "Marginal Workers - Persons": 16671,
      "Deliveries at home conducted by skilled health personnel in percentage DLHS-4": "Not available",
      "Villages with Sub-Health Centres within 3km in percentage DLHS-4": 0,
      "Upper Primary New Government Schools since 2003 in percentage DISE": "NA",
      "0-6 Age Group Males": 16271,
      "Primary Schools with drinking water facility in percentage DISE": "NA",
      "Non Workers - Persons": 186619,
      "Person Literates": 230360,
      "State": "KARNATAKA",
      "Total Female Population": 154520,
      "Marginal Workers worked for 0 - 3 moths during last year - Persons": 2582,
      "Marginal Workers Cultivators - Females": 119,
      "Marginal Workers Other - Persons": 12027,
      "Sex Ratio": 920,
      "Scheduled Tribe Persons": 5041,
      "Marginal Workers Household Industry worked for 3 - 6 moths during last year - Males": 326,
      "Marginal Workers Agricultural Labourers - Females": 1548,
      "Mean age at marriage for girls DLHS-4": "Not available",
      "Households with solar energy as main source of lighting  Houselisting and Housing Census Data Tables- District Level , Census of India__4": 49,
      "District": "MANDYA",
      "Households receiving treated tap water within premises in percentage Houselisting and Housing Census Data Tables- District Level , Census of India__1": 54.21900944,
      "Total Workers  Persons": 121743,
      "Households receiving treated tap water within premises  Houselisting and Housing Census Data Tables- District Level , Census of India__4": 32327,
      "Primary Female Teachers in percentage DISE": "NA",
      "Number of Households": 73354,
      "Main Workers Agricultural Labourers - Persons": 5446
    }
  ]
}