{
  "Total": [
    {
      "Marginal Workers Agricultural Labourers - Persons": 113998,
      "Marginal Workers Other - Females": 20123,
      "Marginal Workers Other worked for 0 - 3 moths during last year - Females": 3933,
      "Upper Primary Schools with boys toilet in percentage DISE": 100,
      "Total Population": 1928812,
      "Households with electricity as main source of lighting in percentage Houselisting and Housing Census Data Tables- District Level , Census of India": 87.53537765,
      "Primary Girl's Enrolment in percentage DISE": 47.3,
      "Marginal Workers worked for 3 - 6 moths during last year - Males": 60054,
      "Prevalence of Acute illness in percentage DLHS-4": 2.6,
      "Main Workers - Persons": 725985,
      "Main Workers Cultivators - Females": 60909,
      "Marginal Workers Agricultural Labourers worked for 3 - 6 moths during last year - Females": 72262,
      "Marginal Workers Other worked for 0 - 3 moths during last year - Males": 4487,
      "Upper Primary Schools with drinking water facility in percentage DISE": 100,
      "Primary Schools with girls toilet in percentage DISE": 100,
      "Marginal Workers worked for 3 - 6 moths during last year - Persons": 157155,
      "Upper Primary Drop Out Rate in percentage DISE": 10.12,
      "Prevalence of Anaemia in pregnant women aged 15-49years in percentage DLHS-4": 64.6,
      "Current use of any modern method of family planning in percentage DLHS-4": 51.2,
      "Marginal Workers Agricultural Labourers - Males": 35884,
      "Upper Primary Female Teachers in percentage DISE": 90.3,
      "Marginal Workers - Females": 108476,
      "Marginal Workers Other worked for 3 - 6 moths during last year - Persons": 37116,
      "Main Workers Agricultural Labourers - Females": 148560,
      "Marginal Workers Cultivators worked for 3 - 6 moths during last year - Females": 5764,
      "Households with no lighting  Houselisting and Housing Census Data Tables- District Level , Census of India__5": 2706,
      "Prevalence of Severe Anaemia  in percentage DLHS-4": 18.9,
      "Total unmet need for family planning in percentage DLHS-4": 19.5,
      "Main Workers Other - Males": 159583,
      "Children who received full vaccination in percentage DLHS-4": 69.9,
      "Marginal Workers Household Industry - Persons": 5852,
      "Primary Pupil-Teacher Ratio in percentage DISE": 22,
      "Marginal Workers Agricultural Labourers worked for 3 - 6 moths during last year - Males": 32707,
      "Scheduled Caste Females": 200574,
      "Marginal Workers Cultivators - Males": 5318,
      "Marginal Workers - Males": 68952,
      "Marginal Workers worked for 0 - 3 moths during last year - Females": 11375,
      "Households with main source of drinking water within premises in percentage Houselisting and Housing Census Data Tables- District Level , Census of India": 24.09298235,
      "Marginal Workers Household Industry worked for 3 - 6 moths during last year - Persons": 4697,
      "Upper Primary Girl's Enrolment in percentage DISE": 88.2,
      "Prevalence of Severe Anaemia in women aged 15-49years in percentage DLHS-4": 5.9,
      "Marginal Workers Agricultural Labourers worked for 0 - 3 moths during last year - Males": 3177,
      "Households with electricity as main source of lighting  Houselisting and Housing Census Data Tables- District Level , Census of India__3": 314547,
      "Households with computer or laptop with internet connection in percentage": 1.45,
      "PHCs functioning on a 24x7hours basis in percentage DLHS-4": 100,
      "Non Workers - Males": 434138,
      "Total Households in District Houselisting and Housing Census Data Tables- District Level , Census of India": 359337,
      "Upper Primary Schools with girls toilet in percentage DISE": 100,
      "Households with mobile phone in percentage": 58.97,
      "Households receiving untreated tap water within premises in percentage Houselisting and Housing Census Data Tables- District Level , Census of India__2": 4.431216379,
      "Marginal Workers Cultivators worked for 3 - 6 moths during last year - Males": 4609,
      "Prevalence of Anaemia  in percentage DLHS-4": 75.7,
      "Prevalence of Chronic illness in percentage DLHS-4": 2.6,
      "Households with solar energy as main source of lighting in percentage Houselisting and Housing Census Data Tables- District Level , Census of India__1": 0.306397616,
      "Marginal Workers Agricultural Labourers worked for 0 - 3 moths during last year - Females": 5852,
      "Main Workers - Males": 461421,
      "Female": 48.73,
      "Sno": 833,
      "Marginal Workers Other worked for 3 - 6 moths during last year - Females": 16190,
      "Marginal Workers Cultivators worked for 0 - 3 moths during last year - Females": 960,
      "Scheduled Tribe Males": 182101,
      "Male Illiterates": 387298,
      "Prevalence of Severe Anaemia in pregnant women aged 15-49years in percentage DLHS-4": 6.3,
      "0-6 Age Group Persons": 283733,
      "Upper Primary Student-Classroom Ratio in percentage DISE": 12,
      "Currently married men married below 21years of age in percentage DLHS-4": 14.8,
      "Male Literates": 577213,
      "Households with no lighting in percentage Houselisting and Housing Census Data Tables- District Level , Census of India__2": 0.75305354,
      "Primary Drop Out Rate in percentage DISE": 5.2,
      "Marginal Workers Household Industry - Males": 2337,
      "Female Illiterates": 561745,
      "Main Workers Other - Females": 50374,
      "Marginal Workers Cultivators - Persons": 12042,
      "Upper Primary Gross Enrolment Ratio in percentage DISE": 79,
      "Scheduled Caste Persons": 400933,
      "Marginal Workers Cultivators worked for 3 - 6 moths during last year - Persons": 10373,
      "Households with landline phone in percentage": 5.21,
      "Total Households in District  Houselisting and Housing Census Data Tables- District Level , Census of India": 359337,
      "Upper Primary Pupil-Teacher Ratio in percentage DISE": 22,
      "Primary Student-Classroom Ratio in percentage DISE": 19,
      "Primary Schools with boys toilet in percentage DISE": 100.2,
      "Mean number of children ever born to women aged 40-49years  DLHS-4": 3.8,
      "Households receiving untreated tap water within premises  Houselisting and Housing Census Data Tables- District Level , Census of India__5": 15923,
      "Marginal Workers Household Industry worked for 0 - 3 moths during last year - Persons": 1155,
      "Total Male Population": 964511,
      "Non Workers - Females": 591261,
      "Current use of family planning methods in percentage DLHS-4": 51.7,
      "Households with main source of drinking water within premises  Houselisting and Housing Census Data Tables- District Level , Census of India__3": 86575,
      "Main Workers Agricultural Labourers - Males": 120968,
      "Marginal Workers Other worked for 0 - 3 moths during last year - Persons": 8420,
      "Currently married women married below 18years of age in percentage DLHS-4": 22.3,
      "Person Illiterates": 949043,
      "Main Workers Household Industry - Females": 4721,
      "Female Literates": 402556,
      "Marginal Workers Cultivators worked for 0 - 3 moths during last year - Males": 709,
      "Male": 70.47,
      "Households with improved source of drinking water in percentage DLHS-4": 89.3,
      "Upper Primary Schools with electricity in percentage DISE": 100,
      "Households with electricity in percentage DLHS-4": 94.7,
      "Villages with Primary Health Centre within 10km in percentage DLHS-4": 68.2,
      "Births to women aged 15-19years out of Total births in percentage DLHS-4": 6.6,
      "Prevalence of Anaemia in women aged 15-49years in percentage DLHS-4": 58.1,
      "Marginal Workers Agricultural Labourers worked for 3 - 6 moths during last year - Persons": 104969,
      "Main Workers Household Industry - Males": 8522,
      "Scheduled Tribe Females": 184970,
      "Marginal Workers worked for 0 - 3 moths during last year - Males": 8898,
      "Marginal Workers Other worked for 3 - 6 moths during last year - Males": 20926,
      "Primary Net Enrolment Ratio in percentage DISE": 96.5,
      "Total": 59.56,
      "Mean age at marriage for boys DLHS-4": 23.9,
      "Number of District Hospitals  DLHS-4": 1,
      "0-6 Age Group Females": 138265,
      "Marginal Workers Agricultural Labourers worked for 0 - 3 moths during last year - Persons": 9029,
      "Marginal Workers Household Industry worked for 0 - 3 moths during last year - Males": 525,
      "Total Workers  Females": 373040,
      "Marginal Workers worked for 3 - 6 moths during last year - Females": 97101,
      "Institutional Deliveries in percentage DLHS-4": 73.2,
      "Marginal Workers Other - Males": 25413,
      "Total Workers  Males": 530373,
      "Main Workers - Females": 264564,
      "Primary Gross Enrolment Ratio in percentage DISE": 101.2,
      "Main Workers Cultivators - Persons": 233257,
      "Marginal Workers Household Industry worked for 0 - 3 moths during last year - Females": 630,
      "Upper Primary Net Enrolment Ratio in percentage DISE": 73,
      "Primary New Government Schools since 2003 in percentage DISE": 37.7,
      "Tier": "Total",
      "Marginal Workers Household Industry - Females": 3515,
      "Primary Schools with electricity in percentage DISE": 97.5,
      "Main Workers Other - Persons": 209957,
      "Marginal Workers Household Industry worked for 3 - 6 moths during last year - Females": 2885,
      "Main Workers Cultivators - Males": 172348,
      "Main Workers Household Industry - Persons": 13243,
      "Marginal Workers Cultivators worked for 0 - 3 moths during last year - Persons": 1669,
      "Scheduled Caste Males": 200359,
      "Marginal Workers - Persons": 177428,
      "Deliveries at home conducted by skilled health personnel in percentage DLHS-4": 7.6,
      "Villages with Sub-Health Centres within 3km in percentage DLHS-4": 72.7,
      "Upper Primary New Government Schools since 2003 in percentage DISE": 100,
      "0-6 Age Group Males": 145468,
      "Primary Schools with drinking water facility in percentage DISE": 100,
      "Non Workers - Persons": 1025399,
      "Person Literates": 979769,
      "State": "KARNATAKA",
      "Total Female Population": 964301,
      "Marginal Workers worked for 0 - 3 moths during last year - Persons": 20273,
      "Marginal Workers Cultivators - Females": 6724,
      "Marginal Workers Other - Persons": 45536,
      "Sex Ratio": 1000,
      "Scheduled Tribe Persons": 367071,
      "Marginal Workers Household Industry worked for 3 - 6 moths during last year - Males": 1812,
      "Marginal Workers Agricultural Labourers - Females": 78114,
      "Mean age at marriage for girls DLHS-4": 19.5,
      "Households with solar energy as main source of lighting  Houselisting and Housing Census Data Tables- District Level , Census of India__4": 1101,
      "District": "RAICHUR",
      "Households receiving treated tap water within premises in percentage Houselisting and Housing Census Data Tables- District Level , Census of India__1": 16.78925354,
      "Total Workers  Persons": 903413,
      "Households receiving treated tap water within premises  Houselisting and Housing Census Data Tables- District Level , Census of India__4": 60330,
      "Primary Female Teachers in percentage DISE": 45.7,
      "Number of Households": 363853,
      "Main Workers Agricultural Labourers - Persons": 269528
    }
  ],
  "Rural": [
    {
      "Marginal Workers Agricultural Labourers - Persons": 109961,
      "Marginal Workers Other - Females": 12141,
      "Marginal Workers Other worked for 0 - 3 moths during last year - Females": 2841,
      "Upper Primary Schools with boys toilet in percentage DISE": "NA",
      "Total Population": 1438464,
      "Households with electricity as main source of lighting in percentage Houselisting and Housing Census Data Tables- District Level , Census of India": 89.77765501,
      "Primary Girl's Enrolment in percentage DISE": "NA",
      "Marginal Workers worked for 3 - 6 moths during last year - Males": 47464,
      "Prevalence of Acute illness in percentage DLHS-4": 2,
      "Main Workers - Persons": 575393,
      "Main Workers Cultivators - Females": 59795,
      "Marginal Workers Agricultural Labourers worked for 3 - 6 moths during last year - Females": 70012,
      "Marginal Workers Other worked for 0 - 3 moths during last year - Males": 2784,
      "Upper Primary Schools with drinking water facility in percentage DISE": "NA",
      "Primary Schools with girls toilet in percentage DISE": "NA",
      "Marginal Workers worked for 3 - 6 moths during last year - Persons": 134749,
      "Upper Primary Drop Out Rate in percentage DISE": "NA",
      "Prevalence of Anaemia in pregnant women aged 15-49years in percentage DLHS-4": 61.5,
      "Current use of any modern method of family planning in percentage DLHS-4": 49.4,
      "Marginal Workers Agricultural Labourers - Males": 34236,
      "Upper Primary Female Teachers in percentage DISE": "NA",
      "Marginal Workers - Females": 97264,
      "Marginal Workers Other worked for 3 - 6 moths during last year - Persons": 20018,
      "Main Workers Agricultural Labourers - Females": 141916,
      "Marginal Workers Cultivators worked for 3 - 6 moths during last year - Females": 5547,
      "Households with no lighting  Houselisting and Housing Census Data Tables- District Level , Census of India__5": 2089,
      "Prevalence of Severe Anaemia  in percentage DLHS-4": 18.7,
      "Total unmet need for family planning in percentage DLHS-4": 17.3,
      "Main Workers Other - Males": 60550,
      "Children who received full vaccination in percentage DLHS-4": 66.4,
      "Marginal Workers Household Industry - Persons": 4511,
      "Primary Pupil-Teacher Ratio in percentage DISE": "NA",
      "Marginal Workers Agricultural Labourers worked for 3 - 6 moths during last year - Males": 31175,
      "Scheduled Caste Females": 156752,
      "Marginal Workers Cultivators - Males": 4985,
      "Marginal Workers - Males": 54336,
      "Marginal Workers worked for 0 - 3 moths during last year - Females": 9979,
      "Households with main source of drinking water within premises in percentage Houselisting and Housing Census Data Tables- District Level , Census of India": 15.60690798,
      "Marginal Workers Household Industry worked for 3 - 6 moths during last year - Persons": 3680,
      "Upper Primary Girl's Enrolment in percentage DISE": "NA",
      "Prevalence of Severe Anaemia in women aged 15-49years in percentage DLHS-4": 5,
      "Marginal Workers Agricultural Labourers worked for 0 - 3 moths during last year - Males": 3061,
      "Households with electricity as main source of lighting  Houselisting and Housing Census Data Tables- District Level , Census of India__3": 237259,
      "Households with computer or laptop with internet connection in percentage": 0.7,
      "PHCs functioning on a 24x7hours basis in percentage DLHS-4": "Not applicable",
      "Non Workers - Males": 316924,
      "Total Households in District Houselisting and Housing Census Data Tables- District Level , Census of India": 264274,
      "Upper Primary Schools with girls toilet in percentage DISE": "NA",
      "Households with mobile phone in percentage": 56.66,
      "Households receiving untreated tap water within premises in percentage Houselisting and Housing Census Data Tables- District Level , Census of India__2": 4.626637505,
      "Marginal Workers Cultivators worked for 3 - 6 moths during last year - Males": 4317,
      "Prevalence of Anaemia  in percentage DLHS-4": 74.5,
      "Prevalence of Chronic illness in percentage DLHS-4": 2.3,
      "Households with solar energy as main source of lighting in percentage Houselisting and Housing Census Data Tables- District Level , Census of India__1": 0.356448232,
      "Marginal Workers Agricultural Labourers worked for 0 - 3 moths during last year - Females": 5713,
      "Main Workers - Males": 346712,
      "Female": "NA",
      "Sno": 832,
      "Marginal Workers Other worked for 3 - 6 moths during last year - Females": 9300,
      "Marginal Workers Cultivators worked for 0 - 3 moths during last year - Females": 953,
      "Scheduled Tribe Males": 165593,
      "Male Illiterates": 318385,
      "Prevalence of Severe Anaemia in pregnant women aged 15-49years in percentage DLHS-4": 6,
      "0-6 Age Group Persons": 219804,
      "Upper Primary Student-Classroom Ratio in percentage DISE": "NA",
      "Currently married men married below 21years of age in percentage DLHS-4": 18.3,
      "Male Literates": 399587,
      "Households with no lighting in percentage Houselisting and Housing Census Data Tables- District Level , Census of India__2": 0.790467469,
      "Primary Drop Out Rate in percentage DISE": "NA",
      "Marginal Workers Household Industry - Males": 1613,
      "Female Illiterates": 460639,
      "Main Workers Other - Females": 23432,
      "Marginal Workers Cultivators - Persons": 11485,
      "Upper Primary Gross Enrolment Ratio in percentage DISE": "NA",
      "Scheduled Caste Persons": 313581,
      "Marginal Workers Cultivators worked for 3 - 6 moths during last year - Persons": 9864,
      "Households with landline phone in percentage": 4.53,
      "Total Households in District  Houselisting and Housing Census Data Tables- District Level , Census of India": 264274,
      "Upper Primary Pupil-Teacher Ratio in percentage DISE": "NA",
      "Primary Student-Classroom Ratio in percentage DISE": "NA",
      "Primary Schools with boys toilet in percentage DISE": "NA",
      "Mean number of children ever born to women aged 40-49years  DLHS-4": 3.9,
      "Households receiving untreated tap water within premises  Houselisting and Housing Census Data Tables- District Level , Census of India__5": 12227,
      "Marginal Workers Household Industry worked for 0 - 3 moths during last year - Persons": 831,
      "Total Male Population": 717972,
      "Non Workers - Females": 394547,
      "Current use of family planning methods in percentage DLHS-4": 49.9,
      "Households with main source of drinking water within premises  Houselisting and Housing Census Data Tables- District Level , Census of India__3": 41245,
      "Main Workers Agricultural Labourers - Males": 114057,
      "Marginal Workers Other worked for 0 - 3 moths during last year - Persons": 5625,
      "Currently married women married below 18years of age in percentage DLHS-4": 25.5,
      "Person Illiterates": 779024,
      "Main Workers Household Industry - Females": 3538,
      "Female Literates": 259853,
      "Marginal Workers Cultivators worked for 0 - 3 moths during last year - Males": 668,
      "Male": "NA",
      "Households with improved source of drinking water in percentage DLHS-4": 84.6,
      "Upper Primary Schools with electricity in percentage DISE": "NA",
      "Households with electricity in percentage DLHS-4": 92.9,
      "Villages with Primary Health Centre within 10km in percentage DLHS-4": "Not applicable",
      "Births to women aged 15-19years out of Total births in percentage DLHS-4": 8.7,
      "Prevalence of Anaemia in women aged 15-49years in percentage DLHS-4": 54.6,
      "Marginal Workers Agricultural Labourers worked for 3 - 6 moths during last year - Persons": 101187,
      "Main Workers Household Industry - Males": 6019,
      "Scheduled Tribe Females": 168430,
      "Marginal Workers worked for 0 - 3 moths during last year - Males": 6872,
      "Marginal Workers Other worked for 3 - 6 moths during last year - Males": 10718,
      "Primary Net Enrolment Ratio in percentage DISE": "NA",
      "Total": "NA",
      "Mean age at marriage for boys DLHS-4": 23.8,
      "Number of District Hospitals  DLHS-4": "Not applicable",
      "0-6 Age Group Females": 107133,
      "Marginal Workers Agricultural Labourers worked for 0 - 3 moths during last year - Persons": 8774,
      "Marginal Workers Household Industry worked for 0 - 3 moths during last year - Males": 359,
      "Total Workers  Females": 325945,
      "Marginal Workers worked for 3 - 6 moths during last year - Females": 87285,
      "Institutional Deliveries in percentage DLHS-4": 68.3,
      "Marginal Workers Other - Males": 13502,
      "Total Workers  Males": 401048,
      "Main Workers - Females": 228681,
      "Primary Gross Enrolment Ratio in percentage DISE": "NA",
      "Main Workers Cultivators - Persons": 225881,
      "Marginal Workers Household Industry worked for 0 - 3 moths during last year - Females": 472,
      "Upper Primary Net Enrolment Ratio in percentage DISE": "NA",
      "Primary New Government Schools since 2003 in percentage DISE": "NA",
      "Tier": "Rural",
      "Marginal Workers Household Industry - Females": 2898,
      "Primary Schools with electricity in percentage DISE": "NA",
      "Main Workers Other - Persons": 83982,
      "Marginal Workers Household Industry worked for 3 - 6 moths during last year - Females": 2426,
      "Main Workers Cultivators - Males": 166086,
      "Main Workers Household Industry - Persons": 9557,
      "Marginal Workers Cultivators worked for 0 - 3 moths during last year - Persons": 1621,
      "Scheduled Caste Males": 156829,
      "Marginal Workers - Persons": 151600,
      "Deliveries at home conducted by skilled health personnel in percentage DLHS-4": 9,
      "Villages with Sub-Health Centres within 3km in percentage DLHS-4": "Not applicable",
      "Upper Primary New Government Schools since 2003 in percentage DISE": "NA",
      "0-6 Age Group Males": 112671,
      "Primary Schools with drinking water facility in percentage DISE": "NA",
      "Non Workers - Persons": 711471,
      "Person Literates": 659440,
      "State": "KARNATAKA",
      "Total Female Population": 720492,
      "Marginal Workers worked for 0 - 3 moths during last year - Persons": 16851,
      "Marginal Workers Cultivators - Females": 6500,
      "Marginal Workers Other - Persons": 25643,
      "Sex Ratio": 1004,
      "Scheduled Tribe Persons": 334023,
      "Marginal Workers Household Industry worked for 3 - 6 moths during last year - Males": 1254,
      "Marginal Workers Agricultural Labourers - Females": 75725,
      "Mean age at marriage for girls DLHS-4": 19,
      "Households with solar energy as main source of lighting  Houselisting and Housing Census Data Tables- District Level , Census of India__4": 942,
      "District": "RAICHUR",
      "Households receiving treated tap water within premises in percentage Houselisting and Housing Census Data Tables- District Level , Census of India__1": 7.772614786,
      "Total Workers  Persons": 726993,
      "Households receiving treated tap water within premises  Houselisting and Housing Census Data Tables- District Level , Census of India__4": 20541,
      "Primary Female Teachers in percentage DISE": "NA",
      "Number of Households": 267585,
      "Main Workers Agricultural Labourers - Persons": 255973
    }
  ],
  "Urban": [
    {
      "Marginal Workers Agricultural Labourers - Persons": 4037,
      "Marginal Workers Other - Females": 7982,
      "Marginal Workers Other worked for 0 - 3 moths during last year - Females": 1092,
      "Upper Primary Schools with boys toilet in percentage DISE": "NA",
      "Total Population": 490348,
      "Households with electricity as main source of lighting in percentage Houselisting and Housing Census Data Tables- District Level , Census of India": 91.8212133,
      "Primary Girl's Enrolment in percentage DISE": "NA",
      "Marginal Workers worked for 3 - 6 moths during last year - Males": 12590,
      "Prevalence of Acute illness in percentage DLHS-4": "Not available",
      "Main Workers - Persons": 150592,
      "Main Workers Cultivators - Females": 1114,
      "Marginal Workers Agricultural Labourers worked for 3 - 6 moths during last year - Females": 2250,
      "Marginal Workers Other worked for 0 - 3 moths during last year - Males": 1703,
      "Upper Primary Schools with drinking water facility in percentage DISE": "NA",
      "Primary Schools with girls toilet in percentage DISE": "NA",
      "Marginal Workers worked for 3 - 6 moths during last year - Persons": 22406,
      "Upper Primary Drop Out Rate in percentage DISE": "NA",
      "Prevalence of Anaemia in pregnant women aged 15-49years in percentage DLHS-4": "Not available",
      "Current use of any modern method of family planning in percentage DLHS-4": "Not available",
      "Marginal Workers Agricultural Labourers - Males": 1648,
      "Upper Primary Female Teachers in percentage DISE": "NA",
      "Marginal Workers - Females": 11212,
      "Marginal Workers Other worked for 3 - 6 moths during last year - Persons": 17098,
      "Main Workers Agricultural Labourers - Females": 6644,
      "Marginal Workers Cultivators worked for 3 - 6 moths during last year - Females": 217,
      "Households with no lighting  Houselisting and Housing Census Data Tables- District Level , Census of India__5": 617,
      "Prevalence of Severe Anaemia  in percentage DLHS-4": "Not available",
      "Total unmet need for family planning in percentage DLHS-4": "Not available",
      "Main Workers Other - Males": 99033,
      "Children who received full vaccination in percentage DLHS-4": "Not available",
      "Marginal Workers Household Industry - Persons": 1341,
      "Primary Pupil-Teacher Ratio in percentage DISE": "NA",
      "Marginal Workers Agricultural Labourers worked for 3 - 6 moths during last year - Males": 1532,
      "Scheduled Caste Females": 43822,
      "Marginal Workers Cultivators - Males": 333,
      "Marginal Workers - Males": 14616,
      "Marginal Workers worked for 0 - 3 moths during last year - Females": 1396,
      "Households with main source of drinking water within premises in percentage Houselisting and Housing Census Data Tables- District Level , Census of India": 47.68416734,
      "Marginal Workers Household Industry worked for 3 - 6 moths during last year - Persons": 1017,
      "Upper Primary Girl's Enrolment in percentage DISE": "NA",
      "Prevalence of Severe Anaemia in women aged 15-49years in percentage DLHS-4": "Not available",
      "Marginal Workers Agricultural Labourers worked for 0 - 3 moths during last year - Males": 116,
      "Households with electricity as main source of lighting  Houselisting and Housing Census Data Tables- District Level , Census of India__3": 87288,
      "Households with computer or laptop with internet connection in percentage": 3.52,
      "PHCs functioning on a 24x7hours basis in percentage DLHS-4": 0,
      "Non Workers - Males": 117214,
      "Total Households in District Houselisting and Housing Census Data Tables- District Level , Census of India": 95063,
      "Upper Primary Schools with girls toilet in percentage DISE": "NA",
      "Households with mobile phone in percentage": 65.4,
      "Households receiving untreated tap water within premises in percentage Houselisting and Housing Census Data Tables- District Level , Census of India__2": 3.887947992,
      "Marginal Workers Cultivators worked for 3 - 6 moths during last year - Males": 292,
      "Prevalence of Anaemia  in percentage DLHS-4": "Not available",
      "Prevalence of Chronic illness in percentage DLHS-4": "Not available",
      "Households with solar energy as main source of lighting in percentage Houselisting and Housing Census Data Tables- District Level , Census of India__1": 0.167257503,
      "Marginal Workers Agricultural Labourers worked for 0 - 3 moths during last year - Females": 139,
      "Main Workers - Males": 114709,
      "Female": "NA",
      "Sno": 834,
      "Marginal Workers Other worked for 3 - 6 moths during last year - Females": 6890,
      "Marginal Workers Cultivators worked for 0 - 3 moths during last year - Females": 7,
      "Scheduled Tribe Males": 16508,
      "Male Illiterates": 68913,
      "Prevalence of Severe Anaemia in pregnant women aged 15-49years in percentage DLHS-4": "Not available",
      "0-6 Age Group Persons": 63929,
      "Upper Primary Student-Classroom Ratio in percentage DISE": "NA",
      "Currently married men married below 21years of age in percentage DLHS-4": "Not available",
      "Male Literates": 177626,
      "Households with no lighting in percentage Houselisting and Housing Census Data Tables- District Level , Census of India__2": 0.649043266,
      "Primary Drop Out Rate in percentage DISE": "NA",
      "Marginal Workers Household Industry - Males": 724,
      "Female Illiterates": 101106,
      "Main Workers Other - Females": 26942,
      "Marginal Workers Cultivators - Persons": 557,
      "Upper Primary Gross Enrolment Ratio in percentage DISE": "NA",
      "Scheduled Caste Persons": 87352,
      "Marginal Workers Cultivators worked for 3 - 6 moths during last year - Persons": 509,
      "Households with landline phone in percentage": 7.11,
      "Total Households in District  Houselisting and Housing Census Data Tables- District Level , Census of India": 95063,
      "Upper Primary Pupil-Teacher Ratio in percentage DISE": "NA",
      "Primary Student-Classroom Ratio in percentage DISE": "NA",
      "Primary Schools with boys toilet in percentage DISE": "NA",
      "Mean number of children ever born to women aged 40-49years  DLHS-4": "Not available",
      "Households receiving untreated tap water within premises  Houselisting and Housing Census Data Tables- District Level , Census of India__5": 3696,
      "Marginal Workers Household Industry worked for 0 - 3 moths during last year - Persons": 324,
      "Total Male Population": 246539,
      "Non Workers - Females": 196714,
      "Current use of family planning methods in percentage DLHS-4": "Not available",
      "Households with main source of drinking water within premises  Houselisting and Housing Census Data Tables- District Level , Census of India__3": 45330,
      "Main Workers Agricultural Labourers - Males": 6911,
      "Marginal Workers Other worked for 0 - 3 moths during last year - Persons": 2795,
      "Currently married women married below 18years of age in percentage DLHS-4": "Not available",
      "Person Illiterates": 170019,
      "Main Workers Household Industry - Females": 1183,
      "Female Literates": 142703,
      "Marginal Workers Cultivators worked for 0 - 3 moths during last year - Males": 41,
      "Male": "NA",
      "Households with improved source of drinking water in percentage DLHS-4": "Not available",
      "Upper Primary Schools with electricity in percentage DISE": "NA",
      "Households with electricity in percentage DLHS-4": "Not available",
      "Villages with Primary Health Centre within 10km in percentage DLHS-4": 0,
      "Births to women aged 15-19years out of Total births in percentage DLHS-4": "Not available",
      "Prevalence of Anaemia in women aged 15-49years in percentage DLHS-4": "Not available",
      "Marginal Workers Agricultural Labourers worked for 3 - 6 moths during last year - Persons": 3782,
      "Main Workers Household Industry - Males": 2503,
      "Scheduled Tribe Females": 16540,
      "Marginal Workers worked for 0 - 3 moths during last year - Males": 2026,
      "Marginal Workers Other worked for 3 - 6 moths during last year - Males": 10208,
      "Primary Net Enrolment Ratio in percentage DISE": "NA",
      "Total": "NA",
      "Mean age at marriage for boys DLHS-4": "Not available",
      "Number of District Hospitals  DLHS-4": 0,
      "0-6 Age Group Females": 31132,
      "Marginal Workers Agricultural Labourers worked for 0 - 3 moths during last year - Persons": 255,
      "Marginal Workers Household Industry worked for 0 - 3 moths during last year - Males": 166,
      "Total Workers  Females": 47095,
      "Marginal Workers worked for 3 - 6 moths during last year - Females": 9816,
      "Institutional Deliveries in percentage DLHS-4": "Not available",
      "Marginal Workers Other - Males": 11911,
      "Total Workers  Males": 129325,
      "Main Workers - Females": 35883,
      "Primary Gross Enrolment Ratio in percentage DISE": "NA",
      "Main Workers Cultivators - Persons": 7376,
      "Marginal Workers Household Industry worked for 0 - 3 moths during last year - Females": 158,
      "Upper Primary Net Enrolment Ratio in percentage DISE": "NA",
      "Primary New Government Schools since 2003 in percentage DISE": "NA",
      "Tier": "Urban",
      "Marginal Workers Household Industry - Females": 617,
      "Primary Schools with electricity in percentage DISE": "NA",
      "Main Workers Other - Persons": 125975,
      "Marginal Workers Household Industry worked for 3 - 6 moths during last year - Females": 459,
      "Main Workers Cultivators - Males": 6262,
      "Main Workers Household Industry - Persons": 3686,
      "Marginal Workers Cultivators worked for 0 - 3 moths during last year - Persons": 48,
      "Scheduled Caste Males": 43530,
      "Marginal Workers - Persons": 25828,
      "Deliveries at home conducted by skilled health personnel in percentage DLHS-4": "Not available",
      "Villages with Sub-Health Centres within 3km in percentage DLHS-4": 0,
      "Upper Primary New Government Schools since 2003 in percentage DISE": "NA",
      "0-6 Age Group Males": 32797,
      "Primary Schools with drinking water facility in percentage DISE": "NA",
      "Non Workers - Persons": 313928,
      "Person Literates": 320329,
      "State": "KARNATAKA",
      "Total Female Population": 243809,
      "Marginal Workers worked for 0 - 3 moths during last year - Persons": 3422,
      "Marginal Workers Cultivators - Females": 224,
      "Marginal Workers Other - Persons": 19893,
      "Sex Ratio": 989,
      "Scheduled Tribe Persons": 33048,
      "Marginal Workers Household Industry worked for 3 - 6 moths during last year - Males": 558,
      "Marginal Workers Agricultural Labourers - Females": 2389,
      "Mean age at marriage for girls DLHS-4": "Not available",
      "Households with solar energy as main source of lighting  Houselisting and Housing Census Data Tables- District Level , Census of India__4": 159,
      "District": "RAICHUR",
      "Households receiving treated tap water within premises in percentage Houselisting and Housing Census Data Tables- District Level , Census of India__1": 41.85540116,
      "Total Workers  Persons": 176420,
      "Households receiving treated tap water within premises  Houselisting and Housing Census Data Tables- District Level , Census of India__4": 39789,
      "Primary Female Teachers in percentage DISE": "NA",
      "Number of Households": 96268,
      "Main Workers Agricultural Labourers - Persons": 13555
    }
  ]
}