{
  "Total": [
    {
      "Marginal Workers Agricultural Labourers - Persons": 132268,
      "Marginal Workers Other - Females": 36283,
      "Marginal Workers Other worked for 0 - 3 moths during last year - Females": 6536,
      "Upper Primary Schools with boys toilet in percentage DISE": 100,
      "Total Population": 2678980,
      "Households with electricity as main source of lighting in percentage Houselisting and Housing Census Data Tables- District Level , Census of India": 88.43090915,
      "Primary Girl's Enrolment in percentage DISE": 49.7,
      "Marginal Workers worked for 3 - 6 moths during last year - Males": 86482,
      "Prevalence of Acute illness in percentage DLHS-4": 3.3,
      "Main Workers - Persons": 1078431,
      "Main Workers Cultivators - Females": 117972,
      "Marginal Workers Agricultural Labourers worked for 3 - 6 moths during last year - Females": 90717,
      "Marginal Workers Other worked for 0 - 3 moths during last year - Males": 7255,
      "Upper Primary Schools with drinking water facility in percentage DISE": 100,
      "Primary Schools with girls toilet in percentage DISE": 100,
      "Marginal Workers worked for 3 - 6 moths during last year - Persons": 246104,
      "Upper Primary Drop Out Rate in percentage DISE": "Not Available",
      "Prevalence of Anaemia in pregnant women aged 15-49years in percentage DLHS-4": 70.1,
      "Current use of any modern method of family planning in percentage DLHS-4": 67.8,
      "Marginal Workers Agricultural Labourers - Males": 35458,
      "Upper Primary Female Teachers in percentage DISE": 37.8,
      "Marginal Workers - Females": 176827,
      "Marginal Workers Other worked for 3 - 6 moths during last year - Persons": 67203,
      "Main Workers Agricultural Labourers - Females": 113403,
      "Marginal Workers Cultivators worked for 3 - 6 moths during last year - Females": 29773,
      "Households with no lighting  Houselisting and Housing Census Data Tables- District Level , Census of India__5": 2689,
      "Prevalence of Severe Anaemia  in percentage DLHS-4": 11.9,
      "Total unmet need for family planning in percentage DLHS-4": 12.9,
      "Main Workers Other - Males": 272793,
      "Children who received full vaccination in percentage DLHS-4": 93.7,
      "Marginal Workers Household Industry - Persons": 16687,
      "Primary Pupil-Teacher Ratio in percentage DISE": 11,
      "Marginal Workers Agricultural Labourers worked for 3 - 6 moths during last year - Males": 32360,
      "Scheduled Caste Females": 252366,
      "Marginal Workers Cultivators - Males": 13605,
      "Marginal Workers - Males": 99388,
      "Marginal Workers worked for 0 - 3 moths during last year - Females": 17205,
      "Households with main source of drinking water within premises in percentage Houselisting and Housing Census Data Tables- District Level , Census of India": 25.73562919,
      "Marginal Workers Household Industry worked for 3 - 6 moths during last year - Persons": 14090,
      "Upper Primary Girl's Enrolment in percentage DISE": 45.6,
      "Prevalence of Severe Anaemia in women aged 15-49years in percentage DLHS-4": 7.6,
      "Marginal Workers Agricultural Labourers worked for 0 - 3 moths during last year - Males": 3098,
      "Households with electricity as main source of lighting  Houselisting and Housing Census Data Tables- District Level , Census of India__3": 562769,
      "Households with computer or laptop with internet connection in percentage": 1.25,
      "PHCs functioning on a 24x7hours basis in percentage DLHS-4": 43.8,
      "Non Workers - Males": 513082,
      "Total Households in District Houselisting and Housing Census Data Tables- District Level , Census of India": 636394,
      "Upper Primary Schools with girls toilet in percentage DISE": 100,
      "Households with mobile phone in percentage": 44.85,
      "Households receiving untreated tap water within premises in percentage Houselisting and Housing Census Data Tables- District Level , Census of India__2": 7.477286084,
      "Marginal Workers Cultivators worked for 3 - 6 moths during last year - Males": 11961,
      "Prevalence of Anaemia  in percentage DLHS-4": 72.2,
      "Prevalence of Chronic illness in percentage DLHS-4": 3.8,
      "Households with solar energy as main source of lighting in percentage Houselisting and Housing Census Data Tables- District Level , Census of India__1": 0.111566105,
      "Marginal Workers Agricultural Labourers worked for 0 - 3 moths during last year - Females": 6093,
      "Main Workers - Males": 738124,
      "Female": 67.38,
      "Sno": 842,
      "Marginal Workers Other worked for 3 - 6 moths during last year - Females": 29747,
      "Marginal Workers Cultivators worked for 0 - 3 moths during last year - Females": 2888,
      "Scheduled Tribe Males": 105265,
      "Male Illiterates": 344570,
      "Prevalence of Severe Anaemia in pregnant women aged 15-49years in percentage DLHS-4": 9,
      "0-6 Age Group Persons": 265742,
      "Upper Primary Student-Classroom Ratio in percentage DISE": 23,
      "Currently married men married below 21years of age in percentage DLHS-4": 3.1,
      "Male Literates": 1006024,
      "Households with no lighting in percentage Houselisting and Housing Census Data Tables- District Level , Census of India__2": 0.422536982,
      "Primary Drop Out Rate in percentage DISE": 0.4,
      "Marginal Workers Household Industry - Males": 5614,
      "Female Illiterates": 521019,
      "Main Workers Other - Females": 88140,
      "Marginal Workers Cultivators - Persons": 46266,
      "Upper Primary Gross Enrolment Ratio in percentage DISE": 0,
      "Scheduled Caste Persons": 506901,
      "Marginal Workers Cultivators worked for 3 - 6 moths during last year - Persons": 41734,
      "Households with landline phone in percentage": 8.45,
      "Total Households in District  Houselisting and Housing Census Data Tables- District Level , Census of India": 636394,
      "Upper Primary Pupil-Teacher Ratio in percentage DISE": 28,
      "Primary Student-Classroom Ratio in percentage DISE": 10,
      "Primary Schools with boys toilet in percentage DISE": 100,
      "Mean number of children ever born to women aged 40-49years  DLHS-4": 2.6,
      "Households receiving untreated tap water within premises  Houselisting and Housing Census Data Tables- District Level , Census of India__5": 47585,
      "Marginal Workers Household Industry worked for 0 - 3 moths during last year - Persons": 2597,
      "Total Male Population": 1350594,
      "Non Workers - Females": 811252,
      "Current use of family planning methods in percentage DLHS-4": 69.3,
      "Households with main source of drinking water within premises  Houselisting and Housing Census Data Tables- District Level , Census of India__3": 163780,
      "Main Workers Agricultural Labourers - Males": 106615,
      "Marginal Workers Other worked for 0 - 3 moths during last year - Persons": 13791,
      "Currently married women married below 18years of age in percentage DLHS-4": 11,
      "Person Illiterates": 865589,
      "Main Workers Household Industry - Females": 20792,
      "Female Literates": 807367,
      "Marginal Workers Cultivators worked for 0 - 3 moths during last year - Males": 1644,
      "Male": 82.81,
      "Households with improved source of drinking water in percentage DLHS-4": 96.9,
      "Upper Primary Schools with electricity in percentage DISE": 100,
      "Households with electricity in percentage DLHS-4": 97.6,
      "Villages with Primary Health Centre within 10km in percentage DLHS-4": 81.8,
      "Births to women aged 15-19years out of Total births in percentage DLHS-4": 10.7,
      "Prevalence of Anaemia in women aged 15-49years in percentage DLHS-4": 57.2,
      "Marginal Workers Agricultural Labourers worked for 3 - 6 moths during last year - Persons": 123077,
      "Main Workers Household Industry - Males": 17044,
      "Scheduled Tribe Females": 104294,
      "Marginal Workers worked for 0 - 3 moths during last year - Males": 12906,
      "Marginal Workers Other worked for 3 - 6 moths during last year - Males": 37456,
      "Primary Net Enrolment Ratio in percentage DISE": 0,
      "Total": 75.14,
      "Mean age at marriage for boys DLHS-4": 27.3,
      "Number of District Hospitals  DLHS-4": 1,
      "0-6 Age Group Females": 130071,
      "Marginal Workers Agricultural Labourers worked for 0 - 3 moths during last year - Persons": 9191,
      "Marginal Workers Household Industry worked for 0 - 3 moths during last year - Males": 909,
      "Total Workers  Females": 517134,
      "Marginal Workers worked for 3 - 6 moths during last year - Females": 159622,
      "Institutional Deliveries in percentage DLHS-4": 96.4,
      "Marginal Workers Other - Males": 44711,
      "Total Workers  Males": 837512,
      "Main Workers - Females": 340307,
      "Primary Gross Enrolment Ratio in percentage DISE": 0,
      "Main Workers Cultivators - Persons": 459644,
      "Marginal Workers Household Industry worked for 0 - 3 moths during last year - Females": 1688,
      "Upper Primary Net Enrolment Ratio in percentage DISE": 0,
      "Primary New Government Schools since 2003 in percentage DISE": 4.5,
      "Tier": "Total",
      "Marginal Workers Household Industry - Females": 11073,
      "Primary Schools with electricity in percentage DISE": 97.8,
      "Main Workers Other - Persons": 360933,
      "Marginal Workers Household Industry worked for 3 - 6 moths during last year - Females": 9385,
      "Main Workers Cultivators - Males": 341672,
      "Main Workers Household Industry - Persons": 37836,
      "Marginal Workers Cultivators worked for 0 - 3 moths during last year - Persons": 4532,
      "Scheduled Caste Males": 254535,
      "Marginal Workers - Persons": 276215,
      "Deliveries at home conducted by skilled health personnel in percentage DLHS-4": 0.6,
      "Villages with Sub-Health Centres within 3km in percentage DLHS-4": 75,
      "Upper Primary New Government Schools since 2003 in percentage DISE": 0,
      "0-6 Age Group Males": 135671,
      "Primary Schools with drinking water facility in percentage DISE": 99.6,
      "Non Workers - Persons": 1324334,
      "Person Literates": 1813391,
      "State": "KARNATAKA",
      "Total Female Population": 1328386,
      "Marginal Workers worked for 0 - 3 moths during last year - Persons": 30111,
      "Marginal Workers Cultivators - Females": 32661,
      "Marginal Workers Other - Persons": 80994,
      "Sex Ratio": 984,
      "Scheduled Tribe Persons": 209559,
      "Marginal Workers Household Industry worked for 3 - 6 moths during last year - Males": 4705,
      "Marginal Workers Agricultural Labourers - Females": 96810,
      "Mean age at marriage for girls DLHS-4": 20.8,
      "Households with solar energy as main source of lighting  Houselisting and Housing Census Data Tables- District Level , Census of India__4": 710,
      "District": "TUMKUR",
      "Households receiving treated tap water within premises in percentage Houselisting and Housing Census Data Tables- District Level , Census of India__1": 12.94512519,
      "Total Workers  Persons": 1354646,
      "Households receiving treated tap water within premises  Houselisting and Housing Census Data Tables- District Level , Census of India__4": 82382,
      "Primary Female Teachers in percentage DISE": 52.9,
      "Number of Households": 640081,
      "Main Workers Agricultural Labourers - Persons": 220018
    }
  ],
  "Rural": [
    {
      "Marginal Workers Agricultural Labourers - Persons": 130126,
      "Marginal Workers Other - Females": 26947,
      "Marginal Workers Other worked for 0 - 3 moths during last year - Females": 4907,
      "Upper Primary Schools with boys toilet in percentage DISE": "NA",
      "Total Population": 2079902,
      "Households with electricity as main source of lighting in percentage Houselisting and Housing Census Data Tables- District Level , Census of India": 86.33473487,
      "Primary Girl's Enrolment in percentage DISE": "NA",
      "Marginal Workers worked for 3 - 6 moths during last year - Males": 69991,
      "Prevalence of Acute illness in percentage DLHS-4": 3.7,
      "Main Workers - Persons": 876518,
      "Main Workers Cultivators - Females": 116786,
      "Marginal Workers Agricultural Labourers worked for 3 - 6 moths during last year - Females": 89691,
      "Marginal Workers Other worked for 0 - 3 moths during last year - Males": 4718,
      "Upper Primary Schools with drinking water facility in percentage DISE": "NA",
      "Primary Schools with girls toilet in percentage DISE": "NA",
      "Marginal Workers worked for 3 - 6 moths during last year - Persons": 218602,
      "Upper Primary Drop Out Rate in percentage DISE": "NA",
      "Prevalence of Anaemia in pregnant women aged 15-49years in percentage DLHS-4": 73.4,
      "Current use of any modern method of family planning in percentage DLHS-4": 71.8,
      "Marginal Workers Agricultural Labourers - Males": 34456,
      "Upper Primary Female Teachers in percentage DISE": "NA",
      "Marginal Workers - Females": 163641,
      "Marginal Workers Other worked for 3 - 6 moths during last year - Persons": 45652,
      "Main Workers Agricultural Labourers - Females": 111472,
      "Marginal Workers Cultivators worked for 3 - 6 moths during last year - Females": 29608,
      "Households with no lighting  Houselisting and Housing Census Data Tables- District Level , Census of India__5": 2333,
      "Prevalence of Severe Anaemia  in percentage DLHS-4": 11.1,
      "Total unmet need for family planning in percentage DLHS-4": 12.2,
      "Main Workers Other - Males": 135858,
      "Children who received full vaccination in percentage DLHS-4": 95.8,
      "Marginal Workers Household Industry - Persons": 12739,
      "Primary Pupil-Teacher Ratio in percentage DISE": "NA",
      "Marginal Workers Agricultural Labourers worked for 3 - 6 moths during last year - Males": 31470,
      "Scheduled Caste Females": 214008,
      "Marginal Workers Cultivators - Males": 13065,
      "Marginal Workers - Males": 80040,
      "Marginal Workers worked for 0 - 3 moths during last year - Females": 15030,
      "Households with main source of drinking water within premises in percentage Houselisting and Housing Census Data Tables- District Level , Census of India": 16.10877522,
      "Marginal Workers Household Industry worked for 3 - 6 moths during last year - Persons": 10743,
      "Upper Primary Girl's Enrolment in percentage DISE": "NA",
      "Prevalence of Severe Anaemia in women aged 15-49years in percentage DLHS-4": 7.4,
      "Marginal Workers Agricultural Labourers worked for 0 - 3 moths during last year - Males": 2986,
      "Households with electricity as main source of lighting  Houselisting and Housing Census Data Tables- District Level , Census of India__3": 428121,
      "Households with computer or laptop with internet connection in percentage": 0.42,
      "PHCs functioning on a 24x7hours basis in percentage DLHS-4": "Not applicable",
      "Non Workers - Males": 383686,
      "Total Households in District Houselisting and Housing Census Data Tables- District Level , Census of India": 495885,
      "Upper Primary Schools with girls toilet in percentage DISE": "NA",
      "Households with mobile phone in percentage": 39.8,
      "Households receiving untreated tap water within premises in percentage Houselisting and Housing Census Data Tables- District Level , Census of India__2": 6.881030884,
      "Marginal Workers Cultivators worked for 3 - 6 moths during last year - Males": 11438,
      "Prevalence of Anaemia  in percentage DLHS-4": 70.7,
      "Prevalence of Chronic illness in percentage DLHS-4": 3.5,
      "Households with solar energy as main source of lighting in percentage Houselisting and Housing Census Data Tables- District Level , Census of India__1": 0.118979199,
      "Marginal Workers Agricultural Labourers worked for 0 - 3 moths during last year - Females": 5979,
      "Main Workers - Males": 584984,
      "Female": "NA",
      "Sno": 841,
      "Marginal Workers Other worked for 3 - 6 moths during last year - Females": 22040,
      "Marginal Workers Cultivators worked for 0 - 3 moths during last year - Females": 2866,
      "Scheduled Tribe Males": 90558,
      "Male Illiterates": 288388,
      "Prevalence of Severe Anaemia in pregnant women aged 15-49years in percentage DLHS-4": 8.9,
      "0-6 Age Group Persons": 203685,
      "Upper Primary Student-Classroom Ratio in percentage DISE": "NA",
      "Currently married men married below 21years of age in percentage DLHS-4": 5.5,
      "Male Literates": 760322,
      "Households with no lighting in percentage Houselisting and Housing Census Data Tables- District Level , Census of India__2": 0.470471984,
      "Primary Drop Out Rate in percentage DISE": "NA",
      "Marginal Workers Household Industry - Males": 4189,
      "Female Illiterates": 447076,
      "Main Workers Other - Females": 50818,
      "Marginal Workers Cultivators - Persons": 45539,
      "Upper Primary Gross Enrolment Ratio in percentage DISE": "NA",
      "Scheduled Caste Persons": 429957,
      "Marginal Workers Cultivators worked for 3 - 6 moths during last year - Persons": 41046,
      "Households with landline phone in percentage": 8.94,
      "Total Households in District  Houselisting and Housing Census Data Tables- District Level , Census of India": 495885,
      "Upper Primary Pupil-Teacher Ratio in percentage DISE": "NA",
      "Primary Student-Classroom Ratio in percentage DISE": "NA",
      "Primary Schools with boys toilet in percentage DISE": "NA",
      "Mean number of children ever born to women aged 40-49years  DLHS-4": 2.7,
      "Households receiving untreated tap water within premises  Houselisting and Housing Census Data Tables- District Level , Census of India__5": 34122,
      "Marginal Workers Household Industry worked for 0 - 3 moths during last year - Persons": 1996,
      "Total Male Population": 1048710,
      "Non Workers - Females": 576017,
      "Current use of family planning methods in percentage DLHS-4": 72.3,
      "Households with main source of drinking water within premises  Houselisting and Housing Census Data Tables- District Level , Census of India__3": 79881,
      "Main Workers Agricultural Labourers - Males": 103473,
      "Marginal Workers Other worked for 0 - 3 moths during last year - Persons": 9625,
      "Currently married women married below 18years of age in percentage DLHS-4": 15,
      "Person Illiterates": 735464,
      "Main Workers Household Industry - Females": 12458,
      "Female Literates": 584116,
      "Marginal Workers Cultivators worked for 0 - 3 moths during last year - Males": 1627,
      "Male": "NA",
      "Households with improved source of drinking water in percentage DLHS-4": 97.9,
      "Upper Primary Schools with electricity in percentage DISE": "NA",
      "Households with electricity in percentage DLHS-4": 96.9,
      "Villages with Primary Health Centre within 10km in percentage DLHS-4": "Not applicable",
      "Births to women aged 15-19years out of Total births in percentage DLHS-4": 12.7,
      "Prevalence of Anaemia in women aged 15-49years in percentage DLHS-4": 55.1,
      "Marginal Workers Agricultural Labourers worked for 3 - 6 moths during last year - Persons": 121161,
      "Main Workers Household Industry - Males": 11421,
      "Scheduled Tribe Females": 89466,
      "Marginal Workers worked for 0 - 3 moths during last year - Males": 10049,
      "Marginal Workers Other worked for 3 - 6 moths during last year - Males": 23612,
      "Primary Net Enrolment Ratio in percentage DISE": "NA",
      "Total": "NA",
      "Mean age at marriage for boys DLHS-4": 26.4,
      "Number of District Hospitals  DLHS-4": "Not applicable",
      "0-6 Age Group Females": 99696,
      "Marginal Workers Agricultural Labourers worked for 0 - 3 moths during last year - Persons": 8965,
      "Marginal Workers Household Industry worked for 0 - 3 moths during last year - Males": 718,
      "Total Workers  Females": 455175,
      "Marginal Workers worked for 3 - 6 moths during last year - Females": 148611,
      "Institutional Deliveries in percentage DLHS-4": 94.9,
      "Marginal Workers Other - Males": 28330,
      "Total Workers  Males": 665024,
      "Main Workers - Females": 291534,
      "Primary Gross Enrolment Ratio in percentage DISE": "NA",
      "Main Workers Cultivators - Persons": 451018,
      "Marginal Workers Household Industry worked for 0 - 3 moths during last year - Females": 1278,
      "Upper Primary Net Enrolment Ratio in percentage DISE": "NA",
      "Primary New Government Schools since 2003 in percentage DISE": "NA",
      "Tier": "Rural",
      "Marginal Workers Household Industry - Females": 8550,
      "Primary Schools with electricity in percentage DISE": "NA",
      "Main Workers Other - Persons": 186676,
      "Marginal Workers Household Industry worked for 3 - 6 moths during last year - Females": 7272,
      "Main Workers Cultivators - Males": 334232,
      "Main Workers Household Industry - Persons": 23879,
      "Marginal Workers Cultivators worked for 0 - 3 moths during last year - Persons": 4493,
      "Scheduled Caste Males": 215949,
      "Marginal Workers - Persons": 243681,
      "Deliveries at home conducted by skilled health personnel in percentage DLHS-4": 1,
      "Villages with Sub-Health Centres within 3km in percentage DLHS-4": "Not applicable",
      "Upper Primary New Government Schools since 2003 in percentage DISE": "NA",
      "0-6 Age Group Males": 103989,
      "Primary Schools with drinking water facility in percentage DISE": "NA",
      "Non Workers - Persons": 959703,
      "Person Literates": 1344438,
      "State": "KARNATAKA",
      "Total Female Population": 1031192,
      "Marginal Workers worked for 0 - 3 moths during last year - Persons": 25079,
      "Marginal Workers Cultivators - Females": 32474,
      "Marginal Workers Other - Persons": 55277,
      "Sex Ratio": 983,
      "Scheduled Tribe Persons": 180024,
      "Marginal Workers Household Industry worked for 3 - 6 moths during last year - Males": 3471,
      "Marginal Workers Agricultural Labourers - Females": 95670,
      "Mean age at marriage for girls DLHS-4": 20,
      "Households with solar energy as main source of lighting  Houselisting and Housing Census Data Tables- District Level , Census of India__4": 590,
      "District": "TUMKUR",
      "Households receiving treated tap water within premises in percentage Houselisting and Housing Census Data Tables- District Level , Census of India__1": 3.606078022,
      "Total Workers  Persons": 1120199,
      "Households receiving treated tap water within premises  Houselisting and Housing Census Data Tables- District Level , Census of India__4": 17882,
      "Primary Female Teachers in percentage DISE": "NA",
      "Number of Households": 497521,
      "Main Workers Agricultural Labourers - Persons": 214945
    }
  ],
  "Urban": [
    {
      "Marginal Workers Agricultural Labourers - Persons": 2142,
      "Marginal Workers Other - Females": 9336,
      "Marginal Workers Other worked for 0 - 3 moths during last year - Females": 1629,
      "Upper Primary Schools with boys toilet in percentage DISE": "NA",
      "Total Population": 599078,
      "Households with electricity as main source of lighting in percentage Houselisting and Housing Census Data Tables- District Level , Census of India": 95.82873695,
      "Primary Girl's Enrolment in percentage DISE": "NA",
      "Marginal Workers worked for 3 - 6 moths during last year - Males": 16491,
      "Prevalence of Acute illness in percentage DLHS-4": "Not available",
      "Main Workers - Persons": 201913,
      "Main Workers Cultivators - Females": 1186,
      "Marginal Workers Agricultural Labourers worked for 3 - 6 moths during last year - Females": 1026,
      "Marginal Workers Other worked for 0 - 3 moths during last year - Males": 2537,
      "Upper Primary Schools with drinking water facility in percentage DISE": "NA",
      "Primary Schools with girls toilet in percentage DISE": "NA",
      "Marginal Workers worked for 3 - 6 moths during last year - Persons": 27502,
      "Upper Primary Drop Out Rate in percentage DISE": "NA",
      "Prevalence of Anaemia in pregnant women aged 15-49years in percentage DLHS-4": "Not available",
      "Current use of any modern method of family planning in percentage DLHS-4": "Not available",
      "Marginal Workers Agricultural Labourers - Males": 1002,
      "Upper Primary Female Teachers in percentage DISE": "NA",
      "Marginal Workers - Females": 13186,
      "Marginal Workers Other worked for 3 - 6 moths during last year - Persons": 21551,
      "Main Workers Agricultural Labourers - Females": 1931,
      "Marginal Workers Cultivators worked for 3 - 6 moths during last year - Females": 165,
      "Households with no lighting  Houselisting and Housing Census Data Tables- District Level , Census of India__5": 356,
      "Prevalence of Severe Anaemia  in percentage DLHS-4": "Not available",
      "Total unmet need for family planning in percentage DLHS-4": "Not available",
      "Main Workers Other - Males": 136935,
      "Children who received full vaccination in percentage DLHS-4": "Not available",
      "Marginal Workers Household Industry - Persons": 3948,
      "Primary Pupil-Teacher Ratio in percentage DISE": "NA",
      "Marginal Workers Agricultural Labourers worked for 3 - 6 moths during last year - Males": 890,
      "Scheduled Caste Females": 38358,
      "Marginal Workers Cultivators - Males": 540,
      "Marginal Workers - Males": 19348,
      "Marginal Workers worked for 0 - 3 moths during last year - Females": 2175,
      "Households with main source of drinking water within premises in percentage Houselisting and Housing Census Data Tables- District Level , Census of India": 59.71076586,
      "Marginal Workers Household Industry worked for 3 - 6 moths during last year - Persons": 3347,
      "Upper Primary Girl's Enrolment in percentage DISE": "NA",
      "Prevalence of Severe Anaemia in women aged 15-49years in percentage DLHS-4": "Not available",
      "Marginal Workers Agricultural Labourers worked for 0 - 3 moths during last year - Males": 112,
      "Households with electricity as main source of lighting  Houselisting and Housing Census Data Tables- District Level , Census of India__3": 134648,
      "Households with computer or laptop with internet connection in percentage": 4.19,
      "PHCs functioning on a 24x7hours basis in percentage DLHS-4": 0,
      "Non Workers - Males": 129396,
      "Total Households in District Houselisting and Housing Census Data Tables- District Level , Census of India": 140509,
      "Upper Primary Schools with girls toilet in percentage DISE": "NA",
      "Households with mobile phone in percentage": 62.69,
      "Households receiving untreated tap water within premises in percentage Houselisting and Housing Census Data Tables- District Level , Census of India__2": 9.581592638,
      "Marginal Workers Cultivators worked for 3 - 6 moths during last year - Males": 523,
      "Prevalence of Anaemia  in percentage DLHS-4": "Not available",
      "Prevalence of Chronic illness in percentage DLHS-4": "Not available",
      "Households with solar energy as main source of lighting in percentage Houselisting and Housing Census Data Tables- District Level , Census of India__1": 0.0854,
      "Marginal Workers Agricultural Labourers worked for 0 - 3 moths during last year - Females": 114,
      "Main Workers - Males": 153140,
      "Female": "NA",
      "Sno": 843,
      "Marginal Workers Other worked for 3 - 6 moths during last year - Females": 7707,
      "Marginal Workers Cultivators worked for 0 - 3 moths during last year - Females": 22,
      "Scheduled Tribe Males": 14707,
      "Male Illiterates": 56182,
      "Prevalence of Severe Anaemia in pregnant women aged 15-49years in percentage DLHS-4": "Not available",
      "0-6 Age Group Persons": 62057,
      "Upper Primary Student-Classroom Ratio in percentage DISE": "NA",
      "Currently married men married below 21years of age in percentage DLHS-4": "Not available",
      "Male Literates": 245702,
      "Households with no lighting in percentage Houselisting and Housing Census Data Tables- District Level , Census of India__2": 0.253364553,
      "Primary Drop Out Rate in percentage DISE": "NA",
      "Marginal Workers Household Industry - Males": 1425,
      "Female Illiterates": 73943,
      "Main Workers Other - Females": 37322,
      "Marginal Workers Cultivators - Persons": 727,
      "Upper Primary Gross Enrolment Ratio in percentage DISE": "NA",
      "Scheduled Caste Persons": 76944,
      "Marginal Workers Cultivators worked for 3 - 6 moths during last year - Persons": 688,
      "Households with landline phone in percentage": 6.73,
      "Total Households in District  Houselisting and Housing Census Data Tables- District Level , Census of India": 140509,
      "Upper Primary Pupil-Teacher Ratio in percentage DISE": "NA",
      "Primary Student-Classroom Ratio in percentage DISE": "NA",
      "Primary Schools with boys toilet in percentage DISE": "NA",
      "Mean number of children ever born to women aged 40-49years  DLHS-4": "Not available",
      "Households receiving untreated tap water within premises  Houselisting and Housing Census Data Tables- District Level , Census of India__5": 13463,
      "Marginal Workers Household Industry worked for 0 - 3 moths during last year - Persons": 601,
      "Total Male Population": 301884,
      "Non Workers - Females": 235235,
      "Current use of family planning methods in percentage DLHS-4": "Not available",
      "Households with main source of drinking water within premises  Houselisting and Housing Census Data Tables- District Level , Census of India__3": 83899,
      "Main Workers Agricultural Labourers - Males": 3142,
      "Marginal Workers Other worked for 0 - 3 moths during last year - Persons": 4166,
      "Currently married women married below 18years of age in percentage DLHS-4": "Not available",
      "Person Illiterates": 130125,
      "Main Workers Household Industry - Females": 8334,
      "Female Literates": 223251,
      "Marginal Workers Cultivators worked for 0 - 3 moths during last year - Males": 17,
      "Male": "NA",
      "Households with improved source of drinking water in percentage DLHS-4": "Not available",
      "Upper Primary Schools with electricity in percentage DISE": "NA",
      "Households with electricity in percentage DLHS-4": "Not available",
      "Villages with Primary Health Centre within 10km in percentage DLHS-4": 0,
      "Births to women aged 15-19years out of Total births in percentage DLHS-4": "Not available",
      "Prevalence of Anaemia in women aged 15-49years in percentage DLHS-4": "Not available",
      "Marginal Workers Agricultural Labourers worked for 3 - 6 moths during last year - Persons": 1916,
      "Main Workers Household Industry - Males": 5623,
      "Scheduled Tribe Females": 14828,
      "Marginal Workers worked for 0 - 3 moths during last year - Males": 2857,
      "Marginal Workers Other worked for 3 - 6 moths during last year - Males": 13844,
      "Primary Net Enrolment Ratio in percentage DISE": "NA",
      "Total": "NA",
      "Mean age at marriage for boys DLHS-4": "Not available",
      "Number of District Hospitals  DLHS-4": 0,
      "0-6 Age Group Females": 30375,
      "Marginal Workers Agricultural Labourers worked for 0 - 3 moths during last year - Persons": 226,
      "Marginal Workers Household Industry worked for 0 - 3 moths during last year - Males": 191,
      "Total Workers  Females": 61959,
      "Marginal Workers worked for 3 - 6 moths during last year - Females": 11011,
      "Institutional Deliveries in percentage DLHS-4": "Not available",
      "Marginal Workers Other - Males": 16381,
      "Total Workers  Males": 172488,
      "Main Workers - Females": 48773,
      "Primary Gross Enrolment Ratio in percentage DISE": "NA",
      "Main Workers Cultivators - Persons": 8626,
      "Marginal Workers Household Industry worked for 0 - 3 moths during last year - Females": 410,
      "Upper Primary Net Enrolment Ratio in percentage DISE": "NA",
      "Primary New Government Schools since 2003 in percentage DISE": "NA",
      "Tier": "Urban",
      "Marginal Workers Household Industry - Females": 2523,
      "Primary Schools with electricity in percentage DISE": "NA",
      "Main Workers Other - Persons": 174257,
      "Marginal Workers Household Industry worked for 3 - 6 moths during last year - Females": 2113,
      "Main Workers Cultivators - Males": 7440,
      "Main Workers Household Industry - Persons": 13957,
      "Marginal Workers Cultivators worked for 0 - 3 moths during last year - Persons": 39,
      "Scheduled Caste Males": 38586,
      "Marginal Workers - Persons": 32534,
      "Deliveries at home conducted by skilled health personnel in percentage DLHS-4": "Not available",
      "Villages with Sub-Health Centres within 3km in percentage DLHS-4": 0,
      "Upper Primary New Government Schools since 2003 in percentage DISE": "NA",
      "0-6 Age Group Males": 31682,
      "Primary Schools with drinking water facility in percentage DISE": "NA",
      "Non Workers - Persons": 364631,
      "Person Literates": 468953,
      "State": "KARNATAKA",
      "Total Female Population": 297194,
      "Marginal Workers worked for 0 - 3 moths during last year - Persons": 5032,
      "Marginal Workers Cultivators - Females": 187,
      "Marginal Workers Other - Persons": 25717,
      "Sex Ratio": 984,
      "Scheduled Tribe Persons": 29535,
      "Marginal Workers Household Industry worked for 3 - 6 moths during last year - Males": 1234,
      "Marginal Workers Agricultural Labourers - Females": 1140,
      "Mean age at marriage for girls DLHS-4": "Not available",
      "Households with solar energy as main source of lighting  Houselisting and Housing Census Data Tables- District Level , Census of India__4": 120,
      "District": "TUMKUR",
      "Households receiving treated tap water within premises in percentage Houselisting and Housing Census Data Tables- District Level , Census of India__1": 45.90453281,
      "Total Workers  Persons": 234447,
      "Households receiving treated tap water within premises  Houselisting and Housing Census Data Tables- District Level , Census of India__4": 64500,
      "Primary Female Teachers in percentage DISE": "NA",
      "Number of Households": 142560,
      "Main Workers Agricultural Labourers - Persons": 5073
    }
  ]
}