{
  "Total": [
    {
      "Marginal Workers Agricultural Labourers - Persons": 18000,
      "Marginal Workers Other - Females": 10935,
      "Marginal Workers Other worked for 0 - 3 moths during last year - Females": 1485,
      "Upper Primary Schools with boys toilet in percentage DISE": 100,
      "Total Population": 1177361,
      "Households with electricity as main source of lighting in percentage Houselisting and Housing Census Data Tables- District Level , Census of India": 91.27167466,
      "Primary Girl's Enrolment in percentage DISE": 48.8,
      "Marginal Workers worked for 3 - 6 moths during last year - Males": 22931,
      "Prevalence of Acute illness in percentage DLHS-4": 3.3,
      "Main Workers - Persons": 459446,
      "Main Workers Cultivators - Females": 20540,
      "Marginal Workers Agricultural Labourers worked for 3 - 6 moths during last year - Females": 10758,
      "Marginal Workers Other worked for 0 - 3 moths during last year - Males": 1565,
      "Upper Primary Schools with drinking water facility in percentage DISE": 100,
      "Primary Schools with girls toilet in percentage DISE": 100,
      "Marginal Workers worked for 3 - 6 moths during last year - Persons": 47689,
      "Upper Primary Drop Out Rate in percentage DISE": 1.46,
      "Prevalence of Anaemia in pregnant women aged 15-49years in percentage DLHS-4": 74.7,
      "Current use of any modern method of family planning in percentage DLHS-4": 51.3,
      "Marginal Workers Agricultural Labourers - Males": 5770,
      "Upper Primary Female Teachers in percentage DISE": 90.9,
      "Marginal Workers - Females": 28394,
      "Marginal Workers Other worked for 3 - 6 moths during last year - Persons": 24797,
      "Main Workers Agricultural Labourers - Females": 20128,
      "Marginal Workers Cultivators worked for 3 - 6 moths during last year - Females": 3653,
      "Households with no lighting  Houselisting and Housing Census Data Tables- District Level , Census of India__5": 417,
      "Prevalence of Severe Anaemia  in percentage DLHS-4": 9.4,
      "Total unmet need for family planning in percentage DLHS-4": 24.4,
      "Main Workers Other - Males": 243468,
      "Children who received full vaccination in percentage DLHS-4": 71.7,
      "Marginal Workers Household Industry - Persons": 1665,
      "Primary Pupil-Teacher Ratio in percentage DISE": 13,
      "Marginal Workers Agricultural Labourers worked for 3 - 6 moths during last year - Males": 5200,
      "Scheduled Caste Females": 38441,
      "Marginal Workers Cultivators - Males": 2157,
      "Marginal Workers - Males": 25401,
      "Marginal Workers worked for 0 - 3 moths during last year - Females": 3636,
      "Households with main source of drinking water within premises in percentage Houselisting and Housing Census Data Tables- District Level , Census of India": 75.27170714,
      "Marginal Workers Household Industry worked for 3 - 6 moths during last year - Persons": 1366,
      "Upper Primary Girl's Enrolment in percentage DISE": 46.6,
      "Prevalence of Severe Anaemia in women aged 15-49years in percentage DLHS-4": 5,
      "Marginal Workers Agricultural Labourers worked for 0 - 3 moths during last year - Males": 570,
      "Households with electricity as main source of lighting  Houselisting and Housing Census Data Tables- District Level , Census of India__3": 224814,
      "Households with computer or laptop with internet connection in percentage": 3.68,
      "PHCs functioning on a 24x7hours basis in percentage DLHS-4": 10.5,
      "Non Workers - Males": 226732,
      "Total Households in District Houselisting and Housing Census Data Tables- District Level , Census of India": 246313,
      "Upper Primary Schools with girls toilet in percentage DISE": 100,
      "Households with mobile phone in percentage": 59.1,
      "Households receiving untreated tap water within premises in percentage Houselisting and Housing Census Data Tables- District Level , Census of India__2": 3.83658191,
      "Marginal Workers Cultivators worked for 3 - 6 moths during last year - Males": 1915,
      "Prevalence of Anaemia  in percentage DLHS-4": 71.7,
      "Prevalence of Chronic illness in percentage DLHS-4": 5.7,
      "Households with solar energy as main source of lighting in percentage Houselisting and Housing Census Data Tables- District Level , Census of India__1": 0.378786341,
      "Marginal Workers Agricultural Labourers worked for 0 - 3 moths during last year - Females": 1472,
      "Main Workers - Males": 309998,
      "Female": 81.58,
      "Sno": 845,
      "Marginal Workers Other worked for 3 - 6 moths during last year - Females": 9450,
      "Marginal Workers Cultivators worked for 0 - 3 moths during last year - Females": 473,
      "Scheduled Tribe Males": 26228,
      "Male Illiterates": 96427,
      "Prevalence of Severe Anaemia in pregnant women aged 15-49years in percentage DLHS-4": 2.2,
      "0-6 Age Group Persons": 103160,
      "Upper Primary Student-Classroom Ratio in percentage DISE": 17,
      "Currently married men married below 21years of age in percentage DLHS-4": 0.9,
      "Male Literates": 465704,
      "Households with no lighting in percentage Houselisting and Housing Census Data Tables- District Level , Census of India__2": 0.169296789,
      "Primary Drop Out Rate in percentage DISE": 0,
      "Marginal Workers Household Industry - Males": 562,
      "Female Illiterates": 154505,
      "Main Workers Other - Females": 104813,
      "Marginal Workers Cultivators - Persons": 6283,
      "Upper Primary Gross Enrolment Ratio in percentage DISE": 96.2,
      "Scheduled Caste Persons": 75429,
      "Marginal Workers Cultivators worked for 3 - 6 moths during last year - Persons": 5568,
      "Households with landline phone in percentage": 9.43,
      "Total Households in District  Houselisting and Housing Census Data Tables- District Level , Census of India": 246313,
      "Upper Primary Pupil-Teacher Ratio in percentage DISE": 17,
      "Primary Student-Classroom Ratio in percentage DISE": 10,
      "Primary Schools with boys toilet in percentage DISE": 100,
      "Mean number of children ever born to women aged 40-49years  DLHS-4": 2.3,
      "Households receiving untreated tap water within premises  Houselisting and Housing Census Data Tables- District Level , Census of India__5": 9450,
      "Marginal Workers Household Industry worked for 0 - 3 moths during last year - Persons": 299,
      "Total Male Population": 562131,
      "Non Workers - Females": 437388,
      "Current use of family planning methods in percentage DLHS-4": 52.5,
      "Households with main source of drinking water within premises  Houselisting and Housing Census Data Tables- District Level , Census of India__3": 185404,
      "Main Workers Agricultural Labourers - Males": 25262,
      "Marginal Workers Other worked for 0 - 3 moths during last year - Persons": 3050,
      "Currently married women married below 18years of age in percentage DLHS-4": 0.9,
      "Person Illiterates": 250932,
      "Main Workers Household Industry - Females": 3967,
      "Female Literates": 460725,
      "Marginal Workers Cultivators worked for 0 - 3 moths during last year - Males": 242,
      "Male": 91.41,
      "Households with improved source of drinking water in percentage DLHS-4": 57.6,
      "Upper Primary Schools with electricity in percentage DISE": 90,
      "Households with electricity in percentage DLHS-4": 96.9,
      "Villages with Primary Health Centre within 10km in percentage DLHS-4": 92,
      "Births to women aged 15-19years out of Total births in percentage DLHS-4": 0.9,
      "Prevalence of Anaemia in women aged 15-49years in percentage DLHS-4": 69.1,
      "Marginal Workers Agricultural Labourers worked for 3 - 6 moths during last year - Persons": 15958,
      "Main Workers Household Industry - Males": 4948,
      "Scheduled Tribe Females": 26669,
      "Marginal Workers worked for 0 - 3 moths during last year - Males": 2470,
      "Marginal Workers Other worked for 3 - 6 moths during last year - Males": 15347,
      "Primary Net Enrolment Ratio in percentage DISE": 93.1,
      "Total": 86.24,
      "Mean age at marriage for boys DLHS-4": 30.2,
      "Number of District Hospitals  DLHS-4": 1,
      "0-6 Age Group Females": 50471,
      "Marginal Workers Agricultural Labourers worked for 0 - 3 moths during last year - Persons": 2042,
      "Marginal Workers Household Industry worked for 0 - 3 moths during last year - Males": 93,
      "Total Workers  Females": 177842,
      "Marginal Workers worked for 3 - 6 moths during last year - Females": 24758,
      "Institutional Deliveries in percentage DLHS-4": 98.8,
      "Marginal Workers Other - Males": 16912,
      "Total Workers  Males": 335399,
      "Main Workers - Females": 149448,
      "Primary Gross Enrolment Ratio in percentage DISE": 103,
      "Main Workers Cultivators - Persons": 56860,
      "Marginal Workers Household Industry worked for 0 - 3 moths during last year - Females": 206,
      "Upper Primary Net Enrolment Ratio in percentage DISE": 84.4,
      "Primary New Government Schools since 2003 in percentage DISE": 6.5,
      "Tier": "Total",
      "Marginal Workers Household Industry - Females": 1103,
      "Primary Schools with electricity in percentage DISE": 94.4,
      "Main Workers Other - Persons": 348281,
      "Marginal Workers Household Industry worked for 3 - 6 moths during last year - Females": 897,
      "Main Workers Cultivators - Males": 36320,
      "Main Workers Household Industry - Persons": 8915,
      "Marginal Workers Cultivators worked for 0 - 3 moths during last year - Persons": 715,
      "Scheduled Caste Males": 36988,
      "Marginal Workers - Persons": 53795,
      "Deliveries at home conducted by skilled health personnel in percentage DLHS-4": 0,
      "Villages with Sub-Health Centres within 3km in percentage DLHS-4": 100,
      "Upper Primary New Government Schools since 2003 in percentage DISE": 0,
      "0-6 Age Group Males": 52689,
      "Primary Schools with drinking water facility in percentage DISE": 100,
      "Non Workers - Persons": 664120,
      "Person Literates": 926429,
      "State": "KARNATAKA",
      "Total Female Population": 615230,
      "Marginal Workers worked for 0 - 3 moths during last year - Persons": 6106,
      "Marginal Workers Cultivators - Females": 4126,
      "Marginal Workers Other - Persons": 27847,
      "Sex Ratio": 1094,
      "Scheduled Tribe Persons": 52897,
      "Marginal Workers Household Industry worked for 3 - 6 moths during last year - Males": 469,
      "Marginal Workers Agricultural Labourers - Females": 12230,
      "Mean age at marriage for girls DLHS-4": 24.3,
      "Households with solar energy as main source of lighting  Houselisting and Housing Census Data Tables- District Level , Census of India__4": 933,
      "District": "UDUPI",
      "Households receiving treated tap water within premises in percentage Houselisting and Housing Census Data Tables- District Level , Census of India__1": 9.033221957,
      "Total Workers  Persons": 513241,
      "Households receiving treated tap water within premises  Houselisting and Housing Census Data Tables- District Level , Census of India__4": 22250,
      "Primary Female Teachers in percentage DISE": 55.1,
      "Number of Households": 253078,
      "Main Workers Agricultural Labourers - Persons": 45390
    }
  ],
  "Rural": [
    {
      "Marginal Workers Agricultural Labourers - Persons": 16433,
      "Marginal Workers Other - Females": 8067,
      "Marginal Workers Other worked for 0 - 3 moths during last year - Females": 1114,
      "Upper Primary Schools with boys toilet in percentage DISE": "NA",
      "Total Population": 843300,
      "Households with electricity as main source of lighting in percentage Houselisting and Housing Census Data Tables- District Level , Census of India": 89.23218828,
      "Primary Girl's Enrolment in percentage DISE": "NA",
      "Marginal Workers worked for 3 - 6 moths during last year - Males": 17129,
      "Prevalence of Acute illness in percentage DLHS-4": 2.2,
      "Main Workers - Persons": 333571,
      "Main Workers Cultivators - Females": 19533,
      "Marginal Workers Agricultural Labourers worked for 3 - 6 moths during last year - Females": 9875,
      "Marginal Workers Other worked for 0 - 3 moths during last year - Males": 933,
      "Upper Primary Schools with drinking water facility in percentage DISE": "NA",
      "Primary Schools with girls toilet in percentage DISE": "NA",
      "Marginal Workers worked for 3 - 6 moths during last year - Persons": 38143,
      "Upper Primary Drop Out Rate in percentage DISE": "NA",
      "Prevalence of Anaemia in pregnant women aged 15-49years in percentage DLHS-4": 85,
      "Current use of any modern method of family planning in percentage DLHS-4": 53.7,
      "Marginal Workers Agricultural Labourers - Males": 5235,
      "Upper Primary Female Teachers in percentage DISE": "NA",
      "Marginal Workers - Females": 24030,
      "Marginal Workers Other worked for 3 - 6 moths during last year - Persons": 17292,
      "Main Workers Agricultural Labourers - Females": 18635,
      "Marginal Workers Cultivators worked for 3 - 6 moths during last year - Females": 3489,
      "Households with no lighting  Houselisting and Housing Census Data Tables- District Level , Census of India__5": 320,
      "Prevalence of Severe Anaemia  in percentage DLHS-4": 13.7,
      "Total unmet need for family planning in percentage DLHS-4": 22.5,
      "Main Workers Other - Males": 159039,
      "Children who received full vaccination in percentage DLHS-4": 66.7,
      "Marginal Workers Household Industry - Persons": 1257,
      "Primary Pupil-Teacher Ratio in percentage DISE": "NA",
      "Marginal Workers Agricultural Labourers worked for 3 - 6 moths during last year - Males": 4724,
      "Scheduled Caste Females": 28543,
      "Marginal Workers Cultivators - Males": 1951,
      "Marginal Workers - Males": 18874,
      "Marginal Workers worked for 0 - 3 moths during last year - Females": 3016,
      "Households with main source of drinking water within premises in percentage Houselisting and Housing Census Data Tables- District Level , Census of India": 71.58603937,
      "Marginal Workers Household Industry worked for 3 - 6 moths during last year - Persons": 1039,
      "Upper Primary Girl's Enrolment in percentage DISE": "NA",
      "Prevalence of Severe Anaemia in women aged 15-49years in percentage DLHS-4": 6.3,
      "Marginal Workers Agricultural Labourers worked for 0 - 3 moths during last year - Males": 511,
      "Households with electricity as main source of lighting  Houselisting and Housing Census Data Tables- District Level , Census of India__3": 155753,
      "Households with computer or laptop with internet connection in percentage": 1.78,
      "PHCs functioning on a 24x7hours basis in percentage DLHS-4": "Not applicable",
      "Non Workers - Males": 159380,
      "Total Households in District Houselisting and Housing Census Data Tables- District Level , Census of India": 174548,
      "Upper Primary Schools with girls toilet in percentage DISE": "NA",
      "Households with mobile phone in percentage": 59.33,
      "Households receiving untreated tap water within premises in percentage Houselisting and Housing Census Data Tables- District Level , Census of India__2": 3.89921397,
      "Marginal Workers Cultivators worked for 3 - 6 moths during last year - Males": 1724,
      "Prevalence of Anaemia  in percentage DLHS-4": 79.7,
      "Prevalence of Chronic illness in percentage DLHS-4": 3.2,
      "Households with solar energy as main source of lighting in percentage Houselisting and Housing Census Data Tables- District Level , Census of India__1": 0.482961707,
      "Marginal Workers Agricultural Labourers worked for 0 - 3 moths during last year - Females": 1323,
      "Main Workers - Males": 220593,
      "Female": "NA",
      "Sno": 844,
      "Marginal Workers Other worked for 3 - 6 moths during last year - Females": 6953,
      "Marginal Workers Cultivators worked for 0 - 3 moths during last year - Females": 435,
      "Scheduled Tribe Males": 20630,
      "Male Illiterates": 74538,
      "Prevalence of Severe Anaemia in pregnant women aged 15-49years in percentage DLHS-4": 2.4,
      "0-6 Age Group Persons": 74293,
      "Upper Primary Student-Classroom Ratio in percentage DISE": "NA",
      "Currently married men married below 21years of age in percentage DLHS-4": 0.8,
      "Male Literates": 324309,
      "Households with no lighting in percentage Houselisting and Housing Census Data Tables- District Level , Census of India__2": 0.18333066,
      "Primary Drop Out Rate in percentage DISE": "NA",
      "Marginal Workers Household Industry - Males": 416,
      "Female Illiterates": 123516,
      "Main Workers Other - Females": 72306,
      "Marginal Workers Cultivators - Persons": 5875,
      "Upper Primary Gross Enrolment Ratio in percentage DISE": "NA",
      "Scheduled Caste Persons": 55996,
      "Marginal Workers Cultivators worked for 3 - 6 moths during last year - Persons": 5213,
      "Households with landline phone in percentage": 9.86,
      "Total Households in District  Houselisting and Housing Census Data Tables- District Level , Census of India": 174548,
      "Upper Primary Pupil-Teacher Ratio in percentage DISE": "NA",
      "Primary Student-Classroom Ratio in percentage DISE": "NA",
      "Primary Schools with boys toilet in percentage DISE": "NA",
      "Mean number of children ever born to women aged 40-49years  DLHS-4": 2.4,
      "Households receiving untreated tap water within premises  Houselisting and Housing Census Data Tables- District Level , Census of India__5": 6806,
      "Marginal Workers Household Industry worked for 0 - 3 moths during last year - Persons": 218,
      "Total Male Population": 398847,
      "Non Workers - Females": 307445,
      "Current use of family planning methods in percentage DLHS-4": 55.4,
      "Households with main source of drinking water within premises  Houselisting and Housing Census Data Tables- District Level , Census of India__3": 124952,
      "Main Workers Agricultural Labourers - Males": 23796,
      "Marginal Workers Other worked for 0 - 3 moths during last year - Persons": 2047,
      "Currently married women married below 18years of age in percentage DLHS-4": 0.8,
      "Person Illiterates": 198054,
      "Main Workers Household Industry - Females": 2504,
      "Female Literates": 320937,
      "Marginal Workers Cultivators worked for 0 - 3 moths during last year - Males": 227,
      "Male": "NA",
      "Households with improved source of drinking water in percentage DLHS-4": 45.6,
      "Upper Primary Schools with electricity in percentage DISE": "NA",
      "Households with electricity in percentage DLHS-4": 96.5,
      "Villages with Primary Health Centre within 10km in percentage DLHS-4": "Not applicable",
      "Births to women aged 15-19years out of Total births in percentage DLHS-4": 0.9,
      "Prevalence of Anaemia in women aged 15-49years in percentage DLHS-4": 74.1,
      "Marginal Workers Agricultural Labourers worked for 3 - 6 moths during last year - Persons": 14599,
      "Main Workers Household Industry - Males": 3576,
      "Scheduled Tribe Females": 20966,
      "Marginal Workers worked for 0 - 3 moths during last year - Males": 1745,
      "Marginal Workers Other worked for 3 - 6 moths during last year - Males": 10339,
      "Primary Net Enrolment Ratio in percentage DISE": "NA",
      "Total": "NA",
      "Mean age at marriage for boys DLHS-4": 30.4,
      "Number of District Hospitals  DLHS-4": "Not applicable",
      "0-6 Age Group Females": 36391,
      "Marginal Workers Agricultural Labourers worked for 0 - 3 moths during last year - Persons": 1834,
      "Marginal Workers Household Industry worked for 0 - 3 moths during last year - Males": 74,
      "Total Workers  Females": 137008,
      "Marginal Workers worked for 3 - 6 moths during last year - Females": 21014,
      "Institutional Deliveries in percentage DLHS-4": 98.2,
      "Marginal Workers Other - Males": 11272,
      "Total Workers  Males": 239467,
      "Main Workers - Females": 112978,
      "Primary Gross Enrolment Ratio in percentage DISE": "NA",
      "Main Workers Cultivators - Persons": 53715,
      "Marginal Workers Household Industry worked for 0 - 3 moths during last year - Females": 144,
      "Upper Primary Net Enrolment Ratio in percentage DISE": "NA",
      "Primary New Government Schools since 2003 in percentage DISE": "NA",
      "Tier": "Rural",
      "Marginal Workers Household Industry - Females": 841,
      "Primary Schools with electricity in percentage DISE": "NA",
      "Main Workers Other - Persons": 231345,
      "Marginal Workers Household Industry worked for 3 - 6 moths during last year - Females": 697,
      "Main Workers Cultivators - Males": 34182,
      "Main Workers Household Industry - Persons": 6080,
      "Marginal Workers Cultivators worked for 0 - 3 moths during last year - Persons": 662,
      "Scheduled Caste Males": 27453,
      "Marginal Workers - Persons": 42904,
      "Deliveries at home conducted by skilled health personnel in percentage DLHS-4": 0,
      "Villages with Sub-Health Centres within 3km in percentage DLHS-4": "Not applicable",
      "Upper Primary New Government Schools since 2003 in percentage DISE": "NA",
      "0-6 Age Group Males": 37902,
      "Primary Schools with drinking water facility in percentage DISE": "NA",
      "Non Workers - Persons": 466825,
      "Person Literates": 645246,
      "State": "KARNATAKA",
      "Total Female Population": 444453,
      "Marginal Workers worked for 0 - 3 moths during last year - Persons": 4761,
      "Marginal Workers Cultivators - Females": 3924,
      "Marginal Workers Other - Persons": 19339,
      "Sex Ratio": 1114,
      "Scheduled Tribe Persons": 41596,
      "Marginal Workers Household Industry worked for 3 - 6 moths during last year - Males": 342,
      "Marginal Workers Agricultural Labourers - Females": 11198,
      "Mean age at marriage for girls DLHS-4": 23.7,
      "Households with solar energy as main source of lighting  Houselisting and Housing Census Data Tables- District Level , Census of India__4": 843,
      "District": "UDUPI",
      "Households receiving treated tap water within premises in percentage Houselisting and Housing Census Data Tables- District Level , Census of India__1": 4.355821894,
      "Total Workers  Persons": 376475,
      "Households receiving treated tap water within premises  Houselisting and Housing Census Data Tables- District Level , Census of India__4": 7603,
      "Primary Female Teachers in percentage DISE": "NA",
      "Number of Households": 177529,
      "Main Workers Agricultural Labourers - Persons": 42431
    }
  ],
  "Urban": [
    {
      "Marginal Workers Agricultural Labourers - Persons": 1567,
      "Marginal Workers Other - Females": 2868,
      "Marginal Workers Other worked for 0 - 3 moths during last year - Females": 371,
      "Upper Primary Schools with boys toilet in percentage DISE": "NA",
      "Total Population": 334061,
      "Households with electricity as main source of lighting in percentage Houselisting and Housing Census Data Tables- District Level , Census of India": 96.23214659,
      "Primary Girl's Enrolment in percentage DISE": "NA",
      "Marginal Workers worked for 3 - 6 moths during last year - Males": 5802,
      "Prevalence of Acute illness in percentage DLHS-4": "Not available",
      "Main Workers - Persons": 125875,
      "Main Workers Cultivators - Females": 1007,
      "Marginal Workers Agricultural Labourers worked for 3 - 6 moths during last year - Females": 883,
      "Marginal Workers Other worked for 0 - 3 moths during last year - Males": 632,
      "Upper Primary Schools with drinking water facility in percentage DISE": "NA",
      "Primary Schools with girls toilet in percentage DISE": "NA",
      "Marginal Workers worked for 3 - 6 moths during last year - Persons": 9546,
      "Upper Primary Drop Out Rate in percentage DISE": "NA",
      "Prevalence of Anaemia in pregnant women aged 15-49years in percentage DLHS-4": "Not available",
      "Current use of any modern method of family planning in percentage DLHS-4": "Not available",
      "Marginal Workers Agricultural Labourers - Males": 535,
      "Upper Primary Female Teachers in percentage DISE": "NA",
      "Marginal Workers - Females": 4364,
      "Marginal Workers Other worked for 3 - 6 moths during last year - Persons": 7505,
      "Main Workers Agricultural Labourers - Females": 1493,
      "Marginal Workers Cultivators worked for 3 - 6 moths during last year - Females": 164,
      "Households with no lighting  Houselisting and Housing Census Data Tables- District Level , Census of India__5": 97,
      "Prevalence of Severe Anaemia  in percentage DLHS-4": "Not available",
      "Total unmet need for family planning in percentage DLHS-4": "Not available",
      "Main Workers Other - Males": 84429,
      "Children who received full vaccination in percentage DLHS-4": "Not available",
      "Marginal Workers Household Industry - Persons": 408,
      "Primary Pupil-Teacher Ratio in percentage DISE": "NA",
      "Marginal Workers Agricultural Labourers worked for 3 - 6 moths during last year - Males": 476,
      "Scheduled Caste Females": 9898,
      "Marginal Workers Cultivators - Males": 206,
      "Marginal Workers - Males": 6527,
      "Marginal Workers worked for 0 - 3 moths during last year - Females": 620,
      "Households with main source of drinking water within premises in percentage Houselisting and Housing Census Data Tables- District Level , Census of India": 84.23604821,
      "Marginal Workers Household Industry worked for 3 - 6 moths during last year - Persons": 327,
      "Upper Primary Girl's Enrolment in percentage DISE": "NA",
      "Prevalence of Severe Anaemia in women aged 15-49years in percentage DLHS-4": "Not available",
      "Marginal Workers Agricultural Labourers worked for 0 - 3 moths during last year - Males": 59,
      "Households with electricity as main source of lighting  Houselisting and Housing Census Data Tables- District Level , Census of India__3": 69061,
      "Households with computer or laptop with internet connection in percentage": 8.3,
      "PHCs functioning on a 24x7hours basis in percentage DLHS-4": 0,
      "Non Workers - Males": 67352,
      "Total Households in District Houselisting and Housing Census Data Tables- District Level , Census of India": 71765,
      "Upper Primary Schools with girls toilet in percentage DISE": "NA",
      "Households with mobile phone in percentage": 58.55,
      "Households receiving untreated tap water within premises in percentage Houselisting and Housing Census Data Tables- District Level , Census of India__2": 3.684247196,
      "Marginal Workers Cultivators worked for 3 - 6 moths during last year - Males": 191,
      "Prevalence of Anaemia  in percentage DLHS-4": "Not available",
      "Prevalence of Chronic illness in percentage DLHS-4": "Not available",
      "Households with solar energy as main source of lighting in percentage Houselisting and Housing Census Data Tables- District Level , Census of India__1": 0.125409322,
      "Marginal Workers Agricultural Labourers worked for 0 - 3 moths during last year - Females": 149,
      "Main Workers - Males": 89405,
      "Female": "NA",
      "Sno": 846,
      "Marginal Workers Other worked for 3 - 6 moths during last year - Females": 2497,
      "Marginal Workers Cultivators worked for 0 - 3 moths during last year - Females": 38,
      "Scheduled Tribe Males": 5598,
      "Male Illiterates": 21889,
      "Prevalence of Severe Anaemia in pregnant women aged 15-49years in percentage DLHS-4": "Not available",
      "0-6 Age Group Persons": 28867,
      "Upper Primary Student-Classroom Ratio in percentage DISE": "NA",
      "Currently married men married below 21years of age in percentage DLHS-4": "Not available",
      "Male Literates": 141395,
      "Households with no lighting in percentage Houselisting and Housing Census Data Tables- District Level , Census of India__2": 0.13516338,
      "Primary Drop Out Rate in percentage DISE": "NA",
      "Marginal Workers Household Industry - Males": 146,
      "Female Illiterates": 30989,
      "Main Workers Other - Females": 32507,
      "Marginal Workers Cultivators - Persons": 408,
      "Upper Primary Gross Enrolment Ratio in percentage DISE": "NA",
      "Scheduled Caste Persons": 19433,
      "Marginal Workers Cultivators worked for 3 - 6 moths during last year - Persons": 355,
      "Households with landline phone in percentage": 8.38,
      "Total Households in District  Houselisting and Housing Census Data Tables- District Level , Census of India": 71765,
      "Upper Primary Pupil-Teacher Ratio in percentage DISE": "NA",
      "Primary Student-Classroom Ratio in percentage DISE": "NA",
      "Primary Schools with boys toilet in percentage DISE": "NA",
      "Mean number of children ever born to women aged 40-49years  DLHS-4": "Not available",
      "Households receiving untreated tap water within premises  Houselisting and Housing Census Data Tables- District Level , Census of India__5": 2644,
      "Marginal Workers Household Industry worked for 0 - 3 moths during last year - Persons": 81,
      "Total Male Population": 163284,
      "Non Workers - Females": 129943,
      "Current use of family planning methods in percentage DLHS-4": "Not available",
      "Households with main source of drinking water within premises  Houselisting and Housing Census Data Tables- District Level , Census of India__3": 60452,
      "Main Workers Agricultural Labourers - Males": 1466,
      "Marginal Workers Other worked for 0 - 3 moths during last year - Persons": 1003,
      "Currently married women married below 18years of age in percentage DLHS-4": "Not available",
      "Person Illiterates": 52878,
      "Main Workers Household Industry - Females": 1463,
      "Female Literates": 139788,
      "Marginal Workers Cultivators worked for 0 - 3 moths during last year - Males": 15,
      "Male": "NA",
      "Households with improved source of drinking water in percentage DLHS-4": "Not available",
      "Upper Primary Schools with electricity in percentage DISE": "NA",
      "Households with electricity in percentage DLHS-4": "Not available",
      "Villages with Primary Health Centre within 10km in percentage DLHS-4": 0,
      "Births to women aged 15-19years out of Total births in percentage DLHS-4": "Not available",
      "Prevalence of Anaemia in women aged 15-49years in percentage DLHS-4": "Not available",
      "Marginal Workers Agricultural Labourers worked for 3 - 6 moths during last year - Persons": 1359,
      "Main Workers Household Industry - Males": 1372,
      "Scheduled Tribe Females": 5703,
      "Marginal Workers worked for 0 - 3 moths during last year - Males": 725,
      "Marginal Workers Other worked for 3 - 6 moths during last year - Males": 5008,
      "Primary Net Enrolment Ratio in percentage DISE": "NA",
      "Total": "NA",
      "Mean age at marriage for boys DLHS-4": "Not available",
      "Number of District Hospitals  DLHS-4": 0,
      "0-6 Age Group Females": 14080,
      "Marginal Workers Agricultural Labourers worked for 0 - 3 moths during last year - Persons": 208,
      "Marginal Workers Household Industry worked for 0 - 3 moths during last year - Males": 19,
      "Total Workers  Females": 40834,
      "Marginal Workers worked for 3 - 6 moths during last year - Females": 3744,
      "Institutional Deliveries in percentage DLHS-4": "Not available",
      "Marginal Workers Other - Males": 5640,
      "Total Workers  Males": 95932,
      "Main Workers - Females": 36470,
      "Primary Gross Enrolment Ratio in percentage DISE": "NA",
      "Main Workers Cultivators - Persons": 3145,
      "Marginal Workers Household Industry worked for 0 - 3 moths during last year - Females": 62,
      "Upper Primary Net Enrolment Ratio in percentage DISE": "NA",
      "Primary New Government Schools since 2003 in percentage DISE": "NA",
      "Tier": "Urban",
      "Marginal Workers Household Industry - Females": 262,
      "Primary Schools with electricity in percentage DISE": "NA",
      "Main Workers Other - Persons": 116936,
      "Marginal Workers Household Industry worked for 3 - 6 moths during last year - Females": 200,
      "Main Workers Cultivators - Males": 2138,
      "Main Workers Household Industry - Persons": 2835,
      "Marginal Workers Cultivators worked for 0 - 3 moths during last year - Persons": 53,
      "Scheduled Caste Males": 9535,
      "Marginal Workers - Persons": 10891,
      "Deliveries at home conducted by skilled health personnel in percentage DLHS-4": "Not available",
      "Villages with Sub-Health Centres within 3km in percentage DLHS-4": 0,
      "Upper Primary New Government Schools since 2003 in percentage DISE": "NA",
      "0-6 Age Group Males": 14787,
      "Primary Schools with drinking water facility in percentage DISE": "NA",
      "Non Workers - Persons": 197295,
      "Person Literates": 281183,
      "State": "KARNATAKA",
      "Total Female Population": 170777,
      "Marginal Workers worked for 0 - 3 moths during last year - Persons": 1345,
      "Marginal Workers Cultivators - Females": 202,
      "Marginal Workers Other - Persons": 8508,
      "Sex Ratio": 1046,
      "Scheduled Tribe Persons": 11301,
      "Marginal Workers Household Industry worked for 3 - 6 moths during last year - Males": 127,
      "Marginal Workers Agricultural Labourers - Females": 1032,
      "Mean age at marriage for girls DLHS-4": "Not available",
      "Households with solar energy as main source of lighting  Houselisting and Housing Census Data Tables- District Level , Census of India__4": 90,
      "District": "UDUPI",
      "Households receiving treated tap water within premises in percentage Houselisting and Housing Census Data Tables- District Level , Census of India__1": 20.40967045,
      "Total Workers  Persons": 136766,
      "Households receiving treated tap water within premises  Houselisting and Housing Census Data Tables- District Level , Census of India__4": 14647,
      "Primary Female Teachers in percentage DISE": "NA",
      "Number of Households": 75549,
      "Main Workers Agricultural Labourers - Persons": 2959
    }
  ]
}