{
  "Total": [
    {
      "Marginal Workers Agricultural Labourers - Persons": 34205,
      "Marginal Workers Other - Females": 26681,
      "Marginal Workers Other worked for 0 - 3 moths during last year - Females": 7861,
      "Upper Primary Schools with boys toilet in percentage DISE": 100,
      "Total Population": 1437169,
      "Households with electricity as main source of lighting in percentage Houselisting and Housing Census Data Tables- District Level , Census of India": 90.89718423,
      "Primary Girl's Enrolment in percentage DISE": 49.7,
      "Marginal Workers worked for 3 - 6 moths during last year - Males": 39587,
      "Prevalence of Acute illness in percentage DLHS-4": 3.2,
      "Main Workers - Persons": 498304,
      "Main Workers Cultivators - Females": 20337,
      "Marginal Workers Agricultural Labourers worked for 3 - 6 moths during last year - Females": 18691,
      "Marginal Workers Other worked for 0 - 3 moths during last year - Males": 7134,
      "Upper Primary Schools with drinking water facility in percentage DISE": 100,
      "Primary Schools with girls toilet in percentage DISE": 100,
      "Marginal Workers worked for 3 - 6 moths during last year - Persons": 86149,
      "Upper Primary Drop Out Rate in percentage DISE": "Not available",
      "Prevalence of Anaemia in pregnant women aged 15-49years in percentage DLHS-4": 52,
      "Current use of any modern method of family planning in percentage DLHS-4": 59.1,
      "Marginal Workers Agricultural Labourers - Males": 12043,
      "Upper Primary Female Teachers in percentage DISE": 77.3,
      "Marginal Workers - Females": 60402,
      "Marginal Workers Other worked for 3 - 6 moths during last year - Persons": 43349,
      "Main Workers Agricultural Labourers - Females": 32872,
      "Marginal Workers Cultivators worked for 3 - 6 moths during last year - Females": 8205,
      "Households with no lighting  Houselisting and Housing Census Data Tables- District Level , Census of India__5": 604,
      "Prevalence of Severe Anaemia  in percentage DLHS-4": 17.9,
      "Total unmet need for family planning in percentage DLHS-4": 21.3,
      "Main Workers Other - Males": 249576,
      "Children who received full vaccination in percentage DLHS-4": 81.4,
      "Marginal Workers Household Industry - Persons": 2639,
      "Primary Pupil-Teacher Ratio in percentage DISE": 11,
      "Marginal Workers Agricultural Labourers worked for 3 - 6 moths during last year - Males": 10312,
      "Scheduled Caste Females": 58590,
      "Marginal Workers Cultivators - Males": 4681,
      "Marginal Workers - Males": 49820,
      "Marginal Workers worked for 0 - 3 moths during last year - Females": 13840,
      "Households with main source of drinking water within premises in percentage Houselisting and Housing Census Data Tables- District Level , Census of India": 58.28227763,
      "Marginal Workers Household Industry worked for 3 - 6 moths during last year - Persons": 1982,
      "Upper Primary Girl's Enrolment in percentage DISE": 45.9,
      "Prevalence of Severe Anaemia in women aged 15-49years in percentage DLHS-4": 7.1,
      "Marginal Workers Agricultural Labourers worked for 0 - 3 moths during last year - Males": 1731,
      "Households with electricity as main source of lighting  Houselisting and Housing Census Data Tables- District Level , Census of India__3": 290791,
      "Households with computer or laptop with internet connection in percentage": 1.92,
      "PHCs functioning on a 24x7hours basis in percentage DLHS-4": 22.2,
      "Non Workers - Males": 295691,
      "Total Households in District Houselisting and Housing Census Data Tables- District Level , Census of India": 319912,
      "Upper Primary Schools with girls toilet in percentage DISE": 100,
      "Households with mobile phone in percentage": 46.22,
      "Households receiving untreated tap water within premises in percentage Houselisting and Housing Census Data Tables- District Level , Census of India__2": 4.148640876,
      "Marginal Workers Cultivators worked for 3 - 6 moths during last year - Males": 3610,
      "Prevalence of Anaemia  in percentage DLHS-4": 68.2,
      "Prevalence of Chronic illness in percentage DLHS-4": 13.6,
      "Households with solar energy as main source of lighting in percentage Houselisting and Housing Census Data Tables- District Level , Census of India__1": 0.391045037,
      "Marginal Workers Agricultural Labourers worked for 0 - 3 moths during last year - Females": 3471,
      "Main Workers - Males": 380745,
      "Female": 78.39,
      "Sno": 848,
      "Marginal Workers Other worked for 3 - 6 moths during last year - Females": 18820,
      "Marginal Workers Cultivators worked for 0 - 3 moths during last year - Females": 2148,
      "Scheduled Tribe Males": 17095,
      "Male Illiterates": 144157,
      "Prevalence of Severe Anaemia in pregnant women aged 15-49years in percentage DLHS-4": 10.4,
      "0-6 Age Group Persons": 150115,
      "Upper Primary Student-Classroom Ratio in percentage DISE": 41,
      "Currently married men married below 21years of age in percentage DLHS-4": 2.4,
      "Male Literates": 582099,
      "Households with no lighting in percentage Houselisting and Housing Census Data Tables- District Level , Census of India__2": 0.188801921,
      "Primary Drop Out Rate in percentage DISE": "Not available",
      "Marginal Workers Household Industry - Males": 1433,
      "Female Illiterates": 211106,
      "Main Workers Other - Females": 63197,
      "Marginal Workers Cultivators - Persons": 15034,
      "Upper Primary Gross Enrolment Ratio in percentage DISE": 0,
      "Scheduled Caste Persons": 116431,
      "Marginal Workers Cultivators worked for 3 - 6 moths during last year - Persons": 11815,
      "Households with landline phone in percentage": 10.86,
      "Total Households in District  Houselisting and Housing Census Data Tables- District Level , Census of India": 319912,
      "Upper Primary Pupil-Teacher Ratio in percentage DISE": 24,
      "Primary Student-Classroom Ratio in percentage DISE": 10,
      "Primary Schools with boys toilet in percentage DISE": 100.4,
      "Mean number of children ever born to women aged 40-49years  DLHS-4": 2.6,
      "Households receiving untreated tap water within premises  Houselisting and Housing Census Data Tables- District Level , Census of India__5": 13272,
      "Marginal Workers Household Industry worked for 0 - 3 moths during last year - Persons": 657,
      "Total Male Population": 726256,
      "Non Workers - Females": 532952,
      "Current use of family planning methods in percentage DLHS-4": 62.3,
      "Households with main source of drinking water within premises  Houselisting and Housing Census Data Tables- District Level , Census of India__3": 186452,
      "Main Workers Agricultural Labourers - Males": 49259,
      "Marginal Workers Other worked for 0 - 3 moths during last year - Persons": 14995,
      "Currently married women married below 18years of age in percentage DLHS-4": 5.3,
      "Person Illiterates": 355263,
      "Main Workers Household Industry - Females": 1153,
      "Female Literates": 499807,
      "Marginal Workers Cultivators worked for 0 - 3 moths during last year - Males": 1071,
      "Male": 89.63,
      "Households with improved source of drinking water in percentage DLHS-4": 61.3,
      "Upper Primary Schools with electricity in percentage DISE": 100,
      "Households with electricity in percentage DLHS-4": 94.4,
      "Villages with Primary Health Centre within 10km in percentage DLHS-4": 72.7,
      "Births to women aged 15-19years out of Total births in percentage DLHS-4": 3.1,
      "Prevalence of Anaemia in women aged 15-49years in percentage DLHS-4": 54.3,
      "Marginal Workers Agricultural Labourers worked for 3 - 6 moths during last year - Persons": 29003,
      "Main Workers Household Industry - Males": 5700,
      "Scheduled Tribe Females": 17144,
      "Marginal Workers worked for 0 - 3 moths during last year - Males": 10233,
      "Marginal Workers Other worked for 3 - 6 moths during last year - Males": 24529,
      "Primary Net Enrolment Ratio in percentage DISE": 0,
      "Total": 84.06,
      "Mean age at marriage for boys DLHS-4": 29,
      "Number of District Hospitals  DLHS-4": 1,
      "0-6 Age Group Females": 73321,
      "Marginal Workers Agricultural Labourers worked for 0 - 3 moths during last year - Persons": 5202,
      "Marginal Workers Household Industry worked for 0 - 3 moths during last year - Males": 297,
      "Total Workers  Females": 177961,
      "Marginal Workers worked for 3 - 6 moths during last year - Females": 46562,
      "Institutional Deliveries in percentage DLHS-4": 95.5,
      "Marginal Workers Other - Males": 31663,
      "Total Workers  Males": 430565,
      "Main Workers - Females": 117559,
      "Primary Gross Enrolment Ratio in percentage DISE": 0,
      "Main Workers Cultivators - Persons": 96547,
      "Marginal Workers Household Industry worked for 0 - 3 moths during last year - Females": 360,
      "Upper Primary Net Enrolment Ratio in percentage DISE": 0,
      "Primary New Government Schools since 2003 in percentage DISE": 6,
      "Tier": "Total",
      "Marginal Workers Household Industry - Females": 1206,
      "Primary Schools with electricity in percentage DISE": 100,
      "Main Workers Other - Persons": 312773,
      "Marginal Workers Household Industry worked for 3 - 6 moths during last year - Females": 846,
      "Main Workers Cultivators - Males": 76210,
      "Main Workers Household Industry - Persons": 6853,
      "Marginal Workers Cultivators worked for 0 - 3 moths during last year - Persons": 3219,
      "Scheduled Caste Males": 57841,
      "Marginal Workers - Persons": 110222,
      "Deliveries at home conducted by skilled health personnel in percentage DLHS-4": 0.7,
      "Villages with Sub-Health Centres within 3km in percentage DLHS-4": 77.3,
      "Upper Primary New Government Schools since 2003 in percentage DISE": 0,
      "0-6 Age Group Males": 76794,
      "Primary Schools with drinking water facility in percentage DISE": 100,
      "Non Workers - Persons": 828643,
      "Person Literates": 1081906,
      "State": "KARNATAKA",
      "Total Female Population": 710913,
      "Marginal Workers worked for 0 - 3 moths during last year - Persons": 24073,
      "Marginal Workers Cultivators - Females": 10353,
      "Marginal Workers Other - Persons": 58344,
      "Sex Ratio": 979,
      "Scheduled Tribe Persons": 34239,
      "Marginal Workers Household Industry worked for 3 - 6 moths during last year - Males": 1136,
      "Marginal Workers Agricultural Labourers - Females": 22162,
      "Mean age at marriage for girls DLHS-4": 22.5,
      "Households with solar energy as main source of lighting  Houselisting and Housing Census Data Tables- District Level , Census of India__4": 1251,
      "District": "UTTARA KANNADA",
      "Households receiving treated tap water within premises in percentage Houselisting and Housing Census Data Tables- District Level , Census of India__1": 11.62851034,
      "Total Workers  Persons": 608526,
      "Households receiving treated tap water within premises  Houselisting and Housing Census Data Tables- District Level , Census of India__4": 37201,
      "Primary Female Teachers in percentage DISE": 63.9,
      "Number of Households": 324530,
      "Main Workers Agricultural Labourers - Persons": 82131
    }
  ],
  "Rural": [
    {
      "Marginal Workers Agricultural Labourers - Persons": 33090,
      "Marginal Workers Other - Females": 22036,
      "Marginal Workers Other worked for 0 - 3 moths during last year - Females": 6848,
      "Upper Primary Schools with boys toilet in percentage DISE": "NA",
      "Total Population": 1018188,
      "Households with electricity as main source of lighting in percentage Houselisting and Housing Census Data Tables- District Level , Census of India": 88.89653135,
      "Primary Girl's Enrolment in percentage DISE": "NA",
      "Marginal Workers worked for 3 - 6 moths during last year - Males": 30470,
      "Prevalence of Acute illness in percentage DLHS-4": 3.3,
      "Main Workers - Persons": 370334,
      "Main Workers Cultivators - Females": 19613,
      "Marginal Workers Agricultural Labourers worked for 3 - 6 moths during last year - Females": 18347,
      "Marginal Workers Other worked for 0 - 3 moths during last year - Males": 4862,
      "Upper Primary Schools with drinking water facility in percentage DISE": "NA",
      "Primary Schools with girls toilet in percentage DISE": "NA",
      "Marginal Workers worked for 3 - 6 moths during last year - Persons": 72637,
      "Upper Primary Drop Out Rate in percentage DISE": "NA",
      "Prevalence of Anaemia in pregnant women aged 15-49years in percentage DLHS-4": 50,
      "Current use of any modern method of family planning in percentage DLHS-4": 60.3,
      "Marginal Workers Agricultural Labourers - Males": 11365,
      "Upper Primary Female Teachers in percentage DISE": "NA",
      "Marginal Workers - Females": 54778,
      "Marginal Workers Other worked for 3 - 6 moths during last year - Persons": 31712,
      "Main Workers Agricultural Labourers - Females": 31332,
      "Marginal Workers Cultivators worked for 3 - 6 moths during last year - Females": 8068,
      "Households with no lighting  Houselisting and Housing Census Data Tables- District Level , Census of India__5": 475,
      "Prevalence of Severe Anaemia  in percentage DLHS-4": 15,
      "Total unmet need for family planning in percentage DLHS-4": 21.8,
      "Main Workers Other - Males": 154971,
      "Children who received full vaccination in percentage DLHS-4": 86.1,
      "Marginal Workers Household Industry - Persons": 1823,
      "Primary Pupil-Teacher Ratio in percentage DISE": "NA",
      "Marginal Workers Agricultural Labourers worked for 3 - 6 moths during last year - Males": 9741,
      "Scheduled Caste Females": 39467,
      "Marginal Workers Cultivators - Males": 4478,
      "Marginal Workers - Males": 38193,
      "Marginal Workers worked for 0 - 3 moths during last year - Females": 12611,
      "Households with main source of drinking water within premises in percentage Houselisting and Housing Census Data Tables- District Level , Census of India": 51.99490307,
      "Marginal Workers Household Industry worked for 3 - 6 moths during last year - Persons": 1314,
      "Upper Primary Girl's Enrolment in percentage DISE": "NA",
      "Prevalence of Severe Anaemia in women aged 15-49years in percentage DLHS-4": 7.4,
      "Marginal Workers Agricultural Labourers worked for 0 - 3 moths during last year - Males": 1624,
      "Households with electricity as main source of lighting  Houselisting and Housing Census Data Tables- District Level , Census of India__3": 201620,
      "Households with computer or laptop with internet connection in percentage": 1.12,
      "PHCs functioning on a 24x7hours basis in percentage DLHS-4": "Not applicable",
      "Non Workers - Males": 199417,
      "Total Households in District Houselisting and Housing Census Data Tables- District Level , Census of India": 226803,
      "Upper Primary Schools with girls toilet in percentage DISE": "NA",
      "Households with mobile phone in percentage": 41.19,
      "Households receiving untreated tap water within premises in percentage Houselisting and Housing Census Data Tables- District Level , Census of India__2": 4.423662826,
      "Marginal Workers Cultivators worked for 3 - 6 moths during last year - Males": 3455,
      "Prevalence of Anaemia  in percentage DLHS-4": 67.9,
      "Prevalence of Chronic illness in percentage DLHS-4": 13,
      "Households with solar energy as main source of lighting in percentage Houselisting and Housing Census Data Tables- District Level , Census of India__1": 0.503520677,
      "Marginal Workers Agricultural Labourers worked for 0 - 3 moths during last year - Females": 3378,
      "Main Workers - Males": 277300,
      "Female": "NA",
      "Sno": 847,
      "Marginal Workers Other worked for 3 - 6 moths during last year - Females": 15188,
      "Marginal Workers Cultivators worked for 0 - 3 moths during last year - Females": 2090,
      "Scheduled Tribe Males": 13976,
      "Male Illiterates": 111491,
      "Prevalence of Severe Anaemia in pregnant women aged 15-49years in percentage DLHS-4": 8,
      "0-6 Age Group Persons": 106741,
      "Upper Primary Student-Classroom Ratio in percentage DISE": "NA",
      "Currently married men married below 21years of age in percentage DLHS-4": 3.2,
      "Male Literates": 403419,
      "Households with no lighting in percentage Houselisting and Housing Census Data Tables- District Level , Census of India__2": 0.209432856,
      "Primary Drop Out Rate in percentage DISE": "NA",
      "Marginal Workers Household Industry - Males": 964,
      "Female Illiterates": 165568,
      "Main Workers Other - Females": 41417,
      "Marginal Workers Cultivators - Persons": 14636,
      "Upper Primary Gross Enrolment Ratio in percentage DISE": "NA",
      "Scheduled Caste Persons": 78859,
      "Marginal Workers Cultivators worked for 3 - 6 moths during last year - Persons": 11523,
      "Households with landline phone in percentage": 12.52,
      "Total Households in District  Houselisting and Housing Census Data Tables- District Level , Census of India": 226803,
      "Upper Primary Pupil-Teacher Ratio in percentage DISE": "NA",
      "Primary Student-Classroom Ratio in percentage DISE": "NA",
      "Primary Schools with boys toilet in percentage DISE": "NA",
      "Mean number of children ever born to women aged 40-49years  DLHS-4": 2.5,
      "Households receiving untreated tap water within premises  Houselisting and Housing Census Data Tables- District Level , Census of India__5": 10033,
      "Marginal Workers Household Industry worked for 0 - 3 moths during last year - Persons": 509,
      "Total Male Population": 514910,
      "Non Workers - Females": 355466,
      "Current use of family planning methods in percentage DLHS-4": 63.9,
      "Households with main source of drinking water within premises  Houselisting and Housing Census Data Tables- District Level , Census of India__3": 117926,
      "Main Workers Agricultural Labourers - Males": 46414,
      "Marginal Workers Other worked for 0 - 3 moths during last year - Persons": 11710,
      "Currently married women married below 18years of age in percentage DLHS-4": 6.4,
      "Person Illiterates": 277059,
      "Main Workers Household Industry - Females": 672,
      "Female Literates": 337710,
      "Marginal Workers Cultivators worked for 0 - 3 moths during last year - Males": 1023,
      "Male": "NA",
      "Households with improved source of drinking water in percentage DLHS-4": 55.1,
      "Upper Primary Schools with electricity in percentage DISE": "NA",
      "Households with electricity in percentage DLHS-4": 92.6,
      "Villages with Primary Health Centre within 10km in percentage DLHS-4": "Not applicable",
      "Births to women aged 15-19years out of Total births in percentage DLHS-4": 3.9,
      "Prevalence of Anaemia in women aged 15-49years in percentage DLHS-4": 55.3,
      "Marginal Workers Agricultural Labourers worked for 3 - 6 moths during last year - Persons": 28088,
      "Main Workers Household Industry - Males": 3075,
      "Scheduled Tribe Females": 13973,
      "Marginal Workers worked for 0 - 3 moths during last year - Males": 7723,
      "Marginal Workers Other worked for 3 - 6 moths during last year - Males": 16524,
      "Primary Net Enrolment Ratio in percentage DISE": "NA",
      "Total": "NA",
      "Mean age at marriage for boys DLHS-4": 28.3,
      "Number of District Hospitals  DLHS-4": "Not applicable",
      "0-6 Age Group Females": 52187,
      "Marginal Workers Agricultural Labourers worked for 0 - 3 moths during last year - Persons": 5002,
      "Marginal Workers Household Industry worked for 0 - 3 moths during last year - Males": 214,
      "Total Workers  Females": 147812,
      "Marginal Workers worked for 3 - 6 moths during last year - Females": 42167,
      "Institutional Deliveries in percentage DLHS-4": 94.2,
      "Marginal Workers Other - Males": 21386,
      "Total Workers  Males": 315493,
      "Main Workers - Females": 93034,
      "Primary Gross Enrolment Ratio in percentage DISE": "NA",
      "Main Workers Cultivators - Persons": 92453,
      "Marginal Workers Household Industry worked for 0 - 3 moths during last year - Females": 295,
      "Upper Primary Net Enrolment Ratio in percentage DISE": "NA",
      "Primary New Government Schools since 2003 in percentage DISE": "NA",
      "Tier": "Rural",
      "Marginal Workers Household Industry - Females": 859,
      "Primary Schools with electricity in percentage DISE": "NA",
      "Main Workers Other - Persons": 196388,
      "Marginal Workers Household Industry worked for 3 - 6 moths during last year - Females": 564,
      "Main Workers Cultivators - Males": 72840,
      "Main Workers Household Industry - Persons": 3747,
      "Marginal Workers Cultivators worked for 0 - 3 moths during last year - Persons": 3113,
      "Scheduled Caste Males": 39392,
      "Marginal Workers - Persons": 92971,
      "Deliveries at home conducted by skilled health personnel in percentage DLHS-4": 1.1,
      "Villages with Sub-Health Centres within 3km in percentage DLHS-4": "Not applicable",
      "Upper Primary New Government Schools since 2003 in percentage DISE": "NA",
      "0-6 Age Group Males": 54554,
      "Primary Schools with drinking water facility in percentage DISE": "NA",
      "Non Workers - Persons": 554883,
      "Person Literates": 741129,
      "State": "KARNATAKA",
      "Total Female Population": 503278,
      "Marginal Workers worked for 0 - 3 moths during last year - Persons": 20334,
      "Marginal Workers Cultivators - Females": 10158,
      "Marginal Workers Other - Persons": 43422,
      "Sex Ratio": 977,
      "Scheduled Tribe Persons": 27949,
      "Marginal Workers Household Industry worked for 3 - 6 moths during last year - Males": 750,
      "Marginal Workers Agricultural Labourers - Females": 21725,
      "Mean age at marriage for girls DLHS-4": 22.1,
      "Households with solar energy as main source of lighting  Houselisting and Housing Census Data Tables- District Level , Census of India__4": 1142,
      "District": "UTTARA KANNADA",
      "Households receiving treated tap water within premises in percentage Houselisting and Housing Census Data Tables- District Level , Census of India__1": 5.770205861,
      "Total Workers  Persons": 463305,
      "Households receiving treated tap water within premises  Houselisting and Housing Census Data Tables- District Level , Census of India__4": 13087,
      "Primary Female Teachers in percentage DISE": "NA",
      "Number of Households": 228887,
      "Main Workers Agricultural Labourers - Persons": 77746
    }
  ],
  "Urban": [
    {
      "Marginal Workers Agricultural Labourers - Persons": 1115,
      "Marginal Workers Other - Females": 4645,
      "Marginal Workers Other worked for 0 - 3 moths during last year - Females": 1013,
      "Upper Primary Schools with boys toilet in percentage DISE": "NA",
      "Total Population": 418981,
      "Households with electricity as main source of lighting in percentage Houselisting and Housing Census Data Tables- District Level , Census of India": 95.7705485,
      "Primary Girl's Enrolment in percentage DISE": "NA",
      "Marginal Workers worked for 3 - 6 moths during last year - Males": 9117,
      "Prevalence of Acute illness in percentage DLHS-4": "Not available",
      "Main Workers - Persons": 127970,
      "Main Workers Cultivators - Females": 724,
      "Marginal Workers Agricultural Labourers worked for 3 - 6 moths during last year - Females": 344,
      "Marginal Workers Other worked for 0 - 3 moths during last year - Males": 2272,
      "Upper Primary Schools with drinking water facility in percentage DISE": "NA",
      "Primary Schools with girls toilet in percentage DISE": "NA",
      "Marginal Workers worked for 3 - 6 moths during last year - Persons": 13512,
      "Upper Primary Drop Out Rate in percentage DISE": "NA",
      "Prevalence of Anaemia in pregnant women aged 15-49years in percentage DLHS-4": "Not available",
      "Current use of any modern method of family planning in percentage DLHS-4": "Not available",
      "Marginal Workers Agricultural Labourers - Males": 678,
      "Upper Primary Female Teachers in percentage DISE": "NA",
      "Marginal Workers - Females": 5624,
      "Marginal Workers Other worked for 3 - 6 moths during last year - Persons": 11637,
      "Main Workers Agricultural Labourers - Females": 1540,
      "Marginal Workers Cultivators worked for 3 - 6 moths during last year - Females": 137,
      "Households with no lighting  Houselisting and Housing Census Data Tables- District Level , Census of India__5": 129,
      "Prevalence of Severe Anaemia  in percentage DLHS-4": "Not available",
      "Total unmet need for family planning in percentage DLHS-4": "Not available",
      "Main Workers Other - Males": 94605,
      "Children who received full vaccination in percentage DLHS-4": "Not available",
      "Marginal Workers Household Industry - Persons": 816,
      "Primary Pupil-Teacher Ratio in percentage DISE": "NA",
      "Marginal Workers Agricultural Labourers worked for 3 - 6 moths during last year - Males": 571,
      "Scheduled Caste Females": 19123,
      "Marginal Workers Cultivators - Males": 203,
      "Marginal Workers - Males": 11627,
      "Marginal Workers worked for 0 - 3 moths during last year - Females": 1229,
      "Households with main source of drinking water within premises in percentage Houselisting and Housing Census Data Tables- District Level , Census of India": 73.5976114,
      "Marginal Workers Household Industry worked for 3 - 6 moths during last year - Persons": 668,
      "Upper Primary Girl's Enrolment in percentage DISE": "NA",
      "Prevalence of Severe Anaemia in women aged 15-49years in percentage DLHS-4": "Not available",
      "Marginal Workers Agricultural Labourers worked for 0 - 3 moths during last year - Males": 107,
      "Households with electricity as main source of lighting  Houselisting and Housing Census Data Tables- District Level , Census of India__3": 89171,
      "Households with computer or laptop with internet connection in percentage": 3.86,
      "PHCs functioning on a 24x7hours basis in percentage DLHS-4": 0,
      "Non Workers - Males": 96274,
      "Total Households in District Houselisting and Housing Census Data Tables- District Level , Census of India": 93109,
      "Upper Primary Schools with girls toilet in percentage DISE": "NA",
      "Households with mobile phone in percentage": 58.46,
      "Households receiving untreated tap water within premises in percentage Houselisting and Housing Census Data Tables- District Level , Census of India__2": 3.478718491,
      "Marginal Workers Cultivators worked for 3 - 6 moths during last year - Males": 155,
      "Prevalence of Anaemia  in percentage DLHS-4": "Not available",
      "Prevalence of Chronic illness in percentage DLHS-4": "Not available",
      "Households with solar energy as main source of lighting in percentage Houselisting and Housing Census Data Tables- District Level , Census of India__1": 0.117067093,
      "Marginal Workers Agricultural Labourers worked for 0 - 3 moths during last year - Females": 93,
      "Main Workers - Males": 103445,
      "Female": "NA",
      "Sno": 849,
      "Marginal Workers Other worked for 3 - 6 moths during last year - Females": 3632,
      "Marginal Workers Cultivators worked for 0 - 3 moths during last year - Females": 58,
      "Scheduled Tribe Males": 3119,
      "Male Illiterates": 32666,
      "Prevalence of Severe Anaemia in pregnant women aged 15-49years in percentage DLHS-4": "Not available",
      "0-6 Age Group Persons": 43374,
      "Upper Primary Student-Classroom Ratio in percentage DISE": "NA",
      "Currently married men married below 21years of age in percentage DLHS-4": "Not available",
      "Male Literates": 178680,
      "Households with no lighting in percentage Houselisting and Housing Census Data Tables- District Level , Census of India__2": 0.138547294,
      "Primary Drop Out Rate in percentage DISE": "NA",
      "Marginal Workers Household Industry - Males": 469,
      "Female Illiterates": 45538,
      "Main Workers Other - Females": 21780,
      "Marginal Workers Cultivators - Persons": 398,
      "Upper Primary Gross Enrolment Ratio in percentage DISE": "NA",
      "Scheduled Caste Persons": 37572,
      "Marginal Workers Cultivators worked for 3 - 6 moths during last year - Persons": 292,
      "Households with landline phone in percentage": 6.82,
      "Total Households in District  Houselisting and Housing Census Data Tables- District Level , Census of India": 93109,
      "Upper Primary Pupil-Teacher Ratio in percentage DISE": "NA",
      "Primary Student-Classroom Ratio in percentage DISE": "NA",
      "Primary Schools with boys toilet in percentage DISE": "NA",
      "Mean number of children ever born to women aged 40-49years  DLHS-4": "Not available",
      "Households receiving untreated tap water within premises  Houselisting and Housing Census Data Tables- District Level , Census of India__5": 3239,
      "Marginal Workers Household Industry worked for 0 - 3 moths during last year - Persons": 148,
      "Total Male Population": 211346,
      "Non Workers - Females": 177486,
      "Current use of family planning methods in percentage DLHS-4": "Not available",
      "Households with main source of drinking water within premises  Houselisting and Housing Census Data Tables- District Level , Census of India__3": 68526,
      "Main Workers Agricultural Labourers - Males": 2845,
      "Marginal Workers Other worked for 0 - 3 moths during last year - Persons": 3285,
      "Currently married women married below 18years of age in percentage DLHS-4": "Not available",
      "Person Illiterates": 78204,
      "Main Workers Household Industry - Females": 481,
      "Female Literates": 162097,
      "Marginal Workers Cultivators worked for 0 - 3 moths during last year - Males": 48,
      "Male": "NA",
      "Households with improved source of drinking water in percentage DLHS-4": "Not available",
      "Upper Primary Schools with electricity in percentage DISE": "NA",
      "Households with electricity in percentage DLHS-4": "Not available",
      "Villages with Primary Health Centre within 10km in percentage DLHS-4": 0,
      "Births to women aged 15-19years out of Total births in percentage DLHS-4": "Not available",
      "Prevalence of Anaemia in women aged 15-49years in percentage DLHS-4": "Not available",
      "Marginal Workers Agricultural Labourers worked for 3 - 6 moths during last year - Persons": 915,
      "Main Workers Household Industry - Males": 2625,
      "Scheduled Tribe Females": 3171,
      "Marginal Workers worked for 0 - 3 moths during last year - Males": 2510,
      "Marginal Workers Other worked for 3 - 6 moths during last year - Males": 8005,
      "Primary Net Enrolment Ratio in percentage DISE": "NA",
      "Total": "NA",
      "Mean age at marriage for boys DLHS-4": "Not available",
      "Number of District Hospitals  DLHS-4": 0,
      "0-6 Age Group Females": 21134,
      "Marginal Workers Agricultural Labourers worked for 0 - 3 moths during last year - Persons": 200,
      "Marginal Workers Household Industry worked for 0 - 3 moths during last year - Males": 83,
      "Total Workers  Females": 30149,
      "Marginal Workers worked for 3 - 6 moths during last year - Females": 4395,
      "Institutional Deliveries in percentage DLHS-4": "Not available",
      "Marginal Workers Other - Males": 10277,
      "Total Workers  Males": 115072,
      "Main Workers - Females": 24525,
      "Primary Gross Enrolment Ratio in percentage DISE": "NA",
      "Main Workers Cultivators - Persons": 4094,
      "Marginal Workers Household Industry worked for 0 - 3 moths during last year - Females": 65,
      "Upper Primary Net Enrolment Ratio in percentage DISE": "NA",
      "Primary New Government Schools since 2003 in percentage DISE": "NA",
      "Tier": "Urban",
      "Marginal Workers Household Industry - Females": 347,
      "Primary Schools with electricity in percentage DISE": "NA",
      "Main Workers Other - Persons": 116385,
      "Marginal Workers Household Industry worked for 3 - 6 moths during last year - Females": 282,
      "Main Workers Cultivators - Males": 3370,
      "Main Workers Household Industry - Persons": 3106,
      "Marginal Workers Cultivators worked for 0 - 3 moths during last year - Persons": 106,
      "Scheduled Caste Males": 18449,
      "Marginal Workers - Persons": 17251,
      "Deliveries at home conducted by skilled health personnel in percentage DLHS-4": "Not available",
      "Villages with Sub-Health Centres within 3km in percentage DLHS-4": 0,
      "Upper Primary New Government Schools since 2003 in percentage DISE": "NA",
      "0-6 Age Group Males": 22240,
      "Primary Schools with drinking water facility in percentage DISE": "NA",
      "Non Workers - Persons": 273760,
      "Person Literates": 340777,
      "State": "KARNATAKA",
      "Total Female Population": 207635,
      "Marginal Workers worked for 0 - 3 moths during last year - Persons": 3739,
      "Marginal Workers Cultivators - Females": 195,
      "Marginal Workers Other - Persons": 14922,
      "Sex Ratio": 982,
      "Scheduled Tribe Persons": 6290,
      "Marginal Workers Household Industry worked for 3 - 6 moths during last year - Males": 386,
      "Marginal Workers Agricultural Labourers - Females": 437,
      "Mean age at marriage for girls DLHS-4": "Not available",
      "Households with solar energy as main source of lighting  Houselisting and Housing Census Data Tables- District Level , Census of India__4": 109,
      "District": "UTTARA KANNADA",
      "Households receiving treated tap water within premises in percentage Houselisting and Housing Census Data Tables- District Level , Census of India__1": 25.89867789,
      "Total Workers  Persons": 145221,
      "Households receiving treated tap water within premises  Houselisting and Housing Census Data Tables- District Level , Census of India__4": 24114,
      "Primary Female Teachers in percentage DISE": "NA",
      "Number of Households": 95643,
      "Main Workers Agricultural Labourers - Persons": 4385
    }
  ]
}