{
  "Total": [
    {
      "Marginal Workers Agricultural Labourers - Persons": 71949,
      "Marginal Workers Other - Females": 12061,
      "Marginal Workers Other worked for 0 - 3 moths during last year - Females": 2587,
      "Upper Primary Schools with boys toilet in percentage DISE": 100,
      "Total Population": 1174271,
      "Households with electricity as main source of lighting in percentage Houselisting and Housing Census Data Tables- District Level , Census of India": 77.945755,
      "Primary Girl's Enrolment in percentage DISE": 47,
      "Marginal Workers worked for 3 - 6 moths during last year - Males": 36309,
      "Prevalence of Acute illness in percentage DLHS-4": 3.2,
      "Main Workers - Persons": 437241,
      "Main Workers Cultivators - Females": 33044,
      "Marginal Workers Agricultural Labourers worked for 3 - 6 moths during last year - Females": 48505,
      "Marginal Workers Other worked for 0 - 3 moths during last year - Males": 2310,
      "Upper Primary Schools with drinking water facility in percentage DISE": 100,
      "Primary Schools with girls toilet in percentage DISE": 100,
      "Marginal Workers worked for 3 - 6 moths during last year - Persons": 99448,
      "Upper Primary Drop Out Rate in percentage DISE": 8.4,
      "Prevalence of Anaemia in pregnant women aged 15-49years in percentage DLHS-4": 82.4,
      "Current use of any modern method of family planning in percentage DLHS-4": 47.3,
      "Marginal Workers Agricultural Labourers - Males": 20495,
      "Upper Primary Female Teachers in percentage DISE": 100,
      "Marginal Workers - Females": 69792,
      "Marginal Workers Other worked for 3 - 6 moths during last year - Persons": 22645,
      "Main Workers Agricultural Labourers - Females": 96153,
      "Marginal Workers Cultivators worked for 3 - 6 moths during last year - Females": 3546,
      "Households with no lighting  Houselisting and Housing Census Data Tables- District Level , Census of India__5": 1627,
      "Prevalence of Severe Anaemia  in percentage DLHS-4": 30.6,
      "Total unmet need for family planning in percentage DLHS-4": 14.4,
      "Main Workers Other - Males": 85611,
      "Children who received full vaccination in percentage DLHS-4": 55.9,
      "Marginal Workers Household Industry - Persons": 3693,
      "Primary Pupil-Teacher Ratio in percentage DISE": 27,
      "Marginal Workers Agricultural Labourers worked for 3 - 6 moths during last year - Males": 19116,
      "Scheduled Caste Females": 136111,
      "Marginal Workers Cultivators - Males": 3013,
      "Marginal Workers - Males": 40663,
      "Marginal Workers worked for 0 - 3 moths during last year - Females": 6653,
      "Households with main source of drinking water within premises in percentage Houselisting and Housing Census Data Tables- District Level , Census of India": 19.82746577,
      "Marginal Workers Household Industry worked for 3 - 6 moths during last year - Persons": 2972,
      "Upper Primary Girl's Enrolment in percentage DISE": 100,
      "Prevalence of Severe Anaemia in women aged 15-49years in percentage DLHS-4": 10.6,
      "Marginal Workers Agricultural Labourers worked for 0 - 3 moths during last year - Males": 1379,
      "Households with electricity as main source of lighting  Houselisting and Housing Census Data Tables- District Level , Census of India__3": 156222,
      "Households with computer or laptop with internet connection in percentage": 0.7,
      "PHCs functioning on a 24x7hours basis in percentage DLHS-4": 100,
      "Non Workers - Males": 273194,
      "Total Households in District Houselisting and Housing Census Data Tables- District Level , Census of India": 200424,
      "Upper Primary Schools with girls toilet in percentage DISE": 100,
      "Households with mobile phone in percentage": 54.65,
      "Households receiving untreated tap water within premises in percentage Houselisting and Housing Census Data Tables- District Level , Census of India__2": 5.607112921,
      "Marginal Workers Cultivators worked for 3 - 6 moths during last year - Males": 2664,
      "Prevalence of Anaemia  in percentage DLHS-4": 85.5,
      "Prevalence of Chronic illness in percentage DLHS-4": 2.3,
      "Households with solar energy as main source of lighting in percentage Houselisting and Housing Census Data Tables- District Level , Census of India__1": 0.265437273,
      "Marginal Workers Agricultural Labourers worked for 0 - 3 moths during last year - Females": 2949,
      "Main Workers - Males": 276472,
      "Female": 41.38,
      "Sno": 851,
      "Marginal Workers Other worked for 3 - 6 moths during last year - Females": 9474,
      "Marginal Workers Cultivators worked for 0 - 3 moths during last year - Females": 712,
      "Scheduled Tribe Males": 73564,
      "Male Illiterates": 283578,
      "Prevalence of Severe Anaemia in pregnant women aged 15-49years in percentage DLHS-4": 9.2,
      "0-6 Age Group Persons": 190279,
      "Upper Primary Student-Classroom Ratio in percentage DISE": 40,
      "Currently married men married below 21years of age in percentage DLHS-4": 19.1,
      "Male Literates": 306751,
      "Households with no lighting in percentage Houselisting and Housing Census Data Tables- District Level , Census of India__2": 0.811779028,
      "Primary Drop Out Rate in percentage DISE": 3.7,
      "Marginal Workers Household Industry - Males": 1674,
      "Female Illiterates": 380690,
      "Main Workers Other - Females": 27363,
      "Marginal Workers Cultivators - Persons": 7271,
      "Upper Primary Gross Enrolment Ratio in percentage DISE": 67.2,
      "Scheduled Caste Persons": 273315,
      "Marginal Workers Cultivators worked for 3 - 6 moths during last year - Persons": 6210,
      "Households with landline phone in percentage": 2.63,
      "Total Households in District  Houselisting and Housing Census Data Tables- District Level , Census of India": 200424,
      "Upper Primary Pupil-Teacher Ratio in percentage DISE": 44,
      "Primary Student-Classroom Ratio in percentage DISE": 22,
      "Primary Schools with boys toilet in percentage DISE": 100.7,
      "Mean number of children ever born to women aged 40-49years  DLHS-4": 4.5,
      "Households receiving untreated tap water within premises  Houselisting and Housing Census Data Tables- District Level , Census of India__5": 11238,
      "Marginal Workers Household Industry worked for 0 - 3 moths during last year - Persons": 721,
      "Total Male Population": 590329,
      "Non Workers - Females": 353381,
      "Current use of family planning methods in percentage DLHS-4": 47.5,
      "Households with main source of drinking water within premises  Houselisting and Housing Census Data Tables- District Level , Census of India__3": 39739,
      "Main Workers Agricultural Labourers - Males": 66553,
      "Marginal Workers Other worked for 0 - 3 moths during last year - Persons": 4897,
      "Currently married women married below 18years of age in percentage DLHS-4": 36.4,
      "Person Illiterates": 664268,
      "Main Workers Household Industry - Females": 4209,
      "Female Literates": 203252,
      "Marginal Workers Cultivators worked for 0 - 3 moths during last year - Males": 349,
      "Male": 62.25,
      "Households with improved source of drinking water in percentage DLHS-4": 97.5,
      "Upper Primary Schools with electricity in percentage DISE": 100,
      "Households with electricity in percentage DLHS-4": 95.6,
      "Villages with Primary Health Centre within 10km in percentage DLHS-4": 77.3,
      "Births to women aged 15-19years out of Total births in percentage DLHS-4": 9.6,
      "Prevalence of Anaemia in women aged 15-49years in percentage DLHS-4": 70.6,
      "Marginal Workers Agricultural Labourers worked for 3 - 6 moths during last year - Persons": 67621,
      "Main Workers Household Industry - Males": 5290,
      "Scheduled Tribe Females": 73285,
      "Marginal Workers worked for 0 - 3 moths during last year - Males": 4354,
      "Marginal Workers Other worked for 3 - 6 moths during last year - Males": 13171,
      "Primary Net Enrolment Ratio in percentage DISE": 93.1,
      "Total": 51.83,
      "Mean age at marriage for boys DLHS-4": 24,
      "Number of District Hospitals  DLHS-4": 1,
      "0-6 Age Group Females": 92757,
      "Marginal Workers Agricultural Labourers worked for 0 - 3 moths during last year - Persons": 4328,
      "Marginal Workers Household Industry worked for 0 - 3 moths during last year - Males": 316,
      "Total Workers  Females": 230561,
      "Marginal Workers worked for 3 - 6 moths during last year - Females": 63139,
      "Institutional Deliveries in percentage DLHS-4": 76.7,
      "Marginal Workers Other - Males": 15481,
      "Total Workers  Males": 317135,
      "Main Workers - Females": 160769,
      "Primary Gross Enrolment Ratio in percentage DISE": 98.3,
      "Main Workers Cultivators - Persons": 152062,
      "Marginal Workers Household Industry worked for 0 - 3 moths during last year - Females": 405,
      "Upper Primary Net Enrolment Ratio in percentage DISE": 61,
      "Primary New Government Schools since 2003 in percentage DISE": 39.7,
      "Tier": "Total",
      "Marginal Workers Household Industry - Females": 2019,
      "Primary Schools with electricity in percentage DISE": 92.8,
      "Main Workers Other - Persons": 112974,
      "Marginal Workers Household Industry worked for 3 - 6 moths during last year - Females": 1614,
      "Main Workers Cultivators - Males": 119018,
      "Main Workers Household Industry - Persons": 9499,
      "Marginal Workers Cultivators worked for 0 - 3 moths during last year - Persons": 1061,
      "Scheduled Caste Males": 137204,
      "Marginal Workers - Persons": 110455,
      "Deliveries at home conducted by skilled health personnel in percentage DLHS-4": 6.9,
      "Villages with Sub-Health Centres within 3km in percentage DLHS-4": 75,
      "Upper Primary New Government Schools since 2003 in percentage DISE": 100,
      "0-6 Age Group Males": 97522,
      "Primary Schools with drinking water facility in percentage DISE": 100,
      "Non Workers - Persons": 626575,
      "Person Literates": 510003,
      "State": "KARNATAKA",
      "Total Female Population": 583942,
      "Marginal Workers worked for 0 - 3 moths during last year - Persons": 11007,
      "Marginal Workers Cultivators - Females": 4258,
      "Marginal Workers Other - Persons": 27542,
      "Sex Ratio": 989,
      "Scheduled Tribe Persons": 146849,
      "Marginal Workers Household Industry worked for 3 - 6 moths during last year - Males": 1358,
      "Marginal Workers Agricultural Labourers - Females": 51454,
      "Mean age at marriage for girls DLHS-4": 18.5,
      "Households with solar energy as main source of lighting  Houselisting and Housing Census Data Tables- District Level , Census of India__4": 532,
      "District": "YADGIR",
      "Households receiving treated tap water within premises in percentage Houselisting and Housing Census Data Tables- District Level , Census of India__1": 10.23679799,
      "Total Workers  Persons": 547696,
      "Households receiving treated tap water within premises  Houselisting and Housing Census Data Tables- District Level , Census of India__4": 20517,
      "Primary Female Teachers in percentage DISE": 42.7,
      "Number of Households": 202063,
      "Main Workers Agricultural Labourers - Persons": 162706
    }
  ],
  "Rural": [
    {
      "Marginal Workers Agricultural Labourers - Persons": 68776,
      "Marginal Workers Other - Females": 9052,
      "Marginal Workers Other worked for 0 - 3 moths during last year - Females": 1999,
      "Upper Primary Schools with boys toilet in percentage DISE": "NA",
      "Total Population": 953594,
      "Households with electricity as main source of lighting in percentage Houselisting and Housing Census Data Tables- District Level , Census of India": 75.08613491,
      "Primary Girl's Enrolment in percentage DISE": "NA",
      "Marginal Workers worked for 3 - 6 moths during last year - Males": 30599,
      "Prevalence of Acute illness in percentage DLHS-4": 3,
      "Main Workers - Persons": 370338,
      "Main Workers Cultivators - Females": 32279,
      "Marginal Workers Agricultural Labourers worked for 3 - 6 moths during last year - Females": 46310,
      "Marginal Workers Other worked for 0 - 3 moths during last year - Males": 1559,
      "Upper Primary Schools with drinking water facility in percentage DISE": "NA",
      "Primary Schools with girls toilet in percentage DISE": "NA",
      "Marginal Workers worked for 3 - 6 moths during last year - Persons": 88535,
      "Upper Primary Drop Out Rate in percentage DISE": "NA",
      "Prevalence of Anaemia in pregnant women aged 15-49years in percentage DLHS-4": 82.5,
      "Current use of any modern method of family planning in percentage DLHS-4": 47.6,
      "Marginal Workers Agricultural Labourers - Males": 19679,
      "Upper Primary Female Teachers in percentage DISE": "NA",
      "Marginal Workers - Females": 63727,
      "Marginal Workers Other worked for 3 - 6 moths during last year - Persons": 15684,
      "Main Workers Agricultural Labourers - Females": 92299,
      "Marginal Workers Cultivators worked for 3 - 6 moths during last year - Females": 3389,
      "Households with no lighting  Houselisting and Housing Census Data Tables- District Level , Census of India__5": 1450,
      "Prevalence of Severe Anaemia  in percentage DLHS-4": 33.2,
      "Total unmet need for family planning in percentage DLHS-4": 14.4,
      "Main Workers Other - Males": 45119,
      "Children who received full vaccination in percentage DLHS-4": 52.5,
      "Marginal Workers Household Industry - Persons": 2797,
      "Primary Pupil-Teacher Ratio in percentage DISE": "NA",
      "Marginal Workers Agricultural Labourers worked for 3 - 6 moths during last year - Males": 18371,
      "Scheduled Caste Females": 120409,
      "Marginal Workers Cultivators - Males": 2832,
      "Marginal Workers - Males": 34009,
      "Marginal Workers worked for 0 - 3 moths during last year - Females": 5791,
      "Households with main source of drinking water within premises in percentage Houselisting and Housing Census Data Tables- District Level , Census of India": 13.33869421,
      "Marginal Workers Household Industry worked for 3 - 6 moths during last year - Persons": 2283,
      "Upper Primary Girl's Enrolment in percentage DISE": "NA",
      "Prevalence of Severe Anaemia in women aged 15-49years in percentage DLHS-4": 11.1,
      "Marginal Workers Agricultural Labourers worked for 0 - 3 moths during last year - Males": 1308,
      "Households with electricity as main source of lighting  Houselisting and Housing Census Data Tables- District Level , Census of India__3": 121388,
      "Households with computer or laptop with internet connection in percentage": 0.45,
      "PHCs functioning on a 24x7hours basis in percentage DLHS-4": "Not applicable",
      "Non Workers - Males": 217897,
      "Total Households in District Houselisting and Housing Census Data Tables- District Level , Census of India": 161665,
      "Upper Primary Schools with girls toilet in percentage DISE": "NA",
      "Households with mobile phone in percentage": 52.39,
      "Households receiving untreated tap water within premises in percentage Houselisting and Housing Census Data Tables- District Level , Census of India__2": 5.056753162,
      "Marginal Workers Cultivators worked for 3 - 6 moths during last year - Males": 2498,
      "Prevalence of Anaemia  in percentage DLHS-4": 86.7,
      "Prevalence of Chronic illness in percentage DLHS-4": 1.8,
      "Households with solar energy as main source of lighting in percentage Houselisting and Housing Census Data Tables- District Level , Census of India__1": 0.288868957,
      "Marginal Workers Agricultural Labourers worked for 0 - 3 moths during last year - Females": 2787,
      "Main Workers - Males": 227172,
      "Female": "NA",
      "Sno": 850,
      "Marginal Workers Other worked for 3 - 6 moths during last year - Females": 7053,
      "Marginal Workers Cultivators worked for 0 - 3 moths during last year - Females": 700,
      "Scheduled Tribe Males": 64574,
      "Male Illiterates": 248080,
      "Prevalence of Severe Anaemia in pregnant women aged 15-49years in percentage DLHS-4": 10.3,
      "0-6 Age Group Persons": 158127,
      "Upper Primary Student-Classroom Ratio in percentage DISE": "NA",
      "Currently married men married below 21years of age in percentage DLHS-4": 23,
      "Male Literates": 230998,
      "Households with no lighting in percentage Houselisting and Housing Census Data Tables- District Level , Census of India__2": 0.896916463,
      "Primary Drop Out Rate in percentage DISE": "NA",
      "Marginal Workers Household Industry - Males": 1308,
      "Female Illiterates": 331270,
      "Main Workers Other - Females": 16389,
      "Marginal Workers Cultivators - Persons": 6921,
      "Upper Primary Gross Enrolment Ratio in percentage DISE": "NA",
      "Scheduled Caste Persons": 241721,
      "Marginal Workers Cultivators worked for 3 - 6 moths during last year - Persons": 5887,
      "Households with landline phone in percentage": 2.38,
      "Total Households in District  Houselisting and Housing Census Data Tables- District Level , Census of India": 161665,
      "Upper Primary Pupil-Teacher Ratio in percentage DISE": "NA",
      "Primary Student-Classroom Ratio in percentage DISE": "NA",
      "Primary Schools with boys toilet in percentage DISE": "NA",
      "Mean number of children ever born to women aged 40-49years  DLHS-4": 4.7,
      "Households receiving untreated tap water within premises  Houselisting and Housing Census Data Tables- District Level , Census of India__5": 8175,
      "Marginal Workers Household Industry worked for 0 - 3 moths during last year - Persons": 514,
      "Total Male Population": 479078,
      "Non Workers - Females": 267623,
      "Current use of family planning methods in percentage DLHS-4": 47.6,
      "Households with main source of drinking water within premises  Houselisting and Housing Census Data Tables- District Level , Census of India__3": 21564,
      "Main Workers Agricultural Labourers - Males": 63424,
      "Marginal Workers Other worked for 0 - 3 moths during last year - Persons": 3558,
      "Currently married women married below 18years of age in percentage DLHS-4": 40.3,
      "Person Illiterates": 579350,
      "Main Workers Household Industry - Females": 2199,
      "Female Literates": 143246,
      "Marginal Workers Cultivators worked for 0 - 3 moths during last year - Males": 334,
      "Male": "NA",
      "Households with improved source of drinking water in percentage DLHS-4": 97,
      "Upper Primary Schools with electricity in percentage DISE": "NA",
      "Households with electricity in percentage DLHS-4": 93.9,
      "Villages with Primary Health Centre within 10km in percentage DLHS-4": "Not applicable",
      "Births to women aged 15-19years out of Total births in percentage DLHS-4": 12.9,
      "Prevalence of Anaemia in women aged 15-49years in percentage DLHS-4": 73.6,
      "Marginal Workers Agricultural Labourers worked for 3 - 6 moths during last year - Persons": 64681,
      "Main Workers Household Industry - Males": 3753,
      "Scheduled Tribe Females": 64150,
      "Marginal Workers worked for 0 - 3 moths during last year - Males": 3410,
      "Marginal Workers Other worked for 3 - 6 moths during last year - Males": 8631,
      "Primary Net Enrolment Ratio in percentage DISE": "NA",
      "Total": "NA",
      "Mean age at marriage for boys DLHS-4": 23.5,
      "Number of District Hospitals  DLHS-4": "Not applicable",
      "0-6 Age Group Females": 77205,
      "Marginal Workers Agricultural Labourers worked for 0 - 3 moths during last year - Persons": 4095,
      "Marginal Workers Household Industry worked for 0 - 3 moths during last year - Males": 209,
      "Total Workers  Females": 206893,
      "Marginal Workers worked for 3 - 6 moths during last year - Females": 57936,
      "Institutional Deliveries in percentage DLHS-4": 72,
      "Marginal Workers Other - Males": 10190,
      "Total Workers  Males": 261181,
      "Main Workers - Females": 143166,
      "Primary Gross Enrolment Ratio in percentage DISE": "NA",
      "Main Workers Cultivators - Persons": 147155,
      "Marginal Workers Household Industry worked for 0 - 3 moths during last year - Females": 305,
      "Upper Primary Net Enrolment Ratio in percentage DISE": "NA",
      "Primary New Government Schools since 2003 in percentage DISE": "NA",
      "Tier": "Rural",
      "Marginal Workers Household Industry - Females": 1489,
      "Primary Schools with electricity in percentage DISE": "NA",
      "Main Workers Other - Persons": 61508,
      "Marginal Workers Household Industry worked for 3 - 6 moths during last year - Females": 1184,
      "Main Workers Cultivators - Males": 114876,
      "Main Workers Household Industry - Persons": 5952,
      "Marginal Workers Cultivators worked for 0 - 3 moths during last year - Persons": 1034,
      "Scheduled Caste Males": 121312,
      "Marginal Workers - Persons": 97736,
      "Deliveries at home conducted by skilled health personnel in percentage DLHS-4": 7,
      "Villages with Sub-Health Centres within 3km in percentage DLHS-4": "Not applicable",
      "Upper Primary New Government Schools since 2003 in percentage DISE": "NA",
      "0-6 Age Group Males": 80922,
      "Primary Schools with drinking water facility in percentage DISE": "NA",
      "Non Workers - Persons": 485520,
      "Person Literates": 374244,
      "State": "KARNATAKA",
      "Total Female Population": 474516,
      "Marginal Workers worked for 0 - 3 moths during last year - Persons": 9201,
      "Marginal Workers Cultivators - Females": 4089,
      "Marginal Workers Other - Persons": 19242,
      "Sex Ratio": 990,
      "Scheduled Tribe Persons": 128724,
      "Marginal Workers Household Industry worked for 3 - 6 moths during last year - Males": 1099,
      "Marginal Workers Agricultural Labourers - Females": 49097,
      "Mean age at marriage for girls DLHS-4": 18,
      "Households with solar energy as main source of lighting  Houselisting and Housing Census Data Tables- District Level , Census of India__4": 467,
      "District": "YADGIR",
      "Households receiving treated tap water within premises in percentage Houselisting and Housing Census Data Tables- District Level , Census of India__1": 5.921504345,
      "Total Workers  Persons": 468074,
      "Households receiving treated tap water within premises  Houselisting and Housing Census Data Tables- District Level , Census of India__4": 9573,
      "Primary Female Teachers in percentage DISE": "NA",
      "Number of Households": 162187,
      "Main Workers Agricultural Labourers - Persons": 155723
    }
  ],
  "Urban": [
    {
      "Marginal Workers Agricultural Labourers - Persons": 3173,
      "Marginal Workers Other - Females": 3009,
      "Marginal Workers Other worked for 0 - 3 moths during last year - Females": 588,
      "Upper Primary Schools with boys toilet in percentage DISE": "NA",
      "Total Population": 220677,
      "Households with electricity as main source of lighting in percentage Houselisting and Housing Census Data Tables- District Level , Census of India": 89.87331975,
      "Primary Girl's Enrolment in percentage DISE": "NA",
      "Marginal Workers worked for 3 - 6 moths during last year - Males": 5710,
      "Prevalence of Acute illness in percentage DLHS-4": "Not available",
      "Main Workers - Persons": 66903,
      "Main Workers Cultivators - Females": 765,
      "Marginal Workers Agricultural Labourers worked for 3 - 6 moths during last year - Females": 2195,
      "Marginal Workers Other worked for 0 - 3 moths during last year - Males": 751,
      "Upper Primary Schools with drinking water facility in percentage DISE": "NA",
      "Primary Schools with girls toilet in percentage DISE": "NA",
      "Marginal Workers worked for 3 - 6 moths during last year - Persons": 10913,
      "Upper Primary Drop Out Rate in percentage DISE": "NA",
      "Prevalence of Anaemia in pregnant women aged 15-49years in percentage DLHS-4": "Not available",
      "Current use of any modern method of family planning in percentage DLHS-4": "Not available",
      "Marginal Workers Agricultural Labourers - Males": 816,
      "Upper Primary Female Teachers in percentage DISE": "NA",
      "Marginal Workers - Females": 6065,
      "Marginal Workers Other worked for 3 - 6 moths during last year - Persons": 6961,
      "Main Workers Agricultural Labourers - Females": 3854,
      "Marginal Workers Cultivators worked for 3 - 6 moths during last year - Females": 157,
      "Households with no lighting  Houselisting and Housing Census Data Tables- District Level , Census of India__5": 177,
      "Prevalence of Severe Anaemia  in percentage DLHS-4": "Not available",
      "Total unmet need for family planning in percentage DLHS-4": "Not available",
      "Main Workers Other - Males": 40492,
      "Children who received full vaccination in percentage DLHS-4": "Not available",
      "Marginal Workers Household Industry - Persons": 896,
      "Primary Pupil-Teacher Ratio in percentage DISE": "NA",
      "Marginal Workers Agricultural Labourers worked for 3 - 6 moths during last year - Males": 745,
      "Scheduled Caste Females": 15702,
      "Marginal Workers Cultivators - Males": 181,
      "Marginal Workers - Males": 6654,
      "Marginal Workers worked for 0 - 3 moths during last year - Females": 862,
      "Households with main source of drinking water within premises in percentage Houselisting and Housing Census Data Tables- District Level , Census of India": 46.89233468,
      "Marginal Workers Household Industry worked for 3 - 6 moths during last year - Persons": 689,
      "Upper Primary Girl's Enrolment in percentage DISE": "NA",
      "Prevalence of Severe Anaemia in women aged 15-49years in percentage DLHS-4": "Not available",
      "Marginal Workers Agricultural Labourers worked for 0 - 3 moths during last year - Males": 71,
      "Households with electricity as main source of lighting  Houselisting and Housing Census Data Tables- District Level , Census of India__3": 34834,
      "Households with computer or laptop with internet connection in percentage": 1.77,
      "PHCs functioning on a 24x7hours basis in percentage DLHS-4": 0,
      "Non Workers - Males": 55297,
      "Total Households in District Houselisting and Housing Census Data Tables- District Level , Census of India": 38759,
      "Upper Primary Schools with girls toilet in percentage DISE": "NA",
      "Households with mobile phone in percentage": 64.06,
      "Households receiving untreated tap water within premises in percentage Houselisting and Housing Census Data Tables- District Level , Census of India__2": 7.902680668,
      "Marginal Workers Cultivators worked for 3 - 6 moths during last year - Males": 166,
      "Prevalence of Anaemia  in percentage DLHS-4": "Not available",
      "Prevalence of Chronic illness in percentage DLHS-4": "Not available",
      "Households with solar energy as main source of lighting in percentage Houselisting and Housing Census Data Tables- District Level , Census of India__1": 0.167702985,
      "Marginal Workers Agricultural Labourers worked for 0 - 3 moths during last year - Females": 162,
      "Main Workers - Males": 49300,
      "Female": "NA",
      "Sno": 852,
      "Marginal Workers Other worked for 3 - 6 moths during last year - Females": 2421,
      "Marginal Workers Cultivators worked for 0 - 3 moths during last year - Females": 12,
      "Scheduled Tribe Males": 8990,
      "Male Illiterates": 35498,
      "Prevalence of Severe Anaemia in pregnant women aged 15-49years in percentage DLHS-4": "Not available",
      "0-6 Age Group Persons": 32152,
      "Upper Primary Student-Classroom Ratio in percentage DISE": "NA",
      "Currently married men married below 21years of age in percentage DLHS-4": "Not available",
      "Male Literates": 75753,
      "Households with no lighting in percentage Houselisting and Housing Census Data Tables- District Level , Census of India__2": 0.456668129,
      "Primary Drop Out Rate in percentage DISE": "NA",
      "Marginal Workers Household Industry - Males": 366,
      "Female Illiterates": 49420,
      "Main Workers Other - Females": 10974,
      "Marginal Workers Cultivators - Persons": 350,
      "Upper Primary Gross Enrolment Ratio in percentage DISE": "NA",
      "Scheduled Caste Persons": 31594,
      "Marginal Workers Cultivators worked for 3 - 6 moths during last year - Persons": 323,
      "Households with landline phone in percentage": 3.68,
      "Total Households in District  Houselisting and Housing Census Data Tables- District Level , Census of India": 38759,
      "Upper Primary Pupil-Teacher Ratio in percentage DISE": "NA",
      "Primary Student-Classroom Ratio in percentage DISE": "NA",
      "Primary Schools with boys toilet in percentage DISE": "NA",
      "Mean number of children ever born to women aged 40-49years  DLHS-4": "Not available",
      "Households receiving untreated tap water within premises  Houselisting and Housing Census Data Tables- District Level , Census of India__5": 3063,
      "Marginal Workers Household Industry worked for 0 - 3 moths during last year - Persons": 207,
      "Total Male Population": 111251,
      "Non Workers - Females": 85758,
      "Current use of family planning methods in percentage DLHS-4": "Not available",
      "Households with main source of drinking water within premises  Houselisting and Housing Census Data Tables- District Level , Census of India__3": 18175,
      "Main Workers Agricultural Labourers - Males": 3129,
      "Marginal Workers Other worked for 0 - 3 moths during last year - Persons": 1339,
      "Currently married women married below 18years of age in percentage DLHS-4": "Not available",
      "Person Illiterates": 84918,
      "Main Workers Household Industry - Females": 2010,
      "Female Literates": 60006,
      "Marginal Workers Cultivators worked for 0 - 3 moths during last year - Males": 15,
      "Male": "NA",
      "Households with improved source of drinking water in percentage DLHS-4": "Not available",
      "Upper Primary Schools with electricity in percentage DISE": "NA",
      "Households with electricity in percentage DLHS-4": "Not available",
      "Villages with Primary Health Centre within 10km in percentage DLHS-4": 0,
      "Births to women aged 15-19years out of Total births in percentage DLHS-4": "Not available",
      "Prevalence of Anaemia in women aged 15-49years in percentage DLHS-4": "Not available",
      "Marginal Workers Agricultural Labourers worked for 3 - 6 moths during last year - Persons": 2940,
      "Main Workers Household Industry - Males": 1537,
      "Scheduled Tribe Females": 9135,
      "Marginal Workers worked for 0 - 3 moths during last year - Males": 944,
      "Marginal Workers Other worked for 3 - 6 moths during last year - Males": 4540,
      "Primary Net Enrolment Ratio in percentage DISE": "NA",
      "Total": "NA",
      "Mean age at marriage for boys DLHS-4": "Not available",
      "Number of District Hospitals  DLHS-4": 0,
      "0-6 Age Group Females": 15552,
      "Marginal Workers Agricultural Labourers worked for 0 - 3 moths during last year - Persons": 233,
      "Marginal Workers Household Industry worked for 0 - 3 moths during last year - Males": 107,
      "Total Workers  Females": 23668,
      "Marginal Workers worked for 3 - 6 moths during last year - Females": 5203,
      "Institutional Deliveries in percentage DLHS-4": "Not available",
      "Marginal Workers Other - Males": 5291,
      "Total Workers  Males": 55954,
      "Main Workers - Females": 17603,
      "Primary Gross Enrolment Ratio in percentage DISE": "NA",
      "Main Workers Cultivators - Persons": 4907,
      "Marginal Workers Household Industry worked for 0 - 3 moths during last year - Females": 100,
      "Upper Primary Net Enrolment Ratio in percentage DISE": "NA",
      "Primary New Government Schools since 2003 in percentage DISE": "NA",
      "Tier": "Urban",
      "Marginal Workers Household Industry - Females": 530,
      "Primary Schools with electricity in percentage DISE": "NA",
      "Main Workers Other - Persons": 51466,
      "Marginal Workers Household Industry worked for 3 - 6 moths during last year - Females": 430,
      "Main Workers Cultivators - Males": 4142,
      "Main Workers Household Industry - Persons": 3547,
      "Marginal Workers Cultivators worked for 0 - 3 moths during last year - Persons": 27,
      "Scheduled Caste Males": 15892,
      "Marginal Workers - Persons": 12719,
      "Deliveries at home conducted by skilled health personnel in percentage DLHS-4": "Not available",
      "Villages with Sub-Health Centres within 3km in percentage DLHS-4": 0,
      "Upper Primary New Government Schools since 2003 in percentage DISE": "NA",
      "0-6 Age Group Males": 16600,
      "Primary Schools with drinking water facility in percentage DISE": "NA",
      "Non Workers - Persons": 141055,
      "Person Literates": 135759,
      "State": "KARNATAKA",
      "Total Female Population": 109426,
      "Marginal Workers worked for 0 - 3 moths during last year - Persons": 1806,
      "Marginal Workers Cultivators - Females": 169,
      "Marginal Workers Other - Persons": 8300,
      "Sex Ratio": 984,
      "Scheduled Tribe Persons": 18125,
      "Marginal Workers Household Industry worked for 3 - 6 moths during last year - Males": 259,
      "Marginal Workers Agricultural Labourers - Females": 2357,
      "Mean age at marriage for girls DLHS-4": "Not available",
      "Households with solar energy as main source of lighting  Houselisting and Housing Census Data Tables- District Level , Census of India__4": 65,
      "District": "YADGIR",
      "Households receiving treated tap water within premises in percentage Houselisting and Housing Census Data Tables- District Level , Census of India__1": 28.2360226,
      "Total Workers  Persons": 79622,
      "Households receiving treated tap water within premises  Houselisting and Housing Census Data Tables- District Level , Census of India__4": 10944,
      "Primary Female Teachers in percentage DISE": "NA",
      "Number of Households": 39876,
      "Main Workers Agricultural Labourers - Persons": 6983
    }
  ]
}