{
  "Total": [
    {
      "Marginal Workers Agricultural Labourers - Persons": 368896,
      "Marginal Workers Other - Females": 103960,
      "Marginal Workers Other worked for 0 - 3 moths during last year - Females": 15545,
      "Upper Primary Schools with boys toilet in percentage DISE": 73.6,
      "Total Population": 7717563,
      "Households with electricity as main source of lighting in percentage Houselisting and Housing Census Data Tables- District Level , Census of India": 61.5619646,
      "Primary Girl's Enrolment in percentage DISE": 49.2,
      "Marginal Workers worked for 3 - 6 moths during last year - Males": 376654,
      "Prevalence of Acute illness in percentage DLHS-4": 17.1,
      "Main Workers - Persons": 2166742,
      "Main Workers Cultivators - Females": 12333,
      "Marginal Workers Agricultural Labourers worked for 3 - 6 moths during last year - Females": 110232,
      "Marginal Workers Other worked for 0 - 3 moths during last year - Males": 30616,
      "Upper Primary Schools with drinking water facility in percentage DISE": 100,
      "Primary Schools with girls toilet in percentage DISE": 79,
      "Marginal Workers worked for 3 - 6 moths during last year - Persons": 606953,
      "Upper Primary Drop Out Rate in percentage DISE": 4.03,
      "Prevalence of Anaemia in pregnant women aged 15-49years in percentage DLHS-4": 59.9,
      "Current use of any modern method of family planning in percentage DLHS-4": 65.6,
      "Marginal Workers Agricultural Labourers - Males": 223552,
      "Upper Primary Female Teachers in percentage DISE": 23.2,
      "Marginal Workers - Females": 290107,
      "Marginal Workers Other worked for 3 - 6 moths during last year - Persons": 241259,
      "Main Workers Agricultural Labourers - Females": 127330,
      "Marginal Workers Cultivators worked for 3 - 6 moths during last year - Females": 8862,
      "Households with no lighting  Houselisting and Housing Census Data Tables- District Level , Census of India__5": 11638,
      "Prevalence of Severe Anaemia  in percentage DLHS-4": 14.1,
      "Total unmet need for family planning in percentage DLHS-4": 7.7,
      "Main Workers Other - Males": 1025203,
      "Children who received full vaccination in percentage DLHS-4": 70.7,
      "Marginal Workers Household Industry - Persons": 43220,
      "Primary Pupil-Teacher Ratio in percentage DISE": 24,
      "Marginal Workers Agricultural Labourers worked for 3 - 6 moths during last year - Males": 185194,
      "Scheduled Caste Females": 1036135,
      "Marginal Workers Cultivators - Males": 34253,
      "Marginal Workers - Males": 454402,
      "Marginal Workers worked for 0 - 3 moths during last year - Females": 59808,
      "Households with main source of drinking water within premises in percentage Houselisting and Housing Census Data Tables- District Level , Census of India": 35.41465114,
      "Marginal Workers Household Industry worked for 3 - 6 moths during last year - Persons": 33243,
      "Upper Primary Girl's Enrolment in percentage DISE": 56.4,
      "Prevalence of Severe Anaemia in women aged 15-49years in percentage DLHS-4": 4.1,
      "Marginal Workers Agricultural Labourers worked for 0 - 3 moths during last year - Males": 38358,
      "Households with electricity as main source of lighting  Houselisting and Housing Census Data Tables- District Level , Census of India__3": 1049943,
      "Households with computer or laptop with internet connection in percentage": 1.9,
      "PHCs functioning on a 24x7hours basis in percentage DLHS-4": 15.7,
      "Non Workers - Males": 1673806,
      "Total Households in District Houselisting and Housing Census Data Tables- District Level , Census of India": 1705506,
      "Upper Primary Schools with girls toilet in percentage DISE": 87.1,
      "Households with mobile phone in percentage": 47.51,
      "Households receiving untreated tap water within premises in percentage Houselisting and Housing Census Data Tables- District Level , Census of India__2": 1.404685765,
      "Marginal Workers Cultivators worked for 3 - 6 moths during last year - Males": 28163,
      "Prevalence of Anaemia  in percentage DLHS-4": 78,
      "Prevalence of Chronic illness in percentage DLHS-4": 11.9,
      "Households with solar energy as main source of lighting in percentage Houselisting and Housing Census Data Tables- District Level , Census of India__1": 0.990380567,
      "Marginal Workers Agricultural Labourers worked for 0 - 3 moths during last year - Females": 35112,
      "Main Workers - Males": 1838681,
      "Female": 69.63,
      "Sno": 1973,
      "Marginal Workers Other worked for 3 - 6 moths during last year - Females": 88415,
      "Marginal Workers Cultivators worked for 0 - 3 moths during last year - Females": 1858,
      "Scheduled Tribe Males": 243581,
      "Male Illiterates": 1048849,
      "Prevalence of Severe Anaemia in pregnant women aged 15-49years in percentage DLHS-4": 1.3,
      "0-6 Age Group Persons": 832033,
      "Upper Primary Student-Classroom Ratio in percentage DISE": 44,
      "Currently married men married below 21years of age in percentage DLHS-4": 15.1,
      "Male Literates": 2918040,
      "Households with no lighting in percentage Houselisting and Housing Census Data Tables- District Level , Census of India__2": 0.682378133,
      "Primary Drop Out Rate in percentage DISE": 6,
      "Marginal Workers Household Industry - Males": 13137,
      "Female Illiterates": 1421506,
      "Main Workers Other - Females": 158722,
      "Marginal Workers Cultivators - Persons": 44973,
      "Upper Primary Gross Enrolment Ratio in percentage DISE": 89.8,
      "Scheduled Caste Persons": 2115719,
      "Marginal Workers Cultivators worked for 3 - 6 moths during last year - Persons": 37025,
      "Households with landline phone in percentage": 2.74,
      "Total Households in District  Houselisting and Housing Census Data Tables- District Level , Census of India": 1705506,
      "Upper Primary Pupil-Teacher Ratio in percentage DISE": 39,
      "Primary Student-Classroom Ratio in percentage DISE": 23,
      "Primary Schools with boys toilet in percentage DISE": 85.6,
      "Mean number of children ever born to women aged 40-49years  DLHS-4": 3,
      "Households receiving untreated tap water within premises  Houselisting and Housing Census Data Tables- District Level , Census of India__5": 23957,
      "Marginal Workers Household Industry worked for 0 - 3 moths during last year - Persons": 9977,
      "Total Male Population": 3966889,
      "Non Workers - Females": 3132506,
      "Current use of family planning methods in percentage DLHS-4": 76.9,
      "Households with main source of drinking water within premises  Houselisting and Housing Census Data Tables- District Level , Census of India__3": 603999,
      "Main Workers Agricultural Labourers - Males": 476956,
      "Marginal Workers Other worked for 0 - 3 moths during last year - Persons": 46161,
      "Currently married women married below 18years of age in percentage DLHS-4": 34.3,
      "Person Illiterates": 2470355,
      "Main Workers Household Industry - Females": 29676,
      "Female Literates": 2329168,
      "Marginal Workers Cultivators worked for 0 - 3 moths during last year - Males": 6090,
      "Male": 82.42,
      "Households with improved source of drinking water in percentage DLHS-4": 97.5,
      "Upper Primary Schools with electricity in percentage DISE": 43.8,
      "Households with electricity in percentage DLHS-4": 89.2,
      "Villages with Primary Health Centre within 10km in percentage DLHS-4": 85.3,
      "Births to women aged 15-19years out of Total births in percentage DLHS-4": 14,
      "Prevalence of Anaemia in women aged 15-49years in percentage DLHS-4": 67.5,
      "Marginal Workers Agricultural Labourers worked for 3 - 6 moths during last year - Persons": 295426,
      "Main Workers Household Industry - Males": 51662,
      "Scheduled Tribe Females": 245866,
      "Marginal Workers worked for 0 - 3 moths during last year - Males": 77748,
      "Marginal Workers Other worked for 3 - 6 moths during last year - Males": 152844,
      "Primary Net Enrolment Ratio in percentage DISE": 88.7,
      "Total": 76.21,
      "Mean age at marriage for boys DLHS-4": 25.4,
      "Number of District Hospitals  DLHS-4": 1,
      "0-6 Age Group Females": 405648,
      "Marginal Workers Agricultural Labourers worked for 0 - 3 moths during last year - Persons": 73470,
      "Marginal Workers Household Industry worked for 0 - 3 moths during last year - Males": 2684,
      "Total Workers  Females": 618168,
      "Marginal Workers worked for 3 - 6 moths during last year - Females": 230299,
      "Institutional Deliveries in percentage DLHS-4": 71.6,
      "Marginal Workers Other - Males": 183460,
      "Total Workers  Males": 2293083,
      "Main Workers - Females": 328061,
      "Primary Gross Enrolment Ratio in percentage DISE": 98.6,
      "Main Workers Cultivators - Persons": 297193,
      "Marginal Workers Household Industry worked for 0 - 3 moths during last year - Females": 7293,
      "Upper Primary Net Enrolment Ratio in percentage DISE": 67.4,
      "Primary New Government Schools since 2003 in percentage DISE": 3.6,
      "Tier": "Total",
      "Marginal Workers Household Industry - Females": 30083,
      "Primary Schools with electricity in percentage DISE": 45,
      "Main Workers Other - Persons": 1183925,
      "Marginal Workers Household Industry worked for 3 - 6 moths during last year - Females": 22790,
      "Main Workers Cultivators - Males": 284860,
      "Main Workers Household Industry - Persons": 81338,
      "Marginal Workers Cultivators worked for 0 - 3 moths during last year - Persons": 7948,
      "Scheduled Caste Males": 1079584,
      "Marginal Workers - Persons": 744509,
      "Deliveries at home conducted by skilled health personnel in percentage DLHS-4": 9,
      "Villages with Sub-Health Centres within 3km in percentage DLHS-4": 79.4,
      "Upper Primary New Government Schools since 2003 in percentage DISE": 91.7,
      "0-6 Age Group Males": 426385,
      "Primary Schools with drinking water facility in percentage DISE": 99.4,
      "Non Workers - Persons": 4806312,
      "Person Literates": 5247208,
      "State": "WEST BENGAL",
      "Total Female Population": 3750674,
      "Marginal Workers worked for 0 - 3 moths during last year - Persons": 137556,
      "Marginal Workers Cultivators - Females": 10720,
      "Marginal Workers Other - Persons": 287420,
      "Sex Ratio": 945,
      "Scheduled Tribe Persons": 489447,
      "Marginal Workers Household Industry worked for 3 - 6 moths during last year - Males": 10453,
      "Marginal Workers Agricultural Labourers - Females": 145344,
      "Mean age at marriage for girls DLHS-4": 18.7,
      "Households with solar energy as main source of lighting  Houselisting and Housing Census Data Tables- District Level , Census of India__4": 16891,
      "District": "BARDDHAMAN",
      "Households receiving treated tap water within premises in percentage Houselisting and Housing Census Data Tables- District Level , Census of India__1": 12.09523743,
      "Total Workers  Persons": 2911251,
      "Households receiving treated tap water within premises  Houselisting and Housing Census Data Tables- District Level , Census of India__4": 206285,
      "Primary Female Teachers in percentage DISE": 42.6,
      "Number of Households": 1730927,
      "Main Workers Agricultural Labourers - Persons": 604286
    }
  ],
  "Rural": [
    {
      "Marginal Workers Agricultural Labourers - Persons": 348687,
      "Marginal Workers Other - Females": 48482,
      "Marginal Workers Other worked for 0 - 3 moths during last year - Females": 9607,
      "Upper Primary Schools with boys toilet in percentage DISE": "NA",
      "Total Population": 4639264,
      "Households with electricity as main source of lighting in percentage Houselisting and Housing Census Data Tables- District Level , Census of India": 48.83079346,
      "Primary Girl's Enrolment in percentage DISE": "NA",
      "Marginal Workers worked for 3 - 6 moths during last year - Males": 259533,
      "Prevalence of Acute illness in percentage DLHS-4": 23.4,
      "Main Workers - Persons": 1336652,
      "Main Workers Cultivators - Females": 11201,
      "Marginal Workers Agricultural Labourers worked for 3 - 6 moths during last year - Females": 105225,
      "Marginal Workers Other worked for 0 - 3 moths during last year - Males": 12057,
      "Upper Primary Schools with drinking water facility in percentage DISE": "NA",
      "Primary Schools with girls toilet in percentage DISE": "NA",
      "Marginal Workers worked for 3 - 6 moths during last year - Persons": 426495,
      "Upper Primary Drop Out Rate in percentage DISE": "NA",
      "Prevalence of Anaemia in pregnant women aged 15-49years in percentage DLHS-4": 58.3,
      "Current use of any modern method of family planning in percentage DLHS-4": 71.6,
      "Marginal Workers Agricultural Labourers - Males": 210061,
      "Upper Primary Female Teachers in percentage DISE": "NA",
      "Marginal Workers - Females": 217792,
      "Marginal Workers Other worked for 3 - 6 moths during last year - Persons": 93094,
      "Main Workers Agricultural Labourers - Females": 121752,
      "Marginal Workers Cultivators worked for 3 - 6 moths during last year - Females": 6649,
      "Households with no lighting  Houselisting and Housing Census Data Tables- District Level , Census of India__5": 5490,
      "Prevalence of Severe Anaemia  in percentage DLHS-4": 8.6,
      "Total unmet need for family planning in percentage DLHS-4": 6.3,
      "Main Workers Other - Males": 360634,
      "Children who received full vaccination in percentage DLHS-4": 84.8,
      "Marginal Workers Household Industry - Persons": 29759,
      "Primary Pupil-Teacher Ratio in percentage DISE": "NA",
      "Marginal Workers Agricultural Labourers worked for 3 - 6 moths during last year - Males": 174267,
      "Scheduled Caste Females": 747895,
      "Marginal Workers Cultivators - Males": 30873,
      "Marginal Workers - Males": 314751,
      "Marginal Workers worked for 0 - 3 moths during last year - Females": 50830,
      "Households with main source of drinking water within premises in percentage Houselisting and Housing Census Data Tables- District Level , Census of India": 30.55262698,
      "Marginal Workers Household Industry worked for 3 - 6 moths during last year - Persons": 22134,
      "Upper Primary Girl's Enrolment in percentage DISE": "NA",
      "Prevalence of Severe Anaemia in women aged 15-49years in percentage DLHS-4": 2.3,
      "Marginal Workers Agricultural Labourers worked for 0 - 3 moths during last year - Males": 35794,
      "Households with electricity as main source of lighting  Houselisting and Housing Census Data Tables- District Level , Census of India__3": 519670,
      "Households with computer or laptop with internet connection in percentage": 0.64,
      "PHCs functioning on a 24x7hours basis in percentage DLHS-4": "Not applicable",
      "Non Workers - Males": 936269,
      "Total Households in District Houselisting and Housing Census Data Tables- District Level , Census of India": 1064226,
      "Upper Primary Schools with girls toilet in percentage DISE": "NA",
      "Households with mobile phone in percentage": 37.93,
      "Households receiving untreated tap water within premises in percentage Houselisting and Housing Census Data Tables- District Level , Census of India__2": 1.526649415,
      "Marginal Workers Cultivators worked for 3 - 6 moths during last year - Males": 25126,
      "Prevalence of Anaemia  in percentage DLHS-4": 85,
      "Prevalence of Chronic illness in percentage DLHS-4": 13.8,
      "Households with solar energy as main source of lighting in percentage Houselisting and Housing Census Data Tables- District Level , Census of India__1": 0.885902055,
      "Marginal Workers Agricultural Labourers worked for 0 - 3 moths during last year - Females": 33401,
      "Main Workers - Males": 1122767,
      "Female": "NA",
      "Sno": 1972,
      "Marginal Workers Other worked for 3 - 6 moths during last year - Females": 38875,
      "Marginal Workers Cultivators worked for 0 - 3 moths during last year - Females": 1817,
      "Scheduled Tribe Males": 188349,
      "Male Illiterates": 702231,
      "Prevalence of Severe Anaemia in pregnant women aged 15-49years in percentage DLHS-4": 0,
      "0-6 Age Group Persons": 511969,
      "Upper Primary Student-Classroom Ratio in percentage DISE": "NA",
      "Currently married men married below 21years of age in percentage DLHS-4": 16,
      "Male Literates": 1671556,
      "Households with no lighting in percentage Houselisting and Housing Census Data Tables- District Level , Census of India__2": 0.51586787,
      "Primary Drop Out Rate in percentage DISE": "NA",
      "Marginal Workers Household Industry - Males": 7541,
      "Female Illiterates": 938756,
      "Main Workers Other - Females": 60390,
      "Marginal Workers Cultivators - Persons": 39339,
      "Upper Primary Gross Enrolment Ratio in percentage DISE": "NA",
      "Scheduled Caste Persons": 1524133,
      "Marginal Workers Cultivators worked for 3 - 6 moths during last year - Persons": 31775,
      "Households with landline phone in percentage": 2.29,
      "Total Households in District  Houselisting and Housing Census Data Tables- District Level , Census of India": 1064226,
      "Upper Primary Pupil-Teacher Ratio in percentage DISE": "NA",
      "Primary Student-Classroom Ratio in percentage DISE": "NA",
      "Primary Schools with boys toilet in percentage DISE": "NA",
      "Mean number of children ever born to women aged 40-49years  DLHS-4": 3.1,
      "Households receiving untreated tap water within premises  Houselisting and Housing Census Data Tables- District Level , Census of India__5": 16247,
      "Marginal Workers Household Industry worked for 0 - 3 moths during last year - Persons": 7625,
      "Total Male Population": 2373787,
      "Non Workers - Females": 1833800,
      "Current use of family planning methods in percentage DLHS-4": 80,
      "Households with main source of drinking water within premises  Houselisting and Housing Census Data Tables- District Level , Census of India__3": 325149,
      "Main Workers Agricultural Labourers - Males": 457593,
      "Marginal Workers Other worked for 0 - 3 moths during last year - Persons": 21664,
      "Currently married women married below 18years of age in percentage DLHS-4": 41.4,
      "Person Illiterates": 1640987,
      "Main Workers Household Industry - Females": 20542,
      "Female Literates": 1326721,
      "Marginal Workers Cultivators worked for 0 - 3 moths during last year - Males": 5747,
      "Male": "NA",
      "Households with improved source of drinking water in percentage DLHS-4": 100,
      "Upper Primary Schools with electricity in percentage DISE": "NA",
      "Households with electricity in percentage DLHS-4": 84.4,
      "Villages with Primary Health Centre within 10km in percentage DLHS-4": "Not applicable",
      "Births to women aged 15-19years out of Total births in percentage DLHS-4": 17.9,
      "Prevalence of Anaemia in women aged 15-49years in percentage DLHS-4": 65.7,
      "Marginal Workers Agricultural Labourers worked for 3 - 6 moths during last year - Persons": 279492,
      "Main Workers Household Industry - Males": 30893,
      "Scheduled Tribe Females": 190913,
      "Marginal Workers worked for 0 - 3 moths during last year - Males": 55218,
      "Marginal Workers Other worked for 3 - 6 moths during last year - Males": 54219,
      "Primary Net Enrolment Ratio in percentage DISE": "NA",
      "Total": "NA",
      "Mean age at marriage for boys DLHS-4": 25.3,
      "Number of District Hospitals  DLHS-4": "Not applicable",
      "0-6 Age Group Females": 250974,
      "Marginal Workers Agricultural Labourers worked for 0 - 3 moths during last year - Persons": 69195,
      "Marginal Workers Household Industry worked for 0 - 3 moths during last year - Males": 1620,
      "Total Workers  Females": 431677,
      "Marginal Workers worked for 3 - 6 moths during last year - Females": 166962,
      "Institutional Deliveries in percentage DLHS-4": 77,
      "Marginal Workers Other - Males": 66276,
      "Total Workers  Males": 1437518,
      "Main Workers - Females": 213885,
      "Primary Gross Enrolment Ratio in percentage DISE": "NA",
      "Main Workers Cultivators - Persons": 284848,
      "Marginal Workers Household Industry worked for 0 - 3 moths during last year - Females": 6005,
      "Upper Primary Net Enrolment Ratio in percentage DISE": "NA",
      "Primary New Government Schools since 2003 in percentage DISE": "NA",
      "Tier": "Rural",
      "Marginal Workers Household Industry - Females": 22218,
      "Primary Schools with electricity in percentage DISE": "NA",
      "Main Workers Other - Persons": 421024,
      "Marginal Workers Household Industry worked for 3 - 6 moths during last year - Females": 16213,
      "Main Workers Cultivators - Males": 273647,
      "Main Workers Household Industry - Persons": 51435,
      "Marginal Workers Cultivators worked for 0 - 3 moths during last year - Persons": 7564,
      "Scheduled Caste Males": 776238,
      "Marginal Workers - Persons": 532543,
      "Deliveries at home conducted by skilled health personnel in percentage DLHS-4": 11.5,
      "Villages with Sub-Health Centres within 3km in percentage DLHS-4": "Not applicable",
      "Upper Primary New Government Schools since 2003 in percentage DISE": "NA",
      "0-6 Age Group Males": 260995,
      "Primary Schools with drinking water facility in percentage DISE": "NA",
      "Non Workers - Persons": 2770069,
      "Person Literates": 2998277,
      "State": "WEST BENGAL",
      "Total Female Population": 2265477,
      "Marginal Workers worked for 0 - 3 moths during last year - Persons": 106048,
      "Marginal Workers Cultivators - Females": 8466,
      "Marginal Workers Other - Persons": 114758,
      "Sex Ratio": 954,
      "Scheduled Tribe Persons": 379262,
      "Marginal Workers Household Industry worked for 3 - 6 moths during last year - Males": 5921,
      "Marginal Workers Agricultural Labourers - Females": 138626,
      "Mean age at marriage for girls DLHS-4": 17.8,
      "Households with solar energy as main source of lighting  Houselisting and Housing Census Data Tables- District Level , Census of India__4": 9428,
      "District": "BARDDHAMAN",
      "Households receiving treated tap water within premises in percentage Houselisting and Housing Census Data Tables- District Level , Census of India__1": 3.412433073,
      "Total Workers  Persons": 1869195,
      "Households receiving treated tap water within premises  Houselisting and Housing Census Data Tables- District Level , Census of India__4": 36316,
      "Primary Female Teachers in percentage DISE": "NA",
      "Number of Households": 1071561,
      "Main Workers Agricultural Labourers - Persons": 579345
    }
  ],
  "Urban": [
    {
      "Marginal Workers Agricultural Labourers - Persons": 20209,
      "Marginal Workers Other - Females": 55478,
      "Marginal Workers Other worked for 0 - 3 moths during last year - Females": 5938,
      "Upper Primary Schools with boys toilet in percentage DISE": "NA",
      "Total Population": 3078299,
      "Households with electricity as main source of lighting in percentage Houselisting and Housing Census Data Tables- District Level , Census of India": 82.6897767,
      "Primary Girl's Enrolment in percentage DISE": "NA",
      "Marginal Workers worked for 3 - 6 moths during last year - Males": 117121,
      "Prevalence of Acute illness in percentage DLHS-4": "Not available",
      "Main Workers - Persons": 830090,
      "Main Workers Cultivators - Females": 1132,
      "Marginal Workers Agricultural Labourers worked for 3 - 6 moths during last year - Females": 5007,
      "Marginal Workers Other worked for 0 - 3 moths during last year - Males": 18559,
      "Upper Primary Schools with drinking water facility in percentage DISE": "NA",
      "Primary Schools with girls toilet in percentage DISE": "NA",
      "Marginal Workers worked for 3 - 6 moths during last year - Persons": 180458,
      "Upper Primary Drop Out Rate in percentage DISE": "NA",
      "Prevalence of Anaemia in pregnant women aged 15-49years in percentage DLHS-4": "Not available",
      "Current use of any modern method of family planning in percentage DLHS-4": "Not available",
      "Marginal Workers Agricultural Labourers - Males": 13491,
      "Upper Primary Female Teachers in percentage DISE": "NA",
      "Marginal Workers - Females": 72315,
      "Marginal Workers Other worked for 3 - 6 moths during last year - Persons": 148165,
      "Main Workers Agricultural Labourers - Females": 5578,
      "Marginal Workers Cultivators worked for 3 - 6 moths during last year - Females": 2213,
      "Households with no lighting  Houselisting and Housing Census Data Tables- District Level , Census of India__5": 6148,
      "Prevalence of Severe Anaemia  in percentage DLHS-4": "Not available",
      "Total unmet need for family planning in percentage DLHS-4": "Not available",
      "Main Workers Other - Males": 664569,
      "Children who received full vaccination in percentage DLHS-4": "Not available",
      "Marginal Workers Household Industry - Persons": 13461,
      "Primary Pupil-Teacher Ratio in percentage DISE": "NA",
      "Marginal Workers Agricultural Labourers worked for 3 - 6 moths during last year - Males": 10927,
      "Scheduled Caste Females": 288240,
      "Marginal Workers Cultivators - Males": 3380,
      "Marginal Workers - Males": 139651,
      "Marginal Workers worked for 0 - 3 moths during last year - Females": 8978,
      "Households with main source of drinking water within premises in percentage Houselisting and Housing Census Data Tables- District Level , Census of India": 43.48334581,
      "Marginal Workers Household Industry worked for 3 - 6 moths during last year - Persons": 11109,
      "Upper Primary Girl's Enrolment in percentage DISE": "NA",
      "Prevalence of Severe Anaemia in women aged 15-49years in percentage DLHS-4": "Not available",
      "Marginal Workers Agricultural Labourers worked for 0 - 3 moths during last year - Males": 2564,
      "Households with electricity as main source of lighting  Houselisting and Housing Census Data Tables- District Level , Census of India__3": 530273,
      "Households with computer or laptop with internet connection in percentage": 3.98,
      "PHCs functioning on a 24x7hours basis in percentage DLHS-4": 0,
      "Non Workers - Males": 737537,
      "Total Households in District Houselisting and Housing Census Data Tables- District Level , Census of India": 641280,
      "Upper Primary Schools with girls toilet in percentage DISE": "NA",
      "Households with mobile phone in percentage": 63.39,
      "Households receiving untreated tap water within premises in percentage Houselisting and Housing Census Data Tables- District Level , Census of India__2": 1.202282934,
      "Marginal Workers Cultivators worked for 3 - 6 moths during last year - Males": 3037,
      "Prevalence of Anaemia  in percentage DLHS-4": "Not available",
      "Prevalence of Chronic illness in percentage DLHS-4": "Not available",
      "Households with solar energy as main source of lighting in percentage Houselisting and Housing Census Data Tables- District Level , Census of India__1": 1.163766218,
      "Marginal Workers Agricultural Labourers worked for 0 - 3 moths during last year - Females": 1711,
      "Main Workers - Males": 715914,
      "Female": "NA",
      "Sno": 1974,
      "Marginal Workers Other worked for 3 - 6 moths during last year - Females": 49540,
      "Marginal Workers Cultivators worked for 0 - 3 moths during last year - Females": 41,
      "Scheduled Tribe Males": 55232,
      "Male Illiterates": 346618,
      "Prevalence of Severe Anaemia in pregnant women aged 15-49years in percentage DLHS-4": "Not available",
      "0-6 Age Group Persons": 320064,
      "Upper Primary Student-Classroom Ratio in percentage DISE": "NA",
      "Currently married men married below 21years of age in percentage DLHS-4": "Not available",
      "Male Literates": 1246484,
      "Households with no lighting in percentage Houselisting and Housing Census Data Tables- District Level , Census of India__2": 0.958707585,
      "Primary Drop Out Rate in percentage DISE": "NA",
      "Marginal Workers Household Industry - Males": 5596,
      "Female Illiterates": 482750,
      "Main Workers Other - Females": 98332,
      "Marginal Workers Cultivators - Persons": 5634,
      "Upper Primary Gross Enrolment Ratio in percentage DISE": "NA",
      "Scheduled Caste Persons": 591586,
      "Marginal Workers Cultivators worked for 3 - 6 moths during last year - Persons": 5250,
      "Households with landline phone in percentage": 3.48,
      "Total Households in District  Houselisting and Housing Census Data Tables- District Level , Census of India": 641280,
      "Upper Primary Pupil-Teacher Ratio in percentage DISE": "NA",
      "Primary Student-Classroom Ratio in percentage DISE": "NA",
      "Primary Schools with boys toilet in percentage DISE": "NA",
      "Mean number of children ever born to women aged 40-49years  DLHS-4": "Not available",
      "Households receiving untreated tap water within premises  Houselisting and Housing Census Data Tables- District Level , Census of India__5": 7710,
      "Marginal Workers Household Industry worked for 0 - 3 moths during last year - Persons": 2352,
      "Total Male Population": 1593102,
      "Non Workers - Females": 1298706,
      "Current use of family planning methods in percentage DLHS-4": "Not available",
      "Households with main source of drinking water within premises  Houselisting and Housing Census Data Tables- District Level , Census of India__3": 278850,
      "Main Workers Agricultural Labourers - Males": 19363,
      "Marginal Workers Other worked for 0 - 3 moths during last year - Persons": 24497,
      "Currently married women married below 18years of age in percentage DLHS-4": "Not available",
      "Person Illiterates": 829368,
      "Main Workers Household Industry - Females": 9134,
      "Female Literates": 1002447,
      "Marginal Workers Cultivators worked for 0 - 3 moths during last year - Males": 343,
      "Male": "NA",
      "Households with improved source of drinking water in percentage DLHS-4": "Not available",
      "Upper Primary Schools with electricity in percentage DISE": "NA",
      "Households with electricity in percentage DLHS-4": "Not available",
      "Villages with Primary Health Centre within 10km in percentage DLHS-4": 0,
      "Births to women aged 15-19years out of Total births in percentage DLHS-4": "Not available",
      "Prevalence of Anaemia in women aged 15-49years in percentage DLHS-4": "Not available",
      "Marginal Workers Agricultural Labourers worked for 3 - 6 moths during last year - Persons": 15934,
      "Main Workers Household Industry - Males": 20769,
      "Scheduled Tribe Females": 54953,
      "Marginal Workers worked for 0 - 3 moths during last year - Males": 22530,
      "Marginal Workers Other worked for 3 - 6 moths during last year - Males": 98625,
      "Primary Net Enrolment Ratio in percentage DISE": "NA",
      "Total": "NA",
      "Mean age at marriage for boys DLHS-4": "Not available",
      "Number of District Hospitals  DLHS-4": 0,
      "0-6 Age Group Females": 154674,
      "Marginal Workers Agricultural Labourers worked for 0 - 3 moths during last year - Persons": 4275,
      "Marginal Workers Household Industry worked for 0 - 3 moths during last year - Males": 1064,
      "Total Workers  Females": 186491,
      "Marginal Workers worked for 3 - 6 moths during last year - Females": 63337,
      "Institutional Deliveries in percentage DLHS-4": "Not available",
      "Marginal Workers Other - Males": 117184,
      "Total Workers  Males": 855565,
      "Main Workers - Females": 114176,
      "Primary Gross Enrolment Ratio in percentage DISE": "NA",
      "Main Workers Cultivators - Persons": 12345,
      "Marginal Workers Household Industry worked for 0 - 3 moths during last year - Females": 1288,
      "Upper Primary Net Enrolment Ratio in percentage DISE": "NA",
      "Primary New Government Schools since 2003 in percentage DISE": "NA",
      "Tier": "Urban",
      "Marginal Workers Household Industry - Females": 7865,
      "Primary Schools with electricity in percentage DISE": "NA",
      "Main Workers Other - Persons": 762901,
      "Marginal Workers Household Industry worked for 3 - 6 moths during last year - Females": 6577,
      "Main Workers Cultivators - Males": 11213,
      "Main Workers Household Industry - Persons": 29903,
      "Marginal Workers Cultivators worked for 0 - 3 moths during last year - Persons": 384,
      "Scheduled Caste Males": 303346,
      "Marginal Workers - Persons": 211966,
      "Deliveries at home conducted by skilled health personnel in percentage DLHS-4": "Not available",
      "Villages with Sub-Health Centres within 3km in percentage DLHS-4": 0,
      "Upper Primary New Government Schools since 2003 in percentage DISE": "NA",
      "0-6 Age Group Males": 165390,
      "Primary Schools with drinking water facility in percentage DISE": "NA",
      "Non Workers - Persons": 2036243,
      "Person Literates": 2248931,
      "State": "WEST BENGAL",
      "Total Female Population": 1485197,
      "Marginal Workers worked for 0 - 3 moths during last year - Persons": 31508,
      "Marginal Workers Cultivators - Females": 2254,
      "Marginal Workers Other - Persons": 172662,
      "Sex Ratio": 932,
      "Scheduled Tribe Persons": 110185,
      "Marginal Workers Household Industry worked for 3 - 6 moths during last year - Males": 4532,
      "Marginal Workers Agricultural Labourers - Females": 6718,
      "Mean age at marriage for girls DLHS-4": "Not available",
      "Households with solar energy as main source of lighting  Houselisting and Housing Census Data Tables- District Level , Census of India__4": 7463,
      "District": "BARDDHAMAN",
      "Households receiving treated tap water within premises in percentage Houselisting and Housing Census Data Tables- District Level , Census of India__1": 26.50464696,
      "Total Workers  Persons": 1042056,
      "Households receiving treated tap water within premises  Houselisting and Housing Census Data Tables- District Level , Census of India__4": 169969,
      "Primary Female Teachers in percentage DISE": "NA",
      "Number of Households": 659366,
      "Main Workers Agricultural Labourers - Persons": 24941
    }
  ]
}