{
  "Total": [
    {
      "Marginal Workers Agricultural Labourers - Persons": 260841,
      "Marginal Workers Other - Females": 40404,
      "Marginal Workers Other worked for 0 - 3 moths during last year - Females": 9951,
      "Upper Primary Schools with boys toilet in percentage DISE": 71.1,
      "Total Population": 3502404,
      "Households with electricity as main source of lighting in percentage Houselisting and Housing Census Data Tables- District Level , Census of India": 41.05422939,
      "Primary Girl's Enrolment in percentage DISE": 48.3,
      "Marginal Workers worked for 3 - 6 moths during last year - Males": 196503,
      "Prevalence of Acute illness in percentage DLHS-4": 21,
      "Main Workers - Persons": 912844,
      "Main Workers Cultivators - Females": 9699,
      "Marginal Workers Agricultural Labourers worked for 3 - 6 moths during last year - Females": 71070,
      "Marginal Workers Other worked for 0 - 3 moths during last year - Males": 9846,
      "Upper Primary Schools with drinking water facility in percentage DISE": 97.4,
      "Primary Schools with girls toilet in percentage DISE": 69.1,
      "Marginal Workers worked for 3 - 6 moths during last year - Persons": 321521,
      "Upper Primary Drop Out Rate in percentage DISE": 4.45,
      "Prevalence of Anaemia in pregnant women aged 15-49years in percentage DLHS-4": 22.1,
      "Current use of any modern method of family planning in percentage DLHS-4": 63.2,
      "Marginal Workers Agricultural Labourers - Males": 159244,
      "Upper Primary Female Teachers in percentage DISE": 19,
      "Marginal Workers - Females": 174637,
      "Marginal Workers Other worked for 3 - 6 moths during last year - Persons": 71508,
      "Main Workers Agricultural Labourers - Females": 48573,
      "Marginal Workers Cultivators worked for 3 - 6 moths during last year - Females": 5167,
      "Households with no lighting  Houselisting and Housing Census Data Tables- District Level , Census of India__5": 4483,
      "Prevalence of Severe Anaemia  in percentage DLHS-4": 3.6,
      "Total unmet need for family planning in percentage DLHS-4": 15.9,
      "Main Workers Other - Males": 283318,
      "Children who received full vaccination in percentage DLHS-4": 67,
      "Marginal Workers Household Industry - Persons": 31020,
      "Primary Pupil-Teacher Ratio in percentage DISE": 24,
      "Marginal Workers Agricultural Labourers worked for 3 - 6 moths during last year - Males": 128176,
      "Scheduled Caste Females": 504139,
      "Marginal Workers Cultivators - Males": 28244,
      "Marginal Workers - Males": 244122,
      "Marginal Workers worked for 0 - 3 moths during last year - Females": 49619,
      "Households with main source of drinking water within premises in percentage Houselisting and Housing Census Data Tables- District Level , Census of India": 17.29913378,
      "Marginal Workers Household Industry worked for 3 - 6 moths during last year - Persons": 22665,
      "Upper Primary Girl's Enrolment in percentage DISE": 53,
      "Prevalence of Severe Anaemia in women aged 15-49years in percentage DLHS-4": 3.1,
      "Marginal Workers Agricultural Labourers worked for 0 - 3 moths during last year - Males": 31068,
      "Households with electricity as main source of lighting  Houselisting and Housing Census Data Tables- District Level , Census of India__3": 333752,
      "Households with computer or laptop with internet connection in percentage": 0.64,
      "PHCs functioning on a 24x7hours basis in percentage DLHS-4": 18.2,
      "Non Workers - Males": 761150,
      "Total Households in District Houselisting and Housing Census Data Tables- District Level , Census of India": 812954,
      "Upper Primary Schools with girls toilet in percentage DISE": 72.8,
      "Households with mobile phone in percentage": 29.33,
      "Households receiving untreated tap water within premises in percentage Houselisting and Housing Census Data Tables- District Level , Census of India__2": 0.490802678,
      "Marginal Workers Cultivators worked for 3 - 6 moths during last year - Males": 22935,
      "Prevalence of Anaemia  in percentage DLHS-4": 90.4,
      "Prevalence of Chronic illness in percentage DLHS-4": 14.2,
      "Households with solar energy as main source of lighting in percentage Houselisting and Housing Census Data Tables- District Level , Census of India__1": 0.70877319,
      "Marginal Workers Agricultural Labourers worked for 0 - 3 moths during last year - Females": 30527,
      "Main Workers - Males": 785648,
      "Female": 64.14,
      "Sno": 1976,
      "Marginal Workers Other worked for 3 - 6 moths during last year - Females": 30453,
      "Marginal Workers Cultivators worked for 0 - 3 moths during last year - Females": 2182,
      "Scheduled Tribe Males": 119787,
      "Male Illiterates": 589439,
      "Prevalence of Severe Anaemia in pregnant women aged 15-49years in percentage DLHS-4": 6.3,
      "0-6 Age Group Persons": 448485,
      "Upper Primary Student-Classroom Ratio in percentage DISE": 44,
      "Currently married men married below 21years of age in percentage DLHS-4": 25.7,
      "Male Literates": 1201481,
      "Households with no lighting in percentage Houselisting and Housing Census Data Tables- District Level , Census of India__2": 0.551445715,
      "Primary Drop Out Rate in percentage DISE": 4.7,
      "Marginal Workers Household Industry - Males": 5733,
      "Female Illiterates": 754518,
      "Main Workers Other - Females": 53154,
      "Marginal Workers Cultivators - Persons": 35593,
      "Upper Primary Gross Enrolment Ratio in percentage DISE": 92.9,
      "Scheduled Caste Persons": 1033140,
      "Marginal Workers Cultivators worked for 3 - 6 moths during last year - Persons": 28102,
      "Households with landline phone in percentage": 1.58,
      "Total Households in District  Houselisting and Housing Census Data Tables- District Level , Census of India": 812954,
      "Upper Primary Pupil-Teacher Ratio in percentage DISE": 36,
      "Primary Student-Classroom Ratio in percentage DISE": 24,
      "Primary Schools with boys toilet in percentage DISE": 87,
      "Mean number of children ever born to women aged 40-49years  DLHS-4": 2.8,
      "Households receiving untreated tap water within premises  Houselisting and Housing Census Data Tables- District Level , Census of India__5": 3990,
      "Marginal Workers Household Industry worked for 0 - 3 moths during last year - Persons": 8355,
      "Total Male Population": 1790920,
      "Non Workers - Females": 1409651,
      "Current use of family planning methods in percentage DLHS-4": 69.1,
      "Households with main source of drinking water within premises  Houselisting and Housing Census Data Tables- District Level , Census of India__3": 140634,
      "Main Workers Agricultural Labourers - Males": 302096,
      "Marginal Workers Other worked for 0 - 3 moths during last year - Persons": 19797,
      "Currently married women married below 18years of age in percentage DLHS-4": 35.2,
      "Person Illiterates": 1343957,
      "Main Workers Household Industry - Females": 15770,
      "Female Literates": 956966,
      "Marginal Workers Cultivators worked for 0 - 3 moths during last year - Males": 5309,
      "Male": 76.92,
      "Households with improved source of drinking water in percentage DLHS-4": 96.9,
      "Upper Primary Schools with electricity in percentage DISE": 32.3,
      "Households with electricity in percentage DLHS-4": 93.3,
      "Villages with Primary Health Centre within 10km in percentage DLHS-4": 92,
      "Births to women aged 15-19years out of Total births in percentage DLHS-4": 12.8,
      "Prevalence of Anaemia in women aged 15-49years in percentage DLHS-4": 80,
      "Marginal Workers Agricultural Labourers worked for 3 - 6 moths during last year - Persons": 199246,
      "Main Workers Household Industry - Males": 18272,
      "Scheduled Tribe Females": 122697,
      "Marginal Workers worked for 0 - 3 moths during last year - Males": 47619,
      "Marginal Workers Other worked for 3 - 6 moths during last year - Males": 41055,
      "Primary Net Enrolment Ratio in percentage DISE": 96.9,
      "Total": 70.68,
      "Mean age at marriage for boys DLHS-4": 23.9,
      "Number of District Hospitals  DLHS-4": 1,
      "0-6 Age Group Females": 219576,
      "Marginal Workers Agricultural Labourers worked for 0 - 3 moths during last year - Persons": 61595,
      "Marginal Workers Household Industry worked for 0 - 3 moths during last year - Males": 1396,
      "Total Workers  Females": 301833,
      "Marginal Workers worked for 3 - 6 moths during last year - Females": 125018,
      "Institutional Deliveries in percentage DLHS-4": 78.3,
      "Marginal Workers Other - Males": 50901,
      "Total Workers  Males": 1029770,
      "Main Workers - Females": 127196,
      "Primary Gross Enrolment Ratio in percentage DISE": 105.2,
      "Main Workers Cultivators - Persons": 191661,
      "Marginal Workers Household Industry worked for 0 - 3 moths during last year - Females": 6959,
      "Upper Primary Net Enrolment Ratio in percentage DISE": 71.3,
      "Primary New Government Schools since 2003 in percentage DISE": 5.5,
      "Tier": "Total",
      "Marginal Workers Household Industry - Females": 25287,
      "Primary Schools with electricity in percentage DISE": 34.2,
      "Main Workers Other - Persons": 336472,
      "Marginal Workers Household Industry worked for 3 - 6 moths during last year - Females": 18328,
      "Main Workers Cultivators - Males": 181962,
      "Main Workers Household Industry - Persons": 34042,
      "Marginal Workers Cultivators worked for 0 - 3 moths during last year - Persons": 7491,
      "Scheduled Caste Males": 529001,
      "Marginal Workers - Persons": 418759,
      "Deliveries at home conducted by skilled health personnel in percentage DLHS-4": 5.4,
      "Villages with Sub-Health Centres within 3km in percentage DLHS-4": 100,
      "Upper Primary New Government Schools since 2003 in percentage DISE": 87.1,
      "0-6 Age Group Males": 228909,
      "Primary Schools with drinking water facility in percentage DISE": 98.4,
      "Non Workers - Persons": 2170801,
      "Person Literates": 2158447,
      "State": "WEST BENGAL",
      "Total Female Population": 1711484,
      "Marginal Workers worked for 0 - 3 moths during last year - Persons": 97238,
      "Marginal Workers Cultivators - Females": 7349,
      "Marginal Workers Other - Persons": 91305,
      "Sex Ratio": 956,
      "Scheduled Tribe Persons": 242484,
      "Marginal Workers Household Industry worked for 3 - 6 moths during last year - Males": 4337,
      "Marginal Workers Agricultural Labourers - Females": 101597,
      "Mean age at marriage for girls DLHS-4": 18.5,
      "Households with solar energy as main source of lighting  Houselisting and Housing Census Data Tables- District Level , Census of India__4": 5762,
      "District": "BIRBHUM",
      "Households receiving treated tap water within premises in percentage Houselisting and Housing Census Data Tables- District Level , Census of India__1": 3.143474293,
      "Total Workers  Persons": 1331603,
      "Households receiving treated tap water within premises  Houselisting and Housing Census Data Tables- District Level , Census of India__4": 25555,
      "Primary Female Teachers in percentage DISE": 33.9,
      "Number of Households": 817899,
      "Main Workers Agricultural Labourers - Persons": 350669
    }
  ],
  "Rural": [
    {
      "Marginal Workers Agricultural Labourers - Persons": 255871,
      "Marginal Workers Other - Females": 34029,
      "Marginal Workers Other worked for 0 - 3 moths during last year - Females": 8980,
      "Upper Primary Schools with boys toilet in percentage DISE": "NA",
      "Total Population": 3052956,
      "Households with electricity as main source of lighting in percentage Houselisting and Housing Census Data Tables- District Level , Census of India": 36.61274176,
      "Primary Girl's Enrolment in percentage DISE": "NA",
      "Marginal Workers worked for 3 - 6 moths during last year - Males": 185336,
      "Prevalence of Acute illness in percentage DLHS-4": 24.6,
      "Main Workers - Persons": 773482,
      "Main Workers Cultivators - Females": 9554,
      "Marginal Workers Agricultural Labourers worked for 3 - 6 moths during last year - Females": 69982,
      "Marginal Workers Other worked for 0 - 3 moths during last year - Males": 8347,
      "Upper Primary Schools with drinking water facility in percentage DISE": "NA",
      "Primary Schools with girls toilet in percentage DISE": "NA",
      "Marginal Workers worked for 3 - 6 moths during last year - Persons": 301919,
      "Upper Primary Drop Out Rate in percentage DISE": "NA",
      "Prevalence of Anaemia in pregnant women aged 15-49years in percentage DLHS-4": 14.3,
      "Current use of any modern method of family planning in percentage DLHS-4": 67.9,
      "Marginal Workers Agricultural Labourers - Males": 155854,
      "Upper Primary Female Teachers in percentage DISE": "NA",
      "Marginal Workers - Females": 164342,
      "Marginal Workers Other worked for 3 - 6 moths during last year - Persons": 58740,
      "Main Workers Agricultural Labourers - Females": 47850,
      "Marginal Workers Cultivators worked for 3 - 6 moths during last year - Females": 4978,
      "Households with no lighting  Houselisting and Housing Census Data Tables- District Level , Census of India__5": 3704,
      "Prevalence of Severe Anaemia  in percentage DLHS-4": 2.7,
      "Total unmet need for family planning in percentage DLHS-4": 14.9,
      "Main Workers Other - Males": 181569,
      "Children who received full vaccination in percentage DLHS-4": 73.7,
      "Marginal Workers Household Industry - Persons": 28229,
      "Primary Pupil-Teacher Ratio in percentage DISE": "NA",
      "Marginal Workers Agricultural Labourers worked for 3 - 6 moths during last year - Males": 125351,
      "Scheduled Caste Females": 455153,
      "Marginal Workers Cultivators - Males": 27697,
      "Marginal Workers - Males": 230667,
      "Marginal Workers worked for 0 - 3 moths during last year - Females": 47759,
      "Households with main source of drinking water within premises in percentage Houselisting and Housing Census Data Tables- District Level , Census of India": 14.67529765,
      "Marginal Workers Household Industry worked for 3 - 6 moths during last year - Persons": 20396,
      "Upper Primary Girl's Enrolment in percentage DISE": "NA",
      "Prevalence of Severe Anaemia in women aged 15-49years in percentage DLHS-4": 3.8,
      "Marginal Workers Agricultural Labourers worked for 0 - 3 moths during last year - Males": 30503,
      "Households with electricity as main source of lighting  Houselisting and Housing Census Data Tables- District Level , Census of India__3": 260403,
      "Households with computer or laptop with internet connection in percentage": 0.33,
      "PHCs functioning on a 24x7hours basis in percentage DLHS-4": "Not applicable",
      "Non Workers - Males": 660806,
      "Total Households in District Houselisting and Housing Census Data Tables- District Level , Census of India": 711236,
      "Upper Primary Schools with girls toilet in percentage DISE": "NA",
      "Households with mobile phone in percentage": 26.2,
      "Households receiving untreated tap water within premises in percentage Houselisting and Housing Census Data Tables- District Level , Census of India__2": 0.427565534,
      "Marginal Workers Cultivators worked for 3 - 6 moths during last year - Males": 22472,
      "Prevalence of Anaemia  in percentage DLHS-4": 95.5,
      "Prevalence of Chronic illness in percentage DLHS-4": 13.8,
      "Households with solar energy as main source of lighting in percentage Houselisting and Housing Census Data Tables- District Level , Census of India__1": 0.713265358,
      "Marginal Workers Agricultural Labourers worked for 0 - 3 moths during last year - Females": 30035,
      "Main Workers - Males": 670503,
      "Female": "NA",
      "Sno": 1975,
      "Marginal Workers Other worked for 3 - 6 moths during last year - Females": 25049,
      "Marginal Workers Cultivators worked for 0 - 3 moths during last year - Females": 2167,
      "Scheduled Tribe Males": 115022,
      "Male Illiterates": 536315,
      "Prevalence of Severe Anaemia in pregnant women aged 15-49years in percentage DLHS-4": 4.8,
      "0-6 Age Group Persons": 401237,
      "Upper Primary Student-Classroom Ratio in percentage DISE": "NA",
      "Currently married men married below 21years of age in percentage DLHS-4": 35.7,
      "Male Literates": 1025661,
      "Households with no lighting in percentage Houselisting and Housing Census Data Tables- District Level , Census of India__2": 0.520783537,
      "Primary Drop Out Rate in percentage DISE": "NA",
      "Marginal Workers Household Industry - Males": 5078,
      "Female Illiterates": 684275,
      "Main Workers Other - Females": 33247,
      "Marginal Workers Cultivators - Persons": 34842,
      "Upper Primary Gross Enrolment Ratio in percentage DISE": "NA",
      "Scheduled Caste Persons": 934054,
      "Marginal Workers Cultivators worked for 3 - 6 moths during last year - Persons": 27450,
      "Households with landline phone in percentage": 1.37,
      "Total Households in District  Houselisting and Housing Census Data Tables- District Level , Census of India": 711236,
      "Upper Primary Pupil-Teacher Ratio in percentage DISE": "NA",
      "Primary Student-Classroom Ratio in percentage DISE": "NA",
      "Primary Schools with boys toilet in percentage DISE": "NA",
      "Mean number of children ever born to women aged 40-49years  DLHS-4": 3.2,
      "Households receiving untreated tap water within premises  Houselisting and Housing Census Data Tables- District Level , Census of India__5": 3041,
      "Marginal Workers Household Industry worked for 0 - 3 moths during last year - Persons": 7833,
      "Total Male Population": 1561976,
      "Non Workers - Females": 1223659,
      "Current use of family planning methods in percentage DLHS-4": 71.8,
      "Households with main source of drinking water within premises  Houselisting and Housing Census Data Tables- District Level , Census of India__3": 104376,
      "Main Workers Agricultural Labourers - Males": 295907,
      "Marginal Workers Other worked for 0 - 3 moths during last year - Persons": 17327,
      "Currently married women married below 18years of age in percentage DLHS-4": 47,
      "Person Illiterates": 1220590,
      "Main Workers Household Industry - Females": 12328,
      "Female Literates": 806705,
      "Marginal Workers Cultivators worked for 0 - 3 moths during last year - Males": 5225,
      "Male": "NA",
      "Households with improved source of drinking water in percentage DLHS-4": 95.3,
      "Upper Primary Schools with electricity in percentage DISE": "NA",
      "Households with electricity in percentage DLHS-4": 89.1,
      "Villages with Primary Health Centre within 10km in percentage DLHS-4": "Not applicable",
      "Births to women aged 15-19years out of Total births in percentage DLHS-4": 13.9,
      "Prevalence of Anaemia in women aged 15-49years in percentage DLHS-4": 82.2,
      "Marginal Workers Agricultural Labourers worked for 3 - 6 moths during last year - Persons": 195333,
      "Main Workers Household Industry - Males": 14001,
      "Scheduled Tribe Females": 117644,
      "Marginal Workers worked for 0 - 3 moths during last year - Males": 45331,
      "Marginal Workers Other worked for 3 - 6 moths during last year - Males": 33691,
      "Primary Net Enrolment Ratio in percentage DISE": "NA",
      "Total": "NA",
      "Mean age at marriage for boys DLHS-4": 21.9,
      "Number of District Hospitals  DLHS-4": "Not applicable",
      "0-6 Age Group Females": 196760,
      "Marginal Workers Agricultural Labourers worked for 0 - 3 moths during last year - Persons": 60538,
      "Marginal Workers Household Industry worked for 0 - 3 moths during last year - Males": 1256,
      "Total Workers  Females": 267321,
      "Marginal Workers worked for 3 - 6 moths during last year - Females": 116583,
      "Institutional Deliveries in percentage DLHS-4": 66.5,
      "Marginal Workers Other - Males": 42038,
      "Total Workers  Males": 901170,
      "Main Workers - Females": 102979,
      "Primary Gross Enrolment Ratio in percentage DISE": "NA",
      "Main Workers Cultivators - Persons": 188580,
      "Marginal Workers Household Industry worked for 0 - 3 moths during last year - Females": 6577,
      "Upper Primary Net Enrolment Ratio in percentage DISE": "NA",
      "Primary New Government Schools since 2003 in percentage DISE": "NA",
      "Tier": "Rural",
      "Marginal Workers Household Industry - Females": 23151,
      "Primary Schools with electricity in percentage DISE": "NA",
      "Main Workers Other - Persons": 214816,
      "Marginal Workers Household Industry worked for 3 - 6 moths during last year - Females": 16574,
      "Main Workers Cultivators - Males": 179026,
      "Main Workers Household Industry - Persons": 26329,
      "Marginal Workers Cultivators worked for 0 - 3 moths during last year - Persons": 7392,
      "Scheduled Caste Males": 478901,
      "Marginal Workers - Persons": 395009,
      "Deliveries at home conducted by skilled health personnel in percentage DLHS-4": 7.6,
      "Villages with Sub-Health Centres within 3km in percentage DLHS-4": "Not applicable",
      "Upper Primary New Government Schools since 2003 in percentage DISE": "NA",
      "0-6 Age Group Males": 204477,
      "Primary Schools with drinking water facility in percentage DISE": "NA",
      "Non Workers - Persons": 1884465,
      "Person Literates": 1832366,
      "State": "WEST BENGAL",
      "Total Female Population": 1490980,
      "Marginal Workers worked for 0 - 3 moths during last year - Persons": 93090,
      "Marginal Workers Cultivators - Females": 7145,
      "Marginal Workers Other - Persons": 76067,
      "Sex Ratio": 955,
      "Scheduled Tribe Persons": 232666,
      "Marginal Workers Household Industry worked for 3 - 6 moths during last year - Males": 3822,
      "Marginal Workers Agricultural Labourers - Females": 100017,
      "Mean age at marriage for girls DLHS-4": 19.6,
      "Households with solar energy as main source of lighting  Houselisting and Housing Census Data Tables- District Level , Census of India__4": 5073,
      "District": "BIRBHUM",
      "Households receiving treated tap water within premises in percentage Houselisting and Housing Census Data Tables- District Level , Census of India__1": 1.248530727,
      "Total Workers  Persons": 1168491,
      "Households receiving treated tap water within premises  Houselisting and Housing Census Data Tables- District Level , Census of India__4": 8880,
      "Primary Female Teachers in percentage DISE": "NA",
      "Number of Households": 715476,
      "Main Workers Agricultural Labourers - Persons": 343757
    }
  ],
  "Urban": [
    {
      "Marginal Workers Agricultural Labourers - Persons": 4970,
      "Marginal Workers Other - Females": 6375,
      "Marginal Workers Other worked for 0 - 3 moths during last year - Females": 971,
      "Upper Primary Schools with boys toilet in percentage DISE": "NA",
      "Total Population": 449448,
      "Households with electricity as main source of lighting in percentage Houselisting and Housing Census Data Tables- District Level , Census of India": 72.11014766,
      "Primary Girl's Enrolment in percentage DISE": "NA",
      "Marginal Workers worked for 3 - 6 moths during last year - Males": 11167,
      "Prevalence of Acute illness in percentage DLHS-4": "Not available",
      "Main Workers - Persons": 139362,
      "Main Workers Cultivators - Females": 145,
      "Marginal Workers Agricultural Labourers worked for 3 - 6 moths during last year - Females": 1088,
      "Marginal Workers Other worked for 0 - 3 moths during last year - Males": 1499,
      "Upper Primary Schools with drinking water facility in percentage DISE": "NA",
      "Primary Schools with girls toilet in percentage DISE": "NA",
      "Marginal Workers worked for 3 - 6 moths during last year - Persons": 19602,
      "Upper Primary Drop Out Rate in percentage DISE": "NA",
      "Prevalence of Anaemia in pregnant women aged 15-49years in percentage DLHS-4": "Not available",
      "Current use of any modern method of family planning in percentage DLHS-4": "Not available",
      "Marginal Workers Agricultural Labourers - Males": 3390,
      "Upper Primary Female Teachers in percentage DISE": "NA",
      "Marginal Workers - Females": 10295,
      "Marginal Workers Other worked for 3 - 6 moths during last year - Persons": 12768,
      "Main Workers Agricultural Labourers - Females": 723,
      "Marginal Workers Cultivators worked for 3 - 6 moths during last year - Females": 189,
      "Households with no lighting  Houselisting and Housing Census Data Tables- District Level , Census of India__5": 779,
      "Prevalence of Severe Anaemia  in percentage DLHS-4": "Not available",
      "Total unmet need for family planning in percentage DLHS-4": "Not available",
      "Main Workers Other - Males": 101749,
      "Children who received full vaccination in percentage DLHS-4": "Not available",
      "Marginal Workers Household Industry - Persons": 2791,
      "Primary Pupil-Teacher Ratio in percentage DISE": "NA",
      "Marginal Workers Agricultural Labourers worked for 3 - 6 moths during last year - Males": 2825,
      "Scheduled Caste Females": 48986,
      "Marginal Workers Cultivators - Males": 547,
      "Marginal Workers - Males": 13455,
      "Marginal Workers worked for 0 - 3 moths during last year - Females": 1860,
      "Households with main source of drinking water within premises in percentage Houselisting and Housing Census Data Tables- District Level , Census of India": 35.64560845,
      "Marginal Workers Household Industry worked for 3 - 6 moths during last year - Persons": 2269,
      "Upper Primary Girl's Enrolment in percentage DISE": "NA",
      "Prevalence of Severe Anaemia in women aged 15-49years in percentage DLHS-4": "Not available",
      "Marginal Workers Agricultural Labourers worked for 0 - 3 moths during last year - Males": 565,
      "Households with electricity as main source of lighting  Houselisting and Housing Census Data Tables- District Level , Census of India__3": 73349,
      "Households with computer or laptop with internet connection in percentage": 2.83,
      "PHCs functioning on a 24x7hours basis in percentage DLHS-4": 0,
      "Non Workers - Males": 100344,
      "Total Households in District Houselisting and Housing Census Data Tables- District Level , Census of India": 101718,
      "Upper Primary Schools with girls toilet in percentage DISE": "NA",
      "Households with mobile phone in percentage": 51.24,
      "Households receiving untreated tap water within premises in percentage Houselisting and Housing Census Data Tables- District Level , Census of India__2": 0.932971549,
      "Marginal Workers Cultivators worked for 3 - 6 moths during last year - Males": 463,
      "Prevalence of Anaemia  in percentage DLHS-4": "Not available",
      "Prevalence of Chronic illness in percentage DLHS-4": "Not available",
      "Households with solar energy as main source of lighting in percentage Houselisting and Housing Census Data Tables- District Level , Census of India__1": 0.677362905,
      "Marginal Workers Agricultural Labourers worked for 0 - 3 moths during last year - Females": 492,
      "Main Workers - Males": 115145,
      "Female": "NA",
      "Sno": 1977,
      "Marginal Workers Other worked for 3 - 6 moths during last year - Females": 5404,
      "Marginal Workers Cultivators worked for 0 - 3 moths during last year - Females": 15,
      "Scheduled Tribe Males": 4765,
      "Male Illiterates": 53124,
      "Prevalence of Severe Anaemia in pregnant women aged 15-49years in percentage DLHS-4": "Not available",
      "0-6 Age Group Persons": 47248,
      "Upper Primary Student-Classroom Ratio in percentage DISE": "NA",
      "Currently married men married below 21years of age in percentage DLHS-4": "Not available",
      "Male Literates": 175820,
      "Households with no lighting in percentage Houselisting and Housing Census Data Tables- District Level , Census of India__2": 0.76584282,
      "Primary Drop Out Rate in percentage DISE": "NA",
      "Marginal Workers Household Industry - Males": 655,
      "Female Illiterates": 70243,
      "Main Workers Other - Females": 19907,
      "Marginal Workers Cultivators - Persons": 751,
      "Upper Primary Gross Enrolment Ratio in percentage DISE": "NA",
      "Scheduled Caste Persons": 99086,
      "Marginal Workers Cultivators worked for 3 - 6 moths during last year - Persons": 652,
      "Households with landline phone in percentage": 3.06,
      "Total Households in District  Houselisting and Housing Census Data Tables- District Level , Census of India": 101718,
      "Upper Primary Pupil-Teacher Ratio in percentage DISE": "NA",
      "Primary Student-Classroom Ratio in percentage DISE": "NA",
      "Primary Schools with boys toilet in percentage DISE": "NA",
      "Mean number of children ever born to women aged 40-49years  DLHS-4": "Not available",
      "Households receiving untreated tap water within premises  Houselisting and Housing Census Data Tables- District Level , Census of India__5": 949,
      "Marginal Workers Household Industry worked for 0 - 3 moths during last year - Persons": 522,
      "Total Male Population": 228944,
      "Non Workers - Females": 185992,
      "Current use of family planning methods in percentage DLHS-4": "Not available",
      "Households with main source of drinking water within premises  Houselisting and Housing Census Data Tables- District Level , Census of India__3": 36258,
      "Main Workers Agricultural Labourers - Males": 6189,
      "Marginal Workers Other worked for 0 - 3 moths during last year - Persons": 2470,
      "Currently married women married below 18years of age in percentage DLHS-4": "Not available",
      "Person Illiterates": 123367,
      "Main Workers Household Industry - Females": 3442,
      "Female Literates": 150261,
      "Marginal Workers Cultivators worked for 0 - 3 moths during last year - Males": 84,
      "Male": "NA",
      "Households with improved source of drinking water in percentage DLHS-4": "Not available",
      "Upper Primary Schools with electricity in percentage DISE": "NA",
      "Households with electricity in percentage DLHS-4": "Not available",
      "Villages with Primary Health Centre within 10km in percentage DLHS-4": 0,
      "Births to women aged 15-19years out of Total births in percentage DLHS-4": "Not available",
      "Prevalence of Anaemia in women aged 15-49years in percentage DLHS-4": "Not available",
      "Marginal Workers Agricultural Labourers worked for 3 - 6 moths during last year - Persons": 3913,
      "Main Workers Household Industry - Males": 4271,
      "Scheduled Tribe Females": 5053,
      "Marginal Workers worked for 0 - 3 moths during last year - Males": 2288,
      "Marginal Workers Other worked for 3 - 6 moths during last year - Males": 7364,
      "Primary Net Enrolment Ratio in percentage DISE": "NA",
      "Total": "NA",
      "Mean age at marriage for boys DLHS-4": "Not available",
      "Number of District Hospitals  DLHS-4": 0,
      "0-6 Age Group Females": 22816,
      "Marginal Workers Agricultural Labourers worked for 0 - 3 moths during last year - Persons": 1057,
      "Marginal Workers Household Industry worked for 0 - 3 moths during last year - Males": 140,
      "Total Workers  Females": 34512,
      "Marginal Workers worked for 3 - 6 moths during last year - Females": 8435,
      "Institutional Deliveries in percentage DLHS-4": "Not available",
      "Marginal Workers Other - Males": 8863,
      "Total Workers  Males": 128600,
      "Main Workers - Females": 24217,
      "Primary Gross Enrolment Ratio in percentage DISE": "NA",
      "Main Workers Cultivators - Persons": 3081,
      "Marginal Workers Household Industry worked for 0 - 3 moths during last year - Females": 382,
      "Upper Primary Net Enrolment Ratio in percentage DISE": "NA",
      "Primary New Government Schools since 2003 in percentage DISE": "NA",
      "Tier": "Urban",
      "Marginal Workers Household Industry - Females": 2136,
      "Primary Schools with electricity in percentage DISE": "NA",
      "Main Workers Other - Persons": 121656,
      "Marginal Workers Household Industry worked for 3 - 6 moths during last year - Females": 1754,
      "Main Workers Cultivators - Males": 2936,
      "Main Workers Household Industry - Persons": 7713,
      "Marginal Workers Cultivators worked for 0 - 3 moths during last year - Persons": 99,
      "Scheduled Caste Males": 50100,
      "Marginal Workers - Persons": 23750,
      "Deliveries at home conducted by skilled health personnel in percentage DLHS-4": "Not available",
      "Villages with Sub-Health Centres within 3km in percentage DLHS-4": 0,
      "Upper Primary New Government Schools since 2003 in percentage DISE": "NA",
      "0-6 Age Group Males": 24432,
      "Primary Schools with drinking water facility in percentage DISE": "NA",
      "Non Workers - Persons": 286336,
      "Person Literates": 326081,
      "State": "WEST BENGAL",
      "Total Female Population": 220504,
      "Marginal Workers worked for 0 - 3 moths during last year - Persons": 4148,
      "Marginal Workers Cultivators - Females": 204,
      "Marginal Workers Other - Persons": 15238,
      "Sex Ratio": 963,
      "Scheduled Tribe Persons": 9818,
      "Marginal Workers Household Industry worked for 3 - 6 moths during last year - Males": 515,
      "Marginal Workers Agricultural Labourers - Females": 1580,
      "Mean age at marriage for girls DLHS-4": "Not available",
      "Households with solar energy as main source of lighting  Houselisting and Housing Census Data Tables- District Level , Census of India__4": 689,
      "District": "BIRBHUM",
      "Households receiving treated tap water within premises in percentage Houselisting and Housing Census Data Tables- District Level , Census of India__1": 16.39336204,
      "Total Workers  Persons": 163112,
      "Households receiving treated tap water within premises  Houselisting and Housing Census Data Tables- District Level , Census of India__4": 16675,
      "Primary Female Teachers in percentage DISE": "NA",
      "Number of Households": 102423,
      "Main Workers Agricultural Labourers - Persons": 6912
    }
  ]
}