{
  "Total": [
    {
      "Marginal Workers Agricultural Labourers - Persons": 105242,
      "Marginal Workers Other - Females": 20168,
      "Marginal Workers Other worked for 0 - 3 moths during last year - Females": 2894,
      "Upper Primary Schools with boys toilet in percentage DISE": 100,
      "Total Population": 1676276,
      "Households with electricity as main source of lighting in percentage Houselisting and Housing Census Data Tables- District Level , Census of India": 42.417994,
      "Primary Girl's Enrolment in percentage DISE": 48.6,
      "Marginal Workers worked for 3 - 6 moths during last year - Males": 59987,
      "Prevalence of Acute illness in percentage DLHS-4": 15.7,
      "Main Workers - Persons": 526470,
      "Main Workers Cultivators - Females": 13885,
      "Marginal Workers Agricultural Labourers worked for 3 - 6 moths during last year - Females": 51199,
      "Marginal Workers Other worked for 0 - 3 moths during last year - Males": 2431,
      "Upper Primary Schools with drinking water facility in percentage DISE": 100,
      "Primary Schools with girls toilet in percentage DISE": 100,
      "Marginal Workers worked for 3 - 6 moths during last year - Persons": 145010,
      "Upper Primary Drop Out Rate in percentage DISE": 6.92,
      "Prevalence of Anaemia in pregnant women aged 15-49years in percentage DLHS-4": 88.4,
      "Current use of any modern method of family planning in percentage DLHS-4": 57.5,
      "Marginal Workers Agricultural Labourers - Males": 42188,
      "Upper Primary Female Teachers in percentage DISE": 16.5,
      "Marginal Workers - Females": 104535,
      "Marginal Workers Other worked for 3 - 6 moths during last year - Persons": 31551,
      "Main Workers Agricultural Labourers - Females": 45288,
      "Marginal Workers Cultivators worked for 3 - 6 moths during last year - Females": 8960,
      "Households with no lighting  Houselisting and Housing Census Data Tables- District Level , Census of India__5": 1885,
      "Prevalence of Severe Anaemia  in percentage DLHS-4": 4.1,
      "Total unmet need for family planning in percentage DLHS-4": 14.3,
      "Main Workers Other - Males": 131004,
      "Children who received full vaccination in percentage DLHS-4": 86.6,
      "Marginal Workers Household Industry - Persons": 11805,
      "Primary Pupil-Teacher Ratio in percentage DISE": 22,
      "Marginal Workers Agricultural Labourers worked for 3 - 6 moths during last year - Males": 35343,
      "Scheduled Caste Females": 234442,
      "Marginal Workers Cultivators - Males": 11167,
      "Marginal Workers - Males": 71982,
      "Marginal Workers worked for 0 - 3 moths during last year - Females": 19512,
      "Households with main source of drinking water within premises in percentage Houselisting and Housing Census Data Tables- District Level , Census of India": 37.63732866,
      "Marginal Workers Household Industry worked for 3 - 6 moths during last year - Persons": 9083,
      "Upper Primary Girl's Enrolment in percentage DISE": 51.4,
      "Prevalence of Severe Anaemia in women aged 15-49years in percentage DLHS-4": 3.7,
      "Marginal Workers Agricultural Labourers worked for 0 - 3 moths during last year - Males": 6845,
      "Households with electricity as main source of lighting  Houselisting and Housing Census Data Tables- District Level , Census of India__3": 168069,
      "Households with computer or laptop with internet connection in percentage": 0.64,
      "PHCs functioning on a 24x7hours basis in percentage DLHS-4": 12.5,
      "Non Workers - Males": 357639,
      "Total Households in District Houselisting and Housing Census Data Tables- District Level , Census of India": 396221,
      "Upper Primary Schools with girls toilet in percentage DISE": 100,
      "Households with mobile phone in percentage": 35.53,
      "Households receiving untreated tap water within premises in percentage Houselisting and Housing Census Data Tables- District Level , Census of India__2": 1.147591874,
      "Marginal Workers Cultivators worked for 3 - 6 moths during last year - Males": 8874,
      "Prevalence of Anaemia  in percentage DLHS-4": 88.8,
      "Prevalence of Chronic illness in percentage DLHS-4": 15.2,
      "Households with solar energy as main source of lighting in percentage Houselisting and Housing Census Data Tables- District Level , Census of India__1": 0.881326331,
      "Marginal Workers Agricultural Labourers worked for 0 - 3 moths during last year - Females": 11855,
      "Main Workers - Males": 427578,
      "Female": 67.01,
      "Sno": 1979,
      "Marginal Workers Other worked for 3 - 6 moths during last year - Females": 17274,
      "Marginal Workers Cultivators worked for 0 - 3 moths during last year - Females": 2467,
      "Scheduled Tribe Males": 138025,
      "Male Illiterates": 260725,
      "Prevalence of Severe Anaemia in pregnant women aged 15-49years in percentage DLHS-4": 4.5,
      "0-6 Age Group Persons": 188135,
      "Upper Primary Student-Classroom Ratio in percentage DISE": 33,
      "Currently married men married below 21years of age in percentage DLHS-4": 18.8,
      "Male Literates": 596474,
      "Households with no lighting in percentage Houselisting and Housing Census Data Tables- District Level , Census of India__2": 0.475744597,
      "Primary Drop Out Rate in percentage DISE": 12,
      "Marginal Workers Household Industry - Males": 1919,
      "Female Illiterates": 331866,
      "Main Workers Other - Females": 29609,
      "Marginal Workers Cultivators - Persons": 22594,
      "Upper Primary Gross Enrolment Ratio in percentage DISE": 97.6,
      "Scheduled Caste Persons": 482754,
      "Marginal Workers Cultivators worked for 3 - 6 moths during last year - Persons": 17834,
      "Households with landline phone in percentage": 1.33,
      "Total Households in District  Houselisting and Housing Census Data Tables- District Level , Census of India": 396221,
      "Upper Primary Pupil-Teacher Ratio in percentage DISE": 30,
      "Primary Student-Classroom Ratio in percentage DISE": 24,
      "Primary Schools with boys toilet in percentage DISE": 99.3,
      "Mean number of children ever born to women aged 40-49years  DLHS-4": 3.1,
      "Households receiving untreated tap water within premises  Houselisting and Housing Census Data Tables- District Level , Census of India__5": 4547,
      "Marginal Workers Household Industry worked for 0 - 3 moths during last year - Persons": 2722,
      "Total Male Population": 857199,
      "Non Workers - Females": 615650,
      "Current use of family planning methods in percentage DLHS-4": 72.9,
      "Households with main source of drinking water within premises  Houselisting and Housing Census Data Tables- District Level , Census of India__3": 149127,
      "Main Workers Agricultural Labourers - Males": 129402,
      "Marginal Workers Other worked for 0 - 3 moths during last year - Persons": 5325,
      "Currently married women married below 18years of age in percentage DLHS-4": 32.1,
      "Person Illiterates": 592591,
      "Main Workers Household Industry - Females": 10110,
      "Female Literates": 487211,
      "Marginal Workers Cultivators worked for 0 - 3 moths during last year - Males": 2293,
      "Male": 78.37,
      "Households with improved source of drinking water in percentage DLHS-4": 99.6,
      "Upper Primary Schools with electricity in percentage DISE": 29.4,
      "Households with electricity in percentage DLHS-4": 85.5,
      "Villages with Primary Health Centre within 10km in percentage DLHS-4": 92,
      "Births to women aged 15-19years out of Total births in percentage DLHS-4": 6.7,
      "Prevalence of Anaemia in women aged 15-49years in percentage DLHS-4": 84.9,
      "Marginal Workers Agricultural Labourers worked for 3 - 6 moths during last year - Persons": 86542,
      "Main Workers Household Industry - Males": 10375,
      "Scheduled Tribe Females": 137341,
      "Marginal Workers worked for 0 - 3 moths during last year - Males": 11995,
      "Marginal Workers Other worked for 3 - 6 moths during last year - Males": 14277,
      "Primary Net Enrolment Ratio in percentage DISE": 100,
      "Total": 72.82,
      "Mean age at marriage for boys DLHS-4": 25.9,
      "Number of District Hospitals  DLHS-4": 1,
      "0-6 Age Group Females": 91992,
      "Marginal Workers Agricultural Labourers worked for 0 - 3 moths during last year - Persons": 18700,
      "Marginal Workers Household Industry worked for 0 - 3 moths during last year - Males": 426,
      "Total Workers  Females": 203427,
      "Marginal Workers worked for 3 - 6 moths during last year - Females": 85023,
      "Institutional Deliveries in percentage DLHS-4": 74.3,
      "Marginal Workers Other - Males": 16708,
      "Total Workers  Males": 499560,
      "Main Workers - Females": 98892,
      "Primary Gross Enrolment Ratio in percentage DISE": 119.3,
      "Main Workers Cultivators - Persons": 170682,
      "Marginal Workers Household Industry worked for 0 - 3 moths during last year - Females": 2296,
      "Upper Primary Net Enrolment Ratio in percentage DISE": 69.4,
      "Primary New Government Schools since 2003 in percentage DISE": 4.9,
      "Tier": "Total",
      "Marginal Workers Household Industry - Females": 9886,
      "Primary Schools with electricity in percentage DISE": 32.2,
      "Main Workers Other - Persons": 160613,
      "Marginal Workers Household Industry worked for 3 - 6 moths during last year - Females": 7590,
      "Main Workers Cultivators - Males": 156797,
      "Main Workers Household Industry - Persons": 20485,
      "Marginal Workers Cultivators worked for 0 - 3 moths during last year - Persons": 4760,
      "Scheduled Caste Males": 248312,
      "Marginal Workers - Persons": 176517,
      "Deliveries at home conducted by skilled health personnel in percentage DLHS-4": 10.2,
      "Villages with Sub-Health Centres within 3km in percentage DLHS-4": 92,
      "Upper Primary New Government Schools since 2003 in percentage DISE": 93.4,
      "0-6 Age Group Males": 96143,
      "Primary Schools with drinking water facility in percentage DISE": 99.8,
      "Non Workers - Persons": 973289,
      "Person Literates": 1083685,
      "State": "WEST BENGAL",
      "Total Female Population": 819077,
      "Marginal Workers worked for 0 - 3 moths during last year - Persons": 31507,
      "Marginal Workers Cultivators - Females": 11427,
      "Marginal Workers Other - Persons": 36876,
      "Sex Ratio": 956,
      "Scheduled Tribe Persons": 275366,
      "Marginal Workers Household Industry worked for 3 - 6 moths during last year - Males": 1493,
      "Marginal Workers Agricultural Labourers - Females": 63054,
      "Mean age at marriage for girls DLHS-4": 19.4,
      "Households with solar energy as main source of lighting  Houselisting and Housing Census Data Tables- District Level , Census of India__4": 3492,
      "District": "DAKSHIN DINAJPUR",
      "Households receiving treated tap water within premises in percentage Houselisting and Housing Census Data Tables- District Level , Census of India__1": 1.851239586,
      "Total Workers  Persons": 702987,
      "Households receiving treated tap water within premises  Houselisting and Housing Census Data Tables- District Level , Census of India__4": 7335,
      "Primary Female Teachers in percentage DISE": 37.9,
      "Number of Households": 396406,
      "Main Workers Agricultural Labourers - Persons": 174690
    }
  ],
  "Rural": [
    {
      "Marginal Workers Agricultural Labourers - Persons": 104199,
      "Marginal Workers Other - Females": 16281,
      "Marginal Workers Other worked for 0 - 3 moths during last year - Females": 2589,
      "Upper Primary Schools with boys toilet in percentage DISE": "NA",
      "Total Population": 1439981,
      "Households with electricity as main source of lighting in percentage Houselisting and Housing Census Data Tables- District Level , Census of India": 35.83471123,
      "Primary Girl's Enrolment in percentage DISE": "NA",
      "Marginal Workers worked for 3 - 6 moths during last year - Males": 55053,
      "Prevalence of Acute illness in percentage DLHS-4": 18.4,
      "Main Workers - Persons": 448743,
      "Main Workers Cultivators - Females": 13792,
      "Marginal Workers Agricultural Labourers worked for 3 - 6 moths during last year - Females": 50739,
      "Marginal Workers Other worked for 0 - 3 moths during last year - Males": 1724,
      "Upper Primary Schools with drinking water facility in percentage DISE": "NA",
      "Primary Schools with girls toilet in percentage DISE": "NA",
      "Marginal Workers worked for 3 - 6 moths during last year - Persons": 134910,
      "Upper Primary Drop Out Rate in percentage DISE": "NA",
      "Prevalence of Anaemia in pregnant women aged 15-49years in percentage DLHS-4": 91.3,
      "Current use of any modern method of family planning in percentage DLHS-4": 63.5,
      "Marginal Workers Agricultural Labourers - Males": 41757,
      "Upper Primary Female Teachers in percentage DISE": "NA",
      "Marginal Workers - Females": 98765,
      "Marginal Workers Other worked for 3 - 6 moths during last year - Persons": 23721,
      "Main Workers Agricultural Labourers - Females": 44692,
      "Marginal Workers Cultivators worked for 3 - 6 moths during last year - Females": 8746,
      "Households with no lighting  Houselisting and Housing Census Data Tables- District Level , Census of India__5": 1539,
      "Prevalence of Severe Anaemia  in percentage DLHS-4": 4.4,
      "Total unmet need for family planning in percentage DLHS-4": 10,
      "Main Workers Other - Males": 73745,
      "Children who received full vaccination in percentage DLHS-4": 82.6,
      "Marginal Workers Household Industry - Persons": 10388,
      "Primary Pupil-Teacher Ratio in percentage DISE": "NA",
      "Marginal Workers Agricultural Labourers worked for 3 - 6 moths during last year - Males": 35113,
      "Scheduled Caste Females": 213762,
      "Marginal Workers Cultivators - Males": 11002,
      "Marginal Workers - Males": 66070,
      "Marginal Workers worked for 0 - 3 moths during last year - Females": 18908,
      "Households with main source of drinking water within premises in percentage Houselisting and Housing Census Data Tables- District Level , Census of India": 29.98257943,
      "Marginal Workers Household Industry worked for 3 - 6 moths during last year - Persons": 7879,
      "Upper Primary Girl's Enrolment in percentage DISE": "NA",
      "Prevalence of Severe Anaemia in women aged 15-49years in percentage DLHS-4": 4.9,
      "Marginal Workers Agricultural Labourers worked for 0 - 3 moths during last year - Males": 6644,
      "Households with electricity as main source of lighting  Houselisting and Housing Census Data Tables- District Level , Census of India__3": 121365,
      "Households with computer or laptop with internet connection in percentage": 0.22,
      "PHCs functioning on a 24x7hours basis in percentage DLHS-4": "Not applicable",
      "Non Workers - Males": 306474,
      "Total Households in District Houselisting and Housing Census Data Tables- District Level , Census of India": 338680,
      "Upper Primary Schools with girls toilet in percentage DISE": "NA",
      "Households with mobile phone in percentage": 31.58,
      "Households receiving untreated tap water within premises in percentage Houselisting and Housing Census Data Tables- District Level , Census of India__2": 0.756466281,
      "Marginal Workers Cultivators worked for 3 - 6 moths during last year - Males": 8712,
      "Prevalence of Anaemia  in percentage DLHS-4": 89.9,
      "Prevalence of Chronic illness in percentage DLHS-4": 14.9,
      "Households with solar energy as main source of lighting in percentage Houselisting and Housing Census Data Tables- District Level , Census of India__1": 0.791897957,
      "Marginal Workers Agricultural Labourers worked for 0 - 3 moths during last year - Females": 11703,
      "Main Workers - Males": 365227,
      "Female": "NA",
      "Sno": 1978,
      "Marginal Workers Other worked for 3 - 6 moths during last year - Females": 13692,
      "Marginal Workers Cultivators worked for 0 - 3 moths during last year - Females": 2466,
      "Scheduled Tribe Males": 134311,
      "Male Illiterates": 242174,
      "Prevalence of Severe Anaemia in pregnant women aged 15-49years in percentage DLHS-4": 6.5,
      "0-6 Age Group Persons": 169507,
      "Upper Primary Student-Classroom Ratio in percentage DISE": "NA",
      "Currently married men married below 21years of age in percentage DLHS-4": 28.2,
      "Male Literates": 495597,
      "Households with no lighting in percentage Houselisting and Housing Census Data Tables- District Level , Census of India__2": 0.454411244,
      "Primary Drop Out Rate in percentage DISE": "NA",
      "Marginal Workers Household Industry - Males": 1558,
      "Female Illiterates": 307146,
      "Main Workers Other - Females": 16034,
      "Marginal Workers Cultivators - Persons": 22214,
      "Upper Primary Gross Enrolment Ratio in percentage DISE": "NA",
      "Scheduled Caste Persons": 440182,
      "Marginal Workers Cultivators worked for 3 - 6 moths during last year - Persons": 17458,
      "Households with landline phone in percentage": 0.94,
      "Total Households in District  Houselisting and Housing Census Data Tables- District Level , Census of India": 338680,
      "Upper Primary Pupil-Teacher Ratio in percentage DISE": "NA",
      "Primary Student-Classroom Ratio in percentage DISE": "NA",
      "Primary Schools with boys toilet in percentage DISE": "NA",
      "Mean number of children ever born to women aged 40-49years  DLHS-4": 3.6,
      "Households receiving untreated tap water within premises  Houselisting and Housing Census Data Tables- District Level , Census of India__5": 2562,
      "Marginal Workers Household Industry worked for 0 - 3 moths during last year - Persons": 2509,
      "Total Male Population": 737771,
      "Non Workers - Females": 519929,
      "Current use of family planning methods in percentage DLHS-4": 75.1,
      "Households with main source of drinking water within premises  Houselisting and Housing Census Data Tables- District Level , Census of India__3": 101545,
      "Main Workers Agricultural Labourers - Males": 127973,
      "Marginal Workers Other worked for 0 - 3 moths during last year - Persons": 4313,
      "Currently married women married below 18years of age in percentage DLHS-4": 43.6,
      "Person Illiterates": 549320,
      "Main Workers Household Industry - Females": 8998,
      "Female Literates": 395064,
      "Marginal Workers Cultivators worked for 0 - 3 moths during last year - Males": 2290,
      "Male": "NA",
      "Households with improved source of drinking water in percentage DLHS-4": 99.9,
      "Upper Primary Schools with electricity in percentage DISE": "NA",
      "Households with electricity in percentage DLHS-4": 76.6,
      "Villages with Primary Health Centre within 10km in percentage DLHS-4": "Not applicable",
      "Births to women aged 15-19years out of Total births in percentage DLHS-4": 8.1,
      "Prevalence of Anaemia in women aged 15-49years in percentage DLHS-4": 87.8,
      "Marginal Workers Agricultural Labourers worked for 3 - 6 moths during last year - Persons": 85852,
      "Main Workers Household Industry - Males": 7813,
      "Scheduled Tribe Females": 133602,
      "Marginal Workers worked for 0 - 3 moths during last year - Males": 11017,
      "Marginal Workers Other worked for 3 - 6 moths during last year - Males": 10029,
      "Primary Net Enrolment Ratio in percentage DISE": "NA",
      "Total": "NA",
      "Mean age at marriage for boys DLHS-4": 23.9,
      "Number of District Hospitals  DLHS-4": "Not applicable",
      "0-6 Age Group Females": 82878,
      "Marginal Workers Agricultural Labourers worked for 0 - 3 moths during last year - Persons": 18347,
      "Marginal Workers Household Industry worked for 0 - 3 moths during last year - Males": 359,
      "Total Workers  Females": 182281,
      "Marginal Workers worked for 3 - 6 moths during last year - Females": 79857,
      "Institutional Deliveries in percentage DLHS-4": 64.4,
      "Marginal Workers Other - Males": 11753,
      "Total Workers  Males": 431297,
      "Main Workers - Females": 83516,
      "Primary Gross Enrolment Ratio in percentage DISE": "NA",
      "Main Workers Cultivators - Persons": 169488,
      "Marginal Workers Household Industry worked for 0 - 3 moths during last year - Females": 2150,
      "Upper Primary Net Enrolment Ratio in percentage DISE": "NA",
      "Primary New Government Schools since 2003 in percentage DISE": "NA",
      "Tier": "Rural",
      "Marginal Workers Household Industry - Females": 8830,
      "Primary Schools with electricity in percentage DISE": "NA",
      "Main Workers Other - Persons": 89779,
      "Marginal Workers Household Industry worked for 3 - 6 moths during last year - Females": 6680,
      "Main Workers Cultivators - Males": 155696,
      "Main Workers Household Industry - Persons": 16811,
      "Marginal Workers Cultivators worked for 0 - 3 moths during last year - Persons": 4756,
      "Scheduled Caste Males": 226420,
      "Marginal Workers - Persons": 164835,
      "Deliveries at home conducted by skilled health personnel in percentage DLHS-4": 13.4,
      "Villages with Sub-Health Centres within 3km in percentage DLHS-4": "Not applicable",
      "Upper Primary New Government Schools since 2003 in percentage DISE": "NA",
      "0-6 Age Group Males": 86629,
      "Primary Schools with drinking water facility in percentage DISE": "NA",
      "Non Workers - Persons": 826403,
      "Person Literates": 890661,
      "State": "WEST BENGAL",
      "Total Female Population": 702210,
      "Marginal Workers worked for 0 - 3 moths during last year - Persons": 29925,
      "Marginal Workers Cultivators - Females": 11212,
      "Marginal Workers Other - Persons": 28034,
      "Sex Ratio": 952,
      "Scheduled Tribe Persons": 267913,
      "Marginal Workers Household Industry worked for 3 - 6 moths during last year - Males": 1199,
      "Marginal Workers Agricultural Labourers - Females": 62442,
      "Mean age at marriage for girls DLHS-4": 17.6,
      "Households with solar energy as main source of lighting  Houselisting and Housing Census Data Tables- District Level , Census of India__4": 2682,
      "District": "DAKSHIN DINAJPUR",
      "Households receiving treated tap water within premises in percentage Houselisting and Housing Census Data Tables- District Level , Census of India__1": 1.343746309,
      "Total Workers  Persons": 613578,
      "Households receiving treated tap water within premises  Houselisting and Housing Census Data Tables- District Level , Census of India__4": 4551,
      "Primary Female Teachers in percentage DISE": "NA",
      "Number of Households": 339231,
      "Main Workers Agricultural Labourers - Persons": 172665
    }
  ],
  "Urban": [
    {
      "Marginal Workers Agricultural Labourers - Persons": 1043,
      "Marginal Workers Other - Females": 3887,
      "Marginal Workers Other worked for 0 - 3 moths during last year - Females": 305,
      "Upper Primary Schools with boys toilet in percentage DISE": "NA",
      "Total Population": 236295,
      "Households with electricity as main source of lighting in percentage Houselisting and Housing Census Data Tables- District Level , Census of India": 81.1664726,
      "Primary Girl's Enrolment in percentage DISE": "NA",
      "Marginal Workers worked for 3 - 6 moths during last year - Males": 4934,
      "Prevalence of Acute illness in percentage DLHS-4": "Not available",
      "Main Workers - Persons": 77727,
      "Main Workers Cultivators - Females": 93,
      "Marginal Workers Agricultural Labourers worked for 3 - 6 moths during last year - Females": 460,
      "Marginal Workers Other worked for 0 - 3 moths during last year - Males": 707,
      "Upper Primary Schools with drinking water facility in percentage DISE": "NA",
      "Primary Schools with girls toilet in percentage DISE": "NA",
      "Marginal Workers worked for 3 - 6 moths during last year - Persons": 10100,
      "Upper Primary Drop Out Rate in percentage DISE": "NA",
      "Prevalence of Anaemia in pregnant women aged 15-49years in percentage DLHS-4": "Not available",
      "Current use of any modern method of family planning in percentage DLHS-4": "Not available",
      "Marginal Workers Agricultural Labourers - Males": 431,
      "Upper Primary Female Teachers in percentage DISE": "NA",
      "Marginal Workers - Females": 5770,
      "Marginal Workers Other worked for 3 - 6 moths during last year - Persons": 7830,
      "Main Workers Agricultural Labourers - Females": 596,
      "Marginal Workers Cultivators worked for 3 - 6 moths during last year - Females": 214,
      "Households with no lighting  Houselisting and Housing Census Data Tables- District Level , Census of India__5": 346,
      "Prevalence of Severe Anaemia  in percentage DLHS-4": "Not available",
      "Total unmet need for family planning in percentage DLHS-4": "Not available",
      "Main Workers Other - Males": 57259,
      "Children who received full vaccination in percentage DLHS-4": "Not available",
      "Marginal Workers Household Industry - Persons": 1417,
      "Primary Pupil-Teacher Ratio in percentage DISE": "NA",
      "Marginal Workers Agricultural Labourers worked for 3 - 6 moths during last year - Males": 230,
      "Scheduled Caste Females": 20680,
      "Marginal Workers Cultivators - Males": 165,
      "Marginal Workers - Males": 5912,
      "Marginal Workers worked for 0 - 3 moths during last year - Females": 604,
      "Households with main source of drinking water within premises in percentage Houselisting and Housing Census Data Tables- District Level , Census of India": 82.69234111,
      "Marginal Workers Household Industry worked for 3 - 6 moths during last year - Persons": 1204,
      "Upper Primary Girl's Enrolment in percentage DISE": "NA",
      "Prevalence of Severe Anaemia in women aged 15-49years in percentage DLHS-4": "Not available",
      "Marginal Workers Agricultural Labourers worked for 0 - 3 moths during last year - Males": 201,
      "Households with electricity as main source of lighting  Houselisting and Housing Census Data Tables- District Level , Census of India__3": 46704,
      "Households with computer or laptop with internet connection in percentage": 3.05,
      "PHCs functioning on a 24x7hours basis in percentage DLHS-4": 0,
      "Non Workers - Males": 51165,
      "Total Households in District Houselisting and Housing Census Data Tables- District Level , Census of India": 57541,
      "Upper Primary Schools with girls toilet in percentage DISE": "NA",
      "Households with mobile phone in percentage": 58.78,
      "Households receiving untreated tap water within premises in percentage Houselisting and Housing Census Data Tables- District Level , Census of India__2": 3.449714117,
      "Marginal Workers Cultivators worked for 3 - 6 moths during last year - Males": 162,
      "Prevalence of Anaemia  in percentage DLHS-4": "Not available",
      "Prevalence of Chronic illness in percentage DLHS-4": "Not available",
      "Households with solar energy as main source of lighting in percentage Houselisting and Housing Census Data Tables- District Level , Census of India__1": 1.407691907,
      "Marginal Workers Agricultural Labourers worked for 0 - 3 moths during last year - Females": 152,
      "Main Workers - Males": 62351,
      "Female": "NA",
      "Sno": 1980,
      "Marginal Workers Other worked for 3 - 6 moths during last year - Females": 3582,
      "Marginal Workers Cultivators worked for 0 - 3 moths during last year - Females": 1,
      "Scheduled Tribe Males": 3714,
      "Male Illiterates": 18551,
      "Prevalence of Severe Anaemia in pregnant women aged 15-49years in percentage DLHS-4": "Not available",
      "0-6 Age Group Persons": 18628,
      "Upper Primary Student-Classroom Ratio in percentage DISE": "NA",
      "Currently married men married below 21years of age in percentage DLHS-4": "Not available",
      "Male Literates": 100877,
      "Households with no lighting in percentage Houselisting and Housing Census Data Tables- District Level , Census of India__2": 0.60131037,
      "Primary Drop Out Rate in percentage DISE": "NA",
      "Marginal Workers Household Industry - Males": 361,
      "Female Illiterates": 24720,
      "Main Workers Other - Females": 13575,
      "Marginal Workers Cultivators - Persons": 380,
      "Upper Primary Gross Enrolment Ratio in percentage DISE": "NA",
      "Scheduled Caste Persons": 42572,
      "Marginal Workers Cultivators worked for 3 - 6 moths during last year - Persons": 376,
      "Households with landline phone in percentage": 3.64,
      "Total Households in District  Houselisting and Housing Census Data Tables- District Level , Census of India": 57541,
      "Upper Primary Pupil-Teacher Ratio in percentage DISE": "NA",
      "Primary Student-Classroom Ratio in percentage DISE": "NA",
      "Primary Schools with boys toilet in percentage DISE": "NA",
      "Mean number of children ever born to women aged 40-49years  DLHS-4": "Not available",
      "Households receiving untreated tap water within premises  Houselisting and Housing Census Data Tables- District Level , Census of India__5": 1985,
      "Marginal Workers Household Industry worked for 0 - 3 moths during last year - Persons": 213,
      "Total Male Population": 119428,
      "Non Workers - Females": 95721,
      "Current use of family planning methods in percentage DLHS-4": "Not available",
      "Households with main source of drinking water within premises  Houselisting and Housing Census Data Tables- District Level , Census of India__3": 47582,
      "Main Workers Agricultural Labourers - Males": 1429,
      "Marginal Workers Other worked for 0 - 3 moths during last year - Persons": 1012,
      "Currently married women married below 18years of age in percentage DLHS-4": "Not available",
      "Person Illiterates": 43271,
      "Main Workers Household Industry - Females": 1112,
      "Female Literates": 92147,
      "Marginal Workers Cultivators worked for 0 - 3 moths during last year - Males": 3,
      "Male": "NA",
      "Households with improved source of drinking water in percentage DLHS-4": "Not available",
      "Upper Primary Schools with electricity in percentage DISE": "NA",
      "Households with electricity in percentage DLHS-4": "Not available",
      "Villages with Primary Health Centre within 10km in percentage DLHS-4": 0,
      "Births to women aged 15-19years out of Total births in percentage DLHS-4": "Not available",
      "Prevalence of Anaemia in women aged 15-49years in percentage DLHS-4": "Not available",
      "Marginal Workers Agricultural Labourers worked for 3 - 6 moths during last year - Persons": 690,
      "Main Workers Household Industry - Males": 2562,
      "Scheduled Tribe Females": 3739,
      "Marginal Workers worked for 0 - 3 moths during last year - Males": 978,
      "Marginal Workers Other worked for 3 - 6 moths during last year - Males": 4248,
      "Primary Net Enrolment Ratio in percentage DISE": "NA",
      "Total": "NA",
      "Mean age at marriage for boys DLHS-4": "Not available",
      "Number of District Hospitals  DLHS-4": 0,
      "0-6 Age Group Females": 9114,
      "Marginal Workers Agricultural Labourers worked for 0 - 3 moths during last year - Persons": 353,
      "Marginal Workers Household Industry worked for 0 - 3 moths during last year - Males": 67,
      "Total Workers  Females": 21146,
      "Marginal Workers worked for 3 - 6 moths during last year - Females": 5166,
      "Institutional Deliveries in percentage DLHS-4": "Not available",
      "Marginal Workers Other - Males": 4955,
      "Total Workers  Males": 68263,
      "Main Workers - Females": 15376,
      "Primary Gross Enrolment Ratio in percentage DISE": "NA",
      "Main Workers Cultivators - Persons": 1194,
      "Marginal Workers Household Industry worked for 0 - 3 moths during last year - Females": 146,
      "Upper Primary Net Enrolment Ratio in percentage DISE": "NA",
      "Primary New Government Schools since 2003 in percentage DISE": "NA",
      "Tier": "Urban",
      "Marginal Workers Household Industry - Females": 1056,
      "Primary Schools with electricity in percentage DISE": "NA",
      "Main Workers Other - Persons": 70834,
      "Marginal Workers Household Industry worked for 3 - 6 moths during last year - Females": 910,
      "Main Workers Cultivators - Males": 1101,
      "Main Workers Household Industry - Persons": 3674,
      "Marginal Workers Cultivators worked for 0 - 3 moths during last year - Persons": 4,
      "Scheduled Caste Males": 21892,
      "Marginal Workers - Persons": 11682,
      "Deliveries at home conducted by skilled health personnel in percentage DLHS-4": "Not available",
      "Villages with Sub-Health Centres within 3km in percentage DLHS-4": 0,
      "Upper Primary New Government Schools since 2003 in percentage DISE": "NA",
      "0-6 Age Group Males": 9514,
      "Primary Schools with drinking water facility in percentage DISE": "NA",
      "Non Workers - Persons": 146886,
      "Person Literates": 193024,
      "State": "WEST BENGAL",
      "Total Female Population": 116867,
      "Marginal Workers worked for 0 - 3 moths during last year - Persons": 1582,
      "Marginal Workers Cultivators - Females": 215,
      "Marginal Workers Other - Persons": 8842,
      "Sex Ratio": 979,
      "Scheduled Tribe Persons": 7453,
      "Marginal Workers Household Industry worked for 3 - 6 moths during last year - Males": 294,
      "Marginal Workers Agricultural Labourers - Females": 612,
      "Mean age at marriage for girls DLHS-4": "Not available",
      "Households with solar energy as main source of lighting  Houselisting and Housing Census Data Tables- District Level , Census of India__4": 810,
      "District": "DAKSHIN DINAJPUR",
      "Households receiving treated tap water within premises in percentage Houselisting and Housing Census Data Tables- District Level , Census of India__1": 4.83828922,
      "Total Workers  Persons": 89409,
      "Households receiving treated tap water within premises  Houselisting and Housing Census Data Tables- District Level , Census of India__4": 2784,
      "Primary Female Teachers in percentage DISE": "NA",
      "Number of Households": 57175,
      "Main Workers Agricultural Labourers - Persons": 2025
    }
  ]
}