{
  "Total": [
    {
      "Marginal Workers Agricultural Labourers - Persons": 33954,
      "Marginal Workers Other - Females": 36278,
      "Marginal Workers Other worked for 0 - 3 moths during last year - Females": 7318,
      "Upper Primary Schools with boys toilet in percentage DISE": 47.4,
      "Total Population": 1846823,
      "Households with electricity as main source of lighting in percentage Houselisting and Housing Census Data Tables- District Level , Census of India": 77.73595369,
      "Primary Girl's Enrolment in percentage DISE": 50.1,
      "Marginal Workers worked for 3 - 6 moths during last year - Males": 62415,
      "Prevalence of Acute illness in percentage DLHS-4": 20.5,
      "Main Workers - Persons": 532855,
      "Main Workers Cultivators - Females": 10352,
      "Marginal Workers Agricultural Labourers worked for 3 - 6 moths during last year - Females": 11438,
      "Marginal Workers Other worked for 0 - 3 moths during last year - Males": 11996,
      "Upper Primary Schools with drinking water facility in percentage DISE": 41.2,
      "Primary Schools with girls toilet in percentage DISE": 54.7,
      "Marginal Workers worked for 3 - 6 moths during last year - Persons": 112753,
      "Upper Primary Drop Out Rate in percentage DISE": "Not available",
      "Prevalence of Anaemia in pregnant women aged 15-49years in percentage DLHS-4": 80.8,
      "Current use of any modern method of family planning in percentage DLHS-4": 55.5,
      "Marginal Workers Agricultural Labourers - Males": 16996,
      "Upper Primary Female Teachers in percentage DISE": 37.6,
      "Marginal Workers - Females": 67626,
      "Marginal Workers Other worked for 3 - 6 moths during last year - Persons": 67347,
      "Main Workers Agricultural Labourers - Females": 8715,
      "Marginal Workers Cultivators worked for 3 - 6 moths during last year - Females": 7667,
      "Households with no lighting  Houselisting and Housing Census Data Tables- District Level , Census of India__5": 3644,
      "Prevalence of Severe Anaemia  in percentage DLHS-4": 5.5,
      "Total unmet need for family planning in percentage DLHS-4": 16,
      "Main Workers Other - Males": 323474,
      "Children who received full vaccination in percentage DLHS-4": 86.5,
      "Marginal Workers Household Industry - Persons": 6062,
      "Primary Pupil-Teacher Ratio in percentage DISE": 10,
      "Marginal Workers Agricultural Labourers worked for 3 - 6 moths during last year - Males": 12231,
      "Scheduled Caste Females": 155780,
      "Marginal Workers Cultivators - Males": 13062,
      "Marginal Workers - Males": 83245,
      "Marginal Workers worked for 0 - 3 moths during last year - Females": 17288,
      "Households with main source of drinking water within premises in percentage Houselisting and Housing Census Data Tables- District Level , Census of India": 37.85408421,
      "Marginal Workers Household Industry worked for 3 - 6 moths during last year - Persons": 4114,
      "Upper Primary Girl's Enrolment in percentage DISE": 49.3,
      "Prevalence of Severe Anaemia in women aged 15-49years in percentage DLHS-4": 4.1,
      "Marginal Workers Agricultural Labourers worked for 0 - 3 moths during last year - Males": 4765,
      "Households with electricity as main source of lighting  Houselisting and Housing Census Data Tables- District Level , Census of India__3": 297176,
      "Households with computer or laptop with internet connection in percentage": 2.86,
      "PHCs functioning on a 24x7hours basis in percentage DLHS-4": 50,
      "Non Workers - Males": 457673,
      "Total Households in District Houselisting and Housing Census Data Tables- District Level , Census of India": 382289,
      "Upper Primary Schools with girls toilet in percentage DISE": 49,
      "Households with mobile phone in percentage": 56.14,
      "Households receiving untreated tap water within premises in percentage Houselisting and Housing Census Data Tables- District Level , Census of India__2": 3.151280837,
      "Marginal Workers Cultivators worked for 3 - 6 moths during last year - Males": 9956,
      "Prevalence of Anaemia  in percentage DLHS-4": 87.3,
      "Prevalence of Chronic illness in percentage DLHS-4": 17.2,
      "Households with solar energy as main source of lighting in percentage Houselisting and Housing Census Data Tables- District Level , Census of India__1": 0.884932603,
      "Marginal Workers Agricultural Labourers worked for 0 - 3 moths during last year - Females": 5520,
      "Main Workers - Males": 396341,
      "Female": 73.33,
      "Sno": 1982,
      "Marginal Workers Other worked for 3 - 6 moths during last year - Females": 28960,
      "Marginal Workers Cultivators worked for 0 - 3 moths during last year - Females": 3465,
      "Scheduled Tribe Males": 197251,
      "Male Illiterates": 219586,
      "Prevalence of Severe Anaemia in pregnant women aged 15-49years in percentage DLHS-4": 4.1,
      "0-6 Age Group Persons": 193169,
      "Upper Primary Student-Classroom Ratio in percentage DISE": 23,
      "Currently married men married below 21years of age in percentage DLHS-4": 10.7,
      "Male Literates": 717673,
      "Households with no lighting in percentage Houselisting and Housing Census Data Tables- District Level , Census of India__2": 0.953205559,
      "Primary Drop Out Rate in percentage DISE": 9.9,
      "Marginal Workers Household Industry - Males": 2804,
      "Female Illiterates": 311652,
      "Main Workers Other - Females": 114793,
      "Marginal Workers Cultivators - Persons": 24194,
      "Upper Primary Gross Enrolment Ratio in percentage DISE": 37.3,
      "Scheduled Caste Persons": 317275,
      "Marginal Workers Cultivators worked for 3 - 6 moths during last year - Persons": 17623,
      "Households with landline phone in percentage": 1.95,
      "Total Households in District  Houselisting and Housing Census Data Tables- District Level , Census of India": 382289,
      "Upper Primary Pupil-Teacher Ratio in percentage DISE": 18,
      "Primary Student-Classroom Ratio in percentage DISE": 10,
      "Primary Schools with boys toilet in percentage DISE": 49.1,
      "Mean number of children ever born to women aged 40-49years  DLHS-4": 2.7,
      "Households receiving untreated tap water within premises  Houselisting and Housing Census Data Tables- District Level , Census of India__5": 12047,
      "Marginal Workers Household Industry worked for 0 - 3 moths during last year - Persons": 1948,
      "Total Male Population": 937259,
      "Non Workers - Females": 705424,
      "Current use of family planning methods in percentage DLHS-4": 68.5,
      "Households with main source of drinking water within premises  Houselisting and Housing Census Data Tables- District Level , Census of India__3": 144712,
      "Main Workers Agricultural Labourers - Males": 23372,
      "Marginal Workers Other worked for 0 - 3 moths during last year - Persons": 19314,
      "Currently married women married below 18years of age in percentage DLHS-4": 10.2,
      "Person Illiterates": 531238,
      "Main Workers Household Industry - Females": 2654,
      "Female Literates": 597912,
      "Marginal Workers Cultivators worked for 0 - 3 moths during last year - Males": 3106,
      "Male": 85.61,
      "Households with improved source of drinking water in percentage DLHS-4": 79.6,
      "Upper Primary Schools with electricity in percentage DISE": 47.4,
      "Households with electricity in percentage DLHS-4": 95.8,
      "Villages with Primary Health Centre within 10km in percentage DLHS-4": 73.5,
      "Births to women aged 15-19years out of Total births in percentage DLHS-4": 6.5,
      "Prevalence of Anaemia in women aged 15-49years in percentage DLHS-4": 69.5,
      "Marginal Workers Agricultural Labourers worked for 3 - 6 moths during last year - Persons": 23669,
      "Main Workers Household Industry - Males": 7863,
      "Scheduled Tribe Females": 200138,
      "Marginal Workers worked for 0 - 3 moths during last year - Males": 20830,
      "Marginal Workers Other worked for 3 - 6 moths during last year - Males": 38387,
      "Primary Net Enrolment Ratio in percentage DISE": 33.8,
      "Total": 79.56,
      "Mean age at marriage for boys DLHS-4": 26.2,
      "Number of District Hospitals  DLHS-4": 2,
      "0-6 Age Group Females": 94236,
      "Marginal Workers Agricultural Labourers worked for 0 - 3 moths during last year - Persons": 10285,
      "Marginal Workers Household Industry worked for 0 - 3 moths during last year - Males": 963,
      "Total Workers  Females": 204140,
      "Marginal Workers worked for 3 - 6 moths during last year - Females": 50338,
      "Institutional Deliveries in percentage DLHS-4": 86.1,
      "Marginal Workers Other - Males": 50383,
      "Total Workers  Males": 479586,
      "Main Workers - Females": 136514,
      "Primary Gross Enrolment Ratio in percentage DISE": 43.7,
      "Main Workers Cultivators - Persons": 51984,
      "Marginal Workers Household Industry worked for 0 - 3 moths during last year - Females": 985,
      "Upper Primary Net Enrolment Ratio in percentage DISE": 27,
      "Primary New Government Schools since 2003 in percentage DISE": 9.6,
      "Tier": "Total",
      "Marginal Workers Household Industry - Females": 3258,
      "Primary Schools with electricity in percentage DISE": 9.4,
      "Main Workers Other - Persons": 438267,
      "Marginal Workers Household Industry worked for 3 - 6 moths during last year - Females": 2273,
      "Main Workers Cultivators - Males": 41632,
      "Main Workers Household Industry - Persons": 10517,
      "Marginal Workers Cultivators worked for 0 - 3 moths during last year - Persons": 6571,
      "Scheduled Caste Males": 161495,
      "Marginal Workers - Persons": 150871,
      "Deliveries at home conducted by skilled health personnel in percentage DLHS-4": 2.1,
      "Villages with Sub-Health Centres within 3km in percentage DLHS-4": 82.4,
      "Upper Primary New Government Schools since 2003 in percentage DISE": 82.2,
      "0-6 Age Group Males": 98933,
      "Primary Schools with drinking water facility in percentage DISE": 61.9,
      "Non Workers - Persons": 1163097,
      "Person Literates": 1315585,
      "State": "WEST BENGAL",
      "Total Female Population": 909564,
      "Marginal Workers worked for 0 - 3 moths during last year - Persons": 38118,
      "Marginal Workers Cultivators - Females": 11132,
      "Marginal Workers Other - Persons": 86661,
      "Sex Ratio": 970,
      "Scheduled Tribe Persons": 397389,
      "Marginal Workers Household Industry worked for 3 - 6 moths during last year - Males": 1841,
      "Marginal Workers Agricultural Labourers - Females": 16958,
      "Mean age at marriage for girls DLHS-4": 21.5,
      "Households with solar energy as main source of lighting  Houselisting and Housing Census Data Tables- District Level , Census of India__4": 3383,
      "District": "DARJILING",
      "Households receiving treated tap water within premises in percentage Houselisting and Housing Census Data Tables- District Level , Census of India__1": 10.94669216,
      "Total Workers  Persons": 683726,
      "Households receiving treated tap water within premises  Houselisting and Housing Census Data Tables- District Level , Census of India__4": 41848,
      "Primary Female Teachers in percentage DISE": 49.3,
      "Number of Households": 391234,
      "Main Workers Agricultural Labourers - Persons": 32087
    }
  ],
  "Rural": [
    {
      "Marginal Workers Agricultural Labourers - Persons": 32817,
      "Marginal Workers Other - Females": 24636,
      "Marginal Workers Other worked for 0 - 3 moths during last year - Females": 6023,
      "Upper Primary Schools with boys toilet in percentage DISE": "NA",
      "Total Population": 1118860,
      "Households with electricity as main source of lighting in percentage Houselisting and Housing Census Data Tables- District Level , Census of India": 69.52318791,
      "Primary Girl's Enrolment in percentage DISE": "NA",
      "Marginal Workers worked for 3 - 6 moths during last year - Males": 47393,
      "Prevalence of Acute illness in percentage DLHS-4": 22.3,
      "Main Workers - Persons": 309035,
      "Main Workers Cultivators - Females": 9965,
      "Marginal Workers Agricultural Labourers worked for 3 - 6 moths during last year - Females": 11004,
      "Marginal Workers Other worked for 0 - 3 moths during last year - Males": 9651,
      "Upper Primary Schools with drinking water facility in percentage DISE": "NA",
      "Primary Schools with girls toilet in percentage DISE": "NA",
      "Marginal Workers worked for 3 - 6 moths during last year - Persons": 85658,
      "Upper Primary Drop Out Rate in percentage DISE": "NA",
      "Prevalence of Anaemia in pregnant women aged 15-49years in percentage DLHS-4": 80.3,
      "Current use of any modern method of family planning in percentage DLHS-4": 59.5,
      "Marginal Workers Agricultural Labourers - Males": 16411,
      "Upper Primary Female Teachers in percentage DISE": "NA",
      "Marginal Workers - Females": 54033,
      "Marginal Workers Other worked for 3 - 6 moths during last year - Persons": 43209,
      "Main Workers Agricultural Labourers - Females": 7959,
      "Marginal Workers Cultivators worked for 3 - 6 moths during last year - Females": 7198,
      "Households with no lighting  Houselisting and Housing Census Data Tables- District Level , Census of India__5": 2805,
      "Prevalence of Severe Anaemia  in percentage DLHS-4": 6,
      "Total unmet need for family planning in percentage DLHS-4": 17.4,
      "Main Workers Other - Males": 152663,
      "Children who received full vaccination in percentage DLHS-4": 91.1,
      "Marginal Workers Household Industry - Persons": 4611,
      "Primary Pupil-Teacher Ratio in percentage DISE": "NA",
      "Marginal Workers Agricultural Labourers worked for 3 - 6 moths during last year - Males": 11849,
      "Scheduled Caste Females": 109956,
      "Marginal Workers Cultivators - Males": 12578,
      "Marginal Workers - Males": 65510,
      "Marginal Workers worked for 0 - 3 moths during last year - Females": 15768,
      "Households with main source of drinking water within premises in percentage Houselisting and Housing Census Data Tables- District Level , Census of India": 28.75163708,
      "Marginal Workers Household Industry worked for 3 - 6 moths during last year - Persons": 2888,
      "Upper Primary Girl's Enrolment in percentage DISE": "NA",
      "Prevalence of Severe Anaemia in women aged 15-49years in percentage DLHS-4": 4.3,
      "Marginal Workers Agricultural Labourers worked for 0 - 3 moths during last year - Males": 4562,
      "Households with electricity as main source of lighting  Houselisting and Housing Census Data Tables- District Level , Census of India__3": 162970,
      "Households with computer or laptop with internet connection in percentage": 0.87,
      "PHCs functioning on a 24x7hours basis in percentage DLHS-4": "Not applicable",
      "Non Workers - Males": 281958,
      "Total Households in District Houselisting and Housing Census Data Tables- District Level , Census of India": 234411,
      "Upper Primary Schools with girls toilet in percentage DISE": "NA",
      "Households with mobile phone in percentage": 48.25,
      "Households receiving untreated tap water within premises in percentage Houselisting and Housing Census Data Tables- District Level , Census of India__2": 3.215719399,
      "Marginal Workers Cultivators worked for 3 - 6 moths during last year - Males": 9510,
      "Prevalence of Anaemia  in percentage DLHS-4": 88,
      "Prevalence of Chronic illness in percentage DLHS-4": 14.5,
      "Households with solar energy as main source of lighting in percentage Houselisting and Housing Census Data Tables- District Level , Census of India__1": 0.543489853,
      "Marginal Workers Agricultural Labourers worked for 0 - 3 moths during last year - Females": 5402,
      "Main Workers - Males": 219497,
      "Female": "NA",
      "Sno": 1981,
      "Marginal Workers Other worked for 3 - 6 moths during last year - Females": 18613,
      "Marginal Workers Cultivators worked for 0 - 3 moths during last year - Females": 3456,
      "Scheduled Tribe Males": 158918,
      "Male Illiterates": 156183,
      "Prevalence of Severe Anaemia in pregnant women aged 15-49years in percentage DLHS-4": 4.1,
      "0-6 Age Group Persons": 126773,
      "Upper Primary Student-Classroom Ratio in percentage DISE": "NA",
      "Currently married men married below 21years of age in percentage DLHS-4": 9.6,
      "Male Literates": 410782,
      "Households with no lighting in percentage Houselisting and Housing Census Data Tables- District Level , Census of India__2": 1.1966162,
      "Primary Drop Out Rate in percentage DISE": "NA",
      "Marginal Workers Household Industry - Males": 2274,
      "Female Illiterates": 225853,
      "Main Workers Other - Females": 70144,
      "Marginal Workers Cultivators - Persons": 23232,
      "Upper Primary Gross Enrolment Ratio in percentage DISE": "NA",
      "Scheduled Caste Persons": 224822,
      "Marginal Workers Cultivators worked for 3 - 6 moths during last year - Persons": 16708,
      "Households with landline phone in percentage": 1.1,
      "Total Households in District  Houselisting and Housing Census Data Tables- District Level , Census of India": 234411,
      "Upper Primary Pupil-Teacher Ratio in percentage DISE": "NA",
      "Primary Student-Classroom Ratio in percentage DISE": "NA",
      "Primary Schools with boys toilet in percentage DISE": "NA",
      "Mean number of children ever born to women aged 40-49years  DLHS-4": 2.9,
      "Households receiving untreated tap water within premises  Houselisting and Housing Census Data Tables- District Level , Census of India__5": 7538,
      "Marginal Workers Household Industry worked for 0 - 3 moths during last year - Persons": 1723,
      "Total Male Population": 566965,
      "Non Workers - Females": 408324,
      "Current use of family planning methods in percentage DLHS-4": 67.1,
      "Households with main source of drinking water within premises  Houselisting and Housing Census Data Tables- District Level , Census of India__3": 67397,
      "Main Workers Agricultural Labourers - Males": 21999,
      "Marginal Workers Other worked for 0 - 3 moths during last year - Persons": 15674,
      "Currently married women married below 18years of age in percentage DLHS-4": 11.3,
      "Person Illiterates": 382036,
      "Main Workers Household Industry - Females": 1470,
      "Female Literates": 326042,
      "Marginal Workers Cultivators worked for 0 - 3 moths during last year - Males": 3068,
      "Male": "NA",
      "Households with improved source of drinking water in percentage DLHS-4": 73.3,
      "Upper Primary Schools with electricity in percentage DISE": "NA",
      "Households with electricity in percentage DLHS-4": 94.5,
      "Villages with Primary Health Centre within 10km in percentage DLHS-4": "Not applicable",
      "Births to women aged 15-19years out of Total births in percentage DLHS-4": 6.2,
      "Prevalence of Anaemia in women aged 15-49years in percentage DLHS-4": 67.5,
      "Marginal Workers Agricultural Labourers worked for 3 - 6 moths during last year - Persons": 22853,
      "Main Workers Household Industry - Males": 4354,
      "Scheduled Tribe Females": 160151,
      "Marginal Workers worked for 0 - 3 moths during last year - Males": 18117,
      "Marginal Workers Other worked for 3 - 6 moths during last year - Males": 24596,
      "Primary Net Enrolment Ratio in percentage DISE": "NA",
      "Total": "NA",
      "Mean age at marriage for boys DLHS-4": 26,
      "Number of District Hospitals  DLHS-4": "Not applicable",
      "0-6 Age Group Females": 62244,
      "Marginal Workers Agricultural Labourers worked for 0 - 3 moths during last year - Persons": 9964,
      "Marginal Workers Household Industry worked for 0 - 3 moths during last year - Males": 836,
      "Total Workers  Females": 143571,
      "Marginal Workers worked for 3 - 6 moths during last year - Females": 38265,
      "Institutional Deliveries in percentage DLHS-4": 83.8,
      "Marginal Workers Other - Males": 34247,
      "Total Workers  Males": 285007,
      "Main Workers - Females": 89538,
      "Primary Gross Enrolment Ratio in percentage DISE": "NA",
      "Main Workers Cultivators - Persons": 50446,
      "Marginal Workers Household Industry worked for 0 - 3 moths during last year - Females": 887,
      "Upper Primary Net Enrolment Ratio in percentage DISE": "NA",
      "Primary New Government Schools since 2003 in percentage DISE": "NA",
      "Tier": "Rural",
      "Marginal Workers Household Industry - Females": 2337,
      "Primary Schools with electricity in percentage DISE": "NA",
      "Main Workers Other - Persons": 222807,
      "Marginal Workers Household Industry worked for 3 - 6 moths during last year - Females": 1450,
      "Main Workers Cultivators - Males": 40481,
      "Main Workers Household Industry - Persons": 5824,
      "Marginal Workers Cultivators worked for 0 - 3 moths during last year - Persons": 6524,
      "Scheduled Caste Males": 114866,
      "Marginal Workers - Persons": 119543,
      "Deliveries at home conducted by skilled health personnel in percentage DLHS-4": 3.6,
      "Villages with Sub-Health Centres within 3km in percentage DLHS-4": "Not applicable",
      "Upper Primary New Government Schools since 2003 in percentage DISE": "NA",
      "0-6 Age Group Males": 64529,
      "Primary Schools with drinking water facility in percentage DISE": "NA",
      "Non Workers - Persons": 690282,
      "Person Literates": 736824,
      "State": "WEST BENGAL",
      "Total Female Population": 551895,
      "Marginal Workers worked for 0 - 3 moths during last year - Persons": 33885,
      "Marginal Workers Cultivators - Females": 10654,
      "Marginal Workers Other - Persons": 58883,
      "Sex Ratio": 973,
      "Scheduled Tribe Persons": 319069,
      "Marginal Workers Household Industry worked for 3 - 6 moths during last year - Males": 1438,
      "Marginal Workers Agricultural Labourers - Females": 16406,
      "Mean age at marriage for girls DLHS-4": 21,
      "Households with solar energy as main source of lighting  Houselisting and Housing Census Data Tables- District Level , Census of India__4": 1274,
      "District": "DARJILING",
      "Households receiving treated tap water within premises in percentage Houselisting and Housing Census Data Tables- District Level , Census of India__1": 2.589895525,
      "Total Workers  Persons": 428578,
      "Households receiving treated tap water within premises  Houselisting and Housing Census Data Tables- District Level , Census of India__4": 6071,
      "Primary Female Teachers in percentage DISE": "NA",
      "Number of Households": 236694,
      "Main Workers Agricultural Labourers - Persons": 29958
    }
  ],
  "Urban": [
    {
      "Marginal Workers Agricultural Labourers - Persons": 1137,
      "Marginal Workers Other - Females": 11642,
      "Marginal Workers Other worked for 0 - 3 moths during last year - Females": 1295,
      "Upper Primary Schools with boys toilet in percentage DISE": "NA",
      "Total Population": 727963,
      "Households with electricity as main source of lighting in percentage Houselisting and Housing Census Data Tables- District Level , Census of India": 90.75454091,
      "Primary Girl's Enrolment in percentage DISE": "NA",
      "Marginal Workers worked for 3 - 6 moths during last year - Males": 15022,
      "Prevalence of Acute illness in percentage DLHS-4": "Not available",
      "Main Workers - Persons": 223820,
      "Main Workers Cultivators - Females": 387,
      "Marginal Workers Agricultural Labourers worked for 3 - 6 moths during last year - Females": 434,
      "Marginal Workers Other worked for 0 - 3 moths during last year - Males": 2345,
      "Upper Primary Schools with drinking water facility in percentage DISE": "NA",
      "Primary Schools with girls toilet in percentage DISE": "NA",
      "Marginal Workers worked for 3 - 6 moths during last year - Persons": 27095,
      "Upper Primary Drop Out Rate in percentage DISE": "NA",
      "Prevalence of Anaemia in pregnant women aged 15-49years in percentage DLHS-4": "Not available",
      "Current use of any modern method of family planning in percentage DLHS-4": "Not available",
      "Marginal Workers Agricultural Labourers - Males": 585,
      "Upper Primary Female Teachers in percentage DISE": "NA",
      "Marginal Workers - Females": 13593,
      "Marginal Workers Other worked for 3 - 6 moths during last year - Persons": 24138,
      "Main Workers Agricultural Labourers - Females": 756,
      "Marginal Workers Cultivators worked for 3 - 6 moths during last year - Females": 469,
      "Households with no lighting  Houselisting and Housing Census Data Tables- District Level , Census of India__5": 839,
      "Prevalence of Severe Anaemia  in percentage DLHS-4": "Not available",
      "Total unmet need for family planning in percentage DLHS-4": "Not available",
      "Main Workers Other - Males": 170811,
      "Children who received full vaccination in percentage DLHS-4": "Not available",
      "Marginal Workers Household Industry - Persons": 1451,
      "Primary Pupil-Teacher Ratio in percentage DISE": "NA",
      "Marginal Workers Agricultural Labourers worked for 3 - 6 moths during last year - Males": 382,
      "Scheduled Caste Females": 45824,
      "Marginal Workers Cultivators - Males": 484,
      "Marginal Workers - Males": 17735,
      "Marginal Workers worked for 0 - 3 moths during last year - Females": 1520,
      "Households with main source of drinking water within premises in percentage Houselisting and Housing Census Data Tables- District Level , Census of India": 52.28296298,
      "Marginal Workers Household Industry worked for 3 - 6 moths during last year - Persons": 1226,
      "Upper Primary Girl's Enrolment in percentage DISE": "NA",
      "Prevalence of Severe Anaemia in women aged 15-49years in percentage DLHS-4": "Not available",
      "Marginal Workers Agricultural Labourers worked for 0 - 3 moths during last year - Males": 203,
      "Households with electricity as main source of lighting  Houselisting and Housing Census Data Tables- District Level , Census of India__3": 134206,
      "Households with computer or laptop with internet connection in percentage": 6.03,
      "PHCs functioning on a 24x7hours basis in percentage DLHS-4": 0,
      "Non Workers - Males": 175715,
      "Total Households in District Houselisting and Housing Census Data Tables- District Level , Census of India": 147878,
      "Upper Primary Schools with girls toilet in percentage DISE": "NA",
      "Households with mobile phone in percentage": 68.64,
      "Households receiving untreated tap water within premises in percentage Houselisting and Housing Census Data Tables- District Level , Census of India__2": 3.049135098,
      "Marginal Workers Cultivators worked for 3 - 6 moths during last year - Males": 446,
      "Prevalence of Anaemia  in percentage DLHS-4": "Not available",
      "Prevalence of Chronic illness in percentage DLHS-4": "Not available",
      "Households with solar energy as main source of lighting in percentage Houselisting and Housing Census Data Tables- District Level , Census of India__1": 1.426175631,
      "Marginal Workers Agricultural Labourers worked for 0 - 3 moths during last year - Females": 118,
      "Main Workers - Males": 176844,
      "Female": "NA",
      "Sno": 1983,
      "Marginal Workers Other worked for 3 - 6 moths during last year - Females": 10347,
      "Marginal Workers Cultivators worked for 0 - 3 moths during last year - Females": 9,
      "Scheduled Tribe Males": 38333,
      "Male Illiterates": 63403,
      "Prevalence of Severe Anaemia in pregnant women aged 15-49years in percentage DLHS-4": "Not available",
      "0-6 Age Group Persons": 66396,
      "Upper Primary Student-Classroom Ratio in percentage DISE": "NA",
      "Currently married men married below 21years of age in percentage DLHS-4": "Not available",
      "Male Literates": 306891,
      "Households with no lighting in percentage Houselisting and Housing Census Data Tables- District Level , Census of India__2": 0.56735958,
      "Primary Drop Out Rate in percentage DISE": "NA",
      "Marginal Workers Household Industry - Males": 530,
      "Female Illiterates": 85799,
      "Main Workers Other - Females": 44649,
      "Marginal Workers Cultivators - Persons": 962,
      "Upper Primary Gross Enrolment Ratio in percentage DISE": "NA",
      "Scheduled Caste Persons": 92453,
      "Marginal Workers Cultivators worked for 3 - 6 moths during last year - Persons": 915,
      "Households with landline phone in percentage": 3.31,
      "Total Households in District  Houselisting and Housing Census Data Tables- District Level , Census of India": 147878,
      "Upper Primary Pupil-Teacher Ratio in percentage DISE": "NA",
      "Primary Student-Classroom Ratio in percentage DISE": "NA",
      "Primary Schools with boys toilet in percentage DISE": "NA",
      "Mean number of children ever born to women aged 40-49years  DLHS-4": "Not available",
      "Households receiving untreated tap water within premises  Houselisting and Housing Census Data Tables- District Level , Census of India__5": 4509,
      "Marginal Workers Household Industry worked for 0 - 3 moths during last year - Persons": 225,
      "Total Male Population": 370294,
      "Non Workers - Females": 297100,
      "Current use of family planning methods in percentage DLHS-4": "Not available",
      "Households with main source of drinking water within premises  Houselisting and Housing Census Data Tables- District Level , Census of India__3": 77315,
      "Main Workers Agricultural Labourers - Males": 1373,
      "Marginal Workers Other worked for 0 - 3 moths during last year - Persons": 3640,
      "Currently married women married below 18years of age in percentage DLHS-4": "Not available",
      "Person Illiterates": 149202,
      "Main Workers Household Industry - Females": 1184,
      "Female Literates": 271870,
      "Marginal Workers Cultivators worked for 0 - 3 moths during last year - Males": 38,
      "Male": "NA",
      "Households with improved source of drinking water in percentage DLHS-4": "Not available",
      "Upper Primary Schools with electricity in percentage DISE": "NA",
      "Households with electricity in percentage DLHS-4": "Not available",
      "Villages with Primary Health Centre within 10km in percentage DLHS-4": 0,
      "Births to women aged 15-19years out of Total births in percentage DLHS-4": "Not available",
      "Prevalence of Anaemia in women aged 15-49years in percentage DLHS-4": "Not available",
      "Marginal Workers Agricultural Labourers worked for 3 - 6 moths during last year - Persons": 816,
      "Main Workers Household Industry - Males": 3509,
      "Scheduled Tribe Females": 39987,
      "Marginal Workers worked for 0 - 3 moths during last year - Males": 2713,
      "Marginal Workers Other worked for 3 - 6 moths during last year - Males": 13791,
      "Primary Net Enrolment Ratio in percentage DISE": "NA",
      "Total": "NA",
      "Mean age at marriage for boys DLHS-4": "Not available",
      "Number of District Hospitals  DLHS-4": 0,
      "0-6 Age Group Females": 31992,
      "Marginal Workers Agricultural Labourers worked for 0 - 3 moths during last year - Persons": 321,
      "Marginal Workers Household Industry worked for 0 - 3 moths during last year - Males": 127,
      "Total Workers  Females": 60569,
      "Marginal Workers worked for 3 - 6 moths during last year - Females": 12073,
      "Institutional Deliveries in percentage DLHS-4": "Not available",
      "Marginal Workers Other - Males": 16136,
      "Total Workers  Males": 194579,
      "Main Workers - Females": 46976,
      "Primary Gross Enrolment Ratio in percentage DISE": "NA",
      "Main Workers Cultivators - Persons": 1538,
      "Marginal Workers Household Industry worked for 0 - 3 moths during last year - Females": 98,
      "Upper Primary Net Enrolment Ratio in percentage DISE": "NA",
      "Primary New Government Schools since 2003 in percentage DISE": "NA",
      "Tier": "Urban",
      "Marginal Workers Household Industry - Females": 921,
      "Primary Schools with electricity in percentage DISE": "NA",
      "Main Workers Other - Persons": 215460,
      "Marginal Workers Household Industry worked for 3 - 6 moths during last year - Females": 823,
      "Main Workers Cultivators - Males": 1151,
      "Main Workers Household Industry - Persons": 4693,
      "Marginal Workers Cultivators worked for 0 - 3 moths during last year - Persons": 47,
      "Scheduled Caste Males": 46629,
      "Marginal Workers - Persons": 31328,
      "Deliveries at home conducted by skilled health personnel in percentage DLHS-4": "Not available",
      "Villages with Sub-Health Centres within 3km in percentage DLHS-4": 0,
      "Upper Primary New Government Schools since 2003 in percentage DISE": "NA",
      "0-6 Age Group Males": 34404,
      "Primary Schools with drinking water facility in percentage DISE": "NA",
      "Non Workers - Persons": 472815,
      "Person Literates": 578761,
      "State": "WEST BENGAL",
      "Total Female Population": 357669,
      "Marginal Workers worked for 0 - 3 moths during last year - Persons": 4233,
      "Marginal Workers Cultivators - Females": 478,
      "Marginal Workers Other - Persons": 27778,
      "Sex Ratio": 966,
      "Scheduled Tribe Persons": 78320,
      "Marginal Workers Household Industry worked for 3 - 6 moths during last year - Males": 403,
      "Marginal Workers Agricultural Labourers - Females": 552,
      "Mean age at marriage for girls DLHS-4": "Not available",
      "Households with solar energy as main source of lighting  Houselisting and Housing Census Data Tables- District Level , Census of India__4": 2109,
      "District": "DARJILING",
      "Households receiving treated tap water within premises in percentage Houselisting and Housing Census Data Tables- District Level , Census of India__1": 24.19359202,
      "Total Workers  Persons": 255148,
      "Households receiving treated tap water within premises  Houselisting and Housing Census Data Tables- District Level , Census of India__4": 35777,
      "Primary Female Teachers in percentage DISE": "NA",
      "Number of Households": 154540,
      "Main Workers Agricultural Labourers - Persons": 2129
    }
  ]
}