{
  "Total": [
    {
      "Marginal Workers Agricultural Labourers - Persons": 213366,
      "Marginal Workers Other - Females": 67938,
      "Marginal Workers Other worked for 0 - 3 moths during last year - Females": 10445,
      "Upper Primary Schools with boys toilet in percentage DISE": 93,
      "Total Population": 5519145,
      "Households with electricity as main source of lighting in percentage Houselisting and Housing Census Data Tables- District Level , Census of India": 76.03821534,
      "Primary Girl's Enrolment in percentage DISE": 49,
      "Marginal Workers worked for 3 - 6 moths during last year - Males": 208378,
      "Prevalence of Acute illness in percentage DLHS-4": 11.3,
      "Main Workers - Persons": 1714645,
      "Main Workers Cultivators - Females": 10017,
      "Marginal Workers Agricultural Labourers worked for 3 - 6 moths during last year - Females": 63179,
      "Marginal Workers Other worked for 0 - 3 moths during last year - Males": 12716,
      "Upper Primary Schools with drinking water facility in percentage DISE": 99.5,
      "Primary Schools with girls toilet in percentage DISE": 94.2,
      "Marginal Workers worked for 3 - 6 moths during last year - Persons": 355100,
      "Upper Primary Drop Out Rate in percentage DISE": 3.55,
      "Prevalence of Anaemia in pregnant women aged 15-49years in percentage DLHS-4": 68.3,
      "Current use of any modern method of family planning in percentage DLHS-4": 57.3,
      "Marginal Workers Agricultural Labourers - Males": 128701,
      "Upper Primary Female Teachers in percentage DISE": 22.6,
      "Marginal Workers - Females": 188050,
      "Marginal Workers Other worked for 3 - 6 moths during last year - Persons": 136812,
      "Main Workers Agricultural Labourers - Females": 82765,
      "Marginal Workers Cultivators worked for 3 - 6 moths during last year - Females": 7752,
      "Households with no lighting  Houselisting and Housing Census Data Tables- District Level , Census of India__5": 8574,
      "Prevalence of Severe Anaemia  in percentage DLHS-4": 15.8,
      "Total unmet need for family planning in percentage DLHS-4": 20.1,
      "Main Workers Other - Males": 899469,
      "Children who received full vaccination in percentage DLHS-4": 83.5,
      "Marginal Workers Household Industry - Persons": 36613,
      "Primary Pupil-Teacher Ratio in percentage DISE": 19,
      "Marginal Workers Agricultural Labourers worked for 3 - 6 moths during last year - Males": 104538,
      "Scheduled Caste Females": 663029,
      "Marginal Workers Cultivators - Males": 18140,
      "Marginal Workers - Males": 250175,
      "Marginal Workers worked for 0 - 3 moths during last year - Females": 41328,
      "Households with main source of drinking water within premises in percentage Houselisting and Housing Census Data Tables- District Level , Census of India": 38.05258705,
      "Marginal Workers Household Industry worked for 3 - 6 moths during last year - Persons": 27303,
      "Upper Primary Girl's Enrolment in percentage DISE": 54.4,
      "Prevalence of Severe Anaemia in women aged 15-49years in percentage DLHS-4": 5.2,
      "Marginal Workers Agricultural Labourers worked for 0 - 3 moths during last year - Males": 24163,
      "Households with electricity as main source of lighting  Houselisting and Housing Census Data Tables- District Level , Census of India__3": 965258,
      "Households with computer or laptop with internet connection in percentage": 2.5,
      "PHCs functioning on a 24x7hours basis in percentage DLHS-4": 18.2,
      "Non Workers - Males": 1101045,
      "Total Households in District Houselisting and Housing Census Data Tables- District Level , Census of India": 1269438,
      "Upper Primary Schools with girls toilet in percentage DISE": 80.6,
      "Households with mobile phone in percentage": 52.08,
      "Households receiving untreated tap water within premises in percentage Houselisting and Housing Census Data Tables- District Level , Census of India__2": 1.862477726,
      "Marginal Workers Cultivators worked for 3 - 6 moths during last year - Males": 15516,
      "Prevalence of Anaemia  in percentage DLHS-4": 82.8,
      "Prevalence of Chronic illness in percentage DLHS-4": 10.5,
      "Households with solar energy as main source of lighting in percentage Houselisting and Housing Census Data Tables- District Level , Census of India__1": 1.033134348,
      "Marginal Workers Agricultural Labourers worked for 0 - 3 moths during last year - Females": 21486,
      "Main Workers - Males": 1463433,
      "Female": 76.36,
      "Sno": 1988,
      "Marginal Workers Other worked for 3 - 6 moths during last year - Females": 57493,
      "Marginal Workers Cultivators worked for 0 - 3 moths during last year - Females": 2381,
      "Scheduled Tribe Males": 113249,
      "Male Illiterates": 602876,
      "Prevalence of Severe Anaemia in pregnant women aged 15-49years in percentage DLHS-4": 4.8,
      "0-6 Age Group Persons": 533210,
      "Upper Primary Student-Classroom Ratio in percentage DISE": 32,
      "Currently married men married below 21years of age in percentage DLHS-4": 7,
      "Male Literates": 2211777,
      "Households with no lighting in percentage Houselisting and Housing Census Data Tables- District Level , Census of India__2": 0.675416996,
      "Primary Drop Out Rate in percentage DISE": 0.7,
      "Marginal Workers Household Industry - Males": 11299,
      "Female Illiterates": 837881,
      "Main Workers Other - Females": 138540,
      "Marginal Workers Cultivators - Persons": 28273,
      "Upper Primary Gross Enrolment Ratio in percentage DISE": 95.2,
      "Scheduled Caste Persons": 1344021,
      "Marginal Workers Cultivators worked for 3 - 6 moths during last year - Persons": 23268,
      "Households with landline phone in percentage": 3.23,
      "Total Households in District  Houselisting and Housing Census Data Tables- District Level , Census of India": 1269438,
      "Upper Primary Pupil-Teacher Ratio in percentage DISE": 27,
      "Primary Student-Classroom Ratio in percentage DISE": 20,
      "Primary Schools with boys toilet in percentage DISE": 78.6,
      "Mean number of children ever born to women aged 40-49years  DLHS-4": 2.4,
      "Households receiving untreated tap water within premises  Houselisting and Housing Census Data Tables- District Level , Census of India__5": 23643,
      "Marginal Workers Household Industry worked for 0 - 3 moths during last year - Persons": 9310,
      "Total Male Population": 2814653,
      "Non Workers - Females": 2265230,
      "Current use of family planning methods in percentage DLHS-4": 68.2,
      "Households with main source of drinking water within premises  Houselisting and Housing Census Data Tables- District Level , Census of India__3": 483054,
      "Main Workers Agricultural Labourers - Males": 287249,
      "Marginal Workers Other worked for 0 - 3 moths during last year - Persons": 23161,
      "Currently married women married below 18years of age in percentage DLHS-4": 25,
      "Person Illiterates": 1440757,
      "Main Workers Household Industry - Females": 19890,
      "Female Literates": 1866611,
      "Marginal Workers Cultivators worked for 0 - 3 moths during last year - Males": 2624,
      "Male": 87.03,
      "Households with improved source of drinking water in percentage DLHS-4": 100,
      "Upper Primary Schools with electricity in percentage DISE": 55.5,
      "Households with electricity in percentage DLHS-4": 91.8,
      "Villages with Primary Health Centre within 10km in percentage DLHS-4": 97.1,
      "Births to women aged 15-19years out of Total births in percentage DLHS-4": 8.4,
      "Prevalence of Anaemia in women aged 15-49years in percentage DLHS-4": 70,
      "Marginal Workers Agricultural Labourers worked for 3 - 6 moths during last year - Persons": 167717,
      "Main Workers Household Industry - Males": 55325,
      "Scheduled Tribe Females": 115994,
      "Marginal Workers worked for 0 - 3 moths during last year - Males": 41797,
      "Marginal Workers Other worked for 3 - 6 moths during last year - Males": 79319,
      "Primary Net Enrolment Ratio in percentage DISE": 82,
      "Total": 81.8,
      "Mean age at marriage for boys DLHS-4": 26.9,
      "Number of District Hospitals  DLHS-4": 1,
      "0-6 Age Group Females": 260094,
      "Marginal Workers Agricultural Labourers worked for 0 - 3 moths during last year - Persons": 45649,
      "Marginal Workers Household Industry worked for 0 - 3 moths during last year - Males": 2294,
      "Total Workers  Females": 439262,
      "Marginal Workers worked for 3 - 6 moths during last year - Females": 146722,
      "Institutional Deliveries in percentage DLHS-4": 88.8,
      "Marginal Workers Other - Males": 92035,
      "Total Workers  Males": 1713608,
      "Main Workers - Females": 251212,
      "Primary Gross Enrolment Ratio in percentage DISE": 90.9,
      "Main Workers Cultivators - Persons": 231407,
      "Marginal Workers Household Industry worked for 0 - 3 moths during last year - Females": 7016,
      "Upper Primary Net Enrolment Ratio in percentage DISE": 68.8,
      "Primary New Government Schools since 2003 in percentage DISE": 3.3,
      "Tier": "Total",
      "Marginal Workers Household Industry - Females": 25314,
      "Primary Schools with electricity in percentage DISE": 68,
      "Main Workers Other - Persons": 1038009,
      "Marginal Workers Household Industry worked for 3 - 6 moths during last year - Females": 18298,
      "Main Workers Cultivators - Males": 221390,
      "Main Workers Household Industry - Persons": 75215,
      "Marginal Workers Cultivators worked for 0 - 3 moths during last year - Persons": 5005,
      "Scheduled Caste Males": 680992,
      "Marginal Workers - Persons": 438225,
      "Deliveries at home conducted by skilled health personnel in percentage DLHS-4": 3.3,
      "Villages with Sub-Health Centres within 3km in percentage DLHS-4": 91.2,
      "Upper Primary New Government Schools since 2003 in percentage DISE": 70.1,
      "0-6 Age Group Males": 273116,
      "Primary Schools with drinking water facility in percentage DISE": 99.9,
      "Non Workers - Persons": 3366275,
      "Person Literates": 4078388,
      "State": "WEST BENGAL",
      "Total Female Population": 2704492,
      "Marginal Workers worked for 0 - 3 moths during last year - Persons": 83125,
      "Marginal Workers Cultivators - Females": 10133,
      "Marginal Workers Other - Persons": 159973,
      "Sex Ratio": 961,
      "Scheduled Tribe Persons": 229243,
      "Marginal Workers Household Industry worked for 3 - 6 moths during last year - Males": 9005,
      "Marginal Workers Agricultural Labourers - Females": 84665,
      "Mean age at marriage for girls DLHS-4": 19.7,
      "Households with solar energy as main source of lighting  Houselisting and Housing Census Data Tables- District Level , Census of India__4": 13115,
      "District": "HUGLI",
      "Households receiving treated tap water within premises in percentage Houselisting and Housing Census Data Tables- District Level , Census of India__1": 17.78409028,
      "Total Workers  Persons": 2152870,
      "Households receiving treated tap water within premises  Houselisting and Housing Census Data Tables- District Level , Census of India__4": 225758,
      "Primary Female Teachers in percentage DISE": 38.9,
      "Number of Households": 1287423,
      "Main Workers Agricultural Labourers - Persons": 370014
    }
  ],
  "Rural": [
    {
      "Marginal Workers Agricultural Labourers - Persons": 206297,
      "Marginal Workers Other - Females": 36431,
      "Marginal Workers Other worked for 0 - 3 moths during last year - Females": 7360,
      "Upper Primary Schools with boys toilet in percentage DISE": "NA",
      "Total Population": 3390646,
      "Households with electricity as main source of lighting in percentage Houselisting and Housing Census Data Tables- District Level , Census of India": 66.84941586,
      "Primary Girl's Enrolment in percentage DISE": "NA",
      "Marginal Workers worked for 3 - 6 moths during last year - Males": 161545,
      "Prevalence of Acute illness in percentage DLHS-4": 14.1,
      "Main Workers - Persons": 1029377,
      "Main Workers Cultivators - Females": 9345,
      "Marginal Workers Agricultural Labourers worked for 3 - 6 moths during last year - Females": 61402,
      "Marginal Workers Other worked for 0 - 3 moths during last year - Males": 6965,
      "Upper Primary Schools with drinking water facility in percentage DISE": "NA",
      "Primary Schools with girls toilet in percentage DISE": "NA",
      "Marginal Workers worked for 3 - 6 moths during last year - Persons": 272393,
      "Upper Primary Drop Out Rate in percentage DISE": "NA",
      "Prevalence of Anaemia in pregnant women aged 15-49years in percentage DLHS-4": 69.2,
      "Current use of any modern method of family planning in percentage DLHS-4": 63.1,
      "Marginal Workers Agricultural Labourers - Males": 123834,
      "Upper Primary Female Teachers in percentage DISE": "NA",
      "Marginal Workers - Females": 147418,
      "Marginal Workers Other worked for 3 - 6 moths during last year - Persons": 68685,
      "Main Workers Agricultural Labourers - Females": 79633,
      "Marginal Workers Cultivators worked for 3 - 6 moths during last year - Females": 6410,
      "Households with no lighting  Houselisting and Housing Census Data Tables- District Level , Census of India__5": 5087,
      "Prevalence of Severe Anaemia  in percentage DLHS-4": 13.5,
      "Total unmet need for family planning in percentage DLHS-4": 13.4,
      "Main Workers Other - Males": 354375,
      "Children who received full vaccination in percentage DLHS-4": 86.2,
      "Marginal Workers Household Industry - Persons": 28683,
      "Primary Pupil-Teacher Ratio in percentage DISE": "NA",
      "Marginal Workers Agricultural Labourers worked for 3 - 6 moths during last year - Males": 100442,
      "Scheduled Caste Females": 520872,
      "Marginal Workers Cultivators - Males": 16887,
      "Marginal Workers - Males": 196236,
      "Marginal Workers worked for 0 - 3 moths during last year - Females": 36570,
      "Households with main source of drinking water within premises in percentage Houselisting and Housing Census Data Tables- District Level , Census of India": 25.31380807,
      "Marginal Workers Household Industry worked for 3 - 6 moths during last year - Persons": 21119,
      "Upper Primary Girl's Enrolment in percentage DISE": "NA",
      "Prevalence of Severe Anaemia in women aged 15-49years in percentage DLHS-4": 4.1,
      "Marginal Workers Agricultural Labourers worked for 0 - 3 moths during last year - Males": 23392,
      "Households with electricity as main source of lighting  Houselisting and Housing Census Data Tables- District Level , Census of India__3": 519678,
      "Households with computer or laptop with internet connection in percentage": 0.8,
      "PHCs functioning on a 24x7hours basis in percentage DLHS-4": "Not applicable",
      "Non Workers - Males": 646418,
      "Total Households in District Houselisting and Housing Census Data Tables- District Level , Census of India": 777386,
      "Upper Primary Schools with girls toilet in percentage DISE": "NA",
      "Households with mobile phone in percentage": 46.07,
      "Households receiving untreated tap water within premises in percentage Houselisting and Housing Census Data Tables- District Level , Census of India__2": 1.27427044,
      "Marginal Workers Cultivators worked for 3 - 6 moths during last year - Males": 14335,
      "Prevalence of Anaemia  in percentage DLHS-4": 80.8,
      "Prevalence of Chronic illness in percentage DLHS-4": 12.6,
      "Households with solar energy as main source of lighting in percentage Houselisting and Housing Census Data Tables- District Level , Census of India__1": 0.949463973,
      "Marginal Workers Agricultural Labourers worked for 0 - 3 moths during last year - Females": 21061,
      "Main Workers - Males": 880291,
      "Female": "NA",
      "Sno": 1987,
      "Marginal Workers Other worked for 3 - 6 moths during last year - Females": 29071,
      "Marginal Workers Cultivators worked for 0 - 3 moths during last year - Females": 2367,
      "Scheduled Tribe Males": 104347,
      "Male Illiterates": 413178,
      "Prevalence of Severe Anaemia in pregnant women aged 15-49years in percentage DLHS-4": 5.3,
      "0-6 Age Group Persons": 347916,
      "Upper Primary Student-Classroom Ratio in percentage DISE": "NA",
      "Currently married men married below 21years of age in percentage DLHS-4": 10.3,
      "Male Literates": 1309767,
      "Households with no lighting in percentage Houselisting and Housing Census Data Tables- District Level , Census of India__2": 0.654372474,
      "Primary Drop Out Rate in percentage DISE": "NA",
      "Marginal Workers Household Industry - Males": 8936,
      "Female Illiterates": 587924,
      "Main Workers Other - Females": 46930,
      "Marginal Workers Cultivators - Persons": 25664,
      "Upper Primary Gross Enrolment Ratio in percentage DISE": "NA",
      "Scheduled Caste Persons": 1053739,
      "Marginal Workers Cultivators worked for 3 - 6 moths during last year - Persons": 20745,
      "Households with landline phone in percentage": 2.4,
      "Total Households in District  Houselisting and Housing Census Data Tables- District Level , Census of India": 777386,
      "Upper Primary Pupil-Teacher Ratio in percentage DISE": "NA",
      "Primary Student-Classroom Ratio in percentage DISE": "NA",
      "Primary Schools with boys toilet in percentage DISE": "NA",
      "Mean number of children ever born to women aged 40-49years  DLHS-4": 2.8,
      "Households receiving untreated tap water within premises  Houselisting and Housing Census Data Tables- District Level , Census of India__5": 9906,
      "Marginal Workers Household Industry worked for 0 - 3 moths during last year - Persons": 7564,
      "Total Male Population": 1722945,
      "Non Workers - Females": 1371197,
      "Current use of family planning methods in percentage DLHS-4": 75.7,
      "Households with main source of drinking water within premises  Houselisting and Housing Census Data Tables- District Level , Census of India__3": 196786,
      "Main Workers Agricultural Labourers - Males": 273772,
      "Marginal Workers Other worked for 0 - 3 moths during last year - Persons": 14325,
      "Currently married women married below 18years of age in percentage DLHS-4": 29.5,
      "Person Illiterates": 1001102,
      "Main Workers Household Industry - Females": 13178,
      "Female Literates": 1079777,
      "Marginal Workers Cultivators worked for 0 - 3 moths during last year - Males": 2552,
      "Male": "NA",
      "Households with improved source of drinking water in percentage DLHS-4": 100,
      "Upper Primary Schools with electricity in percentage DISE": "NA",
      "Households with electricity in percentage DLHS-4": 86.6,
      "Villages with Primary Health Centre within 10km in percentage DLHS-4": "Not applicable",
      "Births to women aged 15-19years out of Total births in percentage DLHS-4": 7.7,
      "Prevalence of Anaemia in women aged 15-49years in percentage DLHS-4": 70.2,
      "Marginal Workers Agricultural Labourers worked for 3 - 6 moths during last year - Persons": 161844,
      "Main Workers Household Industry - Males": 38663,
      "Scheduled Tribe Females": 107273,
      "Marginal Workers worked for 0 - 3 moths during last year - Males": 34691,
      "Marginal Workers Other worked for 3 - 6 moths during last year - Males": 39614,
      "Primary Net Enrolment Ratio in percentage DISE": "NA",
      "Total": "NA",
      "Mean age at marriage for boys DLHS-4": 25.6,
      "Number of District Hospitals  DLHS-4": "Not applicable",
      "0-6 Age Group Females": 169896,
      "Marginal Workers Agricultural Labourers worked for 0 - 3 moths during last year - Persons": 44453,
      "Marginal Workers Household Industry worked for 0 - 3 moths during last year - Males": 1782,
      "Total Workers  Females": 296504,
      "Marginal Workers worked for 3 - 6 moths during last year - Females": 110848,
      "Institutional Deliveries in percentage DLHS-4": 85.6,
      "Marginal Workers Other - Males": 46579,
      "Total Workers  Males": 1076527,
      "Main Workers - Females": 149086,
      "Primary Gross Enrolment Ratio in percentage DISE": "NA",
      "Main Workers Cultivators - Persons": 222826,
      "Marginal Workers Household Industry worked for 0 - 3 moths during last year - Females": 5782,
      "Upper Primary Net Enrolment Ratio in percentage DISE": "NA",
      "Primary New Government Schools since 2003 in percentage DISE": "NA",
      "Tier": "Rural",
      "Marginal Workers Household Industry - Females": 19747,
      "Primary Schools with electricity in percentage DISE": "NA",
      "Main Workers Other - Persons": 401305,
      "Marginal Workers Household Industry worked for 3 - 6 moths during last year - Females": 13965,
      "Main Workers Cultivators - Males": 213481,
      "Main Workers Household Industry - Persons": 51841,
      "Marginal Workers Cultivators worked for 0 - 3 moths during last year - Persons": 4919,
      "Scheduled Caste Males": 532867,
      "Marginal Workers - Persons": 343654,
      "Deliveries at home conducted by skilled health personnel in percentage DLHS-4": 4.6,
      "Villages with Sub-Health Centres within 3km in percentage DLHS-4": "Not applicable",
      "Upper Primary New Government Schools since 2003 in percentage DISE": "NA",
      "0-6 Age Group Males": 178020,
      "Primary Schools with drinking water facility in percentage DISE": "NA",
      "Non Workers - Persons": 2017615,
      "Person Literates": 2389544,
      "State": "WEST BENGAL",
      "Total Female Population": 1667701,
      "Marginal Workers worked for 0 - 3 moths during last year - Persons": 71261,
      "Marginal Workers Cultivators - Females": 8777,
      "Marginal Workers Other - Persons": 83010,
      "Sex Ratio": 968,
      "Scheduled Tribe Persons": 211620,
      "Marginal Workers Household Industry worked for 3 - 6 moths during last year - Males": 7154,
      "Marginal Workers Agricultural Labourers - Females": 82463,
      "Mean age at marriage for girls DLHS-4": 19,
      "Households with solar energy as main source of lighting  Houselisting and Housing Census Data Tables- District Level , Census of India__4": 7381,
      "District": "HUGLI",
      "Households receiving treated tap water within premises in percentage Houselisting and Housing Census Data Tables- District Level , Census of India__1": 2.88685415,
      "Total Workers  Persons": 1373031,
      "Households receiving treated tap water within premises  Houselisting and Housing Census Data Tables- District Level , Census of India__4": 22442,
      "Primary Female Teachers in percentage DISE": "NA",
      "Number of Households": 781480,
      "Main Workers Agricultural Labourers - Persons": 353405
    }
  ],
  "Urban": [
    {
      "Marginal Workers Agricultural Labourers - Persons": 7069,
      "Marginal Workers Other - Females": 31507,
      "Marginal Workers Other worked for 0 - 3 moths during last year - Females": 3085,
      "Upper Primary Schools with boys toilet in percentage DISE": "NA",
      "Total Population": 2128499,
      "Households with electricity as main source of lighting in percentage Houselisting and Housing Census Data Tables- District Level , Census of India": 90.55546975,
      "Primary Girl's Enrolment in percentage DISE": "NA",
      "Marginal Workers worked for 3 - 6 moths during last year - Males": 46833,
      "Prevalence of Acute illness in percentage DLHS-4": "Not available",
      "Main Workers - Persons": 685268,
      "Main Workers Cultivators - Females": 672,
      "Marginal Workers Agricultural Labourers worked for 3 - 6 moths during last year - Females": 1777,
      "Marginal Workers Other worked for 0 - 3 moths during last year - Males": 5751,
      "Upper Primary Schools with drinking water facility in percentage DISE": "NA",
      "Primary Schools with girls toilet in percentage DISE": "NA",
      "Marginal Workers worked for 3 - 6 moths during last year - Persons": 82707,
      "Upper Primary Drop Out Rate in percentage DISE": "NA",
      "Prevalence of Anaemia in pregnant women aged 15-49years in percentage DLHS-4": "Not available",
      "Current use of any modern method of family planning in percentage DLHS-4": "Not available",
      "Marginal Workers Agricultural Labourers - Males": 4867,
      "Upper Primary Female Teachers in percentage DISE": "NA",
      "Marginal Workers - Females": 40632,
      "Marginal Workers Other worked for 3 - 6 moths during last year - Persons": 68127,
      "Main Workers Agricultural Labourers - Females": 3132,
      "Marginal Workers Cultivators worked for 3 - 6 moths during last year - Females": 1342,
      "Households with no lighting  Houselisting and Housing Census Data Tables- District Level , Census of India__5": 3487,
      "Prevalence of Severe Anaemia  in percentage DLHS-4": "Not available",
      "Total unmet need for family planning in percentage DLHS-4": "Not available",
      "Main Workers Other - Males": 545094,
      "Children who received full vaccination in percentage DLHS-4": "Not available",
      "Marginal Workers Household Industry - Persons": 7930,
      "Primary Pupil-Teacher Ratio in percentage DISE": "NA",
      "Marginal Workers Agricultural Labourers worked for 3 - 6 moths during last year - Males": 4096,
      "Scheduled Caste Females": 142157,
      "Marginal Workers Cultivators - Males": 1253,
      "Marginal Workers - Males": 53939,
      "Marginal Workers worked for 0 - 3 moths during last year - Females": 4758,
      "Households with main source of drinking water within premises in percentage Houselisting and Housing Census Data Tables- District Level , Census of India": 58.17840391,
      "Marginal Workers Household Industry worked for 3 - 6 moths during last year - Persons": 6184,
      "Upper Primary Girl's Enrolment in percentage DISE": "NA",
      "Prevalence of Severe Anaemia in women aged 15-49years in percentage DLHS-4": "Not available",
      "Marginal Workers Agricultural Labourers worked for 0 - 3 moths during last year - Males": 771,
      "Households with electricity as main source of lighting  Houselisting and Housing Census Data Tables- District Level , Census of India__3": 445580,
      "Households with computer or laptop with internet connection in percentage": 5.18,
      "PHCs functioning on a 24x7hours basis in percentage DLHS-4": 0,
      "Non Workers - Males": 454627,
      "Total Households in District Houselisting and Housing Census Data Tables- District Level , Census of India": 492052,
      "Upper Primary Schools with girls toilet in percentage DISE": "NA",
      "Households with mobile phone in percentage": 61.59,
      "Households receiving untreated tap water within premises in percentage Houselisting and Housing Census Data Tables- District Level , Census of India__2": 2.791778105,
      "Marginal Workers Cultivators worked for 3 - 6 moths during last year - Males": 1181,
      "Prevalence of Anaemia  in percentage DLHS-4": "Not available",
      "Prevalence of Chronic illness in percentage DLHS-4": "Not available",
      "Households with solar energy as main source of lighting in percentage Houselisting and Housing Census Data Tables- District Level , Census of India__1": 1.16532399,
      "Marginal Workers Agricultural Labourers worked for 0 - 3 moths during last year - Females": 425,
      "Main Workers - Males": 583142,
      "Female": "NA",
      "Sno": 1989,
      "Marginal Workers Other worked for 3 - 6 moths during last year - Females": 28422,
      "Marginal Workers Cultivators worked for 0 - 3 moths during last year - Females": 14,
      "Scheduled Tribe Males": 8902,
      "Male Illiterates": 189698,
      "Prevalence of Severe Anaemia in pregnant women aged 15-49years in percentage DLHS-4": "Not available",
      "0-6 Age Group Persons": 185294,
      "Upper Primary Student-Classroom Ratio in percentage DISE": "NA",
      "Currently married men married below 21years of age in percentage DLHS-4": "Not available",
      "Male Literates": 902010,
      "Households with no lighting in percentage Houselisting and Housing Census Data Tables- District Level , Census of India__2": 0.708664938,
      "Primary Drop Out Rate in percentage DISE": "NA",
      "Marginal Workers Household Industry - Males": 2363,
      "Female Illiterates": 249957,
      "Main Workers Other - Females": 91610,
      "Marginal Workers Cultivators - Persons": 2609,
      "Upper Primary Gross Enrolment Ratio in percentage DISE": "NA",
      "Scheduled Caste Persons": 290282,
      "Marginal Workers Cultivators worked for 3 - 6 moths during last year - Persons": 2523,
      "Households with landline phone in percentage": 4.54,
      "Total Households in District  Houselisting and Housing Census Data Tables- District Level , Census of India": 492052,
      "Upper Primary Pupil-Teacher Ratio in percentage DISE": "NA",
      "Primary Student-Classroom Ratio in percentage DISE": "NA",
      "Primary Schools with boys toilet in percentage DISE": "NA",
      "Mean number of children ever born to women aged 40-49years  DLHS-4": "Not available",
      "Households receiving untreated tap water within premises  Houselisting and Housing Census Data Tables- District Level , Census of India__5": 13737,
      "Marginal Workers Household Industry worked for 0 - 3 moths during last year - Persons": 1746,
      "Total Male Population": 1091708,
      "Non Workers - Females": 894033,
      "Current use of family planning methods in percentage DLHS-4": "Not available",
      "Households with main source of drinking water within premises  Houselisting and Housing Census Data Tables- District Level , Census of India__3": 286268,
      "Main Workers Agricultural Labourers - Males": 13477,
      "Marginal Workers Other worked for 0 - 3 moths during last year - Persons": 8836,
      "Currently married women married below 18years of age in percentage DLHS-4": "Not available",
      "Person Illiterates": 439655,
      "Main Workers Household Industry - Females": 6712,
      "Female Literates": 786834,
      "Marginal Workers Cultivators worked for 0 - 3 moths during last year - Males": 72,
      "Male": "NA",
      "Households with improved source of drinking water in percentage DLHS-4": "Not available",
      "Upper Primary Schools with electricity in percentage DISE": "NA",
      "Households with electricity in percentage DLHS-4": "Not available",
      "Villages with Primary Health Centre within 10km in percentage DLHS-4": 0,
      "Births to women aged 15-19years out of Total births in percentage DLHS-4": "Not available",
      "Prevalence of Anaemia in women aged 15-49years in percentage DLHS-4": "Not available",
      "Marginal Workers Agricultural Labourers worked for 3 - 6 moths during last year - Persons": 5873,
      "Main Workers Household Industry - Males": 16662,
      "Scheduled Tribe Females": 8721,
      "Marginal Workers worked for 0 - 3 moths during last year - Males": 7106,
      "Marginal Workers Other worked for 3 - 6 moths during last year - Males": 39705,
      "Primary Net Enrolment Ratio in percentage DISE": "NA",
      "Total": "NA",
      "Mean age at marriage for boys DLHS-4": "Not available",
      "Number of District Hospitals  DLHS-4": 0,
      "0-6 Age Group Females": 90198,
      "Marginal Workers Agricultural Labourers worked for 0 - 3 moths during last year - Persons": 1196,
      "Marginal Workers Household Industry worked for 0 - 3 moths during last year - Males": 512,
      "Total Workers  Females": 142758,
      "Marginal Workers worked for 3 - 6 moths during last year - Females": 35874,
      "Institutional Deliveries in percentage DLHS-4": "Not available",
      "Marginal Workers Other - Males": 45456,
      "Total Workers  Males": 637081,
      "Main Workers - Females": 102126,
      "Primary Gross Enrolment Ratio in percentage DISE": "NA",
      "Main Workers Cultivators - Persons": 8581,
      "Marginal Workers Household Industry worked for 0 - 3 moths during last year - Females": 1234,
      "Upper Primary Net Enrolment Ratio in percentage DISE": "NA",
      "Primary New Government Schools since 2003 in percentage DISE": "NA",
      "Tier": "Urban",
      "Marginal Workers Household Industry - Females": 5567,
      "Primary Schools with electricity in percentage DISE": "NA",
      "Main Workers Other - Persons": 636704,
      "Marginal Workers Household Industry worked for 3 - 6 moths during last year - Females": 4333,
      "Main Workers Cultivators - Males": 7909,
      "Main Workers Household Industry - Persons": 23374,
      "Marginal Workers Cultivators worked for 0 - 3 moths during last year - Persons": 86,
      "Scheduled Caste Males": 148125,
      "Marginal Workers - Persons": 94571,
      "Deliveries at home conducted by skilled health personnel in percentage DLHS-4": "Not available",
      "Villages with Sub-Health Centres within 3km in percentage DLHS-4": 0,
      "Upper Primary New Government Schools since 2003 in percentage DISE": "NA",
      "0-6 Age Group Males": 95096,
      "Primary Schools with drinking water facility in percentage DISE": "NA",
      "Non Workers - Persons": 1348660,
      "Person Literates": 1688844,
      "State": "WEST BENGAL",
      "Total Female Population": 1036791,
      "Marginal Workers worked for 0 - 3 moths during last year - Persons": 11864,
      "Marginal Workers Cultivators - Females": 1356,
      "Marginal Workers Other - Persons": 76963,
      "Sex Ratio": 950,
      "Scheduled Tribe Persons": 17623,
      "Marginal Workers Household Industry worked for 3 - 6 moths during last year - Males": 1851,
      "Marginal Workers Agricultural Labourers - Females": 2202,
      "Mean age at marriage for girls DLHS-4": "Not available",
      "Households with solar energy as main source of lighting  Houselisting and Housing Census Data Tables- District Level , Census of India__4": 5734,
      "District": "HUGLI",
      "Households receiving treated tap water within premises in percentage Houselisting and Housing Census Data Tables- District Level , Census of India__1": 41.32002309,
      "Total Workers  Persons": 779839,
      "Households receiving treated tap water within premises  Houselisting and Housing Census Data Tables- District Level , Census of India__4": 203316,
      "Primary Female Teachers in percentage DISE": "NA",
      "Number of Households": 505943,
      "Main Workers Agricultural Labourers - Persons": 16609
    }
  ]
}