{
  "Marginal Workers Agricultural Labourers - Persons": "2744360",
  "Marginal Workers Agricultural Labourers worked for 3 - 6 moths during last year - Females": "1555045",
  "Main Workers - Females": "5814431",
  "Total Population": "68548437",
  "Households with electricity as main source of lighting in percentage Houselisting and Housing Census Data Tables- District Level , Census of India": "2045",
  "Primary Girl's Enrolment in percentage DISE": "49.38",
  "Marginal Workers worked for 3 - 6 moths during last year - Males": "72929.85",
  "Prevalence of Acute illness in percentage DLHS-4": "N/A",
  "Main Workers - Persons": "21057968",
  "Main Workers Cultivators - Females": "3479596",
  "Marginal Workers Other worked for 0 - 3 moths during last year - Males": "163693",
  "Marginal Workers Cultivators worked for 3 - 6 moths during last year - Persons": "2934795",
  "Currently married women married below 18years of age in percentage DLHS-4": "15.33",
  "Primary Schools with girls toilet in percentage DISE": "96.53",
  "Marginal Workers worked for 3 - 6 moths during last year - Persons": "7015250",
  "Upper Primary Drop Out Rate in percentage DISE": "5.88",
  "Prevalence of Anaemia in pregnant women aged 15-49years in percentage DLHS-4": "N/A",
  "Current use of any modern method of family planning in percentage DLHS-4": "61.05",
  "Marginal Workers Other - Males": "974129",
  "Upper Primary Female Teachers in percentage DISE": "79.19",
  "Marginal Workers - Females": "5774748",
  "Marginal Workers Household Industry - Persons": "6591.09",
  "Marginal Workers Cultivators worked for 3 - 6 moths during last year - Females": "2106586",
  "Households with no lighting  Houselisting and Housing Census Data Tables- District Level , Census of India__5": "103538",
  "Mean age at marriage for girls DLHS-4": "20.10",
  "Total unmet need for family planning in percentage DLHS-4": "15.20",
  "Marginal Workers Other - Females": "1118775",
  "Children who received full vaccination in percentage DLHS-4": "N/A",
  "Households with main source of drinking water within premises  Houselisting and Housing Census Data Tables- District Level , Census of India__3": "4342915",
  "Primary Pupil-Teacher Ratio in percentage DISE": "22.62",
  "Marginal Workers Agricultural Labourers worked for 3 - 6 moths during last year - Males": "708984",
  "Marginal Workers worked for 0 - 3 moths during last year - Persons": "1813037",
  "Scheduled Caste Females": "5866029",
  "Marginal Workers Cultivators - Males": "1152729",
  "Marginal Workers Agricultural Labourers - Males": "25806.97",
  "Marginal Workers worked for 0 - 3 moths during last year - Females": "35338.88",
  "Households with main source of drinking water within premises in percentage Houselisting and Housing Census Data Tables- District Level , Census of India": "32.41",
  "Marginal Workers worked for 0 - 3 moths during last year - Males": "646854",
  "Female Literates": "14586870",
  "working population": "N/A",
  "Upper Primary Girl's Enrolment in percentage DISE": "86.73",
  "Prevalence of Severe Anaemia in women aged 15-49years in percentage DLHS-4": "N/A",
  "Marginal Workers Agricultural Labourers worked for 0 - 3 moths during last year - Males": "142646",
  "Marginal Workers Household Industry worked for 0 - 3 moths during last year - Males": "15995",
  "Marginal Workers Household Industry - Females": "142455",
  "Current use of family planning methods in percentage DLHS-4": "68.42",
  "Non Workers - Males": "17253921",
  "Total Households in District Houselisting and Housing Census Data Tables- District Level , Census of India": "12306246",
  "Upper Primary Schools with girls toilet in percentage DISE": "99.27",
  "Primary Schools with drinking water facility in percentage DISE": "93.54",
  "Upper Primary Schools with boys toilet in percentage DISE": "67.74",
  "Households receiving untreated tap water within premises in percentage Houselisting and Housing Census Data Tables- District Level , Census of India__2": "150",
  "Marginal Workers Cultivators worked for 3 - 6 moths during last year - Males": "828209",
  "Prevalence of Anaemia  in percentage DLHS-4": "N/A",
  "Prevalence of Chronic illness in percentage DLHS-4": "N/A",
  "Households with solar energy as main source of lighting in percentage Houselisting and Housing Census Data Tables- District Level , Census of India__1": "22",
  "Marginal Workers Agricultural Labourers worked for 0 - 3 moths during last year - Females": "10232.88",
  "Female": "1506",
  "Total Male Population": "35550997",
  "Marginal Workers Cultivators worked for 0 - 3 moths during last year - Females": "514202",
  "Scheduled Tribe Males": "4742943",
  "Male Illiterates": "11862585",
  "Prevalence of Severe Anaemia in pregnant women aged 15-49years in percentage DLHS-4": "N/A",
  "0-6 Age Group Persons": "10649504",
  "Marginal Workers - Persons": "8828287",
  "Currently married men married below 21years of age in percentage DLHS-4": "28.82",
  "Male Literates": "23688412",
  "Households with improved source of drinking water in percentage DLHS-4": "N/A",
  "Primary Drop Out Rate in percentage DISE": "8.18",
  "Marginal Workers Household Industry - Males": "75051",
  "Female Illiterates": "18410570",
  "Main Workers Other - Females": "38727.67",
  "Upper Primary Gross Enrolment Ratio in percentage DISE": "79.57",
  "Scheduled Caste Persons": "370351.30",
  "Upper Primary Schools with electricity in percentage DISE": "2865",
  "Number of Households": "12711146",
  "Marginal Workers - Males": "3053539",
  "Total Households in District  Houselisting and Housing Census Data Tables- District Level , Census of India": "12306246",
  "Upper Primary Pupil-Teacher Ratio in percentage DISE": "19.47",
  "Primary Student-Classroom Ratio in percentage DISE": "18.38",
  "Primary Schools with boys toilet in percentage DISE": "95.00",
  "Mean number of children ever born to women aged 40-49years  DLHS-4": "N/A",
  "Households receiving untreated tap water within premises  Houselisting and Housing Census Data Tables- District Level , Census of India__5": "593339",
  "Marginal Workers Household Industry worked for 0 - 3 moths during last year - Persons": "48224",
  "Marginal Workers Household Industry worked for 3 - 6 moths during last year - Persons": "5129.76",
  "sexratio": "N/A",
  "Marginal Workers Cultivators - Persons": "114349.00",
  "Marginal Workers Other worked for 3 - 6 moths during last year - Females": "836708",
  "Main Workers Agricultural Labourers - Males": "1281039",
  "Upper Primary Schools with drinking water facility in percentage DISE": "99.87",
  "Main Workers Agricultural Labourers - Persons": "2195304",
  "Person Illiterates": "30273155",
  "Main Workers Household Industry - Females": "142557",
  "Primary Net Enrolment Ratio in percentage DISE": "81.97",
  "Marginal Workers Cultivators worked for 0 - 3 moths during last year - Males": "324520",
  "Male": "2338",
  "Households with no lighting in percentage Houselisting and Housing Census Data Tables- District Level , Census of India__2": "28",
  "Main Workers Other - Males": "7236231",
  "Marginal Workers Other worked for 3 - 6 moths during last year - Persons": "49913.45",
  "Households with electricity in percentage DLHS-4": "N/A",
  "Villages with Primary Health Centre within 10km in percentage DLHS-4": "N/A",
  "Births to women aged 15-19years out of Total births in percentage DLHS-4": "N/A",
  "Prevalence of Anaemia in women aged 15-49years in percentage DLHS-4": "N/A",
  "Main Workers Household Industry - Males": "10924.55",
  "Scheduled Tribe Females": "4495591",
  "PHCs functioning on a 24x7hours basis in percentage DLHS-4": "N/A",
  "Marginal Workers Other worked for 3 - 6 moths during last year - Males": "810436",
  "Marginal Workers Other worked for 0 - 3 moths during last year - Females": "282067",
  "Households with computer/laptop with internet connection in percentage": "N/A",
  "enrollment rate of education": "N/A",
  "Mean age at marriage for boys DLHS-4": "22.23",
  "Number of District Hospitals  DLHS-4": "N/A",
  "0-6 Age Group Females": "151828.12",
  "Total": "1892",
  "Households with electricity as main source of lighting  Houselisting and Housing Census Data Tables- District Level , Census of India__3": "8236071",
  "Total Workers  Females": "11589179",
  "Marginal Workers Agricultural Labourers worked for 0 - 3 moths during last year - Persons": "480331",
  "Marginal Workers worked for 3 - 6 moths during last year - Females": "4608565",
  "Institutional Deliveries in percentage DLHS-4": "77.80",
  "Upper Primary Net Enrolment Ratio in percentage DISE": "58.34",
  "Marginal Workers Agricultural Labourers worked for 3 - 6 moths during last year - Persons": "2264029",
  "Total Workers  Males": "18297076",
  "Primary Gross Enrolment Ratio in percentage DISE": "104.76",
  "Main Workers Cultivators - Persons": "9845353",
  "Marginal Workers Household Industry worked for 0 - 3 moths during last year - Females": "32229",
  "Households with landline phone in percentage": "60",
  "Primary New Government Schools since 2003 in percentage DISE": "24.82",
  "Tier": "N/A",
  "Households with mobile phone in percentage": "1722",
  "Primary Schools with electricity in percentage DISE": "23.18",
  "Main Workers Other - Persons": "258007.39",
  "Marginal Workers Household Industry worked for 3 - 6 moths during last year - Females": "110226",
  "Households receiving treated tap water within premises in percentage Houselisting and Housing Census Data Tables- District Level , Census of India__1": "696",
  "Main Workers Agricultural Labourers - Females": "914265",
  "Marginal Workers Cultivators worked for 0 - 3 moths during last year - Persons": "838722",
  "Scheduled Caste Males": "6355564",
  "Marginal Workers Other worked for 0 - 3 moths during last year - Persons": "445760",
  "Deliveries at home conducted by skilled health personnel in percentage DLHS-4": "44.32",
  "Villages with Sub-Health Centres within 3km in percentage DLHS-4": "N/A",
  "Upper Primary New Government Schools since 2003 in percentage DISE": "84.39",
  "0-6 Age Group Males": "5639176",
  "Non Workers - Females": "21408261",
  "Non Workers - Persons": "38662182",
  "Person Literates": "38275282",
  "enrolment rate": "N/A",
  "State": "N/A",
  "Main Workers - Males": "15243537",
  "Total Female Population": "32997440",
  "Marginal Workers Cultivators - Females": "79417.82",
  "Marginal Workers Other - Persons": "63421.33",
  "Sex Ratio": "928.06",
  "Scheduled Tribe Persons": "9238534",
  "Marginal Workers Household Industry worked for 3 - 6 moths during last year - Males": "1789.58",
  "Marginal Workers Agricultural Labourers - Females": "1892730",
  "Prevalence of Severe Anaemia  in percentage DLHS-4": "N/A",
  "Upper Primary Student-Classroom Ratio in percentage DISE": "25.22",
  "Main Workers Household Industry - Persons": "15244.45",
  "Households with solar energy as main source of lighting  Houselisting and Housing Census Data Tables- District Level , Census of India__4": "78591",
  "District": "N/A",
  "Main Workers Cultivators - Males": "6365757",
  "Total Workers  Persons": "29886255",
  "Households receiving treated tap water within premises  Houselisting and Housing Census Data Tables- District Level , Census of India__4": "3020618",
  "Primary Female Teachers in percentage DISE": "32.04"
}