{
  "Total": [
    {
      "Marginal Workers Agricultural Labourers - Persons": 121186,
      "Marginal Workers Other - Females": 61616,
      "Marginal Workers Other worked for 0 - 3 moths during last year - Females": 12563,
      "Upper Primary Schools with boys toilet in percentage DISE": 100,
      "Total Population": 3674179,
      "Households with electricity as main source of lighting in percentage Houselisting and Housing Census Data Tables- District Level , Census of India": 77.23214499,
      "Primary Girl's Enrolment in percentage DISE": 51.2,
      "Marginal Workers worked for 3 - 6 moths during last year - Males": 104346,
      "Prevalence of Acute illness in percentage DLHS-4": "Not available",
      "Main Workers - Persons": 1179461,
      "Main Workers Cultivators - Females": 221506,
      "Marginal Workers Agricultural Labourers worked for 3 - 6 moths during last year - Females": 70533,
      "Marginal Workers Other worked for 0 - 3 moths during last year - Males": 8033,
      "Upper Primary Schools with drinking water facility in percentage DISE": 95.7,
      "Primary Schools with girls toilet in percentage DISE": 92.4,
      "Marginal Workers worked for 3 - 6 moths during last year - Persons": 400586,
      "Upper Primary Drop Out Rate in percentage DISE": 3.18,
      "Prevalence of Anaemia in pregnant women aged 15-49years in percentage DLHS-4": "Not available",
      "Current use of any modern method of family planning in percentage DLHS-4": 64.2,
      "Marginal Workers Agricultural Labourers - Males": 34016,
      "Upper Primary Female Teachers in percentage DISE": 96.5,
      "Marginal Workers - Females": 370850,
      "Marginal Workers Other worked for 3 - 6 moths during last year - Persons": 84152,
      "Main Workers Agricultural Labourers - Females": 38198,
      "Marginal Workers Cultivators worked for 3 - 6 moths during last year - Females": 169242,
      "Households with no lighting  Houselisting and Housing Census Data Tables- District Level , Census of India__5": 2836,
      "Prevalence of Severe Anaemia  in percentage DLHS-4": "Not available",
      "Total unmet need for family planning in percentage DLHS-4": 14.2,
      "Main Workers Other - Males": 377026,
      "Children who received full vaccination in percentage DLHS-4": "Not available",
      "Marginal Workers Household Industry - Persons": 12974,
      "Primary Pupil-Teacher Ratio in percentage DISE": 24,
      "Marginal Workers Agricultural Labourers worked for 3 - 6 moths during last year - Males": 26654,
      "Scheduled Caste Females": 310098,
      "Marginal Workers Cultivators - Males": 77505,
      "Marginal Workers - Males": 158231,
      "Marginal Workers worked for 0 - 3 moths during last year - Females": 74610,
      "Households with main source of drinking water within premises in percentage Houselisting and Housing Census Data Tables- District Level , Census of India": 34.39410539,
      "Marginal Workers Household Industry worked for 3 - 6 moths during last year - Persons": 10024,
      "Upper Primary Girl's Enrolment in percentage DISE": 89.4,
      "Prevalence of Severe Anaemia in women aged 15-49years in percentage DLHS-4": "Not available",
      "Marginal Workers Agricultural Labourers worked for 0 - 3 moths during last year - Males": 7362,
      "Households with electricity as main source of lighting  Houselisting and Housing Census Data Tables- District Level , Census of India__3": 485723,
      "Households with computer or laptop with internet connection in percentage": 1.55,
      "PHCs functioning on a 24x7hours basis in percentage DLHS-4": "Not available",
      "Non Workers - Males": 944855,
      "Total Households in District Houselisting and Housing Census Data Tables- District Level , Census of India": 628913,
      "Upper Primary Schools with girls toilet in percentage DISE": 100,
      "Households with mobile phone in percentage": 67.72,
      "Households receiving untreated tap water within premises in percentage Houselisting and Housing Census Data Tables- District Level , Census of India__2": 5.386436598,
      "Marginal Workers Cultivators worked for 3 - 6 moths during last year - Males": 39981,
      "Prevalence of Anaemia  in percentage DLHS-4": "Not available",
      "Prevalence of Chronic illness in percentage DLHS-4": "Not available",
      "Households with solar energy as main source of lighting in percentage Houselisting and Housing Census Data Tables- District Level , Census of India__1": 0.212748027,
      "Marginal Workers Agricultural Labourers worked for 0 - 3 moths during last year - Females": 16637,
      "Main Workers - Males": 835940,
      "Female": 56.25,
      "Sno": 1445,
      "Marginal Workers Other worked for 3 - 6 moths during last year - Females": 49053,
      "Marginal Workers Cultivators worked for 0 - 3 moths during last year - Females": 43426,
      "Scheduled Tribe Males": 153397,
      "Male Illiterates": 579197,
      "Prevalence of Severe Anaemia in pregnant women aged 15-49years in percentage DLHS-4": "Not available",
      "0-6 Age Group Persons": 587959,
      "Upper Primary Student-Classroom Ratio in percentage DISE": 19,
      "Currently married men married below 21years of age in percentage DLHS-4": 28.9,
      "Male Literates": 1359829,
      "Households with no lighting in percentage Houselisting and Housing Census Data Tables- District Level , Census of India__2": 0.450936775,
      "Primary Drop Out Rate in percentage DISE": 10.6,
      "Marginal Workers Household Industry - Males": 3578,
      "Female Illiterates": 912506,
      "Main Workers Other - Females": 76543,
      "Marginal Workers Cultivators - Persons": 290173,
      "Upper Primary Gross Enrolment Ratio in percentage DISE": 83.9,
      "Scheduled Caste Persons": 653036,
      "Marginal Workers Cultivators worked for 3 - 6 moths during last year - Persons": 209223,
      "Households with landline phone in percentage": 2.92,
      "Total Households in District  Houselisting and Housing Census Data Tables- District Level , Census of India": 628913,
      "Upper Primary Pupil-Teacher Ratio in percentage DISE": 14,
      "Primary Student-Classroom Ratio in percentage DISE": 20,
      "Primary Schools with boys toilet in percentage DISE": 92.4,
      "Mean number of children ever born to women aged 40-49years  DLHS-4": "Not available",
      "Households receiving untreated tap water within premises  Houselisting and Housing Census Data Tables- District Level , Census of India__5": 33876,
      "Marginal Workers Household Industry worked for 0 - 3 moths during last year - Persons": 2950,
      "Total Male Population": 1939026,
      "Non Workers - Females": 1020782,
      "Current use of family planning methods in percentage DLHS-4": 74.5,
      "Households with main source of drinking water within premises  Houselisting and Housing Census Data Tables- District Level , Census of India__3": 216309,
      "Main Workers Agricultural Labourers - Males": 57388,
      "Marginal Workers Other worked for 0 - 3 moths during last year - Persons": 20596,
      "Currently married women married below 18years of age in percentage DLHS-4": 14.6,
      "Person Illiterates": 1491703,
      "Main Workers Household Industry - Females": 7274,
      "Female Literates": 822647,
      "Marginal Workers Cultivators worked for 0 - 3 moths during last year - Males": 37524,
      "Male": 83.75,
      "Households with improved source of drinking water in percentage DLHS-4": "Not available",
      "Upper Primary Schools with electricity in percentage DISE": 91.3,
      "Households with electricity in percentage DLHS-4": "Not available",
      "Villages with Primary Health Centre within 10km in percentage DLHS-4": "Not available",
      "Births to women aged 15-19years out of Total births in percentage DLHS-4": "Not available",
      "Prevalence of Anaemia in women aged 15-49years in percentage DLHS-4": "Not available",
      "Marginal Workers Agricultural Labourers worked for 3 - 6 moths during last year - Persons": 97187,
      "Main Workers Household Industry - Males": 14314,
      "Scheduled Tribe Females": 135852,
      "Marginal Workers worked for 0 - 3 moths during last year - Males": 53885,
      "Marginal Workers Other worked for 3 - 6 moths during last year - Males": 35099,
      "Primary Net Enrolment Ratio in percentage DISE": 74.6,
      "Total": 70.72,
      "Mean age at marriage for boys DLHS-4": 22.4,
      "Number of District Hospitals  DLHS-4": "Not available",
      "0-6 Age Group Females": 272689,
      "Marginal Workers Agricultural Labourers worked for 0 - 3 moths during last year - Persons": 23999,
      "Marginal Workers Household Industry worked for 0 - 3 moths during last year - Males": 966,
      "Total Workers  Females": 714371,
      "Marginal Workers worked for 3 - 6 moths during last year - Females": 296240,
      "Institutional Deliveries in percentage DLHS-4": 83.8,
      "Marginal Workers Other - Males": 43132,
      "Total Workers  Males": 994171,
      "Main Workers - Females": 343521,
      "Primary Gross Enrolment Ratio in percentage DISE": 102,
      "Main Workers Cultivators - Persons": 608718,
      "Marginal Workers Household Industry worked for 0 - 3 moths during last year - Females": 1984,
      "Upper Primary Net Enrolment Ratio in percentage DISE": 60.6,
      "Primary New Government Schools since 2003 in percentage DISE": 28,
      "Tier": "Total",
      "Marginal Workers Household Industry - Females": 9396,
      "Primary Schools with electricity in percentage DISE": 17.6,
      "Main Workers Other - Persons": 453569,
      "Marginal Workers Household Industry worked for 3 - 6 moths during last year - Females": 7412,
      "Main Workers Cultivators - Males": 387212,
      "Main Workers Household Industry - Persons": 21588,
      "Marginal Workers Cultivators worked for 0 - 3 moths during last year - Persons": 80950,
      "Scheduled Caste Males": 342938,
      "Marginal Workers - Persons": 529081,
      "Deliveries at home conducted by skilled health personnel in percentage DLHS-4": 51.1,
      "Villages with Sub-Health Centres within 3km in percentage DLHS-4": "Not available",
      "Upper Primary New Government Schools since 2003 in percentage DISE": 87,
      "0-6 Age Group Males": 315270,
      "Primary Schools with drinking water facility in percentage DISE": 92.6,
      "Non Workers - Persons": 1965637,
      "Person Literates": 2182476,
      "State": "RAJASTHAN",
      "Total Female Population": 1735153,
      "Marginal Workers worked for 0 - 3 moths during last year - Persons": 128495,
      "Marginal Workers Cultivators - Females": 212668,
      "Marginal Workers Other - Persons": 104748,
      "Sex Ratio": 895,
      "Scheduled Tribe Persons": 289249,
      "Marginal Workers Household Industry worked for 3 - 6 moths during last year - Males": 2612,
      "Marginal Workers Agricultural Labourers - Females": 87170,
      "Mean age at marriage for girls DLHS-4": 20.1,
      "Households with solar energy as main source of lighting  Houselisting and Housing Census Data Tables- District Level , Census of India__4": 1338,
      "District": "ALWAR",
      "Households receiving treated tap water within premises in percentage Houselisting and Housing Census Data Tables- District Level , Census of India__1": 16.01890882,
      "Total Workers  Persons": 1708542,
      "Households receiving treated tap water within premises  Houselisting and Housing Census Data Tables- District Level , Census of India__4": 100745,
      "Primary Female Teachers in percentage DISE": 37.4,
      "Number of Households": 639720,
      "Main Workers Agricultural Labourers - Persons": 95586
    }
  ],
  "Rural": [
    {
      "Marginal Workers Agricultural Labourers - Persons": 117453,
      "Marginal Workers Other - Females": 55290,
      "Marginal Workers Other worked for 0 - 3 moths during last year - Females": 11336,
      "Upper Primary Schools with boys toilet in percentage DISE": "NA",
      "Total Population": 3019728,
      "Households with electricity as main source of lighting in percentage Houselisting and Housing Census Data Tables- District Level , Census of India": 72.75454909,
      "Primary Girl's Enrolment in percentage DISE": "NA",
      "Marginal Workers worked for 3 - 6 moths during last year - Males": 94843,
      "Prevalence of Acute illness in percentage DLHS-4": "Not available",
      "Main Workers - Persons": 982840,
      "Main Workers Cultivators - Females": 217603,
      "Marginal Workers Agricultural Labourers worked for 3 - 6 moths during last year - Females": 68355,
      "Marginal Workers Other worked for 0 - 3 moths during last year - Males": 6746,
      "Upper Primary Schools with drinking water facility in percentage DISE": "NA",
      "Primary Schools with girls toilet in percentage DISE": "NA",
      "Marginal Workers worked for 3 - 6 moths during last year - Persons": 380899,
      "Upper Primary Drop Out Rate in percentage DISE": "NA",
      "Prevalence of Anaemia in pregnant women aged 15-49years in percentage DLHS-4": "Not available",
      "Current use of any modern method of family planning in percentage DLHS-4": 63.9,
      "Marginal Workers Agricultural Labourers - Males": 32915,
      "Upper Primary Female Teachers in percentage DISE": "NA",
      "Marginal Workers - Females": 358191,
      "Marginal Workers Other worked for 3 - 6 moths during last year - Persons": 71494,
      "Main Workers Agricultural Labourers - Females": 36894,
      "Marginal Workers Cultivators worked for 3 - 6 moths during last year - Females": 167270,
      "Households with no lighting  Houselisting and Housing Census Data Tables- District Level , Census of India__5": 2305,
      "Prevalence of Severe Anaemia  in percentage DLHS-4": "Not available",
      "Total unmet need for family planning in percentage DLHS-4": 14.5,
      "Main Workers Other - Males": 225212,
      "Children who received full vaccination in percentage DLHS-4": "Not available",
      "Marginal Workers Household Industry - Persons": 11227,
      "Primary Pupil-Teacher Ratio in percentage DISE": "NA",
      "Marginal Workers Agricultural Labourers worked for 3 - 6 moths during last year - Males": 25728,
      "Scheduled Caste Females": 256732,
      "Marginal Workers Cultivators - Males": 76661,
      "Marginal Workers - Males": 146904,
      "Marginal Workers worked for 0 - 3 moths during last year - Females": 72135,
      "Households with main source of drinking water within premises in percentage Houselisting and Housing Census Data Tables- District Level , Census of India": 23.6034089,
      "Marginal Workers Household Industry worked for 3 - 6 moths during last year - Persons": 8672,
      "Upper Primary Girl's Enrolment in percentage DISE": "NA",
      "Prevalence of Severe Anaemia in women aged 15-49years in percentage DLHS-4": "Not available",
      "Marginal Workers Agricultural Labourers worked for 0 - 3 moths during last year - Males": 7187,
      "Households with electricity as main source of lighting  Houselisting and Housing Census Data Tables- District Level , Census of India__3": 367604,
      "Households with computer or laptop with internet connection in percentage": 0.55,
      "PHCs functioning on a 24x7hours basis in percentage DLHS-4": "Not applicable",
      "Non Workers - Males": 773241,
      "Total Households in District Houselisting and Housing Census Data Tables- District Level , Census of India": 505266,
      "Upper Primary Schools with girls toilet in percentage DISE": "NA",
      "Households with mobile phone in percentage": 67.61,
      "Households receiving untreated tap water within premises in percentage Houselisting and Housing Census Data Tables- District Level , Census of India__2": 4.963919995,
      "Marginal Workers Cultivators worked for 3 - 6 moths during last year - Males": 39380,
      "Prevalence of Anaemia  in percentage DLHS-4": "Not available",
      "Prevalence of Chronic illness in percentage DLHS-4": "Not available",
      "Households with solar energy as main source of lighting in percentage Houselisting and Housing Census Data Tables- District Level , Census of India__1": 0.251154837,
      "Marginal Workers Agricultural Labourers worked for 0 - 3 moths during last year - Females": 16183,
      "Main Workers - Males": 669363,
      "Female": "NA",
      "Sno": 1444,
      "Marginal Workers Other worked for 3 - 6 moths during last year - Females": 43954,
      "Marginal Workers Cultivators worked for 0 - 3 moths during last year - Females": 42908,
      "Scheduled Tribe Males": 141505,
      "Male Illiterates": 505778,
      "Prevalence of Severe Anaemia in pregnant women aged 15-49years in percentage DLHS-4": "Not available",
      "0-6 Age Group Persons": 502526,
      "Upper Primary Student-Classroom Ratio in percentage DISE": "NA",
      "Currently married men married below 21years of age in percentage DLHS-4": 31.6,
      "Male Literates": 1083730,
      "Households with no lighting in percentage Houselisting and Housing Census Data Tables- District Level , Census of India__2": 0.456195351,
      "Primary Drop Out Rate in percentage DISE": "NA",
      "Marginal Workers Household Industry - Males": 3042,
      "Female Illiterates": 805952,
      "Main Workers Other - Females": 53032,
      "Marginal Workers Cultivators - Persons": 286839,
      "Upper Primary Gross Enrolment Ratio in percentage DISE": "NA",
      "Scheduled Caste Persons": 540412,
      "Marginal Workers Cultivators worked for 3 - 6 moths during last year - Persons": 206650,
      "Households with landline phone in percentage": 2.52,
      "Total Households in District  Houselisting and Housing Census Data Tables- District Level , Census of India": 505266,
      "Upper Primary Pupil-Teacher Ratio in percentage DISE": "NA",
      "Primary Student-Classroom Ratio in percentage DISE": "NA",
      "Primary Schools with boys toilet in percentage DISE": "NA",
      "Mean number of children ever born to women aged 40-49years  DLHS-4": "Not available",
      "Households receiving untreated tap water within premises  Houselisting and Housing Census Data Tables- District Level , Census of India__5": 25081,
      "Marginal Workers Household Industry worked for 0 - 3 moths during last year - Persons": 2555,
      "Total Male Population": 1589508,
      "Non Workers - Females": 758552,
      "Current use of family planning methods in percentage DLHS-4": 73.9,
      "Households with main source of drinking water within premises  Houselisting and Housing Census Data Tables- District Level , Census of India__3": 119260,
      "Main Workers Agricultural Labourers - Males": 54710,
      "Marginal Workers Other worked for 0 - 3 moths during last year - Persons": 18082,
      "Currently married women married below 18years of age in percentage DLHS-4": 15.8,
      "Person Illiterates": 1311730,
      "Main Workers Household Industry - Females": 5948,
      "Female Literates": 624268,
      "Marginal Workers Cultivators worked for 0 - 3 moths during last year - Males": 37281,
      "Male": "NA",
      "Households with improved source of drinking water in percentage DLHS-4": "Not available",
      "Upper Primary Schools with electricity in percentage DISE": "NA",
      "Households with electricity in percentage DLHS-4": "Not available",
      "Villages with Primary Health Centre within 10km in percentage DLHS-4": "Not applicable",
      "Births to women aged 15-19years out of Total births in percentage DLHS-4": "Not available",
      "Prevalence of Anaemia in women aged 15-49years in percentage DLHS-4": "Not available",
      "Marginal Workers Agricultural Labourers worked for 3 - 6 moths during last year - Persons": 94083,
      "Main Workers Household Industry - Males": 9829,
      "Scheduled Tribe Females": 125375,
      "Marginal Workers worked for 0 - 3 moths during last year - Males": 52061,
      "Marginal Workers Other worked for 3 - 6 moths during last year - Males": 27540,
      "Primary Net Enrolment Ratio in percentage DISE": "NA",
      "Total": "NA",
      "Mean age at marriage for boys DLHS-4": 22.1,
      "Number of District Hospitals  DLHS-4": "Not applicable",
      "0-6 Age Group Females": 233421,
      "Marginal Workers Agricultural Labourers worked for 0 - 3 moths during last year - Persons": 23370,
      "Marginal Workers Household Industry worked for 0 - 3 moths during last year - Males": 847,
      "Total Workers  Females": 671668,
      "Marginal Workers worked for 3 - 6 moths during last year - Females": 286056,
      "Institutional Deliveries in percentage DLHS-4": 83.4,
      "Marginal Workers Other - Males": 34286,
      "Total Workers  Males": 816267,
      "Main Workers - Females": 313477,
      "Primary Gross Enrolment Ratio in percentage DISE": "NA",
      "Main Workers Cultivators - Persons": 597215,
      "Marginal Workers Household Industry worked for 0 - 3 moths during last year - Females": 1708,
      "Upper Primary Net Enrolment Ratio in percentage DISE": "NA",
      "Primary New Government Schools since 2003 in percentage DISE": "NA",
      "Tier": "Rural",
      "Marginal Workers Household Industry - Females": 8185,
      "Primary Schools with electricity in percentage DISE": "NA",
      "Main Workers Other - Persons": 278244,
      "Marginal Workers Household Industry worked for 3 - 6 moths during last year - Females": 6477,
      "Main Workers Cultivators - Males": 379612,
      "Main Workers Household Industry - Persons": 15777,
      "Marginal Workers Cultivators worked for 0 - 3 moths during last year - Persons": 80189,
      "Scheduled Caste Males": 283680,
      "Marginal Workers - Persons": 505095,
      "Deliveries at home conducted by skilled health personnel in percentage DLHS-4": 50.8,
      "Villages with Sub-Health Centres within 3km in percentage DLHS-4": "Not applicable",
      "Upper Primary New Government Schools since 2003 in percentage DISE": "NA",
      "0-6 Age Group Males": 269105,
      "Primary Schools with drinking water facility in percentage DISE": "NA",
      "Non Workers - Persons": 1531793,
      "Person Literates": 1707998,
      "State": "RAJASTHAN",
      "Total Female Population": 1430220,
      "Marginal Workers worked for 0 - 3 moths during last year - Persons": 124196,
      "Marginal Workers Cultivators - Females": 210178,
      "Marginal Workers Other - Persons": 89576,
      "Sex Ratio": 900,
      "Scheduled Tribe Persons": 266880,
      "Marginal Workers Household Industry worked for 3 - 6 moths during last year - Males": 2195,
      "Marginal Workers Agricultural Labourers - Females": 84538,
      "Mean age at marriage for girls DLHS-4": 19.9,
      "Households with solar energy as main source of lighting  Houselisting and Housing Census Data Tables- District Level , Census of India__4": 1269,
      "District": "ALWAR",
      "Households receiving treated tap water within premises in percentage Houselisting and Housing Census Data Tables- District Level , Census of India__1": 7.043220799,
      "Total Workers  Persons": 1487935,
      "Households receiving treated tap water within premises  Houselisting and Housing Census Data Tables- District Level , Census of India__4": 35587,
      "Primary Female Teachers in percentage DISE": "NA",
      "Number of Households": 511517,
      "Main Workers Agricultural Labourers - Persons": 91604
    }
  ],
  "Urban": [
    {
      "Marginal Workers Agricultural Labourers - Persons": 3733,
      "Marginal Workers Other - Females": 6326,
      "Marginal Workers Other worked for 0 - 3 moths during last year - Females": 1227,
      "Upper Primary Schools with boys toilet in percentage DISE": "NA",
      "Total Population": 654451,
      "Households with electricity as main source of lighting in percentage Houselisting and Housing Census Data Tables- District Level , Census of India": 95.52920815,
      "Primary Girl's Enrolment in percentage DISE": "NA",
      "Marginal Workers worked for 3 - 6 moths during last year - Males": 9503,
      "Prevalence of Acute illness in percentage DLHS-4": "Not available",
      "Main Workers - Persons": 196621,
      "Main Workers Cultivators - Females": 3903,
      "Marginal Workers Agricultural Labourers worked for 3 - 6 moths during last year - Females": 2178,
      "Marginal Workers Other worked for 0 - 3 moths during last year - Males": 1287,
      "Upper Primary Schools with drinking water facility in percentage DISE": "NA",
      "Primary Schools with girls toilet in percentage DISE": "NA",
      "Marginal Workers worked for 3 - 6 moths during last year - Persons": 19687,
      "Upper Primary Drop Out Rate in percentage DISE": "NA",
      "Prevalence of Anaemia in pregnant women aged 15-49years in percentage DLHS-4": "Not available",
      "Current use of any modern method of family planning in percentage DLHS-4": 66.6,
      "Marginal Workers Agricultural Labourers - Males": 1101,
      "Upper Primary Female Teachers in percentage DISE": "NA",
      "Marginal Workers - Females": 12659,
      "Marginal Workers Other worked for 3 - 6 moths during last year - Persons": 12658,
      "Main Workers Agricultural Labourers - Females": 1304,
      "Marginal Workers Cultivators worked for 3 - 6 moths during last year - Females": 1972,
      "Households with no lighting  Houselisting and Housing Census Data Tables- District Level , Census of India__5": 531,
      "Prevalence of Severe Anaemia  in percentage DLHS-4": "Not available",
      "Total unmet need for family planning in percentage DLHS-4": 11.9,
      "Main Workers Other - Males": 151814,
      "Children who received full vaccination in percentage DLHS-4": "Not available",
      "Marginal Workers Household Industry - Persons": 1747,
      "Primary Pupil-Teacher Ratio in percentage DISE": "NA",
      "Marginal Workers Agricultural Labourers worked for 3 - 6 moths during last year - Males": 926,
      "Scheduled Caste Females": 53366,
      "Marginal Workers Cultivators - Males": 844,
      "Marginal Workers - Males": 11327,
      "Marginal Workers worked for 0 - 3 moths during last year - Females": 2475,
      "Households with main source of drinking water within premises in percentage Houselisting and Housing Census Data Tables- District Level , Census of India": 78.48876236,
      "Marginal Workers Household Industry worked for 3 - 6 moths during last year - Persons": 1352,
      "Upper Primary Girl's Enrolment in percentage DISE": "NA",
      "Prevalence of Severe Anaemia in women aged 15-49years in percentage DLHS-4": "Not available",
      "Marginal Workers Agricultural Labourers worked for 0 - 3 moths during last year - Males": 175,
      "Households with electricity as main source of lighting  Houselisting and Housing Census Data Tables- District Level , Census of India__3": 118119,
      "Households with computer or laptop with internet connection in percentage": 5.65,
      "PHCs functioning on a 24x7hours basis in percentage DLHS-4": 0,
      "Non Workers - Males": 171614,
      "Total Households in District Houselisting and Housing Census Data Tables- District Level , Census of India": 123647,
      "Upper Primary Schools with girls toilet in percentage DISE": "NA",
      "Households with mobile phone in percentage": 68.19,
      "Households receiving untreated tap water within premises in percentage Houselisting and Housing Census Data Tables- District Level , Census of India__2": 7.112991015,
      "Marginal Workers Cultivators worked for 3 - 6 moths during last year - Males": 601,
      "Prevalence of Anaemia  in percentage DLHS-4": "Not available",
      "Prevalence of Chronic illness in percentage DLHS-4": "Not available",
      "Households with solar energy as main source of lighting in percentage Houselisting and Housing Census Data Tables- District Level , Census of India__1": 0.0558,
      "Marginal Workers Agricultural Labourers worked for 0 - 3 moths during last year - Females": 454,
      "Main Workers - Males": 166577,
      "Female": "NA",
      "Sno": 1446,
      "Marginal Workers Other worked for 3 - 6 moths during last year - Females": 5099,
      "Marginal Workers Cultivators worked for 0 - 3 moths during last year - Females": 518,
      "Scheduled Tribe Males": 11892,
      "Male Illiterates": 73419,
      "Prevalence of Severe Anaemia in pregnant women aged 15-49years in percentage DLHS-4": "Not available",
      "0-6 Age Group Persons": 85433,
      "Upper Primary Student-Classroom Ratio in percentage DISE": "NA",
      "Currently married men married below 21years of age in percentage DLHS-4": 10.4,
      "Male Literates": 276099,
      "Households with no lighting in percentage Houselisting and Housing Census Data Tables- District Level , Census of India__2": 0.429448349,
      "Primary Drop Out Rate in percentage DISE": "NA",
      "Marginal Workers Household Industry - Males": 536,
      "Female Illiterates": 106554,
      "Main Workers Other - Females": 23511,
      "Marginal Workers Cultivators - Persons": 3334,
      "Upper Primary Gross Enrolment Ratio in percentage DISE": "NA",
      "Scheduled Caste Persons": 112624,
      "Marginal Workers Cultivators worked for 3 - 6 moths during last year - Persons": 2573,
      "Households with landline phone in percentage": 4.55,
      "Total Households in District  Houselisting and Housing Census Data Tables- District Level , Census of India": 123647,
      "Upper Primary Pupil-Teacher Ratio in percentage DISE": "NA",
      "Primary Student-Classroom Ratio in percentage DISE": "NA",
      "Primary Schools with boys toilet in percentage DISE": "NA",
      "Mean number of children ever born to women aged 40-49years  DLHS-4": "Not available",
      "Households receiving untreated tap water within premises  Houselisting and Housing Census Data Tables- District Level , Census of India__5": 8795,
      "Marginal Workers Household Industry worked for 0 - 3 moths during last year - Persons": 395,
      "Total Male Population": 349518,
      "Non Workers - Females": 262230,
      "Current use of family planning methods in percentage DLHS-4": 79.9,
      "Households with main source of drinking water within premises  Houselisting and Housing Census Data Tables- District Level , Census of India__3": 97049,
      "Main Workers Agricultural Labourers - Males": 2678,
      "Marginal Workers Other worked for 0 - 3 moths during last year - Persons": 2514,
      "Currently married women married below 18years of age in percentage DLHS-4": 5.6,
      "Person Illiterates": 179973,
      "Main Workers Household Industry - Females": 1326,
      "Female Literates": 198379,
      "Marginal Workers Cultivators worked for 0 - 3 moths during last year - Males": 243,
      "Male": "NA",
      "Households with improved source of drinking water in percentage DLHS-4": "Not available",
      "Upper Primary Schools with electricity in percentage DISE": "NA",
      "Households with electricity in percentage DLHS-4": "Not available",
      "Villages with Primary Health Centre within 10km in percentage DLHS-4": 0,
      "Births to women aged 15-19years out of Total births in percentage DLHS-4": "Not available",
      "Prevalence of Anaemia in women aged 15-49years in percentage DLHS-4": "Not available",
      "Marginal Workers Agricultural Labourers worked for 3 - 6 moths during last year - Persons": 3104,
      "Main Workers Household Industry - Males": 4485,
      "Scheduled Tribe Females": 10477,
      "Marginal Workers worked for 0 - 3 moths during last year - Males": 1824,
      "Marginal Workers Other worked for 3 - 6 moths during last year - Males": 7559,
      "Primary Net Enrolment Ratio in percentage DISE": "NA",
      "Total": "NA",
      "Mean age at marriage for boys DLHS-4": 24.5,
      "Number of District Hospitals  DLHS-4": 0,
      "0-6 Age Group Females": 39268,
      "Marginal Workers Agricultural Labourers worked for 0 - 3 moths during last year - Persons": 629,
      "Marginal Workers Household Industry worked for 0 - 3 moths during last year - Males": 119,
      "Total Workers  Females": 42703,
      "Marginal Workers worked for 3 - 6 moths during last year - Females": 10184,
      "Institutional Deliveries in percentage DLHS-4": 86.9,
      "Marginal Workers Other - Males": 8846,
      "Total Workers  Males": 177904,
      "Main Workers - Females": 30044,
      "Primary Gross Enrolment Ratio in percentage DISE": "NA",
      "Main Workers Cultivators - Persons": 11503,
      "Marginal Workers Household Industry worked for 0 - 3 moths during last year - Females": 276,
      "Upper Primary Net Enrolment Ratio in percentage DISE": "NA",
      "Primary New Government Schools since 2003 in percentage DISE": "NA",
      "Tier": "Urban",
      "Marginal Workers Household Industry - Females": 1211,
      "Primary Schools with electricity in percentage DISE": "NA",
      "Main Workers Other - Persons": 175325,
      "Marginal Workers Household Industry worked for 3 - 6 moths during last year - Females": 935,
      "Main Workers Cultivators - Males": 7600,
      "Main Workers Household Industry - Persons": 5811,
      "Marginal Workers Cultivators worked for 0 - 3 moths during last year - Persons": 761,
      "Scheduled Caste Males": 59258,
      "Marginal Workers - Persons": 23986,
      "Deliveries at home conducted by skilled health personnel in percentage DLHS-4": 54.3,
      "Villages with Sub-Health Centres within 3km in percentage DLHS-4": 0,
      "Upper Primary New Government Schools since 2003 in percentage DISE": "NA",
      "0-6 Age Group Males": 46165,
      "Primary Schools with drinking water facility in percentage DISE": "NA",
      "Non Workers - Persons": 433844,
      "Person Literates": 474478,
      "State": "RAJASTHAN",
      "Total Female Population": 304933,
      "Marginal Workers worked for 0 - 3 moths during last year - Persons": 4299,
      "Marginal Workers Cultivators - Females": 2490,
      "Marginal Workers Other - Persons": 15172,
      "Sex Ratio": 872,
      "Scheduled Tribe Persons": 22369,
      "Marginal Workers Household Industry worked for 3 - 6 moths during last year - Males": 417,
      "Marginal Workers Agricultural Labourers - Females": 2632,
      "Mean age at marriage for girls DLHS-4": 22,
      "Households with solar energy as main source of lighting  Houselisting and Housing Census Data Tables- District Level , Census of India__4": 69,
      "District": "ALWAR",
      "Households receiving treated tap water within premises in percentage Houselisting and Housing Census Data Tables- District Level , Census of India__1": 52.69679006,
      "Total Workers  Persons": 220607,
      "Households receiving treated tap water within premises  Houselisting and Housing Census Data Tables- District Level , Census of India__4": 65158,
      "Primary Female Teachers in percentage DISE": "NA",
      "Number of Households": 128203,
      "Main Workers Agricultural Labourers - Persons": 3982
    }
  ]
}