{
  "Total": [
    {
      "Marginal Workers Agricultural Labourers - Persons": 142707,
      "Marginal Workers Other - Females": 26306,
      "Marginal Workers Other worked for 0 - 3 moths during last year - Females": 8210,
      "Upper Primary Schools with boys toilet in percentage DISE": 75,
      "Total Population": 1797485,
      "Households with electricity as main source of lighting in percentage Houselisting and Housing Census Data Tables- District Level , Census of India": 32.94632832,
      "Primary Girl's Enrolment in percentage DISE": 49,
      "Marginal Workers worked for 3 - 6 moths during last year - Males": 91376,
      "Prevalence of Acute illness in percentage DLHS-4": "Not available",
      "Main Workers - Persons": 542983,
      "Main Workers Cultivators - Females": 121858,
      "Marginal Workers Agricultural Labourers worked for 3 - 6 moths during last year - Females": 84843,
      "Marginal Workers Other worked for 0 - 3 moths during last year - Males": 4349,
      "Upper Primary Schools with drinking water facility in percentage DISE": 100,
      "Primary Schools with girls toilet in percentage DISE": 92.9,
      "Marginal Workers worked for 3 - 6 moths during last year - Persons": 292553,
      "Upper Primary Drop Out Rate in percentage DISE": 5.5,
      "Prevalence of Anaemia in pregnant women aged 15-49years in percentage DLHS-4": "Not available",
      "Current use of any modern method of family planning in percentage DLHS-4": 69.4,
      "Marginal Workers Agricultural Labourers - Males": 38693,
      "Upper Primary Female Teachers in percentage DISE": 46.9,
      "Marginal Workers - Females": 252549,
      "Marginal Workers Other worked for 3 - 6 moths during last year - Persons": 34563,
      "Main Workers Agricultural Labourers - Females": 34407,
      "Marginal Workers Cultivators worked for 3 - 6 moths during last year - Females": 93850,
      "Households with no lighting  Houselisting and Housing Census Data Tables- District Level , Census of India__5": 2373,
      "Prevalence of Severe Anaemia  in percentage DLHS-4": "Not available",
      "Total unmet need for family planning in percentage DLHS-4": 6.8,
      "Main Workers Other - Males": 82324,
      "Children who received full vaccination in percentage DLHS-4": "Not available",
      "Marginal Workers Household Industry - Persons": 8905,
      "Primary Pupil-Teacher Ratio in percentage DISE": 26,
      "Marginal Workers Agricultural Labourers worked for 3 - 6 moths during last year - Males": 30207,
      "Scheduled Caste Females": 39452,
      "Marginal Workers Cultivators - Males": 58631,
      "Marginal Workers - Males": 121042,
      "Marginal Workers worked for 0 - 3 moths during last year - Females": 51372,
      "Households with main source of drinking water within premises in percentage Houselisting and Housing Census Data Tables- District Level , Census of India": 15.50460445,
      "Marginal Workers Household Industry worked for 3 - 6 moths during last year - Persons": 6464,
      "Upper Primary Girl's Enrolment in percentage DISE": 70.6,
      "Prevalence of Severe Anaemia in women aged 15-49years in percentage DLHS-4": "Not available",
      "Marginal Workers Agricultural Labourers worked for 0 - 3 moths during last year - Males": 8486,
      "Households with electricity as main source of lighting  Houselisting and Housing Census Data Tables- District Level , Census of India__3": 120603,
      "Households with computer or laptop with internet connection in percentage": 0.63,
      "PHCs functioning on a 24x7hours basis in percentage DLHS-4": "Not available",
      "Non Workers - Males": 425518,
      "Total Households in District Houselisting and Housing Census Data Tables- District Level , Census of India": 366059,
      "Upper Primary Schools with girls toilet in percentage DISE": 100,
      "Households with mobile phone in percentage": 26.47,
      "Households receiving untreated tap water within premises in percentage Houselisting and Housing Census Data Tables- District Level , Census of India__2": 0.983448023,
      "Marginal Workers Cultivators worked for 3 - 6 moths during last year - Males": 42626,
      "Prevalence of Anaemia  in percentage DLHS-4": "Not available",
      "Prevalence of Chronic illness in percentage DLHS-4": "Not available",
      "Households with solar energy as main source of lighting in percentage Houselisting and Housing Census Data Tables- District Level , Census of India__1": 0.82609634,
      "Marginal Workers Agricultural Labourers worked for 0 - 3 moths during last year - Females": 19171,
      "Main Workers - Males": 361194,
      "Female": 43.06,
      "Sno": 1448,
      "Marginal Workers Other worked for 3 - 6 moths during last year - Females": 18096,
      "Marginal Workers Cultivators worked for 0 - 3 moths during last year - Females": 22376,
      "Scheduled Tribe Males": 690476,
      "Male Illiterates": 393900,
      "Prevalence of Severe Anaemia in pregnant women aged 15-49years in percentage DLHS-4": "Not available",
      "0-6 Age Group Persons": 325283,
      "Upper Primary Student-Classroom Ratio in percentage DISE": 25,
      "Currently married men married below 21years of age in percentage DLHS-4": 33.8,
      "Male Literates": 513854,
      "Households with no lighting in percentage Houselisting and Housing Census Data Tables- District Level , Census of India__2": 0.648256155,
      "Primary Drop Out Rate in percentage DISE": 9.8,
      "Marginal Workers Household Industry - Males": 2902,
      "Female Illiterates": 574242,
      "Main Workers Other - Females": 21371,
      "Marginal Workers Cultivators - Persons": 174857,
      "Upper Primary Gross Enrolment Ratio in percentage DISE": 75.1,
      "Scheduled Caste Persons": 80091,
      "Marginal Workers Cultivators worked for 3 - 6 moths during last year - Persons": 136476,
      "Households with landline phone in percentage": 0.81,
      "Total Households in District  Houselisting and Housing Census Data Tables- District Level , Census of India": 366059,
      "Upper Primary Pupil-Teacher Ratio in percentage DISE": 19,
      "Primary Student-Classroom Ratio in percentage DISE": 22,
      "Primary Schools with boys toilet in percentage DISE": 83.5,
      "Mean number of children ever born to women aged 40-49years  DLHS-4": "Not available",
      "Households receiving untreated tap water within premises  Houselisting and Housing Census Data Tables- District Level , Census of India__5": 3600,
      "Marginal Workers Household Industry worked for 0 - 3 moths during last year - Persons": 2441,
      "Total Male Population": 907754,
      "Non Workers - Females": 455393,
      "Current use of family planning methods in percentage DLHS-4": 76.3,
      "Households with main source of drinking water within premises  Houselisting and Housing Census Data Tables- District Level , Census of India__3": 56756,
      "Main Workers Agricultural Labourers - Males": 22256,
      "Marginal Workers Other worked for 0 - 3 moths during last year - Persons": 12559,
      "Currently married women married below 18years of age in percentage DLHS-4": 10.2,
      "Person Illiterates": 968142,
      "Main Workers Household Industry - Females": 4153,
      "Female Literates": 315489,
      "Marginal Workers Cultivators worked for 0 - 3 moths during last year - Males": 16005,
      "Male": 69.48,
      "Households with improved source of drinking water in percentage DLHS-4": "Not available",
      "Upper Primary Schools with electricity in percentage DISE": 33.3,
      "Households with electricity in percentage DLHS-4": "Not available",
      "Villages with Primary Health Centre within 10km in percentage DLHS-4": "Not available",
      "Births to women aged 15-19years out of Total births in percentage DLHS-4": "Not available",
      "Prevalence of Anaemia in women aged 15-49years in percentage DLHS-4": "Not available",
      "Marginal Workers Agricultural Labourers worked for 3 - 6 moths during last year - Persons": 115050,
      "Main Workers Household Industry - Males": 6760,
      "Scheduled Tribe Females": 682523,
      "Marginal Workers worked for 0 - 3 moths during last year - Males": 29666,
      "Marginal Workers Other worked for 3 - 6 moths during last year - Males": 16467,
      "Primary Net Enrolment Ratio in percentage DISE": 93.6,
      "Total": 56.33,
      "Mean age at marriage for boys DLHS-4": 21.8,
      "Number of District Hospitals  DLHS-4": "Not available",
      "0-6 Age Group Females": 157058,
      "Marginal Workers Agricultural Labourers worked for 0 - 3 moths during last year - Persons": 27657,
      "Marginal Workers Household Industry worked for 0 - 3 moths during last year - Males": 826,
      "Total Workers  Females": 434338,
      "Marginal Workers worked for 3 - 6 moths during last year - Females": 201177,
      "Institutional Deliveries in percentage DLHS-4": 83.5,
      "Marginal Workers Other - Males": 20816,
      "Total Workers  Males": 482236,
      "Main Workers - Females": 181789,
      "Primary Gross Enrolment Ratio in percentage DISE": 106.9,
      "Main Workers Cultivators - Persons": 371712,
      "Marginal Workers Household Industry worked for 0 - 3 moths during last year - Females": 1615,
      "Upper Primary Net Enrolment Ratio in percentage DISE": 58.4,
      "Primary New Government Schools since 2003 in percentage DISE": 14.9,
      "Tier": "Total",
      "Marginal Workers Household Industry - Females": 6003,
      "Primary Schools with electricity in percentage DISE": 10.4,
      "Main Workers Other - Persons": 103695,
      "Marginal Workers Household Industry worked for 3 - 6 moths during last year - Females": 4388,
      "Main Workers Cultivators - Males": 249854,
      "Main Workers Household Industry - Persons": 10913,
      "Marginal Workers Cultivators worked for 0 - 3 moths during last year - Persons": 38381,
      "Scheduled Caste Males": 40639,
      "Marginal Workers - Persons": 373591,
      "Deliveries at home conducted by skilled health personnel in percentage DLHS-4": 29.4,
      "Villages with Sub-Health Centres within 3km in percentage DLHS-4": "Not available",
      "Upper Primary New Government Schools since 2003 in percentage DISE": 75,
      "0-6 Age Group Males": 168225,
      "Primary Schools with drinking water facility in percentage DISE": 92,
      "Non Workers - Persons": 880911,
      "Person Literates": 829343,
      "State": "RAJASTHAN",
      "Total Female Population": 889731,
      "Marginal Workers worked for 0 - 3 moths during last year - Persons": 81038,
      "Marginal Workers Cultivators - Females": 116226,
      "Marginal Workers Other - Persons": 47122,
      "Sex Ratio": 980,
      "Scheduled Tribe Persons": 1372999,
      "Marginal Workers Household Industry worked for 3 - 6 moths during last year - Males": 2076,
      "Marginal Workers Agricultural Labourers - Females": 104014,
      "Mean age at marriage for girls DLHS-4": 20.4,
      "Households with solar energy as main source of lighting  Houselisting and Housing Census Data Tables- District Level , Census of India__4": 3024,
      "District": "BANSWARA",
      "Households receiving treated tap water within premises in percentage Houselisting and Housing Census Data Tables- District Level , Census of India__1": 7.166057931,
      "Total Workers  Persons": 916574,
      "Households receiving treated tap water within premises  Houselisting and Housing Census Data Tables- District Level , Census of India__4": 26232,
      "Primary Female Teachers in percentage DISE": 30.9,
      "Number of Households": 367797,
      "Main Workers Agricultural Labourers - Persons": 56663
    }
  ],
  "Rural": [
    {
      "Marginal Workers Agricultural Labourers - Persons": 141774,
      "Marginal Workers Other - Females": 24641,
      "Marginal Workers Other worked for 0 - 3 moths during last year - Females": 8008,
      "Upper Primary Schools with boys toilet in percentage DISE": "NA",
      "Total Population": 1669864,
      "Households with electricity as main source of lighting in percentage Houselisting and Housing Census Data Tables- District Level , Census of India": 28.11536262,
      "Primary Girl's Enrolment in percentage DISE": "NA",
      "Marginal Workers worked for 3 - 6 moths during last year - Males": 88455,
      "Prevalence of Acute illness in percentage DLHS-4": "Not available",
      "Main Workers - Persons": 504803,
      "Main Workers Cultivators - Females": 121597,
      "Marginal Workers Agricultural Labourers worked for 3 - 6 moths during last year - Females": 84419,
      "Marginal Workers Other worked for 0 - 3 moths during last year - Males": 4047,
      "Upper Primary Schools with drinking water facility in percentage DISE": "NA",
      "Primary Schools with girls toilet in percentage DISE": "NA",
      "Marginal Workers worked for 3 - 6 moths during last year - Persons": 287236,
      "Upper Primary Drop Out Rate in percentage DISE": "NA",
      "Prevalence of Anaemia in pregnant women aged 15-49years in percentage DLHS-4": "Not available",
      "Current use of any modern method of family planning in percentage DLHS-4": 69.9,
      "Marginal Workers Agricultural Labourers - Males": 38330,
      "Upper Primary Female Teachers in percentage DISE": "NA",
      "Marginal Workers - Females": 249733,
      "Marginal Workers Other worked for 3 - 6 moths during last year - Persons": 30781,
      "Main Workers Agricultural Labourers - Females": 34283,
      "Marginal Workers Cultivators worked for 3 - 6 moths during last year - Females": 93584,
      "Households with no lighting  Houselisting and Housing Census Data Tables- District Level , Census of India__5": 2213,
      "Prevalence of Severe Anaemia  in percentage DLHS-4": "Not available",
      "Total unmet need for family planning in percentage DLHS-4": 6.7,
      "Main Workers Other - Males": 54861,
      "Children who received full vaccination in percentage DLHS-4": "Not available",
      "Marginal Workers Household Industry - Persons": 8441,
      "Primary Pupil-Teacher Ratio in percentage DISE": "NA",
      "Marginal Workers Agricultural Labourers worked for 3 - 6 moths during last year - Males": 29937,
      "Scheduled Caste Females": 34855,
      "Marginal Workers Cultivators - Males": 58395,
      "Marginal Workers - Males": 117644,
      "Marginal Workers worked for 0 - 3 moths during last year - Females": 50952,
      "Households with main source of drinking water within premises in percentage Houselisting and Housing Census Data Tables- District Level , Census of India": 10.47574401,
      "Marginal Workers Household Industry worked for 3 - 6 moths during last year - Persons": 6070,
      "Upper Primary Girl's Enrolment in percentage DISE": "NA",
      "Prevalence of Severe Anaemia in women aged 15-49years in percentage DLHS-4": "Not available",
      "Marginal Workers Agricultural Labourers worked for 0 - 3 moths during last year - Males": 8393,
      "Households with electricity as main source of lighting  Houselisting and Housing Census Data Tables- District Level , Census of India__3": 95360,
      "Households with computer or laptop with internet connection in percentage": 0.25,
      "PHCs functioning on a 24x7hours basis in percentage DLHS-4": "Not applicable",
      "Non Workers - Males": 394257,
      "Total Households in District Houselisting and Housing Census Data Tables- District Level , Census of India": 339174,
      "Upper Primary Schools with girls toilet in percentage DISE": "NA",
      "Households with mobile phone in percentage": 23.77,
      "Households receiving untreated tap water within premises in percentage Houselisting and Housing Census Data Tables- District Level , Census of India__2": 0.89953829,
      "Marginal Workers Cultivators worked for 3 - 6 moths during last year - Males": 42445,
      "Prevalence of Anaemia  in percentage DLHS-4": "Not available",
      "Prevalence of Chronic illness in percentage DLHS-4": "Not available",
      "Households with solar energy as main source of lighting in percentage Houselisting and Housing Census Data Tables- District Level , Census of India__1": 0.889513937,
      "Marginal Workers Agricultural Labourers worked for 0 - 3 moths during last year - Females": 19025,
      "Main Workers - Males": 330866,
      "Female": "NA",
      "Sno": 1447,
      "Marginal Workers Other worked for 3 - 6 moths during last year - Females": 16633,
      "Marginal Workers Cultivators worked for 0 - 3 moths during last year - Females": 22347,
      "Scheduled Tribe Males": 683104,
      "Male Illiterates": 380442,
      "Prevalence of Severe Anaemia in pregnant women aged 15-49years in percentage DLHS-4": "Not available",
      "0-6 Age Group Persons": 309653,
      "Upper Primary Student-Classroom Ratio in percentage DISE": "NA",
      "Currently married men married below 21years of age in percentage DLHS-4": 35.5,
      "Male Literates": 462325,
      "Households with no lighting in percentage Houselisting and Housing Census Data Tables- District Level , Census of India__2": 0.652467465,
      "Primary Drop Out Rate in percentage DISE": "NA",
      "Marginal Workers Household Industry - Males": 2724,
      "Female Illiterates": 555492,
      "Main Workers Other - Females": 14650,
      "Marginal Workers Cultivators - Persons": 174326,
      "Upper Primary Gross Enrolment Ratio in percentage DISE": "NA",
      "Scheduled Caste Persons": 70767,
      "Marginal Workers Cultivators worked for 3 - 6 moths during last year - Persons": 136029,
      "Households with landline phone in percentage": 0.56,
      "Total Households in District  Houselisting and Housing Census Data Tables- District Level , Census of India": 339174,
      "Upper Primary Pupil-Teacher Ratio in percentage DISE": "NA",
      "Primary Student-Classroom Ratio in percentage DISE": "NA",
      "Primary Schools with boys toilet in percentage DISE": "NA",
      "Mean number of children ever born to women aged 40-49years  DLHS-4": "Not available",
      "Households receiving untreated tap water within premises  Houselisting and Housing Census Data Tables- District Level , Census of India__5": 3051,
      "Marginal Workers Household Industry worked for 0 - 3 moths during last year - Persons": 2371,
      "Total Male Population": 842767,
      "Non Workers - Females": 403427,
      "Current use of family planning methods in percentage DLHS-4": 76.9,
      "Households with main source of drinking water within premises  Houselisting and Housing Census Data Tables- District Level , Census of India__3": 35531,
      "Main Workers Agricultural Labourers - Males": 21738,
      "Marginal Workers Other worked for 0 - 3 moths during last year - Persons": 12055,
      "Currently married women married below 18years of age in percentage DLHS-4": 10.6,
      "Person Illiterates": 935934,
      "Main Workers Household Industry - Females": 3407,
      "Female Literates": 271605,
      "Marginal Workers Cultivators worked for 0 - 3 moths during last year - Males": 15950,
      "Male": "NA",
      "Households with improved source of drinking water in percentage DLHS-4": "Not available",
      "Upper Primary Schools with electricity in percentage DISE": "NA",
      "Households with electricity in percentage DLHS-4": "Not available",
      "Villages with Primary Health Centre within 10km in percentage DLHS-4": "Not applicable",
      "Births to women aged 15-19years out of Total births in percentage DLHS-4": "Not available",
      "Prevalence of Anaemia in women aged 15-49years in percentage DLHS-4": "Not available",
      "Marginal Workers Agricultural Labourers worked for 3 - 6 moths during last year - Persons": 114356,
      "Main Workers Household Industry - Males": 5345,
      "Scheduled Tribe Females": 675104,
      "Marginal Workers worked for 0 - 3 moths during last year - Males": 29189,
      "Marginal Workers Other worked for 3 - 6 moths during last year - Males": 14148,
      "Primary Net Enrolment Ratio in percentage DISE": "NA",
      "Total": "NA",
      "Mean age at marriage for boys DLHS-4": 21.6,
      "Number of District Hospitals  DLHS-4": "Not applicable",
      "0-6 Age Group Females": 149792,
      "Marginal Workers Agricultural Labourers worked for 0 - 3 moths during last year - Persons": 27418,
      "Marginal Workers Household Industry worked for 0 - 3 moths during last year - Males": 799,
      "Total Workers  Females": 423670,
      "Marginal Workers worked for 3 - 6 moths during last year - Females": 198781,
      "Institutional Deliveries in percentage DLHS-4": 83,
      "Marginal Workers Other - Males": 18195,
      "Total Workers  Males": 448510,
      "Main Workers - Females": 173937,
      "Primary Gross Enrolment Ratio in percentage DISE": "NA",
      "Main Workers Cultivators - Persons": 370519,
      "Marginal Workers Household Industry worked for 0 - 3 moths during last year - Females": 1572,
      "Upper Primary Net Enrolment Ratio in percentage DISE": "NA",
      "Primary New Government Schools since 2003 in percentage DISE": "NA",
      "Tier": "Rural",
      "Marginal Workers Household Industry - Females": 5717,
      "Primary Schools with electricity in percentage DISE": "NA",
      "Main Workers Other - Persons": 69511,
      "Marginal Workers Household Industry worked for 3 - 6 moths during last year - Females": 4145,
      "Main Workers Cultivators - Males": 248922,
      "Main Workers Household Industry - Persons": 8752,
      "Marginal Workers Cultivators worked for 0 - 3 moths during last year - Persons": 38297,
      "Scheduled Caste Males": 35912,
      "Marginal Workers - Persons": 367377,
      "Deliveries at home conducted by skilled health personnel in percentage DLHS-4": 29.3,
      "Villages with Sub-Health Centres within 3km in percentage DLHS-4": "Not applicable",
      "Upper Primary New Government Schools since 2003 in percentage DISE": "NA",
      "0-6 Age Group Males": 159861,
      "Primary Schools with drinking water facility in percentage DISE": "NA",
      "Non Workers - Persons": 797684,
      "Person Literates": 733930,
      "State": "RAJASTHAN",
      "Total Female Population": 827097,
      "Marginal Workers worked for 0 - 3 moths during last year - Persons": 80141,
      "Marginal Workers Cultivators - Females": 115931,
      "Marginal Workers Other - Persons": 42836,
      "Sex Ratio": 981,
      "Scheduled Tribe Persons": 1358208,
      "Marginal Workers Household Industry worked for 3 - 6 moths during last year - Males": 1925,
      "Marginal Workers Agricultural Labourers - Females": 103444,
      "Mean age at marriage for girls DLHS-4": 20.3,
      "Households with solar energy as main source of lighting  Houselisting and Housing Census Data Tables- District Level , Census of India__4": 3017,
      "District": "BANSWARA",
      "Households receiving treated tap water within premises in percentage Houselisting and Housing Census Data Tables- District Level , Census of India__1": 3.19423069,
      "Total Workers  Persons": 872180,
      "Households receiving treated tap water within premises  Houselisting and Housing Census Data Tables- District Level , Census of India__4": 10834,
      "Primary Female Teachers in percentage DISE": "NA",
      "Number of Households": 340276,
      "Main Workers Agricultural Labourers - Persons": 56021
    }
  ],
  "Urban": [
    {
      "Marginal Workers Agricultural Labourers - Persons": 933,
      "Marginal Workers Other - Females": 1665,
      "Marginal Workers Other worked for 0 - 3 moths during last year - Females": 202,
      "Upper Primary Schools with boys toilet in percentage DISE": "NA",
      "Total Population": 127621,
      "Households with electricity as main source of lighting in percentage Houselisting and Housing Census Data Tables- District Level , Census of India": 93.89250511,
      "Primary Girl's Enrolment in percentage DISE": "NA",
      "Marginal Workers worked for 3 - 6 moths during last year - Males": 2921,
      "Prevalence of Acute illness in percentage DLHS-4": "Not available",
      "Main Workers - Persons": 38180,
      "Main Workers Cultivators - Females": 261,
      "Marginal Workers Agricultural Labourers worked for 3 - 6 moths during last year - Females": 424,
      "Marginal Workers Other worked for 0 - 3 moths during last year - Males": 302,
      "Upper Primary Schools with drinking water facility in percentage DISE": "NA",
      "Primary Schools with girls toilet in percentage DISE": "NA",
      "Marginal Workers worked for 3 - 6 moths during last year - Persons": 5317,
      "Upper Primary Drop Out Rate in percentage DISE": "NA",
      "Prevalence of Anaemia in pregnant women aged 15-49years in percentage DLHS-4": "Not available",
      "Current use of any modern method of family planning in percentage DLHS-4": 0,
      "Marginal Workers Agricultural Labourers - Males": 363,
      "Upper Primary Female Teachers in percentage DISE": "NA",
      "Marginal Workers - Females": 2816,
      "Marginal Workers Other worked for 3 - 6 moths during last year - Persons": 3782,
      "Main Workers Agricultural Labourers - Females": 124,
      "Marginal Workers Cultivators worked for 3 - 6 moths during last year - Females": 266,
      "Households with no lighting  Houselisting and Housing Census Data Tables- District Level , Census of India__5": 160,
      "Prevalence of Severe Anaemia  in percentage DLHS-4": "Not available",
      "Total unmet need for family planning in percentage DLHS-4": 0,
      "Main Workers Other - Males": 27463,
      "Children who received full vaccination in percentage DLHS-4": "Not available",
      "Marginal Workers Household Industry - Persons": 464,
      "Primary Pupil-Teacher Ratio in percentage DISE": "NA",
      "Marginal Workers Agricultural Labourers worked for 3 - 6 moths during last year - Males": 270,
      "Scheduled Caste Females": 4597,
      "Marginal Workers Cultivators - Males": 236,
      "Marginal Workers - Males": 3398,
      "Marginal Workers worked for 0 - 3 moths during last year - Females": 420,
      "Households with main source of drinking water within premises in percentage Houselisting and Housing Census Data Tables- District Level , Census of India": 78.94736842,
      "Marginal Workers Household Industry worked for 3 - 6 moths during last year - Persons": 394,
      "Upper Primary Girl's Enrolment in percentage DISE": "NA",
      "Prevalence of Severe Anaemia in women aged 15-49years in percentage DLHS-4": "Not available",
      "Marginal Workers Agricultural Labourers worked for 0 - 3 moths during last year - Males": 93,
      "Households with electricity as main source of lighting  Houselisting and Housing Census Data Tables- District Level , Census of India__3": 25243,
      "Households with computer or laptop with internet connection in percentage": 5.45,
      "PHCs functioning on a 24x7hours basis in percentage DLHS-4": 0,
      "Non Workers - Males": 31261,
      "Total Households in District Houselisting and Housing Census Data Tables- District Level , Census of India": 26885,
      "Upper Primary Schools with girls toilet in percentage DISE": "NA",
      "Households with mobile phone in percentage": 60.46,
      "Households receiving untreated tap water within premises in percentage Houselisting and Housing Census Data Tables- District Level , Census of India__2": 2.042030872,
      "Marginal Workers Cultivators worked for 3 - 6 moths during last year - Males": 181,
      "Prevalence of Anaemia  in percentage DLHS-4": "Not available",
      "Prevalence of Chronic illness in percentage DLHS-4": "Not available",
      "Households with solar energy as main source of lighting in percentage Houselisting and Housing Census Data Tables- District Level , Census of India__1": 0.026,
      "Marginal Workers Agricultural Labourers worked for 0 - 3 moths during last year - Females": 146,
      "Main Workers - Males": 30328,
      "Female": "NA",
      "Sno": 1449,
      "Marginal Workers Other worked for 3 - 6 moths during last year - Females": 1463,
      "Marginal Workers Cultivators worked for 0 - 3 moths during last year - Females": 29,
      "Scheduled Tribe Males": 7372,
      "Male Illiterates": 13458,
      "Prevalence of Severe Anaemia in pregnant women aged 15-49years in percentage DLHS-4": "Not available",
      "0-6 Age Group Persons": 15630,
      "Upper Primary Student-Classroom Ratio in percentage DISE": "NA",
      "Currently married men married below 21years of age in percentage DLHS-4": 0,
      "Male Literates": 51529,
      "Households with no lighting in percentage Houselisting and Housing Census Data Tables- District Level , Census of India__2": 0.595127394,
      "Primary Drop Out Rate in percentage DISE": "NA",
      "Marginal Workers Household Industry - Males": 178,
      "Female Illiterates": 18750,
      "Main Workers Other - Females": 6721,
      "Marginal Workers Cultivators - Persons": 531,
      "Upper Primary Gross Enrolment Ratio in percentage DISE": "NA",
      "Scheduled Caste Persons": 9324,
      "Marginal Workers Cultivators worked for 3 - 6 moths during last year - Persons": 447,
      "Households with landline phone in percentage": 4.01,
      "Total Households in District  Houselisting and Housing Census Data Tables- District Level , Census of India": 26885,
      "Upper Primary Pupil-Teacher Ratio in percentage DISE": "NA",
      "Primary Student-Classroom Ratio in percentage DISE": "NA",
      "Primary Schools with boys toilet in percentage DISE": "NA",
      "Mean number of children ever born to women aged 40-49years  DLHS-4": "Not available",
      "Households receiving untreated tap water within premises  Houselisting and Housing Census Data Tables- District Level , Census of India__5": 549,
      "Marginal Workers Household Industry worked for 0 - 3 moths during last year - Persons": 70,
      "Total Male Population": 64987,
      "Non Workers - Females": 51966,
      "Current use of family planning methods in percentage DLHS-4": 0,
      "Households with main source of drinking water within premises  Houselisting and Housing Census Data Tables- District Level , Census of India__3": 21225,
      "Main Workers Agricultural Labourers - Males": 518,
      "Marginal Workers Other worked for 0 - 3 moths during last year - Persons": 504,
      "Currently married women married below 18years of age in percentage DLHS-4": 0,
      "Person Illiterates": 32208,
      "Main Workers Household Industry - Females": 746,
      "Female Literates": 43884,
      "Marginal Workers Cultivators worked for 0 - 3 moths during last year - Males": 55,
      "Male": "NA",
      "Households with improved source of drinking water in percentage DLHS-4": "Not available",
      "Upper Primary Schools with electricity in percentage DISE": "NA",
      "Households with electricity in percentage DLHS-4": "Not available",
      "Villages with Primary Health Centre within 10km in percentage DLHS-4": 0,
      "Births to women aged 15-19years out of Total births in percentage DLHS-4": "Not available",
      "Prevalence of Anaemia in women aged 15-49years in percentage DLHS-4": "Not available",
      "Marginal Workers Agricultural Labourers worked for 3 - 6 moths during last year - Persons": 694,
      "Main Workers Household Industry - Males": 1415,
      "Scheduled Tribe Females": 7419,
      "Marginal Workers worked for 0 - 3 moths during last year - Males": 477,
      "Marginal Workers Other worked for 3 - 6 moths during last year - Males": 2319,
      "Primary Net Enrolment Ratio in percentage DISE": "NA",
      "Total": "NA",
      "Mean age at marriage for boys DLHS-4": 0,
      "Number of District Hospitals  DLHS-4": 0,
      "0-6 Age Group Females": 7266,
      "Marginal Workers Agricultural Labourers worked for 0 - 3 moths during last year - Persons": 239,
      "Marginal Workers Household Industry worked for 0 - 3 moths during last year - Males": 27,
      "Total Workers  Females": 10668,
      "Marginal Workers worked for 3 - 6 moths during last year - Females": 2396,
      "Institutional Deliveries in percentage DLHS-4": 0,
      "Marginal Workers Other - Males": 2621,
      "Total Workers  Males": 33726,
      "Main Workers - Females": 7852,
      "Primary Gross Enrolment Ratio in percentage DISE": "NA",
      "Main Workers Cultivators - Persons": 1193,
      "Marginal Workers Household Industry worked for 0 - 3 moths during last year - Females": 43,
      "Upper Primary Net Enrolment Ratio in percentage DISE": "NA",
      "Primary New Government Schools since 2003 in percentage DISE": "NA",
      "Tier": "Urban",
      "Marginal Workers Household Industry - Females": 286,
      "Primary Schools with electricity in percentage DISE": "NA",
      "Main Workers Other - Persons": 34184,
      "Marginal Workers Household Industry worked for 3 - 6 moths during last year - Females": 243,
      "Main Workers Cultivators - Males": 932,
      "Main Workers Household Industry - Persons": 2161,
      "Marginal Workers Cultivators worked for 0 - 3 moths during last year - Persons": 84,
      "Scheduled Caste Males": 4727,
      "Marginal Workers - Persons": 6214,
      "Deliveries at home conducted by skilled health personnel in percentage DLHS-4": 0,
      "Villages with Sub-Health Centres within 3km in percentage DLHS-4": 0,
      "Upper Primary New Government Schools since 2003 in percentage DISE": "NA",
      "0-6 Age Group Males": 8364,
      "Primary Schools with drinking water facility in percentage DISE": "NA",
      "Non Workers - Persons": 83227,
      "Person Literates": 95413,
      "State": "RAJASTHAN",
      "Total Female Population": 62634,
      "Marginal Workers worked for 0 - 3 moths during last year - Persons": 897,
      "Marginal Workers Cultivators - Females": 295,
      "Marginal Workers Other - Persons": 4286,
      "Sex Ratio": 964,
      "Scheduled Tribe Persons": 14791,
      "Marginal Workers Household Industry worked for 3 - 6 moths during last year - Males": 151,
      "Marginal Workers Agricultural Labourers - Females": 570,
      "Mean age at marriage for girls DLHS-4": 0,
      "Households with solar energy as main source of lighting  Houselisting and Housing Census Data Tables- District Level , Census of India__4": 7,
      "District": "BANSWARA",
      "Households receiving treated tap water within premises in percentage Houselisting and Housing Census Data Tables- District Level , Census of India__1": 57.27357262,
      "Total Workers  Persons": 44394,
      "Households receiving treated tap water within premises  Houselisting and Housing Census Data Tables- District Level , Census of India__4": 15398,
      "Primary Female Teachers in percentage DISE": "NA",
      "Number of Households": 27521,
      "Main Workers Agricultural Labourers - Persons": 642
    }
  ]
}