{
  "Total": [
    {
      "Marginal Workers Agricultural Labourers - Persons": 109284,
      "Marginal Workers Other - Females": 19168,
      "Marginal Workers Other worked for 0 - 3 moths during last year - Females": 4965,
      "Upper Primary Schools with boys toilet in percentage DISE": 100,
      "Total Population": 1222755,
      "Households with electricity as main source of lighting in percentage Houselisting and Housing Census Data Tables- District Level , Census of India": 67.12272336,
      "Primary Girl's Enrolment in percentage DISE": 50.8,
      "Marginal Workers worked for 3 - 6 moths during last year - Males": 56061,
      "Prevalence of Acute illness in percentage DLHS-4": "Not available",
      "Main Workers - Persons": 359785,
      "Main Workers Cultivators - Females": 47471,
      "Marginal Workers Agricultural Labourers worked for 3 - 6 moths during last year - Females": 61503,
      "Marginal Workers Other worked for 0 - 3 moths during last year - Males": 3416,
      "Upper Primary Schools with drinking water facility in percentage DISE": 100,
      "Primary Schools with girls toilet in percentage DISE": 89.1,
      "Marginal Workers worked for 3 - 6 moths during last year - Persons": 158159,
      "Upper Primary Drop Out Rate in percentage DISE": 6.77,
      "Prevalence of Anaemia in pregnant women aged 15-49years in percentage DLHS-4": "Not available",
      "Current use of any modern method of family planning in percentage DLHS-4": 56.7,
      "Marginal Workers Agricultural Labourers - Males": 35150,
      "Upper Primary Female Teachers in percentage DISE": 87.5,
      "Marginal Workers - Females": 125601,
      "Marginal Workers Other worked for 3 - 6 moths during last year - Persons": 30343,
      "Main Workers Agricultural Labourers - Females": 30413,
      "Marginal Workers Cultivators worked for 3 - 6 moths during last year - Females": 23827,
      "Households with no lighting  Houselisting and Housing Census Data Tables- District Level , Census of India__5": 1380,
      "Prevalence of Severe Anaemia  in percentage DLHS-4": "Not available",
      "Total unmet need for family planning in percentage DLHS-4": 14,
      "Main Workers Other - Males": 82414,
      "Children who received full vaccination in percentage DLHS-4": "Not available",
      "Marginal Workers Household Industry - Persons": 4941,
      "Primary Pupil-Teacher Ratio in percentage DISE": 21,
      "Marginal Workers Agricultural Labourers worked for 3 - 6 moths during last year - Males": 30404,
      "Scheduled Caste Females": 106215,
      "Marginal Workers Cultivators - Males": 10892,
      "Marginal Workers - Males": 67197,
      "Marginal Workers worked for 0 - 3 moths during last year - Females": 23503,
      "Households with main source of drinking water within premises in percentage Houselisting and Housing Census Data Tables- District Level , Census of India": 25.34193849,
      "Marginal Workers Household Industry worked for 3 - 6 moths during last year - Persons": 3819,
      "Upper Primary Girl's Enrolment in percentage DISE": 86.1,
      "Prevalence of Severe Anaemia in women aged 15-49years in percentage DLHS-4": "Not available",
      "Marginal Workers Agricultural Labourers worked for 0 - 3 moths during last year - Males": 4746,
      "Households with electricity as main source of lighting  Houselisting and Housing Census Data Tables- District Level , Census of India__3": 161310,
      "Households with computer or laptop with internet connection in percentage": 0.57,
      "PHCs functioning on a 24x7hours basis in percentage DLHS-4": "Not available",
      "Non Workers - Males": 304191,
      "Total Households in District Houselisting and Housing Census Data Tables- District Level , Census of India": 240321,
      "Upper Primary Schools with girls toilet in percentage DISE": 83.3,
      "Households with mobile phone in percentage": 58.66,
      "Households receiving untreated tap water within premises in percentage Houselisting and Housing Census Data Tables- District Level , Census of India__2": 3.263967776,
      "Marginal Workers Cultivators worked for 3 - 6 moths during last year - Males": 8263,
      "Prevalence of Anaemia  in percentage DLHS-4": "Not available",
      "Prevalence of Chronic illness in percentage DLHS-4": "Not available",
      "Households with solar energy as main source of lighting in percentage Houselisting and Housing Census Data Tables- District Level , Census of India__1": 0.363680244,
      "Marginal Workers Agricultural Labourers worked for 0 - 3 moths during last year - Females": 12631,
      "Main Workers - Males": 262557,
      "Female": 51.96,
      "Sno": 1451,
      "Marginal Workers Other worked for 3 - 6 moths during last year - Females": 14203,
      "Marginal Workers Cultivators worked for 0 - 3 moths during last year - Females": 5130,
      "Scheduled Tribe Males": 143094,
      "Male Illiterates": 201338,
      "Prevalence of Severe Anaemia in pregnant women aged 15-49years in percentage DLHS-4": "Not available",
      "0-6 Age Group Persons": 182665,
      "Upper Primary Student-Classroom Ratio in percentage DISE": 29,
      "Currently married men married below 21years of age in percentage DLHS-4": 27.2,
      "Male Literates": 432607,
      "Households with no lighting in percentage Houselisting and Housing Census Data Tables- District Level , Census of India__2": 0.574231965,
      "Primary Drop Out Rate in percentage DISE": 8.3,
      "Marginal Workers Household Industry - Males": 1599,
      "Female Illiterates": 328110,
      "Main Workers Other - Females": 14612,
      "Marginal Workers Cultivators - Persons": 39849,
      "Upper Primary Gross Enrolment Ratio in percentage DISE": 86.9,
      "Scheduled Caste Persons": 221184,
      "Marginal Workers Cultivators worked for 3 - 6 moths during last year - Persons": 32090,
      "Households with landline phone in percentage": 1.74,
      "Total Households in District  Houselisting and Housing Census Data Tables- District Level , Census of India": 240321,
      "Upper Primary Pupil-Teacher Ratio in percentage DISE": 24,
      "Primary Student-Classroom Ratio in percentage DISE": 21,
      "Primary Schools with boys toilet in percentage DISE": 86.5,
      "Mean number of children ever born to women aged 40-49years  DLHS-4": "Not available",
      "Households receiving untreated tap water within premises  Houselisting and Housing Census Data Tables- District Level , Census of India__5": 7844,
      "Marginal Workers Household Industry worked for 0 - 3 moths during last year - Persons": 1122,
      "Total Male Population": 633945,
      "Non Workers - Females": 365981,
      "Current use of family planning methods in percentage DLHS-4": 66.1,
      "Households with main source of drinking water within premises  Houselisting and Housing Census Data Tables- District Level , Census of India__3": 60902,
      "Main Workers Agricultural Labourers - Males": 45340,
      "Marginal Workers Other worked for 0 - 3 moths during last year - Persons": 8381,
      "Currently married women married below 18years of age in percentage DLHS-4": 12.3,
      "Person Illiterates": 529448,
      "Main Workers Household Industry - Females": 4732,
      "Female Literates": 260700,
      "Marginal Workers Cultivators worked for 0 - 3 moths during last year - Males": 2629,
      "Male": 80.35,
      "Households with improved source of drinking water in percentage DLHS-4": "Not available",
      "Upper Primary Schools with electricity in percentage DISE": 100,
      "Households with electricity in percentage DLHS-4": "Not available",
      "Villages with Primary Health Centre within 10km in percentage DLHS-4": "Not available",
      "Births to women aged 15-19years out of Total births in percentage DLHS-4": "Not available",
      "Prevalence of Anaemia in women aged 15-49years in percentage DLHS-4": "Not available",
      "Marginal Workers Agricultural Labourers worked for 3 - 6 moths during last year - Persons": 91907,
      "Main Workers Household Industry - Males": 5585,
      "Scheduled Tribe Females": 133763,
      "Marginal Workers worked for 0 - 3 moths during last year - Males": 11136,
      "Marginal Workers Other worked for 3 - 6 moths during last year - Males": 16140,
      "Primary Net Enrolment Ratio in percentage DISE": 91.1,
      "Total": 66.66,
      "Mean age at marriage for boys DLHS-4": 22.6,
      "Number of District Hospitals  DLHS-4": "Not available",
      "0-6 Age Group Females": 87123,
      "Marginal Workers Agricultural Labourers worked for 0 - 3 moths during last year - Persons": 17377,
      "Marginal Workers Household Industry worked for 0 - 3 moths during last year - Males": 345,
      "Total Workers  Females": 222829,
      "Marginal Workers worked for 3 - 6 moths during last year - Females": 102098,
      "Institutional Deliveries in percentage DLHS-4": 93.2,
      "Marginal Workers Other - Males": 19556,
      "Total Workers  Males": 329754,
      "Main Workers - Females": 97228,
      "Primary Gross Enrolment Ratio in percentage DISE": 113.1,
      "Main Workers Cultivators - Persons": 176689,
      "Marginal Workers Household Industry worked for 0 - 3 moths during last year - Females": 777,
      "Upper Primary Net Enrolment Ratio in percentage DISE": 65.1,
      "Primary New Government Schools since 2003 in percentage DISE": 40.4,
      "Tier": "Total",
      "Marginal Workers Household Industry - Females": 3342,
      "Primary Schools with electricity in percentage DISE": 14.1,
      "Main Workers Other - Persons": 97026,
      "Marginal Workers Household Industry worked for 3 - 6 moths during last year - Females": 2565,
      "Main Workers Cultivators - Males": 129218,
      "Main Workers Household Industry - Persons": 10317,
      "Marginal Workers Cultivators worked for 0 - 3 moths during last year - Persons": 7759,
      "Scheduled Caste Males": 114969,
      "Marginal Workers - Persons": 192798,
      "Deliveries at home conducted by skilled health personnel in percentage DLHS-4": 44.4,
      "Villages with Sub-Health Centres within 3km in percentage DLHS-4": "Not available",
      "Upper Primary New Government Schools since 2003 in percentage DISE": 83.3,
      "0-6 Age Group Males": 95542,
      "Primary Schools with drinking water facility in percentage DISE": 78.4,
      "Non Workers - Persons": 670172,
      "Person Literates": 693307,
      "State": "RAJASTHAN",
      "Total Female Population": 588810,
      "Marginal Workers worked for 0 - 3 moths during last year - Persons": 34639,
      "Marginal Workers Cultivators - Females": 28957,
      "Marginal Workers Other - Persons": 38724,
      "Sex Ratio": 929,
      "Scheduled Tribe Persons": 276857,
      "Marginal Workers Household Industry worked for 3 - 6 moths during last year - Males": 1254,
      "Marginal Workers Agricultural Labourers - Females": 74134,
      "Mean age at marriage for girls DLHS-4": 20.4,
      "Households with solar energy as main source of lighting  Houselisting and Housing Census Data Tables- District Level , Census of India__4": 874,
      "District": "BARAN",
      "Households receiving treated tap water within premises in percentage Houselisting and Housing Census Data Tables- District Level , Census of India__1": 13.85521865,
      "Total Workers  Persons": 552583,
      "Households receiving treated tap water within premises  Houselisting and Housing Census Data Tables- District Level , Census of India__4": 33297,
      "Primary Female Teachers in percentage DISE": 21,
      "Number of Households": 241428,
      "Main Workers Agricultural Labourers - Persons": 75753
    }
  ],
  "Rural": [
    {
      "Marginal Workers Agricultural Labourers - Persons": 105336,
      "Marginal Workers Other - Females": 15848,
      "Marginal Workers Other worked for 0 - 3 moths during last year - Females": 4261,
      "Upper Primary Schools with boys toilet in percentage DISE": "NA",
      "Total Population": 968541,
      "Households with electricity as main source of lighting in percentage Houselisting and Housing Census Data Tables- District Level , Census of India": 61.37022054,
      "Primary Girl's Enrolment in percentage DISE": "NA",
      "Marginal Workers worked for 3 - 6 moths during last year - Males": 49086,
      "Prevalence of Acute illness in percentage DLHS-4": "Not available",
      "Main Workers - Persons": 290513,
      "Main Workers Cultivators - Females": 46693,
      "Marginal Workers Agricultural Labourers worked for 3 - 6 moths during last year - Females": 59415,
      "Marginal Workers Other worked for 0 - 3 moths during last year - Males": 2637,
      "Upper Primary Schools with drinking water facility in percentage DISE": "NA",
      "Primary Schools with girls toilet in percentage DISE": "NA",
      "Marginal Workers worked for 3 - 6 moths during last year - Persons": 145515,
      "Upper Primary Drop Out Rate in percentage DISE": "NA",
      "Prevalence of Anaemia in pregnant women aged 15-49years in percentage DLHS-4": "Not available",
      "Current use of any modern method of family planning in percentage DLHS-4": 55.6,
      "Marginal Workers Agricultural Labourers - Males": 33860,
      "Upper Primary Female Teachers in percentage DISE": "NA",
      "Marginal Workers - Females": 118455,
      "Marginal Workers Other worked for 3 - 6 moths during last year - Persons": 22335,
      "Main Workers Agricultural Labourers - Females": 29040,
      "Marginal Workers Cultivators worked for 3 - 6 moths during last year - Females": 23403,
      "Households with no lighting  Houselisting and Housing Census Data Tables- District Level , Census of India__5": 1025,
      "Prevalence of Severe Anaemia  in percentage DLHS-4": "Not available",
      "Total unmet need for family planning in percentage DLHS-4": 14.6,
      "Main Workers Other - Males": 34894,
      "Children who received full vaccination in percentage DLHS-4": "Not available",
      "Marginal Workers Household Industry - Persons": 3917,
      "Primary Pupil-Teacher Ratio in percentage DISE": "NA",
      "Marginal Workers Agricultural Labourers worked for 3 - 6 moths during last year - Males": 29326,
      "Scheduled Caste Females": 80171,
      "Marginal Workers Cultivators - Males": 10624,
      "Marginal Workers - Males": 59106,
      "Marginal Workers worked for 0 - 3 moths during last year - Females": 22026,
      "Households with main source of drinking water within premises in percentage Houselisting and Housing Census Data Tables- District Level , Census of India": 15.43938405,
      "Marginal Workers Household Industry worked for 3 - 6 moths during last year - Persons": 2986,
      "Upper Primary Girl's Enrolment in percentage DISE": "NA",
      "Prevalence of Severe Anaemia in women aged 15-49years in percentage DLHS-4": "Not available",
      "Marginal Workers Agricultural Labourers worked for 0 - 3 moths during last year - Males": 4534,
      "Households with electricity as main source of lighting  Houselisting and Housing Census Data Tables- District Level , Census of India__3": 117570,
      "Households with computer or laptop with internet connection in percentage": 0.26,
      "PHCs functioning on a 24x7hours basis in percentage DLHS-4": "Not applicable",
      "Non Workers - Males": 238081,
      "Total Households in District Houselisting and Housing Census Data Tables- District Level , Census of India": 191575,
      "Upper Primary Schools with girls toilet in percentage DISE": "NA",
      "Households with mobile phone in percentage": 55.89,
      "Households receiving untreated tap water within premises in percentage Houselisting and Housing Census Data Tables- District Level , Census of India__2": 2.225760146,
      "Marginal Workers Cultivators worked for 3 - 6 moths during last year - Males": 8050,
      "Prevalence of Anaemia  in percentage DLHS-4": "Not available",
      "Prevalence of Chronic illness in percentage DLHS-4": "Not available",
      "Households with solar energy as main source of lighting in percentage Houselisting and Housing Census Data Tables- District Level , Census of India__1": 0.43951455,
      "Marginal Workers Agricultural Labourers worked for 0 - 3 moths during last year - Females": 12061,
      "Main Workers - Males": 205041,
      "Female": "NA",
      "Sno": 1450,
      "Marginal Workers Other worked for 3 - 6 moths during last year - Females": 11587,
      "Marginal Workers Cultivators worked for 0 - 3 moths during last year - Females": 5048,
      "Scheduled Tribe Males": 136520,
      "Male Illiterates": 169637,
      "Prevalence of Severe Anaemia in pregnant women aged 15-49years in percentage DLHS-4": "Not available",
      "0-6 Age Group Persons": 148894,
      "Upper Primary Student-Classroom Ratio in percentage DISE": "NA",
      "Currently married men married below 21years of age in percentage DLHS-4": 30.2,
      "Male Literates": 332591,
      "Households with no lighting in percentage Houselisting and Housing Census Data Tables- District Level , Census of India__2": 0.535038497,
      "Primary Drop Out Rate in percentage DISE": "NA",
      "Marginal Workers Household Industry - Males": 1237,
      "Female Illiterates": 277481,
      "Main Workers Other - Females": 8044,
      "Marginal Workers Cultivators - Persons": 39075,
      "Upper Primary Gross Enrolment Ratio in percentage DISE": "NA",
      "Scheduled Caste Persons": 167196,
      "Marginal Workers Cultivators worked for 3 - 6 moths during last year - Persons": 31453,
      "Households with landline phone in percentage": 1.58,
      "Total Households in District  Houselisting and Housing Census Data Tables- District Level , Census of India": 191575,
      "Upper Primary Pupil-Teacher Ratio in percentage DISE": "NA",
      "Primary Student-Classroom Ratio in percentage DISE": "NA",
      "Primary Schools with boys toilet in percentage DISE": "NA",
      "Mean number of children ever born to women aged 40-49years  DLHS-4": "Not available",
      "Households receiving untreated tap water within premises  Houselisting and Housing Census Data Tables- District Level , Census of India__5": 4264,
      "Marginal Workers Household Industry worked for 0 - 3 moths during last year - Persons": 931,
      "Total Male Population": 502228,
      "Non Workers - Females": 262386,
      "Current use of family planning methods in percentage DLHS-4": 65.3,
      "Households with main source of drinking water within premises  Houselisting and Housing Census Data Tables- District Level , Census of India__3": 29578,
      "Main Workers Agricultural Labourers - Males": 42771,
      "Marginal Workers Other worked for 0 - 3 moths during last year - Persons": 6898,
      "Currently married women married below 18years of age in percentage DLHS-4": 14.9,
      "Person Illiterates": 447118,
      "Main Workers Household Industry - Females": 1695,
      "Female Literates": 188832,
      "Marginal Workers Cultivators worked for 0 - 3 moths during last year - Males": 2574,
      "Male": "NA",
      "Households with improved source of drinking water in percentage DLHS-4": "Not available",
      "Upper Primary Schools with electricity in percentage DISE": "NA",
      "Households with electricity in percentage DLHS-4": "Not available",
      "Villages with Primary Health Centre within 10km in percentage DLHS-4": "Not applicable",
      "Births to women aged 15-19years out of Total births in percentage DLHS-4": "Not available",
      "Prevalence of Anaemia in women aged 15-49years in percentage DLHS-4": "Not available",
      "Marginal Workers Agricultural Labourers worked for 3 - 6 moths during last year - Persons": 88741,
      "Main Workers Household Industry - Males": 3160,
      "Scheduled Tribe Females": 127807,
      "Marginal Workers worked for 0 - 3 moths during last year - Males": 10020,
      "Marginal Workers Other worked for 3 - 6 moths during last year - Males": 10748,
      "Primary Net Enrolment Ratio in percentage DISE": "NA",
      "Total": "NA",
      "Mean age at marriage for boys DLHS-4": 22,
      "Number of District Hospitals  DLHS-4": "Not applicable",
      "0-6 Age Group Females": 71121,
      "Marginal Workers Agricultural Labourers worked for 0 - 3 moths during last year - Persons": 16595,
      "Marginal Workers Household Industry worked for 0 - 3 moths during last year - Males": 275,
      "Total Workers  Females": 203927,
      "Marginal Workers worked for 3 - 6 moths during last year - Females": 96429,
      "Institutional Deliveries in percentage DLHS-4": 93,
      "Marginal Workers Other - Males": 13385,
      "Total Workers  Males": 264147,
      "Main Workers - Females": 85472,
      "Primary Gross Enrolment Ratio in percentage DISE": "NA",
      "Main Workers Cultivators - Persons": 170909,
      "Marginal Workers Household Industry worked for 0 - 3 moths during last year - Females": 656,
      "Upper Primary Net Enrolment Ratio in percentage DISE": "NA",
      "Primary New Government Schools since 2003 in percentage DISE": "NA",
      "Tier": "Rural",
      "Marginal Workers Household Industry - Females": 2680,
      "Primary Schools with electricity in percentage DISE": "NA",
      "Main Workers Other - Persons": 42938,
      "Marginal Workers Household Industry worked for 3 - 6 moths during last year - Females": 2024,
      "Main Workers Cultivators - Males": 124216,
      "Main Workers Household Industry - Persons": 4855,
      "Marginal Workers Cultivators worked for 0 - 3 moths during last year - Persons": 7622,
      "Scheduled Caste Males": 87025,
      "Marginal Workers - Persons": 177561,
      "Deliveries at home conducted by skilled health personnel in percentage DLHS-4": 44.1,
      "Villages with Sub-Health Centres within 3km in percentage DLHS-4": "Not applicable",
      "Upper Primary New Government Schools since 2003 in percentage DISE": "NA",
      "0-6 Age Group Males": 77773,
      "Primary Schools with drinking water facility in percentage DISE": "NA",
      "Non Workers - Persons": 500467,
      "Person Literates": 521423,
      "State": "RAJASTHAN",
      "Total Female Population": 466313,
      "Marginal Workers worked for 0 - 3 moths during last year - Persons": 32046,
      "Marginal Workers Cultivators - Females": 28451,
      "Marginal Workers Other - Persons": 29233,
      "Sex Ratio": 928,
      "Scheduled Tribe Persons": 264327,
      "Marginal Workers Household Industry worked for 3 - 6 moths during last year - Males": 962,
      "Marginal Workers Agricultural Labourers - Females": 71476,
      "Mean age at marriage for girls DLHS-4": 19.9,
      "Households with solar energy as main source of lighting  Houselisting and Housing Census Data Tables- District Level , Census of India__4": 842,
      "District": "BARAN",
      "Households receiving treated tap water within premises in percentage Houselisting and Housing Census Data Tables- District Level , Census of India__1": 5.016834138,
      "Total Workers  Persons": 468074,
      "Households receiving treated tap water within premises  Houselisting and Housing Census Data Tables- District Level , Census of India__4": 9611,
      "Primary Female Teachers in percentage DISE": "NA",
      "Number of Households": 191526,
      "Main Workers Agricultural Labourers - Persons": 71811
    }
  ],
  "Urban": [
    {
      "Marginal Workers Agricultural Labourers - Persons": 3948,
      "Marginal Workers Other - Females": 3320,
      "Marginal Workers Other worked for 0 - 3 moths during last year - Females": 704,
      "Upper Primary Schools with boys toilet in percentage DISE": "NA",
      "Total Population": 254214,
      "Households with electricity as main source of lighting in percentage Houselisting and Housing Census Data Tables- District Level , Census of India": 89.73043942,
      "Primary Girl's Enrolment in percentage DISE": "NA",
      "Marginal Workers worked for 3 - 6 moths during last year - Males": 6975,
      "Prevalence of Acute illness in percentage DLHS-4": "Not available",
      "Main Workers - Persons": 69272,
      "Main Workers Cultivators - Females": 778,
      "Marginal Workers Agricultural Labourers worked for 3 - 6 moths during last year - Females": 2088,
      "Marginal Workers Other worked for 0 - 3 moths during last year - Males": 779,
      "Upper Primary Schools with drinking water facility in percentage DISE": "NA",
      "Primary Schools with girls toilet in percentage DISE": "NA",
      "Marginal Workers worked for 3 - 6 moths during last year - Persons": 12644,
      "Upper Primary Drop Out Rate in percentage DISE": "NA",
      "Prevalence of Anaemia in pregnant women aged 15-49years in percentage DLHS-4": "Not available",
      "Current use of any modern method of family planning in percentage DLHS-4": 63.4,
      "Marginal Workers Agricultural Labourers - Males": 1290,
      "Upper Primary Female Teachers in percentage DISE": "NA",
      "Marginal Workers - Females": 7146,
      "Marginal Workers Other worked for 3 - 6 moths during last year - Persons": 8008,
      "Main Workers Agricultural Labourers - Females": 1373,
      "Marginal Workers Cultivators worked for 3 - 6 moths during last year - Females": 424,
      "Households with no lighting  Houselisting and Housing Census Data Tables- District Level , Census of India__5": 355,
      "Prevalence of Severe Anaemia  in percentage DLHS-4": "Not available",
      "Total unmet need for family planning in percentage DLHS-4": 10.9,
      "Main Workers Other - Males": 47520,
      "Children who received full vaccination in percentage DLHS-4": "Not available",
      "Marginal Workers Household Industry - Persons": 1024,
      "Primary Pupil-Teacher Ratio in percentage DISE": "NA",
      "Marginal Workers Agricultural Labourers worked for 3 - 6 moths during last year - Males": 1078,
      "Scheduled Caste Females": 26044,
      "Marginal Workers Cultivators - Males": 268,
      "Marginal Workers - Males": 8091,
      "Marginal Workers worked for 0 - 3 moths during last year - Females": 1477,
      "Households with main source of drinking water within premises in percentage Houselisting and Housing Census Data Tables- District Level , Census of India": 64.25963156,
      "Marginal Workers Household Industry worked for 3 - 6 moths during last year - Persons": 833,
      "Upper Primary Girl's Enrolment in percentage DISE": "NA",
      "Prevalence of Severe Anaemia in women aged 15-49years in percentage DLHS-4": "Not available",
      "Marginal Workers Agricultural Labourers worked for 0 - 3 moths during last year - Males": 212,
      "Households with electricity as main source of lighting  Houselisting and Housing Census Data Tables- District Level , Census of India__3": 43740,
      "Households with computer or laptop with internet connection in percentage": 1.79,
      "PHCs functioning on a 24x7hours basis in percentage DLHS-4": 0,
      "Non Workers - Males": 66110,
      "Total Households in District Houselisting and Housing Census Data Tables- District Level , Census of India": 48746,
      "Upper Primary Schools with girls toilet in percentage DISE": "NA",
      "Households with mobile phone in percentage": 69.58,
      "Households receiving untreated tap water within premises in percentage Houselisting and Housing Census Data Tables- District Level , Census of India__2": 7.344192344,
      "Marginal Workers Cultivators worked for 3 - 6 moths during last year - Males": 213,
      "Prevalence of Anaemia  in percentage DLHS-4": "Not available",
      "Prevalence of Chronic illness in percentage DLHS-4": "Not available",
      "Households with solar energy as main source of lighting in percentage Houselisting and Housing Census Data Tables- District Level , Census of India__1": 0.0656,
      "Marginal Workers Agricultural Labourers worked for 0 - 3 moths during last year - Females": 570,
      "Main Workers - Males": 57516,
      "Female": "NA",
      "Sno": 1452,
      "Marginal Workers Other worked for 3 - 6 moths during last year - Females": 2616,
      "Marginal Workers Cultivators worked for 0 - 3 moths during last year - Females": 82,
      "Scheduled Tribe Males": 6574,
      "Male Illiterates": 31701,
      "Prevalence of Severe Anaemia in pregnant women aged 15-49years in percentage DLHS-4": "Not available",
      "0-6 Age Group Persons": 33771,
      "Upper Primary Student-Classroom Ratio in percentage DISE": "NA",
      "Currently married men married below 21years of age in percentage DLHS-4": 14.7,
      "Male Literates": 100016,
      "Households with no lighting in percentage Houselisting and Housing Census Data Tables- District Level , Census of India__2": 0.728264883,
      "Primary Drop Out Rate in percentage DISE": "NA",
      "Marginal Workers Household Industry - Males": 362,
      "Female Illiterates": 50629,
      "Main Workers Other - Females": 6568,
      "Marginal Workers Cultivators - Persons": 774,
      "Upper Primary Gross Enrolment Ratio in percentage DISE": "NA",
      "Scheduled Caste Persons": 53988,
      "Marginal Workers Cultivators worked for 3 - 6 moths during last year - Persons": 637,
      "Households with landline phone in percentage": 2.39,
      "Total Households in District  Houselisting and Housing Census Data Tables- District Level , Census of India": 48746,
      "Upper Primary Pupil-Teacher Ratio in percentage DISE": "NA",
      "Primary Student-Classroom Ratio in percentage DISE": "NA",
      "Primary Schools with boys toilet in percentage DISE": "NA",
      "Mean number of children ever born to women aged 40-49years  DLHS-4": "Not available",
      "Households receiving untreated tap water within premises  Houselisting and Housing Census Data Tables- District Level , Census of India__5": 3580,
      "Marginal Workers Household Industry worked for 0 - 3 moths during last year - Persons": 191,
      "Total Male Population": 131717,
      "Non Workers - Females": 103595,
      "Current use of family planning methods in percentage DLHS-4": 70.8,
      "Households with main source of drinking water within premises  Houselisting and Housing Census Data Tables- District Level , Census of India__3": 31324,
      "Main Workers Agricultural Labourers - Males": 2569,
      "Marginal Workers Other worked for 0 - 3 moths during last year - Persons": 1483,
      "Currently married women married below 18years of age in percentage DLHS-4": 2.2,
      "Person Illiterates": 82330,
      "Main Workers Household Industry - Females": 3037,
      "Female Literates": 71868,
      "Marginal Workers Cultivators worked for 0 - 3 moths during last year - Males": 55,
      "Male": "NA",
      "Households with improved source of drinking water in percentage DLHS-4": "Not available",
      "Upper Primary Schools with electricity in percentage DISE": "NA",
      "Households with electricity in percentage DLHS-4": "Not available",
      "Villages with Primary Health Centre within 10km in percentage DLHS-4": 0,
      "Births to women aged 15-19years out of Total births in percentage DLHS-4": "Not available",
      "Prevalence of Anaemia in women aged 15-49years in percentage DLHS-4": "Not available",
      "Marginal Workers Agricultural Labourers worked for 3 - 6 moths during last year - Persons": 3166,
      "Main Workers Household Industry - Males": 2425,
      "Scheduled Tribe Females": 5956,
      "Marginal Workers worked for 0 - 3 moths during last year - Males": 1116,
      "Marginal Workers Other worked for 3 - 6 moths during last year - Males": 5392,
      "Primary Net Enrolment Ratio in percentage DISE": "NA",
      "Total": "NA",
      "Mean age at marriage for boys DLHS-4": 25.1,
      "Number of District Hospitals  DLHS-4": 0,
      "0-6 Age Group Females": 16002,
      "Marginal Workers Agricultural Labourers worked for 0 - 3 moths during last year - Persons": 782,
      "Marginal Workers Household Industry worked for 0 - 3 moths during last year - Males": 70,
      "Total Workers  Females": 18902,
      "Marginal Workers worked for 3 - 6 moths during last year - Females": 5669,
      "Institutional Deliveries in percentage DLHS-4": 94.5,
      "Marginal Workers Other - Males": 6171,
      "Total Workers  Males": 65607,
      "Main Workers - Females": 11756,
      "Primary Gross Enrolment Ratio in percentage DISE": "NA",
      "Main Workers Cultivators - Persons": 5780,
      "Marginal Workers Household Industry worked for 0 - 3 moths during last year - Females": 121,
      "Upper Primary Net Enrolment Ratio in percentage DISE": "NA",
      "Primary New Government Schools since 2003 in percentage DISE": "NA",
      "Tier": "Urban",
      "Marginal Workers Household Industry - Females": 662,
      "Primary Schools with electricity in percentage DISE": "NA",
      "Main Workers Other - Persons": 54088,
      "Marginal Workers Household Industry worked for 3 - 6 moths during last year - Females": 541,
      "Main Workers Cultivators - Males": 5002,
      "Main Workers Household Industry - Persons": 5462,
      "Marginal Workers Cultivators worked for 0 - 3 moths during last year - Persons": 137,
      "Scheduled Caste Males": 27944,
      "Marginal Workers - Persons": 15237,
      "Deliveries at home conducted by skilled health personnel in percentage DLHS-4": 46.7,
      "Villages with Sub-Health Centres within 3km in percentage DLHS-4": 0,
      "Upper Primary New Government Schools since 2003 in percentage DISE": "NA",
      "0-6 Age Group Males": 17769,
      "Primary Schools with drinking water facility in percentage DISE": "NA",
      "Non Workers - Persons": 169705,
      "Person Literates": 171884,
      "State": "RAJASTHAN",
      "Total Female Population": 122497,
      "Marginal Workers worked for 0 - 3 moths during last year - Persons": 2593,
      "Marginal Workers Cultivators - Females": 506,
      "Marginal Workers Other - Persons": 9491,
      "Sex Ratio": 930,
      "Scheduled Tribe Persons": 12530,
      "Marginal Workers Household Industry worked for 3 - 6 moths during last year - Males": 292,
      "Marginal Workers Agricultural Labourers - Females": 2658,
      "Mean age at marriage for girls DLHS-4": 22.7,
      "Households with solar energy as main source of lighting  Houselisting and Housing Census Data Tables- District Level , Census of India__4": 32,
      "District": "BARAN",
      "Households receiving treated tap water within premises in percentage Houselisting and Housing Census Data Tables- District Level , Census of India__1": 48.59065359,
      "Total Workers  Persons": 84509,
      "Households receiving treated tap water within premises  Houselisting and Housing Census Data Tables- District Level , Census of India__4": 23686,
      "Primary Female Teachers in percentage DISE": "NA",
      "Number of Households": 49902,
      "Main Workers Agricultural Labourers - Persons": 3942
    }
  ]
}