{
  "Total": [
    {
      "Marginal Workers Agricultural Labourers - Persons": 149515,
      "Marginal Workers Other - Females": 32970,
      "Marginal Workers Other worked for 0 - 3 moths during last year - Females": 6462,
      "Upper Primary Schools with boys toilet in percentage DISE": 83.3,
      "Total Population": 2548462,
      "Households with electricity as main source of lighting in percentage Houselisting and Housing Census Data Tables- District Level , Census of India": 68.15822213,
      "Primary Girl's Enrolment in percentage DISE": 50.4,
      "Marginal Workers worked for 3 - 6 moths during last year - Males": 92084,
      "Prevalence of Acute illness in percentage DLHS-4": "Not available",
      "Main Workers - Persons": 694929,
      "Main Workers Cultivators - Females": 89409,
      "Marginal Workers Agricultural Labourers worked for 3 - 6 moths during last year - Females": 83193,
      "Marginal Workers Other worked for 0 - 3 moths during last year - Males": 4964,
      "Upper Primary Schools with drinking water facility in percentage DISE": 100,
      "Primary Schools with girls toilet in percentage DISE": 96.4,
      "Marginal Workers worked for 3 - 6 moths during last year - Persons": 299495,
      "Upper Primary Drop Out Rate in percentage DISE": 6.53,
      "Prevalence of Anaemia in pregnant women aged 15-49years in percentage DLHS-4": "Not available",
      "Current use of any modern method of family planning in percentage DLHS-4": 49.8,
      "Marginal Workers Agricultural Labourers - Males": 45893,
      "Upper Primary Female Teachers in percentage DISE": 72.7,
      "Marginal Workers - Females": 258904,
      "Marginal Workers Other worked for 3 - 6 moths during last year - Persons": 54072,
      "Main Workers Agricultural Labourers - Females": 33464,
      "Marginal Workers Cultivators worked for 3 - 6 moths during last year - Females": 91646,
      "Households with no lighting  Houselisting and Housing Census Data Tables- District Level , Census of India__5": 1137,
      "Prevalence of Severe Anaemia  in percentage DLHS-4": "Not available",
      "Total unmet need for family planning in percentage DLHS-4": 15,
      "Main Workers Other - Males": 204334,
      "Children who received full vaccination in percentage DLHS-4": "Not available",
      "Marginal Workers Household Industry - Persons": 10669,
      "Primary Pupil-Teacher Ratio in percentage DISE": 26,
      "Marginal Workers Agricultural Labourers worked for 3 - 6 moths during last year - Males": 37653,
      "Scheduled Caste Females": 261012,
      "Marginal Workers Cultivators - Males": 35899,
      "Marginal Workers - Males": 117321,
      "Marginal Workers worked for 0 - 3 moths during last year - Females": 51493,
      "Households with main source of drinking water within premises in percentage Houselisting and Housing Census Data Tables- District Level , Census of India": 24.50148369,
      "Marginal Workers Household Industry worked for 3 - 6 moths during last year - Persons": 8312,
      "Upper Primary Girl's Enrolment in percentage DISE": 69.8,
      "Prevalence of Severe Anaemia in women aged 15-49years in percentage DLHS-4": "Not available",
      "Marginal Workers Agricultural Labourers worked for 0 - 3 moths during last year - Males": 8240,
      "Households with electricity as main source of lighting  Houselisting and Housing Census Data Tables- District Level , Census of India__3": 288723,
      "Households with computer or laptop with internet connection in percentage": 0.99,
      "PHCs functioning on a 24x7hours basis in percentage DLHS-4": "Not available",
      "Non Workers - Males": 708528,
      "Total Households in District Houselisting and Housing Census Data Tables- District Level , Census of India": 423607,
      "Upper Primary Schools with girls toilet in percentage DISE": 100,
      "Households with mobile phone in percentage": 65.67,
      "Households receiving untreated tap water within premises in percentage Houselisting and Housing Census Data Tables- District Level , Census of India__2": 1.872018168,
      "Marginal Workers Cultivators worked for 3 - 6 moths during last year - Males": 24619,
      "Prevalence of Anaemia  in percentage DLHS-4": "Not available",
      "Prevalence of Chronic illness in percentage DLHS-4": "Not available",
      "Households with solar energy as main source of lighting in percentage Houselisting and Housing Census Data Tables- District Level , Census of India__1": 0.267937027,
      "Marginal Workers Agricultural Labourers worked for 0 - 3 moths during last year - Females": 20429,
      "Main Workers - Males": 529877,
      "Female": 54.24,
      "Sno": 1457,
      "Marginal Workers Other worked for 3 - 6 moths during last year - Females": 26508,
      "Marginal Workers Cultivators worked for 0 - 3 moths during last year - Females": 22998,
      "Scheduled Tribe Males": 28705,
      "Male Illiterates": 411816,
      "Prevalence of Severe Anaemia in pregnant women aged 15-49years in percentage DLHS-4": "Not available",
      "0-6 Age Group Persons": 436165,
      "Upper Primary Student-Classroom Ratio in percentage DISE": 24,
      "Currently married men married below 21years of age in percentage DLHS-4": 23.8,
      "Male Literates": 943910,
      "Households with no lighting in percentage Houselisting and Housing Census Data Tables- District Level , Census of India__2": 0.268409162,
      "Primary Drop Out Rate in percentage DISE": 11.3,
      "Marginal Workers Household Industry - Males": 3001,
      "Female Illiterates": 655777,
      "Main Workers Other - Females": 36366,
      "Marginal Workers Cultivators - Persons": 150543,
      "Upper Primary Gross Enrolment Ratio in percentage DISE": 78.9,
      "Scheduled Caste Persons": 557305,
      "Marginal Workers Cultivators worked for 3 - 6 moths during last year - Persons": 116265,
      "Households with landline phone in percentage": 2.54,
      "Total Households in District  Houselisting and Housing Census Data Tables- District Level , Census of India": 423607,
      "Upper Primary Pupil-Teacher Ratio in percentage DISE": 19,
      "Primary Student-Classroom Ratio in percentage DISE": 24,
      "Primary Schools with boys toilet in percentage DISE": 94.9,
      "Mean number of children ever born to women aged 40-49years  DLHS-4": "Not available",
      "Households receiving untreated tap water within premises  Houselisting and Housing Census Data Tables- District Level , Census of India__5": 7930,
      "Marginal Workers Household Industry worked for 0 - 3 moths during last year - Persons": 2357,
      "Total Male Population": 1355726,
      "Non Workers - Females": 768780,
      "Current use of family planning methods in percentage DLHS-4": 68.2,
      "Households with main source of drinking water within premises  Houselisting and Housing Census Data Tables- District Level , Census of India__3": 103790,
      "Main Workers Agricultural Labourers - Males": 55915,
      "Marginal Workers Other worked for 0 - 3 moths during last year - Persons": 11426,
      "Currently married women married below 18years of age in percentage DLHS-4": 8.7,
      "Person Illiterates": 1067593,
      "Main Workers Household Industry - Females": 5813,
      "Female Literates": 536959,
      "Marginal Workers Cultivators worked for 0 - 3 moths during last year - Males": 11280,
      "Male": 84.1,
      "Households with improved source of drinking water in percentage DLHS-4": "Not available",
      "Upper Primary Schools with electricity in percentage DISE": 83.3,
      "Households with electricity in percentage DLHS-4": "Not available",
      "Villages with Primary Health Centre within 10km in percentage DLHS-4": "Not available",
      "Births to women aged 15-19years out of Total births in percentage DLHS-4": "Not available",
      "Prevalence of Anaemia in women aged 15-49years in percentage DLHS-4": "Not available",
      "Marginal Workers Agricultural Labourers worked for 3 - 6 moths during last year - Persons": 120846,
      "Main Workers Household Industry - Males": 8586,
      "Scheduled Tribe Females": 25385,
      "Marginal Workers worked for 0 - 3 moths during last year - Males": 25237,
      "Marginal Workers Other worked for 3 - 6 moths during last year - Males": 27564,
      "Primary Net Enrolment Ratio in percentage DISE": 84.3,
      "Total": 70.11,
      "Mean age at marriage for boys DLHS-4": 22.8,
      "Number of District Hospitals  DLHS-4": "Not available",
      "0-6 Age Group Females": 202842,
      "Marginal Workers Agricultural Labourers worked for 0 - 3 moths during last year - Persons": 28669,
      "Marginal Workers Household Industry worked for 0 - 3 moths during last year - Males": 753,
      "Total Workers  Females": 423956,
      "Marginal Workers worked for 3 - 6 moths during last year - Females": 207411,
      "Institutional Deliveries in percentage DLHS-4": 76.2,
      "Marginal Workers Other - Males": 32528,
      "Total Workers  Males": 647198,
      "Main Workers - Females": 165052,
      "Primary Gross Enrolment Ratio in percentage DISE": 94.6,
      "Main Workers Cultivators - Persons": 350451,
      "Marginal Workers Household Industry worked for 0 - 3 moths during last year - Females": 1604,
      "Upper Primary Net Enrolment Ratio in percentage DISE": 58.6,
      "Primary New Government Schools since 2003 in percentage DISE": 24.3,
      "Tier": "Total",
      "Marginal Workers Household Industry - Females": 7668,
      "Primary Schools with electricity in percentage DISE": 19.2,
      "Main Workers Other - Persons": 240700,
      "Marginal Workers Household Industry worked for 3 - 6 moths during last year - Females": 6064,
      "Main Workers Cultivators - Males": 261042,
      "Main Workers Household Industry - Persons": 14399,
      "Marginal Workers Cultivators worked for 0 - 3 moths during last year - Persons": 34278,
      "Scheduled Caste Males": 296293,
      "Marginal Workers - Persons": 376225,
      "Deliveries at home conducted by skilled health personnel in percentage DLHS-4": 43.1,
      "Villages with Sub-Health Centres within 3km in percentage DLHS-4": "Not available",
      "Upper Primary New Government Schools since 2003 in percentage DISE": 63.6,
      "0-6 Age Group Males": 233323,
      "Primary Schools with drinking water facility in percentage DISE": 82.6,
      "Non Workers - Persons": 1477308,
      "Person Literates": 1480869,
      "State": "RAJASTHAN",
      "Total Female Population": 1192736,
      "Marginal Workers worked for 0 - 3 moths during last year - Persons": 76730,
      "Marginal Workers Cultivators - Females": 114644,
      "Marginal Workers Other - Persons": 65498,
      "Sex Ratio": 880,
      "Scheduled Tribe Persons": 54090,
      "Marginal Workers Household Industry worked for 3 - 6 moths during last year - Males": 2248,
      "Marginal Workers Agricultural Labourers - Females": 103622,
      "Mean age at marriage for girls DLHS-4": 20.7,
      "Households with solar energy as main source of lighting  Houselisting and Housing Census Data Tables- District Level , Census of India__4": 1135,
      "District": "BHARATPUR",
      "Households receiving treated tap water within premises in percentage Houselisting and Housing Census Data Tables- District Level , Census of India__1": 12.87207246,
      "Total Workers  Persons": 1071154,
      "Households receiving treated tap water within premises  Houselisting and Housing Census Data Tables- District Level , Census of India__4": 54527,
      "Primary Female Teachers in percentage DISE": 24.5,
      "Number of Households": 425414,
      "Main Workers Agricultural Labourers - Persons": 89379
    }
  ],
  "Rural": [
    {
      "Marginal Workers Agricultural Labourers - Persons": 142766,
      "Marginal Workers Other - Females": 28513,
      "Marginal Workers Other worked for 0 - 3 moths during last year - Females": 5524,
      "Upper Primary Schools with boys toilet in percentage DISE": "NA",
      "Total Population": 2053363,
      "Households with electricity as main source of lighting in percentage Houselisting and Housing Census Data Tables- District Level , Census of India": 62.68138876,
      "Primary Girl's Enrolment in percentage DISE": "NA",
      "Marginal Workers worked for 3 - 6 moths during last year - Males": 79658,
      "Prevalence of Acute illness in percentage DLHS-4": "Not available",
      "Main Workers - Persons": 570786,
      "Main Workers Cultivators - Females": 87417,
      "Marginal Workers Agricultural Labourers worked for 3 - 6 moths during last year - Females": 80715,
      "Marginal Workers Other worked for 0 - 3 moths during last year - Males": 3478,
      "Upper Primary Schools with drinking water facility in percentage DISE": "NA",
      "Primary Schools with girls toilet in percentage DISE": "NA",
      "Marginal Workers worked for 3 - 6 moths during last year - Persons": 278941,
      "Upper Primary Drop Out Rate in percentage DISE": "NA",
      "Prevalence of Anaemia in pregnant women aged 15-49years in percentage DLHS-4": "Not available",
      "Current use of any modern method of family planning in percentage DLHS-4": 48.9,
      "Marginal Workers Agricultural Labourers - Males": 43343,
      "Upper Primary Female Teachers in percentage DISE": "NA",
      "Marginal Workers - Females": 247498,
      "Marginal Workers Other worked for 3 - 6 moths during last year - Persons": 41308,
      "Main Workers Agricultural Labourers - Females": 32189,
      "Marginal Workers Cultivators worked for 3 - 6 moths during last year - Females": 90423,
      "Households with no lighting  Houselisting and Housing Census Data Tables- District Level , Census of India__5": 931,
      "Prevalence of Severe Anaemia  in percentage DLHS-4": "Not available",
      "Total unmet need for family planning in percentage DLHS-4": 15.3,
      "Main Workers Other - Males": 112362,
      "Children who received full vaccination in percentage DLHS-4": "Not available",
      "Marginal Workers Household Industry - Persons": 8909,
      "Primary Pupil-Teacher Ratio in percentage DISE": "NA",
      "Marginal Workers Agricultural Labourers worked for 3 - 6 moths during last year - Males": 35562,
      "Scheduled Caste Females": 203978,
      "Marginal Workers Cultivators - Males": 35111,
      "Marginal Workers - Males": 102701,
      "Marginal Workers worked for 0 - 3 moths during last year - Females": 48215,
      "Households with main source of drinking water within premises in percentage Houselisting and Housing Census Data Tables- District Level , Census of India": 13.60452666,
      "Marginal Workers Household Industry worked for 3 - 6 moths during last year - Persons": 6965,
      "Upper Primary Girl's Enrolment in percentage DISE": "NA",
      "Prevalence of Severe Anaemia in women aged 15-49years in percentage DLHS-4": "Not available",
      "Marginal Workers Agricultural Labourers worked for 0 - 3 moths during last year - Males": 7781,
      "Households with electricity as main source of lighting  Houselisting and Housing Census Data Tables- District Level , Census of India__3": 211917,
      "Households with computer or laptop with internet connection in percentage": 0.51,
      "PHCs functioning on a 24x7hours basis in percentage DLHS-4": "Not applicable",
      "Non Workers - Males": 568724,
      "Total Households in District Houselisting and Housing Census Data Tables- District Level , Census of India": 338086,
      "Upper Primary Schools with girls toilet in percentage DISE": "NA",
      "Households with mobile phone in percentage": 65.92,
      "Households receiving untreated tap water within premises in percentage Houselisting and Housing Census Data Tables- District Level , Census of India__2": 1.058310607,
      "Marginal Workers Cultivators worked for 3 - 6 moths during last year - Males": 23968,
      "Prevalence of Anaemia  in percentage DLHS-4": "Not available",
      "Prevalence of Chronic illness in percentage DLHS-4": "Not available",
      "Households with solar energy as main source of lighting in percentage Houselisting and Housing Census Data Tables- District Level , Census of India__1": 0.312938128,
      "Marginal Workers Agricultural Labourers worked for 0 - 3 moths during last year - Females": 18708,
      "Main Workers - Males": 421932,
      "Female": "NA",
      "Sno": 1456,
      "Marginal Workers Other worked for 3 - 6 moths during last year - Females": 22989,
      "Marginal Workers Cultivators worked for 0 - 3 moths during last year - Females": 22680,
      "Scheduled Tribe Males": 25911,
      "Male Illiterates": 348313,
      "Prevalence of Severe Anaemia in pregnant women aged 15-49years in percentage DLHS-4": "Not available",
      "0-6 Age Group Persons": 368292,
      "Upper Primary Student-Classroom Ratio in percentage DISE": "NA",
      "Currently married men married below 21years of age in percentage DLHS-4": 26.2,
      "Male Literates": 745044,
      "Households with no lighting in percentage Houselisting and Housing Census Data Tables- District Level , Census of India__2": 0.275373721,
      "Primary Drop Out Rate in percentage DISE": "NA",
      "Marginal Workers Household Industry - Males": 2450,
      "Female Illiterates": 561646,
      "Main Workers Other - Females": 24503,
      "Marginal Workers Cultivators - Persons": 148214,
      "Upper Primary Gross Enrolment Ratio in percentage DISE": "NA",
      "Scheduled Caste Persons": 436158,
      "Marginal Workers Cultivators worked for 3 - 6 moths during last year - Persons": 114391,
      "Households with landline phone in percentage": 2.12,
      "Total Households in District  Houselisting and Housing Census Data Tables- District Level , Census of India": 338086,
      "Upper Primary Pupil-Teacher Ratio in percentage DISE": "NA",
      "Primary Student-Classroom Ratio in percentage DISE": "NA",
      "Primary Schools with boys toilet in percentage DISE": "NA",
      "Mean number of children ever born to women aged 40-49years  DLHS-4": "Not available",
      "Households receiving untreated tap water within premises  Houselisting and Housing Census Data Tables- District Level , Census of India__5": 3578,
      "Marginal Workers Household Industry worked for 0 - 3 moths during last year - Persons": 1944,
      "Total Male Population": 1093357,
      "Non Workers - Females": 563654,
      "Current use of family planning methods in percentage DLHS-4": 67.6,
      "Households with main source of drinking water within premises  Houselisting and Housing Census Data Tables- District Level , Census of India__3": 45995,
      "Main Workers Agricultural Labourers - Males": 51862,
      "Marginal Workers Other worked for 0 - 3 moths during last year - Persons": 9002,
      "Currently married women married below 18years of age in percentage DLHS-4": 9.9,
      "Person Illiterates": 909959,
      "Main Workers Household Industry - Females": 4745,
      "Female Literates": 398360,
      "Marginal Workers Cultivators worked for 0 - 3 moths during last year - Males": 11143,
      "Male": "NA",
      "Households with improved source of drinking water in percentage DLHS-4": "Not available",
      "Upper Primary Schools with electricity in percentage DISE": "NA",
      "Households with electricity in percentage DLHS-4": "Not available",
      "Villages with Primary Health Centre within 10km in percentage DLHS-4": "Not applicable",
      "Births to women aged 15-19years out of Total births in percentage DLHS-4": "Not available",
      "Prevalence of Anaemia in women aged 15-49years in percentage DLHS-4": "Not available",
      "Marginal Workers Agricultural Labourers worked for 3 - 6 moths during last year - Persons": 116277,
      "Main Workers Household Industry - Males": 5074,
      "Scheduled Tribe Females": 22643,
      "Marginal Workers worked for 0 - 3 moths during last year - Males": 23043,
      "Marginal Workers Other worked for 3 - 6 moths during last year - Males": 18319,
      "Primary Net Enrolment Ratio in percentage DISE": "NA",
      "Total": "NA",
      "Mean age at marriage for boys DLHS-4": 22.4,
      "Number of District Hospitals  DLHS-4": "Not applicable",
      "0-6 Age Group Females": 171617,
      "Marginal Workers Agricultural Labourers worked for 0 - 3 moths during last year - Persons": 26489,
      "Marginal Workers Household Industry worked for 0 - 3 moths during last year - Males": 641,
      "Total Workers  Females": 396352,
      "Marginal Workers worked for 3 - 6 moths during last year - Females": 199283,
      "Institutional Deliveries in percentage DLHS-4": 73.9,
      "Marginal Workers Other - Males": 21797,
      "Total Workers  Males": 524633,
      "Main Workers - Females": 148854,
      "Primary Gross Enrolment Ratio in percentage DISE": "NA",
      "Main Workers Cultivators - Persons": 340051,
      "Marginal Workers Household Industry worked for 0 - 3 moths during last year - Females": 1303,
      "Upper Primary Net Enrolment Ratio in percentage DISE": "NA",
      "Primary New Government Schools since 2003 in percentage DISE": "NA",
      "Tier": "Rural",
      "Marginal Workers Household Industry - Females": 6459,
      "Primary Schools with electricity in percentage DISE": "NA",
      "Main Workers Other - Persons": 136865,
      "Marginal Workers Household Industry worked for 3 - 6 moths during last year - Females": 5156,
      "Main Workers Cultivators - Males": 252634,
      "Main Workers Household Industry - Persons": 9819,
      "Marginal Workers Cultivators worked for 0 - 3 moths during last year - Persons": 33823,
      "Scheduled Caste Males": 232180,
      "Marginal Workers - Persons": 350199,
      "Deliveries at home conducted by skilled health personnel in percentage DLHS-4": 43.6,
      "Villages with Sub-Health Centres within 3km in percentage DLHS-4": "Not applicable",
      "Upper Primary New Government Schools since 2003 in percentage DISE": "NA",
      "0-6 Age Group Males": 196675,
      "Primary Schools with drinking water facility in percentage DISE": "NA",
      "Non Workers - Persons": 1132378,
      "Person Literates": 1143404,
      "State": "RAJASTHAN",
      "Total Female Population": 960006,
      "Marginal Workers worked for 0 - 3 moths during last year - Persons": 71258,
      "Marginal Workers Cultivators - Females": 113103,
      "Marginal Workers Other - Persons": 50310,
      "Sex Ratio": 878,
      "Scheduled Tribe Persons": 48554,
      "Marginal Workers Household Industry worked for 3 - 6 moths during last year - Males": 1809,
      "Marginal Workers Agricultural Labourers - Females": 99423,
      "Mean age at marriage for girls DLHS-4": 20.3,
      "Households with solar energy as main source of lighting  Houselisting and Housing Census Data Tables- District Level , Census of India__4": 1058,
      "District": "BHARATPUR",
      "Households receiving treated tap water within premises in percentage Houselisting and Housing Census Data Tables- District Level , Census of India__1": 3.344415326,
      "Total Workers  Persons": 920985,
      "Households receiving treated tap water within premises  Houselisting and Housing Census Data Tables- District Level , Census of India__4": 11307,
      "Primary Female Teachers in percentage DISE": "NA",
      "Number of Households": 338689,
      "Main Workers Agricultural Labourers - Persons": 84051
    }
  ],
  "Urban": [
    {
      "Marginal Workers Agricultural Labourers - Persons": 6749,
      "Marginal Workers Other - Females": 4457,
      "Marginal Workers Other worked for 0 - 3 moths during last year - Females": 938,
      "Upper Primary Schools with boys toilet in percentage DISE": "NA",
      "Total Population": 495099,
      "Households with electricity as main source of lighting in percentage Houselisting and Housing Census Data Tables- District Level , Census of India": 89.80952047,
      "Primary Girl's Enrolment in percentage DISE": "NA",
      "Marginal Workers worked for 3 - 6 moths during last year - Males": 12426,
      "Prevalence of Acute illness in percentage DLHS-4": "Not available",
      "Main Workers - Persons": 124143,
      "Main Workers Cultivators - Females": 1992,
      "Marginal Workers Agricultural Labourers worked for 3 - 6 moths during last year - Females": 2478,
      "Marginal Workers Other worked for 0 - 3 moths during last year - Males": 1486,
      "Upper Primary Schools with drinking water facility in percentage DISE": "NA",
      "Primary Schools with girls toilet in percentage DISE": "NA",
      "Marginal Workers worked for 3 - 6 moths during last year - Persons": 20554,
      "Upper Primary Drop Out Rate in percentage DISE": "NA",
      "Prevalence of Anaemia in pregnant women aged 15-49years in percentage DLHS-4": "Not available",
      "Current use of any modern method of family planning in percentage DLHS-4": 53.4,
      "Marginal Workers Agricultural Labourers - Males": 2550,
      "Upper Primary Female Teachers in percentage DISE": "NA",
      "Marginal Workers - Females": 11406,
      "Marginal Workers Other worked for 3 - 6 moths during last year - Persons": 12764,
      "Main Workers Agricultural Labourers - Females": 1275,
      "Marginal Workers Cultivators worked for 3 - 6 moths during last year - Females": 1223,
      "Households with no lighting  Houselisting and Housing Census Data Tables- District Level , Census of India__5": 206,
      "Prevalence of Severe Anaemia  in percentage DLHS-4": "Not available",
      "Total unmet need for family planning in percentage DLHS-4": 13.6,
      "Main Workers Other - Males": 91972,
      "Children who received full vaccination in percentage DLHS-4": "Not available",
      "Marginal Workers Household Industry - Persons": 1760,
      "Primary Pupil-Teacher Ratio in percentage DISE": "NA",
      "Marginal Workers Agricultural Labourers worked for 3 - 6 moths during last year - Males": 2091,
      "Scheduled Caste Females": 57034,
      "Marginal Workers Cultivators - Males": 788,
      "Marginal Workers - Males": 14620,
      "Marginal Workers worked for 0 - 3 moths during last year - Females": 3278,
      "Households with main source of drinking water within premises in percentage Houselisting and Housing Census Data Tables- District Level , Census of India": 67.57989266,
      "Marginal Workers Household Industry worked for 3 - 6 moths during last year - Persons": 1347,
      "Upper Primary Girl's Enrolment in percentage DISE": "NA",
      "Prevalence of Severe Anaemia in women aged 15-49years in percentage DLHS-4": "Not available",
      "Marginal Workers Agricultural Labourers worked for 0 - 3 moths during last year - Males": 459,
      "Households with electricity as main source of lighting  Houselisting and Housing Census Data Tables- District Level , Census of India__3": 76806,
      "Households with computer or laptop with internet connection in percentage": 2.87,
      "PHCs functioning on a 24x7hours basis in percentage DLHS-4": 0,
      "Non Workers - Males": 139804,
      "Total Households in District Houselisting and Housing Census Data Tables- District Level , Census of India": 85521,
      "Upper Primary Schools with girls toilet in percentage DISE": "NA",
      "Households with mobile phone in percentage": 64.69,
      "Households receiving untreated tap water within premises in percentage Houselisting and Housing Census Data Tables- District Level , Census of India__2": 5.088808597,
      "Marginal Workers Cultivators worked for 3 - 6 moths during last year - Males": 651,
      "Prevalence of Anaemia  in percentage DLHS-4": "Not available",
      "Prevalence of Chronic illness in percentage DLHS-4": "Not available",
      "Households with solar energy as main source of lighting in percentage Houselisting and Housing Census Data Tables- District Level , Census of India__1": 0.09,
      "Marginal Workers Agricultural Labourers worked for 0 - 3 moths during last year - Females": 1721,
      "Main Workers - Males": 107945,
      "Female": "NA",
      "Sno": 1458,
      "Marginal Workers Other worked for 3 - 6 moths during last year - Females": 3519,
      "Marginal Workers Cultivators worked for 0 - 3 moths during last year - Females": 318,
      "Scheduled Tribe Males": 2794,
      "Male Illiterates": 63503,
      "Prevalence of Severe Anaemia in pregnant women aged 15-49years in percentage DLHS-4": "Not available",
      "0-6 Age Group Persons": 67873,
      "Upper Primary Student-Classroom Ratio in percentage DISE": "NA",
      "Currently married men married below 21years of age in percentage DLHS-4": 15,
      "Male Literates": 198866,
      "Households with no lighting in percentage Houselisting and Housing Census Data Tables- District Level , Census of India__2": 0.24087651,
      "Primary Drop Out Rate in percentage DISE": "NA",
      "Marginal Workers Household Industry - Males": 551,
      "Female Illiterates": 94131,
      "Main Workers Other - Females": 11863,
      "Marginal Workers Cultivators - Persons": 2329,
      "Upper Primary Gross Enrolment Ratio in percentage DISE": "NA",
      "Scheduled Caste Persons": 121147,
      "Marginal Workers Cultivators worked for 3 - 6 moths during last year - Persons": 1874,
      "Households with landline phone in percentage": 4.22,
      "Total Households in District  Houselisting and Housing Census Data Tables- District Level , Census of India": 85521,
      "Upper Primary Pupil-Teacher Ratio in percentage DISE": "NA",
      "Primary Student-Classroom Ratio in percentage DISE": "NA",
      "Primary Schools with boys toilet in percentage DISE": "NA",
      "Mean number of children ever born to women aged 40-49years  DLHS-4": "Not available",
      "Households receiving untreated tap water within premises  Houselisting and Housing Census Data Tables- District Level , Census of India__5": 4352,
      "Marginal Workers Household Industry worked for 0 - 3 moths during last year - Persons": 413,
      "Total Male Population": 262369,
      "Non Workers - Females": 205126,
      "Current use of family planning methods in percentage DLHS-4": 70.6,
      "Households with main source of drinking water within premises  Houselisting and Housing Census Data Tables- District Level , Census of India__3": 57795,
      "Main Workers Agricultural Labourers - Males": 4053,
      "Marginal Workers Other worked for 0 - 3 moths during last year - Persons": 2424,
      "Currently married women married below 18years of age in percentage DLHS-4": 3.5,
      "Person Illiterates": 157634,
      "Main Workers Household Industry - Females": 1068,
      "Female Literates": 138599,
      "Marginal Workers Cultivators worked for 0 - 3 moths during last year - Males": 137,
      "Male": "NA",
      "Households with improved source of drinking water in percentage DLHS-4": "Not available",
      "Upper Primary Schools with electricity in percentage DISE": "NA",
      "Households with electricity in percentage DLHS-4": "Not available",
      "Villages with Primary Health Centre within 10km in percentage DLHS-4": 0,
      "Births to women aged 15-19years out of Total births in percentage DLHS-4": "Not available",
      "Prevalence of Anaemia in women aged 15-49years in percentage DLHS-4": "Not available",
      "Marginal Workers Agricultural Labourers worked for 3 - 6 moths during last year - Persons": 4569,
      "Main Workers Household Industry - Males": 3512,
      "Scheduled Tribe Females": 2742,
      "Marginal Workers worked for 0 - 3 moths during last year - Males": 2194,
      "Marginal Workers Other worked for 3 - 6 moths during last year - Males": 9245,
      "Primary Net Enrolment Ratio in percentage DISE": "NA",
      "Total": "NA",
      "Mean age at marriage for boys DLHS-4": 24.3,
      "Number of District Hospitals  DLHS-4": 0,
      "0-6 Age Group Females": 31225,
      "Marginal Workers Agricultural Labourers worked for 0 - 3 moths during last year - Persons": 2180,
      "Marginal Workers Household Industry worked for 0 - 3 moths during last year - Males": 112,
      "Total Workers  Females": 27604,
      "Marginal Workers worked for 3 - 6 moths during last year - Females": 8128,
      "Institutional Deliveries in percentage DLHS-4": 86.8,
      "Marginal Workers Other - Males": 10731,
      "Total Workers  Males": 122565,
      "Main Workers - Females": 16198,
      "Primary Gross Enrolment Ratio in percentage DISE": "NA",
      "Main Workers Cultivators - Persons": 10400,
      "Marginal Workers Household Industry worked for 0 - 3 moths during last year - Females": 301,
      "Upper Primary Net Enrolment Ratio in percentage DISE": "NA",
      "Primary New Government Schools since 2003 in percentage DISE": "NA",
      "Tier": "Urban",
      "Marginal Workers Household Industry - Females": 1209,
      "Primary Schools with electricity in percentage DISE": "NA",
      "Main Workers Other - Persons": 103835,
      "Marginal Workers Household Industry worked for 3 - 6 moths during last year - Females": 908,
      "Main Workers Cultivators - Males": 8408,
      "Main Workers Household Industry - Persons": 4580,
      "Marginal Workers Cultivators worked for 0 - 3 moths during last year - Persons": 455,
      "Scheduled Caste Males": 64113,
      "Marginal Workers - Persons": 26026,
      "Deliveries at home conducted by skilled health personnel in percentage DLHS-4": 37.7,
      "Villages with Sub-Health Centres within 3km in percentage DLHS-4": 0,
      "Upper Primary New Government Schools since 2003 in percentage DISE": "NA",
      "0-6 Age Group Males": 36648,
      "Primary Schools with drinking water facility in percentage DISE": "NA",
      "Non Workers - Persons": 344930,
      "Person Literates": 337465,
      "State": "RAJASTHAN",
      "Total Female Population": 232730,
      "Marginal Workers worked for 0 - 3 moths during last year - Persons": 5472,
      "Marginal Workers Cultivators - Females": 1541,
      "Marginal Workers Other - Persons": 15188,
      "Sex Ratio": 887,
      "Scheduled Tribe Persons": 5536,
      "Marginal Workers Household Industry worked for 3 - 6 moths during last year - Males": 439,
      "Marginal Workers Agricultural Labourers - Females": 4199,
      "Mean age at marriage for girls DLHS-4": 22.2,
      "Households with solar energy as main source of lighting  Houselisting and Housing Census Data Tables- District Level , Census of India__4": 77,
      "District": "BHARATPUR",
      "Households receiving treated tap water within premises in percentage Houselisting and Housing Census Data Tables- District Level , Census of India__1": 50.53729493,
      "Total Workers  Persons": 150169,
      "Households receiving treated tap water within premises  Houselisting and Housing Census Data Tables- District Level , Census of India__4": 43220,
      "Primary Female Teachers in percentage DISE": "NA",
      "Number of Households": 86725,
      "Main Workers Agricultural Labourers - Persons": 5328
    }
  ]
}