{
  "Total": [
    {
      "Marginal Workers Agricultural Labourers - Persons": 85553,
      "Marginal Workers Other - Females": 40136,
      "Marginal Workers Other worked for 0 - 3 moths during last year - Females": 8482,
      "Upper Primary Schools with boys toilet in percentage DISE": 0,
      "Total Population": 2408523,
      "Households with electricity as main source of lighting in percentage Houselisting and Housing Census Data Tables- District Level , Census of India": 75.69819103,
      "Primary Girl's Enrolment in percentage DISE": 47.2,
      "Marginal Workers worked for 3 - 6 moths during last year - Males": 79743,
      "Prevalence of Acute illness in percentage DLHS-4": "Not available",
      "Main Workers - Persons": 883329,
      "Main Workers Cultivators - Females": 200940,
      "Marginal Workers Agricultural Labourers worked for 3 - 6 moths during last year - Females": 52786,
      "Marginal Workers Other worked for 0 - 3 moths during last year - Males": 4657,
      "Upper Primary Schools with drinking water facility in percentage DISE": 100,
      "Primary Schools with girls toilet in percentage DISE": 100,
      "Marginal Workers worked for 3 - 6 moths during last year - Persons": 223993,
      "Upper Primary Drop Out Rate in percentage DISE": 11.35,
      "Prevalence of Anaemia in pregnant women aged 15-49years in percentage DLHS-4": "Not available",
      "Current use of any modern method of family planning in percentage DLHS-4": 58.5,
      "Marginal Workers Agricultural Labourers - Males": 24796,
      "Upper Primary Female Teachers in percentage DISE": 100,
      "Marginal Workers - Females": 171286,
      "Marginal Workers Other worked for 3 - 6 moths during last year - Persons": 63911,
      "Main Workers Agricultural Labourers - Females": 40940,
      "Marginal Workers Cultivators worked for 3 - 6 moths during last year - Females": 55688,
      "Households with no lighting  Houselisting and Housing Census Data Tables- District Level , Census of India__5": 2681,
      "Prevalence of Severe Anaemia  in percentage DLHS-4": "Not available",
      "Total unmet need for family planning in percentage DLHS-4": 12.8,
      "Main Workers Other - Males": 268112,
      "Children who received full vaccination in percentage DLHS-4": "Not available",
      "Marginal Workers Household Industry - Persons": 8887,
      "Primary Pupil-Teacher Ratio in percentage DISE": 23,
      "Marginal Workers Agricultural Labourers worked for 3 - 6 moths during last year - Males": 21464,
      "Scheduled Caste Females": 201615,
      "Marginal Workers Cultivators - Males": 28377,
      "Marginal Workers - Males": 93550,
      "Marginal Workers worked for 0 - 3 moths during last year - Females": 27036,
      "Households with main source of drinking water within premises in percentage Houselisting and Housing Census Data Tables- District Level , Census of India": 27.31884513,
      "Marginal Workers Household Industry worked for 3 - 6 moths during last year - Persons": 6922,
      "Upper Primary Girl's Enrolment in percentage DISE": 100,
      "Prevalence of Severe Anaemia in women aged 15-49years in percentage DLHS-4": "Not available",
      "Marginal Workers Agricultural Labourers worked for 0 - 3 moths during last year - Males": 3332,
      "Households with electricity as main source of lighting  Houselisting and Housing Census Data Tables- District Level , Census of India__3": 373644,
      "Households with computer or laptop with internet connection in percentage": 1.26,
      "PHCs functioning on a 24x7hours basis in percentage DLHS-4": "Not available",
      "Non Workers - Males": 546147,
      "Total Households in District Houselisting and Housing Census Data Tables- District Level , Census of India": 493597,
      "Upper Primary Schools with girls toilet in percentage DISE": 100,
      "Households with mobile phone in percentage": 61.1,
      "Households receiving untreated tap water within premises in percentage Houselisting and Housing Census Data Tables- District Level , Census of India__2": 2.868939641,
      "Marginal Workers Cultivators worked for 3 - 6 moths during last year - Males": 23222,
      "Prevalence of Anaemia  in percentage DLHS-4": "Not available",
      "Prevalence of Chronic illness in percentage DLHS-4": "Not available",
      "Households with solar energy as main source of lighting in percentage Houselisting and Housing Census Data Tables- District Level , Census of India__1": 0.0928,
      "Marginal Workers Agricultural Labourers worked for 0 - 3 moths during last year - Females": 7971,
      "Main Workers - Males": 581039,
      "Female": 47.21,
      "Sno": 1460,
      "Marginal Workers Other worked for 3 - 6 moths during last year - Females": 31654,
      "Marginal Workers Cultivators worked for 0 - 3 moths during last year - Females": 9281,
      "Scheduled Tribe Males": 117026,
      "Male Illiterates": 443154,
      "Prevalence of Severe Anaemia in pregnant women aged 15-49years in percentage DLHS-4": "Not available",
      "0-6 Age Group Persons": 361683,
      "Upper Primary Student-Classroom Ratio in percentage DISE": 21,
      "Currently married men married below 21years of age in percentage DLHS-4": 49.9,
      "Male Literates": 777582,
      "Households with no lighting in percentage Houselisting and Housing Census Data Tables- District Level , Census of India__2": 0.543155651,
      "Primary Drop Out Rate in percentage DISE": 8.8,
      "Marginal Workers Household Industry - Males": 3463,
      "Female Illiterates": 709243,
      "Main Workers Other - Females": 54634,
      "Marginal Workers Cultivators - Persons": 93346,
      "Upper Primary Gross Enrolment Ratio in percentage DISE": 74.8,
      "Scheduled Caste Persons": 407947,
      "Marginal Workers Cultivators worked for 3 - 6 moths during last year - Persons": 78910,
      "Households with landline phone in percentage": 2.37,
      "Total Households in District  Houselisting and Housing Census Data Tables- District Level , Census of India": 493597,
      "Upper Primary Pupil-Teacher Ratio in percentage DISE": 17,
      "Primary Student-Classroom Ratio in percentage DISE": 17,
      "Primary Schools with boys toilet in percentage DISE": 100.2,
      "Mean number of children ever born to women aged 40-49years  DLHS-4": "Not available",
      "Households receiving untreated tap water within premises  Houselisting and Housing Census Data Tables- District Level , Census of India__5": 14161,
      "Marginal Workers Household Industry worked for 0 - 3 moths during last year - Persons": 1965,
      "Total Male Population": 1220736,
      "Non Workers - Females": 714211,
      "Current use of family planning methods in percentage DLHS-4": 64.9,
      "Households with main source of drinking water within premises  Houselisting and Housing Census Data Tables- District Level , Census of India__3": 134845,
      "Main Workers Agricultural Labourers - Males": 36559,
      "Marginal Workers Other worked for 0 - 3 moths during last year - Persons": 13139,
      "Currently married women married below 18years of age in percentage DLHS-4": 37,
      "Person Illiterates": 1152397,
      "Main Workers Household Industry - Females": 5776,
      "Female Literates": 478544,
      "Marginal Workers Cultivators worked for 0 - 3 moths during last year - Males": 5155,
      "Male": 75.27,
      "Households with improved source of drinking water in percentage DLHS-4": "Not available",
      "Upper Primary Schools with electricity in percentage DISE": 100,
      "Households with electricity in percentage DLHS-4": "Not available",
      "Villages with Primary Health Centre within 10km in percentage DLHS-4": "Not available",
      "Births to women aged 15-19years out of Total births in percentage DLHS-4": "Not available",
      "Prevalence of Anaemia in women aged 15-49years in percentage DLHS-4": "Not available",
      "Marginal Workers Agricultural Labourers worked for 3 - 6 moths during last year - Persons": 74250,
      "Main Workers Household Industry - Males": 15486,
      "Scheduled Tribe Females": 112247,
      "Marginal Workers worked for 0 - 3 moths during last year - Males": 13807,
      "Marginal Workers Other worked for 3 - 6 moths during last year - Males": 32257,
      "Primary Net Enrolment Ratio in percentage DISE": 83.9,
      "Total": 61.37,
      "Mean age at marriage for boys DLHS-4": 19.2,
      "Number of District Hospitals  DLHS-4": "Not available",
      "0-6 Age Group Females": 174066,
      "Marginal Workers Agricultural Labourers worked for 0 - 3 moths during last year - Persons": 11303,
      "Marginal Workers Household Industry worked for 0 - 3 moths during last year - Males": 663,
      "Total Workers  Females": 473576,
      "Marginal Workers worked for 3 - 6 moths during last year - Females": 144250,
      "Institutional Deliveries in percentage DLHS-4": 71.6,
      "Marginal Workers Other - Males": 36914,
      "Total Workers  Males": 674589,
      "Main Workers - Females": 302290,
      "Primary Gross Enrolment Ratio in percentage DISE": 102.1,
      "Main Workers Cultivators - Persons": 461822,
      "Marginal Workers Household Industry worked for 0 - 3 moths during last year - Females": 1302,
      "Upper Primary Net Enrolment Ratio in percentage DISE": 56.4,
      "Primary New Government Schools since 2003 in percentage DISE": 20.2,
      "Tier": "Total",
      "Marginal Workers Household Industry - Females": 5424,
      "Primary Schools with electricity in percentage DISE": 23.8,
      "Main Workers Other - Persons": 322746,
      "Marginal Workers Household Industry worked for 3 - 6 moths during last year - Females": 4122,
      "Main Workers Cultivators - Males": 260882,
      "Main Workers Household Industry - Persons": 21262,
      "Marginal Workers Cultivators worked for 0 - 3 moths during last year - Persons": 14436,
      "Scheduled Caste Males": 206332,
      "Marginal Workers - Persons": 264836,
      "Deliveries at home conducted by skilled health personnel in percentage DLHS-4": 34.5,
      "Villages with Sub-Health Centres within 3km in percentage DLHS-4": "Not available",
      "Upper Primary New Government Schools since 2003 in percentage DISE": 100,
      "0-6 Age Group Males": 187617,
      "Primary Schools with drinking water facility in percentage DISE": 97,
      "Non Workers - Persons": 1260358,
      "Person Literates": 1256126,
      "State": "RAJASTHAN",
      "Total Female Population": 1187787,
      "Marginal Workers worked for 0 - 3 moths during last year - Persons": 40843,
      "Marginal Workers Cultivators - Females": 64969,
      "Marginal Workers Other - Persons": 77050,
      "Sex Ratio": 973,
      "Scheduled Tribe Persons": 229273,
      "Marginal Workers Household Industry worked for 3 - 6 moths during last year - Males": 2800,
      "Marginal Workers Agricultural Labourers - Females": 60757,
      "Mean age at marriage for girls DLHS-4": 17.4,
      "Households with solar energy as main source of lighting  Houselisting and Housing Census Data Tables- District Level , Census of India__4": 458,
      "District": "BHILWARA",
      "Households receiving treated tap water within premises in percentage Houselisting and Housing Census Data Tables- District Level , Census of India__1": 22.45090631,
      "Total Workers  Persons": 1148165,
      "Households receiving treated tap water within premises  Houselisting and Housing Census Data Tables- District Level , Census of India__4": 110817,
      "Primary Female Teachers in percentage DISE": 38.2,
      "Number of Households": 498125,
      "Main Workers Agricultural Labourers - Persons": 77499
    }
  ],
  "Rural": [
    {
      "Marginal Workers Agricultural Labourers - Persons": 82752,
      "Marginal Workers Other - Females": 34416,
      "Marginal Workers Other worked for 0 - 3 moths during last year - Females": 7717,
      "Upper Primary Schools with boys toilet in percentage DISE": "NA",
      "Total Population": 1895869,
      "Households with electricity as main source of lighting in percentage Houselisting and Housing Census Data Tables- District Level , Census of India": 71.10302231,
      "Primary Girl's Enrolment in percentage DISE": "NA",
      "Marginal Workers worked for 3 - 6 moths during last year - Males": 69678,
      "Prevalence of Acute illness in percentage DLHS-4": "Not available",
      "Main Workers - Persons": 722541,
      "Main Workers Cultivators - Females": 197677,
      "Marginal Workers Agricultural Labourers worked for 3 - 6 moths during last year - Females": 51168,
      "Marginal Workers Other worked for 0 - 3 moths during last year - Males": 3912,
      "Upper Primary Schools with drinking water facility in percentage DISE": "NA",
      "Primary Schools with girls toilet in percentage DISE": "NA",
      "Marginal Workers worked for 3 - 6 moths during last year - Persons": 205643,
      "Upper Primary Drop Out Rate in percentage DISE": "NA",
      "Prevalence of Anaemia in pregnant women aged 15-49years in percentage DLHS-4": "Not available",
      "Current use of any modern method of family planning in percentage DLHS-4": 57.3,
      "Marginal Workers Agricultural Labourers - Males": 24007,
      "Upper Primary Female Teachers in percentage DISE": "NA",
      "Marginal Workers - Females": 161422,
      "Marginal Workers Other worked for 3 - 6 moths during last year - Persons": 50800,
      "Main Workers Agricultural Labourers - Females": 39526,
      "Marginal Workers Cultivators worked for 3 - 6 moths during last year - Females": 54722,
      "Households with no lighting  Houselisting and Housing Census Data Tables- District Level , Census of India__5": 2328,
      "Prevalence of Severe Anaemia  in percentage DLHS-4": "Not available",
      "Total unmet need for family planning in percentage DLHS-4": 13.3,
      "Main Workers Other - Males": 148715,
      "Children who received full vaccination in percentage DLHS-4": "Not available",
      "Marginal Workers Household Industry - Persons": 7279,
      "Primary Pupil-Teacher Ratio in percentage DISE": "NA",
      "Marginal Workers Agricultural Labourers worked for 3 - 6 moths during last year - Males": 20771,
      "Scheduled Caste Females": 164498,
      "Marginal Workers Cultivators - Males": 27667,
      "Marginal Workers - Males": 82503,
      "Marginal Workers worked for 0 - 3 moths during last year - Females": 25457,
      "Households with main source of drinking water within premises in percentage Houselisting and Housing Census Data Tables- District Level , Census of India": 17.49489518,
      "Marginal Workers Household Industry worked for 3 - 6 moths during last year - Persons": 5596,
      "Upper Primary Girl's Enrolment in percentage DISE": "NA",
      "Prevalence of Severe Anaemia in women aged 15-49years in percentage DLHS-4": "Not available",
      "Marginal Workers Agricultural Labourers worked for 0 - 3 moths during last year - Males": 3236,
      "Households with electricity as main source of lighting  Houselisting and Housing Census Data Tables- District Level , Census of India__3": 280313,
      "Households with computer or laptop with internet connection in percentage": 0.32,
      "PHCs functioning on a 24x7hours basis in percentage DLHS-4": "Not applicable",
      "Non Workers - Males": 424071,
      "Total Households in District Houselisting and Housing Census Data Tables- District Level , Census of India": 394235,
      "Upper Primary Schools with girls toilet in percentage DISE": "NA",
      "Households with mobile phone in percentage": 59.23,
      "Households receiving untreated tap water within premises in percentage Houselisting and Housing Census Data Tables- District Level , Census of India__2": 2.994914201,
      "Marginal Workers Cultivators worked for 3 - 6 moths during last year - Males": 22586,
      "Prevalence of Anaemia  in percentage DLHS-4": "Not available",
      "Prevalence of Chronic illness in percentage DLHS-4": "Not available",
      "Households with solar energy as main source of lighting in percentage Houselisting and Housing Census Data Tables- District Level , Census of India__1": 0.0977,
      "Marginal Workers Agricultural Labourers worked for 0 - 3 moths during last year - Females": 7577,
      "Main Workers - Males": 448804,
      "Female": "NA",
      "Sno": 1459,
      "Marginal Workers Other worked for 3 - 6 moths during last year - Females": 26699,
      "Marginal Workers Cultivators worked for 0 - 3 moths during last year - Females": 9076,
      "Scheduled Tribe Males": 109340,
      "Male Illiterates": 382483,
      "Prevalence of Severe Anaemia in pregnant women aged 15-49years in percentage DLHS-4": "Not available",
      "0-6 Age Group Persons": 294132,
      "Upper Primary Student-Classroom Ratio in percentage DISE": "NA",
      "Currently married men married below 21years of age in percentage DLHS-4": 57.2,
      "Male Literates": 572895,
      "Households with no lighting in percentage Houselisting and Housing Census Data Tables- District Level , Census of India__2": 0.590510736,
      "Primary Drop Out Rate in percentage DISE": "NA",
      "Marginal Workers Household Industry - Males": 2816,
      "Female Illiterates": 616449,
      "Main Workers Other - Females": 32299,
      "Marginal Workers Cultivators - Persons": 91465,
      "Upper Primary Gross Enrolment Ratio in percentage DISE": "NA",
      "Scheduled Caste Persons": 331943,
      "Marginal Workers Cultivators worked for 3 - 6 moths during last year - Persons": 77308,
      "Households with landline phone in percentage": 2.03,
      "Total Households in District  Houselisting and Housing Census Data Tables- District Level , Census of India": 394235,
      "Upper Primary Pupil-Teacher Ratio in percentage DISE": "NA",
      "Primary Student-Classroom Ratio in percentage DISE": "NA",
      "Primary Schools with boys toilet in percentage DISE": "NA",
      "Mean number of children ever born to women aged 40-49years  DLHS-4": "Not available",
      "Households receiving untreated tap water within premises  Houselisting and Housing Census Data Tables- District Level , Census of India__5": 11807,
      "Marginal Workers Household Industry worked for 0 - 3 moths during last year - Persons": 1683,
      "Total Male Population": 955378,
      "Non Workers - Females": 505332,
      "Current use of family planning methods in percentage DLHS-4": 63.3,
      "Households with main source of drinking water within premises  Houselisting and Housing Census Data Tables- District Level , Census of India__3": 68971,
      "Main Workers Agricultural Labourers - Males": 34321,
      "Marginal Workers Other worked for 0 - 3 moths during last year - Persons": 11629,
      "Currently married women married below 18years of age in percentage DLHS-4": 42.1,
      "Person Illiterates": 998932,
      "Main Workers Household Industry - Females": 4235,
      "Female Literates": 324042,
      "Marginal Workers Cultivators worked for 0 - 3 moths during last year - Males": 5081,
      "Male": "NA",
      "Households with improved source of drinking water in percentage DLHS-4": "Not available",
      "Upper Primary Schools with electricity in percentage DISE": "NA",
      "Households with electricity in percentage DLHS-4": "Not available",
      "Villages with Primary Health Centre within 10km in percentage DLHS-4": "Not applicable",
      "Births to women aged 15-19years out of Total births in percentage DLHS-4": "Not available",
      "Prevalence of Anaemia in women aged 15-49years in percentage DLHS-4": "Not available",
      "Marginal Workers Agricultural Labourers worked for 3 - 6 moths during last year - Persons": 71939,
      "Main Workers Household Industry - Males": 10133,
      "Scheduled Tribe Females": 105244,
      "Marginal Workers worked for 0 - 3 moths during last year - Males": 12825,
      "Marginal Workers Other worked for 3 - 6 moths during last year - Males": 24101,
      "Primary Net Enrolment Ratio in percentage DISE": "NA",
      "Total": "NA",
      "Mean age at marriage for boys DLHS-4": 18.5,
      "Number of District Hospitals  DLHS-4": "Not applicable",
      "0-6 Age Group Females": 141992,
      "Marginal Workers Agricultural Labourers worked for 0 - 3 moths during last year - Persons": 10813,
      "Marginal Workers Household Industry worked for 0 - 3 moths during last year - Males": 596,
      "Total Workers  Females": 435159,
      "Marginal Workers worked for 3 - 6 moths during last year - Females": 135965,
      "Institutional Deliveries in percentage DLHS-4": 68.1,
      "Marginal Workers Other - Males": 28013,
      "Total Workers  Males": 531307,
      "Main Workers - Females": 273737,
      "Primary Gross Enrolment Ratio in percentage DISE": "NA",
      "Main Workers Cultivators - Persons": 453312,
      "Marginal Workers Household Industry worked for 0 - 3 moths during last year - Females": 1087,
      "Upper Primary Net Enrolment Ratio in percentage DISE": "NA",
      "Primary New Government Schools since 2003 in percentage DISE": "NA",
      "Tier": "Rural",
      "Marginal Workers Household Industry - Females": 4463,
      "Primary Schools with electricity in percentage DISE": "NA",
      "Main Workers Other - Persons": 181014,
      "Marginal Workers Household Industry worked for 3 - 6 moths during last year - Females": 3376,
      "Main Workers Cultivators - Males": 255635,
      "Main Workers Household Industry - Persons": 14368,
      "Marginal Workers Cultivators worked for 0 - 3 moths during last year - Persons": 14157,
      "Scheduled Caste Males": 167445,
      "Marginal Workers - Persons": 243925,
      "Deliveries at home conducted by skilled health personnel in percentage DLHS-4": 32.8,
      "Villages with Sub-Health Centres within 3km in percentage DLHS-4": "Not applicable",
      "Upper Primary New Government Schools since 2003 in percentage DISE": "NA",
      "0-6 Age Group Males": 152140,
      "Primary Schools with drinking water facility in percentage DISE": "NA",
      "Non Workers - Persons": 929403,
      "Person Literates": 896937,
      "State": "RAJASTHAN",
      "Total Female Population": 940491,
      "Marginal Workers worked for 0 - 3 moths during last year - Persons": 38282,
      "Marginal Workers Cultivators - Females": 63798,
      "Marginal Workers Other - Persons": 62429,
      "Sex Ratio": 984,
      "Scheduled Tribe Persons": 214584,
      "Marginal Workers Household Industry worked for 3 - 6 moths during last year - Males": 2220,
      "Marginal Workers Agricultural Labourers - Females": 58745,
      "Mean age at marriage for girls DLHS-4": 16.7,
      "Households with solar energy as main source of lighting  Houselisting and Housing Census Data Tables- District Level , Census of India__4": 385,
      "District": "BHILWARA",
      "Households receiving treated tap water within premises in percentage Houselisting and Housing Census Data Tables- District Level , Census of India__1": 12.6904004,
      "Total Workers  Persons": 966466,
      "Households receiving treated tap water within premises  Houselisting and Housing Census Data Tables- District Level , Census of India__4": 50030,
      "Primary Female Teachers in percentage DISE": "NA",
      "Number of Households": 394065,
      "Main Workers Agricultural Labourers - Persons": 73847
    }
  ],
  "Urban": [
    {
      "Marginal Workers Agricultural Labourers - Persons": 2801,
      "Marginal Workers Other - Females": 5720,
      "Marginal Workers Other worked for 0 - 3 moths during last year - Females": 765,
      "Upper Primary Schools with boys toilet in percentage DISE": "NA",
      "Total Population": 512654,
      "Households with electricity as main source of lighting in percentage Houselisting and Housing Census Data Tables- District Level , Census of India": 93.93027516,
      "Primary Girl's Enrolment in percentage DISE": "NA",
      "Marginal Workers worked for 3 - 6 moths during last year - Males": 10065,
      "Prevalence of Acute illness in percentage DLHS-4": "Not available",
      "Main Workers - Persons": 160788,
      "Main Workers Cultivators - Females": 3263,
      "Marginal Workers Agricultural Labourers worked for 3 - 6 moths during last year - Females": 1618,
      "Marginal Workers Other worked for 0 - 3 moths during last year - Males": 745,
      "Upper Primary Schools with drinking water facility in percentage DISE": "NA",
      "Primary Schools with girls toilet in percentage DISE": "NA",
      "Marginal Workers worked for 3 - 6 moths during last year - Persons": 18350,
      "Upper Primary Drop Out Rate in percentage DISE": "NA",
      "Prevalence of Anaemia in pregnant women aged 15-49years in percentage DLHS-4": "Not available",
      "Current use of any modern method of family planning in percentage DLHS-4": 63.6,
      "Marginal Workers Agricultural Labourers - Males": 789,
      "Upper Primary Female Teachers in percentage DISE": "NA",
      "Marginal Workers - Females": 9864,
      "Marginal Workers Other worked for 3 - 6 moths during last year - Persons": 13111,
      "Main Workers Agricultural Labourers - Females": 1414,
      "Marginal Workers Cultivators worked for 3 - 6 moths during last year - Females": 966,
      "Households with no lighting  Houselisting and Housing Census Data Tables- District Level , Census of India__5": 353,
      "Prevalence of Severe Anaemia  in percentage DLHS-4": "Not available",
      "Total unmet need for family planning in percentage DLHS-4": 11.2,
      "Main Workers Other - Males": 119397,
      "Children who received full vaccination in percentage DLHS-4": "Not available",
      "Marginal Workers Household Industry - Persons": 1608,
      "Primary Pupil-Teacher Ratio in percentage DISE": "NA",
      "Marginal Workers Agricultural Labourers worked for 3 - 6 moths during last year - Males": 693,
      "Scheduled Caste Females": 37117,
      "Marginal Workers Cultivators - Males": 710,
      "Marginal Workers - Males": 11047,
      "Marginal Workers worked for 0 - 3 moths during last year - Females": 1579,
      "Households with main source of drinking water within premises in percentage Houselisting and Housing Census Data Tables- District Level , Census of India": 66.2969747,
      "Marginal Workers Household Industry worked for 3 - 6 moths during last year - Persons": 1326,
      "Upper Primary Girl's Enrolment in percentage DISE": "NA",
      "Prevalence of Severe Anaemia in women aged 15-49years in percentage DLHS-4": "Not available",
      "Marginal Workers Agricultural Labourers worked for 0 - 3 moths during last year - Males": 96,
      "Households with electricity as main source of lighting  Houselisting and Housing Census Data Tables- District Level , Census of India__3": 93331,
      "Households with computer or laptop with internet connection in percentage": 4.97,
      "PHCs functioning on a 24x7hours basis in percentage DLHS-4": 0,
      "Non Workers - Males": 122076,
      "Total Households in District Houselisting and Housing Census Data Tables- District Level , Census of India": 99362,
      "Upper Primary Schools with girls toilet in percentage DISE": "NA",
      "Households with mobile phone in percentage": 68.53,
      "Households receiving untreated tap water within premises in percentage Houselisting and Housing Census Data Tables- District Level , Census of India__2": 2.369114953,
      "Marginal Workers Cultivators worked for 3 - 6 moths during last year - Males": 636,
      "Prevalence of Anaemia  in percentage DLHS-4": "Not available",
      "Prevalence of Chronic illness in percentage DLHS-4": "Not available",
      "Households with solar energy as main source of lighting in percentage Houselisting and Housing Census Data Tables- District Level , Census of India__1": 0.0735,
      "Marginal Workers Agricultural Labourers worked for 0 - 3 moths during last year - Females": 394,
      "Main Workers - Males": 132235,
      "Female": "NA",
      "Sno": 1461,
      "Marginal Workers Other worked for 3 - 6 moths during last year - Females": 4955,
      "Marginal Workers Cultivators worked for 0 - 3 moths during last year - Females": 205,
      "Scheduled Tribe Males": 7686,
      "Male Illiterates": 60671,
      "Prevalence of Severe Anaemia in pregnant women aged 15-49years in percentage DLHS-4": "Not available",
      "0-6 Age Group Persons": 67551,
      "Upper Primary Student-Classroom Ratio in percentage DISE": "NA",
      "Currently married men married below 21years of age in percentage DLHS-4": 24.7,
      "Male Literates": 204687,
      "Households with no lighting in percentage Houselisting and Housing Census Data Tables- District Level , Census of India__2": 0.355266601,
      "Primary Drop Out Rate in percentage DISE": "NA",
      "Marginal Workers Household Industry - Males": 647,
      "Female Illiterates": 92794,
      "Main Workers Other - Females": 22335,
      "Marginal Workers Cultivators - Persons": 1881,
      "Upper Primary Gross Enrolment Ratio in percentage DISE": "NA",
      "Scheduled Caste Persons": 76004,
      "Marginal Workers Cultivators worked for 3 - 6 moths during last year - Persons": 1602,
      "Households with landline phone in percentage": 3.71,
      "Total Households in District  Houselisting and Housing Census Data Tables- District Level , Census of India": 99362,
      "Upper Primary Pupil-Teacher Ratio in percentage DISE": "NA",
      "Primary Student-Classroom Ratio in percentage DISE": "NA",
      "Primary Schools with boys toilet in percentage DISE": "NA",
      "Mean number of children ever born to women aged 40-49years  DLHS-4": "Not available",
      "Households receiving untreated tap water within premises  Houselisting and Housing Census Data Tables- District Level , Census of India__5": 2354,
      "Marginal Workers Household Industry worked for 0 - 3 moths during last year - Persons": 282,
      "Total Male Population": 265358,
      "Non Workers - Females": 208879,
      "Current use of family planning methods in percentage DLHS-4": 71.2,
      "Households with main source of drinking water within premises  Houselisting and Housing Census Data Tables- District Level , Census of India__3": 65874,
      "Main Workers Agricultural Labourers - Males": 2238,
      "Marginal Workers Other worked for 0 - 3 moths during last year - Persons": 1510,
      "Currently married women married below 18years of age in percentage DLHS-4": 18.6,
      "Person Illiterates": 153465,
      "Main Workers Household Industry - Females": 1541,
      "Female Literates": 154502,
      "Marginal Workers Cultivators worked for 0 - 3 moths during last year - Males": 74,
      "Male": "NA",
      "Households with improved source of drinking water in percentage DLHS-4": "Not available",
      "Upper Primary Schools with electricity in percentage DISE": "NA",
      "Households with electricity in percentage DLHS-4": "Not available",
      "Villages with Primary Health Centre within 10km in percentage DLHS-4": 0,
      "Births to women aged 15-19years out of Total births in percentage DLHS-4": "Not available",
      "Prevalence of Anaemia in women aged 15-49years in percentage DLHS-4": "Not available",
      "Marginal Workers Agricultural Labourers worked for 3 - 6 moths during last year - Persons": 2311,
      "Main Workers Household Industry - Males": 5353,
      "Scheduled Tribe Females": 7003,
      "Marginal Workers worked for 0 - 3 moths during last year - Males": 982,
      "Marginal Workers Other worked for 3 - 6 moths during last year - Males": 8156,
      "Primary Net Enrolment Ratio in percentage DISE": "NA",
      "Total": "NA",
      "Mean age at marriage for boys DLHS-4": 22.1,
      "Number of District Hospitals  DLHS-4": 0,
      "0-6 Age Group Females": 32074,
      "Marginal Workers Agricultural Labourers worked for 0 - 3 moths during last year - Persons": 490,
      "Marginal Workers Household Industry worked for 0 - 3 moths during last year - Males": 67,
      "Total Workers  Females": 38417,
      "Marginal Workers worked for 3 - 6 moths during last year - Females": 8285,
      "Institutional Deliveries in percentage DLHS-4": 88.4,
      "Marginal Workers Other - Males": 8901,
      "Total Workers  Males": 143282,
      "Main Workers - Females": 28553,
      "Primary Gross Enrolment Ratio in percentage DISE": "NA",
      "Main Workers Cultivators - Persons": 8510,
      "Marginal Workers Household Industry worked for 0 - 3 moths during last year - Females": 215,
      "Upper Primary Net Enrolment Ratio in percentage DISE": "NA",
      "Primary New Government Schools since 2003 in percentage DISE": "NA",
      "Tier": "Urban",
      "Marginal Workers Household Industry - Females": 961,
      "Primary Schools with electricity in percentage DISE": "NA",
      "Main Workers Other - Persons": 141732,
      "Marginal Workers Household Industry worked for 3 - 6 moths during last year - Females": 746,
      "Main Workers Cultivators - Males": 5247,
      "Main Workers Household Industry - Persons": 6894,
      "Marginal Workers Cultivators worked for 0 - 3 moths during last year - Persons": 279,
      "Scheduled Caste Males": 38887,
      "Marginal Workers - Persons": 20911,
      "Deliveries at home conducted by skilled health personnel in percentage DLHS-4": 56,
      "Villages with Sub-Health Centres within 3km in percentage DLHS-4": 0,
      "Upper Primary New Government Schools since 2003 in percentage DISE": "NA",
      "0-6 Age Group Males": 35477,
      "Primary Schools with drinking water facility in percentage DISE": "NA",
      "Non Workers - Persons": 330955,
      "Person Literates": 359189,
      "State": "RAJASTHAN",
      "Total Female Population": 247296,
      "Marginal Workers worked for 0 - 3 moths during last year - Persons": 2561,
      "Marginal Workers Cultivators - Females": 1171,
      "Marginal Workers Other - Persons": 14621,
      "Sex Ratio": 932,
      "Scheduled Tribe Persons": 14689,
      "Marginal Workers Household Industry worked for 3 - 6 moths during last year - Males": 580,
      "Marginal Workers Agricultural Labourers - Females": 2012,
      "Mean age at marriage for girls DLHS-4": 20.1,
      "Households with solar energy as main source of lighting  Houselisting and Housing Census Data Tables- District Level , Census of India__4": 73,
      "District": "BHILWARA",
      "Households receiving treated tap water within premises in percentage Houselisting and Housing Census Data Tables- District Level , Census of India__1": 61.17731125,
      "Total Workers  Persons": 181699,
      "Households receiving treated tap water within premises  Houselisting and Housing Census Data Tables- District Level , Census of India__4": 60787,
      "Primary Female Teachers in percentage DISE": "NA",
      "Number of Households": 104060,
      "Main Workers Agricultural Labourers - Persons": 3652
    }
  ]
}