{
  "Total": [
    {
      "Marginal Workers Agricultural Labourers - Persons": 29141,
      "Marginal Workers Other - Females": 15666,
      "Marginal Workers Other worked for 0 - 3 moths during last year - Females": 4017,
      "Upper Primary Schools with boys toilet in percentage DISE": 100,
      "Total Population": 669919,
      "Households with electricity as main source of lighting in percentage Houselisting and Housing Census Data Tables- District Level , Census of India": 38.04354536,
      "Primary Girl's Enrolment in percentage DISE": 45,
      "Marginal Workers worked for 3 - 6 moths during last year - Males": 38249,
      "Prevalence of Acute illness in percentage DLHS-4": "Not available",
      "Main Workers - Persons": 175383,
      "Main Workers Cultivators - Females": 22681,
      "Marginal Workers Agricultural Labourers worked for 3 - 6 moths during last year - Females": 14749,
      "Marginal Workers Other worked for 0 - 3 moths during last year - Males": 1687,
      "Upper Primary Schools with drinking water facility in percentage DISE": 100,
      "Primary Schools with girls toilet in percentage DISE": 99.2,
      "Marginal Workers worked for 3 - 6 moths during last year - Persons": 93851,
      "Upper Primary Drop Out Rate in percentage DISE": 12.21,
      "Prevalence of Anaemia in pregnant women aged 15-49years in percentage DLHS-4": "Not available",
      "Current use of any modern method of family planning in percentage DLHS-4": 58.2,
      "Marginal Workers Agricultural Labourers - Males": 11122,
      "Upper Primary Female Teachers in percentage DISE": 46.2,
      "Marginal Workers - Females": 68712,
      "Marginal Workers Other worked for 3 - 6 moths during last year - Persons": 20675,
      "Main Workers Agricultural Labourers - Females": 4477,
      "Marginal Workers Cultivators worked for 3 - 6 moths during last year - Females": 27941,
      "Households with no lighting  Houselisting and Housing Census Data Tables- District Level , Census of India__5": 5148,
      "Prevalence of Severe Anaemia  in percentage DLHS-4": "Not available",
      "Total unmet need for family planning in percentage DLHS-4": 19.2,
      "Main Workers Other - Males": 70012,
      "Children who received full vaccination in percentage DLHS-4": "Not available",
      "Marginal Workers Household Industry - Persons": 2262,
      "Primary Pupil-Teacher Ratio in percentage DISE": 27,
      "Marginal Workers Agricultural Labourers worked for 3 - 6 moths during last year - Males": 9384,
      "Scheduled Caste Females": 46358,
      "Marginal Workers Cultivators - Males": 22265,
      "Marginal Workers - Males": 44808,
      "Marginal Workers worked for 0 - 3 moths during last year - Females": 13110,
      "Households with main source of drinking water within premises in percentage Houselisting and Housing Census Data Tables- District Level , Census of India": 13.80347269,
      "Marginal Workers Household Industry worked for 3 - 6 moths during last year - Persons": 1850,
      "Upper Primary Girl's Enrolment in percentage DISE": 78,
      "Prevalence of Severe Anaemia in women aged 15-49years in percentage DLHS-4": "Not available",
      "Marginal Workers Agricultural Labourers worked for 0 - 3 moths during last year - Males": 1738,
      "Households with electricity as main source of lighting  Houselisting and Housing Census Data Tables- District Level , Census of India__3": 43141,
      "Households with computer or laptop with internet connection in percentage": 0.66,
      "PHCs functioning on a 24x7hours basis in percentage DLHS-4": "Not available",
      "Non Workers - Males": 179143,
      "Total Households in District Houselisting and Housing Census Data Tables- District Level , Census of India": 113399,
      "Upper Primary Schools with girls toilet in percentage DISE": 100,
      "Households with mobile phone in percentage": 66.73,
      "Households receiving untreated tap water within premises in percentage Houselisting and Housing Census Data Tables- District Level , Census of India__2": 2.562632827,
      "Marginal Workers Cultivators worked for 3 - 6 moths during last year - Males": 19252,
      "Prevalence of Anaemia  in percentage DLHS-4": "Not available",
      "Prevalence of Chronic illness in percentage DLHS-4": "Not available",
      "Households with solar energy as main source of lighting in percentage Houselisting and Housing Census Data Tables- District Level , Census of India__1": 3.828957927,
      "Marginal Workers Agricultural Labourers worked for 0 - 3 moths during last year - Females": 3270,
      "Main Workers - Males": 137757,
      "Female": 39.71,
      "Sno": 1493,
      "Marginal Workers Other worked for 3 - 6 moths during last year - Females": 11649,
      "Marginal Workers Cultivators worked for 0 - 3 moths during last year - Females": 5532,
      "Scheduled Tribe Males": 22497,
      "Male Illiterates": 151293,
      "Prevalence of Severe Anaemia in pregnant women aged 15-49years in percentage DLHS-4": "Not available",
      "0-6 Age Group Persons": 130463,
      "Upper Primary Student-Classroom Ratio in percentage DISE": 30,
      "Currently married men married below 21years of age in percentage DLHS-4": 21.9,
      "Male Literates": 210415,
      "Households with no lighting in percentage Houselisting and Housing Census Data Tables- District Level , Census of India__2": 4.539722573,
      "Primary Drop Out Rate in percentage DISE": 8.8,
      "Marginal Workers Household Industry - Males": 708,
      "Female Illiterates": 209973,
      "Main Workers Other - Females": 9339,
      "Marginal Workers Cultivators - Persons": 55738,
      "Upper Primary Gross Enrolment Ratio in percentage DISE": 59.9,
      "Scheduled Caste Persons": 99134,
      "Marginal Workers Cultivators worked for 3 - 6 moths during last year - Persons": 47193,
      "Households with landline phone in percentage": 1.25,
      "Total Households in District  Houselisting and Housing Census Data Tables- District Level , Census of India": 113399,
      "Upper Primary Pupil-Teacher Ratio in percentage DISE": 30,
      "Primary Student-Classroom Ratio in percentage DISE": 15,
      "Primary Schools with boys toilet in percentage DISE": 99.2,
      "Mean number of children ever born to women aged 40-49years  DLHS-4": "Not available",
      "Households receiving untreated tap water within premises  Houselisting and Housing Census Data Tables- District Level , Census of India__5": 2906,
      "Marginal Workers Household Industry worked for 0 - 3 moths during last year - Persons": 412,
      "Total Male Population": 361708,
      "Non Workers - Females": 201873,
      "Current use of family planning methods in percentage DLHS-4": 63.9,
      "Households with main source of drinking water within premises  Houselisting and Housing Census Data Tables- District Level , Census of India__3": 15653,
      "Main Workers Agricultural Labourers - Males": 10254,
      "Marginal Workers Other worked for 0 - 3 moths during last year - Persons": 5704,
      "Currently married women married below 18years of age in percentage DLHS-4": 8.6,
      "Person Illiterates": 361266,
      "Main Workers Household Industry - Females": 1129,
      "Female Literates": 98238,
      "Marginal Workers Cultivators worked for 0 - 3 moths during last year - Males": 3013,
      "Male": 72.04,
      "Households with improved source of drinking water in percentage DLHS-4": "Not available",
      "Upper Primary Schools with electricity in percentage DISE": 60,
      "Households with electricity in percentage DLHS-4": "Not available",
      "Villages with Primary Health Centre within 10km in percentage DLHS-4": "Not available",
      "Births to women aged 15-19years out of Total births in percentage DLHS-4": "Not available",
      "Prevalence of Anaemia in women aged 15-49years in percentage DLHS-4": "Not available",
      "Marginal Workers Agricultural Labourers worked for 3 - 6 moths during last year - Persons": 24133,
      "Main Workers Household Industry - Males": 3444,
      "Scheduled Tribe Females": 19932,
      "Marginal Workers worked for 0 - 3 moths during last year - Males": 6559,
      "Marginal Workers Other worked for 3 - 6 moths during last year - Males": 9026,
      "Primary Net Enrolment Ratio in percentage DISE": 81.5,
      "Total": 57.22,
      "Mean age at marriage for boys DLHS-4": 23,
      "Number of District Hospitals  DLHS-4": "Not available",
      "0-6 Age Group Females": 60853,
      "Marginal Workers Agricultural Labourers worked for 0 - 3 moths during last year - Persons": 5008,
      "Marginal Workers Household Industry worked for 0 - 3 moths during last year - Males": 121,
      "Total Workers  Females": 106338,
      "Marginal Workers worked for 3 - 6 moths during last year - Females": 55602,
      "Institutional Deliveries in percentage DLHS-4": 44.2,
      "Marginal Workers Other - Males": 10713,
      "Total Workers  Males": 182565,
      "Main Workers - Females": 37626,
      "Primary Gross Enrolment Ratio in percentage DISE": 106.9,
      "Main Workers Cultivators - Persons": 76728,
      "Marginal Workers Household Industry worked for 0 - 3 moths during last year - Females": 291,
      "Upper Primary Net Enrolment Ratio in percentage DISE": 39.6,
      "Primary New Government Schools since 2003 in percentage DISE": 21.1,
      "Tier": "Total",
      "Marginal Workers Household Industry - Females": 1554,
      "Primary Schools with electricity in percentage DISE": 14.9,
      "Main Workers Other - Persons": 79351,
      "Marginal Workers Household Industry worked for 3 - 6 moths during last year - Females": 1263,
      "Main Workers Cultivators - Males": 54047,
      "Main Workers Household Industry - Persons": 4573,
      "Marginal Workers Cultivators worked for 0 - 3 moths during last year - Persons": 8545,
      "Scheduled Caste Males": 52776,
      "Marginal Workers - Persons": 113520,
      "Deliveries at home conducted by skilled health personnel in percentage DLHS-4": 57.6,
      "Villages with Sub-Health Centres within 3km in percentage DLHS-4": "Not available",
      "Upper Primary New Government Schools since 2003 in percentage DISE": 60,
      "0-6 Age Group Males": 69610,
      "Primary Schools with drinking water facility in percentage DISE": 95.4,
      "Non Workers - Persons": 381016,
      "Person Literates": 308653,
      "State": "RAJASTHAN",
      "Total Female Population": 308211,
      "Marginal Workers worked for 0 - 3 moths during last year - Persons": 19669,
      "Marginal Workers Cultivators - Females": 33473,
      "Marginal Workers Other - Persons": 26379,
      "Sex Ratio": 852,
      "Scheduled Tribe Persons": 42429,
      "Marginal Workers Household Industry worked for 3 - 6 moths during last year - Males": 587,
      "Marginal Workers Agricultural Labourers - Females": 18019,
      "Mean age at marriage for girls DLHS-4": 20.4,
      "Households with solar energy as main source of lighting  Houselisting and Housing Census Data Tables- District Level , Census of India__4": 4342,
      "District": "JAISALMER",
      "Households receiving treated tap water within premises in percentage Houselisting and Housing Census Data Tables- District Level , Census of India__1": 9.251404333,
      "Total Workers  Persons": 288903,
      "Households receiving treated tap water within premises  Houselisting and Housing Census Data Tables- District Level , Census of India__4": 10491,
      "Primary Female Teachers in percentage DISE": 18.4,
      "Number of Households": 117171,
      "Main Workers Agricultural Labourers - Persons": 14731
    }
  ],
  "Rural": [
    {
      "Marginal Workers Agricultural Labourers - Persons": 28580,
      "Marginal Workers Other - Females": 14899,
      "Marginal Workers Other worked for 0 - 3 moths during last year - Females": 3878,
      "Upper Primary Schools with boys toilet in percentage DISE": "NA",
      "Total Population": 580894,
      "Households with electricity as main source of lighting in percentage Houselisting and Housing Census Data Tables- District Level , Census of India": 32.04082048,
      "Primary Girl's Enrolment in percentage DISE": "NA",
      "Marginal Workers worked for 3 - 6 moths during last year - Males": 36348,
      "Prevalence of Acute illness in percentage DLHS-4": "Not available",
      "Main Workers - Persons": 148023,
      "Main Workers Cultivators - Females": 22596,
      "Marginal Workers Agricultural Labourers worked for 3 - 6 moths during last year - Females": 14435,
      "Marginal Workers Other worked for 0 - 3 moths during last year - Males": 1513,
      "Upper Primary Schools with drinking water facility in percentage DISE": "NA",
      "Primary Schools with girls toilet in percentage DISE": "NA",
      "Marginal Workers worked for 3 - 6 moths during last year - Persons": 90807,
      "Upper Primary Drop Out Rate in percentage DISE": "NA",
      "Prevalence of Anaemia in pregnant women aged 15-49years in percentage DLHS-4": "Not available",
      "Current use of any modern method of family planning in percentage DLHS-4": 56.3,
      "Marginal Workers Agricultural Labourers - Males": 10925,
      "Upper Primary Female Teachers in percentage DISE": "NA",
      "Marginal Workers - Females": 67335,
      "Marginal Workers Other worked for 3 - 6 moths during last year - Persons": 18493,
      "Main Workers Agricultural Labourers - Females": 4403,
      "Marginal Workers Cultivators worked for 3 - 6 moths during last year - Females": 27875,
      "Households with no lighting  Houselisting and Housing Census Data Tables- District Level , Census of India__5": 5027,
      "Prevalence of Severe Anaemia  in percentage DLHS-4": "Not available",
      "Total unmet need for family planning in percentage DLHS-4": 20.2,
      "Main Workers Other - Males": 47059,
      "Children who received full vaccination in percentage DLHS-4": "Not available",
      "Marginal Workers Household Industry - Persons": 1986,
      "Primary Pupil-Teacher Ratio in percentage DISE": "NA",
      "Marginal Workers Agricultural Labourers worked for 3 - 6 moths during last year - Males": 9214,
      "Scheduled Caste Females": 41833,
      "Marginal Workers Cultivators - Males": 22171,
      "Marginal Workers - Males": 42671,
      "Marginal Workers worked for 0 - 3 moths during last year - Females": 12876,
      "Households with main source of drinking water within premises in percentage Houselisting and Housing Census Data Tables- District Level , Census of India": 6.025395792,
      "Marginal Workers Household Industry worked for 3 - 6 moths during last year - Persons": 1621,
      "Upper Primary Girl's Enrolment in percentage DISE": "NA",
      "Prevalence of Severe Anaemia in women aged 15-49years in percentage DLHS-4": "Not available",
      "Marginal Workers Agricultural Labourers worked for 0 - 3 moths during last year - Males": 1711,
      "Households with electricity as main source of lighting  Houselisting and Housing Census Data Tables- District Level , Census of India__3": 31491,
      "Households with computer or laptop with internet connection in percentage": 0.21,
      "PHCs functioning on a 24x7hours basis in percentage DLHS-4": "Not applicable",
      "Non Workers - Males": 156928,
      "Total Households in District Houselisting and Housing Census Data Tables- District Level , Census of India": 98284,
      "Upper Primary Schools with girls toilet in percentage DISE": "NA",
      "Households with mobile phone in percentage": 67.3,
      "Households receiving untreated tap water within premises in percentage Houselisting and Housing Census Data Tables- District Level , Census of India__2": 1.445810101,
      "Marginal Workers Cultivators worked for 3 - 6 moths during last year - Males": 19169,
      "Prevalence of Anaemia  in percentage DLHS-4": "Not available",
      "Prevalence of Chronic illness in percentage DLHS-4": "Not available",
      "Households with solar energy as main source of lighting in percentage Houselisting and Housing Census Data Tables- District Level , Census of India__1": 4.388303284,
      "Marginal Workers Agricultural Labourers worked for 0 - 3 moths during last year - Females": 3220,
      "Main Workers - Males": 112848,
      "Female": "NA",
      "Sno": 1492,
      "Marginal Workers Other worked for 3 - 6 moths during last year - Females": 11021,
      "Marginal Workers Cultivators worked for 0 - 3 moths during last year - Females": 5510,
      "Scheduled Tribe Males": 19758,
      "Male Illiterates": 139094,
      "Prevalence of Severe Anaemia in pregnant women aged 15-49years in percentage DLHS-4": "Not available",
      "0-6 Age Group Persons": 117527,
      "Upper Primary Student-Classroom Ratio in percentage DISE": "NA",
      "Currently married men married below 21years of age in percentage DLHS-4": 24.3,
      "Male Literates": 173353,
      "Households with no lighting in percentage Houselisting and Housing Census Data Tables- District Level , Census of India__2": 5.114769444,
      "Primary Drop Out Rate in percentage DISE": "NA",
      "Marginal Workers Household Industry - Males": 590,
      "Female Illiterates": 192511,
      "Main Workers Other - Females": 7399,
      "Marginal Workers Cultivators - Persons": 55556,
      "Upper Primary Gross Enrolment Ratio in percentage DISE": "NA",
      "Scheduled Caste Persons": 89388,
      "Marginal Workers Cultivators worked for 3 - 6 moths during last year - Persons": 47044,
      "Households with landline phone in percentage": 0.8,
      "Total Households in District  Houselisting and Housing Census Data Tables- District Level , Census of India": 98284,
      "Upper Primary Pupil-Teacher Ratio in percentage DISE": "NA",
      "Primary Student-Classroom Ratio in percentage DISE": "NA",
      "Primary Schools with boys toilet in percentage DISE": "NA",
      "Mean number of children ever born to women aged 40-49years  DLHS-4": "Not available",
      "Households receiving untreated tap water within premises  Houselisting and Housing Census Data Tables- District Level , Census of India__5": 1421,
      "Marginal Workers Household Industry worked for 0 - 3 moths during last year - Persons": 365,
      "Total Male Population": 312447,
      "Non Workers - Females": 165937,
      "Current use of family planning methods in percentage DLHS-4": 62.2,
      "Households with main source of drinking water within premises  Houselisting and Housing Census Data Tables- District Level , Census of India__3": 5922,
      "Main Workers Agricultural Labourers - Males": 9618,
      "Marginal Workers Other worked for 0 - 3 moths during last year - Persons": 5391,
      "Currently married women married below 18years of age in percentage DLHS-4": 9.1,
      "Person Illiterates": 331605,
      "Main Workers Household Industry - Females": 777,
      "Female Literates": 75936,
      "Marginal Workers Cultivators worked for 0 - 3 moths during last year - Males": 3002,
      "Male": "NA",
      "Households with improved source of drinking water in percentage DLHS-4": "Not available",
      "Upper Primary Schools with electricity in percentage DISE": "NA",
      "Households with electricity in percentage DLHS-4": "Not available",
      "Villages with Primary Health Centre within 10km in percentage DLHS-4": "Not applicable",
      "Births to women aged 15-19years out of Total births in percentage DLHS-4": "Not available",
      "Prevalence of Anaemia in women aged 15-49years in percentage DLHS-4": "Not available",
      "Marginal Workers Agricultural Labourers worked for 3 - 6 moths during last year - Persons": 23649,
      "Main Workers Household Industry - Males": 2390,
      "Scheduled Tribe Females": 17515,
      "Marginal Workers worked for 0 - 3 moths during last year - Males": 6323,
      "Marginal Workers Other worked for 3 - 6 moths during last year - Males": 7472,
      "Primary Net Enrolment Ratio in percentage DISE": "NA",
      "Total": "NA",
      "Mean age at marriage for boys DLHS-4": 22.6,
      "Number of District Hospitals  DLHS-4": "Not applicable",
      "0-6 Age Group Females": 54793,
      "Marginal Workers Agricultural Labourers worked for 0 - 3 moths during last year - Persons": 4931,
      "Marginal Workers Household Industry worked for 0 - 3 moths during last year - Males": 97,
      "Total Workers  Females": 102510,
      "Marginal Workers worked for 3 - 6 moths during last year - Females": 54459,
      "Institutional Deliveries in percentage DLHS-4": 37.8,
      "Marginal Workers Other - Males": 8985,
      "Total Workers  Males": 155519,
      "Main Workers - Females": 35175,
      "Primary Gross Enrolment Ratio in percentage DISE": "NA",
      "Main Workers Cultivators - Persons": 76377,
      "Marginal Workers Household Industry worked for 0 - 3 moths during last year - Females": 268,
      "Upper Primary Net Enrolment Ratio in percentage DISE": "NA",
      "Primary New Government Schools since 2003 in percentage DISE": "NA",
      "Tier": "Rural",
      "Marginal Workers Household Industry - Females": 1396,
      "Primary Schools with electricity in percentage DISE": "NA",
      "Main Workers Other - Persons": 54458,
      "Marginal Workers Household Industry worked for 3 - 6 moths during last year - Females": 1128,
      "Main Workers Cultivators - Males": 53781,
      "Main Workers Household Industry - Persons": 3167,
      "Marginal Workers Cultivators worked for 0 - 3 moths during last year - Persons": 8512,
      "Scheduled Caste Males": 47555,
      "Marginal Workers - Persons": 110006,
      "Deliveries at home conducted by skilled health personnel in percentage DLHS-4": 57.7,
      "Villages with Sub-Health Centres within 3km in percentage DLHS-4": "Not applicable",
      "Upper Primary New Government Schools since 2003 in percentage DISE": "NA",
      "0-6 Age Group Males": 62734,
      "Primary Schools with drinking water facility in percentage DISE": "NA",
      "Non Workers - Persons": 322865,
      "Person Literates": 249289,
      "State": "RAJASTHAN",
      "Total Female Population": 268447,
      "Marginal Workers worked for 0 - 3 moths during last year - Persons": 19199,
      "Marginal Workers Cultivators - Females": 33385,
      "Marginal Workers Other - Persons": 23884,
      "Sex Ratio": 859,
      "Scheduled Tribe Persons": 37273,
      "Marginal Workers Household Industry worked for 3 - 6 moths during last year - Males": 493,
      "Marginal Workers Agricultural Labourers - Females": 17655,
      "Mean age at marriage for girls DLHS-4": 20.1,
      "Households with solar energy as main source of lighting  Houselisting and Housing Census Data Tables- District Level , Census of India__4": 4313,
      "District": "JAISALMER",
      "Households receiving treated tap water within premises in percentage Houselisting and Housing Census Data Tables- District Level , Census of India__1": 2.353384071,
      "Total Workers  Persons": 258029,
      "Households receiving treated tap water within premises  Houselisting and Housing Census Data Tables- District Level , Census of India__4": 2313,
      "Primary Female Teachers in percentage DISE": "NA",
      "Number of Households": 100427,
      "Main Workers Agricultural Labourers - Persons": 14021
    }
  ],
  "Urban": [
    {
      "Marginal Workers Agricultural Labourers - Persons": 561,
      "Marginal Workers Other - Females": 767,
      "Marginal Workers Other worked for 0 - 3 moths during last year - Females": 139,
      "Upper Primary Schools with boys toilet in percentage DISE": "NA",
      "Total Population": 89025,
      "Households with electricity as main source of lighting in percentage Houselisting and Housing Census Data Tables- District Level , Census of India": 77.07575256,
      "Primary Girl's Enrolment in percentage DISE": "NA",
      "Marginal Workers worked for 3 - 6 moths during last year - Males": 1901,
      "Prevalence of Acute illness in percentage DLHS-4": "Not available",
      "Main Workers - Persons": 27360,
      "Main Workers Cultivators - Females": 85,
      "Marginal Workers Agricultural Labourers worked for 3 - 6 moths during last year - Females": 314,
      "Marginal Workers Other worked for 0 - 3 moths during last year - Males": 174,
      "Upper Primary Schools with drinking water facility in percentage DISE": "NA",
      "Primary Schools with girls toilet in percentage DISE": "NA",
      "Marginal Workers worked for 3 - 6 moths during last year - Persons": 3044,
      "Upper Primary Drop Out Rate in percentage DISE": "NA",
      "Prevalence of Anaemia in pregnant women aged 15-49years in percentage DLHS-4": "Not available",
      "Current use of any modern method of family planning in percentage DLHS-4": 66.3,
      "Marginal Workers Agricultural Labourers - Males": 197,
      "Upper Primary Female Teachers in percentage DISE": "NA",
      "Marginal Workers - Females": 1377,
      "Marginal Workers Other worked for 3 - 6 moths during last year - Persons": 2182,
      "Main Workers Agricultural Labourers - Females": 74,
      "Marginal Workers Cultivators worked for 3 - 6 moths during last year - Females": 66,
      "Households with no lighting  Houselisting and Housing Census Data Tables- District Level , Census of India__5": 121,
      "Prevalence of Severe Anaemia  in percentage DLHS-4": "Not available",
      "Total unmet need for family planning in percentage DLHS-4": 14.8,
      "Main Workers Other - Males": 22953,
      "Children who received full vaccination in percentage DLHS-4": "Not available",
      "Marginal Workers Household Industry - Persons": 276,
      "Primary Pupil-Teacher Ratio in percentage DISE": "NA",
      "Marginal Workers Agricultural Labourers worked for 3 - 6 moths during last year - Males": 170,
      "Scheduled Caste Females": 4525,
      "Marginal Workers Cultivators - Males": 94,
      "Marginal Workers - Males": 2137,
      "Marginal Workers worked for 0 - 3 moths during last year - Females": 234,
      "Households with main source of drinking water within premises in percentage Houselisting and Housing Census Data Tables- District Level , Census of India": 64.37975521,
      "Marginal Workers Household Industry worked for 3 - 6 moths during last year - Persons": 229,
      "Upper Primary Girl's Enrolment in percentage DISE": "NA",
      "Prevalence of Severe Anaemia in women aged 15-49years in percentage DLHS-4": "Not available",
      "Marginal Workers Agricultural Labourers worked for 0 - 3 moths during last year - Males": 27,
      "Households with electricity as main source of lighting  Houselisting and Housing Census Data Tables- District Level , Census of India__3": 11650,
      "Households with computer or laptop with internet connection in percentage": 3.65,
      "PHCs functioning on a 24x7hours basis in percentage DLHS-4": 0,
      "Non Workers - Males": 22215,
      "Total Households in District Houselisting and Housing Census Data Tables- District Level , Census of India": 15115,
      "Upper Primary Schools with girls toilet in percentage DISE": "NA",
      "Households with mobile phone in percentage": 62.99,
      "Households receiving untreated tap water within premises in percentage Houselisting and Housing Census Data Tables- District Level , Census of India__2": 9.824677473,
      "Marginal Workers Cultivators worked for 3 - 6 moths during last year - Males": 83,
      "Prevalence of Anaemia  in percentage DLHS-4": "Not available",
      "Prevalence of Chronic illness in percentage DLHS-4": "Not available",
      "Households with solar energy as main source of lighting in percentage Houselisting and Housing Census Data Tables- District Level , Census of India__1": 0.191862388,
      "Marginal Workers Agricultural Labourers worked for 0 - 3 moths during last year - Females": 50,
      "Main Workers - Males": 24909,
      "Female": "NA",
      "Sno": 1494,
      "Marginal Workers Other worked for 3 - 6 moths during last year - Females": 628,
      "Marginal Workers Cultivators worked for 0 - 3 moths during last year - Females": 22,
      "Scheduled Tribe Males": 2739,
      "Male Illiterates": 12199,
      "Prevalence of Severe Anaemia in pregnant women aged 15-49years in percentage DLHS-4": "Not available",
      "0-6 Age Group Persons": 12936,
      "Upper Primary Student-Classroom Ratio in percentage DISE": "NA",
      "Currently married men married below 21years of age in percentage DLHS-4": 10.9,
      "Male Literates": 37062,
      "Households with no lighting in percentage Houselisting and Housing Census Data Tables- District Level , Census of India__2": 0.800529276,
      "Primary Drop Out Rate in percentage DISE": "NA",
      "Marginal Workers Household Industry - Males": 118,
      "Female Illiterates": 17462,
      "Main Workers Other - Females": 1940,
      "Marginal Workers Cultivators - Persons": 182,
      "Upper Primary Gross Enrolment Ratio in percentage DISE": "NA",
      "Scheduled Caste Persons": 9746,
      "Marginal Workers Cultivators worked for 3 - 6 moths during last year - Persons": 149,
      "Households with landline phone in percentage": 4.2,
      "Total Households in District  Houselisting and Housing Census Data Tables- District Level , Census of India": 15115,
      "Upper Primary Pupil-Teacher Ratio in percentage DISE": "NA",
      "Primary Student-Classroom Ratio in percentage DISE": "NA",
      "Primary Schools with boys toilet in percentage DISE": "NA",
      "Mean number of children ever born to women aged 40-49years  DLHS-4": "Not available",
      "Households receiving untreated tap water within premises  Houselisting and Housing Census Data Tables- District Level , Census of India__5": 1485,
      "Marginal Workers Household Industry worked for 0 - 3 moths during last year - Persons": 47,
      "Total Male Population": 49261,
      "Non Workers - Females": 35936,
      "Current use of family planning methods in percentage DLHS-4": 71.1,
      "Households with main source of drinking water within premises  Houselisting and Housing Census Data Tables- District Level , Census of India__3": 9731,
      "Main Workers Agricultural Labourers - Males": 636,
      "Marginal Workers Other worked for 0 - 3 moths during last year - Persons": 313,
      "Currently married women married below 18years of age in percentage DLHS-4": 6.1,
      "Person Illiterates": 29661,
      "Main Workers Household Industry - Females": 352,
      "Female Literates": 22302,
      "Marginal Workers Cultivators worked for 0 - 3 moths during last year - Males": 11,
      "Male": "NA",
      "Households with improved source of drinking water in percentage DLHS-4": "Not available",
      "Upper Primary Schools with electricity in percentage DISE": "NA",
      "Households with electricity in percentage DLHS-4": "Not available",
      "Villages with Primary Health Centre within 10km in percentage DLHS-4": 0,
      "Births to women aged 15-19years out of Total births in percentage DLHS-4": "Not available",
      "Prevalence of Anaemia in women aged 15-49years in percentage DLHS-4": "Not available",
      "Marginal Workers Agricultural Labourers worked for 3 - 6 moths during last year - Persons": 484,
      "Main Workers Household Industry - Males": 1054,
      "Scheduled Tribe Females": 2417,
      "Marginal Workers worked for 0 - 3 moths during last year - Males": 236,
      "Marginal Workers Other worked for 3 - 6 moths during last year - Males": 1554,
      "Primary Net Enrolment Ratio in percentage DISE": "NA",
      "Total": "NA",
      "Mean age at marriage for boys DLHS-4": 24.9,
      "Number of District Hospitals  DLHS-4": 0,
      "0-6 Age Group Females": 6060,
      "Marginal Workers Agricultural Labourers worked for 0 - 3 moths during last year - Persons": 77,
      "Marginal Workers Household Industry worked for 0 - 3 moths during last year - Males": 24,
      "Total Workers  Females": 3828,
      "Marginal Workers worked for 3 - 6 moths during last year - Females": 1143,
      "Institutional Deliveries in percentage DLHS-4": 83.1,
      "Marginal Workers Other - Males": 1728,
      "Total Workers  Males": 27046,
      "Main Workers - Females": 2451,
      "Primary Gross Enrolment Ratio in percentage DISE": "NA",
      "Main Workers Cultivators - Persons": 351,
      "Marginal Workers Household Industry worked for 0 - 3 moths during last year - Females": 23,
      "Upper Primary Net Enrolment Ratio in percentage DISE": "NA",
      "Primary New Government Schools since 2003 in percentage DISE": "NA",
      "Tier": "Urban",
      "Marginal Workers Household Industry - Females": 158,
      "Primary Schools with electricity in percentage DISE": "NA",
      "Main Workers Other - Persons": 24893,
      "Marginal Workers Household Industry worked for 3 - 6 moths during last year - Females": 135,
      "Main Workers Cultivators - Males": 266,
      "Main Workers Household Industry - Persons": 1406,
      "Marginal Workers Cultivators worked for 0 - 3 moths during last year - Persons": 33,
      "Scheduled Caste Males": 5221,
      "Marginal Workers - Persons": 3514,
      "Deliveries at home conducted by skilled health personnel in percentage DLHS-4": 54.5,
      "Villages with Sub-Health Centres within 3km in percentage DLHS-4": 0,
      "Upper Primary New Government Schools since 2003 in percentage DISE": "NA",
      "0-6 Age Group Males": 6876,
      "Primary Schools with drinking water facility in percentage DISE": "NA",
      "Non Workers - Persons": 58151,
      "Person Literates": 59364,
      "State": "RAJASTHAN",
      "Total Female Population": 39764,
      "Marginal Workers worked for 0 - 3 moths during last year - Persons": 470,
      "Marginal Workers Cultivators - Females": 88,
      "Marginal Workers Other - Persons": 2495,
      "Sex Ratio": 807,
      "Scheduled Tribe Persons": 5156,
      "Marginal Workers Household Industry worked for 3 - 6 moths during last year - Males": 94,
      "Marginal Workers Agricultural Labourers - Females": 364,
      "Mean age at marriage for girls DLHS-4": 21.5,
      "Households with solar energy as main source of lighting  Houselisting and Housing Census Data Tables- District Level , Census of India__4": 29,
      "District": "JAISALMER",
      "Households receiving treated tap water within premises in percentage Houselisting and Housing Census Data Tables- District Level , Census of India__1": 54.10519352,
      "Total Workers  Persons": 30874,
      "Households receiving treated tap water within premises  Houselisting and Housing Census Data Tables- District Level , Census of India__4": 8178,
      "Primary Female Teachers in percentage DISE": "NA",
      "Number of Households": 16744,
      "Main Workers Agricultural Labourers - Persons": 710
    }
  ]
}