{
  "Total": [
    {
      "Marginal Workers Agricultural Labourers - Persons": 34414,
      "Marginal Workers Other - Females": 17599,
      "Marginal Workers Other worked for 0 - 3 moths during last year - Females": 3677,
      "Upper Primary Schools with boys toilet in percentage DISE": 0,
      "Total Population": 2137045,
      "Households with electricity as main source of lighting in percentage Houselisting and Housing Census Data Tables- District Level , Census of India": 77.55718545,
      "Primary Girl's Enrolment in percentage DISE": 50.1,
      "Marginal Workers worked for 3 - 6 moths during last year - Males": 64167,
      "Prevalence of Acute illness in percentage DLHS-4": "Not available",
      "Main Workers - Persons": 592813,
      "Main Workers Cultivators - Females": 103622,
      "Marginal Workers Agricultural Labourers worked for 3 - 6 moths during last year - Females": 15255,
      "Marginal Workers Other worked for 0 - 3 moths during last year - Males": 2957,
      "Upper Primary Schools with drinking water facility in percentage DISE": 100,
      "Primary Schools with girls toilet in percentage DISE": 98.2,
      "Marginal Workers worked for 3 - 6 moths during last year - Persons": 212617,
      "Upper Primary Drop Out Rate in percentage DISE": 0.38,
      "Prevalence of Anaemia in pregnant women aged 15-49years in percentage DLHS-4": "Not available",
      "Current use of any modern method of family planning in percentage DLHS-4": 66.4,
      "Marginal Workers Agricultural Labourers - Males": 14614,
      "Upper Primary Female Teachers in percentage DISE": 100,
      "Marginal Workers - Females": 204555,
      "Marginal Workers Other worked for 3 - 6 moths during last year - Persons": 31730,
      "Main Workers Agricultural Labourers - Females": 7792,
      "Marginal Workers Cultivators worked for 3 - 6 moths during last year - Females": 117981,
      "Households with no lighting  Houselisting and Housing Census Data Tables- District Level , Census of India__5": 1199,
      "Prevalence of Severe Anaemia  in percentage DLHS-4": "Not available",
      "Total unmet need for family planning in percentage DLHS-4": 10.9,
      "Main Workers Other - Males": 217317,
      "Children who received full vaccination in percentage DLHS-4": "Not available",
      "Marginal Workers Household Industry - Persons": 2777,
      "Primary Pupil-Teacher Ratio in percentage DISE": 15,
      "Marginal Workers Agricultural Labourers worked for 3 - 6 moths during last year - Males": 12215,
      "Scheduled Caste Females": 174830,
      "Marginal Workers Cultivators - Males": 60806,
      "Marginal Workers - Males": 97281,
      "Marginal Workers worked for 0 - 3 moths during last year - Females": 56105,
      "Households with main source of drinking water within premises in percentage Houselisting and Housing Census Data Tables- District Level , Census of India": 49.94787105,
      "Marginal Workers Household Industry worked for 3 - 6 moths during last year - Persons": 2131,
      "Upper Primary Girl's Enrolment in percentage DISE": 100,
      "Prevalence of Severe Anaemia in women aged 15-49years in percentage DLHS-4": "Not available",
      "Marginal Workers Agricultural Labourers worked for 0 - 3 moths during last year - Males": 2399,
      "Households with electricity as main source of lighting  Houselisting and Housing Census Data Tables- District Level , Census of India__3": 297559,
      "Households with computer or laptop with internet connection in percentage": 1.26,
      "PHCs functioning on a 24x7hours basis in percentage DLHS-4": "Not available",
      "Non Workers - Males": 554504,
      "Total Households in District Houselisting and Housing Census Data Tables- District Level , Census of India": 383664,
      "Upper Primary Schools with girls toilet in percentage DISE": 100,
      "Households with mobile phone in percentage": 67.96,
      "Households receiving untreated tap water within premises in percentage Houselisting and Housing Census Data Tables- District Level , Census of India__2": 18.34808583,
      "Marginal Workers Cultivators worked for 3 - 6 moths during last year - Males": 33305,
      "Prevalence of Anaemia  in percentage DLHS-4": "Not available",
      "Prevalence of Chronic illness in percentage DLHS-4": "Not available",
      "Households with solar energy as main source of lighting in percentage Houselisting and Housing Census Data Tables- District Level , Census of India__1": 0.109992076,
      "Marginal Workers Agricultural Labourers worked for 0 - 3 moths during last year - Females": 4545,
      "Main Workers - Males": 444111,
      "Female": 60.95,
      "Sno": 1502,
      "Marginal Workers Other worked for 3 - 6 moths during last year - Females": 13922,
      "Marginal Workers Cultivators worked for 0 - 3 moths during last year - Females": 47494,
      "Scheduled Tribe Males": 21380,
      "Male Illiterates": 280062,
      "Prevalence of Severe Anaemia in pregnant women aged 15-49years in percentage DLHS-4": "Not available",
      "0-6 Age Group Persons": 288470,
      "Upper Primary Student-Classroom Ratio in percentage DISE": 37,
      "Currently married men married below 21years of age in percentage DLHS-4": 11.9,
      "Male Literates": 815834,
      "Households with no lighting in percentage Houselisting and Housing Census Data Tables- District Level , Census of India__2": 0.312513032,
      "Primary Drop Out Rate in percentage DISE": 8.5,
      "Marginal Workers Household Industry - Males": 1096,
      "Female Illiterates": 486623,
      "Main Workers Other - Females": 34926,
      "Marginal Workers Cultivators - Persons": 226281,
      "Upper Primary Gross Enrolment Ratio in percentage DISE": 87,
      "Scheduled Caste Persons": 360709,
      "Marginal Workers Cultivators worked for 3 - 6 moths during last year - Persons": 151286,
      "Households with landline phone in percentage": 4.64,
      "Total Households in District  Houselisting and Housing Census Data Tables- District Level , Census of India": 383664,
      "Upper Primary Pupil-Teacher Ratio in percentage DISE": 20,
      "Primary Student-Classroom Ratio in percentage DISE": 12,
      "Primary Schools with boys toilet in percentage DISE": 98.8,
      "Mean number of children ever born to women aged 40-49years  DLHS-4": "Not available",
      "Households receiving untreated tap water within premises  Houselisting and Housing Census Data Tables- District Level , Census of India__5": 70395,
      "Marginal Workers Household Industry worked for 0 - 3 moths during last year - Persons": 646,
      "Total Male Population": 1095896,
      "Non Workers - Females": 687892,
      "Current use of family planning methods in percentage DLHS-4": 77.4,
      "Households with main source of drinking water within premises  Houselisting and Housing Census Data Tables- District Level , Census of India__3": 191632,
      "Main Workers Agricultural Labourers - Males": 26672,
      "Marginal Workers Other worked for 0 - 3 moths during last year - Persons": 6634,
      "Currently married women married below 18years of age in percentage DLHS-4": 5.5,
      "Person Illiterates": 766685,
      "Main Workers Household Industry - Females": 2362,
      "Female Literates": 554526,
      "Marginal Workers Cultivators worked for 0 - 3 moths during last year - Males": 27501,
      "Male": 86.9,
      "Households with improved source of drinking water in percentage DLHS-4": "Not available",
      "Upper Primary Schools with electricity in percentage DISE": 100,
      "Households with electricity in percentage DLHS-4": "Not available",
      "Villages with Primary Health Centre within 10km in percentage DLHS-4": "Not available",
      "Births to women aged 15-19years out of Total births in percentage DLHS-4": "Not available",
      "Prevalence of Anaemia in women aged 15-49years in percentage DLHS-4": "Not available",
      "Marginal Workers Agricultural Labourers worked for 3 - 6 moths during last year - Persons": 27470,
      "Main Workers Household Industry - Males": 8333,
      "Scheduled Tribe Females": 20249,
      "Marginal Workers worked for 0 - 3 moths during last year - Males": 33114,
      "Marginal Workers Other worked for 3 - 6 moths during last year - Males": 17808,
      "Primary Net Enrolment Ratio in percentage DISE": 76.3,
      "Total": 74.13,
      "Mean age at marriage for boys DLHS-4": 23.8,
      "Number of District Hospitals  DLHS-4": "Not available",
      "0-6 Age Group Females": 131408,
      "Marginal Workers Agricultural Labourers worked for 0 - 3 moths during last year - Persons": 6944,
      "Marginal Workers Household Industry worked for 0 - 3 moths during last year - Males": 257,
      "Total Workers  Females": 353257,
      "Marginal Workers worked for 3 - 6 moths during last year - Females": 148450,
      "Institutional Deliveries in percentage DLHS-4": 89.5,
      "Marginal Workers Other - Males": 20765,
      "Total Workers  Males": 541392,
      "Main Workers - Females": 148702,
      "Primary Gross Enrolment Ratio in percentage DISE": 103.2,
      "Main Workers Cultivators - Persons": 295411,
      "Marginal Workers Household Industry worked for 0 - 3 moths during last year - Females": 389,
      "Upper Primary Net Enrolment Ratio in percentage DISE": 66,
      "Primary New Government Schools since 2003 in percentage DISE": 21.6,
      "Tier": "Total",
      "Marginal Workers Household Industry - Females": 1681,
      "Primary Schools with electricity in percentage DISE": 66.4,
      "Main Workers Other - Persons": 252243,
      "Marginal Workers Household Industry worked for 3 - 6 moths during last year - Females": 1292,
      "Main Workers Cultivators - Males": 191789,
      "Main Workers Household Industry - Persons": 10695,
      "Marginal Workers Cultivators worked for 0 - 3 moths during last year - Persons": 74995,
      "Scheduled Caste Males": 185879,
      "Marginal Workers - Persons": 301836,
      "Deliveries at home conducted by skilled health personnel in percentage DLHS-4": 48.1,
      "Villages with Sub-Health Centres within 3km in percentage DLHS-4": "Not available",
      "Upper Primary New Government Schools since 2003 in percentage DISE": 100,
      "0-6 Age Group Males": 157062,
      "Primary Schools with drinking water facility in percentage DISE": 98.1,
      "Non Workers - Persons": 1242396,
      "Person Literates": 1370360,
      "State": "RAJASTHAN",
      "Total Female Population": 1041149,
      "Marginal Workers worked for 0 - 3 moths during last year - Persons": 89219,
      "Marginal Workers Cultivators - Females": 165475,
      "Marginal Workers Other - Persons": 38364,
      "Sex Ratio": 950,
      "Scheduled Tribe Persons": 41629,
      "Marginal Workers Household Industry worked for 3 - 6 moths during last year - Males": 839,
      "Marginal Workers Agricultural Labourers - Females": 19800,
      "Mean age at marriage for girls DLHS-4": 21.1,
      "Households with solar energy as main source of lighting  Houselisting and Housing Census Data Tables- District Level , Census of India__4": 422,
      "District": "JHUNJHUNUN",
      "Households receiving treated tap water within premises in percentage Houselisting and Housing Census Data Tables- District Level , Census of India__1": 26.29853205,
      "Total Workers  Persons": 894649,
      "Households receiving treated tap water within premises  Houselisting and Housing Census Data Tables- District Level , Census of India__4": 100898,
      "Primary Female Teachers in percentage DISE": 49,
      "Number of Households": 384197,
      "Main Workers Agricultural Labourers - Persons": 34464
    }
  ],
  "Rural": [
    {
      "Marginal Workers Agricultural Labourers - Persons": 32680,
      "Marginal Workers Other - Females": 14156,
      "Marginal Workers Other worked for 0 - 3 moths during last year - Females": 3058,
      "Upper Primary Schools with boys toilet in percentage DISE": "NA",
      "Total Population": 1647966,
      "Households with electricity as main source of lighting in percentage Houselisting and Housing Census Data Tables- District Level , Census of India": 73.52435131,
      "Primary Girl's Enrolment in percentage DISE": "NA",
      "Marginal Workers worked for 3 - 6 moths during last year - Males": 56527,
      "Prevalence of Acute illness in percentage DLHS-4": "Not available",
      "Main Workers - Persons": 468932,
      "Main Workers Cultivators - Females": 100964,
      "Marginal Workers Agricultural Labourers worked for 3 - 6 moths during last year - Females": 14759,
      "Marginal Workers Other worked for 0 - 3 moths during last year - Males": 1940,
      "Upper Primary Schools with drinking water facility in percentage DISE": "NA",
      "Primary Schools with girls toilet in percentage DISE": "NA",
      "Marginal Workers worked for 3 - 6 moths during last year - Persons": 198320,
      "Upper Primary Drop Out Rate in percentage DISE": "NA",
      "Prevalence of Anaemia in pregnant women aged 15-49years in percentage DLHS-4": "Not available",
      "Current use of any modern method of family planning in percentage DLHS-4": 67,
      "Marginal Workers Agricultural Labourers - Males": 13626,
      "Upper Primary Female Teachers in percentage DISE": "NA",
      "Marginal Workers - Females": 195908,
      "Marginal Workers Other worked for 3 - 6 moths during last year - Persons": 23225,
      "Main Workers Agricultural Labourers - Females": 7417,
      "Marginal Workers Cultivators worked for 3 - 6 moths during last year - Females": 115095,
      "Households with no lighting  Houselisting and Housing Census Data Tables- District Level , Census of India__5": 761,
      "Prevalence of Severe Anaemia  in percentage DLHS-4": "Not available",
      "Total unmet need for family planning in percentage DLHS-4": 10.3,
      "Main Workers Other - Males": 122241,
      "Children who received full vaccination in percentage DLHS-4": "Not available",
      "Marginal Workers Household Industry - Persons": 1916,
      "Primary Pupil-Teacher Ratio in percentage DISE": "NA",
      "Marginal Workers Agricultural Labourers worked for 3 - 6 moths during last year - Males": 11338,
      "Scheduled Caste Females": 138721,
      "Marginal Workers Cultivators - Males": 59414,
      "Marginal Workers - Males": 87912,
      "Marginal Workers worked for 0 - 3 moths during last year - Females": 54115,
      "Households with main source of drinking water within premises in percentage Houselisting and Housing Census Data Tables- District Level , Census of India": 42.34386551,
      "Marginal Workers Household Industry worked for 3 - 6 moths during last year - Persons": 1452,
      "Upper Primary Girl's Enrolment in percentage DISE": "NA",
      "Prevalence of Severe Anaemia in women aged 15-49years in percentage DLHS-4": "Not available",
      "Marginal Workers Agricultural Labourers worked for 0 - 3 moths during last year - Males": 2288,
      "Households with electricity as main source of lighting  Houselisting and Housing Census Data Tables- District Level , Census of India__3": 221784,
      "Households with computer or laptop with internet connection in percentage": 0.69,
      "PHCs functioning on a 24x7hours basis in percentage DLHS-4": "Not applicable",
      "Non Workers - Males": 417370,
      "Total Households in District Houselisting and Housing Census Data Tables- District Level , Census of India": 301647,
      "Upper Primary Schools with girls toilet in percentage DISE": "NA",
      "Households with mobile phone in percentage": 68.88,
      "Households receiving untreated tap water within premises in percentage Houselisting and Housing Census Data Tables- District Level , Census of India__2": 19.71343988,
      "Marginal Workers Cultivators worked for 3 - 6 moths during last year - Males": 32451,
      "Prevalence of Anaemia  in percentage DLHS-4": "Not available",
      "Prevalence of Chronic illness in percentage DLHS-4": "Not available",
      "Households with solar energy as main source of lighting in percentage Houselisting and Housing Census Data Tables- District Level , Census of India__1": 0.116361177,
      "Marginal Workers Agricultural Labourers worked for 0 - 3 moths during last year - Females": 4295,
      "Main Workers - Males": 337436,
      "Female": "NA",
      "Sno": 1501,
      "Marginal Workers Other worked for 3 - 6 moths during last year - Females": 11098,
      "Marginal Workers Cultivators worked for 0 - 3 moths during last year - Females": 46492,
      "Scheduled Tribe Males": 18900,
      "Male Illiterates": 217046,
      "Prevalence of Severe Anaemia in pregnant women aged 15-49years in percentage DLHS-4": "Not available",
      "0-6 Age Group Persons": 222519,
      "Upper Primary Student-Classroom Ratio in percentage DISE": "NA",
      "Currently married men married below 21years of age in percentage DLHS-4": 13.2,
      "Male Literates": 625672,
      "Households with no lighting in percentage Houselisting and Housing Census Data Tables- District Level , Census of India__2": 0.25228164,
      "Primary Drop Out Rate in percentage DISE": "NA",
      "Marginal Workers Household Industry - Males": 805,
      "Female Illiterates": 384371,
      "Main Workers Other - Females": 22095,
      "Marginal Workers Cultivators - Persons": 221001,
      "Upper Primary Gross Enrolment Ratio in percentage DISE": "NA",
      "Scheduled Caste Persons": 285737,
      "Marginal Workers Cultivators worked for 3 - 6 moths during last year - Persons": 147546,
      "Households with landline phone in percentage": 4.47,
      "Total Households in District  Houselisting and Housing Census Data Tables- District Level , Census of India": 301647,
      "Upper Primary Pupil-Teacher Ratio in percentage DISE": "NA",
      "Primary Student-Classroom Ratio in percentage DISE": "NA",
      "Primary Schools with boys toilet in percentage DISE": "NA",
      "Mean number of children ever born to women aged 40-49years  DLHS-4": "Not available",
      "Households receiving untreated tap water within premises  Houselisting and Housing Census Data Tables- District Level , Census of India__5": 59465,
      "Marginal Workers Household Industry worked for 0 - 3 moths during last year - Persons": 464,
      "Total Male Population": 842718,
      "Non Workers - Females": 477844,
      "Current use of family planning methods in percentage DLHS-4": 76.8,
      "Households with main source of drinking water within premises  Houselisting and Housing Census Data Tables- District Level , Census of India__3": 127729,
      "Main Workers Agricultural Labourers - Males": 24474,
      "Marginal Workers Other worked for 0 - 3 moths during last year - Persons": 4998,
      "Currently married women married below 18years of age in percentage DLHS-4": 6.9,
      "Person Illiterates": 601417,
      "Main Workers Household Industry - Females": 1020,
      "Female Literates": 420877,
      "Marginal Workers Cultivators worked for 0 - 3 moths during last year - Males": 26963,
      "Male": "NA",
      "Households with improved source of drinking water in percentage DLHS-4": "Not available",
      "Upper Primary Schools with electricity in percentage DISE": "NA",
      "Households with electricity in percentage DLHS-4": "Not available",
      "Villages with Primary Health Centre within 10km in percentage DLHS-4": "Not applicable",
      "Births to women aged 15-19years out of Total births in percentage DLHS-4": "Not available",
      "Prevalence of Anaemia in women aged 15-49years in percentage DLHS-4": "Not available",
      "Marginal Workers Agricultural Labourers worked for 3 - 6 moths during last year - Persons": 26097,
      "Main Workers Household Industry - Males": 5014,
      "Scheduled Tribe Females": 17962,
      "Marginal Workers worked for 0 - 3 moths during last year - Males": 31385,
      "Marginal Workers Other worked for 3 - 6 moths during last year - Males": 12127,
      "Primary Net Enrolment Ratio in percentage DISE": "NA",
      "Total": "NA",
      "Mean age at marriage for boys DLHS-4": 23.6,
      "Number of District Hospitals  DLHS-4": "Not applicable",
      "0-6 Age Group Females": 101036,
      "Marginal Workers Agricultural Labourers worked for 0 - 3 moths during last year - Persons": 6583,
      "Marginal Workers Household Industry worked for 0 - 3 moths during last year - Males": 194,
      "Total Workers  Females": 327404,
      "Marginal Workers worked for 3 - 6 moths during last year - Females": 141793,
      "Institutional Deliveries in percentage DLHS-4": 89.6,
      "Marginal Workers Other - Males": 14067,
      "Total Workers  Males": 425348,
      "Main Workers - Females": 131496,
      "Primary Gross Enrolment Ratio in percentage DISE": "NA",
      "Main Workers Cultivators - Persons": 286671,
      "Marginal Workers Household Industry worked for 0 - 3 moths during last year - Females": 270,
      "Upper Primary Net Enrolment Ratio in percentage DISE": "NA",
      "Primary New Government Schools since 2003 in percentage DISE": "NA",
      "Tier": "Rural",
      "Marginal Workers Household Industry - Females": 1111,
      "Primary Schools with electricity in percentage DISE": "NA",
      "Main Workers Other - Persons": 144336,
      "Marginal Workers Household Industry worked for 3 - 6 moths during last year - Females": 841,
      "Main Workers Cultivators - Males": 185707,
      "Main Workers Household Industry - Persons": 6034,
      "Marginal Workers Cultivators worked for 0 - 3 moths during last year - Persons": 73455,
      "Scheduled Caste Males": 147016,
      "Marginal Workers - Persons": 283820,
      "Deliveries at home conducted by skilled health personnel in percentage DLHS-4": 44.7,
      "Villages with Sub-Health Centres within 3km in percentage DLHS-4": "Not applicable",
      "Upper Primary New Government Schools since 2003 in percentage DISE": "NA",
      "0-6 Age Group Males": 121483,
      "Primary Schools with drinking water facility in percentage DISE": "NA",
      "Non Workers - Persons": 895214,
      "Person Literates": 1046549,
      "State": "RAJASTHAN",
      "Total Female Population": 805248,
      "Marginal Workers worked for 0 - 3 moths during last year - Persons": 85500,
      "Marginal Workers Cultivators - Females": 161587,
      "Marginal Workers Other - Persons": 28223,
      "Sex Ratio": 956,
      "Scheduled Tribe Persons": 36862,
      "Marginal Workers Household Industry worked for 3 - 6 moths during last year - Males": 611,
      "Marginal Workers Agricultural Labourers - Females": 19054,
      "Mean age at marriage for girls DLHS-4": 21,
      "Households with solar energy as main source of lighting  Houselisting and Housing Census Data Tables- District Level , Census of India__4": 351,
      "District": "JHUNJHUNUN",
      "Households receiving treated tap water within premises in percentage Houselisting and Housing Census Data Tables- District Level , Census of India__1": 16.15663342,
      "Total Workers  Persons": 752752,
      "Households receiving treated tap water within premises  Houselisting and Housing Census Data Tables- District Level , Census of India__4": 48736,
      "Primary Female Teachers in percentage DISE": "NA",
      "Number of Households": 300801,
      "Main Workers Agricultural Labourers - Persons": 31891
    }
  ],
  "Urban": [
    {
      "Marginal Workers Agricultural Labourers - Persons": 1734,
      "Marginal Workers Other - Females": 3443,
      "Marginal Workers Other worked for 0 - 3 moths during last year - Females": 619,
      "Upper Primary Schools with boys toilet in percentage DISE": "NA",
      "Total Population": 489079,
      "Households with electricity as main source of lighting in percentage Houselisting and Housing Census Data Tables- District Level , Census of India": 92.38938269,
      "Primary Girl's Enrolment in percentage DISE": "NA",
      "Marginal Workers worked for 3 - 6 moths during last year - Males": 7640,
      "Prevalence of Acute illness in percentage DLHS-4": "Not available",
      "Main Workers - Persons": 123881,
      "Main Workers Cultivators - Females": 2658,
      "Marginal Workers Agricultural Labourers worked for 3 - 6 moths during last year - Females": 496,
      "Marginal Workers Other worked for 0 - 3 moths during last year - Males": 1017,
      "Upper Primary Schools with drinking water facility in percentage DISE": "NA",
      "Primary Schools with girls toilet in percentage DISE": "NA",
      "Marginal Workers worked for 3 - 6 moths during last year - Persons": 14297,
      "Upper Primary Drop Out Rate in percentage DISE": "NA",
      "Prevalence of Anaemia in pregnant women aged 15-49years in percentage DLHS-4": "Not available",
      "Current use of any modern method of family planning in percentage DLHS-4": 64.7,
      "Marginal Workers Agricultural Labourers - Males": 988,
      "Upper Primary Female Teachers in percentage DISE": "NA",
      "Marginal Workers - Females": 8647,
      "Marginal Workers Other worked for 3 - 6 moths during last year - Persons": 8505,
      "Main Workers Agricultural Labourers - Females": 375,
      "Marginal Workers Cultivators worked for 3 - 6 moths during last year - Females": 2886,
      "Households with no lighting  Houselisting and Housing Census Data Tables- District Level , Census of India__5": 438,
      "Prevalence of Severe Anaemia  in percentage DLHS-4": "Not available",
      "Total unmet need for family planning in percentage DLHS-4": 13,
      "Main Workers Other - Males": 95076,
      "Children who received full vaccination in percentage DLHS-4": "Not available",
      "Marginal Workers Household Industry - Persons": 861,
      "Primary Pupil-Teacher Ratio in percentage DISE": "NA",
      "Marginal Workers Agricultural Labourers worked for 3 - 6 moths during last year - Males": 877,
      "Scheduled Caste Females": 36109,
      "Marginal Workers Cultivators - Males": 1392,
      "Marginal Workers - Males": 9369,
      "Marginal Workers worked for 0 - 3 moths during last year - Females": 1990,
      "Households with main source of drinking water within premises in percentage Houselisting and Housing Census Data Tables- District Level , Census of India": 77.91433483,
      "Marginal Workers Household Industry worked for 3 - 6 moths during last year - Persons": 679,
      "Upper Primary Girl's Enrolment in percentage DISE": "NA",
      "Prevalence of Severe Anaemia in women aged 15-49years in percentage DLHS-4": "Not available",
      "Marginal Workers Agricultural Labourers worked for 0 - 3 moths during last year - Males": 111,
      "Households with electricity as main source of lighting  Houselisting and Housing Census Data Tables- District Level , Census of India__3": 75775,
      "Households with computer or laptop with internet connection in percentage": 3.34,
      "PHCs functioning on a 24x7hours basis in percentage DLHS-4": 0,
      "Non Workers - Males": 137134,
      "Total Households in District Houselisting and Housing Census Data Tables- District Level , Census of India": 82017,
      "Upper Primary Schools with girls toilet in percentage DISE": "NA",
      "Households with mobile phone in percentage": 64.6,
      "Households receiving untreated tap water within premises in percentage Houselisting and Housing Census Data Tables- District Level , Census of India__2": 13.32650548,
      "Marginal Workers Cultivators worked for 3 - 6 moths during last year - Males": 854,
      "Prevalence of Anaemia  in percentage DLHS-4": "Not available",
      "Prevalence of Chronic illness in percentage DLHS-4": "Not available",
      "Households with solar energy as main source of lighting in percentage Houselisting and Housing Census Data Tables- District Level , Census of India__1": 0.0866,
      "Marginal Workers Agricultural Labourers worked for 0 - 3 moths during last year - Females": 250,
      "Main Workers - Males": 106675,
      "Female": "NA",
      "Sno": 1503,
      "Marginal Workers Other worked for 3 - 6 moths during last year - Females": 2824,
      "Marginal Workers Cultivators worked for 0 - 3 moths during last year - Females": 1002,
      "Scheduled Tribe Males": 2480,
      "Male Illiterates": 63016,
      "Prevalence of Severe Anaemia in pregnant women aged 15-49years in percentage DLHS-4": "Not available",
      "0-6 Age Group Persons": 65951,
      "Upper Primary Student-Classroom Ratio in percentage DISE": "NA",
      "Currently married men married below 21years of age in percentage DLHS-4": 8.8,
      "Male Literates": 190162,
      "Households with no lighting in percentage Houselisting and Housing Census Data Tables- District Level , Census of India__2": 0.534035627,
      "Primary Drop Out Rate in percentage DISE": "NA",
      "Marginal Workers Household Industry - Males": 291,
      "Female Illiterates": 102252,
      "Main Workers Other - Females": 12831,
      "Marginal Workers Cultivators - Persons": 5280,
      "Upper Primary Gross Enrolment Ratio in percentage DISE": "NA",
      "Scheduled Caste Persons": 74972,
      "Marginal Workers Cultivators worked for 3 - 6 moths during last year - Persons": 3740,
      "Households with landline phone in percentage": 5.29,
      "Total Households in District  Houselisting and Housing Census Data Tables- District Level , Census of India": 82017,
      "Upper Primary Pupil-Teacher Ratio in percentage DISE": "NA",
      "Primary Student-Classroom Ratio in percentage DISE": "NA",
      "Primary Schools with boys toilet in percentage DISE": "NA",
      "Mean number of children ever born to women aged 40-49years  DLHS-4": "Not available",
      "Households receiving untreated tap water within premises  Houselisting and Housing Census Data Tables- District Level , Census of India__5": 10930,
      "Marginal Workers Household Industry worked for 0 - 3 moths during last year - Persons": 182,
      "Total Male Population": 253178,
      "Non Workers - Females": 210048,
      "Current use of family planning methods in percentage DLHS-4": 79.1,
      "Households with main source of drinking water within premises  Houselisting and Housing Census Data Tables- District Level , Census of India__3": 63903,
      "Main Workers Agricultural Labourers - Males": 2198,
      "Marginal Workers Other worked for 0 - 3 moths during last year - Persons": 1636,
      "Currently married women married below 18years of age in percentage DLHS-4": 1.5,
      "Person Illiterates": 165268,
      "Main Workers Household Industry - Females": 1342,
      "Female Literates": 133649,
      "Marginal Workers Cultivators worked for 0 - 3 moths during last year - Males": 538,
      "Male": "NA",
      "Households with improved source of drinking water in percentage DLHS-4": "Not available",
      "Upper Primary Schools with electricity in percentage DISE": "NA",
      "Households with electricity in percentage DLHS-4": "Not available",
      "Villages with Primary Health Centre within 10km in percentage DLHS-4": 0,
      "Births to women aged 15-19years out of Total births in percentage DLHS-4": "Not available",
      "Prevalence of Anaemia in women aged 15-49years in percentage DLHS-4": "Not available",
      "Marginal Workers Agricultural Labourers worked for 3 - 6 moths during last year - Persons": 1373,
      "Main Workers Household Industry - Males": 3319,
      "Scheduled Tribe Females": 2287,
      "Marginal Workers worked for 0 - 3 moths during last year - Males": 1729,
      "Marginal Workers Other worked for 3 - 6 moths during last year - Males": 5681,
      "Primary Net Enrolment Ratio in percentage DISE": "NA",
      "Total": "NA",
      "Mean age at marriage for boys DLHS-4": 24.2,
      "Number of District Hospitals  DLHS-4": 0,
      "0-6 Age Group Females": 30372,
      "Marginal Workers Agricultural Labourers worked for 0 - 3 moths during last year - Persons": 361,
      "Marginal Workers Household Industry worked for 0 - 3 moths during last year - Males": 63,
      "Total Workers  Females": 25853,
      "Marginal Workers worked for 3 - 6 moths during last year - Females": 6657,
      "Institutional Deliveries in percentage DLHS-4": 89.1,
      "Marginal Workers Other - Males": 6698,
      "Total Workers  Males": 116044,
      "Main Workers - Females": 17206,
      "Primary Gross Enrolment Ratio in percentage DISE": "NA",
      "Main Workers Cultivators - Persons": 8740,
      "Marginal Workers Household Industry worked for 0 - 3 moths during last year - Females": 119,
      "Upper Primary Net Enrolment Ratio in percentage DISE": "NA",
      "Primary New Government Schools since 2003 in percentage DISE": "NA",
      "Tier": "Urban",
      "Marginal Workers Household Industry - Females": 570,
      "Primary Schools with electricity in percentage DISE": "NA",
      "Main Workers Other - Persons": 107907,
      "Marginal Workers Household Industry worked for 3 - 6 moths during last year - Females": 451,
      "Main Workers Cultivators - Males": 6082,
      "Main Workers Household Industry - Persons": 4661,
      "Marginal Workers Cultivators worked for 0 - 3 moths during last year - Persons": 1540,
      "Scheduled Caste Males": 38863,
      "Marginal Workers - Persons": 18016,
      "Deliveries at home conducted by skilled health personnel in percentage DLHS-4": 59.6,
      "Villages with Sub-Health Centres within 3km in percentage DLHS-4": 0,
      "Upper Primary New Government Schools since 2003 in percentage DISE": "NA",
      "0-6 Age Group Males": 35579,
      "Primary Schools with drinking water facility in percentage DISE": "NA",
      "Non Workers - Persons": 347182,
      "Person Literates": 323811,
      "State": "RAJASTHAN",
      "Total Female Population": 235901,
      "Marginal Workers worked for 0 - 3 moths during last year - Persons": 3719,
      "Marginal Workers Cultivators - Females": 3888,
      "Marginal Workers Other - Persons": 10141,
      "Sex Ratio": 932,
      "Scheduled Tribe Persons": 4767,
      "Marginal Workers Household Industry worked for 3 - 6 moths during last year - Males": 228,
      "Marginal Workers Agricultural Labourers - Females": 746,
      "Mean age at marriage for girls DLHS-4": 21.5,
      "Households with solar energy as main source of lighting  Houselisting and Housing Census Data Tables- District Level , Census of India__4": 71,
      "District": "JHUNJHUNUN",
      "Households receiving treated tap water within premises in percentage Houselisting and Housing Census Data Tables- District Level , Census of India__1": 63.59900996,
      "Total Workers  Persons": 141897,
      "Households receiving treated tap water within premises  Houselisting and Housing Census Data Tables- District Level , Census of India__4": 52162,
      "Primary Female Teachers in percentage DISE": "NA",
      "Number of Households": 83396,
      "Main Workers Agricultural Labourers - Persons": 2573
    }
  ]
}