{
  "Total": [
    {
      "Marginal Workers Agricultural Labourers - Persons": 139726,
      "Marginal Workers Other - Females": 28952,
      "Marginal Workers Other worked for 0 - 3 moths during last year - Females": 6911,
      "Upper Primary Schools with boys toilet in percentage DISE": 100,
      "Total Population": 3307743,
      "Households with electricity as main source of lighting in percentage Houselisting and Housing Census Data Tables- District Level , Census of India": 59.48272171,
      "Primary Girl's Enrolment in percentage DISE": 50.1,
      "Marginal Workers worked for 3 - 6 moths during last year - Males": 138860,
      "Prevalence of Acute illness in percentage DLHS-4": "Not available",
      "Main Workers - Persons": 985927,
      "Main Workers Cultivators - Females": 200047,
      "Marginal Workers Agricultural Labourers worked for 3 - 6 moths during last year - Females": 75616,
      "Marginal Workers Other worked for 0 - 3 moths during last year - Males": 4576,
      "Upper Primary Schools with drinking water facility in percentage DISE": 100,
      "Primary Schools with girls toilet in percentage DISE": 95.7,
      "Marginal Workers worked for 3 - 6 moths during last year - Persons": 371253,
      "Upper Primary Drop Out Rate in percentage DISE": 4.74,
      "Prevalence of Anaemia in pregnant women aged 15-49years in percentage DLHS-4": "Not available",
      "Current use of any modern method of family planning in percentage DLHS-4": 62.1,
      "Marginal Workers Agricultural Labourers - Males": 49983,
      "Upper Primary Female Teachers in percentage DISE": 94.5,
      "Marginal Workers - Females": 279003,
      "Marginal Workers Other worked for 3 - 6 moths during last year - Persons": 52338,
      "Main Workers Agricultural Labourers - Females": 50031,
      "Marginal Workers Cultivators worked for 3 - 6 moths during last year - Females": 131496,
      "Households with no lighting  Houselisting and Housing Census Data Tables- District Level , Census of India__5": 4335,
      "Prevalence of Severe Anaemia  in percentage DLHS-4": "Not available",
      "Total unmet need for family planning in percentage DLHS-4": 15.1,
      "Main Workers Other - Males": 299055,
      "Children who received full vaccination in percentage DLHS-4": "Not available",
      "Marginal Workers Household Industry - Persons": 7965,
      "Primary Pupil-Teacher Ratio in percentage DISE": 19,
      "Marginal Workers Agricultural Labourers worked for 3 - 6 moths during last year - Males": 44013,
      "Scheduled Caste Females": 339460,
      "Marginal Workers Cultivators - Males": 72801,
      "Marginal Workers - Males": 160952,
      "Marginal Workers worked for 0 - 3 moths during last year - Females": 46610,
      "Households with main source of drinking water within premises in percentage Houselisting and Housing Census Data Tables- District Level , Census of India": 28.46400578,
      "Marginal Workers Household Industry worked for 3 - 6 moths during last year - Persons": 6001,
      "Upper Primary Girl's Enrolment in percentage DISE": 94.2,
      "Prevalence of Severe Anaemia in women aged 15-49years in percentage DLHS-4": "Not available",
      "Marginal Workers Agricultural Labourers worked for 0 - 3 moths during last year - Males": 5970,
      "Households with electricity as main source of lighting  Houselisting and Housing Census Data Tables- District Level , Census of India__3": 347344,
      "Households with computer or laptop with internet connection in percentage": 0.76,
      "PHCs functioning on a 24x7hours basis in percentage DLHS-4": "Not available",
      "Non Workers - Males": 839294,
      "Total Households in District Houselisting and Housing Census Data Tables- District Level , Census of India": 583941,
      "Upper Primary Schools with girls toilet in percentage DISE": 100,
      "Households with mobile phone in percentage": 72.98,
      "Households receiving untreated tap water within premises in percentage Houselisting and Housing Census Data Tables- District Level , Census of India__2": 5.793393511,
      "Marginal Workers Cultivators worked for 3 - 6 moths during last year - Males": 61789,
      "Prevalence of Anaemia  in percentage DLHS-4": "Not available",
      "Prevalence of Chronic illness in percentage DLHS-4": "Not available",
      "Households with solar energy as main source of lighting in percentage Houselisting and Housing Census Data Tables- District Level , Census of India__1": 0.584648107,
      "Marginal Workers Agricultural Labourers worked for 0 - 3 moths during last year - Females": 14127,
      "Main Workers - Males": 696079,
      "Female": 47.82,
      "Sno": 1514,
      "Marginal Workers Other worked for 3 - 6 moths during last year - Females": 22041,
      "Marginal Workers Cultivators worked for 0 - 3 moths during last year - Females": 24142,
      "Scheduled Tribe Males": 5475,
      "Male Illiterates": 593575,
      "Prevalence of Severe Anaemia in pregnant women aged 15-49years in percentage DLHS-4": "Not available",
      "0-6 Age Group Persons": 507176,
      "Upper Primary Student-Classroom Ratio in percentage DISE": 30,
      "Currently married men married below 21years of age in percentage DLHS-4": 32.2,
      "Male Literates": 1102750,
      "Households with no lighting in percentage Houselisting and Housing Census Data Tables- District Level , Census of India__2": 0.74236952,
      "Primary Drop Out Rate in percentage DISE": 8.4,
      "Marginal Workers Household Industry - Males": 3295,
      "Female Illiterates": 955544,
      "Main Workers Other - Females": 35340,
      "Marginal Workers Cultivators - Persons": 228439,
      "Upper Primary Gross Enrolment Ratio in percentage DISE": 76.9,
      "Scheduled Caste Persons": 699911,
      "Marginal Workers Cultivators worked for 3 - 6 moths during last year - Persons": 193285,
      "Households with landline phone in percentage": 2.01,
      "Total Households in District  Houselisting and Housing Census Data Tables- District Level , Census of India": 583941,
      "Upper Primary Pupil-Teacher Ratio in percentage DISE": 19,
      "Primary Student-Classroom Ratio in percentage DISE": 18,
      "Primary Schools with boys toilet in percentage DISE": 89.1,
      "Mean number of children ever born to women aged 40-49years  DLHS-4": "Not available",
      "Households receiving untreated tap water within premises  Houselisting and Housing Census Data Tables- District Level , Census of India__5": 33830,
      "Marginal Workers Household Industry worked for 0 - 3 moths during last year - Persons": 1964,
      "Total Male Population": 1696325,
      "Non Workers - Females": 1042567,
      "Current use of family planning methods in percentage DLHS-4": 68.5,
      "Households with main source of drinking water within premises  Houselisting and Housing Census Data Tables- District Level , Census of India__3": 166213,
      "Main Workers Agricultural Labourers - Males": 73644,
      "Marginal Workers Other worked for 0 - 3 moths during last year - Persons": 11487,
      "Currently married women married below 18years of age in percentage DLHS-4": 15.4,
      "Person Illiterates": 1549119,
      "Main Workers Household Industry - Females": 4430,
      "Female Literates": 655874,
      "Marginal Workers Cultivators worked for 0 - 3 moths during last year - Males": 11012,
      "Male": 77.17,
      "Households with improved source of drinking water in percentage DLHS-4": "Not available",
      "Upper Primary Schools with electricity in percentage DISE": 100,
      "Households with electricity in percentage DLHS-4": "Not available",
      "Villages with Primary Health Centre within 10km in percentage DLHS-4": "Not available",
      "Births to women aged 15-19years out of Total births in percentage DLHS-4": "Not available",
      "Prevalence of Anaemia in women aged 15-49years in percentage DLHS-4": "Not available",
      "Marginal Workers Agricultural Labourers worked for 3 - 6 moths during last year - Persons": 119629,
      "Main Workers Household Industry - Males": 17252,
      "Scheduled Tribe Females": 4943,
      "Marginal Workers worked for 0 - 3 moths during last year - Males": 22092,
      "Marginal Workers Other worked for 3 - 6 moths during last year - Males": 30297,
      "Primary Net Enrolment Ratio in percentage DISE": 77.8,
      "Total": 62.8,
      "Mean age at marriage for boys DLHS-4": 21.7,
      "Number of District Hospitals  DLHS-4": "Not available",
      "0-6 Age Group Females": 239785,
      "Marginal Workers Agricultural Labourers worked for 0 - 3 moths during last year - Persons": 20097,
      "Marginal Workers Household Industry worked for 0 - 3 moths during last year - Males": 534,
      "Total Workers  Females": 568851,
      "Marginal Workers worked for 3 - 6 moths during last year - Females": 232393,
      "Institutional Deliveries in percentage DLHS-4": 83.4,
      "Marginal Workers Other - Males": 34873,
      "Total Workers  Males": 857031,
      "Main Workers - Females": 289848,
      "Primary Gross Enrolment Ratio in percentage DISE": 106.3,
      "Main Workers Cultivators - Persons": 506175,
      "Marginal Workers Household Industry worked for 0 - 3 moths during last year - Females": 1430,
      "Upper Primary Net Enrolment Ratio in percentage DISE": 54.2,
      "Primary New Government Schools since 2003 in percentage DISE": 25.6,
      "Tier": "Total",
      "Marginal Workers Household Industry - Females": 4670,
      "Primary Schools with electricity in percentage DISE": 15.7,
      "Main Workers Other - Persons": 334395,
      "Marginal Workers Household Industry worked for 3 - 6 moths during last year - Females": 3240,
      "Main Workers Cultivators - Males": 306128,
      "Main Workers Household Industry - Persons": 21682,
      "Marginal Workers Cultivators worked for 0 - 3 moths during last year - Persons": 35154,
      "Scheduled Caste Males": 360451,
      "Marginal Workers - Persons": 439955,
      "Deliveries at home conducted by skilled health personnel in percentage DLHS-4": 44.8,
      "Villages with Sub-Health Centres within 3km in percentage DLHS-4": "Not available",
      "Upper Primary New Government Schools since 2003 in percentage DISE": 93.3,
      "0-6 Age Group Males": 267391,
      "Primary Schools with drinking water facility in percentage DISE": 96.1,
      "Non Workers - Persons": 1881861,
      "Person Literates": 1758624,
      "State": "RAJASTHAN",
      "Total Female Population": 1611418,
      "Marginal Workers worked for 0 - 3 moths during last year - Persons": 68702,
      "Marginal Workers Cultivators - Females": 155638,
      "Marginal Workers Other - Persons": 63825,
      "Sex Ratio": 950,
      "Scheduled Tribe Persons": 10418,
      "Marginal Workers Household Industry worked for 3 - 6 moths during last year - Males": 2761,
      "Marginal Workers Agricultural Labourers - Females": 89743,
      "Mean age at marriage for girls DLHS-4": 20.1,
      "Households with solar energy as main source of lighting  Houselisting and Housing Census Data Tables- District Level , Census of India__4": 3414,
      "District": "NAGAUR",
      "Households receiving treated tap water within premises in percentage Houselisting and Housing Census Data Tables- District Level , Census of India__1": 19.27043999,
      "Total Workers  Persons": 1425882,
      "Households receiving treated tap water within premises  Houselisting and Housing Census Data Tables- District Level , Census of India__4": 112528,
      "Primary Female Teachers in percentage DISE": 19.9,
      "Number of Households": 578809,
      "Main Workers Agricultural Labourers - Persons": 123675
    }
  ],
  "Rural": [
    {
      "Marginal Workers Agricultural Labourers - Persons": 133913,
      "Marginal Workers Other - Females": 23408,
      "Marginal Workers Other worked for 0 - 3 moths during last year - Females": 6096,
      "Upper Primary Schools with boys toilet in percentage DISE": "NA",
      "Total Population": 2670539,
      "Households with electricity as main source of lighting in percentage Houselisting and Housing Census Data Tables- District Level , Census of India": 53.12694024,
      "Primary Girl's Enrolment in percentage DISE": "NA",
      "Marginal Workers worked for 3 - 6 moths during last year - Males": 126476,
      "Prevalence of Acute illness in percentage DLHS-4": "Not available",
      "Main Workers - Persons": 824159,
      "Main Workers Cultivators - Females": 197477,
      "Marginal Workers Agricultural Labourers worked for 3 - 6 moths during last year - Females": 73454,
      "Marginal Workers Other worked for 0 - 3 moths during last year - Males": 3449,
      "Upper Primary Schools with drinking water facility in percentage DISE": "NA",
      "Primary Schools with girls toilet in percentage DISE": "NA",
      "Marginal Workers worked for 3 - 6 moths during last year - Persons": 349350,
      "Upper Primary Drop Out Rate in percentage DISE": "NA",
      "Prevalence of Anaemia in pregnant women aged 15-49years in percentage DLHS-4": "Not available",
      "Current use of any modern method of family planning in percentage DLHS-4": 62.8,
      "Marginal Workers Agricultural Labourers - Males": 47220,
      "Upper Primary Female Teachers in percentage DISE": "NA",
      "Marginal Workers - Females": 267227,
      "Marginal Workers Other worked for 3 - 6 moths during last year - Persons": 39212,
      "Main Workers Agricultural Labourers - Females": 47435,
      "Marginal Workers Cultivators worked for 3 - 6 moths during last year - Females": 129724,
      "Households with no lighting  Houselisting and Housing Census Data Tables- District Level , Census of India__5": 3657,
      "Prevalence of Severe Anaemia  in percentage DLHS-4": "Not available",
      "Total unmet need for family planning in percentage DLHS-4": 15.2,
      "Main Workers Other - Males": 175584,
      "Children who received full vaccination in percentage DLHS-4": "Not available",
      "Marginal Workers Household Industry - Persons": 6047,
      "Primary Pupil-Teacher Ratio in percentage DISE": "NA",
      "Marginal Workers Agricultural Labourers worked for 3 - 6 moths during last year - Males": 41624,
      "Scheduled Caste Females": 297478,
      "Marginal Workers Cultivators - Males": 71760,
      "Marginal Workers - Males": 146844,
      "Marginal Workers worked for 0 - 3 moths during last year - Females": 44353,
      "Households with main source of drinking water within premises in percentage Houselisting and Housing Census Data Tables- District Level , Census of India": 20.61102511,
      "Marginal Workers Household Industry worked for 3 - 6 moths during last year - Persons": 4482,
      "Upper Primary Girl's Enrolment in percentage DISE": "NA",
      "Prevalence of Severe Anaemia in women aged 15-49years in percentage DLHS-4": "Not available",
      "Marginal Workers Agricultural Labourers worked for 0 - 3 moths during last year - Males": 5596,
      "Households with electricity as main source of lighting  Houselisting and Housing Census Data Tables- District Level , Census of India__3": 256703,
      "Households with computer or laptop with internet connection in percentage": 0.41,
      "PHCs functioning on a 24x7hours basis in percentage DLHS-4": "Not applicable",
      "Non Workers - Males": 669730,
      "Total Households in District Houselisting and Housing Census Data Tables- District Level , Census of India": 483188,
      "Upper Primary Schools with girls toilet in percentage DISE": "NA",
      "Households with mobile phone in percentage": 73.24,
      "Households receiving untreated tap water within premises in percentage Houselisting and Housing Census Data Tables- District Level , Census of India__2": 5.237505898,
      "Marginal Workers Cultivators worked for 3 - 6 moths during last year - Males": 60854,
      "Prevalence of Anaemia  in percentage DLHS-4": "Not available",
      "Prevalence of Chronic illness in percentage DLHS-4": "Not available",
      "Households with solar energy as main source of lighting in percentage Houselisting and Housing Census Data Tables- District Level , Census of India__1": 0.671995165,
      "Marginal Workers Agricultural Labourers worked for 0 - 3 moths during last year - Females": 13239,
      "Main Workers - Males": 552197,
      "Female": "NA",
      "Sno": 1513,
      "Marginal Workers Other worked for 3 - 6 moths during last year - Females": 17312,
      "Marginal Workers Cultivators worked for 0 - 3 moths during last year - Females": 23870,
      "Scheduled Tribe Males": 4725,
      "Male Illiterates": 493534,
      "Prevalence of Severe Anaemia in pregnant women aged 15-49years in percentage DLHS-4": "Not available",
      "0-6 Age Group Persons": 412432,
      "Upper Primary Student-Classroom Ratio in percentage DISE": "NA",
      "Currently married men married below 21years of age in percentage DLHS-4": 35.6,
      "Male Literates": 875237,
      "Households with no lighting in percentage Houselisting and Housing Census Data Tables- District Level , Census of India__2": 0.756848266,
      "Primary Drop Out Rate in percentage DISE": "NA",
      "Marginal Workers Household Industry - Males": 2515,
      "Female Illiterates": 801584,
      "Main Workers Other - Females": 23920,
      "Marginal Workers Cultivators - Persons": 225354,
      "Upper Primary Gross Enrolment Ratio in percentage DISE": "NA",
      "Scheduled Caste Persons": 613527,
      "Marginal Workers Cultivators worked for 3 - 6 moths during last year - Persons": 190578,
      "Households with landline phone in percentage": 1.7,
      "Total Households in District  Houselisting and Housing Census Data Tables- District Level , Census of India": 483188,
      "Upper Primary Pupil-Teacher Ratio in percentage DISE": "NA",
      "Primary Student-Classroom Ratio in percentage DISE": "NA",
      "Primary Schools with boys toilet in percentage DISE": "NA",
      "Mean number of children ever born to women aged 40-49years  DLHS-4": "Not available",
      "Households receiving untreated tap water within premises  Houselisting and Housing Census Data Tables- District Level , Census of India__5": 25307,
      "Marginal Workers Household Industry worked for 0 - 3 moths during last year - Persons": 1565,
      "Total Male Population": 1368771,
      "Non Workers - Females": 762579,
      "Current use of family planning methods in percentage DLHS-4": 68.5,
      "Households with main source of drinking water within premises  Houselisting and Housing Census Data Tables- District Level , Census of India__3": 99590,
      "Main Workers Agricultural Labourers - Males": 66710,
      "Marginal Workers Other worked for 0 - 3 moths during last year - Persons": 9545,
      "Currently married women married below 18years of age in percentage DLHS-4": 16.5,
      "Person Illiterates": 1295118,
      "Main Workers Household Industry - Females": 3130,
      "Female Literates": 500184,
      "Marginal Workers Cultivators worked for 0 - 3 moths during last year - Males": 10906,
      "Male": "NA",
      "Households with improved source of drinking water in percentage DLHS-4": "Not available",
      "Upper Primary Schools with electricity in percentage DISE": "NA",
      "Households with electricity in percentage DLHS-4": "Not available",
      "Villages with Primary Health Centre within 10km in percentage DLHS-4": "Not applicable",
      "Births to women aged 15-19years out of Total births in percentage DLHS-4": "Not available",
      "Prevalence of Anaemia in women aged 15-49years in percentage DLHS-4": "Not available",
      "Marginal Workers Agricultural Labourers worked for 3 - 6 moths during last year - Persons": 115078,
      "Main Workers Household Industry - Males": 11051,
      "Scheduled Tribe Females": 4336,
      "Marginal Workers worked for 0 - 3 moths during last year - Males": 20368,
      "Marginal Workers Other worked for 3 - 6 moths during last year - Males": 21900,
      "Primary Net Enrolment Ratio in percentage DISE": "NA",
      "Total": "NA",
      "Mean age at marriage for boys DLHS-4": 21.5,
      "Number of District Hospitals  DLHS-4": "Not applicable",
      "0-6 Age Group Females": 194715,
      "Marginal Workers Agricultural Labourers worked for 0 - 3 moths during last year - Persons": 18835,
      "Marginal Workers Household Industry worked for 0 - 3 moths during last year - Males": 417,
      "Total Workers  Females": 539189,
      "Marginal Workers worked for 3 - 6 moths during last year - Females": 222874,
      "Institutional Deliveries in percentage DLHS-4": 82.6,
      "Marginal Workers Other - Males": 25349,
      "Total Workers  Males": 699041,
      "Main Workers - Females": 271962,
      "Primary Gross Enrolment Ratio in percentage DISE": "NA",
      "Main Workers Cultivators - Persons": 496329,
      "Marginal Workers Household Industry worked for 0 - 3 moths during last year - Females": 1148,
      "Upper Primary Net Enrolment Ratio in percentage DISE": "NA",
      "Primary New Government Schools since 2003 in percentage DISE": "NA",
      "Tier": "Rural",
      "Marginal Workers Household Industry - Females": 3532,
      "Primary Schools with electricity in percentage DISE": "NA",
      "Main Workers Other - Persons": 199504,
      "Marginal Workers Household Industry worked for 3 - 6 moths during last year - Females": 2384,
      "Main Workers Cultivators - Males": 298852,
      "Main Workers Household Industry - Persons": 14181,
      "Marginal Workers Cultivators worked for 0 - 3 moths during last year - Persons": 34776,
      "Scheduled Caste Males": 316049,
      "Marginal Workers - Persons": 414071,
      "Deliveries at home conducted by skilled health personnel in percentage DLHS-4": 43.1,
      "Villages with Sub-Health Centres within 3km in percentage DLHS-4": "Not applicable",
      "Upper Primary New Government Schools since 2003 in percentage DISE": "NA",
      "0-6 Age Group Males": 217717,
      "Primary Schools with drinking water facility in percentage DISE": "NA",
      "Non Workers - Persons": 1432309,
      "Person Literates": 1375421,
      "State": "RAJASTHAN",
      "Total Female Population": 1301768,
      "Marginal Workers worked for 0 - 3 moths during last year - Persons": 64721,
      "Marginal Workers Cultivators - Females": 153594,
      "Marginal Workers Other - Persons": 48757,
      "Sex Ratio": 951,
      "Scheduled Tribe Persons": 9061,
      "Marginal Workers Household Industry worked for 3 - 6 moths during last year - Males": 2098,
      "Marginal Workers Agricultural Labourers - Females": 86693,
      "Mean age at marriage for girls DLHS-4": 19.9,
      "Households with solar energy as main source of lighting  Houselisting and Housing Census Data Tables- District Level , Census of India__4": 3247,
      "District": "NAGAUR",
      "Households receiving treated tap water within premises in percentage Houselisting and Housing Census Data Tables- District Level , Census of India__1": 11.51725622,
      "Total Workers  Persons": 1238230,
      "Households receiving treated tap water within premises  Houselisting and Housing Census Data Tables- District Level , Census of India__4": 55650,
      "Primary Female Teachers in percentage DISE": "NA",
      "Number of Households": 476736,
      "Main Workers Agricultural Labourers - Persons": 114145
    }
  ],
  "Urban": [
    {
      "Marginal Workers Agricultural Labourers - Persons": 5813,
      "Marginal Workers Other - Females": 5544,
      "Marginal Workers Other worked for 0 - 3 moths during last year - Females": 815,
      "Upper Primary Schools with boys toilet in percentage DISE": "NA",
      "Total Population": 637204,
      "Households with electricity as main source of lighting in percentage Houselisting and Housing Census Data Tables- District Level , Census of India": 89.96357429,
      "Primary Girl's Enrolment in percentage DISE": "NA",
      "Marginal Workers worked for 3 - 6 moths during last year - Males": 12384,
      "Prevalence of Acute illness in percentage DLHS-4": "Not available",
      "Main Workers - Persons": 161768,
      "Main Workers Cultivators - Females": 2570,
      "Marginal Workers Agricultural Labourers worked for 3 - 6 moths during last year - Females": 2162,
      "Marginal Workers Other worked for 0 - 3 moths during last year - Males": 1127,
      "Upper Primary Schools with drinking water facility in percentage DISE": "NA",
      "Primary Schools with girls toilet in percentage DISE": "NA",
      "Marginal Workers worked for 3 - 6 moths during last year - Persons": 21903,
      "Upper Primary Drop Out Rate in percentage DISE": "NA",
      "Prevalence of Anaemia in pregnant women aged 15-49years in percentage DLHS-4": "Not available",
      "Current use of any modern method of family planning in percentage DLHS-4": 58.2,
      "Marginal Workers Agricultural Labourers - Males": 2763,
      "Upper Primary Female Teachers in percentage DISE": "NA",
      "Marginal Workers - Females": 11776,
      "Marginal Workers Other worked for 3 - 6 moths during last year - Persons": 13126,
      "Main Workers Agricultural Labourers - Females": 2596,
      "Marginal Workers Cultivators worked for 3 - 6 moths during last year - Females": 1772,
      "Households with no lighting  Houselisting and Housing Census Data Tables- District Level , Census of India__5": 678,
      "Prevalence of Severe Anaemia  in percentage DLHS-4": "Not available",
      "Total unmet need for family planning in percentage DLHS-4": 14.5,
      "Main Workers Other - Males": 123471,
      "Children who received full vaccination in percentage DLHS-4": "Not available",
      "Marginal Workers Household Industry - Persons": 1918,
      "Primary Pupil-Teacher Ratio in percentage DISE": "NA",
      "Marginal Workers Agricultural Labourers worked for 3 - 6 moths during last year - Males": 2389,
      "Scheduled Caste Females": 41982,
      "Marginal Workers Cultivators - Males": 1041,
      "Marginal Workers - Males": 14108,
      "Marginal Workers worked for 0 - 3 moths during last year - Females": 2257,
      "Households with main source of drinking water within premises in percentage Houselisting and Housing Census Data Tables- District Level , Census of India": 66.12507816,
      "Marginal Workers Household Industry worked for 3 - 6 moths during last year - Persons": 1519,
      "Upper Primary Girl's Enrolment in percentage DISE": "NA",
      "Prevalence of Severe Anaemia in women aged 15-49years in percentage DLHS-4": "Not available",
      "Marginal Workers Agricultural Labourers worked for 0 - 3 moths during last year - Males": 374,
      "Households with electricity as main source of lighting  Houselisting and Housing Census Data Tables- District Level , Census of India__3": 90641,
      "Households with computer or laptop with internet connection in percentage": 2.43,
      "PHCs functioning on a 24x7hours basis in percentage DLHS-4": 0,
      "Non Workers - Males": 169564,
      "Total Households in District Houselisting and Housing Census Data Tables- District Level , Census of India": 100753,
      "Upper Primary Schools with girls toilet in percentage DISE": "NA",
      "Households with mobile phone in percentage": 71.7,
      "Households receiving untreated tap water within premises in percentage Houselisting and Housing Census Data Tables- District Level , Census of India__2": 8.45930146,
      "Marginal Workers Cultivators worked for 3 - 6 moths during last year - Males": 935,
      "Prevalence of Anaemia  in percentage DLHS-4": "Not available",
      "Prevalence of Chronic illness in percentage DLHS-4": "Not available",
      "Households with solar energy as main source of lighting in percentage Houselisting and Housing Census Data Tables- District Level , Census of India__1": 0.165751888,
      "Marginal Workers Agricultural Labourers worked for 0 - 3 moths during last year - Females": 888,
      "Main Workers - Males": 143882,
      "Female": "NA",
      "Sno": 1515,
      "Marginal Workers Other worked for 3 - 6 moths during last year - Females": 4729,
      "Marginal Workers Cultivators worked for 0 - 3 moths during last year - Females": 272,
      "Scheduled Tribe Males": 750,
      "Male Illiterates": 100041,
      "Prevalence of Severe Anaemia in pregnant women aged 15-49years in percentage DLHS-4": "Not available",
      "0-6 Age Group Persons": 94744,
      "Upper Primary Student-Classroom Ratio in percentage DISE": "NA",
      "Currently married men married below 21years of age in percentage DLHS-4": 13.4,
      "Male Literates": 227513,
      "Households with no lighting in percentage Houselisting and Housing Census Data Tables- District Level , Census of India__2": 0.672932816,
      "Primary Drop Out Rate in percentage DISE": "NA",
      "Marginal Workers Household Industry - Males": 780,
      "Female Illiterates": 153960,
      "Main Workers Other - Females": 11420,
      "Marginal Workers Cultivators - Persons": 3085,
      "Upper Primary Gross Enrolment Ratio in percentage DISE": "NA",
      "Scheduled Caste Persons": 86384,
      "Marginal Workers Cultivators worked for 3 - 6 moths during last year - Persons": 2707,
      "Households with landline phone in percentage": 3.5,
      "Total Households in District  Houselisting and Housing Census Data Tables- District Level , Census of India": 100753,
      "Upper Primary Pupil-Teacher Ratio in percentage DISE": "NA",
      "Primary Student-Classroom Ratio in percentage DISE": "NA",
      "Primary Schools with boys toilet in percentage DISE": "NA",
      "Mean number of children ever born to women aged 40-49years  DLHS-4": "Not available",
      "Households receiving untreated tap water within premises  Houselisting and Housing Census Data Tables- District Level , Census of India__5": 8523,
      "Marginal Workers Household Industry worked for 0 - 3 moths during last year - Persons": 399,
      "Total Male Population": 327554,
      "Non Workers - Females": 279988,
      "Current use of family planning methods in percentage DLHS-4": 68.9,
      "Households with main source of drinking water within premises  Houselisting and Housing Census Data Tables- District Level , Census of India__3": 66623,
      "Main Workers Agricultural Labourers - Males": 6934,
      "Marginal Workers Other worked for 0 - 3 moths during last year - Persons": 1942,
      "Currently married women married below 18years of age in percentage DLHS-4": 8.8,
      "Person Illiterates": 254001,
      "Main Workers Household Industry - Females": 1300,
      "Female Literates": 155690,
      "Marginal Workers Cultivators worked for 0 - 3 moths during last year - Males": 106,
      "Male": "NA",
      "Households with improved source of drinking water in percentage DLHS-4": "Not available",
      "Upper Primary Schools with electricity in percentage DISE": "NA",
      "Households with electricity in percentage DLHS-4": "Not available",
      "Villages with Primary Health Centre within 10km in percentage DLHS-4": 0,
      "Births to women aged 15-19years out of Total births in percentage DLHS-4": "Not available",
      "Prevalence of Anaemia in women aged 15-49years in percentage DLHS-4": "Not available",
      "Marginal Workers Agricultural Labourers worked for 3 - 6 moths during last year - Persons": 4551,
      "Main Workers Household Industry - Males": 6201,
      "Scheduled Tribe Females": 607,
      "Marginal Workers worked for 0 - 3 moths during last year - Males": 1724,
      "Marginal Workers Other worked for 3 - 6 moths during last year - Males": 8397,
      "Primary Net Enrolment Ratio in percentage DISE": "NA",
      "Total": "NA",
      "Mean age at marriage for boys DLHS-4": 23.1,
      "Number of District Hospitals  DLHS-4": 0,
      "0-6 Age Group Females": 45070,
      "Marginal Workers Agricultural Labourers worked for 0 - 3 moths during last year - Persons": 1262,
      "Marginal Workers Household Industry worked for 0 - 3 moths during last year - Males": 117,
      "Total Workers  Females": 29662,
      "Marginal Workers worked for 3 - 6 moths during last year - Females": 9519,
      "Institutional Deliveries in percentage DLHS-4": 87.8,
      "Marginal Workers Other - Males": 9524,
      "Total Workers  Males": 157990,
      "Main Workers - Females": 17886,
      "Primary Gross Enrolment Ratio in percentage DISE": "NA",
      "Main Workers Cultivators - Persons": 9846,
      "Marginal Workers Household Industry worked for 0 - 3 moths during last year - Females": 282,
      "Upper Primary Net Enrolment Ratio in percentage DISE": "NA",
      "Primary New Government Schools since 2003 in percentage DISE": "NA",
      "Tier": "Urban",
      "Marginal Workers Household Industry - Females": 1138,
      "Primary Schools with electricity in percentage DISE": "NA",
      "Main Workers Other - Persons": 134891,
      "Marginal Workers Household Industry worked for 3 - 6 moths during last year - Females": 856,
      "Main Workers Cultivators - Males": 7276,
      "Main Workers Household Industry - Persons": 7501,
      "Marginal Workers Cultivators worked for 0 - 3 moths during last year - Persons": 378,
      "Scheduled Caste Males": 44402,
      "Marginal Workers - Persons": 25884,
      "Deliveries at home conducted by skilled health personnel in percentage DLHS-4": 56.7,
      "Villages with Sub-Health Centres within 3km in percentage DLHS-4": 0,
      "Upper Primary New Government Schools since 2003 in percentage DISE": "NA",
      "0-6 Age Group Males": 49674,
      "Primary Schools with drinking water facility in percentage DISE": "NA",
      "Non Workers - Persons": 449552,
      "Person Literates": 383203,
      "State": "RAJASTHAN",
      "Total Female Population": 309650,
      "Marginal Workers worked for 0 - 3 moths during last year - Persons": 3981,
      "Marginal Workers Cultivators - Females": 2044,
      "Marginal Workers Other - Persons": 15068,
      "Sex Ratio": 945,
      "Scheduled Tribe Persons": 1357,
      "Marginal Workers Household Industry worked for 3 - 6 moths during last year - Males": 663,
      "Marginal Workers Agricultural Labourers - Females": 3050,
      "Mean age at marriage for girls DLHS-4": 21.1,
      "Households with solar energy as main source of lighting  Houselisting and Housing Census Data Tables- District Level , Census of India__4": 167,
      "District": "NAGAUR",
      "Households receiving treated tap water within premises in percentage Houselisting and Housing Census Data Tables- District Level , Census of India__1": 56.45290959,
      "Total Workers  Persons": 187652,
      "Households receiving treated tap water within premises  Houselisting and Housing Census Data Tables- District Level , Census of India__4": 56878,
      "Primary Female Teachers in percentage DISE": "NA",
      "Number of Households": 102073,
      "Main Workers Agricultural Labourers - Persons": 9530
    }
  ]
}