{
  "Total": [
    {
      "Marginal Workers Agricultural Labourers - Persons": 8261,
      "Marginal Workers Other - Females": 4001,
      "Marginal Workers Other worked for 0 - 3 moths during last year - Females": 945,
      "Upper Primary Schools with boys toilet in percentage DISE": 0,
      "Total Population": 409936,
      "Households with electricity as main source of lighting in percentage Houselisting and Housing Census Data Tables- District Level , Census of India": 78.64538285,
      "Primary Girl's Enrolment in percentage DISE": 49.2,
      "Marginal Workers worked for 3 - 6 moths during last year - Males": 25793,
      "Prevalence of Acute illness in percentage DLHS-4": "Not available",
      "Main Workers - Persons": 79377,
      "Main Workers Cultivators - Females": 3669,
      "Marginal Workers Agricultural Labourers worked for 3 - 6 moths during last year - Females": 2853,
      "Marginal Workers Other worked for 0 - 3 moths during last year - Males": 2159,
      "Upper Primary Schools with drinking water facility in percentage DISE": 100,
      "Primary Schools with girls toilet in percentage DISE": 95.3,
      "Marginal Workers worked for 3 - 6 moths during last year - Persons": 51264,
      "Upper Primary Drop Out Rate in percentage DISE": 2.34,
      "Prevalence of Anaemia in pregnant women aged 15-49years in percentage DLHS-4": "Not available",
      "Current use of any modern method of family planning in percentage DLHS-4": "Not available",
      "Marginal Workers Agricultural Labourers - Males": 4698,
      "Upper Primary Female Teachers in percentage DISE": 95,
      "Marginal Workers - Females": 39740,
      "Marginal Workers Other worked for 3 - 6 moths during last year - Persons": 13919,
      "Main Workers Agricultural Labourers - Females": 422,
      "Marginal Workers Cultivators worked for 3 - 6 moths during last year - Females": 19216,
      "Households with no lighting  Houselisting and Housing Census Data Tables- District Level , Census of India__5": 4018,
      "Prevalence of Severe Anaemia  in percentage DLHS-4": "Not available",
      "Total unmet need for family planning in percentage DLHS-4": "Not available",
      "Main Workers Other - Males": 43981,
      "Children who received full vaccination in percentage DLHS-4": "Not available",
      "Marginal Workers Household Industry - Persons": 1353,
      "Primary Pupil-Teacher Ratio in percentage DISE": 12,
      "Marginal Workers Agricultural Labourers worked for 3 - 6 moths during last year - Males": 3513,
      "Scheduled Caste Females": 26199,
      "Marginal Workers Cultivators - Males": 14676,
      "Marginal Workers - Males": 32795,
      "Marginal Workers worked for 0 - 3 moths during last year - Females": 14269,
      "Households with main source of drinking water within premises in percentage Houselisting and Housing Census Data Tables- District Level , Census of India": 31.86720936,
      "Marginal Workers Household Industry worked for 3 - 6 moths during last year - Persons": 667,
      "Upper Primary Girl's Enrolment in percentage DISE": 100,
      "Prevalence of Severe Anaemia in women aged 15-49years in percentage DLHS-4": "Not available",
      "Marginal Workers Agricultural Labourers worked for 0 - 3 moths during last year - Males": 1185,
      "Households with electricity as main source of lighting  Houselisting and Housing Census Data Tables- District Level , Census of India__3": 61831,
      "Households with computer or laptop with internet connection in percentage": 0.76,
      "PHCs functioning on a 24x7hours basis in percentage DLHS-4": "Not available",
      "Non Workers - Males": 112497,
      "Total Households in District Houselisting and Housing Census Data Tables- District Level , Census of India": 78620,
      "Upper Primary Schools with girls toilet in percentage DISE": 100,
      "Households with mobile phone in percentage": 56.47,
      "Households receiving untreated tap water within premises in percentage Houselisting and Housing Census Data Tables- District Level , Census of India__2": 20.86619181,
      "Marginal Workers Cultivators worked for 3 - 6 moths during last year - Males": 11096,
      "Prevalence of Anaemia  in percentage DLHS-4": "Not available",
      "Prevalence of Chronic illness in percentage DLHS-4": "Not available",
      "Households with solar energy as main source of lighting in percentage Houselisting and Housing Census Data Tables- District Level , Census of India__1": 0.831849402,
      "Marginal Workers Agricultural Labourers worked for 0 - 3 moths during last year - Females": 710,
      "Main Workers - Males": 68349,
      "Female": 49.69,
      "Sno": 638,
      "Marginal Workers Other worked for 3 - 6 moths during last year - Females": 3056,
      "Marginal Workers Cultivators worked for 0 - 3 moths during last year - Females": 12006,
      "Scheduled Tribe Males": 20377,
      "Male Illiterates": 75021,
      "Prevalence of Severe Anaemia in pregnant women aged 15-49years in percentage DLHS-4": "Not available",
      "0-6 Age Group Persons": 71240,
      "Upper Primary Student-Classroom Ratio in percentage DISE": 11,
      "Currently married men married below 21years of age in percentage DLHS-4": "Not available",
      "Male Literates": 138620,
      "Households with no lighting in percentage Houselisting and Housing Census Data Tables- District Level , Census of India__2": 5.110658865,
      "Primary Drop Out Rate in percentage DISE": 6.1,
      "Marginal Workers Household Industry - Males": 399,
      "Female Illiterates": 115832,
      "Main Workers Other - Females": 6830,
      "Marginal Workers Cultivators - Persons": 45898,
      "Upper Primary Gross Enrolment Ratio in percentage DISE": 80.9,
      "Scheduled Caste Persons": 53408,
      "Marginal Workers Cultivators worked for 3 - 6 moths during last year - Persons": 30312,
      "Households with landline phone in percentage": 1.61,
      "Total Households in District  Houselisting and Housing Census Data Tables- District Level , Census of India": 78620,
      "Upper Primary Pupil-Teacher Ratio in percentage DISE": 5,
      "Primary Student-Classroom Ratio in percentage DISE": 10,
      "Primary Schools with boys toilet in percentage DISE": 100,
      "Mean number of children ever born to women aged 40-49years  DLHS-4": "Not available",
      "Households receiving untreated tap water within premises  Houselisting and Housing Census Data Tables- District Level , Census of India__5": 16405,
      "Marginal Workers Household Industry worked for 0 - 3 moths during last year - Persons": 686,
      "Total Male Population": 213641,
      "Non Workers - Females": 145527,
      "Current use of family planning methods in percentage DLHS-4": "Not available",
      "Households with main source of drinking water within premises  Houselisting and Housing Census Data Tables- District Level , Census of India__3": 25054,
      "Main Workers Agricultural Labourers - Males": 3516,
      "Marginal Workers Other worked for 0 - 3 moths during last year - Persons": 3104,
      "Currently married women married below 18years of age in percentage DLHS-4": "Not available",
      "Person Illiterates": 190853,
      "Main Workers Household Industry - Females": 107,
      "Female Literates": 80463,
      "Marginal Workers Cultivators worked for 0 - 3 moths during last year - Males": 3580,
      "Male": 78.41,
      "Households with improved source of drinking water in percentage DLHS-4": "Not available",
      "Upper Primary Schools with electricity in percentage DISE": 80,
      "Households with electricity in percentage DLHS-4": "Not available",
      "Villages with Primary Health Centre within 10km in percentage DLHS-4": "Not available",
      "Births to women aged 15-19years out of Total births in percentage DLHS-4": "Not available",
      "Prevalence of Anaemia in women aged 15-49years in percentage DLHS-4": "Not available",
      "Marginal Workers Agricultural Labourers worked for 3 - 6 moths during last year - Persons": 6366,
      "Main Workers Household Industry - Males": 472,
      "Scheduled Tribe Females": 18839,
      "Marginal Workers worked for 0 - 3 moths during last year - Males": 7002,
      "Marginal Workers Other worked for 3 - 6 moths during last year - Males": 10863,
      "Primary Net Enrolment Ratio in percentage DISE": 80.9,
      "Total": 64.68,
      "Mean age at marriage for boys DLHS-4": "Not available",
      "Number of District Hospitals  DLHS-4": "Not available",
      "0-6 Age Group Females": 34378,
      "Marginal Workers Agricultural Labourers worked for 0 - 3 moths during last year - Persons": 1895,
      "Marginal Workers Household Industry worked for 0 - 3 moths during last year - Males": 78,
      "Total Workers  Females": 50768,
      "Marginal Workers worked for 3 - 6 moths during last year - Females": 25471,
      "Institutional Deliveries in percentage DLHS-4": "Not available",
      "Marginal Workers Other - Males": 13022,
      "Total Workers  Males": 101144,
      "Main Workers - Females": 11028,
      "Primary Gross Enrolment Ratio in percentage DISE": 97.6,
      "Main Workers Cultivators - Persons": 24049,
      "Marginal Workers Household Industry worked for 0 - 3 moths during last year - Females": 608,
      "Upper Primary Net Enrolment Ratio in percentage DISE": 63.1,
      "Primary New Government Schools since 2003 in percentage DISE": 80.2,
      "Tier": "Total",
      "Marginal Workers Household Industry - Females": 954,
      "Primary Schools with electricity in percentage DISE": 4.7,
      "Main Workers Other - Persons": 50811,
      "Marginal Workers Household Industry worked for 3 - 6 moths during last year - Females": 346,
      "Main Workers Cultivators - Males": 20380,
      "Main Workers Household Industry - Persons": 579,
      "Marginal Workers Cultivators worked for 0 - 3 moths during last year - Persons": 15586,
      "Scheduled Caste Males": 27209,
      "Marginal Workers - Persons": 72535,
      "Deliveries at home conducted by skilled health personnel in percentage DLHS-4": "Not available",
      "Villages with Sub-Health Centres within 3km in percentage DLHS-4": "Not available",
      "Upper Primary New Government Schools since 2003 in percentage DISE": 100,
      "0-6 Age Group Males": 36862,
      "Primary Schools with drinking water facility in percentage DISE": 85.9,
      "Non Workers - Persons": 258024,
      "Person Literates": 219083,
      "State": "JAMMU AND KASHMIR",
      "Total Female Population": 196295,
      "Marginal Workers worked for 0 - 3 moths during last year - Persons": 21271,
      "Marginal Workers Cultivators - Females": 31222,
      "Marginal Workers Other - Persons": 17023,
      "Sex Ratio": 919,
      "Scheduled Tribe Persons": 39216,
      "Marginal Workers Household Industry worked for 3 - 6 moths during last year - Males": 321,
      "Marginal Workers Agricultural Labourers - Females": 3563,
      "Mean age at marriage for girls DLHS-4": "Not available",
      "Households with solar energy as main source of lighting  Houselisting and Housing Census Data Tables- District Level , Census of India__4": 654,
      "District": "DODA",
      "Households receiving treated tap water within premises in percentage Houselisting and Housing Census Data Tables- District Level , Census of India__1": 10.66140931,
      "Total Workers  Persons": 151912,
      "Households receiving treated tap water within premises  Houselisting and Housing Census Data Tables- District Level , Census of India__4": 8382,
      "Primary Female Teachers in percentage DISE": 35.2,
      "Number of Households": 79636,
      "Main Workers Agricultural Labourers - Persons": 3938
    }
  ],
  "Rural": [
    {
      "Marginal Workers Agricultural Labourers - Persons": 8184,
      "Marginal Workers Other - Females": 3930,
      "Marginal Workers Other worked for 0 - 3 moths during last year - Females": 933,
      "Upper Primary Schools with boys toilet in percentage DISE": "NA",
      "Total Population": 377247,
      "Households with electricity as main source of lighting in percentage Houselisting and Housing Census Data Tables- District Level , Census of India": 76.94681731,
      "Primary Girl's Enrolment in percentage DISE": "NA",
      "Marginal Workers worked for 3 - 6 moths during last year - Males": 25505,
      "Prevalence of Acute illness in percentage DLHS-4": "Not available",
      "Main Workers - Persons": 69690,
      "Main Workers Cultivators - Females": 3666,
      "Marginal Workers Agricultural Labourers worked for 3 - 6 moths during last year - Females": 2850,
      "Marginal Workers Other worked for 0 - 3 moths during last year - Males": 2108,
      "Upper Primary Schools with drinking water facility in percentage DISE": "NA",
      "Primary Schools with girls toilet in percentage DISE": "NA",
      "Marginal Workers worked for 3 - 6 moths during last year - Persons": 50801,
      "Upper Primary Drop Out Rate in percentage DISE": "NA",
      "Prevalence of Anaemia in pregnant women aged 15-49years in percentage DLHS-4": "Not available",
      "Current use of any modern method of family planning in percentage DLHS-4": "Not available",
      "Marginal Workers Agricultural Labourers - Males": 4626,
      "Upper Primary Female Teachers in percentage DISE": "NA",
      "Marginal Workers - Females": 39504,
      "Marginal Workers Other worked for 3 - 6 moths during last year - Persons": 13623,
      "Main Workers Agricultural Labourers - Females": 420,
      "Marginal Workers Cultivators worked for 3 - 6 moths during last year - Females": 19106,
      "Households with no lighting  Houselisting and Housing Census Data Tables- District Level , Census of India__5": 4005,
      "Prevalence of Severe Anaemia  in percentage DLHS-4": "Not available",
      "Total unmet need for family planning in percentage DLHS-4": "Not available",
      "Main Workers Other - Males": 35799,
      "Children who received full vaccination in percentage DLHS-4": "Not available",
      "Marginal Workers Household Industry - Persons": 1341,
      "Primary Pupil-Teacher Ratio in percentage DISE": "NA",
      "Marginal Workers Agricultural Labourers worked for 3 - 6 moths during last year - Males": 3488,
      "Scheduled Caste Females": 25680,
      "Marginal Workers Cultivators - Males": 14621,
      "Marginal Workers - Males": 32371,
      "Marginal Workers worked for 0 - 3 moths during last year - Females": 14208,
      "Households with main source of drinking water within premises in percentage Houselisting and Housing Census Data Tables- District Level , Census of India": 27.19206393,
      "Marginal Workers Household Industry worked for 3 - 6 moths during last year - Persons": 658,
      "Upper Primary Girl's Enrolment in percentage DISE": "NA",
      "Prevalence of Severe Anaemia in women aged 15-49years in percentage DLHS-4": "Not available",
      "Marginal Workers Agricultural Labourers worked for 0 - 3 moths during last year - Males": 1138,
      "Households with electricity as main source of lighting  Houselisting and Housing Census Data Tables- District Level , Census of India__3": 55848,
      "Households with computer or laptop with internet connection in percentage": 0.59,
      "PHCs functioning on a 24x7hours basis in percentage DLHS-4": "Not applicable",
      "Non Workers - Males": 102953,
      "Total Households in District Houselisting and Housing Census Data Tables- District Level , Census of India": 72580,
      "Upper Primary Schools with girls toilet in percentage DISE": "NA",
      "Households with mobile phone in percentage": 54.49,
      "Households receiving untreated tap water within premises in percentage Houselisting and Housing Census Data Tables- District Level , Census of India__2": 19.83328741,
      "Marginal Workers Cultivators worked for 3 - 6 moths during last year - Males": 11076,
      "Prevalence of Anaemia  in percentage DLHS-4": "Not available",
      "Prevalence of Chronic illness in percentage DLHS-4": "Not available",
      "Households with solar energy as main source of lighting in percentage Houselisting and Housing Census Data Tables- District Level , Census of India__1": 0.896941306,
      "Marginal Workers Agricultural Labourers worked for 0 - 3 moths during last year - Females": 708,
      "Main Workers - Males": 60106,
      "Female": "NA",
      "Sno": 637,
      "Marginal Workers Other worked for 3 - 6 moths during last year - Females": 2997,
      "Marginal Workers Cultivators worked for 0 - 3 moths during last year - Females": 11959,
      "Scheduled Tribe Males": 20016,
      "Male Illiterates": 71611,
      "Prevalence of Severe Anaemia in pregnant women aged 15-49years in percentage DLHS-4": "Not available",
      "0-6 Age Group Persons": 67207,
      "Upper Primary Student-Classroom Ratio in percentage DISE": "NA",
      "Currently married men married below 21years of age in percentage DLHS-4": "Not available",
      "Male Literates": 123819,
      "Households with no lighting in percentage Houselisting and Housing Census Data Tables- District Level , Census of India__2": 5.518049049,
      "Primary Drop Out Rate in percentage DISE": "NA",
      "Marginal Workers Household Industry - Males": 390,
      "Female Illiterates": 111086,
      "Main Workers Other - Females": 5393,
      "Marginal Workers Cultivators - Persons": 45686,
      "Upper Primary Gross Enrolment Ratio in percentage DISE": "NA",
      "Scheduled Caste Persons": 52339,
      "Marginal Workers Cultivators worked for 3 - 6 moths during last year - Persons": 30182,
      "Households with landline phone in percentage": 1.56,
      "Total Households in District  Houselisting and Housing Census Data Tables- District Level , Census of India": 72580,
      "Upper Primary Pupil-Teacher Ratio in percentage DISE": "NA",
      "Primary Student-Classroom Ratio in percentage DISE": "NA",
      "Primary Schools with boys toilet in percentage DISE": "NA",
      "Mean number of children ever born to women aged 40-49years  DLHS-4": "Not available",
      "Households receiving untreated tap water within premises  Houselisting and Housing Census Data Tables- District Level , Census of India__5": 14395,
      "Marginal Workers Household Industry worked for 0 - 3 moths during last year - Persons": 683,
      "Total Male Population": 195430,
      "Non Workers - Females": 132729,
      "Current use of family planning methods in percentage DLHS-4": "Not available",
      "Households with main source of drinking water within premises  Houselisting and Housing Census Data Tables- District Level , Census of India__3": 19736,
      "Main Workers Agricultural Labourers - Males": 3485,
      "Marginal Workers Other worked for 0 - 3 moths during last year - Persons": 3041,
      "Currently married women married below 18years of age in percentage DLHS-4": "Not available",
      "Person Illiterates": 182697,
      "Main Workers Household Industry - Females": 105,
      "Female Literates": 70731,
      "Marginal Workers Cultivators worked for 0 - 3 moths during last year - Males": 3545,
      "Male": "NA",
      "Households with improved source of drinking water in percentage DLHS-4": "Not available",
      "Upper Primary Schools with electricity in percentage DISE": "NA",
      "Households with electricity in percentage DLHS-4": "Not available",
      "Villages with Primary Health Centre within 10km in percentage DLHS-4": "Not applicable",
      "Births to women aged 15-19years out of Total births in percentage DLHS-4": "Not available",
      "Prevalence of Anaemia in women aged 15-49years in percentage DLHS-4": "Not available",
      "Marginal Workers Agricultural Labourers worked for 3 - 6 moths during last year - Persons": 6338,
      "Main Workers Household Industry - Males": 460,
      "Scheduled Tribe Females": 18585,
      "Marginal Workers worked for 0 - 3 moths during last year - Males": 6866,
      "Marginal Workers Other worked for 3 - 6 moths during last year - Males": 10626,
      "Primary Net Enrolment Ratio in percentage DISE": "NA",
      "Total": "NA",
      "Mean age at marriage for boys DLHS-4": "Not available",
      "Number of District Hospitals  DLHS-4": "Not applicable",
      "0-6 Age Group Females": 32548,
      "Marginal Workers Agricultural Labourers worked for 0 - 3 moths during last year - Persons": 1846,
      "Marginal Workers Household Industry worked for 0 - 3 moths during last year - Males": 75,
      "Total Workers  Females": 49088,
      "Marginal Workers worked for 3 - 6 moths during last year - Females": 25296,
      "Institutional Deliveries in percentage DLHS-4": "Not available",
      "Marginal Workers Other - Males": 12734,
      "Total Workers  Males": 92477,
      "Main Workers - Females": 9584,
      "Primary Gross Enrolment Ratio in percentage DISE": "NA",
      "Main Workers Cultivators - Persons": 24028,
      "Marginal Workers Household Industry worked for 0 - 3 moths during last year - Females": 608,
      "Upper Primary Net Enrolment Ratio in percentage DISE": "NA",
      "Primary New Government Schools since 2003 in percentage DISE": "NA",
      "Tier": "Rural",
      "Marginal Workers Household Industry - Females": 951,
      "Primary Schools with electricity in percentage DISE": "NA",
      "Main Workers Other - Persons": 41192,
      "Marginal Workers Household Industry worked for 3 - 6 moths during last year - Females": 343,
      "Main Workers Cultivators - Males": 20362,
      "Main Workers Household Industry - Persons": 565,
      "Marginal Workers Cultivators worked for 0 - 3 moths during last year - Persons": 15504,
      "Scheduled Caste Males": 26659,
      "Marginal Workers - Persons": 71875,
      "Deliveries at home conducted by skilled health personnel in percentage DLHS-4": "Not available",
      "Villages with Sub-Health Centres within 3km in percentage DLHS-4": "Not applicable",
      "Upper Primary New Government Schools since 2003 in percentage DISE": "NA",
      "0-6 Age Group Males": 34659,
      "Primary Schools with drinking water facility in percentage DISE": "NA",
      "Non Workers - Persons": 235682,
      "Person Literates": 194550,
      "State": "JAMMU AND KASHMIR",
      "Total Female Population": 181817,
      "Marginal Workers worked for 0 - 3 moths during last year - Persons": 21074,
      "Marginal Workers Cultivators - Females": 31065,
      "Marginal Workers Other - Persons": 16664,
      "Sex Ratio": 930,
      "Scheduled Tribe Persons": 38601,
      "Marginal Workers Household Industry worked for 3 - 6 moths during last year - Males": 315,
      "Marginal Workers Agricultural Labourers - Females": 3558,
      "Mean age at marriage for girls DLHS-4": "Not available",
      "Households with solar energy as main source of lighting  Houselisting and Housing Census Data Tables- District Level , Census of India__4": 651,
      "District": "DODA",
      "Households receiving treated tap water within premises in percentage Houselisting and Housing Census Data Tables- District Level , Census of India__1": 7.000551116,
      "Total Workers  Persons": 141565,
      "Households receiving treated tap water within premises  Houselisting and Housing Census Data Tables- District Level , Census of India__4": 5081,
      "Primary Female Teachers in percentage DISE": "NA",
      "Number of Households": 72917,
      "Main Workers Agricultural Labourers - Persons": 3905
    }
  ],
  "Urban": [
    {
      "Marginal Workers Agricultural Labourers - Persons": 77,
      "Marginal Workers Other - Females": 71,
      "Marginal Workers Other worked for 0 - 3 moths during last year - Females": 12,
      "Upper Primary Schools with boys toilet in percentage DISE": "NA",
      "Total Population": 32689,
      "Households with electricity as main source of lighting in percentage Houselisting and Housing Census Data Tables- District Level , Census of India": 99.05629139,
      "Primary Girl's Enrolment in percentage DISE": "NA",
      "Marginal Workers worked for 3 - 6 moths during last year - Males": 288,
      "Prevalence of Acute illness in percentage DLHS-4": "Not available",
      "Main Workers - Persons": 9687,
      "Main Workers Cultivators - Females": 3,
      "Marginal Workers Agricultural Labourers worked for 3 - 6 moths during last year - Females": 3,
      "Marginal Workers Other worked for 0 - 3 moths during last year - Males": 51,
      "Upper Primary Schools with drinking water facility in percentage DISE": "NA",
      "Primary Schools with girls toilet in percentage DISE": "NA",
      "Marginal Workers worked for 3 - 6 moths during last year - Persons": 463,
      "Upper Primary Drop Out Rate in percentage DISE": "NA",
      "Prevalence of Anaemia in pregnant women aged 15-49years in percentage DLHS-4": "Not available",
      "Current use of any modern method of family planning in percentage DLHS-4": "Not available",
      "Marginal Workers Agricultural Labourers - Males": 72,
      "Upper Primary Female Teachers in percentage DISE": "NA",
      "Marginal Workers - Females": 236,
      "Marginal Workers Other worked for 3 - 6 moths during last year - Persons": 296,
      "Main Workers Agricultural Labourers - Females": 2,
      "Marginal Workers Cultivators worked for 3 - 6 moths during last year - Females": 110,
      "Households with no lighting  Houselisting and Housing Census Data Tables- District Level , Census of India__5": 13,
      "Prevalence of Severe Anaemia  in percentage DLHS-4": "Not available",
      "Total unmet need for family planning in percentage DLHS-4": "Not available",
      "Main Workers Other - Males": 8182,
      "Children who received full vaccination in percentage DLHS-4": "Not available",
      "Marginal Workers Household Industry - Persons": 12,
      "Primary Pupil-Teacher Ratio in percentage DISE": "NA",
      "Marginal Workers Agricultural Labourers worked for 3 - 6 moths during last year - Males": 25,
      "Scheduled Caste Females": 519,
      "Marginal Workers Cultivators - Males": 55,
      "Marginal Workers - Males": 424,
      "Marginal Workers worked for 0 - 3 moths during last year - Females": 61,
      "Households with main source of drinking water within premises in percentage Houselisting and Housing Census Data Tables- District Level , Census of India": 88.04635762,
      "Marginal Workers Household Industry worked for 3 - 6 moths during last year - Persons": 9,
      "Upper Primary Girl's Enrolment in percentage DISE": "NA",
      "Prevalence of Severe Anaemia in women aged 15-49years in percentage DLHS-4": "Not available",
      "Marginal Workers Agricultural Labourers worked for 0 - 3 moths during last year - Males": 47,
      "Households with electricity as main source of lighting  Houselisting and Housing Census Data Tables- District Level , Census of India__3": 5983,
      "Households with computer or laptop with internet connection in percentage": 2.75,
      "PHCs functioning on a 24x7hours basis in percentage DLHS-4": 0,
      "Non Workers - Males": 9544,
      "Total Households in District Houselisting and Housing Census Data Tables- District Level , Census of India": 6040,
      "Upper Primary Schools with girls toilet in percentage DISE": "NA",
      "Households with mobile phone in percentage": 80.22,
      "Households receiving untreated tap water within premises in percentage Houselisting and Housing Census Data Tables- District Level , Census of India__2": 33.2781457,
      "Marginal Workers Cultivators worked for 3 - 6 moths during last year - Males": 20,
      "Prevalence of Anaemia  in percentage DLHS-4": "Not available",
      "Prevalence of Chronic illness in percentage DLHS-4": "Not available",
      "Households with solar energy as main source of lighting in percentage Houselisting and Housing Census Data Tables- District Level , Census of India__1": 0.0497,
      "Marginal Workers Agricultural Labourers worked for 0 - 3 moths during last year - Females": 2,
      "Main Workers - Males": 8243,
      "Female": "NA",
      "Sno": 639,
      "Marginal Workers Other worked for 3 - 6 moths during last year - Females": 59,
      "Marginal Workers Cultivators worked for 0 - 3 moths during last year - Females": 47,
      "Scheduled Tribe Males": 361,
      "Male Illiterates": 3410,
      "Prevalence of Severe Anaemia in pregnant women aged 15-49years in percentage DLHS-4": "Not available",
      "0-6 Age Group Persons": 4033,
      "Upper Primary Student-Classroom Ratio in percentage DISE": "NA",
      "Currently married men married below 21years of age in percentage DLHS-4": "Not available",
      "Male Literates": 14801,
      "Households with no lighting in percentage Houselisting and Housing Census Data Tables- District Level , Census of India__2": 0.215231788,
      "Primary Drop Out Rate in percentage DISE": "NA",
      "Marginal Workers Household Industry - Males": 9,
      "Female Illiterates": 4746,
      "Main Workers Other - Females": 1437,
      "Marginal Workers Cultivators - Persons": 212,
      "Upper Primary Gross Enrolment Ratio in percentage DISE": "NA",
      "Scheduled Caste Persons": 1069,
      "Marginal Workers Cultivators worked for 3 - 6 moths during last year - Persons": 130,
      "Households with landline phone in percentage": 2.19,
      "Total Households in District  Houselisting and Housing Census Data Tables- District Level , Census of India": 6040,
      "Upper Primary Pupil-Teacher Ratio in percentage DISE": "NA",
      "Primary Student-Classroom Ratio in percentage DISE": "NA",
      "Primary Schools with boys toilet in percentage DISE": "NA",
      "Mean number of children ever born to women aged 40-49years  DLHS-4": "Not available",
      "Households receiving untreated tap water within premises  Houselisting and Housing Census Data Tables- District Level , Census of India__5": 2010,
      "Marginal Workers Household Industry worked for 0 - 3 moths during last year - Persons": 3,
      "Total Male Population": 18211,
      "Non Workers - Females": 12798,
      "Current use of family planning methods in percentage DLHS-4": "Not available",
      "Households with main source of drinking water within premises  Houselisting and Housing Census Data Tables- District Level , Census of India__3": 5318,
      "Main Workers Agricultural Labourers - Males": 31,
      "Marginal Workers Other worked for 0 - 3 moths during last year - Persons": 63,
      "Currently married women married below 18years of age in percentage DLHS-4": "Not available",
      "Person Illiterates": 8156,
      "Main Workers Household Industry - Females": 2,
      "Female Literates": 9732,
      "Marginal Workers Cultivators worked for 0 - 3 moths during last year - Males": 35,
      "Male": "NA",
      "Households with improved source of drinking water in percentage DLHS-4": "Not available",
      "Upper Primary Schools with electricity in percentage DISE": "NA",
      "Households with electricity in percentage DLHS-4": "Not available",
      "Villages with Primary Health Centre within 10km in percentage DLHS-4": 0,
      "Births to women aged 15-19years out of Total births in percentage DLHS-4": "Not available",
      "Prevalence of Anaemia in women aged 15-49years in percentage DLHS-4": "Not available",
      "Marginal Workers Agricultural Labourers worked for 3 - 6 moths during last year - Persons": 28,
      "Main Workers Household Industry - Males": 12,
      "Scheduled Tribe Females": 254,
      "Marginal Workers worked for 0 - 3 moths during last year - Males": 136,
      "Marginal Workers Other worked for 3 - 6 moths during last year - Males": 237,
      "Primary Net Enrolment Ratio in percentage DISE": "NA",
      "Total": "NA",
      "Mean age at marriage for boys DLHS-4": "Not available",
      "Number of District Hospitals  DLHS-4": 0,
      "0-6 Age Group Females": 1830,
      "Marginal Workers Agricultural Labourers worked for 0 - 3 moths during last year - Persons": 49,
      "Marginal Workers Household Industry worked for 0 - 3 moths during last year - Males": 3,
      "Total Workers  Females": 1680,
      "Marginal Workers worked for 3 - 6 moths during last year - Females": 175,
      "Institutional Deliveries in percentage DLHS-4": "Not available",
      "Marginal Workers Other - Males": 288,
      "Total Workers  Males": 8667,
      "Main Workers - Females": 1444,
      "Primary Gross Enrolment Ratio in percentage DISE": "NA",
      "Main Workers Cultivators - Persons": 21,
      "Marginal Workers Household Industry worked for 0 - 3 moths during last year - Females": 0,
      "Upper Primary Net Enrolment Ratio in percentage DISE": "NA",
      "Primary New Government Schools since 2003 in percentage DISE": "NA",
      "Tier": "Urban",
      "Marginal Workers Household Industry - Females": 3,
      "Primary Schools with electricity in percentage DISE": "NA",
      "Main Workers Other - Persons": 9619,
      "Marginal Workers Household Industry worked for 3 - 6 moths during last year - Females": 3,
      "Main Workers Cultivators - Males": 18,
      "Main Workers Household Industry - Persons": 14,
      "Marginal Workers Cultivators worked for 0 - 3 moths during last year - Persons": 82,
      "Scheduled Caste Males": 550,
      "Marginal Workers - Persons": 660,
      "Deliveries at home conducted by skilled health personnel in percentage DLHS-4": "Not available",
      "Villages with Sub-Health Centres within 3km in percentage DLHS-4": 0,
      "Upper Primary New Government Schools since 2003 in percentage DISE": "NA",
      "0-6 Age Group Males": 2203,
      "Primary Schools with drinking water facility in percentage DISE": "NA",
      "Non Workers - Persons": 22342,
      "Person Literates": 24533,
      "State": "JAMMU AND KASHMIR",
      "Total Female Population": 14478,
      "Marginal Workers worked for 0 - 3 moths during last year - Persons": 197,
      "Marginal Workers Cultivators - Females": 157,
      "Marginal Workers Other - Persons": 359,
      "Sex Ratio": 795,
      "Scheduled Tribe Persons": 615,
      "Marginal Workers Household Industry worked for 3 - 6 moths during last year - Males": 6,
      "Marginal Workers Agricultural Labourers - Females": 5,
      "Mean age at marriage for girls DLHS-4": "Not available",
      "Households with solar energy as main source of lighting  Houselisting and Housing Census Data Tables- District Level , Census of India__4": 3,
      "District": "DODA",
      "Households receiving treated tap water within premises in percentage Houselisting and Housing Census Data Tables- District Level , Census of India__1": 54.65231788,
      "Total Workers  Persons": 10347,
      "Households receiving treated tap water within premises  Houselisting and Housing Census Data Tables- District Level , Census of India__4": 3301,
      "Primary Female Teachers in percentage DISE": "NA",
      "Number of Households": 6719,
      "Main Workers Agricultural Labourers - Persons": 33
    }
  ]
}