{
  "Total": [
    {
      "Marginal Workers Agricultural Labourers - Persons": 11414,
      "Marginal Workers Other - Females": 5102,
      "Marginal Workers Other worked for 0 - 3 moths during last year - Females": 1034,
      "Upper Primary Schools with boys toilet in percentage DISE": 0,
      "Total Population": 616435,
      "Households with electricity as main source of lighting in percentage Houselisting and Housing Census Data Tables- District Level , Census of India": 92.85956753,
      "Primary Girl's Enrolment in percentage DISE": 49.9,
      "Marginal Workers worked for 3 - 6 moths during last year - Males": 29942,
      "Prevalence of Acute illness in percentage DLHS-4": "Not available",
      "Main Workers - Persons": 142847,
      "Main Workers Cultivators - Females": 7284,
      "Marginal Workers Agricultural Labourers worked for 3 - 6 moths during last year - Females": 1914,
      "Marginal Workers Other worked for 0 - 3 moths during last year - Males": 3410,
      "Upper Primary Schools with drinking water facility in percentage DISE": 100,
      "Primary Schools with girls toilet in percentage DISE": 91.4,
      "Marginal Workers worked for 3 - 6 moths during last year - Persons": 44034,
      "Upper Primary Drop Out Rate in percentage DISE": 1.43,
      "Prevalence of Anaemia in pregnant women aged 15-49years in percentage DLHS-4": "Not available",
      "Current use of any modern method of family planning in percentage DLHS-4": "Not available",
      "Marginal Workers Agricultural Labourers - Males": 8613,
      "Upper Primary Female Teachers in percentage DISE": 100,
      "Marginal Workers - Females": 19440,
      "Marginal Workers Other worked for 3 - 6 moths during last year - Persons": 16858,
      "Main Workers Agricultural Labourers - Females": 1167,
      "Marginal Workers Cultivators worked for 3 - 6 moths during last year - Females": 7385,
      "Households with no lighting  Houselisting and Housing Census Data Tables- District Level , Census of India__5": 785,
      "Prevalence of Severe Anaemia  in percentage DLHS-4": "Not available",
      "Total unmet need for family planning in percentage DLHS-4": "Not available",
      "Main Workers Other - Males": 73636,
      "Children who received full vaccination in percentage DLHS-4": "Not available",
      "Marginal Workers Household Industry - Persons": 1726,
      "Primary Pupil-Teacher Ratio in percentage DISE": 9,
      "Marginal Workers Agricultural Labourers worked for 3 - 6 moths during last year - Males": 6814,
      "Scheduled Caste Females": 66580,
      "Marginal Workers Cultivators - Males": 12494,
      "Marginal Workers - Males": 38144,
      "Marginal Workers worked for 0 - 3 moths during last year - Females": 5348,
      "Households with main source of drinking water within premises in percentage Houselisting and Housing Census Data Tables- District Level , Census of India": 44.14525272,
      "Marginal Workers Household Industry worked for 3 - 6 moths during last year - Persons": 1401,
      "Upper Primary Girl's Enrolment in percentage DISE": 100,
      "Prevalence of Severe Anaemia in women aged 15-49years in percentage DLHS-4": "Not available",
      "Marginal Workers Agricultural Labourers worked for 0 - 3 moths during last year - Males": 1799,
      "Households with electricity as main source of lighting  Houselisting and Housing Census Data Tables- District Level , Census of India__3": 109422,
      "Households with computer or laptop with internet connection in percentage": 1.22,
      "PHCs functioning on a 24x7hours basis in percentage DLHS-4": "Not available",
      "Non Workers - Males": 164561,
      "Total Households in District Houselisting and Housing Census Data Tables- District Level , Census of India": 117836,
      "Upper Primary Schools with girls toilet in percentage DISE": 100,
      "Households with mobile phone in percentage": 66.38,
      "Households receiving untreated tap water within premises in percentage Houselisting and Housing Census Data Tables- District Level , Census of India__2": 3.33768967,
      "Marginal Workers Cultivators worked for 3 - 6 moths during last year - Males": 9662,
      "Prevalence of Anaemia  in percentage DLHS-4": "Not available",
      "Prevalence of Chronic illness in percentage DLHS-4": "Not available",
      "Households with solar energy as main source of lighting in percentage Houselisting and Housing Census Data Tables- District Level , Census of India__1": 0.0789,
      "Marginal Workers Agricultural Labourers worked for 0 - 3 moths during last year - Females": 887,
      "Main Workers - Males": 123404,
      "Female": 63.72,
      "Sno": 650,
      "Marginal Workers Other worked for 3 - 6 moths during last year - Females": 4068,
      "Marginal Workers Cultivators worked for 0 - 3 moths during last year - Females": 3263,
      "Scheduled Tribe Males": 27693,
      "Male Illiterates": 97610,
      "Prevalence of Severe Anaemia in pregnant women aged 15-49years in percentage DLHS-4": "Not available",
      "0-6 Age Group Persons": 83936,
      "Upper Primary Student-Classroom Ratio in percentage DISE": 13,
      "Currently married men married below 21years of age in percentage DLHS-4": "Not available",
      "Male Literates": 228499,
      "Households with no lighting in percentage Houselisting and Housing Census Data Tables- District Level , Census of India__2": 0.666180115,
      "Primary Drop Out Rate in percentage DISE": 2.2,
      "Marginal Workers Household Industry - Males": 837,
      "Female Illiterates": 129621,
      "Main Workers Other - Females": 10442,
      "Marginal Workers Cultivators - Persons": 23142,
      "Upper Primary Gross Enrolment Ratio in percentage DISE": 90.8,
      "Scheduled Caste Persons": 141224,
      "Marginal Workers Cultivators worked for 3 - 6 moths during last year - Persons": 17047,
      "Households with landline phone in percentage": 2.6,
      "Total Households in District  Houselisting and Housing Census Data Tables- District Level , Census of India": 117836,
      "Upper Primary Pupil-Teacher Ratio in percentage DISE": 7,
      "Primary Student-Classroom Ratio in percentage DISE": 9,
      "Primary Schools with boys toilet in percentage DISE": 97.4,
      "Mean number of children ever born to women aged 40-49years  DLHS-4": "Not available",
      "Households receiving untreated tap water within premises  Houselisting and Housing Census Data Tables- District Level , Census of India__5": 3933,
      "Marginal Workers Household Industry worked for 0 - 3 moths during last year - Persons": 325,
      "Total Male Population": 326109,
      "Non Workers - Females": 251443,
      "Current use of family planning methods in percentage DLHS-4": "Not available",
      "Households with main source of drinking water within premises  Houselisting and Housing Census Data Tables- District Level , Census of India__3": 52019,
      "Main Workers Agricultural Labourers - Males": 8985,
      "Marginal Workers Other worked for 0 - 3 moths during last year - Persons": 4444,
      "Currently married women married below 18years of age in percentage DLHS-4": "Not available",
      "Person Illiterates": 227231,
      "Main Workers Household Industry - Females": 550,
      "Female Literates": 160705,
      "Marginal Workers Cultivators worked for 0 - 3 moths during last year - Males": 2832,
      "Male": 81.53,
      "Households with improved source of drinking water in percentage DLHS-4": "Not available",
      "Upper Primary Schools with electricity in percentage DISE": 100,
      "Households with electricity in percentage DLHS-4": "Not available",
      "Villages with Primary Health Centre within 10km in percentage DLHS-4": "Not available",
      "Births to women aged 15-19years out of Total births in percentage DLHS-4": "Not available",
      "Prevalence of Anaemia in women aged 15-49years in percentage DLHS-4": "Not available",
      "Marginal Workers Agricultural Labourers worked for 3 - 6 moths during last year - Persons": 8728,
      "Main Workers Household Industry - Males": 1676,
      "Scheduled Tribe Females": 25614,
      "Marginal Workers worked for 0 - 3 moths during last year - Males": 8202,
      "Marginal Workers Other worked for 3 - 6 moths during last year - Males": 12790,
      "Primary Net Enrolment Ratio in percentage DISE": 82.3,
      "Total": 73.09,
      "Mean age at marriage for boys DLHS-4": "Not available",
      "Number of District Hospitals  DLHS-4": "Not available",
      "0-6 Age Group Females": 38103,
      "Marginal Workers Agricultural Labourers worked for 0 - 3 moths during last year - Persons": 2686,
      "Marginal Workers Household Industry worked for 0 - 3 moths during last year - Males": 161,
      "Total Workers  Females": 38883,
      "Marginal Workers worked for 3 - 6 moths during last year - Females": 14092,
      "Institutional Deliveries in percentage DLHS-4": "Not available",
      "Marginal Workers Other - Males": 16200,
      "Total Workers  Males": 161548,
      "Main Workers - Females": 19443,
      "Primary Gross Enrolment Ratio in percentage DISE": 99,
      "Main Workers Cultivators - Persons": 46391,
      "Marginal Workers Household Industry worked for 0 - 3 moths during last year - Females": 164,
      "Upper Primary Net Enrolment Ratio in percentage DISE": 68.1,
      "Primary New Government Schools since 2003 in percentage DISE": 54.9,
      "Tier": "Total",
      "Marginal Workers Household Industry - Females": 889,
      "Primary Schools with electricity in percentage DISE": 11.3,
      "Main Workers Other - Persons": 84078,
      "Marginal Workers Household Industry worked for 3 - 6 moths during last year - Females": 725,
      "Main Workers Cultivators - Males": 39107,
      "Main Workers Household Industry - Persons": 2226,
      "Marginal Workers Cultivators worked for 0 - 3 moths during last year - Persons": 6095,
      "Scheduled Caste Males": 74644,
      "Marginal Workers - Persons": 57584,
      "Deliveries at home conducted by skilled health personnel in percentage DLHS-4": "Not available",
      "Villages with Sub-Health Centres within 3km in percentage DLHS-4": "Not available",
      "Upper Primary New Government Schools since 2003 in percentage DISE": 100,
      "0-6 Age Group Males": 45833,
      "Primary Schools with drinking water facility in percentage DISE": 99.8,
      "Non Workers - Persons": 416004,
      "Person Literates": 389204,
      "State": "JAMMU AND KASHMIR",
      "Total Female Population": 290326,
      "Marginal Workers worked for 0 - 3 moths during last year - Persons": 13550,
      "Marginal Workers Cultivators - Females": 10648,
      "Marginal Workers Other - Persons": 21302,
      "Sex Ratio": 890,
      "Scheduled Tribe Persons": 53307,
      "Marginal Workers Household Industry worked for 3 - 6 moths during last year - Males": 676,
      "Marginal Workers Agricultural Labourers - Females": 2801,
      "Mean age at marriage for girls DLHS-4": "Not available",
      "Households with solar energy as main source of lighting  Houselisting and Housing Census Data Tables- District Level , Census of India__4": 93,
      "District": "KATHUA",
      "Households receiving treated tap water within premises in percentage Houselisting and Housing Census Data Tables- District Level , Census of India__1": 25.13578193,
      "Total Workers  Persons": 200431,
      "Households receiving treated tap water within premises  Houselisting and Housing Census Data Tables- District Level , Census of India__4": 29619,
      "Primary Female Teachers in percentage DISE": 48.7,
      "Number of Households": 119583,
      "Main Workers Agricultural Labourers - Persons": 10152
    }
  ],
  "Rural": [
    {
      "Marginal Workers Agricultural Labourers - Persons": 11190,
      "Marginal Workers Other - Females": 4627,
      "Marginal Workers Other worked for 0 - 3 moths during last year - Females": 988,
      "Upper Primary Schools with boys toilet in percentage DISE": "NA",
      "Total Population": 526722,
      "Households with electricity as main source of lighting in percentage Houselisting and Housing Census Data Tables- District Level , Census of India": 91.76231266,
      "Primary Girl's Enrolment in percentage DISE": "NA",
      "Marginal Workers worked for 3 - 6 moths during last year - Males": 27812,
      "Prevalence of Acute illness in percentage DLHS-4": "Not available",
      "Main Workers - Persons": 118108,
      "Main Workers Cultivators - Females": 6959,
      "Marginal Workers Agricultural Labourers worked for 3 - 6 moths during last year - Females": 1900,
      "Marginal Workers Other worked for 0 - 3 moths during last year - Males": 3150,
      "Upper Primary Schools with drinking water facility in percentage DISE": "NA",
      "Primary Schools with girls toilet in percentage DISE": "NA",
      "Marginal Workers worked for 3 - 6 moths during last year - Persons": 41383,
      "Upper Primary Drop Out Rate in percentage DISE": "NA",
      "Prevalence of Anaemia in pregnant women aged 15-49years in percentage DLHS-4": "Not available",
      "Current use of any modern method of family planning in percentage DLHS-4": "Not available",
      "Marginal Workers Agricultural Labourers - Males": 8403,
      "Upper Primary Female Teachers in percentage DISE": "NA",
      "Marginal Workers - Females": 18863,
      "Marginal Workers Other worked for 3 - 6 moths during last year - Persons": 14598,
      "Main Workers Agricultural Labourers - Females": 1140,
      "Marginal Workers Cultivators worked for 3 - 6 moths during last year - Females": 7323,
      "Households with no lighting  Houselisting and Housing Census Data Tables- District Level , Census of India__5": 780,
      "Prevalence of Severe Anaemia  in percentage DLHS-4": "Not available",
      "Total unmet need for family planning in percentage DLHS-4": "Not available",
      "Main Workers Other - Males": 54155,
      "Children who received full vaccination in percentage DLHS-4": "Not available",
      "Marginal Workers Household Industry - Persons": 1635,
      "Primary Pupil-Teacher Ratio in percentage DISE": "NA",
      "Marginal Workers Agricultural Labourers worked for 3 - 6 moths during last year - Males": 6652,
      "Scheduled Caste Females": 56372,
      "Marginal Workers Cultivators - Males": 12406,
      "Marginal Workers - Males": 35682,
      "Marginal Workers worked for 0 - 3 moths during last year - Females": 5292,
      "Households with main source of drinking water within premises in percentage Houselisting and Housing Census Data Tables- District Level , Census of India": 36.89159678,
      "Marginal Workers Household Industry worked for 3 - 6 moths during last year - Persons": 1319,
      "Upper Primary Girl's Enrolment in percentage DISE": "NA",
      "Prevalence of Severe Anaemia in women aged 15-49years in percentage DLHS-4": "Not available",
      "Marginal Workers Agricultural Labourers worked for 0 - 3 moths during last year - Males": 1751,
      "Households with electricity as main source of lighting  Houselisting and Housing Census Data Tables- District Level , Census of India__3": 92022,
      "Households with computer or laptop with internet connection in percentage": 0.72,
      "PHCs functioning on a 24x7hours basis in percentage DLHS-4": "Not applicable",
      "Non Workers - Males": 140274,
      "Total Households in District Houselisting and Housing Census Data Tables- District Level , Census of India": 100283,
      "Upper Primary Schools with girls toilet in percentage DISE": "NA",
      "Households with mobile phone in percentage": 66.44,
      "Households receiving untreated tap water within premises in percentage Houselisting and Housing Census Data Tables- District Level , Census of India__2": 3.240828455,
      "Marginal Workers Cultivators worked for 3 - 6 moths during last year - Males": 9591,
      "Prevalence of Anaemia  in percentage DLHS-4": "Not available",
      "Prevalence of Chronic illness in percentage DLHS-4": "Not available",
      "Households with solar energy as main source of lighting in percentage Houselisting and Housing Census Data Tables- District Level , Census of India__1": 0.0927,
      "Marginal Workers Agricultural Labourers worked for 0 - 3 moths during last year - Females": 887,
      "Main Workers - Males": 102170,
      "Female": "NA",
      "Sno": 649,
      "Marginal Workers Other worked for 3 - 6 moths during last year - Females": 3639,
      "Marginal Workers Cultivators worked for 0 - 3 moths during last year - Females": 3255,
      "Scheduled Tribe Males": 27022,
      "Male Illiterates": 88251,
      "Prevalence of Severe Anaemia in pregnant women aged 15-49years in percentage DLHS-4": "Not available",
      "0-6 Age Group Persons": 74401,
      "Upper Primary Student-Classroom Ratio in percentage DISE": "NA",
      "Currently married men married below 21years of age in percentage DLHS-4": "Not available",
      "Male Literates": 189875,
      "Households with no lighting in percentage Houselisting and Housing Census Data Tables- District Level , Census of India__2": 0.777798829,
      "Primary Drop Out Rate in percentage DISE": "NA",
      "Marginal Workers Household Industry - Males": 764,
      "Female Illiterates": 118107,
      "Main Workers Other - Females": 7304,
      "Marginal Workers Cultivators - Persons": 22984,
      "Upper Primary Gross Enrolment Ratio in percentage DISE": "NA",
      "Scheduled Caste Persons": 119693,
      "Marginal Workers Cultivators worked for 3 - 6 moths during last year - Persons": 16914,
      "Households with landline phone in percentage": 2.43,
      "Total Households in District  Houselisting and Housing Census Data Tables- District Level , Census of India": 100283,
      "Upper Primary Pupil-Teacher Ratio in percentage DISE": "NA",
      "Primary Student-Classroom Ratio in percentage DISE": "NA",
      "Primary Schools with boys toilet in percentage DISE": "NA",
      "Mean number of children ever born to women aged 40-49years  DLHS-4": "Not available",
      "Households receiving untreated tap water within premises  Houselisting and Housing Census Data Tables- District Level , Census of India__5": 3250,
      "Marginal Workers Household Industry worked for 0 - 3 moths during last year - Persons": 316,
      "Total Male Population": 278126,
      "Non Workers - Females": 213795,
      "Current use of family planning methods in percentage DLHS-4": "Not available",
      "Households with main source of drinking water within premises  Houselisting and Housing Census Data Tables- District Level , Census of India__3": 36996,
      "Main Workers Agricultural Labourers - Males": 8223,
      "Marginal Workers Other worked for 0 - 3 moths during last year - Persons": 4138,
      "Currently married women married below 18years of age in percentage DLHS-4": "Not available",
      "Person Illiterates": 206358,
      "Main Workers Household Industry - Females": 535,
      "Female Literates": 130489,
      "Marginal Workers Cultivators worked for 0 - 3 moths during last year - Males": 2815,
      "Male": "NA",
      "Households with improved source of drinking water in percentage DLHS-4": "Not available",
      "Upper Primary Schools with electricity in percentage DISE": "NA",
      "Households with electricity in percentage DLHS-4": "Not available",
      "Villages with Primary Health Centre within 10km in percentage DLHS-4": "Not applicable",
      "Births to women aged 15-19years out of Total births in percentage DLHS-4": "Not available",
      "Prevalence of Anaemia in women aged 15-49years in percentage DLHS-4": "Not available",
      "Marginal Workers Agricultural Labourers worked for 3 - 6 moths during last year - Persons": 8552,
      "Main Workers Household Industry - Males": 1545,
      "Scheduled Tribe Females": 24997,
      "Marginal Workers worked for 0 - 3 moths during last year - Males": 7870,
      "Marginal Workers Other worked for 3 - 6 moths during last year - Males": 10959,
      "Primary Net Enrolment Ratio in percentage DISE": "NA",
      "Total": "NA",
      "Mean age at marriage for boys DLHS-4": "Not available",
      "Number of District Hospitals  DLHS-4": "Not applicable",
      "0-6 Age Group Females": 33830,
      "Marginal Workers Agricultural Labourers worked for 0 - 3 moths during last year - Persons": 2638,
      "Marginal Workers Household Industry worked for 0 - 3 moths during last year - Males": 154,
      "Total Workers  Females": 34801,
      "Marginal Workers worked for 3 - 6 moths during last year - Females": 13571,
      "Institutional Deliveries in percentage DLHS-4": "Not available",
      "Marginal Workers Other - Males": 14109,
      "Total Workers  Males": 137852,
      "Main Workers - Females": 15938,
      "Primary Gross Enrolment Ratio in percentage DISE": "NA",
      "Main Workers Cultivators - Persons": 45206,
      "Marginal Workers Household Industry worked for 0 - 3 moths during last year - Females": 162,
      "Upper Primary Net Enrolment Ratio in percentage DISE": "NA",
      "Primary New Government Schools since 2003 in percentage DISE": "NA",
      "Tier": "Rural",
      "Marginal Workers Household Industry - Females": 871,
      "Primary Schools with electricity in percentage DISE": "NA",
      "Main Workers Other - Persons": 61459,
      "Marginal Workers Household Industry worked for 3 - 6 moths during last year - Females": 709,
      "Main Workers Cultivators - Males": 38247,
      "Main Workers Household Industry - Persons": 2080,
      "Marginal Workers Cultivators worked for 0 - 3 moths during last year - Persons": 6070,
      "Scheduled Caste Males": 63321,
      "Marginal Workers - Persons": 54545,
      "Deliveries at home conducted by skilled health personnel in percentage DLHS-4": "Not available",
      "Villages with Sub-Health Centres within 3km in percentage DLHS-4": "Not applicable",
      "Upper Primary New Government Schools since 2003 in percentage DISE": "NA",
      "0-6 Age Group Males": 40571,
      "Primary Schools with drinking water facility in percentage DISE": "NA",
      "Non Workers - Persons": 354069,
      "Person Literates": 320364,
      "State": "JAMMU AND KASHMIR",
      "Total Female Population": 248596,
      "Marginal Workers worked for 0 - 3 moths during last year - Persons": 13162,
      "Marginal Workers Cultivators - Females": 10578,
      "Marginal Workers Other - Persons": 18736,
      "Sex Ratio": 894,
      "Scheduled Tribe Persons": 52019,
      "Marginal Workers Household Industry worked for 3 - 6 moths during last year - Males": 610,
      "Marginal Workers Agricultural Labourers - Females": 2787,
      "Mean age at marriage for girls DLHS-4": "Not available",
      "Households with solar energy as main source of lighting  Houselisting and Housing Census Data Tables- District Level , Census of India__4": 93,
      "District": "KATHUA",
      "Households receiving treated tap water within premises in percentage Houselisting and Housing Census Data Tables- District Level , Census of India__1": 20.32647607,
      "Total Workers  Persons": 172653,
      "Households receiving treated tap water within premises  Houselisting and Housing Census Data Tables- District Level , Census of India__4": 20384,
      "Primary Female Teachers in percentage DISE": "NA",
      "Number of Households": 101651,
      "Main Workers Agricultural Labourers - Persons": 9363
    }
  ],
  "Urban": [
    {
      "Marginal Workers Agricultural Labourers - Persons": 224,
      "Marginal Workers Other - Females": 475,
      "Marginal Workers Other worked for 0 - 3 moths during last year - Females": 46,
      "Upper Primary Schools with boys toilet in percentage DISE": "NA",
      "Total Population": 89713,
      "Households with electricity as main source of lighting in percentage Houselisting and Housing Census Data Tables- District Level , Census of India": 99.12835413,
      "Primary Girl's Enrolment in percentage DISE": "NA",
      "Marginal Workers worked for 3 - 6 moths during last year - Males": 2130,
      "Prevalence of Acute illness in percentage DLHS-4": "Not available",
      "Main Workers - Persons": 24739,
      "Main Workers Cultivators - Females": 325,
      "Marginal Workers Agricultural Labourers worked for 3 - 6 moths during last year - Females": 14,
      "Marginal Workers Other worked for 0 - 3 moths during last year - Males": 260,
      "Upper Primary Schools with drinking water facility in percentage DISE": "NA",
      "Primary Schools with girls toilet in percentage DISE": "NA",
      "Marginal Workers worked for 3 - 6 moths during last year - Persons": 2651,
      "Upper Primary Drop Out Rate in percentage DISE": "NA",
      "Prevalence of Anaemia in pregnant women aged 15-49years in percentage DLHS-4": "Not available",
      "Current use of any modern method of family planning in percentage DLHS-4": "Not available",
      "Marginal Workers Agricultural Labourers - Males": 210,
      "Upper Primary Female Teachers in percentage DISE": "NA",
      "Marginal Workers - Females": 577,
      "Marginal Workers Other worked for 3 - 6 moths during last year - Persons": 2260,
      "Main Workers Agricultural Labourers - Females": 27,
      "Marginal Workers Cultivators worked for 3 - 6 moths during last year - Females": 62,
      "Households with no lighting  Houselisting and Housing Census Data Tables- District Level , Census of India__5": 5,
      "Prevalence of Severe Anaemia  in percentage DLHS-4": "Not available",
      "Total unmet need for family planning in percentage DLHS-4": "Not available",
      "Main Workers Other - Males": 19481,
      "Children who received full vaccination in percentage DLHS-4": "Not available",
      "Marginal Workers Household Industry - Persons": 91,
      "Primary Pupil-Teacher Ratio in percentage DISE": "NA",
      "Marginal Workers Agricultural Labourers worked for 3 - 6 moths during last year - Males": 162,
      "Scheduled Caste Females": 10208,
      "Marginal Workers Cultivators - Males": 88,
      "Marginal Workers - Males": 2462,
      "Marginal Workers worked for 0 - 3 moths during last year - Females": 56,
      "Households with main source of drinking water within premises in percentage Houselisting and Housing Census Data Tables- District Level , Census of India": 85.58650943,
      "Marginal Workers Household Industry worked for 3 - 6 moths during last year - Persons": 82,
      "Upper Primary Girl's Enrolment in percentage DISE": "NA",
      "Prevalence of Severe Anaemia in women aged 15-49years in percentage DLHS-4": "Not available",
      "Marginal Workers Agricultural Labourers worked for 0 - 3 moths during last year - Males": 48,
      "Households with electricity as main source of lighting  Houselisting and Housing Census Data Tables- District Level , Census of India__3": 17400,
      "Households with computer or laptop with internet connection in percentage": 4.08,
      "PHCs functioning on a 24x7hours basis in percentage DLHS-4": 0,
      "Non Workers - Males": 24287,
      "Total Households in District Houselisting and Housing Census Data Tables- District Level , Census of India": 17553,
      "Upper Primary Schools with girls toilet in percentage DISE": "NA",
      "Households with mobile phone in percentage": 66.05,
      "Households receiving untreated tap water within premises in percentage Houselisting and Housing Census Data Tables- District Level , Census of India__2": 3.891072751,
      "Marginal Workers Cultivators worked for 3 - 6 moths during last year - Males": 71,
      "Prevalence of Anaemia  in percentage DLHS-4": "Not available",
      "Prevalence of Chronic illness in percentage DLHS-4": "Not available",
      "Households with solar energy as main source of lighting in percentage Houselisting and Housing Census Data Tables- District Level , Census of India__1": "NA",
      "Marginal Workers Agricultural Labourers worked for 0 - 3 moths during last year - Females": 0,
      "Main Workers - Males": 21234,
      "Female": "NA",
      "Sno": 651,
      "Marginal Workers Other worked for 3 - 6 moths during last year - Females": 429,
      "Marginal Workers Cultivators worked for 0 - 3 moths during last year - Females": 8,
      "Scheduled Tribe Males": 671,
      "Male Illiterates": 9359,
      "Prevalence of Severe Anaemia in pregnant women aged 15-49years in percentage DLHS-4": "Not available",
      "0-6 Age Group Persons": 9535,
      "Upper Primary Student-Classroom Ratio in percentage DISE": "NA",
      "Currently married men married below 21years of age in percentage DLHS-4": "Not available",
      "Male Literates": 38624,
      "Households with no lighting in percentage Houselisting and Housing Census Data Tables- District Level , Census of India__2": 0.0285,
      "Primary Drop Out Rate in percentage DISE": "NA",
      "Marginal Workers Household Industry - Males": 73,
      "Female Illiterates": 11514,
      "Main Workers Other - Females": 3138,
      "Marginal Workers Cultivators - Persons": 158,
      "Upper Primary Gross Enrolment Ratio in percentage DISE": "NA",
      "Scheduled Caste Persons": 21531,
      "Marginal Workers Cultivators worked for 3 - 6 moths during last year - Persons": 133,
      "Households with landline phone in percentage": 3.57,
      "Total Households in District  Houselisting and Housing Census Data Tables- District Level , Census of India": 17553,
      "Upper Primary Pupil-Teacher Ratio in percentage DISE": "NA",
      "Primary Student-Classroom Ratio in percentage DISE": "NA",
      "Primary Schools with boys toilet in percentage DISE": "NA",
      "Mean number of children ever born to women aged 40-49years  DLHS-4": "Not available",
      "Households receiving untreated tap water within premises  Houselisting and Housing Census Data Tables- District Level , Census of India__5": 683,
      "Marginal Workers Household Industry worked for 0 - 3 moths during last year - Persons": 9,
      "Total Male Population": 47983,
      "Non Workers - Females": 37648,
      "Current use of family planning methods in percentage DLHS-4": "Not available",
      "Households with main source of drinking water within premises  Houselisting and Housing Census Data Tables- District Level , Census of India__3": 15023,
      "Main Workers Agricultural Labourers - Males": 762,
      "Marginal Workers Other worked for 0 - 3 moths during last year - Persons": 306,
      "Currently married women married below 18years of age in percentage DLHS-4": "Not available",
      "Person Illiterates": 20873,
      "Main Workers Household Industry - Females": 15,
      "Female Literates": 30216,
      "Marginal Workers Cultivators worked for 0 - 3 moths during last year - Males": 17,
      "Male": "NA",
      "Households with improved source of drinking water in percentage DLHS-4": "Not available",
      "Upper Primary Schools with electricity in percentage DISE": "NA",
      "Households with electricity in percentage DLHS-4": "Not available",
      "Villages with Primary Health Centre within 10km in percentage DLHS-4": 0,
      "Births to women aged 15-19years out of Total births in percentage DLHS-4": "Not available",
      "Prevalence of Anaemia in women aged 15-49years in percentage DLHS-4": "Not available",
      "Marginal Workers Agricultural Labourers worked for 3 - 6 moths during last year - Persons": 176,
      "Main Workers Household Industry - Males": 131,
      "Scheduled Tribe Females": 617,
      "Marginal Workers worked for 0 - 3 moths during last year - Males": 332,
      "Marginal Workers Other worked for 3 - 6 moths during last year - Males": 1831,
      "Primary Net Enrolment Ratio in percentage DISE": "NA",
      "Total": "NA",
      "Mean age at marriage for boys DLHS-4": "Not available",
      "Number of District Hospitals  DLHS-4": 0,
      "0-6 Age Group Females": 4273,
      "Marginal Workers Agricultural Labourers worked for 0 - 3 moths during last year - Persons": 48,
      "Marginal Workers Household Industry worked for 0 - 3 moths during last year - Males": 7,
      "Total Workers  Females": 4082,
      "Marginal Workers worked for 3 - 6 moths during last year - Females": 521,
      "Institutional Deliveries in percentage DLHS-4": "Not available",
      "Marginal Workers Other - Males": 2091,
      "Total Workers  Males": 23696,
      "Main Workers - Females": 3505,
      "Primary Gross Enrolment Ratio in percentage DISE": "NA",
      "Main Workers Cultivators - Persons": 1185,
      "Marginal Workers Household Industry worked for 0 - 3 moths during last year - Females": 2,
      "Upper Primary Net Enrolment Ratio in percentage DISE": "NA",
      "Primary New Government Schools since 2003 in percentage DISE": "NA",
      "Tier": "Urban",
      "Marginal Workers Household Industry - Females": 18,
      "Primary Schools with electricity in percentage DISE": "NA",
      "Main Workers Other - Persons": 22619,
      "Marginal Workers Household Industry worked for 3 - 6 moths during last year - Females": 16,
      "Main Workers Cultivators - Males": 860,
      "Main Workers Household Industry - Persons": 146,
      "Marginal Workers Cultivators worked for 0 - 3 moths during last year - Persons": 25,
      "Scheduled Caste Males": 11323,
      "Marginal Workers - Persons": 3039,
      "Deliveries at home conducted by skilled health personnel in percentage DLHS-4": "Not available",
      "Villages with Sub-Health Centres within 3km in percentage DLHS-4": 0,
      "Upper Primary New Government Schools since 2003 in percentage DISE": "NA",
      "0-6 Age Group Males": 5262,
      "Primary Schools with drinking water facility in percentage DISE": "NA",
      "Non Workers - Persons": 61935,
      "Person Literates": 68840,
      "State": "JAMMU AND KASHMIR",
      "Total Female Population": 41730,
      "Marginal Workers worked for 0 - 3 moths during last year - Persons": 388,
      "Marginal Workers Cultivators - Females": 70,
      "Marginal Workers Other - Persons": 2566,
      "Sex Ratio": 870,
      "Scheduled Tribe Persons": 1288,
      "Marginal Workers Household Industry worked for 3 - 6 moths during last year - Males": 66,
      "Marginal Workers Agricultural Labourers - Females": 14,
      "Mean age at marriage for girls DLHS-4": "Not available",
      "Households with solar energy as main source of lighting  Houselisting and Housing Census Data Tables- District Level , Census of India__4": "-",
      "District": "KATHUA",
      "Households receiving treated tap water within premises in percentage Houselisting and Housing Census Data Tables- District Level , Census of India__1": 52.6120891,
      "Total Workers  Persons": 27778,
      "Households receiving treated tap water within premises  Houselisting and Housing Census Data Tables- District Level , Census of India__4": 9235,
      "Primary Female Teachers in percentage DISE": "NA",
      "Number of Households": 17932,
      "Main Workers Agricultural Labourers - Persons": 789
    }
  ]
}