{
  "Total": [
    {
      "Marginal Workers Agricultural Labourers - Persons": 27088,
      "Marginal Workers Other - Females": 10477,
      "Marginal Workers Other worked for 0 - 3 moths during last year - Females": 3498,
      "Upper Primary Schools with boys toilet in percentage DISE": 87.5,
      "Total Population": 560440,
      "Households with electricity as main source of lighting in percentage Houselisting and Housing Census Data Tables- District Level , Census of India": 90.63034675,
      "Primary Girl's Enrolment in percentage DISE": 51.6,
      "Marginal Workers worked for 3 - 6 moths during last year - Males": 34779,
      "Prevalence of Acute illness in percentage DLHS-4": "Not available",
      "Main Workers - Persons": 98306,
      "Main Workers Cultivators - Females": 1616,
      "Marginal Workers Agricultural Labourers worked for 3 - 6 moths during last year - Females": 3664,
      "Marginal Workers Other worked for 0 - 3 moths during last year - Males": 2951,
      "Upper Primary Schools with drinking water facility in percentage DISE": 100,
      "Primary Schools with girls toilet in percentage DISE": 31.3,
      "Marginal Workers worked for 3 - 6 moths during last year - Persons": 57470,
      "Upper Primary Drop Out Rate in percentage DISE": 3.58,
      "Prevalence of Anaemia in pregnant women aged 15-49years in percentage DLHS-4": "Not available",
      "Current use of any modern method of family planning in percentage DLHS-4": "Not available",
      "Marginal Workers Agricultural Labourers - Males": 19536,
      "Upper Primary Female Teachers in percentage DISE": 65.9,
      "Marginal Workers - Females": 40856,
      "Marginal Workers Other worked for 3 - 6 moths during last year - Persons": 18743,
      "Main Workers Agricultural Labourers - Females": 394,
      "Marginal Workers Cultivators worked for 3 - 6 moths during last year - Females": 8968,
      "Households with no lighting  Houselisting and Housing Census Data Tables- District Level , Census of India__5": 479,
      "Prevalence of Severe Anaemia  in percentage DLHS-4": "Not available",
      "Total unmet need for family planning in percentage DLHS-4": "Not available",
      "Main Workers Other - Males": 62507,
      "Children who received full vaccination in percentage DLHS-4": "Not available",
      "Marginal Workers Household Industry - Persons": 6904,
      "Primary Pupil-Teacher Ratio in percentage DISE": 10,
      "Marginal Workers Agricultural Labourers worked for 3 - 6 moths during last year - Males": 13018,
      "Scheduled Caste Females": 5,
      "Marginal Workers Cultivators - Males": 13437,
      "Marginal Workers - Males": 49258,
      "Marginal Workers worked for 0 - 3 moths during last year - Females": 18165,
      "Households with main source of drinking water within premises in percentage Houselisting and Housing Census Data Tables- District Level , Census of India": 62.64447754,
      "Marginal Workers Household Industry worked for 3 - 6 moths during last year - Persons": 4263,
      "Upper Primary Girl's Enrolment in percentage DISE": 73.9,
      "Prevalence of Severe Anaemia in women aged 15-49years in percentage DLHS-4": "Not available",
      "Marginal Workers Agricultural Labourers worked for 0 - 3 moths during last year - Males": 6518,
      "Households with electricity as main source of lighting  Houselisting and Housing Census Data Tables- District Level , Census of India__3": 73629,
      "Households with computer or laptop with internet connection in percentage": 1.89,
      "PHCs functioning on a 24x7hours basis in percentage DLHS-4": "Not available",
      "Non Workers - Males": 154636,
      "Total Households in District Houselisting and Housing Census Data Tables- District Level , Census of India": 81241,
      "Upper Primary Schools with girls toilet in percentage DISE": 75,
      "Households with mobile phone in percentage": 70.81,
      "Households receiving untreated tap water within premises in percentage Houselisting and Housing Census Data Tables- District Level , Census of India__2": 23.438904,
      "Marginal Workers Cultivators worked for 3 - 6 moths during last year - Males": 8814,
      "Prevalence of Anaemia  in percentage DLHS-4": "Not available",
      "Prevalence of Chronic illness in percentage DLHS-4": "Not available",
      "Households with solar energy as main source of lighting in percentage Houselisting and Housing Census Data Tables- District Level , Census of India__1": 0.609298261,
      "Marginal Workers Agricultural Labourers worked for 0 - 3 moths during last year - Females": 3888,
      "Main Workers - Males": 89170,
      "Female": 51.8,
      "Sno": 665,
      "Marginal Workers Other worked for 3 - 6 moths during last year - Females": 6979,
      "Marginal Workers Cultivators worked for 0 - 3 moths during last year - Females": 8525,
      "Scheduled Tribe Males": 11837,
      "Male Illiterates": 114738,
      "Prevalence of Severe Anaemia in pregnant women aged 15-49years in percentage DLHS-4": "Not available",
      "0-6 Age Group Persons": 97374,
      "Upper Primary Student-Classroom Ratio in percentage DISE": 10,
      "Currently married men married below 21years of age in percentage DLHS-4": "Not available",
      "Male Literates": 178326,
      "Households with no lighting in percentage Houselisting and Housing Census Data Tables- District Level , Census of India__2": 0.589603771,
      "Primary Drop Out Rate in percentage DISE": 7.5,
      "Marginal Workers Household Industry - Males": 1570,
      "Female Illiterates": 151744,
      "Main Workers Other - Females": 6280,
      "Marginal Workers Cultivators - Persons": 30930,
      "Upper Primary Gross Enrolment Ratio in percentage DISE": 68.2,
      "Scheduled Caste Persons": 402,
      "Marginal Workers Cultivators worked for 3 - 6 moths during last year - Persons": 17782,
      "Households with landline phone in percentage": 2.18,
      "Total Households in District  Houselisting and Housing Census Data Tables- District Level , Census of India": 81241,
      "Upper Primary Pupil-Teacher Ratio in percentage DISE": 7,
      "Primary Student-Classroom Ratio in percentage DISE": 7,
      "Primary Schools with boys toilet in percentage DISE": 69.6,
      "Mean number of children ever born to women aged 40-49years  DLHS-4": "Not available",
      "Households receiving untreated tap water within premises  Houselisting and Housing Census Data Tables- District Level , Census of India__5": 19042,
      "Marginal Workers Household Industry worked for 0 - 3 moths during last year - Persons": 2641,
      "Total Male Population": 293064,
      "Non Workers - Females": 217384,
      "Current use of family planning methods in percentage DLHS-4": "Not available",
      "Households with main source of drinking water within premises  Houselisting and Housing Census Data Tables- District Level , Census of India__3": 50893,
      "Main Workers Agricultural Labourers - Males": 6598,
      "Marginal Workers Other worked for 0 - 3 moths during last year - Persons": 6449,
      "Currently married women married below 18years of age in percentage DLHS-4": "Not available",
      "Person Illiterates": 266482,
      "Main Workers Household Industry - Females": 846,
      "Female Literates": 115632,
      "Marginal Workers Cultivators worked for 0 - 3 moths during last year - Males": 4623,
      "Male": 74.36,
      "Households with improved source of drinking water in percentage DLHS-4": "Not available",
      "Upper Primary Schools with electricity in percentage DISE": 0,
      "Households with electricity in percentage DLHS-4": "Not available",
      "Villages with Primary Health Centre within 10km in percentage DLHS-4": "Not available",
      "Births to women aged 15-19years out of Total births in percentage DLHS-4": "Not available",
      "Prevalence of Anaemia in women aged 15-49years in percentage DLHS-4": "Not available",
      "Marginal Workers Agricultural Labourers worked for 3 - 6 moths during last year - Persons": 16682,
      "Main Workers Household Industry - Males": 2865,
      "Scheduled Tribe Females": 10770,
      "Marginal Workers worked for 0 - 3 moths during last year - Males": 14479,
      "Marginal Workers Other worked for 3 - 6 moths during last year - Males": 11764,
      "Primary Net Enrolment Ratio in percentage DISE": 53.5,
      "Total": 63.48,
      "Mean age at marriage for boys DLHS-4": "Not available",
      "Number of District Hospitals  DLHS-4": "Not available",
      "0-6 Age Group Females": 44140,
      "Marginal Workers Agricultural Labourers worked for 0 - 3 moths during last year - Persons": 10406,
      "Marginal Workers Household Industry worked for 0 - 3 moths during last year - Males": 387,
      "Total Workers  Females": 49992,
      "Marginal Workers worked for 3 - 6 moths during last year - Females": 22691,
      "Institutional Deliveries in percentage DLHS-4": "Not available",
      "Marginal Workers Other - Males": 14715,
      "Total Workers  Males": 138428,
      "Main Workers - Females": 9136,
      "Primary Gross Enrolment Ratio in percentage DISE": 68.7,
      "Main Workers Cultivators - Persons": 18816,
      "Marginal Workers Household Industry worked for 0 - 3 moths during last year - Females": 2254,
      "Upper Primary Net Enrolment Ratio in percentage DISE": 48.4,
      "Primary New Government Schools since 2003 in percentage DISE": 54.3,
      "Tier": "Total",
      "Marginal Workers Household Industry - Females": 5334,
      "Primary Schools with electricity in percentage DISE": 5.9,
      "Main Workers Other - Persons": 68787,
      "Marginal Workers Household Industry worked for 3 - 6 moths during last year - Females": 3080,
      "Main Workers Cultivators - Males": 17200,
      "Main Workers Household Industry - Persons": 3711,
      "Marginal Workers Cultivators worked for 0 - 3 moths during last year - Persons": 13148,
      "Scheduled Caste Males": 397,
      "Marginal Workers - Persons": 90114,
      "Deliveries at home conducted by skilled health personnel in percentage DLHS-4": "Not available",
      "Villages with Sub-Health Centres within 3km in percentage DLHS-4": "Not available",
      "Upper Primary New Government Schools since 2003 in percentage DISE": 61.5,
      "0-6 Age Group Males": 53234,
      "Primary Schools with drinking water facility in percentage DISE": 93.5,
      "Non Workers - Persons": 372020,
      "Person Literates": 293958,
      "State": "JAMMU AND KASHMIR",
      "Total Female Population": 267376,
      "Marginal Workers worked for 0 - 3 moths during last year - Persons": 32644,
      "Marginal Workers Cultivators - Females": 17493,
      "Marginal Workers Other - Persons": 25192,
      "Sex Ratio": 912,
      "Scheduled Tribe Persons": 22607,
      "Marginal Workers Household Industry worked for 3 - 6 moths during last year - Males": 1183,
      "Marginal Workers Agricultural Labourers - Females": 7552,
      "Mean age at marriage for girls DLHS-4": "Not available",
      "Households with solar energy as main source of lighting  Houselisting and Housing Census Data Tables- District Level , Census of India__4": 495,
      "District": "PULWAMA",
      "Households receiving treated tap water within premises in percentage Houselisting and Housing Census Data Tables- District Level , Census of India__1": 24.86429266,
      "Total Workers  Persons": 188420,
      "Households receiving treated tap water within premises  Houselisting and Housing Census Data Tables- District Level , Census of India__4": 20200,
      "Primary Female Teachers in percentage DISE": 33.6,
      "Number of Households": 86241,
      "Main Workers Agricultural Labourers - Persons": 6992
    }
  ],
  "Rural": [
    {
      "Marginal Workers Agricultural Labourers - Persons": 25720,
      "Marginal Workers Other - Females": 8321,
      "Marginal Workers Other worked for 0 - 3 moths during last year - Females": 3067,
      "Upper Primary Schools with boys toilet in percentage DISE": "NA",
      "Total Population": 479978,
      "Households with electricity as main source of lighting in percentage Houselisting and Housing Census Data Tables- District Level , Census of India": 89.61344159,
      "Primary Girl's Enrolment in percentage DISE": "NA",
      "Marginal Workers worked for 3 - 6 moths during last year - Males": 30559,
      "Prevalence of Acute illness in percentage DLHS-4": "Not available",
      "Main Workers - Persons": 77399,
      "Main Workers Cultivators - Females": 1539,
      "Marginal Workers Agricultural Labourers worked for 3 - 6 moths during last year - Females": 3493,
      "Marginal Workers Other worked for 0 - 3 moths during last year - Males": 2504,
      "Upper Primary Schools with drinking water facility in percentage DISE": "NA",
      "Primary Schools with girls toilet in percentage DISE": "NA",
      "Marginal Workers worked for 3 - 6 moths during last year - Persons": 50161,
      "Upper Primary Drop Out Rate in percentage DISE": "NA",
      "Prevalence of Anaemia in pregnant women aged 15-49years in percentage DLHS-4": "Not available",
      "Current use of any modern method of family planning in percentage DLHS-4": "Not available",
      "Marginal Workers Agricultural Labourers - Males": 18545,
      "Upper Primary Female Teachers in percentage DISE": "NA",
      "Marginal Workers - Females": 36211,
      "Marginal Workers Other worked for 3 - 6 moths during last year - Persons": 13880,
      "Main Workers Agricultural Labourers - Females": 367,
      "Marginal Workers Cultivators worked for 3 - 6 moths during last year - Females": 8435,
      "Households with no lighting  Houselisting and Housing Census Data Tables- District Level , Census of India__5": 475,
      "Prevalence of Severe Anaemia  in percentage DLHS-4": "Not available",
      "Total unmet need for family planning in percentage DLHS-4": "Not available",
      "Main Workers Other - Males": 44509,
      "Children who received full vaccination in percentage DLHS-4": "Not available",
      "Marginal Workers Household Industry - Persons": 5439,
      "Primary Pupil-Teacher Ratio in percentage DISE": "NA",
      "Marginal Workers Agricultural Labourers worked for 3 - 6 moths during last year - Males": 12398,
      "Scheduled Caste Females": 4,
      "Marginal Workers Cultivators - Males": 12918,
      "Marginal Workers - Males": 43962,
      "Marginal Workers worked for 0 - 3 moths during last year - Females": 16609,
      "Households with main source of drinking water within premises in percentage Houselisting and Housing Census Data Tables- District Level , Census of India": 59.04056964,
      "Marginal Workers Household Industry worked for 3 - 6 moths during last year - Persons": 3509,
      "Upper Primary Girl's Enrolment in percentage DISE": "NA",
      "Prevalence of Severe Anaemia in women aged 15-49years in percentage DLHS-4": "Not available",
      "Marginal Workers Agricultural Labourers worked for 0 - 3 moths during last year - Males": 6147,
      "Households with electricity as main source of lighting  Houselisting and Housing Census Data Tables- District Level , Census of India__3": 63682,
      "Households with computer or laptop with internet connection in percentage": 1.52,
      "PHCs functioning on a 24x7hours basis in percentage DLHS-4": "Not applicable",
      "Non Workers - Males": 134157,
      "Total Households in District Houselisting and Housing Census Data Tables- District Level , Census of India": 71063,
      "Upper Primary Schools with girls toilet in percentage DISE": "NA",
      "Households with mobile phone in percentage": 70.58,
      "Households receiving untreated tap water within premises in percentage Houselisting and Housing Census Data Tables- District Level , Census of India__2": 24.47687263,
      "Marginal Workers Cultivators worked for 3 - 6 moths during last year - Males": 8446,
      "Prevalence of Anaemia  in percentage DLHS-4": "Not available",
      "Prevalence of Chronic illness in percentage DLHS-4": "Not available",
      "Households with solar energy as main source of lighting in percentage Houselisting and Housing Census Data Tables- District Level , Census of India__1": 0.685307403,
      "Marginal Workers Agricultural Labourers worked for 0 - 3 moths during last year - Females": 3682,
      "Main Workers - Males": 69977,
      "Female": "NA",
      "Sno": 664,
      "Marginal Workers Other worked for 3 - 6 moths during last year - Females": 5254,
      "Marginal Workers Cultivators worked for 0 - 3 moths during last year - Females": 8210,
      "Scheduled Tribe Males": 11528,
      "Male Illiterates": 100867,
      "Prevalence of Severe Anaemia in pregnant women aged 15-49years in percentage DLHS-4": "Not available",
      "0-6 Age Group Persons": 83598,
      "Upper Primary Student-Classroom Ratio in percentage DISE": "NA",
      "Currently married men married below 21years of age in percentage DLHS-4": "Not available",
      "Male Literates": 147229,
      "Households with no lighting in percentage Houselisting and Housing Census Data Tables- District Level , Census of India__2": 0.668420979,
      "Primary Drop Out Rate in percentage DISE": "NA",
      "Marginal Workers Household Industry - Males": 1369,
      "Female Illiterates": 133932,
      "Main Workers Other - Females": 4766,
      "Marginal Workers Cultivators - Persons": 29563,
      "Upper Primary Gross Enrolment Ratio in percentage DISE": "NA",
      "Scheduled Caste Persons": 52,
      "Marginal Workers Cultivators worked for 3 - 6 moths during last year - Persons": 16881,
      "Households with landline phone in percentage": 2.1,
      "Total Households in District  Houselisting and Housing Census Data Tables- District Level , Census of India": 71063,
      "Upper Primary Pupil-Teacher Ratio in percentage DISE": "NA",
      "Primary Student-Classroom Ratio in percentage DISE": "NA",
      "Primary Schools with boys toilet in percentage DISE": "NA",
      "Mean number of children ever born to women aged 40-49years  DLHS-4": "Not available",
      "Households receiving untreated tap water within premises  Houselisting and Housing Census Data Tables- District Level , Census of India__5": 17394,
      "Marginal Workers Household Industry worked for 0 - 3 moths during last year - Persons": 1930,
      "Total Male Population": 248096,
      "Non Workers - Females": 188249,
      "Current use of family planning methods in percentage DLHS-4": "Not available",
      "Households with main source of drinking water within premises  Houselisting and Housing Census Data Tables- District Level , Census of India__3": 41956,
      "Main Workers Agricultural Labourers - Males": 6165,
      "Marginal Workers Other worked for 0 - 3 moths during last year - Persons": 5571,
      "Currently married women married below 18years of age in percentage DLHS-4": "Not available",
      "Person Illiterates": 234799,
      "Main Workers Household Industry - Females": 750,
      "Female Literates": 97950,
      "Marginal Workers Cultivators worked for 0 - 3 moths during last year - Males": 4472,
      "Male": "NA",
      "Households with improved source of drinking water in percentage DLHS-4": "Not available",
      "Upper Primary Schools with electricity in percentage DISE": "NA",
      "Households with electricity in percentage DLHS-4": "Not available",
      "Villages with Primary Health Centre within 10km in percentage DLHS-4": "Not applicable",
      "Births to women aged 15-19years out of Total births in percentage DLHS-4": "Not available",
      "Prevalence of Anaemia in women aged 15-49years in percentage DLHS-4": "Not available",
      "Marginal Workers Agricultural Labourers worked for 3 - 6 moths during last year - Persons": 15891,
      "Main Workers Household Industry - Males": 2579,
      "Scheduled Tribe Females": 10661,
      "Marginal Workers worked for 0 - 3 moths during last year - Males": 13403,
      "Marginal Workers Other worked for 3 - 6 moths during last year - Males": 8626,
      "Primary Net Enrolment Ratio in percentage DISE": "NA",
      "Total": "NA",
      "Mean age at marriage for boys DLHS-4": "Not available",
      "Number of District Hospitals  DLHS-4": "Not applicable",
      "0-6 Age Group Females": 37770,
      "Marginal Workers Agricultural Labourers worked for 0 - 3 moths during last year - Persons": 9829,
      "Marginal Workers Household Industry worked for 0 - 3 moths during last year - Males": 280,
      "Total Workers  Females": 43633,
      "Marginal Workers worked for 3 - 6 moths during last year - Females": 19602,
      "Institutional Deliveries in percentage DLHS-4": "Not available",
      "Marginal Workers Other - Males": 11130,
      "Total Workers  Males": 113939,
      "Main Workers - Females": 7422,
      "Primary Gross Enrolment Ratio in percentage DISE": "NA",
      "Main Workers Cultivators - Persons": 18263,
      "Marginal Workers Household Industry worked for 0 - 3 moths during last year - Females": 1650,
      "Upper Primary Net Enrolment Ratio in percentage DISE": "NA",
      "Primary New Government Schools since 2003 in percentage DISE": "NA",
      "Tier": "Rural",
      "Marginal Workers Household Industry - Females": 4070,
      "Primary Schools with electricity in percentage DISE": "NA",
      "Main Workers Other - Persons": 49275,
      "Marginal Workers Household Industry worked for 3 - 6 moths during last year - Females": 2420,
      "Main Workers Cultivators - Males": 16724,
      "Main Workers Household Industry - Persons": 3329,
      "Marginal Workers Cultivators worked for 0 - 3 moths during last year - Persons": 12682,
      "Scheduled Caste Males": 48,
      "Marginal Workers - Persons": 80173,
      "Deliveries at home conducted by skilled health personnel in percentage DLHS-4": "Not available",
      "Villages with Sub-Health Centres within 3km in percentage DLHS-4": "Not applicable",
      "Upper Primary New Government Schools since 2003 in percentage DISE": "NA",
      "0-6 Age Group Males": 45828,
      "Primary Schools with drinking water facility in percentage DISE": "NA",
      "Non Workers - Persons": 322406,
      "Person Literates": 245179,
      "State": "JAMMU AND KASHMIR",
      "Total Female Population": 231882,
      "Marginal Workers worked for 0 - 3 moths during last year - Persons": 30012,
      "Marginal Workers Cultivators - Females": 16645,
      "Marginal Workers Other - Persons": 19451,
      "Sex Ratio": 935,
      "Scheduled Tribe Persons": 22189,
      "Marginal Workers Household Industry worked for 3 - 6 moths during last year - Males": 1089,
      "Marginal Workers Agricultural Labourers - Females": 7175,
      "Mean age at marriage for girls DLHS-4": "Not available",
      "Households with solar energy as main source of lighting  Houselisting and Housing Census Data Tables- District Level , Census of India__4": 487,
      "District": "PULWAMA",
      "Households receiving treated tap water within premises in percentage Houselisting and Housing Census Data Tables- District Level , Census of India__1": 20.04559335,
      "Total Workers  Persons": 157572,
      "Households receiving treated tap water within premises  Houselisting and Housing Census Data Tables- District Level , Census of India__4": 14245,
      "Primary Female Teachers in percentage DISE": "NA",
      "Number of Households": 75587,
      "Main Workers Agricultural Labourers - Persons": 6532
    }
  ],
  "Urban": [
    {
      "Marginal Workers Agricultural Labourers - Persons": 1368,
      "Marginal Workers Other - Females": 2156,
      "Marginal Workers Other worked for 0 - 3 moths during last year - Females": 431,
      "Upper Primary Schools with boys toilet in percentage DISE": "NA",
      "Total Population": 80462,
      "Households with electricity as main source of lighting in percentage Houselisting and Housing Census Data Tables- District Level , Census of India": 97.7303989,
      "Primary Girl's Enrolment in percentage DISE": "NA",
      "Marginal Workers worked for 3 - 6 moths during last year - Males": 4220,
      "Prevalence of Acute illness in percentage DLHS-4": "Not available",
      "Main Workers - Persons": 20907,
      "Main Workers Cultivators - Females": 77,
      "Marginal Workers Agricultural Labourers worked for 3 - 6 moths during last year - Females": 171,
      "Marginal Workers Other worked for 0 - 3 moths during last year - Males": 447,
      "Upper Primary Schools with drinking water facility in percentage DISE": "NA",
      "Primary Schools with girls toilet in percentage DISE": "NA",
      "Marginal Workers worked for 3 - 6 moths during last year - Persons": 7309,
      "Upper Primary Drop Out Rate in percentage DISE": "NA",
      "Prevalence of Anaemia in pregnant women aged 15-49years in percentage DLHS-4": "Not available",
      "Current use of any modern method of family planning in percentage DLHS-4": "Not available",
      "Marginal Workers Agricultural Labourers - Males": 991,
      "Upper Primary Female Teachers in percentage DISE": "NA",
      "Marginal Workers - Females": 4645,
      "Marginal Workers Other worked for 3 - 6 moths during last year - Persons": 4863,
      "Main Workers Agricultural Labourers - Females": 27,
      "Marginal Workers Cultivators worked for 3 - 6 moths during last year - Females": 533,
      "Households with no lighting  Houselisting and Housing Census Data Tables- District Level , Census of India__5": 4,
      "Prevalence of Severe Anaemia  in percentage DLHS-4": "Not available",
      "Total unmet need for family planning in percentage DLHS-4": "Not available",
      "Main Workers Other - Males": 17998,
      "Children who received full vaccination in percentage DLHS-4": "Not available",
      "Marginal Workers Household Industry - Persons": 1465,
      "Primary Pupil-Teacher Ratio in percentage DISE": "NA",
      "Marginal Workers Agricultural Labourers worked for 3 - 6 moths during last year - Males": 620,
      "Scheduled Caste Females": 1,
      "Marginal Workers Cultivators - Males": 519,
      "Marginal Workers - Males": 5296,
      "Marginal Workers worked for 0 - 3 moths during last year - Females": 1556,
      "Households with main source of drinking water within premises in percentage Houselisting and Housing Census Data Tables- District Level , Census of India": 87.80703478,
      "Marginal Workers Household Industry worked for 3 - 6 moths during last year - Persons": 754,
      "Upper Primary Girl's Enrolment in percentage DISE": "NA",
      "Prevalence of Severe Anaemia in women aged 15-49years in percentage DLHS-4": "Not available",
      "Marginal Workers Agricultural Labourers worked for 0 - 3 moths during last year - Males": 371,
      "Households with electricity as main source of lighting  Houselisting and Housing Census Data Tables- District Level , Census of India__3": 9947,
      "Households with computer or laptop with internet connection in percentage": 4.46,
      "PHCs functioning on a 24x7hours basis in percentage DLHS-4": 0,
      "Non Workers - Males": 20479,
      "Total Households in District Houselisting and Housing Census Data Tables- District Level , Census of India": 10178,
      "Upper Primary Schools with girls toilet in percentage DISE": "NA",
      "Households with mobile phone in percentage": 72.47,
      "Households receiving untreated tap water within premises in percentage Houselisting and Housing Census Data Tables- District Level , Census of India__2": 16.19178621,
      "Marginal Workers Cultivators worked for 3 - 6 moths during last year - Males": 368,
      "Prevalence of Anaemia  in percentage DLHS-4": "Not available",
      "Prevalence of Chronic illness in percentage DLHS-4": "Not available",
      "Households with solar energy as main source of lighting in percentage Houselisting and Housing Census Data Tables- District Level , Census of India__1": 0.0786,
      "Marginal Workers Agricultural Labourers worked for 0 - 3 moths during last year - Females": 206,
      "Main Workers - Males": 19193,
      "Female": "NA",
      "Sno": 666,
      "Marginal Workers Other worked for 3 - 6 moths during last year - Females": 1725,
      "Marginal Workers Cultivators worked for 0 - 3 moths during last year - Females": 315,
      "Scheduled Tribe Males": 309,
      "Male Illiterates": 13871,
      "Prevalence of Severe Anaemia in pregnant women aged 15-49years in percentage DLHS-4": "Not available",
      "0-6 Age Group Persons": 13776,
      "Upper Primary Student-Classroom Ratio in percentage DISE": "NA",
      "Currently married men married below 21years of age in percentage DLHS-4": "Not available",
      "Male Literates": 31097,
      "Households with no lighting in percentage Houselisting and Housing Census Data Tables- District Level , Census of India__2": 0.0393,
      "Primary Drop Out Rate in percentage DISE": "NA",
      "Marginal Workers Household Industry - Males": 201,
      "Female Illiterates": 17812,
      "Main Workers Other - Females": 1514,
      "Marginal Workers Cultivators - Persons": 1367,
      "Upper Primary Gross Enrolment Ratio in percentage DISE": "NA",
      "Scheduled Caste Persons": 350,
      "Marginal Workers Cultivators worked for 3 - 6 moths during last year - Persons": 901,
      "Households with landline phone in percentage": 2.74,
      "Total Households in District  Houselisting and Housing Census Data Tables- District Level , Census of India": 10178,
      "Upper Primary Pupil-Teacher Ratio in percentage DISE": "NA",
      "Primary Student-Classroom Ratio in percentage DISE": "NA",
      "Primary Schools with boys toilet in percentage DISE": "NA",
      "Mean number of children ever born to women aged 40-49years  DLHS-4": "Not available",
      "Households receiving untreated tap water within premises  Houselisting and Housing Census Data Tables- District Level , Census of India__5": 1648,
      "Marginal Workers Household Industry worked for 0 - 3 moths during last year - Persons": 711,
      "Total Male Population": 44968,
      "Non Workers - Females": 29135,
      "Current use of family planning methods in percentage DLHS-4": "Not available",
      "Households with main source of drinking water within premises  Houselisting and Housing Census Data Tables- District Level , Census of India__3": 8937,
      "Main Workers Agricultural Labourers - Males": 433,
      "Marginal Workers Other worked for 0 - 3 moths during last year - Persons": 878,
      "Currently married women married below 18years of age in percentage DLHS-4": "Not available",
      "Person Illiterates": 31683,
      "Main Workers Household Industry - Females": 96,
      "Female Literates": 17682,
      "Marginal Workers Cultivators worked for 0 - 3 moths during last year - Males": 151,
      "Male": "NA",
      "Households with improved source of drinking water in percentage DLHS-4": "Not available",
      "Upper Primary Schools with electricity in percentage DISE": "NA",
      "Households with electricity in percentage DLHS-4": "Not available",
      "Villages with Primary Health Centre within 10km in percentage DLHS-4": 0,
      "Births to women aged 15-19years out of Total births in percentage DLHS-4": "Not available",
      "Prevalence of Anaemia in women aged 15-49years in percentage DLHS-4": "Not available",
      "Marginal Workers Agricultural Labourers worked for 3 - 6 moths during last year - Persons": 791,
      "Main Workers Household Industry - Males": 286,
      "Scheduled Tribe Females": 109,
      "Marginal Workers worked for 0 - 3 moths during last year - Males": 1076,
      "Marginal Workers Other worked for 3 - 6 moths during last year - Males": 3138,
      "Primary Net Enrolment Ratio in percentage DISE": "NA",
      "Total": "NA",
      "Mean age at marriage for boys DLHS-4": "Not available",
      "Number of District Hospitals  DLHS-4": 0,
      "0-6 Age Group Females": 6370,
      "Marginal Workers Agricultural Labourers worked for 0 - 3 moths during last year - Persons": 577,
      "Marginal Workers Household Industry worked for 0 - 3 moths during last year - Males": 107,
      "Total Workers  Females": 6359,
      "Marginal Workers worked for 3 - 6 moths during last year - Females": 3089,
      "Institutional Deliveries in percentage DLHS-4": "Not available",
      "Marginal Workers Other - Males": 3585,
      "Total Workers  Males": 24489,
      "Main Workers - Females": 1714,
      "Primary Gross Enrolment Ratio in percentage DISE": "NA",
      "Main Workers Cultivators - Persons": 553,
      "Marginal Workers Household Industry worked for 0 - 3 moths during last year - Females": 604,
      "Upper Primary Net Enrolment Ratio in percentage DISE": "NA",
      "Primary New Government Schools since 2003 in percentage DISE": "NA",
      "Tier": "Urban",
      "Marginal Workers Household Industry - Females": 1264,
      "Primary Schools with electricity in percentage DISE": "NA",
      "Main Workers Other - Persons": 19512,
      "Marginal Workers Household Industry worked for 3 - 6 moths during last year - Females": 660,
      "Main Workers Cultivators - Males": 476,
      "Main Workers Household Industry - Persons": 382,
      "Marginal Workers Cultivators worked for 0 - 3 moths during last year - Persons": 466,
      "Scheduled Caste Males": 349,
      "Marginal Workers - Persons": 9941,
      "Deliveries at home conducted by skilled health personnel in percentage DLHS-4": "Not available",
      "Villages with Sub-Health Centres within 3km in percentage DLHS-4": 0,
      "Upper Primary New Government Schools since 2003 in percentage DISE": "NA",
      "0-6 Age Group Males": 7406,
      "Primary Schools with drinking water facility in percentage DISE": "NA",
      "Non Workers - Persons": 49614,
      "Person Literates": 48779,
      "State": "JAMMU AND KASHMIR",
      "Total Female Population": 35494,
      "Marginal Workers worked for 0 - 3 moths during last year - Persons": 2632,
      "Marginal Workers Cultivators - Females": 848,
      "Marginal Workers Other - Persons": 5741,
      "Sex Ratio": 789,
      "Scheduled Tribe Persons": 418,
      "Marginal Workers Household Industry worked for 3 - 6 moths during last year - Males": 94,
      "Marginal Workers Agricultural Labourers - Females": 377,
      "Mean age at marriage for girls DLHS-4": "Not available",
      "Households with solar energy as main source of lighting  Houselisting and Housing Census Data Tables- District Level , Census of India__4": 8,
      "District": "PULWAMA",
      "Households receiving treated tap water within premises in percentage Houselisting and Housing Census Data Tables- District Level , Census of India__1": 58.50854785,
      "Total Workers  Persons": 30848,
      "Households receiving treated tap water within premises  Houselisting and Housing Census Data Tables- District Level , Census of India__4": 5955,
      "Primary Female Teachers in percentage DISE": "NA",
      "Number of Households": 10654,
      "Main Workers Agricultural Labourers - Persons": 460
    }
  ]
}