{
  "Total": [
    {
      "Marginal Workers Agricultural Labourers - Persons": 2125,
      "Marginal Workers Other - Females": 1333,
      "Marginal Workers Other worked for 0 - 3 moths during last year - Females": 277,
      "Upper Primary Schools with boys toilet in percentage DISE": 98.4,
      "Total Population": 125745,
      "Households with electricity as main source of lighting in percentage Houselisting and Housing Census Data Tables- District Level , Census of India": 93.32813718,
      "Primary Girl's Enrolment in percentage DISE": 48.4,
      "Marginal Workers worked for 3 - 6 moths during last year - Males": 1702,
      "Prevalence of Acute illness in percentage DLHS-4": 7.5,
      "Main Workers - Persons": 53111,
      "Main Workers Cultivators - Females": 15788,
      "Marginal Workers Agricultural Labourers worked for 3 - 6 moths during last year - Females": 1100,
      "Marginal Workers Other worked for 0 - 3 moths during last year - Males": 331,
      "Upper Primary Schools with drinking water facility in percentage DISE": 100,
      "Primary Schools with girls toilet in percentage DISE": 100,
      "Marginal Workers worked for 3 - 6 moths during last year - Persons": 5272,
      "Upper Primary Drop Out Rate in percentage DISE": 26.4,
      "Prevalence of Anaemia in pregnant women aged 15-49years in percentage DLHS-4": 59.7,
      "Current use of any modern method of family planning in percentage DLHS-4": 59,
      "Marginal Workers Agricultural Labourers - Males": 769,
      "Upper Primary Female Teachers in percentage DISE": 41.2,
      "Marginal Workers - Females": 4620,
      "Marginal Workers Other worked for 3 - 6 moths during last year - Persons": 1705,
      "Main Workers Agricultural Labourers - Females": 1330,
      "Marginal Workers Cultivators worked for 3 - 6 moths during last year - Females": 1201,
      "Households with no lighting  Houselisting and Housing Census Data Tables- District Level , Census of India__5": 76,
      "Prevalence of Severe Anaemia  in percentage DLHS-4": 14.5,
      "Total unmet need for family planning in percentage DLHS-4": 22.4,
      "Main Workers Other - Males": 8709,
      "Children who received full vaccination in percentage DLHS-4": 82.9,
      "Marginal Workers Household Industry - Persons": 325,
      "Primary Pupil-Teacher Ratio in percentage DISE": 20,
      "Marginal Workers Agricultural Labourers worked for 3 - 6 moths during last year - Males": 483,
      "Scheduled Caste Females": 1,
      "Marginal Workers Cultivators - Males": 782,
      "Marginal Workers - Males": 2611,
      "Marginal Workers worked for 0 - 3 moths during last year - Females": 1050,
      "Households with main source of drinking water within premises in percentage Houselisting and Housing Census Data Tables- District Level , Census of India": 12.01091193,
      "Marginal Workers Household Industry worked for 3 - 6 moths during last year - Persons": 276,
      "Upper Primary Girl's Enrolment in percentage DISE": 49.7,
      "Prevalence of Severe Anaemia in women aged 15-49years in percentage DLHS-4": 9.6,
      "Marginal Workers Agricultural Labourers worked for 0 - 3 moths during last year - Males": 286,
      "Households with electricity as main source of lighting  Houselisting and Housing Census Data Tables- District Level , Census of India__3": 23948,
      "Households with computer or laptop with internet connection in percentage": 0.72,
      "PHCs functioning on a 24x7hours basis in percentage DLHS-4": 100,
      "Non Workers - Males": 29259,
      "Total Households in District Houselisting and Housing Census Data Tables- District Level , Census of India": 25660,
      "Upper Primary Schools with girls toilet in percentage DISE": 100,
      "Households with mobile phone in percentage": 67.77,
      "Households receiving untreated tap water within premises in percentage Houselisting and Housing Census Data Tables- District Level , Census of India__2": 1.352299299,
      "Marginal Workers Cultivators worked for 3 - 6 moths during last year - Males": 507,
      "Prevalence of Anaemia  in percentage DLHS-4": 68.2,
      "Prevalence of Chronic illness in percentage DLHS-4": 3.6,
      "Households with solar energy as main source of lighting in percentage Houselisting and Housing Census Data Tables- District Level , Census of India__1": 0.389711613,
      "Marginal Workers Agricultural Labourers worked for 0 - 3 moths during last year - Females": 256,
      "Main Workers - Males": 31518,
      "Female": 94.59,
      "Sno": 1220,
      "Marginal Workers Other worked for 3 - 6 moths during last year - Females": 1056,
      "Marginal Workers Cultivators worked for 0 - 3 moths during last year - Females": 485,
      "Scheduled Tribe Males": 61954,
      "Male Illiterates": 11948,
      "Prevalence of Severe Anaemia in pregnant women aged 15-49years in percentage DLHS-4": 11.8,
      "0-6 Age Group Persons": 20645,
      "Upper Primary Student-Classroom Ratio in percentage DISE": 17,
      "Currently married men married below 21years of age in percentage DLHS-4": 20,
      "Male Literates": 51440,
      "Households with no lighting in percentage Houselisting and Housing Census Data Tables- District Level , Census of India__2": 0.296180826,
      "Primary Drop Out Rate in percentage DISE": 22,
      "Marginal Workers Household Industry - Males": 80,
      "Female Illiterates": 12995,
      "Main Workers Other - Females": 4181,
      "Marginal Workers Cultivators - Persons": 2468,
      "Upper Primary Gross Enrolment Ratio in percentage DISE": 103.6,
      "Scheduled Caste Persons": 17,
      "Marginal Workers Cultivators worked for 3 - 6 moths during last year - Persons": 1708,
      "Households with landline phone in percentage": 1.21,
      "Total Households in District  Houselisting and Housing Census Data Tables- District Level , Census of India": 25660,
      "Upper Primary Pupil-Teacher Ratio in percentage DISE": 10,
      "Primary Student-Classroom Ratio in percentage DISE": 13,
      "Primary Schools with boys toilet in percentage DISE": 99.4,
      "Mean number of children ever born to women aged 40-49years  DLHS-4": 3.4,
      "Households receiving untreated tap water within premises  Houselisting and Housing Census Data Tables- District Level , Census of India__5": 347,
      "Marginal Workers Household Industry worked for 0 - 3 moths during last year - Persons": 49,
      "Total Male Population": 63388,
      "Non Workers - Females": 36144,
      "Current use of family planning methods in percentage DLHS-4": 59.4,
      "Households with main source of drinking water within premises  Houselisting and Housing Census Data Tables- District Level , Census of India__3": 3082,
      "Main Workers Agricultural Labourers - Males": 2368,
      "Marginal Workers Other worked for 0 - 3 moths during last year - Persons": 608,
      "Currently married women married below 18years of age in percentage DLHS-4": 9.7,
      "Person Illiterates": 24943,
      "Main Workers Household Industry - Females": 294,
      "Female Literates": 49362,
      "Marginal Workers Cultivators worked for 0 - 3 moths during last year - Males": 275,
      "Male": 97.21,
      "Households with improved source of drinking water in percentage DLHS-4": 92.1,
      "Upper Primary Schools with electricity in percentage DISE": 88.8,
      "Households with electricity in percentage DLHS-4": 99.4,
      "Villages with Primary Health Centre within 10km in percentage DLHS-4": 40,
      "Births to women aged 15-19years out of Total births in percentage DLHS-4": 2.9,
      "Prevalence of Anaemia in women aged 15-49years in percentage DLHS-4": 62,
      "Marginal Workers Agricultural Labourers worked for 3 - 6 moths during last year - Persons": 1583,
      "Main Workers Household Industry - Males": 361,
      "Scheduled Tribe Females": 61512,
      "Marginal Workers worked for 0 - 3 moths during last year - Males": 909,
      "Marginal Workers Other worked for 3 - 6 moths during last year - Males": 649,
      "Primary Net Enrolment Ratio in percentage DISE": 100,
      "Total": 95.91,
      "Mean age at marriage for boys DLHS-4": 25.9,
      "Number of District Hospitals  DLHS-4": 1,
      "0-6 Age Group Females": 10171,
      "Marginal Workers Agricultural Labourers worked for 0 - 3 moths during last year - Persons": 542,
      "Marginal Workers Household Industry worked for 0 - 3 moths during last year - Males": 17,
      "Total Workers  Females": 26213,
      "Marginal Workers worked for 3 - 6 moths during last year - Females": 3570,
      "Institutional Deliveries in percentage DLHS-4": 78.3,
      "Marginal Workers Other - Males": 980,
      "Total Workers  Males": 34129,
      "Main Workers - Females": 21593,
      "Primary Gross Enrolment Ratio in percentage DISE": 122.7,
      "Main Workers Cultivators - Persons": 35868,
      "Marginal Workers Household Industry worked for 0 - 3 moths during last year - Females": 32,
      "Upper Primary Net Enrolment Ratio in percentage DISE": 75.5,
      "Primary New Government Schools since 2003 in percentage DISE": 4.6,
      "Tier": "Total",
      "Marginal Workers Household Industry - Females": 245,
      "Primary Schools with electricity in percentage DISE": 73.3,
      "Main Workers Other - Persons": 12890,
      "Marginal Workers Household Industry worked for 3 - 6 moths during last year - Females": 213,
      "Main Workers Cultivators - Males": 20080,
      "Main Workers Household Industry - Persons": 655,
      "Marginal Workers Cultivators worked for 0 - 3 moths during last year - Persons": 760,
      "Scheduled Caste Males": 16,
      "Marginal Workers - Persons": 7231,
      "Deliveries at home conducted by skilled health personnel in percentage DLHS-4": 8.7,
      "Villages with Sub-Health Centres within 3km in percentage DLHS-4": 92,
      "Upper Primary New Government Schools since 2003 in percentage DISE": 12.1,
      "0-6 Age Group Males": 10474,
      "Primary Schools with drinking water facility in percentage DISE": 98.1,
      "Non Workers - Persons": 65403,
      "Person Literates": 100802,
      "State": "MIZORAM",
      "Total Female Population": 62357,
      "Marginal Workers worked for 0 - 3 moths during last year - Persons": 1959,
      "Marginal Workers Cultivators - Females": 1686,
      "Marginal Workers Other - Persons": 2313,
      "Sex Ratio": 984,
      "Scheduled Tribe Persons": 123466,
      "Marginal Workers Household Industry worked for 3 - 6 moths during last year - Males": 63,
      "Marginal Workers Agricultural Labourers - Females": 1356,
      "Mean age at marriage for girls DLHS-4": 22.5,
      "Households with solar energy as main source of lighting  Houselisting and Housing Census Data Tables- District Level , Census of India__4": 100,
      "District": "CHAMPHAI",
      "Households receiving treated tap water within premises in percentage Houselisting and Housing Census Data Tables- District Level , Census of India__1": 9.855806703,
      "Total Workers  Persons": 60342,
      "Households receiving treated tap water within premises  Houselisting and Housing Census Data Tables- District Level , Census of India__4": 2529,
      "Primary Female Teachers in percentage DISE": 53.9,
      "Number of Households": 25520,
      "Main Workers Agricultural Labourers - Persons": 3698
    }
  ],
  "Rural": [
    {
      "Marginal Workers Agricultural Labourers - Persons": 499,
      "Marginal Workers Other - Females": 426,
      "Marginal Workers Other worked for 0 - 3 moths during last year - Females": 61,
      "Upper Primary Schools with boys toilet in percentage DISE": "NA",
      "Total Population": 77216,
      "Households with electricity as main source of lighting in percentage Houselisting and Housing Census Data Tables- District Level , Census of India": 90.39348885,
      "Primary Girl's Enrolment in percentage DISE": "NA",
      "Marginal Workers worked for 3 - 6 moths during last year - Males": 597,
      "Prevalence of Acute illness in percentage DLHS-4": 6.1,
      "Main Workers - Persons": 36363,
      "Main Workers Cultivators - Females": 13374,
      "Marginal Workers Agricultural Labourers worked for 3 - 6 moths during last year - Females": 289,
      "Marginal Workers Other worked for 0 - 3 moths during last year - Males": 40,
      "Upper Primary Schools with drinking water facility in percentage DISE": "NA",
      "Primary Schools with girls toilet in percentage DISE": "NA",
      "Marginal Workers worked for 3 - 6 moths during last year - Persons": 2097,
      "Upper Primary Drop Out Rate in percentage DISE": "NA",
      "Prevalence of Anaemia in pregnant women aged 15-49years in percentage DLHS-4": 60.3,
      "Current use of any modern method of family planning in percentage DLHS-4": 59.4,
      "Marginal Workers Agricultural Labourers - Males": 138,
      "Upper Primary Female Teachers in percentage DISE": "NA",
      "Marginal Workers - Females": 1913,
      "Marginal Workers Other worked for 3 - 6 moths during last year - Persons": 543,
      "Main Workers Agricultural Labourers - Females": 703,
      "Marginal Workers Cultivators worked for 3 - 6 moths during last year - Females": 675,
      "Households with no lighting  Houselisting and Housing Census Data Tables- District Level , Census of India__5": 50,
      "Prevalence of Severe Anaemia  in percentage DLHS-4": 15.8,
      "Total unmet need for family planning in percentage DLHS-4": 22,
      "Main Workers Other - Males": 3312,
      "Children who received full vaccination in percentage DLHS-4": 75.6,
      "Marginal Workers Household Industry - Persons": 225,
      "Primary Pupil-Teacher Ratio in percentage DISE": "NA",
      "Marginal Workers Agricultural Labourers worked for 3 - 6 moths during last year - Males": 108,
      "Scheduled Caste Females": 1,
      "Marginal Workers Cultivators - Males": 398,
      "Marginal Workers - Males": 791,
      "Marginal Workers worked for 0 - 3 moths during last year - Females": 413,
      "Households with main source of drinking water within premises in percentage Houselisting and Housing Census Data Tables- District Level , Census of India": 7.901820046,
      "Marginal Workers Household Industry worked for 3 - 6 moths during last year - Persons": 199,
      "Upper Primary Girl's Enrolment in percentage DISE": "NA",
      "Prevalence of Severe Anaemia in women aged 15-49years in percentage DLHS-4": 11.2,
      "Marginal Workers Agricultural Labourers worked for 0 - 3 moths during last year - Males": 30,
      "Households with electricity as main source of lighting  Houselisting and Housing Census Data Tables- District Level , Census of India__3": 14105,
      "Households with computer or laptop with internet connection in percentage": 0.37,
      "PHCs functioning on a 24x7hours basis in percentage DLHS-4": "Not applicable",
      "Non Workers - Males": 17634,
      "Total Households in District Houselisting and Housing Census Data Tables- District Level , Census of India": 15604,
      "Upper Primary Schools with girls toilet in percentage DISE": "NA",
      "Households with mobile phone in percentage": 59.79,
      "Households receiving untreated tap water within premises in percentage Houselisting and Housing Census Data Tables- District Level , Census of India__2": 1.313765701,
      "Marginal Workers Cultivators worked for 3 - 6 moths during last year - Males": 283,
      "Prevalence of Anaemia  in percentage DLHS-4": 67.5,
      "Prevalence of Chronic illness in percentage DLHS-4": 2.2,
      "Households with solar energy as main source of lighting in percentage Houselisting and Housing Census Data Tables- District Level , Census of India__1": 0.615226865,
      "Marginal Workers Agricultural Labourers worked for 0 - 3 moths during last year - Females": 72,
      "Main Workers - Males": 20685,
      "Female": "NA",
      "Sno": 1219,
      "Marginal Workers Other worked for 3 - 6 moths during last year - Females": 365,
      "Marginal Workers Cultivators worked for 0 - 3 moths during last year - Females": 263,
      "Scheduled Tribe Males": 38217,
      "Male Illiterates": 7730,
      "Prevalence of Severe Anaemia in pregnant women aged 15-49years in percentage DLHS-4": 16.4,
      "0-6 Age Group Persons": 13256,
      "Upper Primary Student-Classroom Ratio in percentage DISE": "NA",
      "Currently married men married below 21years of age in percentage DLHS-4": 24,
      "Male Literates": 31380,
      "Households with no lighting in percentage Houselisting and Housing Census Data Tables- District Level , Census of India__2": 0.320430659,
      "Primary Drop Out Rate in percentage DISE": "NA",
      "Marginal Workers Household Industry - Males": 37,
      "Female Illiterates": 8464,
      "Main Workers Other - Females": 1503,
      "Marginal Workers Cultivators - Persons": 1336,
      "Upper Primary Gross Enrolment Ratio in percentage DISE": "NA",
      "Scheduled Caste Persons": 10,
      "Marginal Workers Cultivators worked for 3 - 6 moths during last year - Persons": 958,
      "Households with landline phone in percentage": 1.54,
      "Total Households in District  Houselisting and Housing Census Data Tables- District Level , Census of India": 15604,
      "Upper Primary Pupil-Teacher Ratio in percentage DISE": "NA",
      "Primary Student-Classroom Ratio in percentage DISE": "NA",
      "Primary Schools with boys toilet in percentage DISE": "NA",
      "Mean number of children ever born to women aged 40-49years  DLHS-4": 3.6,
      "Households receiving untreated tap water within premises  Houselisting and Housing Census Data Tables- District Level , Census of India__5": 205,
      "Marginal Workers Household Industry worked for 0 - 3 moths during last year - Persons": 26,
      "Total Male Population": 39110,
      "Non Workers - Females": 20515,
      "Current use of family planning methods in percentage DLHS-4": 60.1,
      "Households with main source of drinking water within premises  Houselisting and Housing Census Data Tables- District Level , Census of India__3": 1233,
      "Main Workers Agricultural Labourers - Males": 1044,
      "Marginal Workers Other worked for 0 - 3 moths during last year - Persons": 101,
      "Currently married women married below 18years of age in percentage DLHS-4": 10.5,
      "Person Illiterates": 16194,
      "Main Workers Household Industry - Females": 98,
      "Female Literates": 29642,
      "Marginal Workers Cultivators worked for 0 - 3 moths during last year - Males": 115,
      "Male": "NA",
      "Households with improved source of drinking water in percentage DLHS-4": 90.4,
      "Upper Primary Schools with electricity in percentage DISE": "NA",
      "Households with electricity in percentage DLHS-4": 99.3,
      "Villages with Primary Health Centre within 10km in percentage DLHS-4": "Not applicable",
      "Births to women aged 15-19years out of Total births in percentage DLHS-4": 3,
      "Prevalence of Anaemia in women aged 15-49years in percentage DLHS-4": 65.9,
      "Marginal Workers Agricultural Labourers worked for 3 - 6 moths during last year - Persons": 397,
      "Main Workers Household Industry - Males": 159,
      "Scheduled Tribe Females": 37530,
      "Marginal Workers worked for 0 - 3 moths during last year - Males": 194,
      "Marginal Workers Other worked for 3 - 6 moths during last year - Males": 178,
      "Primary Net Enrolment Ratio in percentage DISE": "NA",
      "Total": "NA",
      "Mean age at marriage for boys DLHS-4": 24.8,
      "Number of District Hospitals  DLHS-4": "Not applicable",
      "0-6 Age Group Females": 6521,
      "Marginal Workers Agricultural Labourers worked for 0 - 3 moths during last year - Persons": 102,
      "Marginal Workers Household Industry worked for 0 - 3 moths during last year - Males": 9,
      "Total Workers  Females": 17591,
      "Marginal Workers worked for 3 - 6 moths during last year - Females": 1500,
      "Institutional Deliveries in percentage DLHS-4": 72.2,
      "Marginal Workers Other - Males": 218,
      "Total Workers  Males": 21476,
      "Main Workers - Females": 15678,
      "Primary Gross Enrolment Ratio in percentage DISE": "NA",
      "Main Workers Cultivators - Persons": 29544,
      "Marginal Workers Household Industry worked for 0 - 3 moths during last year - Females": 17,
      "Upper Primary Net Enrolment Ratio in percentage DISE": "NA",
      "Primary New Government Schools since 2003 in percentage DISE": "NA",
      "Tier": "Rural",
      "Marginal Workers Household Industry - Females": 188,
      "Primary Schools with electricity in percentage DISE": "NA",
      "Main Workers Other - Persons": 4815,
      "Marginal Workers Household Industry worked for 3 - 6 moths during last year - Females": 171,
      "Main Workers Cultivators - Males": 16170,
      "Main Workers Household Industry - Persons": 257,
      "Marginal Workers Cultivators worked for 0 - 3 moths during last year - Persons": 378,
      "Scheduled Caste Males": 9,
      "Marginal Workers - Persons": 2704,
      "Deliveries at home conducted by skilled health personnel in percentage DLHS-4": 11,
      "Villages with Sub-Health Centres within 3km in percentage DLHS-4": "Not applicable",
      "Upper Primary New Government Schools since 2003 in percentage DISE": "NA",
      "0-6 Age Group Males": 6735,
      "Primary Schools with drinking water facility in percentage DISE": "NA",
      "Non Workers - Persons": 38149,
      "Person Literates": 61022,
      "State": "MIZORAM",
      "Total Female Population": 38106,
      "Marginal Workers worked for 0 - 3 moths during last year - Persons": 607,
      "Marginal Workers Cultivators - Females": 938,
      "Marginal Workers Other - Persons": 644,
      "Sex Ratio": 974,
      "Scheduled Tribe Persons": 75747,
      "Marginal Workers Household Industry worked for 3 - 6 moths during last year - Males": 28,
      "Marginal Workers Agricultural Labourers - Females": 361,
      "Mean age at marriage for girls DLHS-4": 22.5,
      "Households with solar energy as main source of lighting  Houselisting and Housing Census Data Tables- District Level , Census of India__4": 96,
      "District": "CHAMPHAI",
      "Households receiving treated tap water within premises in percentage Houselisting and Housing Census Data Tables- District Level , Census of India__1": 6.081773904,
      "Total Workers  Persons": 39067,
      "Households receiving treated tap water within premises  Houselisting and Housing Census Data Tables- District Level , Census of India__4": 949,
      "Primary Female Teachers in percentage DISE": "NA",
      "Number of Households": 15452,
      "Main Workers Agricultural Labourers - Persons": 1747
    }
  ],
  "Urban": [
    {
      "Marginal Workers Agricultural Labourers - Persons": 1626,
      "Marginal Workers Other - Females": 907,
      "Marginal Workers Other worked for 0 - 3 moths during last year - Females": 216,
      "Upper Primary Schools with boys toilet in percentage DISE": "NA",
      "Total Population": 48529,
      "Households with electricity as main source of lighting in percentage Houselisting and Housing Census Data Tables- District Level , Census of India": 97.88186158,
      "Primary Girl's Enrolment in percentage DISE": "NA",
      "Marginal Workers worked for 3 - 6 moths during last year - Males": 1105,
      "Prevalence of Acute illness in percentage DLHS-4": "Not available",
      "Main Workers - Persons": 16748,
      "Main Workers Cultivators - Females": 2414,
      "Marginal Workers Agricultural Labourers worked for 3 - 6 moths during last year - Females": 811,
      "Marginal Workers Other worked for 0 - 3 moths during last year - Males": 291,
      "Upper Primary Schools with drinking water facility in percentage DISE": "NA",
      "Primary Schools with girls toilet in percentage DISE": "NA",
      "Marginal Workers worked for 3 - 6 moths during last year - Persons": 3175,
      "Upper Primary Drop Out Rate in percentage DISE": "NA",
      "Prevalence of Anaemia in pregnant women aged 15-49years in percentage DLHS-4": "Not available",
      "Current use of any modern method of family planning in percentage DLHS-4": "Not available",
      "Marginal Workers Agricultural Labourers - Males": 631,
      "Upper Primary Female Teachers in percentage DISE": "NA",
      "Marginal Workers - Females": 2707,
      "Marginal Workers Other worked for 3 - 6 moths during last year - Persons": 1162,
      "Main Workers Agricultural Labourers - Females": 627,
      "Marginal Workers Cultivators worked for 3 - 6 moths during last year - Females": 526,
      "Households with no lighting  Houselisting and Housing Census Data Tables- District Level , Census of India__5": 26,
      "Prevalence of Severe Anaemia  in percentage DLHS-4": "Not available",
      "Total unmet need for family planning in percentage DLHS-4": "Not available",
      "Main Workers Other - Males": 5397,
      "Children who received full vaccination in percentage DLHS-4": "Not available",
      "Marginal Workers Household Industry - Persons": 100,
      "Primary Pupil-Teacher Ratio in percentage DISE": "NA",
      "Marginal Workers Agricultural Labourers worked for 3 - 6 moths during last year - Males": 375,
      "Scheduled Caste Females": 0,
      "Marginal Workers Cultivators - Males": 384,
      "Marginal Workers - Males": 1820,
      "Marginal Workers worked for 0 - 3 moths during last year - Females": 637,
      "Households with main source of drinking water within premises in percentage Houselisting and Housing Census Data Tables- District Level , Census of India": 18.38703262,
      "Marginal Workers Household Industry worked for 3 - 6 moths during last year - Persons": 77,
      "Upper Primary Girl's Enrolment in percentage DISE": "NA",
      "Prevalence of Severe Anaemia in women aged 15-49years in percentage DLHS-4": "Not available",
      "Marginal Workers Agricultural Labourers worked for 0 - 3 moths during last year - Males": 256,
      "Households with electricity as main source of lighting  Houselisting and Housing Census Data Tables- District Level , Census of India__3": 9843,
      "Households with computer or laptop with internet connection in percentage": 1.27,
      "PHCs functioning on a 24x7hours basis in percentage DLHS-4": 0,
      "Non Workers - Males": 11625,
      "Total Households in District Houselisting and Housing Census Data Tables- District Level , Census of India": 10056,
      "Upper Primary Schools with girls toilet in percentage DISE": "NA",
      "Households with mobile phone in percentage": 80.17,
      "Households receiving untreated tap water within premises in percentage Houselisting and Housing Census Data Tables- District Level , Census of India__2": 1.412092283,
      "Marginal Workers Cultivators worked for 3 - 6 moths during last year - Males": 224,
      "Prevalence of Anaemia  in percentage DLHS-4": "Not available",
      "Prevalence of Chronic illness in percentage DLHS-4": "Not available",
      "Households with solar energy as main source of lighting in percentage Houselisting and Housing Census Data Tables- District Level , Census of India__1": 0.0398,
      "Marginal Workers Agricultural Labourers worked for 0 - 3 moths during last year - Females": 184,
      "Main Workers - Males": 10833,
      "Female": "NA",
      "Sno": 1221,
      "Marginal Workers Other worked for 3 - 6 moths during last year - Females": 691,
      "Marginal Workers Cultivators worked for 0 - 3 moths during last year - Females": 222,
      "Scheduled Tribe Males": 23737,
      "Male Illiterates": 4218,
      "Prevalence of Severe Anaemia in pregnant women aged 15-49years in percentage DLHS-4": "Not available",
      "0-6 Age Group Persons": 7389,
      "Upper Primary Student-Classroom Ratio in percentage DISE": "NA",
      "Currently married men married below 21years of age in percentage DLHS-4": "Not available",
      "Male Literates": 20060,
      "Households with no lighting in percentage Houselisting and Housing Census Data Tables- District Level , Census of India__2": 0.258552108,
      "Primary Drop Out Rate in percentage DISE": "NA",
      "Marginal Workers Household Industry - Males": 43,
      "Female Illiterates": 4531,
      "Main Workers Other - Females": 2678,
      "Marginal Workers Cultivators - Persons": 1132,
      "Upper Primary Gross Enrolment Ratio in percentage DISE": "NA",
      "Scheduled Caste Persons": 7,
      "Marginal Workers Cultivators worked for 3 - 6 moths during last year - Persons": 750,
      "Households with landline phone in percentage": 0.69,
      "Total Households in District  Houselisting and Housing Census Data Tables- District Level , Census of India": 10056,
      "Upper Primary Pupil-Teacher Ratio in percentage DISE": "NA",
      "Primary Student-Classroom Ratio in percentage DISE": "NA",
      "Primary Schools with boys toilet in percentage DISE": "NA",
      "Mean number of children ever born to women aged 40-49years  DLHS-4": "Not available",
      "Households receiving untreated tap water within premises  Houselisting and Housing Census Data Tables- District Level , Census of India__5": 142,
      "Marginal Workers Household Industry worked for 0 - 3 moths during last year - Persons": 23,
      "Total Male Population": 24278,
      "Non Workers - Females": 15629,
      "Current use of family planning methods in percentage DLHS-4": "Not available",
      "Households with main source of drinking water within premises  Houselisting and Housing Census Data Tables- District Level , Census of India__3": 1849,
      "Main Workers Agricultural Labourers - Males": 1324,
      "Marginal Workers Other worked for 0 - 3 moths during last year - Persons": 507,
      "Currently married women married below 18years of age in percentage DLHS-4": "Not available",
      "Person Illiterates": 8749,
      "Main Workers Household Industry - Females": 196,
      "Female Literates": 19720,
      "Marginal Workers Cultivators worked for 0 - 3 moths during last year - Males": 160,
      "Male": "NA",
      "Households with improved source of drinking water in percentage DLHS-4": "Not available",
      "Upper Primary Schools with electricity in percentage DISE": "NA",
      "Households with electricity in percentage DLHS-4": "Not available",
      "Villages with Primary Health Centre within 10km in percentage DLHS-4": 0,
      "Births to women aged 15-19years out of Total births in percentage DLHS-4": "Not available",
      "Prevalence of Anaemia in women aged 15-49years in percentage DLHS-4": "Not available",
      "Marginal Workers Agricultural Labourers worked for 3 - 6 moths during last year - Persons": 1186,
      "Main Workers Household Industry - Males": 202,
      "Scheduled Tribe Females": 23982,
      "Marginal Workers worked for 0 - 3 moths during last year - Males": 715,
      "Marginal Workers Other worked for 3 - 6 moths during last year - Males": 471,
      "Primary Net Enrolment Ratio in percentage DISE": "NA",
      "Total": "NA",
      "Mean age at marriage for boys DLHS-4": "Not available",
      "Number of District Hospitals  DLHS-4": 0,
      "0-6 Age Group Females": 3650,
      "Marginal Workers Agricultural Labourers worked for 0 - 3 moths during last year - Persons": 440,
      "Marginal Workers Household Industry worked for 0 - 3 moths during last year - Males": 8,
      "Total Workers  Females": 8622,
      "Marginal Workers worked for 3 - 6 moths during last year - Females": 2070,
      "Institutional Deliveries in percentage DLHS-4": "Not available",
      "Marginal Workers Other - Males": 762,
      "Total Workers  Males": 12653,
      "Main Workers - Females": 5915,
      "Primary Gross Enrolment Ratio in percentage DISE": "NA",
      "Main Workers Cultivators - Persons": 6324,
      "Marginal Workers Household Industry worked for 0 - 3 moths during last year - Females": 15,
      "Upper Primary Net Enrolment Ratio in percentage DISE": "NA",
      "Primary New Government Schools since 2003 in percentage DISE": "NA",
      "Tier": "Urban",
      "Marginal Workers Household Industry - Females": 57,
      "Primary Schools with electricity in percentage DISE": "NA",
      "Main Workers Other - Persons": 8075,
      "Marginal Workers Household Industry worked for 3 - 6 moths during last year - Females": 42,
      "Main Workers Cultivators - Males": 3910,
      "Main Workers Household Industry - Persons": 398,
      "Marginal Workers Cultivators worked for 0 - 3 moths during last year - Persons": 382,
      "Scheduled Caste Males": 7,
      "Marginal Workers - Persons": 4527,
      "Deliveries at home conducted by skilled health personnel in percentage DLHS-4": "Not available",
      "Villages with Sub-Health Centres within 3km in percentage DLHS-4": 0,
      "Upper Primary New Government Schools since 2003 in percentage DISE": "NA",
      "0-6 Age Group Males": 3739,
      "Primary Schools with drinking water facility in percentage DISE": "NA",
      "Non Workers - Persons": 27254,
      "Person Literates": 39780,
      "State": "MIZORAM",
      "Total Female Population": 24251,
      "Marginal Workers worked for 0 - 3 moths during last year - Persons": 1352,
      "Marginal Workers Cultivators - Females": 748,
      "Marginal Workers Other - Persons": 1669,
      "Sex Ratio": 999,
      "Scheduled Tribe Persons": 47719,
      "Marginal Workers Household Industry worked for 3 - 6 moths during last year - Males": 35,
      "Marginal Workers Agricultural Labourers - Females": 995,
      "Mean age at marriage for girls DLHS-4": "Not available",
      "Households with solar energy as main source of lighting  Houselisting and Housing Census Data Tables- District Level , Census of India__4": 4,
      "District": "CHAMPHAI",
      "Households receiving treated tap water within premises in percentage Houselisting and Housing Census Data Tables- District Level , Census of India__1": 15.71201273,
      "Total Workers  Persons": 21275,
      "Households receiving treated tap water within premises  Houselisting and Housing Census Data Tables- District Level , Census of India__4": 1580,
      "Primary Female Teachers in percentage DISE": "NA",
      "Number of Households": 10068,
      "Main Workers Agricultural Labourers - Persons": 1951
    }
  ]
}