{
  "Total": [
    {
      "Marginal Workers Agricultural Labourers - Persons": 2580,
      "Marginal Workers Other - Females": 952,
      "Marginal Workers Other worked for 0 - 3 moths during last year - Females": 120,
      "Upper Primary Schools with boys toilet in percentage DISE": 100,
      "Total Population": 83955,
      "Households with electricity as main source of lighting in percentage Houselisting and Housing Census Data Tables- District Level , Census of India": 85.8753469,
      "Primary Girl's Enrolment in percentage DISE": 47.9,
      "Marginal Workers worked for 3 - 6 moths during last year - Males": 2212,
      "Prevalence of Acute illness in percentage DLHS-4": 11.2,
      "Main Workers - Persons": 29697,
      "Main Workers Cultivators - Females": 5316,
      "Marginal Workers Agricultural Labourers worked for 3 - 6 moths during last year - Females": 1104,
      "Marginal Workers Other worked for 0 - 3 moths during last year - Males": 100,
      "Upper Primary Schools with drinking water facility in percentage DISE": 94,
      "Primary Schools with girls toilet in percentage DISE": 97.4,
      "Marginal Workers worked for 3 - 6 moths during last year - Persons": 5713,
      "Upper Primary Drop Out Rate in percentage DISE": 33.29,
      "Prevalence of Anaemia in pregnant women aged 15-49years in percentage DLHS-4": 66,
      "Current use of any modern method of family planning in percentage DLHS-4": 56.7,
      "Marginal Workers Agricultural Labourers - Males": 1114,
      "Upper Primary Female Teachers in percentage DISE": 38.2,
      "Marginal Workers - Females": 4255,
      "Marginal Workers Other worked for 3 - 6 moths during last year - Persons": 1421,
      "Main Workers Agricultural Labourers - Females": 1239,
      "Marginal Workers Cultivators worked for 3 - 6 moths during last year - Females": 1424,
      "Households with no lighting  Houselisting and Housing Census Data Tables- District Level , Census of India__5": 39,
      "Prevalence of Severe Anaemia  in percentage DLHS-4": 14.1,
      "Total unmet need for family planning in percentage DLHS-4": 20.4,
      "Main Workers Other - Males": 7494,
      "Children who received full vaccination in percentage DLHS-4": 83.7,
      "Marginal Workers Household Industry - Persons": 242,
      "Primary Pupil-Teacher Ratio in percentage DISE": 17,
      "Marginal Workers Agricultural Labourers worked for 3 - 6 moths during last year - Males": 822,
      "Scheduled Caste Females": 25,
      "Marginal Workers Cultivators - Males": 838,
      "Marginal Workers - Males": 2720,
      "Marginal Workers worked for 0 - 3 moths during last year - Females": 754,
      "Households with main source of drinking water within premises in percentage Houselisting and Housing Census Data Tables- District Level , Census of India": 27.38205365,
      "Marginal Workers Household Industry worked for 3 - 6 moths during last year - Persons": 203,
      "Upper Primary Girl's Enrolment in percentage DISE": 48.4,
      "Prevalence of Severe Anaemia in women aged 15-49years in percentage DLHS-4": 8.5,
      "Marginal Workers Agricultural Labourers worked for 0 - 3 moths during last year - Males": 292,
      "Households with electricity as main source of lighting  Houselisting and Housing Census Data Tables- District Level , Census of India__3": 14853,
      "Households with computer or laptop with internet connection in percentage": 2.12,
      "PHCs functioning on a 24x7hours basis in percentage DLHS-4": 80,
      "Non Workers - Males": 20185,
      "Total Households in District Houselisting and Housing Census Data Tables- District Level , Census of India": 17296,
      "Upper Primary Schools with girls toilet in percentage DISE": 100,
      "Households with mobile phone in percentage": 65.42,
      "Households receiving untreated tap water within premises in percentage Houselisting and Housing Census Data Tables- District Level , Census of India__2": 1.011794635,
      "Marginal Workers Cultivators worked for 3 - 6 moths during last year - Males": 739,
      "Prevalence of Anaemia  in percentage DLHS-4": 73.7,
      "Prevalence of Chronic illness in percentage DLHS-4": 4.5,
      "Households with solar energy as main source of lighting in percentage Houselisting and Housing Census Data Tables- District Level , Census of India__1": 0.144542091,
      "Marginal Workers Agricultural Labourers worked for 0 - 3 moths during last year - Females": 362,
      "Main Workers - Males": 20013,
      "Female": 92.38,
      "Sno": 1223,
      "Marginal Workers Other worked for 3 - 6 moths during last year - Females": 832,
      "Marginal Workers Cultivators worked for 0 - 3 moths during last year - Females": 250,
      "Scheduled Tribe Males": 36917,
      "Male Illiterates": 8771,
      "Prevalence of Severe Anaemia in pregnant women aged 15-49years in percentage DLHS-4": 5.6,
      "0-6 Age Group Persons": 13482,
      "Upper Primary Student-Classroom Ratio in percentage DISE": 18,
      "Currently married men married below 21years of age in percentage DLHS-4": 15.6,
      "Male Literates": 34147,
      "Households with no lighting in percentage Houselisting and Housing Census Data Tables- District Level , Census of India__2": 0.225485661,
      "Primary Drop Out Rate in percentage DISE": 35.2,
      "Marginal Workers Household Industry - Males": 79,
      "Female Illiterates": 9289,
      "Main Workers Other - Females": 3039,
      "Marginal Workers Cultivators - Persons": 2512,
      "Upper Primary Gross Enrolment Ratio in percentage DISE": 94.3,
      "Scheduled Caste Persons": 84,
      "Marginal Workers Cultivators worked for 3 - 6 moths during last year - Persons": 2163,
      "Households with landline phone in percentage": 1.38,
      "Total Households in District  Houselisting and Housing Census Data Tables- District Level , Census of India": 17296,
      "Upper Primary Pupil-Teacher Ratio in percentage DISE": 8,
      "Primary Student-Classroom Ratio in percentage DISE": 18,
      "Primary Schools with boys toilet in percentage DISE": 97.4,
      "Mean number of children ever born to women aged 40-49years  DLHS-4": 3.4,
      "Households receiving untreated tap water within premises  Houselisting and Housing Census Data Tables- District Level , Census of India__5": 175,
      "Marginal Workers Household Industry worked for 0 - 3 moths during last year - Persons": 39,
      "Total Male Population": 42918,
      "Non Workers - Females": 27098,
      "Current use of family planning methods in percentage DLHS-4": 57.3,
      "Households with main source of drinking water within premises  Houselisting and Housing Census Data Tables- District Level , Census of India__3": 4736,
      "Main Workers Agricultural Labourers - Males": 2102,
      "Marginal Workers Other worked for 0 - 3 moths during last year - Persons": 220,
      "Currently married women married below 18years of age in percentage DLHS-4": 5.2,
      "Person Illiterates": 18060,
      "Main Workers Household Industry - Females": 90,
      "Female Literates": 31748,
      "Marginal Workers Cultivators worked for 0 - 3 moths during last year - Males": 99,
      "Male": 94.57,
      "Households with improved source of drinking water in percentage DLHS-4": 83.4,
      "Upper Primary Schools with electricity in percentage DISE": 83.1,
      "Households with electricity in percentage DLHS-4": 95.4,
      "Villages with Primary Health Centre within 10km in percentage DLHS-4": 38.9,
      "Births to women aged 15-19years out of Total births in percentage DLHS-4": 1.8,
      "Prevalence of Anaemia in women aged 15-49years in percentage DLHS-4": 65.6,
      "Marginal Workers Agricultural Labourers worked for 3 - 6 moths during last year - Persons": 1926,
      "Main Workers Household Industry - Males": 253,
      "Scheduled Tribe Females": 36692,
      "Marginal Workers worked for 0 - 3 moths during last year - Males": 508,
      "Marginal Workers Other worked for 3 - 6 moths during last year - Males": 589,
      "Primary Net Enrolment Ratio in percentage DISE": 100,
      "Total": 93.5,
      "Mean age at marriage for boys DLHS-4": 25.4,
      "Number of District Hospitals  DLHS-4": 1,
      "0-6 Age Group Females": 6672,
      "Marginal Workers Agricultural Labourers worked for 0 - 3 moths during last year - Persons": 654,
      "Marginal Workers Household Industry worked for 0 - 3 moths during last year - Males": 17,
      "Total Workers  Females": 13939,
      "Marginal Workers worked for 3 - 6 moths during last year - Females": 3501,
      "Institutional Deliveries in percentage DLHS-4": 77.5,
      "Marginal Workers Other - Males": 689,
      "Total Workers  Males": 22733,
      "Main Workers - Females": 9684,
      "Primary Gross Enrolment Ratio in percentage DISE": 127.8,
      "Main Workers Cultivators - Persons": 15480,
      "Marginal Workers Household Industry worked for 0 - 3 moths during last year - Females": 22,
      "Upper Primary Net Enrolment Ratio in percentage DISE": 70.5,
      "Primary New Government Schools since 2003 in percentage DISE": 18.5,
      "Tier": "Total",
      "Marginal Workers Household Industry - Females": 163,
      "Primary Schools with electricity in percentage DISE": 65.5,
      "Main Workers Other - Persons": 10533,
      "Marginal Workers Household Industry worked for 3 - 6 moths during last year - Females": 141,
      "Main Workers Cultivators - Males": 10164,
      "Main Workers Household Industry - Persons": 343,
      "Marginal Workers Cultivators worked for 0 - 3 moths during last year - Persons": 349,
      "Scheduled Caste Males": 59,
      "Marginal Workers - Persons": 6975,
      "Deliveries at home conducted by skilled health personnel in percentage DLHS-4": 6.9,
      "Villages with Sub-Health Centres within 3km in percentage DLHS-4": 77.8,
      "Upper Primary New Government Schools since 2003 in percentage DISE": 33.3,
      "0-6 Age Group Males": 6810,
      "Primary Schools with drinking water facility in percentage DISE": 94.7,
      "Non Workers - Persons": 47283,
      "Person Literates": 65895,
      "State": "MIZORAM",
      "Total Female Population": 41037,
      "Marginal Workers worked for 0 - 3 moths during last year - Persons": 1262,
      "Marginal Workers Cultivators - Females": 1674,
      "Marginal Workers Other - Persons": 1641,
      "Sex Ratio": 956,
      "Scheduled Tribe Persons": 73609,
      "Marginal Workers Household Industry worked for 3 - 6 moths during last year - Males": 62,
      "Marginal Workers Agricultural Labourers - Females": 1466,
      "Mean age at marriage for girls DLHS-4": 23.2,
      "Households with solar energy as main source of lighting  Houselisting and Housing Census Data Tables- District Level , Census of India__4": 25,
      "District": "KOLASIB",
      "Households receiving treated tap water within premises in percentage Houselisting and Housing Census Data Tables- District Level , Census of India__1": 25.78052729,
      "Total Workers  Persons": 36672,
      "Households receiving treated tap water within premises  Houselisting and Housing Census Data Tables- District Level , Census of India__4": 4459,
      "Primary Female Teachers in percentage DISE": 61.5,
      "Number of Households": 17270,
      "Main Workers Agricultural Labourers - Persons": 3341
    }
  ],
  "Rural": [
    {
      "Marginal Workers Agricultural Labourers - Persons": 815,
      "Marginal Workers Other - Females": 414,
      "Marginal Workers Other worked for 0 - 3 moths during last year - Females": 35,
      "Upper Primary Schools with boys toilet in percentage DISE": "NA",
      "Total Population": 37077,
      "Households with electricity as main source of lighting in percentage Houselisting and Housing Census Data Tables- District Level , Census of India": 77.37473904,
      "Primary Girl's Enrolment in percentage DISE": "NA",
      "Marginal Workers worked for 3 - 6 moths during last year - Males": 609,
      "Prevalence of Acute illness in percentage DLHS-4": 12.8,
      "Main Workers - Persons": 14672,
      "Main Workers Cultivators - Females": 3766,
      "Marginal Workers Agricultural Labourers worked for 3 - 6 moths during last year - Females": 306,
      "Marginal Workers Other worked for 0 - 3 moths during last year - Males": 23,
      "Upper Primary Schools with drinking water facility in percentage DISE": "NA",
      "Primary Schools with girls toilet in percentage DISE": "NA",
      "Marginal Workers worked for 3 - 6 moths during last year - Persons": 2279,
      "Upper Primary Drop Out Rate in percentage DISE": "NA",
      "Prevalence of Anaemia in pregnant women aged 15-49years in percentage DLHS-4": 70.2,
      "Current use of any modern method of family planning in percentage DLHS-4": 55.3,
      "Marginal Workers Agricultural Labourers - Males": 254,
      "Upper Primary Female Teachers in percentage DISE": "NA",
      "Marginal Workers - Females": 2191,
      "Marginal Workers Other worked for 3 - 6 moths during last year - Persons": 512,
      "Main Workers Agricultural Labourers - Females": 500,
      "Marginal Workers Cultivators worked for 3 - 6 moths during last year - Females": 871,
      "Households with no lighting  Houselisting and Housing Census Data Tables- District Level , Census of India__5": 31,
      "Prevalence of Severe Anaemia  in percentage DLHS-4": 15.1,
      "Total unmet need for family planning in percentage DLHS-4": 24.3,
      "Main Workers Other - Males": 1561,
      "Children who received full vaccination in percentage DLHS-4": 74.2,
      "Marginal Workers Household Industry - Persons": 158,
      "Primary Pupil-Teacher Ratio in percentage DISE": "NA",
      "Marginal Workers Agricultural Labourers worked for 3 - 6 moths during last year - Males": 134,
      "Scheduled Caste Females": 5,
      "Marginal Workers Cultivators - Males": 395,
      "Marginal Workers - Males": 838,
      "Marginal Workers worked for 0 - 3 moths during last year - Females": 521,
      "Households with main source of drinking water within premises in percentage Houselisting and Housing Census Data Tables- District Level , Census of India": 10.8559499,
      "Marginal Workers Household Industry worked for 3 - 6 moths during last year - Persons": 137,
      "Upper Primary Girl's Enrolment in percentage DISE": "NA",
      "Prevalence of Severe Anaemia in women aged 15-49years in percentage DLHS-4": 8.2,
      "Marginal Workers Agricultural Labourers worked for 0 - 3 moths during last year - Males": 120,
      "Households with electricity as main source of lighting  Houselisting and Housing Census Data Tables- District Level , Census of India__3": 5930,
      "Households with computer or laptop with internet connection in percentage": 0.5,
      "PHCs functioning on a 24x7hours basis in percentage DLHS-4": "Not applicable",
      "Non Workers - Males": 8560,
      "Total Households in District Houselisting and Housing Census Data Tables- District Level , Census of India": 7664,
      "Upper Primary Schools with girls toilet in percentage DISE": "NA",
      "Households with mobile phone in percentage": 62.08,
      "Households receiving untreated tap water within premises in percentage Houselisting and Housing Census Data Tables- District Level , Census of India__2": 0.965553236,
      "Marginal Workers Cultivators worked for 3 - 6 moths during last year - Males": 319,
      "Prevalence of Anaemia  in percentage DLHS-4": 75.1,
      "Prevalence of Chronic illness in percentage DLHS-4": 4,
      "Households with solar energy as main source of lighting in percentage Houselisting and Housing Census Data Tables- District Level , Census of India__1": 0.247912317,
      "Marginal Workers Agricultural Labourers worked for 0 - 3 moths during last year - Females": 255,
      "Main Workers - Males": 9699,
      "Female": "NA",
      "Sno": 1222,
      "Marginal Workers Other worked for 3 - 6 moths during last year - Females": 379,
      "Marginal Workers Cultivators worked for 0 - 3 moths during last year - Females": 220,
      "Scheduled Tribe Males": 16585,
      "Male Illiterates": 4710,
      "Prevalence of Severe Anaemia in pregnant women aged 15-49years in percentage DLHS-4": 8.6,
      "0-6 Age Group Persons": 6681,
      "Upper Primary Student-Classroom Ratio in percentage DISE": "NA",
      "Currently married men married below 21years of age in percentage DLHS-4": 25.5,
      "Male Literates": 14387,
      "Households with no lighting in percentage Houselisting and Housing Census Data Tables- District Level , Census of India__2": 0.404488518,
      "Primary Drop Out Rate in percentage DISE": "NA",
      "Marginal Workers Household Industry - Males": 33,
      "Female Illiterates": 5097,
      "Main Workers Other - Females": 670,
      "Marginal Workers Cultivators - Persons": 1486,
      "Upper Primary Gross Enrolment Ratio in percentage DISE": "NA",
      "Scheduled Caste Persons": 17,
      "Marginal Workers Cultivators worked for 3 - 6 moths during last year - Persons": 1190,
      "Households with landline phone in percentage": 1.21,
      "Total Households in District  Houselisting and Housing Census Data Tables- District Level , Census of India": 7664,
      "Upper Primary Pupil-Teacher Ratio in percentage DISE": "NA",
      "Primary Student-Classroom Ratio in percentage DISE": "NA",
      "Primary Schools with boys toilet in percentage DISE": "NA",
      "Mean number of children ever born to women aged 40-49years  DLHS-4": 3.6,
      "Households receiving untreated tap water within premises  Houselisting and Housing Census Data Tables- District Level , Census of India__5": 74,
      "Marginal Workers Household Industry worked for 0 - 3 moths during last year - Persons": 21,
      "Total Male Population": 19097,
      "Non Workers - Females": 10816,
      "Current use of family planning methods in percentage DLHS-4": 55.7,
      "Households with main source of drinking water within premises  Houselisting and Housing Census Data Tables- District Level , Census of India__3": 832,
      "Main Workers Agricultural Labourers - Males": 775,
      "Marginal Workers Other worked for 0 - 3 moths during last year - Persons": 58,
      "Currently married women married below 18years of age in percentage DLHS-4": 4.7,
      "Person Illiterates": 9807,
      "Main Workers Household Industry - Females": 37,
      "Female Literates": 12883,
      "Marginal Workers Cultivators worked for 0 - 3 moths during last year - Males": 76,
      "Male": "NA",
      "Households with improved source of drinking water in percentage DLHS-4": 73.3,
      "Upper Primary Schools with electricity in percentage DISE": "NA",
      "Households with electricity in percentage DLHS-4": 93.4,
      "Villages with Primary Health Centre within 10km in percentage DLHS-4": "Not applicable",
      "Births to women aged 15-19years out of Total births in percentage DLHS-4": 1.9,
      "Prevalence of Anaemia in women aged 15-49years in percentage DLHS-4": 66.9,
      "Marginal Workers Agricultural Labourers worked for 3 - 6 moths during last year - Persons": 440,
      "Main Workers Household Industry - Males": 123,
      "Scheduled Tribe Females": 15997,
      "Marginal Workers worked for 0 - 3 moths during last year - Males": 229,
      "Marginal Workers Other worked for 3 - 6 moths during last year - Males": 133,
      "Primary Net Enrolment Ratio in percentage DISE": "NA",
      "Total": "NA",
      "Mean age at marriage for boys DLHS-4": 24.5,
      "Number of District Hospitals  DLHS-4": "Not applicable",
      "0-6 Age Group Females": 3294,
      "Marginal Workers Agricultural Labourers worked for 0 - 3 moths during last year - Persons": 375,
      "Marginal Workers Household Industry worked for 0 - 3 moths during last year - Males": 10,
      "Total Workers  Females": 7164,
      "Marginal Workers worked for 3 - 6 moths during last year - Females": 1670,
      "Institutional Deliveries in percentage DLHS-4": 61.2,
      "Marginal Workers Other - Males": 156,
      "Total Workers  Males": 10537,
      "Main Workers - Females": 4973,
      "Primary Gross Enrolment Ratio in percentage DISE": "NA",
      "Main Workers Cultivators - Persons": 11006,
      "Marginal Workers Household Industry worked for 0 - 3 moths during last year - Females": 11,
      "Upper Primary Net Enrolment Ratio in percentage DISE": "NA",
      "Primary New Government Schools since 2003 in percentage DISE": "NA",
      "Tier": "Rural",
      "Marginal Workers Household Industry - Females": 125,
      "Primary Schools with electricity in percentage DISE": "NA",
      "Main Workers Other - Persons": 2231,
      "Marginal Workers Household Industry worked for 3 - 6 moths during last year - Females": 114,
      "Main Workers Cultivators - Males": 7240,
      "Main Workers Household Industry - Persons": 160,
      "Marginal Workers Cultivators worked for 0 - 3 moths during last year - Persons": 296,
      "Scheduled Caste Males": 12,
      "Marginal Workers - Persons": 3029,
      "Deliveries at home conducted by skilled health personnel in percentage DLHS-4": 12,
      "Villages with Sub-Health Centres within 3km in percentage DLHS-4": "Not applicable",
      "Upper Primary New Government Schools since 2003 in percentage DISE": "NA",
      "0-6 Age Group Males": 3387,
      "Primary Schools with drinking water facility in percentage DISE": "NA",
      "Non Workers - Persons": 19376,
      "Person Literates": 27270,
      "State": "MIZORAM",
      "Total Female Population": 17980,
      "Marginal Workers worked for 0 - 3 moths during last year - Persons": 750,
      "Marginal Workers Cultivators - Females": 1091,
      "Marginal Workers Other - Persons": 570,
      "Sex Ratio": 942,
      "Scheduled Tribe Persons": 32582,
      "Marginal Workers Household Industry worked for 3 - 6 moths during last year - Males": 23,
      "Marginal Workers Agricultural Labourers - Females": 561,
      "Mean age at marriage for girls DLHS-4": 23.2,
      "Households with solar energy as main source of lighting  Houselisting and Housing Census Data Tables- District Level , Census of India__4": 19,
      "District": "KOLASIB",
      "Households receiving treated tap water within premises in percentage Houselisting and Housing Census Data Tables- District Level , Census of India__1": 9.224947808,
      "Total Workers  Persons": 17701,
      "Households receiving treated tap water within premises  Houselisting and Housing Census Data Tables- District Level , Census of India__4": 707,
      "Primary Female Teachers in percentage DISE": "NA",
      "Number of Households": 7608,
      "Main Workers Agricultural Labourers - Persons": 1275
    }
  ],
  "Urban": [
    {
      "Marginal Workers Agricultural Labourers - Persons": 1765,
      "Marginal Workers Other - Females": 538,
      "Marginal Workers Other worked for 0 - 3 moths during last year - Females": 85,
      "Upper Primary Schools with boys toilet in percentage DISE": "NA",
      "Total Population": 46878,
      "Households with electricity as main source of lighting in percentage Houselisting and Housing Census Data Tables- District Level , Census of India": 92.6391196,
      "Primary Girl's Enrolment in percentage DISE": "NA",
      "Marginal Workers worked for 3 - 6 moths during last year - Males": 1603,
      "Prevalence of Acute illness in percentage DLHS-4": "Not available",
      "Main Workers - Persons": 15025,
      "Main Workers Cultivators - Females": 1550,
      "Marginal Workers Agricultural Labourers worked for 3 - 6 moths during last year - Females": 798,
      "Marginal Workers Other worked for 0 - 3 moths during last year - Males": 77,
      "Upper Primary Schools with drinking water facility in percentage DISE": "NA",
      "Primary Schools with girls toilet in percentage DISE": "NA",
      "Marginal Workers worked for 3 - 6 moths during last year - Persons": 3434,
      "Upper Primary Drop Out Rate in percentage DISE": "NA",
      "Prevalence of Anaemia in pregnant women aged 15-49years in percentage DLHS-4": "Not available",
      "Current use of any modern method of family planning in percentage DLHS-4": "Not available",
      "Marginal Workers Agricultural Labourers - Males": 860,
      "Upper Primary Female Teachers in percentage DISE": "NA",
      "Marginal Workers - Females": 2064,
      "Marginal Workers Other worked for 3 - 6 moths during last year - Persons": 909,
      "Main Workers Agricultural Labourers - Females": 739,
      "Marginal Workers Cultivators worked for 3 - 6 moths during last year - Females": 553,
      "Households with no lighting  Houselisting and Housing Census Data Tables- District Level , Census of India__5": 8,
      "Prevalence of Severe Anaemia  in percentage DLHS-4": "Not available",
      "Total unmet need for family planning in percentage DLHS-4": "Not available",
      "Main Workers Other - Males": 5933,
      "Children who received full vaccination in percentage DLHS-4": "Not available",
      "Marginal Workers Household Industry - Persons": 84,
      "Primary Pupil-Teacher Ratio in percentage DISE": "NA",
      "Marginal Workers Agricultural Labourers worked for 3 - 6 moths during last year - Males": 688,
      "Scheduled Caste Females": 20,
      "Marginal Workers Cultivators - Males": 443,
      "Marginal Workers - Males": 1882,
      "Marginal Workers worked for 0 - 3 moths during last year - Females": 233,
      "Households with main source of drinking water within premises in percentage Houselisting and Housing Census Data Tables- District Level , Census of India": 40.53156146,
      "Marginal Workers Household Industry worked for 3 - 6 moths during last year - Persons": 66,
      "Upper Primary Girl's Enrolment in percentage DISE": "NA",
      "Prevalence of Severe Anaemia in women aged 15-49years in percentage DLHS-4": "Not available",
      "Marginal Workers Agricultural Labourers worked for 0 - 3 moths during last year - Males": 172,
      "Households with electricity as main source of lighting  Houselisting and Housing Census Data Tables- District Level , Census of India__3": 8923,
      "Households with computer or laptop with internet connection in percentage": 3.42,
      "PHCs functioning on a 24x7hours basis in percentage DLHS-4": 0,
      "Non Workers - Males": 11625,
      "Total Households in District Houselisting and Housing Census Data Tables- District Level , Census of India": 9632,
      "Upper Primary Schools with girls toilet in percentage DISE": "NA",
      "Households with mobile phone in percentage": 68.08,
      "Households receiving untreated tap water within premises in percentage Houselisting and Housing Census Data Tables- District Level , Census of India__2": 1.04858804,
      "Marginal Workers Cultivators worked for 3 - 6 moths during last year - Males": 420,
      "Prevalence of Anaemia  in percentage DLHS-4": "Not available",
      "Prevalence of Chronic illness in percentage DLHS-4": "Not available",
      "Households with solar energy as main source of lighting in percentage Houselisting and Housing Census Data Tables- District Level , Census of India__1": 0.0623,
      "Marginal Workers Agricultural Labourers worked for 0 - 3 moths during last year - Females": 107,
      "Main Workers - Males": 10314,
      "Female": "NA",
      "Sno": 1224,
      "Marginal Workers Other worked for 3 - 6 moths during last year - Females": 453,
      "Marginal Workers Cultivators worked for 0 - 3 moths during last year - Females": 30,
      "Scheduled Tribe Males": 20332,
      "Male Illiterates": 4061,
      "Prevalence of Severe Anaemia in pregnant women aged 15-49years in percentage DLHS-4": "Not available",
      "0-6 Age Group Persons": 6801,
      "Upper Primary Student-Classroom Ratio in percentage DISE": "NA",
      "Currently married men married below 21years of age in percentage DLHS-4": "Not available",
      "Male Literates": 19760,
      "Households with no lighting in percentage Houselisting and Housing Census Data Tables- District Level , Census of India__2": 0.0831,
      "Primary Drop Out Rate in percentage DISE": "NA",
      "Marginal Workers Household Industry - Males": 46,
      "Female Illiterates": 4192,
      "Main Workers Other - Females": 2369,
      "Marginal Workers Cultivators - Persons": 1026,
      "Upper Primary Gross Enrolment Ratio in percentage DISE": "NA",
      "Scheduled Caste Persons": 67,
      "Marginal Workers Cultivators worked for 3 - 6 moths during last year - Persons": 973,
      "Households with landline phone in percentage": 1.51,
      "Total Households in District  Houselisting and Housing Census Data Tables- District Level , Census of India": 9632,
      "Upper Primary Pupil-Teacher Ratio in percentage DISE": "NA",
      "Primary Student-Classroom Ratio in percentage DISE": "NA",
      "Primary Schools with boys toilet in percentage DISE": "NA",
      "Mean number of children ever born to women aged 40-49years  DLHS-4": "Not available",
      "Households receiving untreated tap water within premises  Houselisting and Housing Census Data Tables- District Level , Census of India__5": 101,
      "Marginal Workers Household Industry worked for 0 - 3 moths during last year - Persons": 18,
      "Total Male Population": 23821,
      "Non Workers - Females": 16282,
      "Current use of family planning methods in percentage DLHS-4": "Not available",
      "Households with main source of drinking water within premises  Houselisting and Housing Census Data Tables- District Level , Census of India__3": 3904,
      "Main Workers Agricultural Labourers - Males": 1327,
      "Marginal Workers Other worked for 0 - 3 moths during last year - Persons": 162,
      "Currently married women married below 18years of age in percentage DLHS-4": "Not available",
      "Person Illiterates": 8253,
      "Main Workers Household Industry - Females": 53,
      "Female Literates": 18865,
      "Marginal Workers Cultivators worked for 0 - 3 moths during last year - Males": 23,
      "Male": "NA",
      "Households with improved source of drinking water in percentage DLHS-4": "Not available",
      "Upper Primary Schools with electricity in percentage DISE": "NA",
      "Households with electricity in percentage DLHS-4": "Not available",
      "Villages with Primary Health Centre within 10km in percentage DLHS-4": 0,
      "Births to women aged 15-19years out of Total births in percentage DLHS-4": "Not available",
      "Prevalence of Anaemia in women aged 15-49years in percentage DLHS-4": "Not available",
      "Marginal Workers Agricultural Labourers worked for 3 - 6 moths during last year - Persons": 1486,
      "Main Workers Household Industry - Males": 130,
      "Scheduled Tribe Females": 20695,
      "Marginal Workers worked for 0 - 3 moths during last year - Males": 279,
      "Marginal Workers Other worked for 3 - 6 moths during last year - Males": 456,
      "Primary Net Enrolment Ratio in percentage DISE": "NA",
      "Total": "NA",
      "Mean age at marriage for boys DLHS-4": "Not available",
      "Number of District Hospitals  DLHS-4": 0,
      "0-6 Age Group Females": 3378,
      "Marginal Workers Agricultural Labourers worked for 0 - 3 moths during last year - Persons": 279,
      "Marginal Workers Household Industry worked for 0 - 3 moths during last year - Males": 7,
      "Total Workers  Females": 6775,
      "Marginal Workers worked for 3 - 6 moths during last year - Females": 1831,
      "Institutional Deliveries in percentage DLHS-4": "Not available",
      "Marginal Workers Other - Males": 533,
      "Total Workers  Males": 12196,
      "Main Workers - Females": 4711,
      "Primary Gross Enrolment Ratio in percentage DISE": "NA",
      "Main Workers Cultivators - Persons": 4474,
      "Marginal Workers Household Industry worked for 0 - 3 moths during last year - Females": 11,
      "Upper Primary Net Enrolment Ratio in percentage DISE": "NA",
      "Primary New Government Schools since 2003 in percentage DISE": "NA",
      "Tier": "Urban",
      "Marginal Workers Household Industry - Females": 38,
      "Primary Schools with electricity in percentage DISE": "NA",
      "Main Workers Other - Persons": 8302,
      "Marginal Workers Household Industry worked for 3 - 6 moths during last year - Females": 27,
      "Main Workers Cultivators - Males": 2924,
      "Main Workers Household Industry - Persons": 183,
      "Marginal Workers Cultivators worked for 0 - 3 moths during last year - Persons": 53,
      "Scheduled Caste Males": 47,
      "Marginal Workers - Persons": 3946,
      "Deliveries at home conducted by skilled health personnel in percentage DLHS-4": "Not available",
      "Villages with Sub-Health Centres within 3km in percentage DLHS-4": 0,
      "Upper Primary New Government Schools since 2003 in percentage DISE": "NA",
      "0-6 Age Group Males": 3423,
      "Primary Schools with drinking water facility in percentage DISE": "NA",
      "Non Workers - Persons": 27907,
      "Person Literates": 38625,
      "State": "MIZORAM",
      "Total Female Population": 23057,
      "Marginal Workers worked for 0 - 3 moths during last year - Persons": 512,
      "Marginal Workers Cultivators - Females": 583,
      "Marginal Workers Other - Persons": 1071,
      "Sex Ratio": 968,
      "Scheduled Tribe Persons": 41027,
      "Marginal Workers Household Industry worked for 3 - 6 moths during last year - Males": 39,
      "Marginal Workers Agricultural Labourers - Females": 905,
      "Mean age at marriage for girls DLHS-4": "Not available",
      "Households with solar energy as main source of lighting  Houselisting and Housing Census Data Tables- District Level , Census of India__4": 6,
      "District": "KOLASIB",
      "Households receiving treated tap water within premises in percentage Houselisting and Housing Census Data Tables- District Level , Census of India__1": 38.95348837,
      "Total Workers  Persons": 18971,
      "Households receiving treated tap water within premises  Houselisting and Housing Census Data Tables- District Level , Census of India__4": 3752,
      "Primary Female Teachers in percentage DISE": "NA",
      "Number of Households": 9662,
      "Main Workers Agricultural Labourers - Persons": 2066
    }
  ]
}