{
  "Total": [
    {
      "Marginal Workers Agricultural Labourers - Persons": 765,
      "Marginal Workers Other - Females": 961,
      "Marginal Workers Other worked for 0 - 3 moths during last year - Females": 215,
      "Upper Primary Schools with boys toilet in percentage DISE": 25,
      "Total Population": 56574,
      "Households with electricity as main source of lighting in percentage Houselisting and Housing Census Data Tables- District Level , Census of India": 67.80282206,
      "Primary Girl's Enrolment in percentage DISE": 49.1,
      "Marginal Workers worked for 3 - 6 moths during last year - Males": 1632,
      "Prevalence of Acute illness in percentage DLHS-4": 12.8,
      "Main Workers - Persons": 14694,
      "Main Workers Cultivators - Females": 2684,
      "Marginal Workers Agricultural Labourers worked for 3 - 6 moths during last year - Females": 406,
      "Marginal Workers Other worked for 0 - 3 moths during last year - Males": 252,
      "Upper Primary Schools with drinking water facility in percentage DISE": 100,
      "Primary Schools with girls toilet in percentage DISE": 98.9,
      "Marginal Workers worked for 3 - 6 moths during last year - Persons": 3458,
      "Upper Primary Drop Out Rate in percentage DISE": 15.54,
      "Prevalence of Anaemia in pregnant women aged 15-49years in percentage DLHS-4": 83.6,
      "Current use of any modern method of family planning in percentage DLHS-4": 53.6,
      "Marginal Workers Agricultural Labourers - Males": 274,
      "Upper Primary Female Teachers in percentage DISE": 22.2,
      "Marginal Workers - Females": 2516,
      "Marginal Workers Other worked for 3 - 6 moths during last year - Persons": 1531,
      "Main Workers Agricultural Labourers - Females": 78,
      "Marginal Workers Cultivators worked for 3 - 6 moths during last year - Females": 620,
      "Households with no lighting  Houselisting and Housing Census Data Tables- District Level , Census of India__5": 27,
      "Prevalence of Severe Anaemia  in percentage DLHS-4": 13.5,
      "Total unmet need for family planning in percentage DLHS-4": 28,
      "Main Workers Other - Males": 5348,
      "Children who received full vaccination in percentage DLHS-4": 60.2,
      "Marginal Workers Household Industry - Persons": 160,
      "Primary Pupil-Teacher Ratio in percentage DISE": 7,
      "Marginal Workers Agricultural Labourers worked for 3 - 6 moths during last year - Males": 177,
      "Scheduled Caste Females": 31,
      "Marginal Workers Cultivators - Males": 869,
      "Marginal Workers - Males": 2251,
      "Marginal Workers worked for 0 - 3 moths during last year - Females": 690,
      "Households with main source of drinking water within premises in percentage Houselisting and Housing Census Data Tables- District Level , Census of India": 21.81601613,
      "Marginal Workers Household Industry worked for 3 - 6 moths during last year - Persons": 106,
      "Upper Primary Girl's Enrolment in percentage DISE": 51.3,
      "Prevalence of Severe Anaemia in women aged 15-49years in percentage DLHS-4": 9.4,
      "Marginal Workers Agricultural Labourers worked for 0 - 3 moths during last year - Males": 97,
      "Households with electricity as main source of lighting  Houselisting and Housing Census Data Tables- District Level , Census of India__3": 7400,
      "Households with computer or laptop with internet connection in percentage": 1.54,
      "PHCs functioning on a 24x7hours basis in percentage DLHS-4": 83.3,
      "Non Workers - Males": 16383,
      "Total Households in District Houselisting and Housing Census Data Tables- District Level , Census of India": 10914,
      "Upper Primary Schools with girls toilet in percentage DISE": 100,
      "Households with mobile phone in percentage": 45.6,
      "Households receiving untreated tap water within premises in percentage Houselisting and Housing Census Data Tables- District Level , Census of India__2": 19.20469122,
      "Marginal Workers Cultivators worked for 3 - 6 moths during last year - Males": 618,
      "Prevalence of Anaemia  in percentage DLHS-4": 80.5,
      "Prevalence of Chronic illness in percentage DLHS-4": 2.8,
      "Households with solar energy as main source of lighting in percentage Houselisting and Housing Census Data Tables- District Level , Census of India__1": 2.253985706,
      "Marginal Workers Agricultural Labourers worked for 0 - 3 moths during last year - Females": 85,
      "Main Workers - Males": 9960,
      "Female": 87.34,
      "Sno": 1235,
      "Marginal Workers Other worked for 3 - 6 moths during last year - Females": 746,
      "Marginal Workers Cultivators worked for 0 - 3 moths during last year - Females": 355,
      "Scheduled Tribe Males": 27226,
      "Male Illiterates": 6733,
      "Prevalence of Severe Anaemia in pregnant women aged 15-49years in percentage DLHS-4": 13.2,
      "0-6 Age Group Persons": 9653,
      "Upper Primary Student-Classroom Ratio in percentage DISE": 15,
      "Currently married men married below 21years of age in percentage DLHS-4": 22.1,
      "Male Literates": 21861,
      "Households with no lighting in percentage Houselisting and Housing Census Data Tables- District Level , Census of India__2": 0.247388675,
      "Primary Drop Out Rate in percentage DISE": 14.6,
      "Marginal Workers Household Industry - Males": 71,
      "Female Illiterates": 7608,
      "Main Workers Other - Females": 1937,
      "Marginal Workers Cultivators - Persons": 1844,
      "Upper Primary Gross Enrolment Ratio in percentage DISE": 107.9,
      "Scheduled Caste Persons": 83,
      "Marginal Workers Cultivators worked for 3 - 6 moths during last year - Persons": 1238,
      "Households with landline phone in percentage": 2.64,
      "Total Households in District  Houselisting and Housing Census Data Tables- District Level , Census of India": 10914,
      "Upper Primary Pupil-Teacher Ratio in percentage DISE": 8,
      "Primary Student-Classroom Ratio in percentage DISE": 9,
      "Primary Schools with boys toilet in percentage DISE": 24.4,
      "Mean number of children ever born to women aged 40-49years  DLHS-4": 3.4,
      "Households receiving untreated tap water within premises  Houselisting and Housing Census Data Tables- District Level , Census of India__5": 2096,
      "Marginal Workers Household Industry worked for 0 - 3 moths during last year - Persons": 54,
      "Total Male Population": 28594,
      "Non Workers - Females": 20730,
      "Current use of family planning methods in percentage DLHS-4": 54.3,
      "Households with main source of drinking water within premises  Houselisting and Housing Census Data Tables- District Level , Census of India__3": 2381,
      "Main Workers Agricultural Labourers - Males": 114,
      "Marginal Workers Other worked for 0 - 3 moths during last year - Persons": 467,
      "Currently married women married below 18years of age in percentage DLHS-4": 8.2,
      "Person Illiterates": 14341,
      "Main Workers Household Industry - Females": 35,
      "Female Literates": 20372,
      "Marginal Workers Cultivators worked for 0 - 3 moths during last year - Males": 251,
      "Male": 92.64,
      "Households with improved source of drinking water in percentage DLHS-4": 89.3,
      "Upper Primary Schools with electricity in percentage DISE": 51.9,
      "Households with electricity in percentage DLHS-4": 88.7,
      "Villages with Primary Health Centre within 10km in percentage DLHS-4": 40.9,
      "Births to women aged 15-19years out of Total births in percentage DLHS-4": 2.7,
      "Prevalence of Anaemia in women aged 15-49years in percentage DLHS-4": 76.8,
      "Marginal Workers Agricultural Labourers worked for 3 - 6 moths during last year - Persons": 583,
      "Main Workers Household Industry - Males": 118,
      "Scheduled Tribe Females": 27416,
      "Marginal Workers worked for 0 - 3 moths during last year - Males": 619,
      "Marginal Workers Other worked for 3 - 6 moths during last year - Males": 785,
      "Primary Net Enrolment Ratio in percentage DISE": 100,
      "Total": 90.01,
      "Mean age at marriage for boys DLHS-4": 23,
      "Number of District Hospitals  DLHS-4": 1,
      "0-6 Age Group Females": 4656,
      "Marginal Workers Agricultural Labourers worked for 0 - 3 moths during last year - Persons": 182,
      "Marginal Workers Household Industry worked for 0 - 3 moths during last year - Males": 19,
      "Total Workers  Females": 7250,
      "Marginal Workers worked for 3 - 6 moths during last year - Females": 1826,
      "Institutional Deliveries in percentage DLHS-4": 56.7,
      "Marginal Workers Other - Males": 1037,
      "Total Workers  Males": 12211,
      "Main Workers - Females": 4734,
      "Primary Gross Enrolment Ratio in percentage DISE": 141.7,
      "Main Workers Cultivators - Persons": 7064,
      "Marginal Workers Household Industry worked for 0 - 3 moths during last year - Females": 35,
      "Upper Primary Net Enrolment Ratio in percentage DISE": 75.4,
      "Primary New Government Schools since 2003 in percentage DISE": 23.9,
      "Tier": "Total",
      "Marginal Workers Household Industry - Females": 89,
      "Primary Schools with electricity in percentage DISE": 16.7,
      "Main Workers Other - Persons": 7285,
      "Marginal Workers Household Industry worked for 3 - 6 moths during last year - Females": 54,
      "Main Workers Cultivators - Males": 4380,
      "Main Workers Household Industry - Persons": 153,
      "Marginal Workers Cultivators worked for 0 - 3 moths during last year - Persons": 606,
      "Scheduled Caste Males": 52,
      "Marginal Workers - Persons": 4767,
      "Deliveries at home conducted by skilled health personnel in percentage DLHS-4": 17.2,
      "Villages with Sub-Health Centres within 3km in percentage DLHS-4": 72.7,
      "Upper Primary New Government Schools since 2003 in percentage DISE": 2,
      "0-6 Age Group Males": 4997,
      "Primary Schools with drinking water facility in percentage DISE": 97.8,
      "Non Workers - Persons": 37113,
      "Person Literates": 42233,
      "State": "MIZORAM",
      "Total Female Population": 27980,
      "Marginal Workers worked for 0 - 3 moths during last year - Persons": 1309,
      "Marginal Workers Cultivators - Females": 975,
      "Marginal Workers Other - Persons": 1998,
      "Sex Ratio": 979,
      "Scheduled Tribe Persons": 54642,
      "Marginal Workers Household Industry worked for 3 - 6 moths during last year - Males": 52,
      "Marginal Workers Agricultural Labourers - Females": 491,
      "Mean age at marriage for girls DLHS-4": 21.7,
      "Households with solar energy as main source of lighting  Houselisting and Housing Census Data Tables- District Level , Census of India__4": 246,
      "District": "SAIHA",
      "Households receiving treated tap water within premises in percentage Houselisting and Housing Census Data Tables- District Level , Census of India__1": 2.363936229,
      "Total Workers  Persons": 19461,
      "Households receiving treated tap water within premises  Houselisting and Housing Census Data Tables- District Level , Census of India__4": 258,
      "Primary Female Teachers in percentage DISE": 39,
      "Number of Households": 11144,
      "Main Workers Agricultural Labourers - Persons": 192
    }
  ],
  "Rural": [
    {
      "Marginal Workers Agricultural Labourers - Persons": 643,
      "Marginal Workers Other - Females": 454,
      "Marginal Workers Other worked for 0 - 3 moths during last year - Females": 132,
      "Upper Primary Schools with boys toilet in percentage DISE": "NA",
      "Total Population": 31464,
      "Households with electricity as main source of lighting in percentage Houselisting and Housing Census Data Tables- District Level , Census of India": 45.91593973,
      "Primary Girl's Enrolment in percentage DISE": "NA",
      "Marginal Workers worked for 3 - 6 moths during last year - Males": 925,
      "Prevalence of Acute illness in percentage DLHS-4": 11.1,
      "Main Workers - Persons": 8363,
      "Main Workers Cultivators - Females": 2220,
      "Marginal Workers Agricultural Labourers worked for 3 - 6 moths during last year - Females": 354,
      "Marginal Workers Other worked for 0 - 3 moths during last year - Males": 133,
      "Upper Primary Schools with drinking water facility in percentage DISE": "NA",
      "Primary Schools with girls toilet in percentage DISE": "NA",
      "Marginal Workers worked for 3 - 6 moths during last year - Persons": 1986,
      "Upper Primary Drop Out Rate in percentage DISE": "NA",
      "Prevalence of Anaemia in pregnant women aged 15-49years in percentage DLHS-4": 87,
      "Current use of any modern method of family planning in percentage DLHS-4": 49.1,
      "Marginal Workers Agricultural Labourers - Males": 211,
      "Upper Primary Female Teachers in percentage DISE": "NA",
      "Marginal Workers - Females": 1628,
      "Marginal Workers Other worked for 3 - 6 moths during last year - Persons": 630,
      "Main Workers Agricultural Labourers - Females": 37,
      "Marginal Workers Cultivators worked for 3 - 6 moths during last year - Females": 368,
      "Households with no lighting  Houselisting and Housing Census Data Tables- District Level , Census of India__5": 4,
      "Prevalence of Severe Anaemia  in percentage DLHS-4": 14.6,
      "Total unmet need for family planning in percentage DLHS-4": 31.8,
      "Main Workers Other - Males": 1642,
      "Children who received full vaccination in percentage DLHS-4": 59,
      "Marginal Workers Household Industry - Persons": 61,
      "Primary Pupil-Teacher Ratio in percentage DISE": "NA",
      "Marginal Workers Agricultural Labourers worked for 3 - 6 moths during last year - Males": 128,
      "Scheduled Caste Females": 5,
      "Marginal Workers Cultivators - Males": 713,
      "Marginal Workers - Males": 1394,
      "Marginal Workers worked for 0 - 3 moths during last year - Females": 567,
      "Households with main source of drinking water within premises in percentage Houselisting and Housing Census Data Tables- District Level , Census of India": 1.871530531,
      "Marginal Workers Household Industry worked for 3 - 6 moths during last year - Persons": 33,
      "Upper Primary Girl's Enrolment in percentage DISE": "NA",
      "Prevalence of Severe Anaemia in women aged 15-49years in percentage DLHS-4": 8.7,
      "Marginal Workers Agricultural Labourers worked for 0 - 3 moths during last year - Males": 83,
      "Households with electricity as main source of lighting  Houselisting and Housing Census Data Tables- District Level , Census of India__3": 2895,
      "Households with computer or laptop with internet connection in percentage": 0.41,
      "PHCs functioning on a 24x7hours basis in percentage DLHS-4": "Not applicable",
      "Non Workers - Males": 8894,
      "Total Households in District Houselisting and Housing Census Data Tables- District Level , Census of India": 6305,
      "Upper Primary Schools with girls toilet in percentage DISE": "NA",
      "Households with mobile phone in percentage": 26.41,
      "Households receiving untreated tap water within premises in percentage Houselisting and Housing Census Data Tables- District Level , Census of India__2": 1.395717684,
      "Marginal Workers Cultivators worked for 3 - 6 moths during last year - Males": 473,
      "Prevalence of Anaemia  in percentage DLHS-4": 83.9,
      "Prevalence of Chronic illness in percentage DLHS-4": 2.1,
      "Households with solar energy as main source of lighting in percentage Houselisting and Housing Census Data Tables- District Level , Census of India__1": 3.806502776,
      "Marginal Workers Agricultural Labourers worked for 0 - 3 moths during last year - Females": 78,
      "Main Workers - Males": 5565,
      "Female": "NA",
      "Sno": 1234,
      "Marginal Workers Other worked for 3 - 6 moths during last year - Females": 322,
      "Marginal Workers Cultivators worked for 0 - 3 moths during last year - Females": 342,
      "Scheduled Tribe Males": 15550,
      "Male Illiterates": 4324,
      "Prevalence of Severe Anaemia in pregnant women aged 15-49years in percentage DLHS-4": 11.1,
      "0-6 Age Group Persons": 5857,
      "Upper Primary Student-Classroom Ratio in percentage DISE": "NA",
      "Currently married men married below 21years of age in percentage DLHS-4": 23.2,
      "Male Literates": 11529,
      "Households with no lighting in percentage Houselisting and Housing Census Data Tables- District Level , Census of India__2": 0.0634,
      "Primary Drop Out Rate in percentage DISE": "NA",
      "Marginal Workers Household Industry - Males": 29,
      "Female Illiterates": 5177,
      "Main Workers Other - Females": 527,
      "Marginal Workers Cultivators - Persons": 1423,
      "Upper Primary Gross Enrolment Ratio in percentage DISE": "NA",
      "Scheduled Caste Persons": 12,
      "Marginal Workers Cultivators worked for 3 - 6 moths during last year - Persons": 841,
      "Households with landline phone in percentage": 3,
      "Total Households in District  Houselisting and Housing Census Data Tables- District Level , Census of India": 6305,
      "Upper Primary Pupil-Teacher Ratio in percentage DISE": "NA",
      "Primary Student-Classroom Ratio in percentage DISE": "NA",
      "Primary Schools with boys toilet in percentage DISE": "NA",
      "Mean number of children ever born to women aged 40-49years  DLHS-4": 3.5,
      "Households receiving untreated tap water within premises  Houselisting and Housing Census Data Tables- District Level , Census of India__5": 88,
      "Marginal Workers Household Industry worked for 0 - 3 moths during last year - Persons": 28,
      "Total Male Population": 15853,
      "Non Workers - Females": 11185,
      "Current use of family planning methods in percentage DLHS-4": 49.9,
      "Households with main source of drinking water within premises  Houselisting and Housing Census Data Tables- District Level , Census of India__3": 118,
      "Main Workers Agricultural Labourers - Males": 58,
      "Marginal Workers Other worked for 0 - 3 moths during last year - Persons": 265,
      "Currently married women married below 18years of age in percentage DLHS-4": 10.4,
      "Person Illiterates": 9501,
      "Main Workers Household Industry - Females": 14,
      "Female Literates": 10434,
      "Marginal Workers Cultivators worked for 0 - 3 moths during last year - Males": 240,
      "Male": "NA",
      "Households with improved source of drinking water in percentage DLHS-4": 85,
      "Upper Primary Schools with electricity in percentage DISE": "NA",
      "Households with electricity in percentage DLHS-4": 80.4,
      "Villages with Primary Health Centre within 10km in percentage DLHS-4": "Not applicable",
      "Births to women aged 15-19years out of Total births in percentage DLHS-4": 2.3,
      "Prevalence of Anaemia in women aged 15-49years in percentage DLHS-4": 80.7,
      "Marginal Workers Agricultural Labourers worked for 3 - 6 moths during last year - Persons": 482,
      "Main Workers Household Industry - Males": 50,
      "Scheduled Tribe Females": 15488,
      "Marginal Workers worked for 0 - 3 moths during last year - Males": 469,
      "Marginal Workers Other worked for 3 - 6 moths during last year - Males": 308,
      "Primary Net Enrolment Ratio in percentage DISE": "NA",
      "Total": "NA",
      "Mean age at marriage for boys DLHS-4": 21.6,
      "Number of District Hospitals  DLHS-4": "Not applicable",
      "0-6 Age Group Females": 2849,
      "Marginal Workers Agricultural Labourers worked for 0 - 3 moths during last year - Persons": 161,
      "Marginal Workers Household Industry worked for 0 - 3 moths during last year - Males": 13,
      "Total Workers  Females": 4426,
      "Marginal Workers worked for 3 - 6 moths during last year - Females": 1061,
      "Institutional Deliveries in percentage DLHS-4": 36.1,
      "Marginal Workers Other - Males": 441,
      "Total Workers  Males": 6959,
      "Main Workers - Females": 2798,
      "Primary Gross Enrolment Ratio in percentage DISE": "NA",
      "Main Workers Cultivators - Persons": 6035,
      "Marginal Workers Household Industry worked for 0 - 3 moths during last year - Females": 15,
      "Upper Primary Net Enrolment Ratio in percentage DISE": "NA",
      "Primary New Government Schools since 2003 in percentage DISE": "NA",
      "Tier": "Rural",
      "Marginal Workers Household Industry - Females": 32,
      "Primary Schools with electricity in percentage DISE": "NA",
      "Main Workers Other - Persons": 2169,
      "Marginal Workers Household Industry worked for 3 - 6 moths during last year - Females": 17,
      "Main Workers Cultivators - Males": 3815,
      "Main Workers Household Industry - Persons": 64,
      "Marginal Workers Cultivators worked for 0 - 3 moths during last year - Persons": 582,
      "Scheduled Caste Males": 7,
      "Marginal Workers - Persons": 3022,
      "Deliveries at home conducted by skilled health personnel in percentage DLHS-4": 24.8,
      "Villages with Sub-Health Centres within 3km in percentage DLHS-4": "Not applicable",
      "Upper Primary New Government Schools since 2003 in percentage DISE": "NA",
      "0-6 Age Group Males": 3008,
      "Primary Schools with drinking water facility in percentage DISE": "NA",
      "Non Workers - Persons": 20079,
      "Person Literates": 21963,
      "State": "MIZORAM",
      "Total Female Population": 15611,
      "Marginal Workers worked for 0 - 3 moths during last year - Persons": 1036,
      "Marginal Workers Cultivators - Females": 710,
      "Marginal Workers Other - Persons": 895,
      "Sex Ratio": 985,
      "Scheduled Tribe Persons": 31038,
      "Marginal Workers Household Industry worked for 3 - 6 moths during last year - Males": 16,
      "Marginal Workers Agricultural Labourers - Females": 432,
      "Mean age at marriage for girls DLHS-4": 21.6,
      "Households with solar energy as main source of lighting  Houselisting and Housing Census Data Tables- District Level , Census of India__4": 240,
      "District": "SAIHA",
      "Households receiving treated tap water within premises in percentage Houselisting and Housing Census Data Tables- District Level , Census of India__1": 0.237906423,
      "Total Workers  Persons": 11385,
      "Households receiving treated tap water within premises  Houselisting and Housing Census Data Tables- District Level , Census of India__4": 15,
      "Primary Female Teachers in percentage DISE": "NA",
      "Number of Households": 6537,
      "Main Workers Agricultural Labourers - Persons": 95
    }
  ],
  "Urban": [
    {
      "Marginal Workers Agricultural Labourers - Persons": 122,
      "Marginal Workers Other - Females": 507,
      "Marginal Workers Other worked for 0 - 3 moths during last year - Females": 83,
      "Upper Primary Schools with boys toilet in percentage DISE": "NA",
      "Total Population": 25110,
      "Households with electricity as main source of lighting in percentage Houselisting and Housing Census Data Tables- District Level , Census of India": 97.74354524,
      "Primary Girl's Enrolment in percentage DISE": "NA",
      "Marginal Workers worked for 3 - 6 moths during last year - Males": 707,
      "Prevalence of Acute illness in percentage DLHS-4": "Not available",
      "Main Workers - Persons": 6331,
      "Main Workers Cultivators - Females": 464,
      "Marginal Workers Agricultural Labourers worked for 3 - 6 moths during last year - Females": 52,
      "Marginal Workers Other worked for 0 - 3 moths during last year - Males": 119,
      "Upper Primary Schools with drinking water facility in percentage DISE": "NA",
      "Primary Schools with girls toilet in percentage DISE": "NA",
      "Marginal Workers worked for 3 - 6 moths during last year - Persons": 1472,
      "Upper Primary Drop Out Rate in percentage DISE": "NA",
      "Prevalence of Anaemia in pregnant women aged 15-49years in percentage DLHS-4": "Not available",
      "Current use of any modern method of family planning in percentage DLHS-4": "Not available",
      "Marginal Workers Agricultural Labourers - Males": 63,
      "Upper Primary Female Teachers in percentage DISE": "NA",
      "Marginal Workers - Females": 888,
      "Marginal Workers Other worked for 3 - 6 moths during last year - Persons": 901,
      "Main Workers Agricultural Labourers - Females": 41,
      "Marginal Workers Cultivators worked for 3 - 6 moths during last year - Females": 252,
      "Households with no lighting  Houselisting and Housing Census Data Tables- District Level , Census of India__5": 23,
      "Prevalence of Severe Anaemia  in percentage DLHS-4": "Not available",
      "Total unmet need for family planning in percentage DLHS-4": "Not available",
      "Main Workers Other - Males": 3706,
      "Children who received full vaccination in percentage DLHS-4": "Not available",
      "Marginal Workers Household Industry - Persons": 99,
      "Primary Pupil-Teacher Ratio in percentage DISE": "NA",
      "Marginal Workers Agricultural Labourers worked for 3 - 6 moths during last year - Males": 49,
      "Scheduled Caste Females": 26,
      "Marginal Workers Cultivators - Males": 156,
      "Marginal Workers - Males": 857,
      "Marginal Workers worked for 0 - 3 moths during last year - Females": 123,
      "Households with main source of drinking water within premises in percentage Houselisting and Housing Census Data Tables- District Level , Census of India": 49.09958776,
      "Marginal Workers Household Industry worked for 3 - 6 moths during last year - Persons": 73,
      "Upper Primary Girl's Enrolment in percentage DISE": "NA",
      "Prevalence of Severe Anaemia in women aged 15-49years in percentage DLHS-4": "Not available",
      "Marginal Workers Agricultural Labourers worked for 0 - 3 moths during last year - Males": 14,
      "Households with electricity as main source of lighting  Houselisting and Housing Census Data Tables- District Level , Census of India__3": 4505,
      "Households with computer or laptop with internet connection in percentage": 3.08,
      "PHCs functioning on a 24x7hours basis in percentage DLHS-4": 0,
      "Non Workers - Males": 7489,
      "Total Households in District Houselisting and Housing Census Data Tables- District Level , Census of India": 4609,
      "Upper Primary Schools with girls toilet in percentage DISE": "NA",
      "Households with mobile phone in percentage": 71.86,
      "Households receiving untreated tap water within premises in percentage Houselisting and Housing Census Data Tables- District Level , Census of India__2": 43.56693426,
      "Marginal Workers Cultivators worked for 3 - 6 moths during last year - Males": 145,
      "Prevalence of Anaemia  in percentage DLHS-4": "Not available",
      "Prevalence of Chronic illness in percentage DLHS-4": "Not available",
      "Households with solar energy as main source of lighting in percentage Houselisting and Housing Census Data Tables- District Level , Census of India__1": 0.130180082,
      "Marginal Workers Agricultural Labourers worked for 0 - 3 moths during last year - Females": 7,
      "Main Workers - Males": 4395,
      "Female": "NA",
      "Sno": 1236,
      "Marginal Workers Other worked for 3 - 6 moths during last year - Females": 424,
      "Marginal Workers Cultivators worked for 0 - 3 moths during last year - Females": 13,
      "Scheduled Tribe Males": 11676,
      "Male Illiterates": 2409,
      "Prevalence of Severe Anaemia in pregnant women aged 15-49years in percentage DLHS-4": "Not available",
      "0-6 Age Group Persons": 3796,
      "Upper Primary Student-Classroom Ratio in percentage DISE": "NA",
      "Currently married men married below 21years of age in percentage DLHS-4": "Not available",
      "Male Literates": 10332,
      "Households with no lighting in percentage Houselisting and Housing Census Data Tables- District Level , Census of India__2": 0.499023649,
      "Primary Drop Out Rate in percentage DISE": "NA",
      "Marginal Workers Household Industry - Males": 42,
      "Female Illiterates": 2431,
      "Main Workers Other - Females": 1410,
      "Marginal Workers Cultivators - Persons": 421,
      "Upper Primary Gross Enrolment Ratio in percentage DISE": "NA",
      "Scheduled Caste Persons": 71,
      "Marginal Workers Cultivators worked for 3 - 6 moths during last year - Persons": 397,
      "Households with landline phone in percentage": 2.15,
      "Total Households in District  Houselisting and Housing Census Data Tables- District Level , Census of India": 4609,
      "Upper Primary Pupil-Teacher Ratio in percentage DISE": "NA",
      "Primary Student-Classroom Ratio in percentage DISE": "NA",
      "Primary Schools with boys toilet in percentage DISE": "NA",
      "Mean number of children ever born to women aged 40-49years  DLHS-4": "Not available",
      "Households receiving untreated tap water within premises  Houselisting and Housing Census Data Tables- District Level , Census of India__5": 2008,
      "Marginal Workers Household Industry worked for 0 - 3 moths during last year - Persons": 26,
      "Total Male Population": 12741,
      "Non Workers - Females": 9545,
      "Current use of family planning methods in percentage DLHS-4": "Not available",
      "Households with main source of drinking water within premises  Houselisting and Housing Census Data Tables- District Level , Census of India__3": 2263,
      "Main Workers Agricultural Labourers - Males": 56,
      "Marginal Workers Other worked for 0 - 3 moths during last year - Persons": 202,
      "Currently married women married below 18years of age in percentage DLHS-4": "Not available",
      "Person Illiterates": 4840,
      "Main Workers Household Industry - Females": 21,
      "Female Literates": 9938,
      "Marginal Workers Cultivators worked for 0 - 3 moths during last year - Males": 11,
      "Male": "NA",
      "Households with improved source of drinking water in percentage DLHS-4": "Not available",
      "Upper Primary Schools with electricity in percentage DISE": "NA",
      "Households with electricity in percentage DLHS-4": "Not available",
      "Villages with Primary Health Centre within 10km in percentage DLHS-4": 0,
      "Births to women aged 15-19years out of Total births in percentage DLHS-4": "Not available",
      "Prevalence of Anaemia in women aged 15-49years in percentage DLHS-4": "Not available",
      "Marginal Workers Agricultural Labourers worked for 3 - 6 moths during last year - Persons": 101,
      "Main Workers Household Industry - Males": 68,
      "Scheduled Tribe Females": 11928,
      "Marginal Workers worked for 0 - 3 moths during last year - Males": 150,
      "Marginal Workers Other worked for 3 - 6 moths during last year - Males": 477,
      "Primary Net Enrolment Ratio in percentage DISE": "NA",
      "Total": "NA",
      "Mean age at marriage for boys DLHS-4": "Not available",
      "Number of District Hospitals  DLHS-4": 0,
      "0-6 Age Group Females": 1807,
      "Marginal Workers Agricultural Labourers worked for 0 - 3 moths during last year - Persons": 21,
      "Marginal Workers Household Industry worked for 0 - 3 moths during last year - Males": 6,
      "Total Workers  Females": 2824,
      "Marginal Workers worked for 3 - 6 moths during last year - Females": 765,
      "Institutional Deliveries in percentage DLHS-4": "Not available",
      "Marginal Workers Other - Males": 596,
      "Total Workers  Males": 5252,
      "Main Workers - Females": 1936,
      "Primary Gross Enrolment Ratio in percentage DISE": "NA",
      "Main Workers Cultivators - Persons": 1029,
      "Marginal Workers Household Industry worked for 0 - 3 moths during last year - Females": 20,
      "Upper Primary Net Enrolment Ratio in percentage DISE": "NA",
      "Primary New Government Schools since 2003 in percentage DISE": "NA",
      "Tier": "Urban",
      "Marginal Workers Household Industry - Females": 57,
      "Primary Schools with electricity in percentage DISE": "NA",
      "Main Workers Other - Persons": 5116,
      "Marginal Workers Household Industry worked for 3 - 6 moths during last year - Females": 37,
      "Main Workers Cultivators - Males": 565,
      "Main Workers Household Industry - Persons": 89,
      "Marginal Workers Cultivators worked for 0 - 3 moths during last year - Persons": 24,
      "Scheduled Caste Males": 45,
      "Marginal Workers - Persons": 1745,
      "Deliveries at home conducted by skilled health personnel in percentage DLHS-4": "Not available",
      "Villages with Sub-Health Centres within 3km in percentage DLHS-4": 0,
      "Upper Primary New Government Schools since 2003 in percentage DISE": "NA",
      "0-6 Age Group Males": 1989,
      "Primary Schools with drinking water facility in percentage DISE": "NA",
      "Non Workers - Persons": 17034,
      "Person Literates": 20270,
      "State": "MIZORAM",
      "Total Female Population": 12369,
      "Marginal Workers worked for 0 - 3 moths during last year - Persons": 273,
      "Marginal Workers Cultivators - Females": 265,
      "Marginal Workers Other - Persons": 1103,
      "Sex Ratio": 971,
      "Scheduled Tribe Persons": 23604,
      "Marginal Workers Household Industry worked for 3 - 6 moths during last year - Males": 36,
      "Marginal Workers Agricultural Labourers - Females": 59,
      "Mean age at marriage for girls DLHS-4": "Not available",
      "Households with solar energy as main source of lighting  Houselisting and Housing Census Data Tables- District Level , Census of India__4": 6,
      "District": "SAIHA",
      "Households receiving treated tap water within premises in percentage Houselisting and Housing Census Data Tables- District Level , Census of India__1": 5.272293339,
      "Total Workers  Persons": 8076,
      "Households receiving treated tap water within premises  Houselisting and Housing Census Data Tables- District Level , Census of India__4": 243,
      "Primary Female Teachers in percentage DISE": "NA",
      "Number of Households": 4607,
      "Main Workers Agricultural Labourers - Persons": 97
    }
  ]
}