{
  "Total": [
    {
      "Marginal Workers Agricultural Labourers - Persons": 1042,
      "Marginal Workers Other - Females": 1189,
      "Marginal Workers Other worked for 0 - 3 moths during last year - Females": 420,
      "Upper Primary Schools with boys toilet in percentage DISE": 0,
      "Total Population": 105597,
      "Households with electricity as main source of lighting in percentage Houselisting and Housing Census Data Tables- District Level , Census of India": 70.8056368,
      "Primary Girl's Enrolment in percentage DISE": 49.5,
      "Marginal Workers worked for 3 - 6 moths during last year - Males": 3722,
      "Prevalence of Acute illness in percentage DLHS-4": 5.7,
      "Main Workers - Persons": 31038,
      "Main Workers Cultivators - Females": 1004,
      "Marginal Workers Agricultural Labourers worked for 3 - 6 moths during last year - Females": 290,
      "Marginal Workers Other worked for 0 - 3 moths during last year - Males": 697,
      "Upper Primary Schools with drinking water facility in percentage DISE": 0,
      "Primary Schools with girls toilet in percentage DISE": 82.9,
      "Marginal Workers worked for 3 - 6 moths during last year - Persons": 5660,
      "Upper Primary Drop Out Rate in percentage DISE": 2.04,
      "Prevalence of Anaemia in pregnant women aged 15-49years in percentage DLHS-4": 59.3,
      "Current use of any modern method of family planning in percentage DLHS-4": 66.8,
      "Marginal Workers Agricultural Labourers - Males": 632,
      "Upper Primary Female Teachers in percentage DISE": 0,
      "Marginal Workers - Females": 2828,
      "Marginal Workers Other worked for 3 - 6 moths during last year - Persons": 2945,
      "Main Workers Agricultural Labourers - Females": 91,
      "Marginal Workers Cultivators worked for 3 - 6 moths during last year - Females": 864,
      "Households with no lighting  Houselisting and Housing Census Data Tables- District Level , Census of India__5": 167,
      "Prevalence of Severe Anaemia  in percentage DLHS-4": 0,
      "Total unmet need for family planning in percentage DLHS-4": 13.4,
      "Main Workers Other - Males": 17614,
      "Children who received full vaccination in percentage DLHS-4": 77.4,
      "Marginal Workers Household Industry - Persons": 77,
      "Primary Pupil-Teacher Ratio in percentage DISE": 12,
      "Marginal Workers Agricultural Labourers worked for 3 - 6 moths during last year - Males": 513,
      "Scheduled Caste Females": 0,
      "Marginal Workers Cultivators - Males": 1155,
      "Marginal Workers - Males": 4713,
      "Marginal Workers worked for 0 - 3 moths during last year - Females": 890,
      "Households with main source of drinking water within premises in percentage Houselisting and Housing Census Data Tables- District Level , Census of India": 42.79257037,
      "Marginal Workers Household Industry worked for 3 - 6 moths during last year - Persons": 47,
      "Upper Primary Girl's Enrolment in percentage DISE": 0,
      "Prevalence of Severe Anaemia in women aged 15-49years in percentage DLHS-4": 4.1,
      "Marginal Workers Agricultural Labourers worked for 0 - 3 moths during last year - Males": 119,
      "Households with electricity as main source of lighting  Houselisting and Housing Census Data Tables- District Level , Census of India__3": 18641,
      "Households with computer or laptop with internet connection in percentage": 1.47,
      "PHCs functioning on a 24x7hours basis in percentage DLHS-4": 100,
      "Non Workers - Males": 24249,
      "Total Households in District Houselisting and Housing Census Data Tables- District Level , Census of India": 26327,
      "Upper Primary Schools with girls toilet in percentage DISE": 0,
      "Households with mobile phone in percentage": 61.32,
      "Households receiving untreated tap water within premises in percentage Houselisting and Housing Census Data Tables- District Level , Census of India__2": 11.90412884,
      "Marginal Workers Cultivators worked for 3 - 6 moths during last year - Males": 1001,
      "Prevalence of Anaemia  in percentage DLHS-4": 64.5,
      "Prevalence of Chronic illness in percentage DLHS-4": 3.4,
      "Households with solar energy as main source of lighting in percentage Houselisting and Housing Census Data Tables- District Level , Census of India__1": 0.387434953,
      "Marginal Workers Agricultural Labourers worked for 0 - 3 moths during last year - Females": 120,
      "Main Workers - Males": 25899,
      "Female": 79.06,
      "Sno": 5,
      "Marginal Workers Other worked for 3 - 6 moths during last year - Females": 769,
      "Marginal Workers Cultivators worked for 0 - 3 moths during last year - Females": 341,
      "Scheduled Tribe Males": 415,
      "Male Illiterates": 11675,
      "Prevalence of Severe Anaemia in pregnant women aged 15-49years in percentage DLHS-4": 3.7,
      "0-6 Age Group Persons": 11828,
      "Upper Primary Student-Classroom Ratio in percentage DISE": 0,
      "Currently married men married below 21years of age in percentage DLHS-4": 4.2,
      "Male Literates": 43186,
      "Households with no lighting in percentage Houselisting and Housing Census Data Tables- District Level , Census of India__2": 0.634329776,
      "Primary Drop Out Rate in percentage DISE": 0.6,
      "Marginal Workers Household Industry - Males": 53,
      "Female Illiterates": 15239,
      "Main Workers Other - Females": 4001,
      "Marginal Workers Cultivators - Persons": 2360,
      "Upper Primary Gross Enrolment Ratio in percentage DISE": 97.2,
      "Scheduled Caste Persons": 0,
      "Marginal Workers Cultivators worked for 3 - 6 moths during last year - Persons": 1865,
      "Households with landline phone in percentage": 3.36,
      "Total Households in District  Houselisting and Housing Census Data Tables- District Level , Census of India": 26327,
      "Upper Primary Pupil-Teacher Ratio in percentage DISE": 0,
      "Primary Student-Classroom Ratio in percentage DISE": 10,
      "Primary Schools with boys toilet in percentage DISE": 83.8,
      "Mean number of children ever born to women aged 40-49years  DLHS-4": 2.3,
      "Households receiving untreated tap water within premises  Houselisting and Housing Census Data Tables- District Level , Census of India__5": 3134,
      "Marginal Workers Household Industry worked for 0 - 3 moths during last year - Persons": 30,
      "Total Male Population": 54861,
      "Non Workers - Females": 42769,
      "Current use of family planning methods in percentage DLHS-4": 68.2,
      "Households with main source of drinking water within premises  Houselisting and Housing Census Data Tables- District Level , Census of India__3": 11266,
      "Main Workers Agricultural Labourers - Males": 782,
      "Marginal Workers Other worked for 0 - 3 moths during last year - Persons": 1117,
      "Currently married women married below 18years of age in percentage DLHS-4": 19.6,
      "Person Illiterates": 26914,
      "Main Workers Household Industry - Females": 43,
      "Female Literates": 35497,
      "Marginal Workers Cultivators worked for 0 - 3 moths during last year - Males": 154,
      "Male": 88.37,
      "Households with improved source of drinking water in percentage DLHS-4": 92.9,
      "Upper Primary Schools with electricity in percentage DISE": 0,
      "Households with electricity in percentage DLHS-4": 92.5,
      "Villages with Primary Health Centre within 10km in percentage DLHS-4": 84.6,
      "Births to women aged 15-19years out of Total births in percentage DLHS-4": 3.3,
      "Prevalence of Anaemia in women aged 15-49years in percentage DLHS-4": 65,
      "Marginal Workers Agricultural Labourers worked for 3 - 6 moths during last year - Persons": 803,
      "Main Workers Household Industry - Males": 140,
      "Scheduled Tribe Females": 343,
      "Marginal Workers worked for 0 - 3 moths during last year - Males": 991,
      "Marginal Workers Other worked for 3 - 6 moths during last year - Males": 2176,
      "Primary Net Enrolment Ratio in percentage DISE": 87.3,
      "Total": 83.91,
      "Mean age at marriage for boys DLHS-4": 27.4,
      "Number of District Hospitals  DLHS-4": 1,
      "0-6 Age Group Females": 5837,
      "Marginal Workers Agricultural Labourers worked for 0 - 3 moths during last year - Persons": 239,
      "Marginal Workers Household Industry worked for 0 - 3 moths during last year - Males": 21,
      "Total Workers  Females": 7967,
      "Marginal Workers worked for 3 - 6 moths during last year - Females": 1938,
      "Institutional Deliveries in percentage DLHS-4": 89.9,
      "Marginal Workers Other - Males": 2873,
      "Total Workers  Males": 30612,
      "Main Workers - Females": 5139,
      "Primary Gross Enrolment Ratio in percentage DISE": 104,
      "Main Workers Cultivators - Persons": 8367,
      "Marginal Workers Household Industry worked for 0 - 3 moths during last year - Females": 9,
      "Upper Primary Net Enrolment Ratio in percentage DISE": 74.1,
      "Primary New Government Schools since 2003 in percentage DISE": 17.3,
      "Tier": "Total",
      "Marginal Workers Household Industry - Females": 24,
      "Primary Schools with electricity in percentage DISE": 65,
      "Main Workers Other - Persons": 21615,
      "Marginal Workers Household Industry worked for 3 - 6 moths during last year - Females": 15,
      "Main Workers Cultivators - Males": 7363,
      "Main Workers Household Industry - Persons": 183,
      "Marginal Workers Cultivators worked for 0 - 3 moths during last year - Persons": 495,
      "Scheduled Caste Males": 0,
      "Marginal Workers - Persons": 7541,
      "Deliveries at home conducted by skilled health personnel in percentage DLHS-4": 4,
      "Villages with Sub-Health Centres within 3km in percentage DLHS-4": 79.5,
      "Upper Primary New Government Schools since 2003 in percentage DISE": 0,
      "0-6 Age Group Males": 5991,
      "Primary Schools with drinking water facility in percentage DISE": 95.7,
      "Non Workers - Persons": 67018,
      "Person Literates": 78683,
      "State": "ANDAMAN & NICOBAR ISLANDS",
      "Total Female Population": 50736,
      "Marginal Workers worked for 0 - 3 moths during last year - Persons": 1881,
      "Marginal Workers Cultivators - Females": 1205,
      "Marginal Workers Other - Persons": 4062,
      "Sex Ratio": 925,
      "Scheduled Tribe Persons": 758,
      "Marginal Workers Household Industry worked for 3 - 6 moths during last year - Males": 32,
      "Marginal Workers Agricultural Labourers - Females": 410,
      "Mean age at marriage for girls DLHS-4": 20,
      "Households with solar energy as main source of lighting  Houselisting and Housing Census Data Tables- District Level , Census of India__4": 102,
      "District": "NORTH & MIDDLE ANDAMAN",
      "Households receiving treated tap water within premises in percentage Houselisting and Housing Census Data Tables- District Level , Census of India__1": 29.11459718,
      "Total Workers  Persons": 38579,
      "Households receiving treated tap water within premises  Houselisting and Housing Census Data Tables- District Level , Census of India__4": 7665,
      "Primary Female Teachers in percentage DISE": 53.1,
      "Number of Households": 26199,
      "Main Workers Agricultural Labourers - Persons": 873
    }
  ],
  "Rural": [
    {
      "Marginal Workers Agricultural Labourers - Persons": 1038,
      "Marginal Workers Other - Females": 1134,
      "Marginal Workers Other worked for 0 - 3 moths during last year - Females": 393,
      "Upper Primary Schools with boys toilet in percentage DISE": "NA",
      "Total Population": 102856,
      "Households with electricity as main source of lighting in percentage Houselisting and Housing Census Data Tables- District Level , Census of India": 70.41741577,
      "Primary Girl's Enrolment in percentage DISE": "NA",
      "Marginal Workers worked for 3 - 6 moths during last year - Males": 3666,
      "Prevalence of Acute illness in percentage DLHS-4": 5.7,
      "Main Workers - Persons": 30162,
      "Main Workers Cultivators - Females": 1001,
      "Marginal Workers Agricultural Labourers worked for 3 - 6 moths during last year - Females": 289,
      "Marginal Workers Other worked for 0 - 3 moths during last year - Males": 654,
      "Upper Primary Schools with drinking water facility in percentage DISE": "NA",
      "Primary Schools with girls toilet in percentage DISE": "NA",
      "Marginal Workers worked for 3 - 6 moths during last year - Persons": 5574,
      "Upper Primary Drop Out Rate in percentage DISE": "NA",
      "Prevalence of Anaemia in pregnant women aged 15-49years in percentage DLHS-4": 59.3,
      "Current use of any modern method of family planning in percentage DLHS-4": 66.8,
      "Marginal Workers Agricultural Labourers - Males": 630,
      "Upper Primary Female Teachers in percentage DISE": "NA",
      "Marginal Workers - Females": 2769,
      "Marginal Workers Other worked for 3 - 6 moths during last year - Persons": 2863,
      "Main Workers Agricultural Labourers - Females": 91,
      "Marginal Workers Cultivators worked for 3 - 6 moths during last year - Females": 864,
      "Households with no lighting  Houselisting and Housing Census Data Tables- District Level , Census of India__5": 167,
      "Prevalence of Severe Anaemia  in percentage DLHS-4": 0,
      "Total unmet need for family planning in percentage DLHS-4": 13.4,
      "Main Workers Other - Males": 16955,
      "Children who received full vaccination in percentage DLHS-4": 77.4,
      "Marginal Workers Household Industry - Persons": 76,
      "Primary Pupil-Teacher Ratio in percentage DISE": "NA",
      "Marginal Workers Agricultural Labourers worked for 3 - 6 moths during last year - Males": 511,
      "Scheduled Caste Females": 0,
      "Marginal Workers Cultivators - Males": 1155,
      "Marginal Workers - Males": 4614,
      "Marginal Workers worked for 0 - 3 moths during last year - Females": 861,
      "Households with main source of drinking water within premises in percentage Houselisting and Housing Census Data Tables- District Level , Census of India": 42.19495036,
      "Marginal Workers Household Industry worked for 3 - 6 moths during last year - Persons": 46,
      "Upper Primary Girl's Enrolment in percentage DISE": "NA",
      "Prevalence of Severe Anaemia in women aged 15-49years in percentage DLHS-4": 4.1,
      "Marginal Workers Agricultural Labourers worked for 0 - 3 moths during last year - Males": 119,
      "Households with electricity as main source of lighting  Houselisting and Housing Census Data Tables- District Level , Census of India__3": 18017,
      "Households with computer or laptop with internet connection in percentage": 1.46,
      "PHCs functioning on a 24x7hours basis in percentage DLHS-4": "Not applicable",
      "Non Workers - Males": 23633,
      "Total Households in District Houselisting and Housing Census Data Tables- District Level , Census of India": 25586,
      "Upper Primary Schools with girls toilet in percentage DISE": "NA",
      "Households with mobile phone in percentage": 61.17,
      "Households receiving untreated tap water within premises in percentage Houselisting and Housing Census Data Tables- District Level , Census of India__2": 12.24888611,
      "Marginal Workers Cultivators worked for 3 - 6 moths during last year - Males": 1001,
      "Prevalence of Anaemia  in percentage DLHS-4": 64.5,
      "Prevalence of Chronic illness in percentage DLHS-4": 3.4,
      "Households with solar energy as main source of lighting in percentage Houselisting and Housing Census Data Tables- District Level , Census of India__1": 0.398655515,
      "Marginal Workers Agricultural Labourers worked for 0 - 3 moths during last year - Females": 119,
      "Main Workers - Males": 25210,
      "Female": "NA",
      "Sno": 4,
      "Marginal Workers Other worked for 3 - 6 moths during last year - Females": 741,
      "Marginal Workers Cultivators worked for 0 - 3 moths during last year - Females": 340,
      "Scheduled Tribe Males": 410,
      "Male Illiterates": 11401,
      "Prevalence of Severe Anaemia in pregnant women aged 15-49years in percentage DLHS-4": 3.7,
      "0-6 Age Group Persons": 11579,
      "Upper Primary Student-Classroom Ratio in percentage DISE": "NA",
      "Currently married men married below 21years of age in percentage DLHS-4": 4.2,
      "Male Literates": 42056,
      "Households with no lighting in percentage Houselisting and Housing Census Data Tables- District Level , Census of India__2": 0.652700696,
      "Primary Drop Out Rate in percentage DISE": "NA",
      "Marginal Workers Household Industry - Males": 53,
      "Female Illiterates": 14834,
      "Main Workers Other - Females": 3820,
      "Marginal Workers Cultivators - Persons": 2359,
      "Upper Primary Gross Enrolment Ratio in percentage DISE": "NA",
      "Scheduled Caste Persons": 0,
      "Marginal Workers Cultivators worked for 3 - 6 moths during last year - Persons": 1865,
      "Households with landline phone in percentage": 3.39,
      "Total Households in District  Houselisting and Housing Census Data Tables- District Level , Census of India": 25586,
      "Upper Primary Pupil-Teacher Ratio in percentage DISE": "NA",
      "Primary Student-Classroom Ratio in percentage DISE": "NA",
      "Primary Schools with boys toilet in percentage DISE": "NA",
      "Mean number of children ever born to women aged 40-49years  DLHS-4": 2.3,
      "Households receiving untreated tap water within premises  Houselisting and Housing Census Data Tables- District Level , Census of India__5": 3134,
      "Marginal Workers Household Industry worked for 0 - 3 moths during last year - Persons": 30,
      "Total Male Population": 53457,
      "Non Workers - Females": 41678,
      "Current use of family planning methods in percentage DLHS-4": 68.2,
      "Households with main source of drinking water within premises  Houselisting and Housing Census Data Tables- District Level , Census of India__3": 10796,
      "Main Workers Agricultural Labourers - Males": 779,
      "Marginal Workers Other worked for 0 - 3 moths during last year - Persons": 1047,
      "Currently married women married below 18years of age in percentage DLHS-4": 19.6,
      "Person Illiterates": 26235,
      "Main Workers Household Industry - Females": 40,
      "Female Literates": 34565,
      "Marginal Workers Cultivators worked for 0 - 3 moths during last year - Males": 154,
      "Male": "NA",
      "Households with improved source of drinking water in percentage DLHS-4": 92.9,
      "Upper Primary Schools with electricity in percentage DISE": "NA",
      "Households with electricity in percentage DLHS-4": 92.5,
      "Villages with Primary Health Centre within 10km in percentage DLHS-4": "Not applicable",
      "Births to women aged 15-19years out of Total births in percentage DLHS-4": 3.3,
      "Prevalence of Anaemia in women aged 15-49years in percentage DLHS-4": 65,
      "Marginal Workers Agricultural Labourers worked for 3 - 6 moths during last year - Persons": 800,
      "Main Workers Household Industry - Males": 139,
      "Scheduled Tribe Females": 338,
      "Marginal Workers worked for 0 - 3 moths during last year - Males": 948,
      "Marginal Workers Other worked for 3 - 6 moths during last year - Males": 2122,
      "Primary Net Enrolment Ratio in percentage DISE": "NA",
      "Total": "NA",
      "Mean age at marriage for boys DLHS-4": 27.5,
      "Number of District Hospitals  DLHS-4": "Not applicable",
      "0-6 Age Group Females": 5706,
      "Marginal Workers Agricultural Labourers worked for 0 - 3 moths during last year - Persons": 238,
      "Marginal Workers Household Industry worked for 0 - 3 moths during last year - Males": 21,
      "Total Workers  Females": 7721,
      "Marginal Workers worked for 3 - 6 moths during last year - Females": 1908,
      "Institutional Deliveries in percentage DLHS-4": 89.9,
      "Marginal Workers Other - Males": 2776,
      "Total Workers  Males": 29824,
      "Main Workers - Females": 4952,
      "Primary Gross Enrolment Ratio in percentage DISE": "NA",
      "Main Workers Cultivators - Persons": 8338,
      "Marginal Workers Household Industry worked for 0 - 3 moths during last year - Females": 9,
      "Upper Primary Net Enrolment Ratio in percentage DISE": "NA",
      "Primary New Government Schools since 2003 in percentage DISE": "NA",
      "Tier": "Rural",
      "Marginal Workers Household Industry - Females": 23,
      "Primary Schools with electricity in percentage DISE": "NA",
      "Main Workers Other - Persons": 20775,
      "Marginal Workers Household Industry worked for 3 - 6 moths during last year - Females": 14,
      "Main Workers Cultivators - Males": 7337,
      "Main Workers Household Industry - Persons": 179,
      "Marginal Workers Cultivators worked for 0 - 3 moths during last year - Persons": 494,
      "Scheduled Caste Males": 0,
      "Marginal Workers - Persons": 7383,
      "Deliveries at home conducted by skilled health personnel in percentage DLHS-4": 4,
      "Villages with Sub-Health Centres within 3km in percentage DLHS-4": "Not applicable",
      "Upper Primary New Government Schools since 2003 in percentage DISE": "NA",
      "0-6 Age Group Males": 5873,
      "Primary Schools with drinking water facility in percentage DISE": "NA",
      "Non Workers - Persons": 65311,
      "Person Literates": 76621,
      "State": "ANDAMAN & NICOBAR ISLANDS",
      "Total Female Population": 49399,
      "Marginal Workers worked for 0 - 3 moths during last year - Persons": 1809,
      "Marginal Workers Cultivators - Females": 1204,
      "Marginal Workers Other - Persons": 3910,
      "Sex Ratio": 924,
      "Scheduled Tribe Persons": 748,
      "Marginal Workers Household Industry worked for 3 - 6 moths during last year - Males": 32,
      "Marginal Workers Agricultural Labourers - Females": 408,
      "Mean age at marriage for girls DLHS-4": 20,
      "Households with solar energy as main source of lighting  Houselisting and Housing Census Data Tables- District Level , Census of India__4": 102,
      "District": "NORTH & MIDDLE ANDAMAN",
      "Households receiving treated tap water within premises in percentage Houselisting and Housing Census Data Tables- District Level , Census of India__1": 28.12475573,
      "Total Workers  Persons": 37545,
      "Households receiving treated tap water within premises  Houselisting and Housing Census Data Tables- District Level , Census of India__4": 7196,
      "Primary Female Teachers in percentage DISE": "NA",
      "Number of Households": 25475,
      "Main Workers Agricultural Labourers - Persons": 870
    }
  ],
  "Urban": [
    {
      "Marginal Workers Agricultural Labourers - Persons": 4,
      "Marginal Workers Other - Females": 55,
      "Marginal Workers Other worked for 0 - 3 moths during last year - Females": 27,
      "Upper Primary Schools with boys toilet in percentage DISE": "NA",
      "Total Population": 2741,
      "Households with electricity as main source of lighting in percentage Houselisting and Housing Census Data Tables- District Level , Census of India": 84.21052632,
      "Primary Girl's Enrolment in percentage DISE": "NA",
      "Marginal Workers worked for 3 - 6 moths during last year - Males": 56,
      "Prevalence of Acute illness in percentage DLHS-4": "Not available",
      "Main Workers - Persons": 876,
      "Main Workers Cultivators - Females": 3,
      "Marginal Workers Agricultural Labourers worked for 3 - 6 moths during last year - Females": 1,
      "Marginal Workers Other worked for 0 - 3 moths during last year - Males": 43,
      "Upper Primary Schools with drinking water facility in percentage DISE": "NA",
      "Primary Schools with girls toilet in percentage DISE": "NA",
      "Marginal Workers worked for 3 - 6 moths during last year - Persons": 86,
      "Upper Primary Drop Out Rate in percentage DISE": "NA",
      "Prevalence of Anaemia in pregnant women aged 15-49years in percentage DLHS-4": "Not available",
      "Current use of any modern method of family planning in percentage DLHS-4": "Not available",
      "Marginal Workers Agricultural Labourers - Males": 2,
      "Upper Primary Female Teachers in percentage DISE": "NA",
      "Marginal Workers - Females": 59,
      "Marginal Workers Other worked for 3 - 6 moths during last year - Persons": 82,
      "Main Workers Agricultural Labourers - Females": 0,
      "Marginal Workers Cultivators worked for 3 - 6 moths during last year - Females": 0,
      "Households with no lighting  Houselisting and Housing Census Data Tables- District Level , Census of India__5": "-",
      "Prevalence of Severe Anaemia  in percentage DLHS-4": "Not available",
      "Total unmet need for family planning in percentage DLHS-4": "Not available",
      "Main Workers Other - Males": 659,
      "Children who received full vaccination in percentage DLHS-4": "Not available",
      "Marginal Workers Household Industry - Persons": 1,
      "Primary Pupil-Teacher Ratio in percentage DISE": "NA",
      "Marginal Workers Agricultural Labourers worked for 3 - 6 moths during last year - Males": 2,
      "Scheduled Caste Females": 0,
      "Marginal Workers Cultivators - Males": 0,
      "Marginal Workers - Males": 99,
      "Marginal Workers worked for 0 - 3 moths during last year - Females": 29,
      "Households with main source of drinking water within premises in percentage Houselisting and Housing Census Data Tables- District Level , Census of India": 63.42780027,
      "Marginal Workers Household Industry worked for 3 - 6 moths during last year - Persons": 1,
      "Upper Primary Girl's Enrolment in percentage DISE": "NA",
      "Prevalence of Severe Anaemia in women aged 15-49years in percentage DLHS-4": "Not available",
      "Marginal Workers Agricultural Labourers worked for 0 - 3 moths during last year - Males": 0,
      "Households with electricity as main source of lighting  Houselisting and Housing Census Data Tables- District Level , Census of India__3": 624,
      "Households with computer or laptop with internet connection in percentage": 1.89,
      "PHCs functioning on a 24x7hours basis in percentage DLHS-4": 0,
      "Non Workers - Males": 616,
      "Total Households in District Houselisting and Housing Census Data Tables- District Level , Census of India": 741,
      "Upper Primary Schools with girls toilet in percentage DISE": "NA",
      "Households with mobile phone in percentage": 66.67,
      "Households receiving untreated tap water within premises in percentage Houselisting and Housing Census Data Tables- District Level , Census of India__2": "NA",
      "Marginal Workers Cultivators worked for 3 - 6 moths during last year - Males": 0,
      "Prevalence of Anaemia  in percentage DLHS-4": "Not available",
      "Prevalence of Chronic illness in percentage DLHS-4": "Not available",
      "Households with solar energy as main source of lighting in percentage Houselisting and Housing Census Data Tables- District Level , Census of India__1": "NA",
      "Marginal Workers Agricultural Labourers worked for 0 - 3 moths during last year - Females": 1,
      "Main Workers - Males": 689,
      "Female": "NA",
      "Sno": 6,
      "Marginal Workers Other worked for 3 - 6 moths during last year - Females": 28,
      "Marginal Workers Cultivators worked for 0 - 3 moths during last year - Females": 1,
      "Scheduled Tribe Males": 5,
      "Male Illiterates": 274,
      "Prevalence of Severe Anaemia in pregnant women aged 15-49years in percentage DLHS-4": "Not available",
      "0-6 Age Group Persons": 249,
      "Upper Primary Student-Classroom Ratio in percentage DISE": "NA",
      "Currently married men married below 21years of age in percentage DLHS-4": "Not available",
      "Male Literates": 1130,
      "Households with no lighting in percentage Houselisting and Housing Census Data Tables- District Level , Census of India__2": "NA",
      "Primary Drop Out Rate in percentage DISE": "NA",
      "Marginal Workers Household Industry - Males": 0,
      "Female Illiterates": 405,
      "Main Workers Other - Females": 181,
      "Marginal Workers Cultivators - Persons": 1,
      "Upper Primary Gross Enrolment Ratio in percentage DISE": "NA",
      "Scheduled Caste Persons": 0,
      "Marginal Workers Cultivators worked for 3 - 6 moths during last year - Persons": 0,
      "Households with landline phone in percentage": 2.43,
      "Total Households in District  Houselisting and Housing Census Data Tables- District Level , Census of India": 741,
      "Upper Primary Pupil-Teacher Ratio in percentage DISE": "NA",
      "Primary Student-Classroom Ratio in percentage DISE": "NA",
      "Primary Schools with boys toilet in percentage DISE": "NA",
      "Mean number of children ever born to women aged 40-49years  DLHS-4": "Not available",
      "Households receiving untreated tap water within premises  Houselisting and Housing Census Data Tables- District Level , Census of India__5": "-",
      "Marginal Workers Household Industry worked for 0 - 3 moths during last year - Persons": 0,
      "Total Male Population": 1404,
      "Non Workers - Females": 1091,
      "Current use of family planning methods in percentage DLHS-4": "Not available",
      "Households with main source of drinking water within premises  Houselisting and Housing Census Data Tables- District Level , Census of India__3": 470,
      "Main Workers Agricultural Labourers - Males": 3,
      "Marginal Workers Other worked for 0 - 3 moths during last year - Persons": 70,
      "Currently married women married below 18years of age in percentage DLHS-4": "Not available",
      "Person Illiterates": 679,
      "Main Workers Household Industry - Females": 3,
      "Female Literates": 932,
      "Marginal Workers Cultivators worked for 0 - 3 moths during last year - Males": 0,
      "Male": "NA",
      "Households with improved source of drinking water in percentage DLHS-4": "Not available",
      "Upper Primary Schools with electricity in percentage DISE": "NA",
      "Households with electricity in percentage DLHS-4": "Not available",
      "Villages with Primary Health Centre within 10km in percentage DLHS-4": 0,
      "Births to women aged 15-19years out of Total births in percentage DLHS-4": "Not available",
      "Prevalence of Anaemia in women aged 15-49years in percentage DLHS-4": "Not available",
      "Marginal Workers Agricultural Labourers worked for 3 - 6 moths during last year - Persons": 3,
      "Main Workers Household Industry - Males": 1,
      "Scheduled Tribe Females": 5,
      "Marginal Workers worked for 0 - 3 moths during last year - Males": 43,
      "Marginal Workers Other worked for 3 - 6 moths during last year - Males": 54,
      "Primary Net Enrolment Ratio in percentage DISE": "NA",
      "Total": "NA",
      "Mean age at marriage for boys DLHS-4": "Not available",
      "Number of District Hospitals  DLHS-4": 0,
      "0-6 Age Group Females": 131,
      "Marginal Workers Agricultural Labourers worked for 0 - 3 moths during last year - Persons": 1,
      "Marginal Workers Household Industry worked for 0 - 3 moths during last year - Males": 0,
      "Total Workers  Females": 246,
      "Marginal Workers worked for 3 - 6 moths during last year - Females": 30,
      "Institutional Deliveries in percentage DLHS-4": "Not available",
      "Marginal Workers Other - Males": 97,
      "Total Workers  Males": 788,
      "Main Workers - Females": 187,
      "Primary Gross Enrolment Ratio in percentage DISE": "NA",
      "Main Workers Cultivators - Persons": 29,
      "Marginal Workers Household Industry worked for 0 - 3 moths during last year - Females": 0,
      "Upper Primary Net Enrolment Ratio in percentage DISE": "NA",
      "Primary New Government Schools since 2003 in percentage DISE": "NA",
      "Tier": "Urban",
      "Marginal Workers Household Industry - Females": 1,
      "Primary Schools with electricity in percentage DISE": "NA",
      "Main Workers Other - Persons": 840,
      "Marginal Workers Household Industry worked for 3 - 6 moths during last year - Females": 1,
      "Main Workers Cultivators - Males": 26,
      "Main Workers Household Industry - Persons": 4,
      "Marginal Workers Cultivators worked for 0 - 3 moths during last year - Persons": 1,
      "Scheduled Caste Males": 0,
      "Marginal Workers - Persons": 158,
      "Deliveries at home conducted by skilled health personnel in percentage DLHS-4": "Not available",
      "Villages with Sub-Health Centres within 3km in percentage DLHS-4": 0,
      "Upper Primary New Government Schools since 2003 in percentage DISE": "NA",
      "0-6 Age Group Males": 118,
      "Primary Schools with drinking water facility in percentage DISE": "NA",
      "Non Workers - Persons": 1707,
      "Person Literates": 2062,
      "State": "ANDAMAN & NICOBAR ISLANDS",
      "Total Female Population": 1337,
      "Marginal Workers worked for 0 - 3 moths during last year - Persons": 72,
      "Marginal Workers Cultivators - Females": 1,
      "Marginal Workers Other - Persons": 152,
      "Sex Ratio": 952,
      "Scheduled Tribe Persons": 10,
      "Marginal Workers Household Industry worked for 3 - 6 moths during last year - Males": 0,
      "Marginal Workers Agricultural Labourers - Females": 2,
      "Mean age at marriage for girls DLHS-4": "Not available",
      "Households with solar energy as main source of lighting  Houselisting and Housing Census Data Tables- District Level , Census of India__4": "-",
      "District": "NORTH & MIDDLE ANDAMAN",
      "Households receiving treated tap water within premises in percentage Houselisting and Housing Census Data Tables- District Level , Census of India__1": 63.2928475,
      "Total Workers  Persons": 1034,
      "Households receiving treated tap water within premises  Houselisting and Housing Census Data Tables- District Level , Census of India__4": 469,
      "Primary Female Teachers in percentage DISE": "NA",
      "Number of Households": 724,
      "Main Workers Agricultural Labourers - Persons": 3
    }
  ]
}