{
  "Total": [
    {
      "Marginal Workers Agricultural Labourers - Persons": 60372,
      "Marginal Workers Other - Females": 9765,
      "Marginal Workers Other worked for 0 - 3 moths during last year - Females": 1384,
      "Upper Primary Schools with boys toilet in percentage DISE": 100,
      "Total Population": 1514190,
      "Households with electricity as main source of lighting in percentage Houselisting and Housing Census Data Tables- District Level , Census of India": 92.94728144,
      "Primary Girl's Enrolment in percentage DISE": 50.9,
      "Marginal Workers worked for 3 - 6 moths during last year - Males": 22676,
      "Prevalence of Acute illness in percentage DLHS-4": "Not available",
      "Main Workers - Persons": 529153,
      "Main Workers Cultivators - Females": 35164,
      "Marginal Workers Agricultural Labourers worked for 3 - 6 moths during last year - Females": 42273,
      "Marginal Workers Other worked for 0 - 3 moths during last year - Males": 1013,
      "Upper Primary Schools with drinking water facility in percentage DISE": 100,
      "Primary Schools with girls toilet in percentage DISE": 100,
      "Marginal Workers worked for 3 - 6 moths during last year - Persons": 109082,
      "Upper Primary Drop Out Rate in percentage DISE": 4.83,
      "Prevalence of Anaemia in pregnant women aged 15-49years in percentage DLHS-4": "Not available",
      "Current use of any modern method of family planning in percentage DLHS-4": "Not available",
      "Marginal Workers Agricultural Labourers - Males": 11859,
      "Upper Primary Female Teachers in percentage DISE": 73.5,
      "Marginal Workers - Females": 100097,
      "Marginal Workers Other worked for 3 - 6 moths during last year - Persons": 16603,
      "Main Workers Agricultural Labourers - Females": 46689,
      "Marginal Workers Cultivators worked for 3 - 6 moths during last year - Females": 34904,
      "Households with no lighting  Houselisting and Housing Census Data Tables- District Level , Census of India__5": 3314,
      "Prevalence of Severe Anaemia  in percentage DLHS-4": "Not available",
      "Total unmet need for family planning in percentage DLHS-4": "Not available",
      "Main Workers Other - Males": 169381,
      "Children who received full vaccination in percentage DLHS-4": "Not available",
      "Marginal Workers Household Industry - Persons": 1492,
      "Primary Pupil-Teacher Ratio in percentage DISE": 19,
      "Marginal Workers Agricultural Labourers worked for 3 - 6 moths during last year - Males": 9804,
      "Scheduled Caste Females": 64397,
      "Marginal Workers Cultivators - Males": 6367,
      "Marginal Workers - Males": 27889,
      "Marginal Workers worked for 0 - 3 moths during last year - Females": 13691,
      "Households with main source of drinking water within premises in percentage Houselisting and Housing Census Data Tables- District Level , Census of India": 64.96900408,
      "Marginal Workers Household Industry worked for 3 - 6 moths during last year - Persons": 1205,
      "Upper Primary Girl's Enrolment in percentage DISE": 68.1,
      "Prevalence of Severe Anaemia in women aged 15-49years in percentage DLHS-4": "Not available",
      "Marginal Workers Agricultural Labourers worked for 0 - 3 moths during last year - Males": 2055,
      "Households with electricity as main source of lighting  Houselisting and Housing Census Data Tables- District Level , Census of India__3": 273331,
      "Households with computer or laptop with internet connection in percentage": 0.86,
      "PHCs functioning on a 24x7hours basis in percentage DLHS-4": "Not available",
      "Non Workers - Males": 317407,
      "Total Households in District Houselisting and Housing Census Data Tables- District Level , Census of India": 294071,
      "Upper Primary Schools with girls toilet in percentage DISE": 100,
      "Households with mobile phone in percentage": 67.43,
      "Households receiving untreated tap water within premises in percentage Houselisting and Housing Census Data Tables- District Level , Census of India__2": 38.96746024,
      "Marginal Workers Cultivators worked for 3 - 6 moths during last year - Males": 4293,
      "Prevalence of Anaemia  in percentage DLHS-4": "Not available",
      "Prevalence of Chronic illness in percentage DLHS-4": "Not available",
      "Households with solar energy as main source of lighting in percentage Houselisting and Housing Census Data Tables- District Level , Census of India__1": 0.118338769,
      "Marginal Workers Agricultural Labourers worked for 0 - 3 moths during last year - Females": 6240,
      "Main Workers - Males": 425753,
      "Female": 66.09,
      "Sno": 431,
      "Marginal Workers Other worked for 3 - 6 moths during last year - Females": 8381,
      "Marginal Workers Cultivators worked for 0 - 3 moths during last year - Females": 5851,
      "Scheduled Tribe Males": 3856,
      "Male Illiterates": 212869,
      "Prevalence of Severe Anaemia in pregnant women aged 15-49years in percentage DLHS-4": "Not available",
      "0-6 Age Group Persons": 173555,
      "Upper Primary Student-Classroom Ratio in percentage DISE": 31,
      "Currently married men married below 21years of age in percentage DLHS-4": "Not available",
      "Male Literates": 558180,
      "Households with no lighting in percentage Houselisting and Housing Census Data Tables- District Level , Census of India__2": 1.126938732,
      "Primary Drop Out Rate in percentage DISE": 0.2,
      "Marginal Workers Household Industry - Males": 428,
      "Female Illiterates": 305862,
      "Main Workers Other - Females": 20614,
      "Marginal Workers Cultivators - Persons": 47122,
      "Upper Primary Gross Enrolment Ratio in percentage DISE": 90,
      "Scheduled Caste Persons": 132915,
      "Marginal Workers Cultivators worked for 3 - 6 moths during last year - Persons": 39197,
      "Households with landline phone in percentage": 3.22,
      "Total Households in District  Houselisting and Housing Census Data Tables- District Level , Census of India": 294071,
      "Upper Primary Pupil-Teacher Ratio in percentage DISE": 35,
      "Primary Student-Classroom Ratio in percentage DISE": 15,
      "Primary Schools with boys toilet in percentage DISE": 101.3,
      "Mean number of children ever born to women aged 40-49years  DLHS-4": "Not available",
      "Households receiving untreated tap water within premises  Houselisting and Housing Census Data Tables- District Level , Census of India__5": 114592,
      "Marginal Workers Household Industry worked for 0 - 3 moths during last year - Persons": 287,
      "Total Male Population": 771049,
      "Non Workers - Females": 539644,
      "Current use of family planning methods in percentage DLHS-4": "Not available",
      "Households with main source of drinking water within premises  Houselisting and Housing Census Data Tables- District Level , Census of India__3": 191055,
      "Main Workers Agricultural Labourers - Males": 102874,
      "Marginal Workers Other worked for 0 - 3 moths during last year - Persons": 2397,
      "Currently married women married below 18years of age in percentage DLHS-4": "Not available",
      "Person Illiterates": 518731,
      "Main Workers Household Industry - Females": 933,
      "Female Literates": 437279,
      "Marginal Workers Cultivators worked for 0 - 3 moths during last year - Males": 2074,
      "Male": 82.21,
      "Households with improved source of drinking water in percentage DLHS-4": "Not available",
      "Upper Primary Schools with electricity in percentage DISE": 100,
      "Households with electricity in percentage DLHS-4": "Not available",
      "Villages with Primary Health Centre within 10km in percentage DLHS-4": "Not available",
      "Births to women aged 15-19years out of Total births in percentage DLHS-4": "Not available",
      "Prevalence of Anaemia in women aged 15-49years in percentage DLHS-4": "Not available",
      "Marginal Workers Agricultural Labourers worked for 3 - 6 moths during last year - Persons": 52077,
      "Main Workers Household Industry - Males": 3658,
      "Scheduled Tribe Females": 3466,
      "Marginal Workers worked for 0 - 3 moths during last year - Males": 5213,
      "Marginal Workers Other worked for 3 - 6 moths during last year - Males": 8222,
      "Primary Net Enrolment Ratio in percentage DISE": 81,
      "Total": 74.25,
      "Mean age at marriage for boys DLHS-4": "Not available",
      "Number of District Hospitals  DLHS-4": "Not available",
      "0-6 Age Group Females": 81508,
      "Marginal Workers Agricultural Labourers worked for 0 - 3 moths during last year - Persons": 8295,
      "Marginal Workers Household Industry worked for 0 - 3 moths during last year - Males": 71,
      "Total Workers  Females": 203497,
      "Marginal Workers worked for 3 - 6 moths during last year - Females": 86406,
      "Institutional Deliveries in percentage DLHS-4": "Not available",
      "Marginal Workers Other - Males": 9235,
      "Total Workers  Males": 453642,
      "Main Workers - Females": 103400,
      "Primary Gross Enrolment Ratio in percentage DISE": 100.4,
      "Main Workers Cultivators - Persons": 185004,
      "Marginal Workers Household Industry worked for 0 - 3 moths during last year - Females": 216,
      "Upper Primary Net Enrolment Ratio in percentage DISE": 65.2,
      "Primary New Government Schools since 2003 in percentage DISE": 20,
      "Tier": "Total",
      "Marginal Workers Household Industry - Females": 1064,
      "Primary Schools with electricity in percentage DISE": 100,
      "Main Workers Other - Persons": 189995,
      "Marginal Workers Household Industry worked for 3 - 6 moths during last year - Females": 848,
      "Main Workers Cultivators - Males": 149840,
      "Main Workers Household Industry - Persons": 4591,
      "Marginal Workers Cultivators worked for 0 - 3 moths during last year - Persons": 7925,
      "Scheduled Caste Males": 68518,
      "Marginal Workers - Persons": 127986,
      "Deliveries at home conducted by skilled health personnel in percentage DLHS-4": "Not available",
      "Villages with Sub-Health Centres within 3km in percentage DLHS-4": "Not available",
      "Upper Primary New Government Schools since 2003 in percentage DISE": 0,
      "0-6 Age Group Males": 92047,
      "Primary Schools with drinking water facility in percentage DISE": 100,
      "Non Workers - Persons": 857051,
      "Person Literates": 995459,
      "State": "GUJRAT",
      "Total Female Population": 743141,
      "Marginal Workers worked for 0 - 3 moths during last year - Persons": 18904,
      "Marginal Workers Cultivators - Females": 40755,
      "Marginal Workers Other - Persons": 19000,
      "Sex Ratio": 964,
      "Scheduled Tribe Persons": 7322,
      "Marginal Workers Household Industry worked for 3 - 6 moths during last year - Males": 357,
      "Marginal Workers Agricultural Labourers - Females": 48513,
      "Mean age at marriage for girls DLHS-4": "Not available",
      "Households with solar energy as main source of lighting  Houselisting and Housing Census Data Tables- District Level , Census of India__4": 348,
      "District": "AMRELI",
      "Households receiving treated tap water within premises in percentage Houselisting and Housing Census Data Tables- District Level , Census of India__1": 14.66040514,
      "Total Workers  Persons": 657139,
      "Households receiving treated tap water within premises  Houselisting and Housing Census Data Tables- District Level , Census of India__4": 43112,
      "Primary Female Teachers in percentage DISE": 65.6,
      "Number of Households": 294837,
      "Main Workers Agricultural Labourers - Persons": 149563
    }
  ],
  "Rural": [
    {
      "Marginal Workers Agricultural Labourers - Persons": 57296,
      "Marginal Workers Other - Females": 6200,
      "Marginal Workers Other worked for 0 - 3 moths during last year - Females": 968,
      "Upper Primary Schools with boys toilet in percentage DISE": "NA",
      "Total Population": 1127555,
      "Households with electricity as main source of lighting in percentage Houselisting and Housing Census Data Tables- District Level , Census of India": 91.73469901,
      "Primary Girl's Enrolment in percentage DISE": "NA",
      "Marginal Workers worked for 3 - 6 moths during last year - Males": 17835,
      "Prevalence of Acute illness in percentage DLHS-4": "Not available",
      "Main Workers - Persons": 409400,
      "Main Workers Cultivators - Females": 34434,
      "Marginal Workers Agricultural Labourers worked for 3 - 6 moths during last year - Females": 40340,
      "Marginal Workers Other worked for 0 - 3 moths during last year - Males": 563,
      "Upper Primary Schools with drinking water facility in percentage DISE": "NA",
      "Primary Schools with girls toilet in percentage DISE": "NA",
      "Marginal Workers worked for 3 - 6 moths during last year - Persons": 98028,
      "Upper Primary Drop Out Rate in percentage DISE": "NA",
      "Prevalence of Anaemia in pregnant women aged 15-49years in percentage DLHS-4": "Not available",
      "Current use of any modern method of family planning in percentage DLHS-4": "Not available",
      "Marginal Workers Agricultural Labourers - Males": 11178,
      "Upper Primary Female Teachers in percentage DISE": "NA",
      "Marginal Workers - Females": 92865,
      "Marginal Workers Other worked for 3 - 6 moths during last year - Persons": 9467,
      "Main Workers Agricultural Labourers - Females": 43658,
      "Marginal Workers Cultivators worked for 3 - 6 moths during last year - Females": 34174,
      "Households with no lighting  Houselisting and Housing Census Data Tables- District Level , Census of India__5": 2799,
      "Prevalence of Severe Anaemia  in percentage DLHS-4": "Not available",
      "Total unmet need for family planning in percentage DLHS-4": "Not available",
      "Main Workers Other - Males": 82853,
      "Children who received full vaccination in percentage DLHS-4": "Not available",
      "Marginal Workers Household Industry - Persons": 873,
      "Primary Pupil-Teacher Ratio in percentage DISE": "NA",
      "Marginal Workers Agricultural Labourers worked for 3 - 6 moths during last year - Males": 9254,
      "Scheduled Caste Females": 52993,
      "Marginal Workers Cultivators - Males": 6147,
      "Marginal Workers - Males": 22448,
      "Marginal Workers worked for 0 - 3 moths during last year - Females": 12672,
      "Households with main source of drinking water within premises in percentage Houselisting and Housing Census Data Tables- District Level , Census of India": 61.07834493,
      "Marginal Workers Household Industry worked for 3 - 6 moths during last year - Persons": 712,
      "Upper Primary Girl's Enrolment in percentage DISE": "NA",
      "Prevalence of Severe Anaemia in women aged 15-49years in percentage DLHS-4": "Not available",
      "Marginal Workers Agricultural Labourers worked for 0 - 3 moths during last year - Males": 1924,
      "Households with electricity as main source of lighting  Houselisting and Housing Census Data Tables- District Level , Census of India__3": 200799,
      "Households with computer or laptop with internet connection in percentage": 0.51,
      "PHCs functioning on a 24x7hours basis in percentage DLHS-4": "Not applicable",
      "Non Workers - Males": 229124,
      "Total Households in District Houselisting and Housing Census Data Tables- District Level , Census of India": 218891,
      "Upper Primary Schools with girls toilet in percentage DISE": "NA",
      "Households with mobile phone in percentage": 67.05,
      "Households receiving untreated tap water within premises in percentage Houselisting and Housing Census Data Tables- District Level , Census of India__2": 38.53744558,
      "Marginal Workers Cultivators worked for 3 - 6 moths during last year - Males": 4081,
      "Prevalence of Anaemia  in percentage DLHS-4": "Not available",
      "Prevalence of Chronic illness in percentage DLHS-4": "Not available",
      "Households with solar energy as main source of lighting in percentage Houselisting and Housing Census Data Tables- District Level , Census of India__1": 0.146191483,
      "Marginal Workers Agricultural Labourers worked for 0 - 3 moths during last year - Females": 5778,
      "Main Workers - Males": 320982,
      "Female": "NA",
      "Sno": 430,
      "Marginal Workers Other worked for 3 - 6 moths during last year - Females": 5232,
      "Marginal Workers Cultivators worked for 0 - 3 moths during last year - Females": 5825,
      "Scheduled Tribe Males": 2210,
      "Male Illiterates": 167616,
      "Prevalence of Severe Anaemia in pregnant women aged 15-49years in percentage DLHS-4": "Not available",
      "0-6 Age Group Persons": 131321,
      "Upper Primary Student-Classroom Ratio in percentage DISE": "NA",
      "Currently married men married below 21years of age in percentage DLHS-4": "Not available",
      "Male Literates": 404938,
      "Households with no lighting in percentage Houselisting and Housing Census Data Tables- District Level , Census of India__2": 1.278718632,
      "Primary Drop Out Rate in percentage DISE": "NA",
      "Marginal Workers Household Industry - Males": 325,
      "Female Illiterates": 244896,
      "Main Workers Other - Females": 9814,
      "Marginal Workers Cultivators - Persons": 46146,
      "Upper Primary Gross Enrolment Ratio in percentage DISE": "NA",
      "Scheduled Caste Persons": 109351,
      "Marginal Workers Cultivators worked for 3 - 6 moths during last year - Persons": 38255,
      "Households with landline phone in percentage": 3.12,
      "Total Households in District  Houselisting and Housing Census Data Tables- District Level , Census of India": 218891,
      "Upper Primary Pupil-Teacher Ratio in percentage DISE": "NA",
      "Primary Student-Classroom Ratio in percentage DISE": "NA",
      "Primary Schools with boys toilet in percentage DISE": "NA",
      "Mean number of children ever born to women aged 40-49years  DLHS-4": "Not available",
      "Households receiving untreated tap water within premises  Houselisting and Housing Census Data Tables- District Level , Census of India__5": 84355,
      "Marginal Workers Household Industry worked for 0 - 3 moths during last year - Persons": 161,
      "Total Male Population": 572554,
      "Non Workers - Females": 373718,
      "Current use of family planning methods in percentage DLHS-4": "Not available",
      "Households with main source of drinking water within premises  Houselisting and Housing Census Data Tables- District Level , Census of India__3": 133695,
      "Main Workers Agricultural Labourers - Males": 92974,
      "Marginal Workers Other worked for 0 - 3 moths during last year - Persons": 1531,
      "Currently married women married below 18years of age in percentage DLHS-4": "Not available",
      "Person Illiterates": 412512,
      "Main Workers Household Industry - Females": 512,
      "Female Literates": 310105,
      "Marginal Workers Cultivators worked for 0 - 3 moths during last year - Males": 2066,
      "Male": "NA",
      "Households with improved source of drinking water in percentage DLHS-4": "Not available",
      "Upper Primary Schools with electricity in percentage DISE": "NA",
      "Households with electricity in percentage DLHS-4": "Not available",
      "Villages with Primary Health Centre within 10km in percentage DLHS-4": "Not applicable",
      "Births to women aged 15-19years out of Total births in percentage DLHS-4": "Not available",
      "Prevalence of Anaemia in women aged 15-49years in percentage DLHS-4": "Not available",
      "Marginal Workers Agricultural Labourers worked for 3 - 6 moths during last year - Persons": 49594,
      "Main Workers Household Industry - Males": 2515,
      "Scheduled Tribe Females": 1930,
      "Marginal Workers worked for 0 - 3 moths during last year - Males": 4613,
      "Marginal Workers Other worked for 3 - 6 moths during last year - Males": 4235,
      "Primary Net Enrolment Ratio in percentage DISE": "NA",
      "Total": "NA",
      "Mean age at marriage for boys DLHS-4": "Not available",
      "Number of District Hospitals  DLHS-4": "Not applicable",
      "0-6 Age Group Females": 61861,
      "Marginal Workers Agricultural Labourers worked for 0 - 3 moths during last year - Persons": 7702,
      "Marginal Workers Household Industry worked for 0 - 3 moths during last year - Males": 60,
      "Total Workers  Females": 181283,
      "Marginal Workers worked for 3 - 6 moths during last year - Females": 80193,
      "Institutional Deliveries in percentage DLHS-4": "Not available",
      "Marginal Workers Other - Males": 4798,
      "Total Workers  Males": 343430,
      "Main Workers - Females": 88418,
      "Primary Gross Enrolment Ratio in percentage DISE": "NA",
      "Main Workers Cultivators - Persons": 177074,
      "Marginal Workers Household Industry worked for 0 - 3 moths during last year - Females": 101,
      "Upper Primary Net Enrolment Ratio in percentage DISE": "NA",
      "Primary New Government Schools since 2003 in percentage DISE": "NA",
      "Tier": "Rural",
      "Marginal Workers Household Industry - Females": 548,
      "Primary Schools with electricity in percentage DISE": "NA",
      "Main Workers Other - Persons": 92667,
      "Marginal Workers Household Industry worked for 3 - 6 moths during last year - Females": 447,
      "Main Workers Cultivators - Males": 142640,
      "Main Workers Household Industry - Persons": 3027,
      "Marginal Workers Cultivators worked for 0 - 3 moths during last year - Persons": 7891,
      "Scheduled Caste Males": 56358,
      "Marginal Workers - Persons": 115313,
      "Deliveries at home conducted by skilled health personnel in percentage DLHS-4": "Not available",
      "Villages with Sub-Health Centres within 3km in percentage DLHS-4": "Not applicable",
      "Upper Primary New Government Schools since 2003 in percentage DISE": "NA",
      "0-6 Age Group Males": 69460,
      "Primary Schools with drinking water facility in percentage DISE": "NA",
      "Non Workers - Persons": 602842,
      "Person Literates": 715043,
      "State": "GUJRAT",
      "Total Female Population": 555001,
      "Marginal Workers worked for 0 - 3 moths during last year - Persons": 17285,
      "Marginal Workers Cultivators - Females": 39999,
      "Marginal Workers Other - Persons": 10998,
      "Sex Ratio": 969,
      "Scheduled Tribe Persons": 4140,
      "Marginal Workers Household Industry worked for 3 - 6 moths during last year - Males": 265,
      "Marginal Workers Agricultural Labourers - Females": 46118,
      "Mean age at marriage for girls DLHS-4": "Not available",
      "Households with solar energy as main source of lighting  Houselisting and Housing Census Data Tables- District Level , Census of India__4": 320,
      "District": "AMRELI",
      "Households receiving treated tap water within premises in percentage Houselisting and Housing Census Data Tables- District Level , Census of India__1": 10.16533343,
      "Total Workers  Persons": 524713,
      "Households receiving treated tap water within premises  Houselisting and Housing Census Data Tables- District Level , Census of India__4": 22251,
      "Primary Female Teachers in percentage DISE": "NA",
      "Number of Households": 219041,
      "Main Workers Agricultural Labourers - Persons": 136632
    }
  ],
  "Urban": [
    {
      "Marginal Workers Agricultural Labourers - Persons": 3076,
      "Marginal Workers Other - Females": 3565,
      "Marginal Workers Other worked for 0 - 3 moths during last year - Females": 416,
      "Upper Primary Schools with boys toilet in percentage DISE": "NA",
      "Total Population": 386635,
      "Households with electricity as main source of lighting in percentage Houselisting and Housing Census Data Tables- District Level , Census of India": 96.47778665,
      "Primary Girl's Enrolment in percentage DISE": "NA",
      "Marginal Workers worked for 3 - 6 moths during last year - Males": 4841,
      "Prevalence of Acute illness in percentage DLHS-4": "Not available",
      "Main Workers - Persons": 119753,
      "Main Workers Cultivators - Females": 730,
      "Marginal Workers Agricultural Labourers worked for 3 - 6 moths during last year - Females": 1933,
      "Marginal Workers Other worked for 0 - 3 moths during last year - Males": 450,
      "Upper Primary Schools with drinking water facility in percentage DISE": "NA",
      "Primary Schools with girls toilet in percentage DISE": "NA",
      "Marginal Workers worked for 3 - 6 moths during last year - Persons": 11054,
      "Upper Primary Drop Out Rate in percentage DISE": "NA",
      "Prevalence of Anaemia in pregnant women aged 15-49years in percentage DLHS-4": "Not available",
      "Current use of any modern method of family planning in percentage DLHS-4": "Not available",
      "Marginal Workers Agricultural Labourers - Males": 681,
      "Upper Primary Female Teachers in percentage DISE": "NA",
      "Marginal Workers - Females": 7232,
      "Marginal Workers Other worked for 3 - 6 moths during last year - Persons": 7136,
      "Main Workers Agricultural Labourers - Females": 3031,
      "Marginal Workers Cultivators worked for 3 - 6 moths during last year - Females": 730,
      "Households with no lighting  Houselisting and Housing Census Data Tables- District Level , Census of India__5": 515,
      "Prevalence of Severe Anaemia  in percentage DLHS-4": "Not available",
      "Total unmet need for family planning in percentage DLHS-4": "Not available",
      "Main Workers Other - Males": 86528,
      "Children who received full vaccination in percentage DLHS-4": "Not available",
      "Marginal Workers Household Industry - Persons": 619,
      "Primary Pupil-Teacher Ratio in percentage DISE": "NA",
      "Marginal Workers Agricultural Labourers worked for 3 - 6 moths during last year - Males": 550,
      "Scheduled Caste Females": 11404,
      "Marginal Workers Cultivators - Males": 220,
      "Marginal Workers - Males": 5441,
      "Marginal Workers worked for 0 - 3 moths during last year - Females": 1019,
      "Households with main source of drinking water within premises in percentage Houselisting and Housing Census Data Tables- District Level , Census of India": 76.29688747,
      "Marginal Workers Household Industry worked for 3 - 6 moths during last year - Persons": 493,
      "Upper Primary Girl's Enrolment in percentage DISE": "NA",
      "Prevalence of Severe Anaemia in women aged 15-49years in percentage DLHS-4": "Not available",
      "Marginal Workers Agricultural Labourers worked for 0 - 3 moths during last year - Males": 131,
      "Households with electricity as main source of lighting  Houselisting and Housing Census Data Tables- District Level , Census of India__3": 72532,
      "Households with computer or laptop with internet connection in percentage": 1.88,
      "PHCs functioning on a 24x7hours basis in percentage DLHS-4": 0,
      "Non Workers - Males": 88283,
      "Total Households in District Houselisting and Housing Census Data Tables- District Level , Census of India": 75180,
      "Upper Primary Schools with girls toilet in percentage DISE": "NA",
      "Households with mobile phone in percentage": 68.54,
      "Households receiving untreated tap water within premises in percentage Houselisting and Housing Census Data Tables- District Level , Census of India__2": 40.21947326,
      "Marginal Workers Cultivators worked for 3 - 6 moths during last year - Males": 212,
      "Prevalence of Anaemia  in percentage DLHS-4": "Not available",
      "Prevalence of Chronic illness in percentage DLHS-4": "Not available",
      "Households with solar energy as main source of lighting in percentage Houselisting and Housing Census Data Tables- District Level , Census of India__1": 0.0372,
      "Marginal Workers Agricultural Labourers worked for 0 - 3 moths during last year - Females": 462,
      "Main Workers - Males": 104771,
      "Female": "NA",
      "Sno": 432,
      "Marginal Workers Other worked for 3 - 6 moths during last year - Females": 3149,
      "Marginal Workers Cultivators worked for 0 - 3 moths during last year - Females": 26,
      "Scheduled Tribe Males": 1646,
      "Male Illiterates": 45253,
      "Prevalence of Severe Anaemia in pregnant women aged 15-49years in percentage DLHS-4": "Not available",
      "0-6 Age Group Persons": 42234,
      "Upper Primary Student-Classroom Ratio in percentage DISE": "NA",
      "Currently married men married below 21years of age in percentage DLHS-4": "Not available",
      "Male Literates": 153242,
      "Households with no lighting in percentage Houselisting and Housing Census Data Tables- District Level , Census of India__2": 0.685022612,
      "Primary Drop Out Rate in percentage DISE": "NA",
      "Marginal Workers Household Industry - Males": 103,
      "Female Illiterates": 60966,
      "Main Workers Other - Females": 10800,
      "Marginal Workers Cultivators - Persons": 976,
      "Upper Primary Gross Enrolment Ratio in percentage DISE": "NA",
      "Scheduled Caste Persons": 23564,
      "Marginal Workers Cultivators worked for 3 - 6 moths during last year - Persons": 942,
      "Households with landline phone in percentage": 3.51,
      "Total Households in District  Houselisting and Housing Census Data Tables- District Level , Census of India": 75180,
      "Upper Primary Pupil-Teacher Ratio in percentage DISE": "NA",
      "Primary Student-Classroom Ratio in percentage DISE": "NA",
      "Primary Schools with boys toilet in percentage DISE": "NA",
      "Mean number of children ever born to women aged 40-49years  DLHS-4": "Not available",
      "Households receiving untreated tap water within premises  Houselisting and Housing Census Data Tables- District Level , Census of India__5": 30237,
      "Marginal Workers Household Industry worked for 0 - 3 moths during last year - Persons": 126,
      "Total Male Population": 198495,
      "Non Workers - Females": 165926,
      "Current use of family planning methods in percentage DLHS-4": "Not available",
      "Households with main source of drinking water within premises  Houselisting and Housing Census Data Tables- District Level , Census of India__3": 57360,
      "Main Workers Agricultural Labourers - Males": 9900,
      "Marginal Workers Other worked for 0 - 3 moths during last year - Persons": 866,
      "Currently married women married below 18years of age in percentage DLHS-4": "Not available",
      "Person Illiterates": 106219,
      "Main Workers Household Industry - Females": 421,
      "Female Literates": 127174,
      "Marginal Workers Cultivators worked for 0 - 3 moths during last year - Males": 8,
      "Male": "NA",
      "Households with improved source of drinking water in percentage DLHS-4": "Not available",
      "Upper Primary Schools with electricity in percentage DISE": "NA",
      "Households with electricity in percentage DLHS-4": "Not available",
      "Villages with Primary Health Centre within 10km in percentage DLHS-4": 0,
      "Births to women aged 15-19years out of Total births in percentage DLHS-4": "Not available",
      "Prevalence of Anaemia in women aged 15-49years in percentage DLHS-4": "Not available",
      "Marginal Workers Agricultural Labourers worked for 3 - 6 moths during last year - Persons": 2483,
      "Main Workers Household Industry - Males": 1143,
      "Scheduled Tribe Females": 1536,
      "Marginal Workers worked for 0 - 3 moths during last year - Males": 600,
      "Marginal Workers Other worked for 3 - 6 moths during last year - Males": 3987,
      "Primary Net Enrolment Ratio in percentage DISE": "NA",
      "Total": "NA",
      "Mean age at marriage for boys DLHS-4": "Not available",
      "Number of District Hospitals  DLHS-4": 0,
      "0-6 Age Group Females": 19647,
      "Marginal Workers Agricultural Labourers worked for 0 - 3 moths during last year - Persons": 593,
      "Marginal Workers Household Industry worked for 0 - 3 moths during last year - Males": 11,
      "Total Workers  Females": 22214,
      "Marginal Workers worked for 3 - 6 moths during last year - Females": 6213,
      "Institutional Deliveries in percentage DLHS-4": "Not available",
      "Marginal Workers Other - Males": 4437,
      "Total Workers  Males": 110212,
      "Main Workers - Females": 14982,
      "Primary Gross Enrolment Ratio in percentage DISE": "NA",
      "Main Workers Cultivators - Persons": 7930,
      "Marginal Workers Household Industry worked for 0 - 3 moths during last year - Females": 115,
      "Upper Primary Net Enrolment Ratio in percentage DISE": "NA",
      "Primary New Government Schools since 2003 in percentage DISE": "NA",
      "Tier": "Urban",
      "Marginal Workers Household Industry - Females": 516,
      "Primary Schools with electricity in percentage DISE": "NA",
      "Main Workers Other - Persons": 97328,
      "Marginal Workers Household Industry worked for 3 - 6 moths during last year - Females": 401,
      "Main Workers Cultivators - Males": 7200,
      "Main Workers Household Industry - Persons": 1564,
      "Marginal Workers Cultivators worked for 0 - 3 moths during last year - Persons": 34,
      "Scheduled Caste Males": 12160,
      "Marginal Workers - Persons": 12673,
      "Deliveries at home conducted by skilled health personnel in percentage DLHS-4": "Not available",
      "Villages with Sub-Health Centres within 3km in percentage DLHS-4": 0,
      "Upper Primary New Government Schools since 2003 in percentage DISE": "NA",
      "0-6 Age Group Males": 22587,
      "Primary Schools with drinking water facility in percentage DISE": "NA",
      "Non Workers - Persons": 254209,
      "Person Literates": 280416,
      "State": "GUJRAT",
      "Total Female Population": 188140,
      "Marginal Workers worked for 0 - 3 moths during last year - Persons": 1619,
      "Marginal Workers Cultivators - Females": 756,
      "Marginal Workers Other - Persons": 8002,
      "Sex Ratio": 948,
      "Scheduled Tribe Persons": 3182,
      "Marginal Workers Household Industry worked for 3 - 6 moths during last year - Males": 92,
      "Marginal Workers Agricultural Labourers - Females": 2395,
      "Mean age at marriage for girls DLHS-4": "Not available",
      "Households with solar energy as main source of lighting  Houselisting and Housing Census Data Tables- District Level , Census of India__4": 28,
      "District": "AMRELI",
      "Households receiving treated tap water within premises in percentage Houselisting and Housing Census Data Tables- District Level , Census of India__1": 27.7480713,
      "Total Workers  Persons": 132426,
      "Households receiving treated tap water within premises  Houselisting and Housing Census Data Tables- District Level , Census of India__4": 20861,
      "Primary Female Teachers in percentage DISE": "NA",
      "Number of Households": 75796,
      "Main Workers Agricultural Labourers - Persons": 12931
    }
  ]
}