{
  "Total": [
    {
      "Marginal Workers Agricultural Labourers - Persons": "NA",
      "Marginal Workers Other - Females": "NA",
      "Marginal Workers Other worked for 0 - 3 moths during last year - Females": "NA",
      "Upper Primary Schools with boys toilet in percentage DISE": "Not available",
      "Total Population": "NA",
      "Households with electricity as main source of lighting in percentage Houselisting and Housing Census Data Tables- District Level , Census of India": "NA",
      "Primary Girl's Enrolment in percentage DISE": "Not available",
      "Marginal Workers worked for 3 - 6 moths during last year - Males": "NA",
      "Prevalence of Acute illness in percentage DLHS-4": "Not available",
      "Main Workers - Persons": "NA",
      "Main Workers Cultivators - Females": "NA",
      "Marginal Workers Agricultural Labourers worked for 3 - 6 moths during last year - Females": "NA",
      "Marginal Workers Other worked for 0 - 3 moths during last year - Males": "NA",
      "Upper Primary Schools with drinking water facility in percentage DISE": "Not available",
      "Primary Schools with girls toilet in percentage DISE": "Not available",
      "Marginal Workers worked for 3 - 6 moths during last year - Persons": "NA",
      "Upper Primary Drop Out Rate in percentage DISE": "Not available",
      "Prevalence of Anaemia in pregnant women aged 15-49years in percentage DLHS-4": "Not available",
      "Current use of any modern method of family planning in percentage DLHS-4": "Not available",
      "Marginal Workers Agricultural Labourers - Males": "NA",
      "Upper Primary Female Teachers in percentage DISE": "Not available",
      "Marginal Workers - Females": "NA",
      "Marginal Workers Other worked for 3 - 6 moths during last year - Persons": "NA",
      "Main Workers Agricultural Labourers - Females": "NA",
      "Marginal Workers Cultivators worked for 3 - 6 moths during last year - Females": "NA",
      "Households with no lighting  Houselisting and Housing Census Data Tables- District Level , Census of India__5": "Not available",
      "Prevalence of Severe Anaemia  in percentage DLHS-4": "Not available",
      "Total unmet need for family planning in percentage DLHS-4": "Not available",
      "Main Workers Other - Males": "NA",
      "Children who received full vaccination in percentage DLHS-4": "Not available",
      "Marginal Workers Household Industry - Persons": "NA",
      "Primary Pupil-Teacher Ratio in percentage DISE": "Not available",
      "Marginal Workers Agricultural Labourers worked for 3 - 6 moths during last year - Males": "NA",
      "Scheduled Caste Females": "NA",
      "Marginal Workers Cultivators - Males": "NA",
      "Marginal Workers - Males": "NA",
      "Marginal Workers worked for 0 - 3 moths during last year - Females": "NA",
      "Households with main source of drinking water within premises in percentage Houselisting and Housing Census Data Tables- District Level , Census of India": "NA",
      "Marginal Workers Household Industry worked for 3 - 6 moths during last year - Persons": "NA",
      "Upper Primary Girl's Enrolment in percentage DISE": "Not available",
      "Prevalence of Severe Anaemia in women aged 15-49years in percentage DLHS-4": "Not available",
      "Marginal Workers Agricultural Labourers worked for 0 - 3 moths during last year - Males": "NA",
      "Households with electricity as main source of lighting  Houselisting and Housing Census Data Tables- District Level , Census of India__3": "Not available",
      "Households with computer or laptop with internet connection in percentage": "Not available",
      "PHCs functioning on a 24x7hours basis in percentage DLHS-4": "Not available",
      "Non Workers - Males": "NA",
      "Total Households in District Houselisting and Housing Census Data Tables- District Level , Census of India": "Not available",
      "Upper Primary Schools with girls toilet in percentage DISE": "Not available",
      "Households with mobile phone in percentage": "Not available",
      "Households receiving untreated tap water within premises in percentage Houselisting and Housing Census Data Tables- District Level , Census of India__2": "NA",
      "Marginal Workers Cultivators worked for 3 - 6 moths during last year - Males": "NA",
      "Prevalence of Anaemia  in percentage DLHS-4": "Not available",
      "Prevalence of Chronic illness in percentage DLHS-4": "Not available",
      "Households with solar energy as main source of lighting in percentage Houselisting and Housing Census Data Tables- District Level , Census of India__1": "NA",
      "Marginal Workers Agricultural Labourers worked for 0 - 3 moths during last year - Females": "NA",
      "Main Workers - Males": "NA",
      "Female": "Not available",
      "Sno": 449,
      "Marginal Workers Other worked for 3 - 6 moths during last year - Females": "NA",
      "Marginal Workers Cultivators worked for 0 - 3 moths during last year - Females": "NA",
      "Scheduled Tribe Males": "NA",
      "Male Illiterates": "NA",
      "Prevalence of Severe Anaemia in pregnant women aged 15-49years in percentage DLHS-4": "Not available",
      "0-6 Age Group Persons": "NA",
      "Upper Primary Student-Classroom Ratio in percentage DISE": "Not available",
      "Currently married men married below 21years of age in percentage DLHS-4": "Not available",
      "Male Literates": "NA",
      "Households with no lighting in percentage Houselisting and Housing Census Data Tables- District Level , Census of India__2": "NA",
      "Primary Drop Out Rate in percentage DISE": "Not available",
      "Marginal Workers Household Industry - Males": "NA",
      "Female Illiterates": "NA",
      "Main Workers Other - Females": "NA",
      "Marginal Workers Cultivators - Persons": "NA",
      "Upper Primary Gross Enrolment Ratio in percentage DISE": "Not available",
      "Scheduled Caste Persons": "NA",
      "Marginal Workers Cultivators worked for 3 - 6 moths during last year - Persons": "NA",
      "Households with landline phone in percentage": "Not available",
      "Total Households in District  Houselisting and Housing Census Data Tables- District Level , Census of India": "Not available",
      "Upper Primary Pupil-Teacher Ratio in percentage DISE": "Not available",
      "Primary Student-Classroom Ratio in percentage DISE": "Not available",
      "Primary Schools with boys toilet in percentage DISE": "Not available",
      "Mean number of children ever born to women aged 40-49years  DLHS-4": "Not available",
      "Households receiving untreated tap water within premises  Houselisting and Housing Census Data Tables- District Level , Census of India__5": "Not available",
      "Marginal Workers Household Industry worked for 0 - 3 moths during last year - Persons": "NA",
      "Total Male Population": "NA",
      "Non Workers - Females": "NA",
      "Current use of family planning methods in percentage DLHS-4": "Not available",
      "Households with main source of drinking water within premises  Houselisting and Housing Census Data Tables- District Level , Census of India__3": "Not available",
      "Main Workers Agricultural Labourers - Males": "NA",
      "Marginal Workers Other worked for 0 - 3 moths during last year - Persons": "NA",
      "Currently married women married below 18years of age in percentage DLHS-4": "Not available",
      "Person Illiterates": "NA",
      "Main Workers Household Industry - Females": "NA",
      "Female Literates": "NA",
      "Marginal Workers Cultivators worked for 0 - 3 moths during last year - Males": "NA",
      "Male": "Not available",
      "Households with improved source of drinking water in percentage DLHS-4": "Not available",
      "Upper Primary Schools with electricity in percentage DISE": "Not available",
      "Households with electricity in percentage DLHS-4": "Not available",
      "Villages with Primary Health Centre within 10km in percentage DLHS-4": "Not available",
      "Births to women aged 15-19years out of Total births in percentage DLHS-4": "Not available",
      "Prevalence of Anaemia in women aged 15-49years in percentage DLHS-4": "Not available",
      "Marginal Workers Agricultural Labourers worked for 3 - 6 moths during last year - Persons": "NA",
      "Main Workers Household Industry - Males": "NA",
      "Scheduled Tribe Females": "NA",
      "Marginal Workers worked for 0 - 3 moths during last year - Males": "NA",
      "Marginal Workers Other worked for 3 - 6 moths during last year - Males": "NA",
      "Primary Net Enrolment Ratio in percentage DISE": "Not available",
      "Total": "Not available",
      "Mean age at marriage for boys DLHS-4": "Not available",
      "Number of District Hospitals  DLHS-4": "Not available",
      "0-6 Age Group Females": "NA",
      "Marginal Workers Agricultural Labourers worked for 0 - 3 moths during last year - Persons": "NA",
      "Marginal Workers Household Industry worked for 0 - 3 moths during last year - Males": "NA",
      "Total Workers  Females": "NA",
      "Marginal Workers worked for 3 - 6 moths during last year - Females": "NA",
      "Institutional Deliveries in percentage DLHS-4": "Not available",
      "Marginal Workers Other - Males": "NA",
      "Total Workers  Males": "NA",
      "Main Workers - Females": "NA",
      "Primary Gross Enrolment Ratio in percentage DISE": "Not available",
      "Main Workers Cultivators - Persons": "NA",
      "Marginal Workers Household Industry worked for 0 - 3 moths during last year - Females": "NA",
      "Upper Primary Net Enrolment Ratio in percentage DISE": "Not available",
      "Primary New Government Schools since 2003 in percentage DISE": "Not available",
      "Tier": "Total",
      "Marginal Workers Household Industry - Females": "NA",
      "Primary Schools with electricity in percentage DISE": "Not available",
      "Main Workers Other - Persons": "NA",
      "Marginal Workers Household Industry worked for 3 - 6 moths during last year - Females": "NA",
      "Main Workers Cultivators - Males": "NA",
      "Main Workers Household Industry - Persons": "NA",
      "Marginal Workers Cultivators worked for 0 - 3 moths during last year - Persons": "NA",
      "Scheduled Caste Males": "NA",
      "Marginal Workers - Persons": "NA",
      "Deliveries at home conducted by skilled health personnel in percentage DLHS-4": "Not available",
      "Villages with Sub-Health Centres within 3km in percentage DLHS-4": "Not available",
      "Upper Primary New Government Schools since 2003 in percentage DISE": "Not available",
      "0-6 Age Group Males": "NA",
      "Primary Schools with drinking water facility in percentage DISE": "Not available",
      "Non Workers - Persons": "NA",
      "Person Literates": "NA",
      "State": "GUJRAT",
      "Total Female Population": "NA",
      "Marginal Workers worked for 0 - 3 moths during last year - Persons": "NA",
      "Marginal Workers Cultivators - Females": "NA",
      "Marginal Workers Other - Persons": "NA",
      "Sex Ratio": "Not available",
      "Scheduled Tribe Persons": "NA",
      "Marginal Workers Household Industry worked for 3 - 6 moths during last year - Males": "NA",
      "Marginal Workers Agricultural Labourers - Females": "NA",
      "Mean age at marriage for girls DLHS-4": "Not available",
      "Households with solar energy as main source of lighting  Houselisting and Housing Census Data Tables- District Level , Census of India__4": "Not available",
      "District": "BOTAD",
      "Households receiving treated tap water within premises in percentage Houselisting and Housing Census Data Tables- District Level , Census of India__1": "NA",
      "Total Workers  Persons": "NA",
      "Households receiving treated tap water within premises  Houselisting and Housing Census Data Tables- District Level , Census of India__4": "Not available",
      "Primary Female Teachers in percentage DISE": "Not available",
      "Number of Households": "NA",
      "Main Workers Agricultural Labourers - Persons": "NA"
    }
  ],
  "Rural": [
    {
      "Marginal Workers Agricultural Labourers - Persons": "NA",
      "Marginal Workers Other - Females": "NA",
      "Marginal Workers Other worked for 0 - 3 moths during last year - Females": "NA",
      "Upper Primary Schools with boys toilet in percentage DISE": "NA",
      "Total Population": "NA",
      "Households with electricity as main source of lighting in percentage Houselisting and Housing Census Data Tables- District Level , Census of India": "NA",
      "Primary Girl's Enrolment in percentage DISE": "NA",
      "Marginal Workers worked for 3 - 6 moths during last year - Males": "NA",
      "Prevalence of Acute illness in percentage DLHS-4": "Not available",
      "Main Workers - Persons": "NA",
      "Main Workers Cultivators - Females": "NA",
      "Marginal Workers Agricultural Labourers worked for 3 - 6 moths during last year - Females": "NA",
      "Marginal Workers Other worked for 0 - 3 moths during last year - Males": "NA",
      "Upper Primary Schools with drinking water facility in percentage DISE": "NA",
      "Primary Schools with girls toilet in percentage DISE": "NA",
      "Marginal Workers worked for 3 - 6 moths during last year - Persons": "NA",
      "Upper Primary Drop Out Rate in percentage DISE": "NA",
      "Prevalence of Anaemia in pregnant women aged 15-49years in percentage DLHS-4": "Not available",
      "Current use of any modern method of family planning in percentage DLHS-4": "Not available",
      "Marginal Workers Agricultural Labourers - Males": "NA",
      "Upper Primary Female Teachers in percentage DISE": "NA",
      "Marginal Workers - Females": "NA",
      "Marginal Workers Other worked for 3 - 6 moths during last year - Persons": "NA",
      "Main Workers Agricultural Labourers - Females": "NA",
      "Marginal Workers Cultivators worked for 3 - 6 moths during last year - Females": "NA",
      "Households with no lighting  Houselisting and Housing Census Data Tables- District Level , Census of India__5": "Not available",
      "Prevalence of Severe Anaemia  in percentage DLHS-4": "Not available",
      "Total unmet need for family planning in percentage DLHS-4": "Not available",
      "Main Workers Other - Males": "NA",
      "Children who received full vaccination in percentage DLHS-4": "Not available",
      "Marginal Workers Household Industry - Persons": "NA",
      "Primary Pupil-Teacher Ratio in percentage DISE": "NA",
      "Marginal Workers Agricultural Labourers worked for 3 - 6 moths during last year - Males": "NA",
      "Scheduled Caste Females": "NA",
      "Marginal Workers Cultivators - Males": "NA",
      "Marginal Workers - Males": "NA",
      "Marginal Workers worked for 0 - 3 moths during last year - Females": "NA",
      "Households with main source of drinking water within premises in percentage Houselisting and Housing Census Data Tables- District Level , Census of India": "NA",
      "Marginal Workers Household Industry worked for 3 - 6 moths during last year - Persons": "NA",
      "Upper Primary Girl's Enrolment in percentage DISE": "NA",
      "Prevalence of Severe Anaemia in women aged 15-49years in percentage DLHS-4": "Not available",
      "Marginal Workers Agricultural Labourers worked for 0 - 3 moths during last year - Males": "NA",
      "Households with electricity as main source of lighting  Houselisting and Housing Census Data Tables- District Level , Census of India__3": "Not available",
      "Households with computer or laptop with internet connection in percentage": "Not available",
      "PHCs functioning on a 24x7hours basis in percentage DLHS-4": "Not applicable",
      "Non Workers - Males": "NA",
      "Total Households in District Houselisting and Housing Census Data Tables- District Level , Census of India": "Not available",
      "Upper Primary Schools with girls toilet in percentage DISE": "NA",
      "Households with mobile phone in percentage": "Not available",
      "Households receiving untreated tap water within premises in percentage Houselisting and Housing Census Data Tables- District Level , Census of India__2": "NA",
      "Marginal Workers Cultivators worked for 3 - 6 moths during last year - Males": "NA",
      "Prevalence of Anaemia  in percentage DLHS-4": "Not available",
      "Prevalence of Chronic illness in percentage DLHS-4": "Not available",
      "Households with solar energy as main source of lighting in percentage Houselisting and Housing Census Data Tables- District Level , Census of India__1": "NA",
      "Marginal Workers Agricultural Labourers worked for 0 - 3 moths during last year - Females": "NA",
      "Main Workers - Males": "NA",
      "Female": "NA",
      "Sno": 448,
      "Marginal Workers Other worked for 3 - 6 moths during last year - Females": "NA",
      "Marginal Workers Cultivators worked for 0 - 3 moths during last year - Females": "NA",
      "Scheduled Tribe Males": "NA",
      "Male Illiterates": "NA",
      "Prevalence of Severe Anaemia in pregnant women aged 15-49years in percentage DLHS-4": "Not available",
      "0-6 Age Group Persons": "NA",
      "Upper Primary Student-Classroom Ratio in percentage DISE": "NA",
      "Currently married men married below 21years of age in percentage DLHS-4": "Not available",
      "Male Literates": "NA",
      "Households with no lighting in percentage Houselisting and Housing Census Data Tables- District Level , Census of India__2": "NA",
      "Primary Drop Out Rate in percentage DISE": "NA",
      "Marginal Workers Household Industry - Males": "NA",
      "Female Illiterates": "NA",
      "Main Workers Other - Females": "NA",
      "Marginal Workers Cultivators - Persons": "NA",
      "Upper Primary Gross Enrolment Ratio in percentage DISE": "NA",
      "Scheduled Caste Persons": "NA",
      "Marginal Workers Cultivators worked for 3 - 6 moths during last year - Persons": "NA",
      "Households with landline phone in percentage": "Not available",
      "Total Households in District  Houselisting and Housing Census Data Tables- District Level , Census of India": "Not available",
      "Upper Primary Pupil-Teacher Ratio in percentage DISE": "NA",
      "Primary Student-Classroom Ratio in percentage DISE": "NA",
      "Primary Schools with boys toilet in percentage DISE": "NA",
      "Mean number of children ever born to women aged 40-49years  DLHS-4": "Not available",
      "Households receiving untreated tap water within premises  Houselisting and Housing Census Data Tables- District Level , Census of India__5": "Not available",
      "Marginal Workers Household Industry worked for 0 - 3 moths during last year - Persons": "NA",
      "Total Male Population": "NA",
      "Non Workers - Females": "NA",
      "Current use of family planning methods in percentage DLHS-4": "Not available",
      "Households with main source of drinking water within premises  Houselisting and Housing Census Data Tables- District Level , Census of India__3": "Not available",
      "Main Workers Agricultural Labourers - Males": "NA",
      "Marginal Workers Other worked for 0 - 3 moths during last year - Persons": "NA",
      "Currently married women married below 18years of age in percentage DLHS-4": "Not available",
      "Person Illiterates": "NA",
      "Main Workers Household Industry - Females": "NA",
      "Female Literates": "NA",
      "Marginal Workers Cultivators worked for 0 - 3 moths during last year - Males": "NA",
      "Male": "NA",
      "Households with improved source of drinking water in percentage DLHS-4": "Not available",
      "Upper Primary Schools with electricity in percentage DISE": "NA",
      "Households with electricity in percentage DLHS-4": "Not available",
      "Villages with Primary Health Centre within 10km in percentage DLHS-4": "Not applicable",
      "Births to women aged 15-19years out of Total births in percentage DLHS-4": "Not available",
      "Prevalence of Anaemia in women aged 15-49years in percentage DLHS-4": "Not available",
      "Marginal Workers Agricultural Labourers worked for 3 - 6 moths during last year - Persons": "NA",
      "Main Workers Household Industry - Males": "NA",
      "Scheduled Tribe Females": "NA",
      "Marginal Workers worked for 0 - 3 moths during last year - Males": "NA",
      "Marginal Workers Other worked for 3 - 6 moths during last year - Males": "NA",
      "Primary Net Enrolment Ratio in percentage DISE": "NA",
      "Total": "NA",
      "Mean age at marriage for boys DLHS-4": "Not available",
      "Number of District Hospitals  DLHS-4": "Not applicable",
      "0-6 Age Group Females": "NA",
      "Marginal Workers Agricultural Labourers worked for 0 - 3 moths during last year - Persons": "NA",
      "Marginal Workers Household Industry worked for 0 - 3 moths during last year - Males": "NA",
      "Total Workers  Females": "NA",
      "Marginal Workers worked for 3 - 6 moths during last year - Females": "NA",
      "Institutional Deliveries in percentage DLHS-4": "Not available",
      "Marginal Workers Other - Males": "NA",
      "Total Workers  Males": "NA",
      "Main Workers - Females": "NA",
      "Primary Gross Enrolment Ratio in percentage DISE": "NA",
      "Main Workers Cultivators - Persons": "NA",
      "Marginal Workers Household Industry worked for 0 - 3 moths during last year - Females": "NA",
      "Upper Primary Net Enrolment Ratio in percentage DISE": "NA",
      "Primary New Government Schools since 2003 in percentage DISE": "NA",
      "Tier": "Rural",
      "Marginal Workers Household Industry - Females": "NA",
      "Primary Schools with electricity in percentage DISE": "NA",
      "Main Workers Other - Persons": "NA",
      "Marginal Workers Household Industry worked for 3 - 6 moths during last year - Females": "NA",
      "Main Workers Cultivators - Males": "NA",
      "Main Workers Household Industry - Persons": "NA",
      "Marginal Workers Cultivators worked for 0 - 3 moths during last year - Persons": "NA",
      "Scheduled Caste Males": "NA",
      "Marginal Workers - Persons": "NA",
      "Deliveries at home conducted by skilled health personnel in percentage DLHS-4": "Not available",
      "Villages with Sub-Health Centres within 3km in percentage DLHS-4": "Not applicable",
      "Upper Primary New Government Schools since 2003 in percentage DISE": "NA",
      "0-6 Age Group Males": "NA",
      "Primary Schools with drinking water facility in percentage DISE": "NA",
      "Non Workers - Persons": "NA",
      "Person Literates": "NA",
      "State": "GUJRAT",
      "Total Female Population": "NA",
      "Marginal Workers worked for 0 - 3 moths during last year - Persons": "NA",
      "Marginal Workers Cultivators - Females": "NA",
      "Marginal Workers Other - Persons": "NA",
      "Sex Ratio": "Not available",
      "Scheduled Tribe Persons": "NA",
      "Marginal Workers Household Industry worked for 3 - 6 moths during last year - Males": "NA",
      "Marginal Workers Agricultural Labourers - Females": "NA",
      "Mean age at marriage for girls DLHS-4": "Not available",
      "Households with solar energy as main source of lighting  Houselisting and Housing Census Data Tables- District Level , Census of India__4": "Not available",
      "District": "BOTAD",
      "Households receiving treated tap water within premises in percentage Houselisting and Housing Census Data Tables- District Level , Census of India__1": "NA",
      "Total Workers  Persons": "NA",
      "Households receiving treated tap water within premises  Houselisting and Housing Census Data Tables- District Level , Census of India__4": "Not available",
      "Primary Female Teachers in percentage DISE": "NA",
      "Number of Households": "NA",
      "Main Workers Agricultural Labourers - Persons": "NA"
    }
  ],
  "Urban": [
    {
      "Marginal Workers Agricultural Labourers - Persons": "NA",
      "Marginal Workers Other - Females": "NA",
      "Marginal Workers Other worked for 0 - 3 moths during last year - Females": "NA",
      "Upper Primary Schools with boys toilet in percentage DISE": "NA",
      "Total Population": "NA",
      "Households with electricity as main source of lighting in percentage Houselisting and Housing Census Data Tables- District Level , Census of India": "NA",
      "Primary Girl's Enrolment in percentage DISE": "NA",
      "Marginal Workers worked for 3 - 6 moths during last year - Males": "NA",
      "Prevalence of Acute illness in percentage DLHS-4": "Not available",
      "Main Workers - Persons": "NA",
      "Main Workers Cultivators - Females": "NA",
      "Marginal Workers Agricultural Labourers worked for 3 - 6 moths during last year - Females": "NA",
      "Marginal Workers Other worked for 0 - 3 moths during last year - Males": "NA",
      "Upper Primary Schools with drinking water facility in percentage DISE": "NA",
      "Primary Schools with girls toilet in percentage DISE": "NA",
      "Marginal Workers worked for 3 - 6 moths during last year - Persons": "NA",
      "Upper Primary Drop Out Rate in percentage DISE": "NA",
      "Prevalence of Anaemia in pregnant women aged 15-49years in percentage DLHS-4": "Not available",
      "Current use of any modern method of family planning in percentage DLHS-4": "Not available",
      "Marginal Workers Agricultural Labourers - Males": "NA",
      "Upper Primary Female Teachers in percentage DISE": "NA",
      "Marginal Workers - Females": "NA",
      "Marginal Workers Other worked for 3 - 6 moths during last year - Persons": "NA",
      "Main Workers Agricultural Labourers - Females": "NA",
      "Marginal Workers Cultivators worked for 3 - 6 moths during last year - Females": "NA",
      "Households with no lighting  Houselisting and Housing Census Data Tables- District Level , Census of India__5": "Not available",
      "Prevalence of Severe Anaemia  in percentage DLHS-4": "Not available",
      "Total unmet need for family planning in percentage DLHS-4": "Not available",
      "Main Workers Other - Males": "NA",
      "Children who received full vaccination in percentage DLHS-4": "Not available",
      "Marginal Workers Household Industry - Persons": "NA",
      "Primary Pupil-Teacher Ratio in percentage DISE": "NA",
      "Marginal Workers Agricultural Labourers worked for 3 - 6 moths during last year - Males": "NA",
      "Scheduled Caste Females": "NA",
      "Marginal Workers Cultivators - Males": "NA",
      "Marginal Workers - Males": "NA",
      "Marginal Workers worked for 0 - 3 moths during last year - Females": "NA",
      "Households with main source of drinking water within premises in percentage Houselisting and Housing Census Data Tables- District Level , Census of India": "NA",
      "Marginal Workers Household Industry worked for 3 - 6 moths during last year - Persons": "NA",
      "Upper Primary Girl's Enrolment in percentage DISE": "NA",
      "Prevalence of Severe Anaemia in women aged 15-49years in percentage DLHS-4": "Not available",
      "Marginal Workers Agricultural Labourers worked for 0 - 3 moths during last year - Males": "NA",
      "Households with electricity as main source of lighting  Houselisting and Housing Census Data Tables- District Level , Census of India__3": "Not available",
      "Households with computer or laptop with internet connection in percentage": "Not available",
      "PHCs functioning on a 24x7hours basis in percentage DLHS-4": 0,
      "Non Workers - Males": "NA",
      "Total Households in District Houselisting and Housing Census Data Tables- District Level , Census of India": "Not available",
      "Upper Primary Schools with girls toilet in percentage DISE": "NA",
      "Households with mobile phone in percentage": "Not available",
      "Households receiving untreated tap water within premises in percentage Houselisting and Housing Census Data Tables- District Level , Census of India__2": "NA",
      "Marginal Workers Cultivators worked for 3 - 6 moths during last year - Males": "NA",
      "Prevalence of Anaemia  in percentage DLHS-4": "Not available",
      "Prevalence of Chronic illness in percentage DLHS-4": "Not available",
      "Households with solar energy as main source of lighting in percentage Houselisting and Housing Census Data Tables- District Level , Census of India__1": "NA",
      "Marginal Workers Agricultural Labourers worked for 0 - 3 moths during last year - Females": "NA",
      "Main Workers - Males": "NA",
      "Female": "NA",
      "Sno": 450,
      "Marginal Workers Other worked for 3 - 6 moths during last year - Females": "NA",
      "Marginal Workers Cultivators worked for 0 - 3 moths during last year - Females": "NA",
      "Scheduled Tribe Males": "NA",
      "Male Illiterates": "NA",
      "Prevalence of Severe Anaemia in pregnant women aged 15-49years in percentage DLHS-4": "Not available",
      "0-6 Age Group Persons": "NA",
      "Upper Primary Student-Classroom Ratio in percentage DISE": "NA",
      "Currently married men married below 21years of age in percentage DLHS-4": "Not available",
      "Male Literates": "NA",
      "Households with no lighting in percentage Houselisting and Housing Census Data Tables- District Level , Census of India__2": "NA",
      "Primary Drop Out Rate in percentage DISE": "NA",
      "Marginal Workers Household Industry - Males": "NA",
      "Female Illiterates": "NA",
      "Main Workers Other - Females": "NA",
      "Marginal Workers Cultivators - Persons": "NA",
      "Upper Primary Gross Enrolment Ratio in percentage DISE": "NA",
      "Scheduled Caste Persons": "NA",
      "Marginal Workers Cultivators worked for 3 - 6 moths during last year - Persons": "NA",
      "Households with landline phone in percentage": "Not available",
      "Total Households in District  Houselisting and Housing Census Data Tables- District Level , Census of India": "Not available",
      "Upper Primary Pupil-Teacher Ratio in percentage DISE": "NA",
      "Primary Student-Classroom Ratio in percentage DISE": "NA",
      "Primary Schools with boys toilet in percentage DISE": "NA",
      "Mean number of children ever born to women aged 40-49years  DLHS-4": "Not available",
      "Households receiving untreated tap water within premises  Houselisting and Housing Census Data Tables- District Level , Census of India__5": "Not available",
      "Marginal Workers Household Industry worked for 0 - 3 moths during last year - Persons": "NA",
      "Total Male Population": "NA",
      "Non Workers - Females": "NA",
      "Current use of family planning methods in percentage DLHS-4": "Not available",
      "Households with main source of drinking water within premises  Houselisting and Housing Census Data Tables- District Level , Census of India__3": "Not available",
      "Main Workers Agricultural Labourers - Males": "NA",
      "Marginal Workers Other worked for 0 - 3 moths during last year - Persons": "NA",
      "Currently married women married below 18years of age in percentage DLHS-4": "Not available",
      "Person Illiterates": "NA",
      "Main Workers Household Industry - Females": "NA",
      "Female Literates": "NA",
      "Marginal Workers Cultivators worked for 0 - 3 moths during last year - Males": "NA",
      "Male": "NA",
      "Households with improved source of drinking water in percentage DLHS-4": "Not available",
      "Upper Primary Schools with electricity in percentage DISE": "NA",
      "Households with electricity in percentage DLHS-4": "Not available",
      "Villages with Primary Health Centre within 10km in percentage DLHS-4": 0,
      "Births to women aged 15-19years out of Total births in percentage DLHS-4": "Not available",
      "Prevalence of Anaemia in women aged 15-49years in percentage DLHS-4": "Not available",
      "Marginal Workers Agricultural Labourers worked for 3 - 6 moths during last year - Persons": "NA",
      "Main Workers Household Industry - Males": "NA",
      "Scheduled Tribe Females": "NA",
      "Marginal Workers worked for 0 - 3 moths during last year - Males": "NA",
      "Marginal Workers Other worked for 3 - 6 moths during last year - Males": "NA",
      "Primary Net Enrolment Ratio in percentage DISE": "NA",
      "Total": "NA",
      "Mean age at marriage for boys DLHS-4": "Not available",
      "Number of District Hospitals  DLHS-4": 0,
      "0-6 Age Group Females": "NA",
      "Marginal Workers Agricultural Labourers worked for 0 - 3 moths during last year - Persons": "NA",
      "Marginal Workers Household Industry worked for 0 - 3 moths during last year - Males": "NA",
      "Total Workers  Females": "NA",
      "Marginal Workers worked for 3 - 6 moths during last year - Females": "NA",
      "Institutional Deliveries in percentage DLHS-4": "Not available",
      "Marginal Workers Other - Males": "NA",
      "Total Workers  Males": "NA",
      "Main Workers - Females": "NA",
      "Primary Gross Enrolment Ratio in percentage DISE": "NA",
      "Main Workers Cultivators - Persons": "NA",
      "Marginal Workers Household Industry worked for 0 - 3 moths during last year - Females": "NA",
      "Upper Primary Net Enrolment Ratio in percentage DISE": "NA",
      "Primary New Government Schools since 2003 in percentage DISE": "NA",
      "Tier": "Urban",
      "Marginal Workers Household Industry - Females": "NA",
      "Primary Schools with electricity in percentage DISE": "NA",
      "Main Workers Other - Persons": "NA",
      "Marginal Workers Household Industry worked for 3 - 6 moths during last year - Females": "NA",
      "Main Workers Cultivators - Males": "NA",
      "Main Workers Household Industry - Persons": "NA",
      "Marginal Workers Cultivators worked for 0 - 3 moths during last year - Persons": "NA",
      "Scheduled Caste Males": "NA",
      "Marginal Workers - Persons": "NA",
      "Deliveries at home conducted by skilled health personnel in percentage DLHS-4": "Not available",
      "Villages with Sub-Health Centres within 3km in percentage DLHS-4": 0,
      "Upper Primary New Government Schools since 2003 in percentage DISE": "NA",
      "0-6 Age Group Males": "NA",
      "Primary Schools with drinking water facility in percentage DISE": "NA",
      "Non Workers - Persons": "NA",
      "Person Literates": "NA",
      "State": "GUJRAT",
      "Total Female Population": "NA",
      "Marginal Workers worked for 0 - 3 moths during last year - Persons": "NA",
      "Marginal Workers Cultivators - Females": "NA",
      "Marginal Workers Other - Persons": "NA",
      "Sex Ratio": "Not available",
      "Scheduled Tribe Persons": "NA",
      "Marginal Workers Household Industry worked for 3 - 6 moths during last year - Males": "NA",
      "Marginal Workers Agricultural Labourers - Females": "NA",
      "Mean age at marriage for girls DLHS-4": "Not available",
      "Households with solar energy as main source of lighting  Houselisting and Housing Census Data Tables- District Level , Census of India__4": "Not available",
      "District": "BOTAD",
      "Households receiving treated tap water within premises in percentage Houselisting and Housing Census Data Tables- District Level , Census of India__1": "NA",
      "Total Workers  Persons": "NA",
      "Households receiving treated tap water within premises  Houselisting and Housing Census Data Tables- District Level , Census of India__4": "Not available",
      "Primary Female Teachers in percentage DISE": "NA",
      "Number of Households": "NA",
      "Main Workers Agricultural Labourers - Persons": "NA"
    }
  ]
}