{
  "Total": [
    {
      "Marginal Workers Agricultural Labourers - Persons": 310333,
      "Marginal Workers Other - Females": 28338,
      "Marginal Workers Other worked for 0 - 3 moths during last year - Females": 3522,
      "Upper Primary Schools with boys toilet in percentage DISE": 100,
      "Total Population": 2127086,
      "Households with electricity as main source of lighting in percentage Houselisting and Housing Census Data Tables- District Level , Census of India": 73.09410923,
      "Primary Girl's Enrolment in percentage DISE": 48.1,
      "Marginal Workers worked for 3 - 6 moths during last year - Males": 105156,
      "Prevalence of Acute illness in percentage DLHS-4": "Not available",
      "Main Workers - Persons": 553395,
      "Main Workers Cultivators - Females": 42089,
      "Marginal Workers Agricultural Labourers worked for 3 - 6 moths during last year - Females": 215997,
      "Marginal Workers Other worked for 0 - 3 moths during last year - Males": 4456,
      "Upper Primary Schools with drinking water facility in percentage DISE": 100,
      "Primary Schools with girls toilet in percentage DISE": 98.7,
      "Marginal Workers worked for 3 - 6 moths during last year - Persons": 398159,
      "Upper Primary Drop Out Rate in percentage DISE": 8.67,
      "Prevalence of Anaemia in pregnant women aged 15-49years in percentage DLHS-4": "Not available",
      "Current use of any modern method of family planning in percentage DLHS-4": "Not available",
      "Marginal Workers Agricultural Labourers - Males": 75279,
      "Upper Primary Female Teachers in percentage DISE": 62.7,
      "Marginal Workers - Females": 321143,
      "Marginal Workers Other worked for 3 - 6 moths during last year - Persons": 46229,
      "Main Workers Agricultural Labourers - Females": 72524,
      "Marginal Workers Cultivators worked for 3 - 6 moths during last year - Females": 49529,
      "Households with no lighting  Houselisting and Housing Census Data Tables- District Level , Census of India__5": 5353,
      "Prevalence of Severe Anaemia  in percentage DLHS-4": "Not available",
      "Total unmet need for family planning in percentage DLHS-4": "Not available",
      "Main Workers Other - Males": 87357,
      "Children who received full vaccination in percentage DLHS-4": "Not available",
      "Marginal Workers Household Industry - Persons": 4409,
      "Primary Pupil-Teacher Ratio in percentage DISE": 29,
      "Marginal Workers Agricultural Labourers worked for 3 - 6 moths during last year - Males": 64546,
      "Scheduled Caste Females": 20764,
      "Marginal Workers Cultivators - Males": 21991,
      "Marginal Workers - Males": 124586,
      "Marginal Workers worked for 0 - 3 moths during last year - Females": 28140,
      "Households with main source of drinking water within premises in percentage Houselisting and Housing Census Data Tables- District Level , Census of India": 16.49518601,
      "Marginal Workers Household Industry worked for 3 - 6 moths during last year - Persons": 3842,
      "Upper Primary Girl's Enrolment in percentage DISE": 39.7,
      "Prevalence of Severe Anaemia in women aged 15-49years in percentage DLHS-4": "Not available",
      "Marginal Workers Agricultural Labourers worked for 0 - 3 moths during last year - Males": 10733,
      "Households with electricity as main source of lighting  Houselisting and Housing Census Data Tables- District Level , Census of India__3": 241117,
      "Households with computer or laptop with internet connection in percentage": 0.53,
      "PHCs functioning on a 24x7hours basis in percentage DLHS-4": "Not available",
      "Non Workers - Males": 527770,
      "Total Households in District Houselisting and Housing Census Data Tables- District Level , Census of India": 329872,
      "Upper Primary Schools with girls toilet in percentage DISE": 100,
      "Households with mobile phone in percentage": 41.98,
      "Households receiving untreated tap water within premises in percentage Houselisting and Housing Census Data Tables- District Level , Census of India__2": 1.507857593,
      "Marginal Workers Cultivators worked for 3 - 6 moths during last year - Males": 18016,
      "Prevalence of Anaemia  in percentage DLHS-4": "Not available",
      "Prevalence of Chronic illness in percentage DLHS-4": "Not available",
      "Households with solar energy as main source of lighting in percentage Houselisting and Housing Census Data Tables- District Level , Census of India__1": 0.174916331,
      "Marginal Workers Agricultural Labourers worked for 0 - 3 moths during last year - Females": 19057,
      "Main Workers - Males": 416295,
      "Female": 47.65,
      "Sno": 458,
      "Marginal Workers Other worked for 3 - 6 moths during last year - Females": 24816,
      "Marginal Workers Cultivators worked for 0 - 3 moths during last year - Females": 5260,
      "Scheduled Tribe Males": 793305,
      "Male Illiterates": 469616,
      "Prevalence of Severe Anaemia in pregnant women aged 15-49years in percentage DLHS-4": "Not available",
      "0-6 Age Group Persons": 414798,
      "Upper Primary Student-Classroom Ratio in percentage DISE": 36,
      "Currently married men married below 21years of age in percentage DLHS-4": "Not available",
      "Male Literates": 599035,
      "Households with no lighting in percentage Houselisting and Housing Census Data Tables- District Level , Census of India__2": 1.622750643,
      "Primary Drop Out Rate in percentage DISE": 6.4,
      "Marginal Workers Household Industry - Males": 1447,
      "Female Illiterates": 650299,
      "Main Workers Other - Females": 21536,
      "Marginal Workers Cultivators - Persons": 76780,
      "Upper Primary Gross Enrolment Ratio in percentage DISE": 74.6,
      "Scheduled Caste Persons": 41444,
      "Marginal Workers Cultivators worked for 3 - 6 moths during last year - Persons": 67545,
      "Households with landline phone in percentage": 1.38,
      "Total Households in District  Houselisting and Housing Census Data Tables- District Level , Census of India": 329872,
      "Upper Primary Pupil-Teacher Ratio in percentage DISE": 49,
      "Primary Student-Classroom Ratio in percentage DISE": 30,
      "Primary Schools with boys toilet in percentage DISE": 98.4,
      "Mean number of children ever born to women aged 40-49years  DLHS-4": "Not available",
      "Households receiving untreated tap water within premises  Houselisting and Housing Census Data Tables- District Level , Census of India__5": 4974,
      "Marginal Workers Household Industry worked for 0 - 3 moths during last year - Persons": 567,
      "Total Male Population": 1068651,
      "Non Workers - Females": 600192,
      "Current use of family planning methods in percentage DLHS-4": "Not available",
      "Households with main source of drinking water within premises  Houselisting and Housing Census Data Tables- District Level , Census of India__3": 54413,
      "Main Workers Agricultural Labourers - Males": 55740,
      "Marginal Workers Other worked for 0 - 3 moths during last year - Persons": 7978,
      "Currently married women married below 18years of age in percentage DLHS-4": "Not available",
      "Person Illiterates": 1119915,
      "Main Workers Household Industry - Females": 951,
      "Female Literates": 408136,
      "Marginal Workers Cultivators worked for 0 - 3 moths during last year - Males": 3975,
      "Male": 70.01,
      "Households with improved source of drinking water in percentage DLHS-4": "Not available",
      "Upper Primary Schools with electricity in percentage DISE": 100,
      "Households with electricity in percentage DLHS-4": "Not available",
      "Villages with Primary Health Centre within 10km in percentage DLHS-4": "Not available",
      "Births to women aged 15-19years out of Total births in percentage DLHS-4": "Not available",
      "Prevalence of Anaemia in women aged 15-49years in percentage DLHS-4": "Not available",
      "Marginal Workers Agricultural Labourers worked for 3 - 6 moths during last year - Persons": 280543,
      "Main Workers Household Industry - Males": 3455,
      "Scheduled Tribe Females": 787545,
      "Marginal Workers worked for 0 - 3 moths during last year - Males": 19430,
      "Marginal Workers Other worked for 3 - 6 moths during last year - Males": 21413,
      "Primary Net Enrolment Ratio in percentage DISE": 78.8,
      "Total": 58.82,
      "Mean age at marriage for boys DLHS-4": "Not available",
      "Number of District Hospitals  DLHS-4": "Not available",
      "0-6 Age Group Females": 201830,
      "Marginal Workers Agricultural Labourers worked for 0 - 3 moths during last year - Persons": 29790,
      "Marginal Workers Household Industry worked for 0 - 3 moths during last year - Males": 266,
      "Total Workers  Females": 458243,
      "Marginal Workers worked for 3 - 6 moths during last year - Females": 293003,
      "Institutional Deliveries in percentage DLHS-4": "Not available",
      "Marginal Workers Other - Males": 25869,
      "Total Workers  Males": 540881,
      "Main Workers - Females": 137100,
      "Primary Gross Enrolment Ratio in percentage DISE": 96.2,
      "Main Workers Cultivators - Persons": 311832,
      "Marginal Workers Household Industry worked for 0 - 3 moths during last year - Females": 301,
      "Upper Primary Net Enrolment Ratio in percentage DISE": 56.2,
      "Primary New Government Schools since 2003 in percentage DISE": 19.7,
      "Tier": "Total",
      "Marginal Workers Household Industry - Females": 2962,
      "Primary Schools with electricity in percentage DISE": 98.8,
      "Main Workers Other - Persons": 108893,
      "Marginal Workers Household Industry worked for 3 - 6 moths during last year - Females": 2661,
      "Main Workers Cultivators - Males": 269743,
      "Main Workers Household Industry - Persons": 4406,
      "Marginal Workers Cultivators worked for 0 - 3 moths during last year - Persons": 9235,
      "Scheduled Caste Males": 20680,
      "Marginal Workers - Persons": 445729,
      "Deliveries at home conducted by skilled health personnel in percentage DLHS-4": "Not available",
      "Villages with Sub-Health Centres within 3km in percentage DLHS-4": "Not available",
      "Upper Primary New Government Schools since 2003 in percentage DISE": 0,
      "0-6 Age Group Males": 212968,
      "Primary Schools with drinking water facility in percentage DISE": 100,
      "Non Workers - Persons": 1127962,
      "Person Literates": 1007171,
      "State": "GUJRAT",
      "Total Female Population": 1058435,
      "Marginal Workers worked for 0 - 3 moths during last year - Persons": 47570,
      "Marginal Workers Cultivators - Females": 54789,
      "Marginal Workers Other - Persons": 54207,
      "Sex Ratio": 990,
      "Scheduled Tribe Persons": 1580850,
      "Marginal Workers Household Industry worked for 3 - 6 moths during last year - Males": 1181,
      "Marginal Workers Agricultural Labourers - Females": 235054,
      "Mean age at marriage for girls DLHS-4": "Not available",
      "Households with solar energy as main source of lighting  Houselisting and Housing Census Data Tables- District Level , Census of India__4": 577,
      "District": "DOHAD",
      "Households receiving treated tap water within premises in percentage Houselisting and Housing Census Data Tables- District Level , Census of India__1": 6.065686084,
      "Total Workers  Persons": 999124,
      "Households receiving treated tap water within premises  Houselisting and Housing Census Data Tables- District Level , Census of India__4": 20009,
      "Primary Female Teachers in percentage DISE": 37.6,
      "Number of Households": 334272,
      "Main Workers Agricultural Labourers - Persons": 128264
    }
  ],
  "Rural": [
    {
      "Marginal Workers Agricultural Labourers - Persons": 305431,
      "Marginal Workers Other - Females": 25816,
      "Marginal Workers Other worked for 0 - 3 moths during last year - Females": 3145,
      "Upper Primary Schools with boys toilet in percentage DISE": "NA",
      "Total Population": 1935461,
      "Households with electricity as main source of lighting in percentage Houselisting and Housing Census Data Tables- District Level , Census of India": 70.99733218,
      "Primary Girl's Enrolment in percentage DISE": "NA",
      "Marginal Workers worked for 3 - 6 moths during last year - Males": 101491,
      "Prevalence of Acute illness in percentage DLHS-4": "Not available",
      "Main Workers - Persons": 499970,
      "Main Workers Cultivators - Females": 41579,
      "Marginal Workers Agricultural Labourers worked for 3 - 6 moths during last year - Females": 212908,
      "Marginal Workers Other worked for 0 - 3 moths during last year - Males": 4062,
      "Upper Primary Schools with drinking water facility in percentage DISE": "NA",
      "Primary Schools with girls toilet in percentage DISE": "NA",
      "Marginal Workers worked for 3 - 6 moths during last year - Persons": 388639,
      "Upper Primary Drop Out Rate in percentage DISE": "NA",
      "Prevalence of Anaemia in pregnant women aged 15-49years in percentage DLHS-4": "Not available",
      "Current use of any modern method of family planning in percentage DLHS-4": "Not available",
      "Marginal Workers Agricultural Labourers - Males": 74155,
      "Upper Primary Female Teachers in percentage DISE": "NA",
      "Marginal Workers - Females": 314170,
      "Marginal Workers Other worked for 3 - 6 moths during last year - Persons": 41639,
      "Main Workers Agricultural Labourers - Females": 71202,
      "Marginal Workers Cultivators worked for 3 - 6 moths during last year - Females": 49082,
      "Households with no lighting  Houselisting and Housing Census Data Tables- District Level , Census of India__5": 5121,
      "Prevalence of Severe Anaemia  in percentage DLHS-4": "Not available",
      "Total unmet need for family planning in percentage DLHS-4": "Not available",
      "Main Workers Other - Males": 48293,
      "Children who received full vaccination in percentage DLHS-4": "Not available",
      "Marginal Workers Household Industry - Persons": 4003,
      "Primary Pupil-Teacher Ratio in percentage DISE": "NA",
      "Marginal Workers Agricultural Labourers worked for 3 - 6 moths during last year - Males": 63687,
      "Scheduled Caste Females": 15896,
      "Marginal Workers Cultivators - Males": 21776,
      "Marginal Workers - Males": 120206,
      "Marginal Workers worked for 0 - 3 moths during last year - Females": 27022,
      "Households with main source of drinking water within premises in percentage Houselisting and Housing Census Data Tables- District Level , Census of India": 10.87807673,
      "Marginal Workers Household Industry worked for 3 - 6 moths during last year - Persons": 3492,
      "Upper Primary Girl's Enrolment in percentage DISE": "NA",
      "Prevalence of Severe Anaemia in women aged 15-49years in percentage DLHS-4": "Not available",
      "Marginal Workers Agricultural Labourers worked for 0 - 3 moths during last year - Males": 10468,
      "Households with electricity as main source of lighting  Houselisting and Housing Census Data Tables- District Level , Census of India__3": 209440,
      "Households with computer or laptop with internet connection in percentage": 0.12,
      "PHCs functioning on a 24x7hours basis in percentage DLHS-4": "Not applicable",
      "Non Workers - Males": 479361,
      "Total Households in District Houselisting and Housing Census Data Tables- District Level , Census of India": 294997,
      "Upper Primary Schools with girls toilet in percentage DISE": "NA",
      "Households with mobile phone in percentage": 40.84,
      "Households receiving untreated tap water within premises in percentage Houselisting and Housing Census Data Tables- District Level , Census of India__2": 1.037637671,
      "Marginal Workers Cultivators worked for 3 - 6 moths during last year - Males": 17831,
      "Prevalence of Anaemia  in percentage DLHS-4": "Not available",
      "Prevalence of Chronic illness in percentage DLHS-4": "Not available",
      "Households with solar energy as main source of lighting in percentage Houselisting and Housing Census Data Tables- District Level , Census of India__1": 0.18678156,
      "Marginal Workers Agricultural Labourers worked for 0 - 3 moths during last year - Females": 18368,
      "Main Workers - Males": 371396,
      "Female": "NA",
      "Sno": 457,
      "Marginal Workers Other worked for 3 - 6 moths during last year - Females": 22671,
      "Marginal Workers Cultivators worked for 0 - 3 moths during last year - Females": 5238,
      "Scheduled Tribe Males": 763671,
      "Male Illiterates": 445823,
      "Prevalence of Severe Anaemia in pregnant women aged 15-49years in percentage DLHS-4": "Not available",
      "0-6 Age Group Persons": 387164,
      "Upper Primary Student-Classroom Ratio in percentage DISE": "NA",
      "Currently married men married below 21years of age in percentage DLHS-4": "Not available",
      "Male Literates": 525140,
      "Households with no lighting in percentage Houselisting and Housing Census Data Tables- District Level , Census of India__2": 1.735949857,
      "Primary Drop Out Rate in percentage DISE": "NA",
      "Marginal Workers Household Industry - Males": 1245,
      "Female Illiterates": 617086,
      "Main Workers Other - Females": 15023,
      "Marginal Workers Cultivators - Persons": 76096,
      "Upper Primary Gross Enrolment Ratio in percentage DISE": "NA",
      "Scheduled Caste Persons": 31647,
      "Marginal Workers Cultivators worked for 3 - 6 moths during last year - Persons": 66913,
      "Households with landline phone in percentage": 0.95,
      "Total Households in District  Houselisting and Housing Census Data Tables- District Level , Census of India": 294997,
      "Upper Primary Pupil-Teacher Ratio in percentage DISE": "NA",
      "Primary Student-Classroom Ratio in percentage DISE": "NA",
      "Primary Schools with boys toilet in percentage DISE": "NA",
      "Mean number of children ever born to women aged 40-49years  DLHS-4": "Not available",
      "Households receiving untreated tap water within premises  Houselisting and Housing Census Data Tables- District Level , Census of India__5": 3061,
      "Marginal Workers Household Industry worked for 0 - 3 moths during last year - Persons": 511,
      "Total Male Population": 970963,
      "Non Workers - Females": 521754,
      "Current use of family planning methods in percentage DLHS-4": "Not available",
      "Households with main source of drinking water within premises  Houselisting and Housing Census Data Tables- District Level , Census of India__3": 32090,
      "Main Workers Agricultural Labourers - Males": 54377,
      "Marginal Workers Other worked for 0 - 3 moths during last year - Persons": 7207,
      "Currently married women married below 18years of age in percentage DLHS-4": "Not available",
      "Person Illiterates": 1062909,
      "Main Workers Household Industry - Females": 770,
      "Female Literates": 347412,
      "Marginal Workers Cultivators worked for 0 - 3 moths during last year - Males": 3945,
      "Male": "NA",
      "Households with improved source of drinking water in percentage DLHS-4": "Not available",
      "Upper Primary Schools with electricity in percentage DISE": "NA",
      "Households with electricity in percentage DLHS-4": "Not available",
      "Villages with Primary Health Centre within 10km in percentage DLHS-4": "Not applicable",
      "Births to women aged 15-19years out of Total births in percentage DLHS-4": "Not available",
      "Prevalence of Anaemia in women aged 15-49years in percentage DLHS-4": "Not available",
      "Marginal Workers Agricultural Labourers worked for 3 - 6 moths during last year - Persons": 276595,
      "Main Workers Household Industry - Males": 2816,
      "Scheduled Tribe Females": 758337,
      "Marginal Workers worked for 0 - 3 moths during last year - Males": 18715,
      "Marginal Workers Other worked for 3 - 6 moths during last year - Males": 18968,
      "Primary Net Enrolment Ratio in percentage DISE": "NA",
      "Total": "NA",
      "Mean age at marriage for boys DLHS-4": "Not available",
      "Number of District Hospitals  DLHS-4": "Not applicable",
      "0-6 Age Group Females": 188663,
      "Marginal Workers Agricultural Labourers worked for 0 - 3 moths during last year - Persons": 28836,
      "Marginal Workers Household Industry worked for 0 - 3 moths during last year - Males": 240,
      "Total Workers  Females": 442744,
      "Marginal Workers worked for 3 - 6 moths during last year - Females": 287148,
      "Institutional Deliveries in percentage DLHS-4": "Not available",
      "Marginal Workers Other - Males": 23030,
      "Total Workers  Males": 491602,
      "Main Workers - Females": 128574,
      "Primary Gross Enrolment Ratio in percentage DISE": "NA",
      "Main Workers Cultivators - Persons": 307489,
      "Marginal Workers Household Industry worked for 0 - 3 moths during last year - Females": 271,
      "Upper Primary Net Enrolment Ratio in percentage DISE": "NA",
      "Primary New Government Schools since 2003 in percentage DISE": "NA",
      "Tier": "Rural",
      "Marginal Workers Household Industry - Females": 2758,
      "Primary Schools with electricity in percentage DISE": "NA",
      "Main Workers Other - Persons": 63316,
      "Marginal Workers Household Industry worked for 3 - 6 moths during last year - Females": 2487,
      "Main Workers Cultivators - Males": 265910,
      "Main Workers Household Industry - Persons": 3586,
      "Marginal Workers Cultivators worked for 0 - 3 moths during last year - Persons": 9183,
      "Scheduled Caste Males": 15751,
      "Marginal Workers - Persons": 434376,
      "Deliveries at home conducted by skilled health personnel in percentage DLHS-4": "Not available",
      "Villages with Sub-Health Centres within 3km in percentage DLHS-4": "Not applicable",
      "Upper Primary New Government Schools since 2003 in percentage DISE": "NA",
      "0-6 Age Group Males": 198501,
      "Primary Schools with drinking water facility in percentage DISE": "NA",
      "Non Workers - Persons": 1001115,
      "Person Literates": 872552,
      "State": "GUJRAT",
      "Total Female Population": 964498,
      "Marginal Workers worked for 0 - 3 moths during last year - Persons": 45737,
      "Marginal Workers Cultivators - Females": 54320,
      "Marginal Workers Other - Persons": 48846,
      "Sex Ratio": 993,
      "Scheduled Tribe Persons": 1522008,
      "Marginal Workers Household Industry worked for 3 - 6 moths during last year - Males": 1005,
      "Marginal Workers Agricultural Labourers - Females": 231276,
      "Mean age at marriage for girls DLHS-4": "Not available",
      "Households with solar energy as main source of lighting  Houselisting and Housing Census Data Tables- District Level , Census of India__4": 551,
      "District": "DOHAD",
      "Households receiving treated tap water within premises in percentage Houselisting and Housing Census Data Tables- District Level , Census of India__1": 0.813228609,
      "Total Workers  Persons": 934346,
      "Households receiving treated tap water within premises  Houselisting and Housing Census Data Tables- District Level , Census of India__4": 2399,
      "Primary Female Teachers in percentage DISE": "NA",
      "Number of Households": 298702,
      "Main Workers Agricultural Labourers - Persons": 125579
    }
  ],
  "Urban": [
    {
      "Marginal Workers Agricultural Labourers - Persons": 4902,
      "Marginal Workers Other - Females": 2522,
      "Marginal Workers Other worked for 0 - 3 moths during last year - Females": 377,
      "Upper Primary Schools with boys toilet in percentage DISE": "NA",
      "Total Population": 191625,
      "Households with electricity as main source of lighting in percentage Houselisting and Housing Census Data Tables- District Level , Census of India": 90.83010753,
      "Primary Girl's Enrolment in percentage DISE": "NA",
      "Marginal Workers worked for 3 - 6 moths during last year - Males": 3665,
      "Prevalence of Acute illness in percentage DLHS-4": "Not available",
      "Main Workers - Persons": 53425,
      "Main Workers Cultivators - Females": 510,
      "Marginal Workers Agricultural Labourers worked for 3 - 6 moths during last year - Females": 3089,
      "Marginal Workers Other worked for 0 - 3 moths during last year - Males": 394,
      "Upper Primary Schools with drinking water facility in percentage DISE": "NA",
      "Primary Schools with girls toilet in percentage DISE": "NA",
      "Marginal Workers worked for 3 - 6 moths during last year - Persons": 9520,
      "Upper Primary Drop Out Rate in percentage DISE": "NA",
      "Prevalence of Anaemia in pregnant women aged 15-49years in percentage DLHS-4": "Not available",
      "Current use of any modern method of family planning in percentage DLHS-4": "Not available",
      "Marginal Workers Agricultural Labourers - Males": 1124,
      "Upper Primary Female Teachers in percentage DISE": "NA",
      "Marginal Workers - Females": 6973,
      "Marginal Workers Other worked for 3 - 6 moths during last year - Persons": 4590,
      "Main Workers Agricultural Labourers - Females": 1322,
      "Marginal Workers Cultivators worked for 3 - 6 moths during last year - Females": 447,
      "Households with no lighting  Houselisting and Housing Census Data Tables- District Level , Census of India__5": 232,
      "Prevalence of Severe Anaemia  in percentage DLHS-4": "Not available",
      "Total unmet need for family planning in percentage DLHS-4": "Not available",
      "Main Workers Other - Males": 39064,
      "Children who received full vaccination in percentage DLHS-4": "Not available",
      "Marginal Workers Household Industry - Persons": 406,
      "Primary Pupil-Teacher Ratio in percentage DISE": "NA",
      "Marginal Workers Agricultural Labourers worked for 3 - 6 moths during last year - Males": 859,
      "Scheduled Caste Females": 4868,
      "Marginal Workers Cultivators - Males": 215,
      "Marginal Workers - Males": 4380,
      "Marginal Workers worked for 0 - 3 moths during last year - Females": 1118,
      "Households with main source of drinking water within premises in percentage Houselisting and Housing Census Data Tables- District Level , Census of India": 64.00860215,
      "Marginal Workers Household Industry worked for 3 - 6 moths during last year - Persons": 350,
      "Upper Primary Girl's Enrolment in percentage DISE": "NA",
      "Prevalence of Severe Anaemia in women aged 15-49years in percentage DLHS-4": "Not available",
      "Marginal Workers Agricultural Labourers worked for 0 - 3 moths during last year - Males": 265,
      "Households with electricity as main source of lighting  Houselisting and Housing Census Data Tables- District Level , Census of India__3": 31677,
      "Households with computer or laptop with internet connection in percentage": 3.93,
      "PHCs functioning on a 24x7hours basis in percentage DLHS-4": 0,
      "Non Workers - Males": 48409,
      "Total Households in District Houselisting and Housing Census Data Tables- District Level , Census of India": 34875,
      "Upper Primary Schools with girls toilet in percentage DISE": "NA",
      "Households with mobile phone in percentage": 51.61,
      "Households receiving untreated tap water within premises in percentage Houselisting and Housing Census Data Tables- District Level , Census of India__2": 5.485304659,
      "Marginal Workers Cultivators worked for 3 - 6 moths during last year - Males": 185,
      "Prevalence of Anaemia  in percentage DLHS-4": "Not available",
      "Prevalence of Chronic illness in percentage DLHS-4": "Not available",
      "Households with solar energy as main source of lighting in percentage Houselisting and Housing Census Data Tables- District Level , Census of India__1": 0.0746,
      "Marginal Workers Agricultural Labourers worked for 0 - 3 moths during last year - Females": 689,
      "Main Workers - Males": 44899,
      "Female": "NA",
      "Sno": 459,
      "Marginal Workers Other worked for 3 - 6 moths during last year - Females": 2145,
      "Marginal Workers Cultivators worked for 0 - 3 moths during last year - Females": 22,
      "Scheduled Tribe Males": 29634,
      "Male Illiterates": 23793,
      "Prevalence of Severe Anaemia in pregnant women aged 15-49years in percentage DLHS-4": "Not available",
      "0-6 Age Group Persons": 27634,
      "Upper Primary Student-Classroom Ratio in percentage DISE": "NA",
      "Currently married men married below 21years of age in percentage DLHS-4": "Not available",
      "Male Literates": 73895,
      "Households with no lighting in percentage Houselisting and Housing Census Data Tables- District Level , Census of India__2": 0.665232975,
      "Primary Drop Out Rate in percentage DISE": "NA",
      "Marginal Workers Household Industry - Males": 202,
      "Female Illiterates": 33213,
      "Main Workers Other - Females": 6513,
      "Marginal Workers Cultivators - Persons": 684,
      "Upper Primary Gross Enrolment Ratio in percentage DISE": "NA",
      "Scheduled Caste Persons": 9797,
      "Marginal Workers Cultivators worked for 3 - 6 moths during last year - Persons": 632,
      "Households with landline phone in percentage": 5.06,
      "Total Households in District  Houselisting and Housing Census Data Tables- District Level , Census of India": 34875,
      "Upper Primary Pupil-Teacher Ratio in percentage DISE": "NA",
      "Primary Student-Classroom Ratio in percentage DISE": "NA",
      "Primary Schools with boys toilet in percentage DISE": "NA",
      "Mean number of children ever born to women aged 40-49years  DLHS-4": "Not available",
      "Households receiving untreated tap water within premises  Houselisting and Housing Census Data Tables- District Level , Census of India__5": 1913,
      "Marginal Workers Household Industry worked for 0 - 3 moths during last year - Persons": 56,
      "Total Male Population": 97688,
      "Non Workers - Females": 78438,
      "Current use of family planning methods in percentage DLHS-4": "Not available",
      "Households with main source of drinking water within premises  Houselisting and Housing Census Data Tables- District Level , Census of India__3": 22323,
      "Main Workers Agricultural Labourers - Males": 1363,
      "Marginal Workers Other worked for 0 - 3 moths during last year - Persons": 771,
      "Currently married women married below 18years of age in percentage DLHS-4": "Not available",
      "Person Illiterates": 57006,
      "Main Workers Household Industry - Females": 181,
      "Female Literates": 60724,
      "Marginal Workers Cultivators worked for 0 - 3 moths during last year - Males": 30,
      "Male": "NA",
      "Households with improved source of drinking water in percentage DLHS-4": "Not available",
      "Upper Primary Schools with electricity in percentage DISE": "NA",
      "Households with electricity in percentage DLHS-4": "Not available",
      "Villages with Primary Health Centre within 10km in percentage DLHS-4": 0,
      "Births to women aged 15-19years out of Total births in percentage DLHS-4": "Not available",
      "Prevalence of Anaemia in women aged 15-49years in percentage DLHS-4": "Not available",
      "Marginal Workers Agricultural Labourers worked for 3 - 6 moths during last year - Persons": 3948,
      "Main Workers Household Industry - Males": 639,
      "Scheduled Tribe Females": 29208,
      "Marginal Workers worked for 0 - 3 moths during last year - Males": 715,
      "Marginal Workers Other worked for 3 - 6 moths during last year - Males": 2445,
      "Primary Net Enrolment Ratio in percentage DISE": "NA",
      "Total": "NA",
      "Mean age at marriage for boys DLHS-4": "Not available",
      "Number of District Hospitals  DLHS-4": 0,
      "0-6 Age Group Females": 13167,
      "Marginal Workers Agricultural Labourers worked for 0 - 3 moths during last year - Persons": 954,
      "Marginal Workers Household Industry worked for 0 - 3 moths during last year - Males": 26,
      "Total Workers  Females": 15499,
      "Marginal Workers worked for 3 - 6 moths during last year - Females": 5855,
      "Institutional Deliveries in percentage DLHS-4": "Not available",
      "Marginal Workers Other - Males": 2839,
      "Total Workers  Males": 49279,
      "Main Workers - Females": 8526,
      "Primary Gross Enrolment Ratio in percentage DISE": "NA",
      "Main Workers Cultivators - Persons": 4343,
      "Marginal Workers Household Industry worked for 0 - 3 moths during last year - Females": 30,
      "Upper Primary Net Enrolment Ratio in percentage DISE": "NA",
      "Primary New Government Schools since 2003 in percentage DISE": "NA",
      "Tier": "Urban",
      "Marginal Workers Household Industry - Females": 204,
      "Primary Schools with electricity in percentage DISE": "NA",
      "Main Workers Other - Persons": 45577,
      "Marginal Workers Household Industry worked for 3 - 6 moths during last year - Females": 174,
      "Main Workers Cultivators - Males": 3833,
      "Main Workers Household Industry - Persons": 820,
      "Marginal Workers Cultivators worked for 0 - 3 moths during last year - Persons": 52,
      "Scheduled Caste Males": 4929,
      "Marginal Workers - Persons": 11353,
      "Deliveries at home conducted by skilled health personnel in percentage DLHS-4": "Not available",
      "Villages with Sub-Health Centres within 3km in percentage DLHS-4": 0,
      "Upper Primary New Government Schools since 2003 in percentage DISE": "NA",
      "0-6 Age Group Males": 14467,
      "Primary Schools with drinking water facility in percentage DISE": "NA",
      "Non Workers - Persons": 126847,
      "Person Literates": 134619,
      "State": "GUJRAT",
      "Total Female Population": 93937,
      "Marginal Workers worked for 0 - 3 moths during last year - Persons": 1833,
      "Marginal Workers Cultivators - Females": 469,
      "Marginal Workers Other - Persons": 5361,
      "Sex Ratio": 962,
      "Scheduled Tribe Persons": 58842,
      "Marginal Workers Household Industry worked for 3 - 6 moths during last year - Males": 176,
      "Marginal Workers Agricultural Labourers - Females": 3778,
      "Mean age at marriage for girls DLHS-4": "Not available",
      "Households with solar energy as main source of lighting  Houselisting and Housing Census Data Tables- District Level , Census of India__4": 26,
      "District": "DOHAD",
      "Households receiving treated tap water within premises in percentage Houselisting and Housing Census Data Tables- District Level , Census of India__1": 50.49462366,
      "Total Workers  Persons": 64778,
      "Households receiving treated tap water within premises  Houselisting and Housing Census Data Tables- District Level , Census of India__4": 17610,
      "Primary Female Teachers in percentage DISE": "NA",
      "Number of Households": 35570,
      "Main Workers Agricultural Labourers - Persons": 2685
    }
  ]
}