{
  "Total": [
    {
      "Marginal Workers Agricultural Labourers - Persons": 68530,
      "Marginal Workers Other - Females": 17205,
      "Marginal Workers Other worked for 0 - 3 moths during last year - Females": 1884,
      "Upper Primary Schools with boys toilet in percentage DISE": 100,
      "Total Population": 1343734,
      "Households with electricity as main source of lighting in percentage Houselisting and Housing Census Data Tables- District Level , Census of India": 83.00355904,
      "Primary Girl's Enrolment in percentage DISE": 45.4,
      "Marginal Workers worked for 3 - 6 moths during last year - Males": 25484,
      "Prevalence of Acute illness in percentage DLHS-4": "Not available",
      "Main Workers - Persons": 446240,
      "Main Workers Cultivators - Females": 12650,
      "Marginal Workers Agricultural Labourers worked for 3 - 6 moths during last year - Females": 48872,
      "Marginal Workers Other worked for 0 - 3 moths during last year - Males": 1632,
      "Upper Primary Schools with drinking water facility in percentage DISE": 100,
      "Primary Schools with girls toilet in percentage DISE": 99,
      "Marginal Workers worked for 3 - 6 moths during last year - Persons": 97700,
      "Upper Primary Drop Out Rate in percentage DISE": 5.45,
      "Prevalence of Anaemia in pregnant women aged 15-49years in percentage DLHS-4": "Not available",
      "Current use of any modern method of family planning in percentage DLHS-4": "Not available",
      "Marginal Workers Agricultural Labourers - Males": 15379,
      "Upper Primary Female Teachers in percentage DISE": 53.6,
      "Marginal Workers - Females": 79331,
      "Marginal Workers Other worked for 3 - 6 moths during last year - Persons": 24199,
      "Main Workers Agricultural Labourers - Females": 47180,
      "Marginal Workers Cultivators worked for 3 - 6 moths during last year - Females": 7135,
      "Households with no lighting  Houselisting and Housing Census Data Tables- District Level , Census of India__5": 3573,
      "Prevalence of Severe Anaemia  in percentage DLHS-4": "Not available",
      "Total unmet need for family planning in percentage DLHS-4": "Not available",
      "Main Workers Other - Males": 126094,
      "Children who received full vaccination in percentage DLHS-4": "Not available",
      "Marginal Workers Household Industry - Persons": 1854,
      "Primary Pupil-Teacher Ratio in percentage DISE": 24,
      "Marginal Workers Agricultural Labourers worked for 3 - 6 moths during last year - Males": 13742,
      "Scheduled Caste Females": 59218,
      "Marginal Workers Cultivators - Males": 2558,
      "Marginal Workers - Males": 29259,
      "Marginal Workers worked for 0 - 3 moths during last year - Females": 7115,
      "Households with main source of drinking water within premises in percentage Houselisting and Housing Census Data Tables- District Level , Census of India": 67.84421972,
      "Marginal Workers Household Industry worked for 3 - 6 moths during last year - Persons": 1623,
      "Upper Primary Girl's Enrolment in percentage DISE": 29.7,
      "Prevalence of Severe Anaemia in women aged 15-49years in percentage DLHS-4": "Not available",
      "Marginal Workers Agricultural Labourers worked for 0 - 3 moths during last year - Males": 1637,
      "Households with electricity as main source of lighting  Houselisting and Housing Census Data Tables- District Level , Census of India__3": 223424,
      "Households with computer or laptop with internet connection in percentage": 0.83,
      "PHCs functioning on a 24x7hours basis in percentage DLHS-4": "Not available",
      "Non Workers - Males": 311323,
      "Total Households in District Houselisting and Housing Census Data Tables- District Level , Census of India": 269174,
      "Upper Primary Schools with girls toilet in percentage DISE": 100,
      "Households with mobile phone in percentage": 58.72,
      "Households receiving untreated tap water within premises in percentage Houselisting and Housing Census Data Tables- District Level , Census of India__2": 45.11839925,
      "Marginal Workers Cultivators worked for 3 - 6 moths during last year - Males": 2129,
      "Prevalence of Anaemia  in percentage DLHS-4": "Not available",
      "Prevalence of Chronic illness in percentage DLHS-4": "Not available",
      "Households with solar energy as main source of lighting in percentage Houselisting and Housing Census Data Tables- District Level , Census of India__1": 0.121854265,
      "Marginal Workers Agricultural Labourers worked for 0 - 3 moths during last year - Females": 4279,
      "Main Workers - Males": 353815,
      "Female": 61.05,
      "Sno": 497,
      "Marginal Workers Other worked for 3 - 6 moths during last year - Females": 15321,
      "Marginal Workers Cultivators worked for 0 - 3 moths during last year - Females": 798,
      "Scheduled Tribe Males": 6835,
      "Male Illiterates": 199766,
      "Prevalence of Severe Anaemia in pregnant women aged 15-49years in percentage DLHS-4": "Not available",
      "0-6 Age Group Persons": 184779,
      "Upper Primary Student-Classroom Ratio in percentage DISE": 29,
      "Currently married men married below 21years of age in percentage DLHS-4": "Not available",
      "Male Literates": 494631,
      "Households with no lighting in percentage Houselisting and Housing Census Data Tables- District Level , Census of India__2": 1.327394176,
      "Primary Drop Out Rate in percentage DISE": 0.7,
      "Marginal Workers Household Industry - Males": 812,
      "Female Illiterates": 306055,
      "Main Workers Other - Females": 30959,
      "Marginal Workers Cultivators - Persons": 10491,
      "Upper Primary Gross Enrolment Ratio in percentage DISE": 91.4,
      "Scheduled Caste Persons": 123408,
      "Marginal Workers Cultivators worked for 3 - 6 moths during last year - Persons": 9264,
      "Households with landline phone in percentage": 2.87,
      "Total Households in District  Houselisting and Housing Census Data Tables- District Level , Census of India": 269174,
      "Upper Primary Pupil-Teacher Ratio in percentage DISE": 33,
      "Primary Student-Classroom Ratio in percentage DISE": 23,
      "Primary Schools with boys toilet in percentage DISE": 97.5,
      "Mean number of children ever born to women aged 40-49years  DLHS-4": "Not available",
      "Households receiving untreated tap water within premises  Houselisting and Housing Census Data Tables- District Level , Census of India__5": 121447,
      "Marginal Workers Household Industry worked for 0 - 3 moths during last year - Persons": 231,
      "Total Male Population": 694397,
      "Non Workers - Females": 477581,
      "Current use of family planning methods in percentage DLHS-4": "Not available",
      "Households with main source of drinking water within premises  Houselisting and Housing Census Data Tables- District Level , Census of India__3": 182619,
      "Main Workers Agricultural Labourers - Males": 111370,
      "Marginal Workers Other worked for 0 - 3 moths during last year - Persons": 3516,
      "Currently married women married below 18years of age in percentage DLHS-4": "Not available",
      "Person Illiterates": 505821,
      "Main Workers Household Industry - Females": 1636,
      "Female Literates": 343282,
      "Marginal Workers Cultivators worked for 0 - 3 moths during last year - Males": 429,
      "Male": 82.9,
      "Households with improved source of drinking water in percentage DLHS-4": "Not available",
      "Upper Primary Schools with electricity in percentage DISE": 100,
      "Households with electricity in percentage DLHS-4": "Not available",
      "Villages with Primary Health Centre within 10km in percentage DLHS-4": "Not available",
      "Births to women aged 15-19years out of Total births in percentage DLHS-4": "Not available",
      "Prevalence of Anaemia in women aged 15-49years in percentage DLHS-4": "Not available",
      "Marginal Workers Agricultural Labourers worked for 3 - 6 moths during last year - Persons": 62614,
      "Main Workers Household Industry - Males": 2902,
      "Scheduled Tribe Females": 6468,
      "Marginal Workers worked for 0 - 3 moths during last year - Males": 3775,
      "Marginal Workers Other worked for 3 - 6 moths during last year - Males": 8878,
      "Primary Net Enrolment Ratio in percentage DISE": 83.6,
      "Total": 72.3,
      "Mean age at marriage for boys DLHS-4": "Not available",
      "Number of District Hospitals  DLHS-4": "Not available",
      "0-6 Age Group Females": 87017,
      "Marginal Workers Agricultural Labourers worked for 0 - 3 moths during last year - Persons": 5916,
      "Marginal Workers Household Industry worked for 0 - 3 moths during last year - Males": 77,
      "Total Workers  Females": 171756,
      "Marginal Workers worked for 3 - 6 moths during last year - Females": 72216,
      "Institutional Deliveries in percentage DLHS-4": "Not available",
      "Marginal Workers Other - Males": 10510,
      "Total Workers  Males": 383074,
      "Main Workers - Females": 92425,
      "Primary Gross Enrolment Ratio in percentage DISE": 104.3,
      "Main Workers Cultivators - Persons": 126099,
      "Marginal Workers Household Industry worked for 0 - 3 moths during last year - Females": 154,
      "Upper Primary Net Enrolment Ratio in percentage DISE": 66.4,
      "Primary New Government Schools since 2003 in percentage DISE": 27.7,
      "Tier": "Total",
      "Marginal Workers Household Industry - Females": 1042,
      "Primary Schools with electricity in percentage DISE": 100,
      "Main Workers Other - Persons": 157053,
      "Marginal Workers Household Industry worked for 3 - 6 moths during last year - Females": 888,
      "Main Workers Cultivators - Males": 113449,
      "Main Workers Household Industry - Persons": 4538,
      "Marginal Workers Cultivators worked for 0 - 3 moths during last year - Persons": 1227,
      "Scheduled Caste Males": 64190,
      "Marginal Workers - Persons": 108590,
      "Deliveries at home conducted by skilled health personnel in percentage DLHS-4": "Not available",
      "Villages with Sub-Health Centres within 3km in percentage DLHS-4": "Not available",
      "Upper Primary New Government Schools since 2003 in percentage DISE": 0,
      "0-6 Age Group Males": 97762,
      "Primary Schools with drinking water facility in percentage DISE": 100,
      "Non Workers - Persons": 788904,
      "Person Literates": 837913,
      "State": "GUJRAT",
      "Total Female Population": 649337,
      "Marginal Workers worked for 0 - 3 moths during last year - Persons": 10890,
      "Marginal Workers Cultivators - Females": 7933,
      "Marginal Workers Other - Persons": 27715,
      "Sex Ratio": 935,
      "Scheduled Tribe Persons": 13303,
      "Marginal Workers Household Industry worked for 3 - 6 moths during last year - Males": 735,
      "Marginal Workers Agricultural Labourers - Females": 53151,
      "Mean age at marriage for girls DLHS-4": "Not available",
      "Households with solar energy as main source of lighting  Houselisting and Housing Census Data Tables- District Level , Census of India__4": 328,
      "District": "PATAN",
      "Households receiving treated tap water within premises in percentage Houselisting and Housing Census Data Tables- District Level , Census of India__1": 19.35959639,
      "Total Workers  Persons": 554830,
      "Households receiving treated tap water within premises  Houselisting and Housing Census Data Tables- District Level , Census of India__4": 52111,
      "Primary Female Teachers in percentage DISE": 48.1,
      "Number of Households": 267633,
      "Main Workers Agricultural Labourers - Persons": 158550
    }
  ],
  "Rural": [
    {
      "Marginal Workers Agricultural Labourers - Persons": 66801,
      "Marginal Workers Other - Females": 15003,
      "Marginal Workers Other worked for 0 - 3 moths during last year - Females": 1555,
      "Upper Primary Schools with boys toilet in percentage DISE": "NA",
      "Total Population": 1062653,
      "Households with electricity as main source of lighting in percentage Houselisting and Housing Census Data Tables- District Level , Census of India": 79.72582185,
      "Primary Girl's Enrolment in percentage DISE": "NA",
      "Marginal Workers worked for 3 - 6 moths during last year - Males": 20879,
      "Prevalence of Acute illness in percentage DLHS-4": "Not available",
      "Main Workers - Persons": 362912,
      "Main Workers Cultivators - Females": 12402,
      "Marginal Workers Agricultural Labourers worked for 3 - 6 moths during last year - Females": 47721,
      "Marginal Workers Other worked for 0 - 3 moths during last year - Males": 828,
      "Upper Primary Schools with drinking water facility in percentage DISE": "NA",
      "Primary Schools with girls toilet in percentage DISE": "NA",
      "Marginal Workers worked for 3 - 6 moths during last year - Persons": 89797,
      "Upper Primary Drop Out Rate in percentage DISE": "NA",
      "Prevalence of Anaemia in pregnant women aged 15-49years in percentage DLHS-4": "Not available",
      "Current use of any modern method of family planning in percentage DLHS-4": "Not available",
      "Marginal Workers Agricultural Labourers - Males": 14961,
      "Upper Primary Female Teachers in percentage DISE": "NA",
      "Marginal Workers - Females": 75476,
      "Marginal Workers Other worked for 3 - 6 moths during last year - Persons": 18234,
      "Main Workers Agricultural Labourers - Females": 45764,
      "Marginal Workers Cultivators worked for 3 - 6 moths during last year - Females": 7074,
      "Households with no lighting  Houselisting and Housing Census Data Tables- District Level , Census of India__5": 3169,
      "Prevalence of Severe Anaemia  in percentage DLHS-4": "Not available",
      "Total unmet need for family planning in percentage DLHS-4": "Not available",
      "Main Workers Other - Males": 62094,
      "Children who received full vaccination in percentage DLHS-4": "Not available",
      "Marginal Workers Household Industry - Persons": 1433,
      "Primary Pupil-Teacher Ratio in percentage DISE": "NA",
      "Marginal Workers Agricultural Labourers worked for 3 - 6 moths during last year - Males": 13424,
      "Scheduled Caste Females": 46553,
      "Marginal Workers Cultivators - Males": 2476,
      "Marginal Workers - Males": 23721,
      "Marginal Workers worked for 0 - 3 moths during last year - Females": 6558,
      "Households with main source of drinking water within premises in percentage Houselisting and Housing Census Data Tables- District Level , Census of India": 62.66495088,
      "Marginal Workers Household Industry worked for 3 - 6 moths during last year - Persons": 1293,
      "Upper Primary Girl's Enrolment in percentage DISE": "NA",
      "Prevalence of Severe Anaemia in women aged 15-49years in percentage DLHS-4": "Not available",
      "Marginal Workers Agricultural Labourers worked for 0 - 3 moths during last year - Males": 1537,
      "Households with electricity as main source of lighting  Houselisting and Housing Census Data Tables- District Level , Census of India__3": 167897,
      "Households with computer or laptop with internet connection in percentage": 0.35,
      "PHCs functioning on a 24x7hours basis in percentage DLHS-4": "Not applicable",
      "Non Workers - Males": 243617,
      "Total Households in District Houselisting and Housing Census Data Tables- District Level , Census of India": 210593,
      "Upper Primary Schools with girls toilet in percentage DISE": "NA",
      "Households with mobile phone in percentage": 56.99,
      "Households receiving untreated tap water within premises in percentage Houselisting and Housing Census Data Tables- District Level , Census of India__2": 44.628264,
      "Marginal Workers Cultivators worked for 3 - 6 moths during last year - Males": 2051,
      "Prevalence of Anaemia  in percentage DLHS-4": "Not available",
      "Prevalence of Chronic illness in percentage DLHS-4": "Not available",
      "Households with solar energy as main source of lighting in percentage Houselisting and Housing Census Data Tables- District Level , Census of India__1": 0.15052732,
      "Marginal Workers Agricultural Labourers worked for 0 - 3 moths during last year - Females": 4119,
      "Main Workers - Males": 280986,
      "Female": "NA",
      "Sno": 496,
      "Marginal Workers Other worked for 3 - 6 moths during last year - Females": 13448,
      "Marginal Workers Cultivators worked for 0 - 3 moths during last year - Females": 796,
      "Scheduled Tribe Males": 3189,
      "Male Illiterates": 169754,
      "Prevalence of Severe Anaemia in pregnant women aged 15-49years in percentage DLHS-4": "Not available",
      "0-6 Age Group Persons": 153011,
      "Upper Primary Student-Classroom Ratio in percentage DISE": "NA",
      "Currently married men married below 21years of age in percentage DLHS-4": "Not available",
      "Male Literates": 378570,
      "Households with no lighting in percentage Houselisting and Housing Census Data Tables- District Level , Census of India__2": 1.504798355,
      "Primary Drop Out Rate in percentage DISE": "NA",
      "Marginal Workers Household Industry - Males": 670,
      "Female Illiterates": 262282,
      "Main Workers Other - Females": 22822,
      "Marginal Workers Cultivators - Persons": 10346,
      "Upper Primary Gross Enrolment Ratio in percentage DISE": "NA",
      "Scheduled Caste Persons": 96923,
      "Marginal Workers Cultivators worked for 3 - 6 moths during last year - Persons": 9125,
      "Households with landline phone in percentage": 2.63,
      "Total Households in District  Houselisting and Housing Census Data Tables- District Level , Census of India": 210593,
      "Upper Primary Pupil-Teacher Ratio in percentage DISE": "NA",
      "Primary Student-Classroom Ratio in percentage DISE": "NA",
      "Primary Schools with boys toilet in percentage DISE": "NA",
      "Mean number of children ever born to women aged 40-49years  DLHS-4": "Not available",
      "Households receiving untreated tap water within premises  Houselisting and Housing Census Data Tables- District Level , Census of India__5": 93984,
      "Marginal Workers Household Industry worked for 0 - 3 moths during last year - Persons": 140,
      "Total Male Population": 548324,
      "Non Workers - Females": 356927,
      "Current use of family planning methods in percentage DLHS-4": "Not available",
      "Households with main source of drinking water within premises  Houselisting and Housing Census Data Tables- District Level , Census of India__3": 131968,
      "Main Workers Agricultural Labourers - Males": 106720,
      "Marginal Workers Other worked for 0 - 3 moths during last year - Persons": 2383,
      "Currently married women married below 18years of age in percentage DLHS-4": "Not available",
      "Person Illiterates": 432036,
      "Main Workers Household Industry - Females": 938,
      "Female Literates": 252047,
      "Marginal Workers Cultivators worked for 0 - 3 moths during last year - Males": 425,
      "Male": "NA",
      "Households with improved source of drinking water in percentage DLHS-4": "Not available",
      "Upper Primary Schools with electricity in percentage DISE": "NA",
      "Households with electricity in percentage DLHS-4": "Not available",
      "Villages with Primary Health Centre within 10km in percentage DLHS-4": "Not applicable",
      "Births to women aged 15-19years out of Total births in percentage DLHS-4": "Not available",
      "Prevalence of Anaemia in women aged 15-49years in percentage DLHS-4": "Not available",
      "Marginal Workers Agricultural Labourers worked for 3 - 6 moths during last year - Persons": 61145,
      "Main Workers Household Industry - Males": 1966,
      "Scheduled Tribe Females": 2993,
      "Marginal Workers worked for 0 - 3 moths during last year - Males": 2842,
      "Marginal Workers Other worked for 3 - 6 moths during last year - Males": 4786,
      "Primary Net Enrolment Ratio in percentage DISE": "NA",
      "Total": "NA",
      "Mean age at marriage for boys DLHS-4": "Not available",
      "Number of District Hospitals  DLHS-4": "Not applicable",
      "0-6 Age Group Females": 72306,
      "Marginal Workers Agricultural Labourers worked for 0 - 3 moths during last year - Persons": 5656,
      "Marginal Workers Household Industry worked for 0 - 3 moths during last year - Males": 52,
      "Total Workers  Females": 157402,
      "Marginal Workers worked for 3 - 6 moths during last year - Females": 68918,
      "Institutional Deliveries in percentage DLHS-4": "Not available",
      "Marginal Workers Other - Males": 5614,
      "Total Workers  Males": 304707,
      "Main Workers - Females": 81926,
      "Primary Gross Enrolment Ratio in percentage DISE": "NA",
      "Main Workers Cultivators - Persons": 122608,
      "Marginal Workers Household Industry worked for 0 - 3 moths during last year - Females": 88,
      "Upper Primary Net Enrolment Ratio in percentage DISE": "NA",
      "Primary New Government Schools since 2003 in percentage DISE": "NA",
      "Tier": "Rural",
      "Marginal Workers Household Industry - Females": 763,
      "Primary Schools with electricity in percentage DISE": "NA",
      "Main Workers Other - Persons": 84916,
      "Marginal Workers Household Industry worked for 3 - 6 moths during last year - Females": 675,
      "Main Workers Cultivators - Males": 110206,
      "Main Workers Household Industry - Persons": 2904,
      "Marginal Workers Cultivators worked for 0 - 3 moths during last year - Persons": 1221,
      "Scheduled Caste Males": 50370,
      "Marginal Workers - Persons": 99197,
      "Deliveries at home conducted by skilled health personnel in percentage DLHS-4": "Not available",
      "Villages with Sub-Health Centres within 3km in percentage DLHS-4": "Not applicable",
      "Upper Primary New Government Schools since 2003 in percentage DISE": "NA",
      "0-6 Age Group Males": 80705,
      "Primary Schools with drinking water facility in percentage DISE": "NA",
      "Non Workers - Persons": 600544,
      "Person Literates": 630617,
      "State": "GUJRAT",
      "Total Female Population": 514329,
      "Marginal Workers worked for 0 - 3 moths during last year - Persons": 9400,
      "Marginal Workers Cultivators - Females": 7870,
      "Marginal Workers Other - Persons": 20617,
      "Sex Ratio": 938,
      "Scheduled Tribe Persons": 6182,
      "Marginal Workers Household Industry worked for 3 - 6 moths during last year - Males": 618,
      "Marginal Workers Agricultural Labourers - Females": 51840,
      "Mean age at marriage for girls DLHS-4": "Not available",
      "Households with solar energy as main source of lighting  Houselisting and Housing Census Data Tables- District Level , Census of India__4": 317,
      "District": "PATAN",
      "Households receiving treated tap water within premises in percentage Houselisting and Housing Census Data Tables- District Level , Census of India__1": 14.10160832,
      "Total Workers  Persons": 462109,
      "Households receiving treated tap water within premises  Houselisting and Housing Census Data Tables- District Level , Census of India__4": 29697,
      "Primary Female Teachers in percentage DISE": "NA",
      "Number of Households": 209082,
      "Main Workers Agricultural Labourers - Persons": 152484
    }
  ],
  "Urban": [
    {
      "Marginal Workers Agricultural Labourers - Persons": 1729,
      "Marginal Workers Other - Females": 2202,
      "Marginal Workers Other worked for 0 - 3 moths during last year - Females": 329,
      "Upper Primary Schools with boys toilet in percentage DISE": "NA",
      "Total Population": 281081,
      "Households with electricity as main source of lighting in percentage Houselisting and Housing Census Data Tables- District Level , Census of India": 94.78670559,
      "Primary Girl's Enrolment in percentage DISE": "NA",
      "Marginal Workers worked for 3 - 6 moths during last year - Males": 4605,
      "Prevalence of Acute illness in percentage DLHS-4": "Not available",
      "Main Workers - Persons": 83328,
      "Main Workers Cultivators - Females": 248,
      "Marginal Workers Agricultural Labourers worked for 3 - 6 moths during last year - Females": 1151,
      "Marginal Workers Other worked for 0 - 3 moths during last year - Males": 804,
      "Upper Primary Schools with drinking water facility in percentage DISE": "NA",
      "Primary Schools with girls toilet in percentage DISE": "NA",
      "Marginal Workers worked for 3 - 6 moths during last year - Persons": 7903,
      "Upper Primary Drop Out Rate in percentage DISE": "NA",
      "Prevalence of Anaemia in pregnant women aged 15-49years in percentage DLHS-4": "Not available",
      "Current use of any modern method of family planning in percentage DLHS-4": "Not available",
      "Marginal Workers Agricultural Labourers - Males": 418,
      "Upper Primary Female Teachers in percentage DISE": "NA",
      "Marginal Workers - Females": 3855,
      "Marginal Workers Other worked for 3 - 6 moths during last year - Persons": 5965,
      "Main Workers Agricultural Labourers - Females": 1416,
      "Marginal Workers Cultivators worked for 3 - 6 moths during last year - Females": 61,
      "Households with no lighting  Houselisting and Housing Census Data Tables- District Level , Census of India__5": 404,
      "Prevalence of Severe Anaemia  in percentage DLHS-4": "Not available",
      "Total unmet need for family planning in percentage DLHS-4": "Not available",
      "Main Workers Other - Males": 64000,
      "Children who received full vaccination in percentage DLHS-4": "Not available",
      "Marginal Workers Household Industry - Persons": 421,
      "Primary Pupil-Teacher Ratio in percentage DISE": "NA",
      "Marginal Workers Agricultural Labourers worked for 3 - 6 moths during last year - Males": 318,
      "Scheduled Caste Females": 12665,
      "Marginal Workers Cultivators - Males": 82,
      "Marginal Workers - Males": 5538,
      "Marginal Workers worked for 0 - 3 moths during last year - Females": 557,
      "Households with main source of drinking water within premises in percentage Houselisting and Housing Census Data Tables- District Level , Census of India": 86.46318772,
      "Marginal Workers Household Industry worked for 3 - 6 moths during last year - Persons": 330,
      "Upper Primary Girl's Enrolment in percentage DISE": "NA",
      "Prevalence of Severe Anaemia in women aged 15-49years in percentage DLHS-4": "Not available",
      "Marginal Workers Agricultural Labourers worked for 0 - 3 moths during last year - Males": 100,
      "Households with electricity as main source of lighting  Houselisting and Housing Census Data Tables- District Level , Census of India__3": 55527,
      "Households with computer or laptop with internet connection in percentage": 2.56,
      "PHCs functioning on a 24x7hours basis in percentage DLHS-4": 0,
      "Non Workers - Males": 67706,
      "Total Households in District Houselisting and Housing Census Data Tables- District Level , Census of India": 58581,
      "Upper Primary Schools with girls toilet in percentage DISE": "NA",
      "Households with mobile phone in percentage": 64.93,
      "Households receiving untreated tap water within premises in percentage Houselisting and Housing Census Data Tables- District Level , Census of India__2": 46.88038784,
      "Marginal Workers Cultivators worked for 3 - 6 moths during last year - Males": 78,
      "Prevalence of Anaemia  in percentage DLHS-4": "Not available",
      "Prevalence of Chronic illness in percentage DLHS-4": "Not available",
      "Households with solar energy as main source of lighting in percentage Houselisting and Housing Census Data Tables- District Level , Census of India__1": 0.0188,
      "Marginal Workers Agricultural Labourers worked for 0 - 3 moths during last year - Females": 160,
      "Main Workers - Males": 72829,
      "Female": "NA",
      "Sno": 498,
      "Marginal Workers Other worked for 3 - 6 moths during last year - Females": 1873,
      "Marginal Workers Cultivators worked for 0 - 3 moths during last year - Females": 2,
      "Scheduled Tribe Males": 3646,
      "Male Illiterates": 30012,
      "Prevalence of Severe Anaemia in pregnant women aged 15-49years in percentage DLHS-4": "Not available",
      "0-6 Age Group Persons": 31768,
      "Upper Primary Student-Classroom Ratio in percentage DISE": "NA",
      "Currently married men married below 21years of age in percentage DLHS-4": "Not available",
      "Male Literates": 116061,
      "Households with no lighting in percentage Houselisting and Housing Census Data Tables- District Level , Census of India__2": 0.6896434,
      "Primary Drop Out Rate in percentage DISE": "NA",
      "Marginal Workers Household Industry - Males": 142,
      "Female Illiterates": 43773,
      "Main Workers Other - Females": 8137,
      "Marginal Workers Cultivators - Persons": 145,
      "Upper Primary Gross Enrolment Ratio in percentage DISE": "NA",
      "Scheduled Caste Persons": 26485,
      "Marginal Workers Cultivators worked for 3 - 6 moths during last year - Persons": 139,
      "Households with landline phone in percentage": 3.74,
      "Total Households in District  Houselisting and Housing Census Data Tables- District Level , Census of India": 58581,
      "Upper Primary Pupil-Teacher Ratio in percentage DISE": "NA",
      "Primary Student-Classroom Ratio in percentage DISE": "NA",
      "Primary Schools with boys toilet in percentage DISE": "NA",
      "Mean number of children ever born to women aged 40-49years  DLHS-4": "Not available",
      "Households receiving untreated tap water within premises  Houselisting and Housing Census Data Tables- District Level , Census of India__5": 27463,
      "Marginal Workers Household Industry worked for 0 - 3 moths during last year - Persons": 91,
      "Total Male Population": 146073,
      "Non Workers - Females": 120654,
      "Current use of family planning methods in percentage DLHS-4": "Not available",
      "Households with main source of drinking water within premises  Houselisting and Housing Census Data Tables- District Level , Census of India__3": 50651,
      "Main Workers Agricultural Labourers - Males": 4650,
      "Marginal Workers Other worked for 0 - 3 moths during last year - Persons": 1133,
      "Currently married women married below 18years of age in percentage DLHS-4": "Not available",
      "Person Illiterates": 73785,
      "Main Workers Household Industry - Females": 698,
      "Female Literates": 91235,
      "Marginal Workers Cultivators worked for 0 - 3 moths during last year - Males": 4,
      "Male": "NA",
      "Households with improved source of drinking water in percentage DLHS-4": "Not available",
      "Upper Primary Schools with electricity in percentage DISE": "NA",
      "Households with electricity in percentage DLHS-4": "Not available",
      "Villages with Primary Health Centre within 10km in percentage DLHS-4": 0,
      "Births to women aged 15-19years out of Total births in percentage DLHS-4": "Not available",
      "Prevalence of Anaemia in women aged 15-49years in percentage DLHS-4": "Not available",
      "Marginal Workers Agricultural Labourers worked for 3 - 6 moths during last year - Persons": 1469,
      "Main Workers Household Industry - Males": 936,
      "Scheduled Tribe Females": 3475,
      "Marginal Workers worked for 0 - 3 moths during last year - Males": 933,
      "Marginal Workers Other worked for 3 - 6 moths during last year - Males": 4092,
      "Primary Net Enrolment Ratio in percentage DISE": "NA",
      "Total": "NA",
      "Mean age at marriage for boys DLHS-4": "Not available",
      "Number of District Hospitals  DLHS-4": 0,
      "0-6 Age Group Females": 14711,
      "Marginal Workers Agricultural Labourers worked for 0 - 3 moths during last year - Persons": 260,
      "Marginal Workers Household Industry worked for 0 - 3 moths during last year - Males": 25,
      "Total Workers  Females": 14354,
      "Marginal Workers worked for 3 - 6 moths during last year - Females": 3298,
      "Institutional Deliveries in percentage DLHS-4": "Not available",
      "Marginal Workers Other - Males": 4896,
      "Total Workers  Males": 78367,
      "Main Workers - Females": 10499,
      "Primary Gross Enrolment Ratio in percentage DISE": "NA",
      "Main Workers Cultivators - Persons": 3491,
      "Marginal Workers Household Industry worked for 0 - 3 moths during last year - Females": 66,
      "Upper Primary Net Enrolment Ratio in percentage DISE": "NA",
      "Primary New Government Schools since 2003 in percentage DISE": "NA",
      "Tier": "Urban",
      "Marginal Workers Household Industry - Females": 279,
      "Primary Schools with electricity in percentage DISE": "NA",
      "Main Workers Other - Persons": 72137,
      "Marginal Workers Household Industry worked for 3 - 6 moths during last year - Females": 213,
      "Main Workers Cultivators - Males": 3243,
      "Main Workers Household Industry - Persons": 1634,
      "Marginal Workers Cultivators worked for 0 - 3 moths during last year - Persons": 6,
      "Scheduled Caste Males": 13820,
      "Marginal Workers - Persons": 9393,
      "Deliveries at home conducted by skilled health personnel in percentage DLHS-4": "Not available",
      "Villages with Sub-Health Centres within 3km in percentage DLHS-4": 0,
      "Upper Primary New Government Schools since 2003 in percentage DISE": "NA",
      "0-6 Age Group Males": 17057,
      "Primary Schools with drinking water facility in percentage DISE": "NA",
      "Non Workers - Persons": 188360,
      "Person Literates": 207296,
      "State": "GUJRAT",
      "Total Female Population": 135008,
      "Marginal Workers worked for 0 - 3 moths during last year - Persons": 1490,
      "Marginal Workers Cultivators - Females": 63,
      "Marginal Workers Other - Persons": 7098,
      "Sex Ratio": 924,
      "Scheduled Tribe Persons": 7121,
      "Marginal Workers Household Industry worked for 3 - 6 moths during last year - Males": 117,
      "Marginal Workers Agricultural Labourers - Females": 1311,
      "Mean age at marriage for girls DLHS-4": "Not available",
      "Households with solar energy as main source of lighting  Houselisting and Housing Census Data Tables- District Level , Census of India__4": 11,
      "District": "PATAN",
      "Households receiving treated tap water within premises in percentage Houselisting and Housing Census Data Tables- District Level , Census of India__1": 38.26155238,
      "Total Workers  Persons": 92721,
      "Households receiving treated tap water within premises  Houselisting and Housing Census Data Tables- District Level , Census of India__4": 22414,
      "Primary Female Teachers in percentage DISE": "NA",
      "Number of Households": 58551,
      "Main Workers Agricultural Labourers - Persons": 6066
    }
  ]
}