{
  "Total": [
    {
      "Marginal Workers Agricultural Labourers - Persons": 145578,
      "Marginal Workers Other - Females": 70448,
      "Marginal Workers Other worked for 0 - 3 moths during last year - Females": 5496,
      "Upper Primary Schools with boys toilet in percentage DISE": 100,
      "Total Population": 2428589,
      "Households with electricity as main source of lighting in percentage Houselisting and Housing Census Data Tables- District Level , Census of India": 91.66327062,
      "Primary Girl's Enrolment in percentage DISE": 48.2,
      "Marginal Workers worked for 3 - 6 moths during last year - Males": 68931,
      "Prevalence of Acute illness in percentage DLHS-4": "Not available",
      "Main Workers - Persons": 795096,
      "Main Workers Cultivators - Females": 31447,
      "Marginal Workers Agricultural Labourers worked for 3 - 6 moths during last year - Females": 85571,
      "Marginal Workers Other worked for 0 - 3 moths during last year - Males": 3370,
      "Upper Primary Schools with drinking water facility in percentage DISE": 100,
      "Primary Schools with girls toilet in percentage DISE": 99.6,
      "Marginal Workers worked for 3 - 6 moths during last year - Persons": 253382,
      "Upper Primary Drop Out Rate in percentage DISE": 5.11,
      "Prevalence of Anaemia in pregnant women aged 15-49years in percentage DLHS-4": "Not available",
      "Current use of any modern method of family planning in percentage DLHS-4": "Not available",
      "Marginal Workers Agricultural Labourers - Males": 45872,
      "Upper Primary Female Teachers in percentage DISE": 39.7,
      "Marginal Workers - Females": 207151,
      "Marginal Workers Other worked for 3 - 6 moths during last year - Persons": 84528,
      "Main Workers Agricultural Labourers - Females": 70455,
      "Marginal Workers Cultivators worked for 3 - 6 moths during last year - Females": 30842,
      "Households with no lighting  Houselisting and Housing Census Data Tables- District Level , Census of India__5": 6364,
      "Prevalence of Severe Anaemia  in percentage DLHS-4": "Not available",
      "Total unmet need for family planning in percentage DLHS-4": "Not available",
      "Main Workers Other - Males": 187474,
      "Children who received full vaccination in percentage DLHS-4": "Not available",
      "Marginal Workers Household Industry - Persons": 4507,
      "Primary Pupil-Teacher Ratio in percentage DISE": 21,
      "Marginal Workers Agricultural Labourers worked for 3 - 6 moths during last year - Males": 37606,
      "Scheduled Caste Females": 91158,
      "Marginal Workers Cultivators - Males": 12734,
      "Marginal Workers - Males": 82631,
      "Marginal Workers worked for 0 - 3 moths during last year - Females": 22700,
      "Households with main source of drinking water within premises in percentage Houselisting and Housing Census Data Tables- District Level , Census of India": 52.50712126,
      "Marginal Workers Household Industry worked for 3 - 6 moths during last year - Persons": 4005,
      "Upper Primary Girl's Enrolment in percentage DISE": 37.9,
      "Prevalence of Severe Anaemia in women aged 15-49years in percentage DLHS-4": "Not available",
      "Marginal Workers Agricultural Labourers worked for 0 - 3 moths during last year - Males": 8266,
      "Households with electricity as main source of lighting  Houselisting and Housing Census Data Tables- District Level , Census of India__3": 438606,
      "Households with computer or laptop with internet connection in percentage": 1.1,
      "PHCs functioning on a 24x7hours basis in percentage DLHS-4": "Not available",
      "Non Workers - Males": 562796,
      "Total Households in District Houselisting and Housing Census Data Tables- District Level , Census of India": 478497,
      "Upper Primary Schools with girls toilet in percentage DISE": 100,
      "Households with mobile phone in percentage": 45.21,
      "Households receiving untreated tap water within premises in percentage Houselisting and Housing Census Data Tables- District Level , Census of India__2": 37.0322071,
      "Marginal Workers Cultivators worked for 3 - 6 moths during last year - Males": 10830,
      "Prevalence of Anaemia  in percentage DLHS-4": "Not available",
      "Prevalence of Chronic illness in percentage DLHS-4": "Not available",
      "Households with solar energy as main source of lighting in percentage Houselisting and Housing Census Data Tables- District Level , Census of India__1": 0.055,
      "Marginal Workers Agricultural Labourers worked for 0 - 3 moths during last year - Females": 14135,
      "Main Workers - Males": 598804,
      "Female": 64.69,
      "Sno": 506,
      "Marginal Workers Other worked for 3 - 6 moths during last year - Females": 64952,
      "Marginal Workers Cultivators worked for 0 - 3 moths during last year - Females": 2727,
      "Scheduled Tribe Males": 272531,
      "Male Illiterates": 325606,
      "Prevalence of Severe Anaemia in pregnant women aged 15-49years in percentage DLHS-4": "Not available",
      "0-6 Age Group Persons": 345490,
      "Upper Primary Student-Classroom Ratio in percentage DISE": 34,
      "Currently married men married below 21years of age in percentage DLHS-4": "Not available",
      "Male Literates": 918625,
      "Households with no lighting in percentage Houselisting and Housing Census Data Tables- District Level , Census of India__2": 1.329997889,
      "Primary Drop Out Rate in percentage DISE": 2.6,
      "Marginal Workers Household Industry - Males": 1079,
      "Female Illiterates": 524249,
      "Main Workers Other - Females": 92523,
      "Marginal Workers Cultivators - Persons": 46303,
      "Upper Primary Gross Enrolment Ratio in percentage DISE": 88.7,
      "Scheduled Caste Persons": 187685,
      "Marginal Workers Cultivators worked for 3 - 6 moths during last year - Persons": 41672,
      "Households with landline phone in percentage": 3.24,
      "Total Households in District  Houselisting and Housing Census Data Tables- District Level , Census of India": 478497,
      "Upper Primary Pupil-Teacher Ratio in percentage DISE": 43,
      "Primary Student-Classroom Ratio in percentage DISE": 19,
      "Primary Schools with boys toilet in percentage DISE": 98.3,
      "Mean number of children ever born to women aged 40-49years  DLHS-4": "Not available",
      "Households receiving untreated tap water within premises  Houselisting and Housing Census Data Tables- District Level , Census of India__5": 177198,
      "Marginal Workers Household Industry worked for 0 - 3 moths during last year - Persons": 502,
      "Total Male Population": 1244231,
      "Non Workers - Females": 780915,
      "Current use of family planning methods in percentage DLHS-4": "Not available",
      "Households with main source of drinking water within premises  Houselisting and Housing Census Data Tables- District Level , Census of India__3": 251245,
      "Main Workers Agricultural Labourers - Males": 117834,
      "Marginal Workers Other worked for 0 - 3 moths during last year - Persons": 8866,
      "Currently married women married below 18years of age in percentage DLHS-4": "Not available",
      "Person Illiterates": 849855,
      "Main Workers Household Industry - Females": 1867,
      "Female Literates": 660109,
      "Marginal Workers Cultivators worked for 0 - 3 moths during last year - Males": 1904,
      "Male": 86.44,
      "Households with improved source of drinking water in percentage DLHS-4": "Not available",
      "Upper Primary Schools with electricity in percentage DISE": 100,
      "Households with electricity in percentage DLHS-4": "Not available",
      "Villages with Primary Health Centre within 10km in percentage DLHS-4": "Not available",
      "Births to women aged 15-19years out of Total births in percentage DLHS-4": "Not available",
      "Prevalence of Anaemia in women aged 15-49years in percentage DLHS-4": "Not available",
      "Marginal Workers Agricultural Labourers worked for 3 - 6 moths during last year - Persons": 123177,
      "Main Workers Household Industry - Males": 4535,
      "Scheduled Tribe Females": 269625,
      "Marginal Workers worked for 0 - 3 moths during last year - Males": 13700,
      "Marginal Workers Other worked for 3 - 6 moths during last year - Males": 19576,
      "Primary Net Enrolment Ratio in percentage DISE": 86,
      "Total": 75.79,
      "Mean age at marriage for boys DLHS-4": "Not available",
      "Number of District Hospitals  DLHS-4": "Not available",
      "0-6 Age Group Females": 163961,
      "Marginal Workers Agricultural Labourers worked for 0 - 3 moths during last year - Persons": 22401,
      "Marginal Workers Household Industry worked for 0 - 3 moths during last year - Males": 160,
      "Total Workers  Females": 403443,
      "Marginal Workers worked for 3 - 6 moths during last year - Females": 184451,
      "Institutional Deliveries in percentage DLHS-4": "Not available",
      "Marginal Workers Other - Males": 22946,
      "Total Workers  Males": 681435,
      "Main Workers - Females": 196292,
      "Primary Gross Enrolment Ratio in percentage DISE": 103.2,
      "Main Workers Cultivators - Persons": 320408,
      "Marginal Workers Household Industry worked for 0 - 3 moths during last year - Females": 342,
      "Upper Primary Net Enrolment Ratio in percentage DISE": 69.2,
      "Primary New Government Schools since 2003 in percentage DISE": 7.8,
      "Tier": "Total",
      "Marginal Workers Household Industry - Females": 3428,
      "Primary Schools with electricity in percentage DISE": 100,
      "Main Workers Other - Persons": 279997,
      "Marginal Workers Household Industry worked for 3 - 6 moths during last year - Females": 3086,
      "Main Workers Cultivators - Males": 288961,
      "Main Workers Household Industry - Persons": 6402,
      "Marginal Workers Cultivators worked for 0 - 3 moths during last year - Persons": 4631,
      "Scheduled Caste Males": 96527,
      "Marginal Workers - Persons": 289782,
      "Deliveries at home conducted by skilled health personnel in percentage DLHS-4": "Not available",
      "Villages with Sub-Health Centres within 3km in percentage DLHS-4": "Not available",
      "Upper Primary New Government Schools since 2003 in percentage DISE": 100,
      "0-6 Age Group Males": 181529,
      "Primary Schools with drinking water facility in percentage DISE": 100,
      "Non Workers - Persons": 1343711,
      "Person Literates": 1578734,
      "State": "GUJRAT",
      "Total Female Population": 1184358,
      "Marginal Workers worked for 0 - 3 moths during last year - Persons": 36400,
      "Marginal Workers Cultivators - Females": 33569,
      "Marginal Workers Other - Persons": 93394,
      "Sex Ratio": 952,
      "Scheduled Tribe Persons": 542156,
      "Marginal Workers Household Industry worked for 3 - 6 moths during last year - Males": 919,
      "Marginal Workers Agricultural Labourers - Females": 99706,
      "Mean age at marriage for girls DLHS-4": "Not available",
      "Households with solar energy as main source of lighting  Houselisting and Housing Census Data Tables- District Level , Census of India__4": 263,
      "District": "SABAR KANTHA",
      "Households receiving treated tap water within premises in percentage Houselisting and Housing Census Data Tables- District Level , Census of India__1": 9.431407093,
      "Total Workers  Persons": 1084878,
      "Households receiving treated tap water within premises  Houselisting and Housing Census Data Tables- District Level , Census of India__4": 45129,
      "Primary Female Teachers in percentage DISE": 52.9,
      "Number of Households": 481414,
      "Main Workers Agricultural Labourers - Persons": 188289
    }
  ],
  "Rural": [
    {
      "Marginal Workers Agricultural Labourers - Persons": 142556,
      "Marginal Workers Other - Females": 65062,
      "Marginal Workers Other worked for 0 - 3 moths during last year - Females": 4517,
      "Upper Primary Schools with boys toilet in percentage DISE": "NA",
      "Total Population": 2064869,
      "Households with electricity as main source of lighting in percentage Houselisting and Housing Census Data Tables- District Level , Census of India": 90.8894788,
      "Primary Girl's Enrolment in percentage DISE": "NA",
      "Marginal Workers worked for 3 - 6 moths during last year - Males": 61836,
      "Prevalence of Acute illness in percentage DLHS-4": "Not available",
      "Main Workers - Persons": 689778,
      "Main Workers Cultivators - Females": 30622,
      "Marginal Workers Agricultural Labourers worked for 3 - 6 moths during last year - Females": 83954,
      "Marginal Workers Other worked for 0 - 3 moths during last year - Males": 2208,
      "Upper Primary Schools with drinking water facility in percentage DISE": "NA",
      "Primary Schools with girls toilet in percentage DISE": "NA",
      "Marginal Workers worked for 3 - 6 moths during last year - Persons": 239506,
      "Upper Primary Drop Out Rate in percentage DISE": "NA",
      "Prevalence of Anaemia in pregnant women aged 15-49years in percentage DLHS-4": "Not available",
      "Current use of any modern method of family planning in percentage DLHS-4": "Not available",
      "Marginal Workers Agricultural Labourers - Males": 44692,
      "Upper Primary Female Teachers in percentage DISE": "NA",
      "Marginal Workers - Females": 199074,
      "Marginal Workers Other worked for 3 - 6 moths during last year - Persons": 74339,
      "Main Workers Agricultural Labourers - Females": 68553,
      "Marginal Workers Cultivators worked for 3 - 6 moths during last year - Females": 30490,
      "Households with no lighting  Houselisting and Housing Census Data Tables- District Level , Census of India__5": 5700,
      "Prevalence of Severe Anaemia  in percentage DLHS-4": "Not available",
      "Total unmet need for family planning in percentage DLHS-4": "Not available",
      "Main Workers Other - Males": 110219,
      "Children who received full vaccination in percentage DLHS-4": "Not available",
      "Marginal Workers Household Industry - Persons": 3817,
      "Primary Pupil-Teacher Ratio in percentage DISE": "NA",
      "Marginal Workers Agricultural Labourers worked for 3 - 6 moths during last year - Males": 36682,
      "Scheduled Caste Females": 77340,
      "Marginal Workers Cultivators - Males": 12499,
      "Marginal Workers - Males": 74058,
      "Marginal Workers worked for 0 - 3 moths during last year - Females": 21404,
      "Households with main source of drinking water within premises in percentage Houselisting and Housing Census Data Tables- District Level , Census of India": 47.80172339,
      "Marginal Workers Household Industry worked for 3 - 6 moths during last year - Persons": 3423,
      "Upper Primary Girl's Enrolment in percentage DISE": "NA",
      "Prevalence of Severe Anaemia in women aged 15-49years in percentage DLHS-4": "Not available",
      "Marginal Workers Agricultural Labourers worked for 0 - 3 moths during last year - Males": 8010,
      "Households with electricity as main source of lighting  Houselisting and Housing Census Data Tables- District Level , Census of India__3": 367378,
      "Households with computer or laptop with internet connection in percentage": 0.61,
      "PHCs functioning on a 24x7hours basis in percentage DLHS-4": "Not applicable",
      "Non Workers - Males": 471580,
      "Total Households in District Houselisting and Housing Census Data Tables- District Level , Census of India": 404203,
      "Upper Primary Schools with girls toilet in percentage DISE": "NA",
      "Households with mobile phone in percentage": 43.35,
      "Households receiving untreated tap water within premises in percentage Houselisting and Housing Census Data Tables- District Level , Census of India__2": 36.63777854,
      "Marginal Workers Cultivators worked for 3 - 6 moths during last year - Males": 10618,
      "Prevalence of Anaemia  in percentage DLHS-4": "Not available",
      "Prevalence of Chronic illness in percentage DLHS-4": "Not available",
      "Households with solar energy as main source of lighting in percentage Houselisting and Housing Census Data Tables- District Level , Census of India__1": 0.0492,
      "Marginal Workers Agricultural Labourers worked for 0 - 3 moths during last year - Females": 13910,
      "Main Workers - Males": 510503,
      "Female": "NA",
      "Sno": 505,
      "Marginal Workers Other worked for 3 - 6 moths during last year - Females": 60545,
      "Marginal Workers Cultivators worked for 0 - 3 moths during last year - Females": 2706,
      "Scheduled Tribe Males": 261131,
      "Male Illiterates": 287636,
      "Prevalence of Severe Anaemia in pregnant women aged 15-49years in percentage DLHS-4": "Not available",
      "0-6 Age Group Persons": 301867,
      "Upper Primary Student-Classroom Ratio in percentage DISE": "NA",
      "Currently married men married below 21years of age in percentage DLHS-4": "Not available",
      "Male Literates": 768505,
      "Households with no lighting in percentage Houselisting and Housing Census Data Tables- District Level , Census of India__2": 1.410182507,
      "Primary Drop Out Rate in percentage DISE": "NA",
      "Marginal Workers Household Industry - Males": 865,
      "Female Illiterates": 469244,
      "Main Workers Other - Females": 78678,
      "Marginal Workers Cultivators - Persons": 45695,
      "Upper Primary Gross Enrolment Ratio in percentage DISE": "NA",
      "Scheduled Caste Persons": 159214,
      "Marginal Workers Cultivators worked for 3 - 6 moths during last year - Persons": 41108,
      "Households with landline phone in percentage": 3.04,
      "Total Households in District  Houselisting and Housing Census Data Tables- District Level , Census of India": 404203,
      "Upper Primary Pupil-Teacher Ratio in percentage DISE": "NA",
      "Primary Student-Classroom Ratio in percentage DISE": "NA",
      "Primary Schools with boys toilet in percentage DISE": "NA",
      "Mean number of children ever born to women aged 40-49years  DLHS-4": "Not available",
      "Households receiving untreated tap water within premises  Houselisting and Housing Census Data Tables- District Level , Census of India__5": 148091,
      "Marginal Workers Household Industry worked for 0 - 3 moths during last year - Persons": 394,
      "Total Male Population": 1056141,
      "Non Workers - Females": 630379,
      "Current use of family planning methods in percentage DLHS-4": "Not available",
      "Households with main source of drinking water within premises  Houselisting and Housing Census Data Tables- District Level , Census of India__3": 193216,
      "Main Workers Agricultural Labourers - Males": 113377,
      "Marginal Workers Other worked for 0 - 3 moths during last year - Persons": 6725,
      "Currently married women married below 18years of age in percentage DLHS-4": "Not available",
      "Person Illiterates": 756880,
      "Main Workers Household Industry - Females": 1422,
      "Female Literates": 539484,
      "Marginal Workers Cultivators worked for 0 - 3 moths during last year - Males": 1881,
      "Male": "NA",
      "Households with improved source of drinking water in percentage DLHS-4": "Not available",
      "Upper Primary Schools with electricity in percentage DISE": "NA",
      "Households with electricity in percentage DLHS-4": "Not available",
      "Villages with Primary Health Centre within 10km in percentage DLHS-4": "Not applicable",
      "Births to women aged 15-19years out of Total births in percentage DLHS-4": "Not available",
      "Prevalence of Anaemia in women aged 15-49years in percentage DLHS-4": "Not available",
      "Marginal Workers Agricultural Labourers worked for 3 - 6 moths during last year - Persons": 120636,
      "Main Workers Household Industry - Males": 3498,
      "Scheduled Tribe Females": 259072,
      "Marginal Workers worked for 0 - 3 moths during last year - Males": 12222,
      "Marginal Workers Other worked for 3 - 6 moths during last year - Males": 13794,
      "Primary Net Enrolment Ratio in percentage DISE": "NA",
      "Total": "NA",
      "Mean age at marriage for boys DLHS-4": "Not available",
      "Number of District Hospitals  DLHS-4": "Not applicable",
      "0-6 Age Group Females": 143793,
      "Marginal Workers Agricultural Labourers worked for 0 - 3 moths during last year - Persons": 21920,
      "Marginal Workers Household Industry worked for 0 - 3 moths during last year - Males": 123,
      "Total Workers  Females": 378349,
      "Marginal Workers worked for 3 - 6 moths during last year - Females": 177670,
      "Institutional Deliveries in percentage DLHS-4": "Not available",
      "Marginal Workers Other - Males": 16002,
      "Total Workers  Males": 584561,
      "Main Workers - Females": 179275,
      "Primary Gross Enrolment Ratio in percentage DISE": "NA",
      "Main Workers Cultivators - Persons": 314031,
      "Marginal Workers Household Industry worked for 0 - 3 moths during last year - Females": 271,
      "Upper Primary Net Enrolment Ratio in percentage DISE": "NA",
      "Primary New Government Schools since 2003 in percentage DISE": "NA",
      "Tier": "Rural",
      "Marginal Workers Household Industry - Females": 2952,
      "Primary Schools with electricity in percentage DISE": "NA",
      "Main Workers Other - Persons": 188897,
      "Marginal Workers Household Industry worked for 3 - 6 moths during last year - Females": 2681,
      "Main Workers Cultivators - Males": 283409,
      "Main Workers Household Industry - Persons": 4920,
      "Marginal Workers Cultivators worked for 0 - 3 moths during last year - Persons": 4587,
      "Scheduled Caste Males": 81874,
      "Marginal Workers - Persons": 273132,
      "Deliveries at home conducted by skilled health personnel in percentage DLHS-4": "Not available",
      "Villages with Sub-Health Centres within 3km in percentage DLHS-4": "Not applicable",
      "Upper Primary New Government Schools since 2003 in percentage DISE": "NA",
      "0-6 Age Group Males": 158074,
      "Primary Schools with drinking water facility in percentage DISE": "NA",
      "Non Workers - Persons": 1101959,
      "Person Literates": 1307989,
      "State": "GUJRAT",
      "Total Female Population": 1008728,
      "Marginal Workers worked for 0 - 3 moths during last year - Persons": 33626,
      "Marginal Workers Cultivators - Females": 33196,
      "Marginal Workers Other - Persons": 81064,
      "Sex Ratio": 955,
      "Scheduled Tribe Persons": 520203,
      "Marginal Workers Household Industry worked for 3 - 6 moths during last year - Males": 742,
      "Marginal Workers Agricultural Labourers - Females": 97864,
      "Mean age at marriage for girls DLHS-4": "Not available",
      "Households with solar energy as main source of lighting  Houselisting and Housing Census Data Tables- District Level , Census of India__4": 199,
      "District": "SABAR KANTHA",
      "Households receiving treated tap water within premises in percentage Houselisting and Housing Census Data Tables- District Level , Census of India__1": 4.449249511,
      "Total Workers  Persons": 962910,
      "Households receiving treated tap water within premises  Houselisting and Housing Census Data Tables- District Level , Census of India__4": 17984,
      "Primary Female Teachers in percentage DISE": "NA",
      "Number of Households": 406039,
      "Main Workers Agricultural Labourers - Persons": 181930
    }
  ],
  "Urban": [
    {
      "Marginal Workers Agricultural Labourers - Persons": 3022,
      "Marginal Workers Other - Females": 5386,
      "Marginal Workers Other worked for 0 - 3 moths during last year - Females": 979,
      "Upper Primary Schools with boys toilet in percentage DISE": "NA",
      "Total Population": 363720,
      "Households with electricity as main source of lighting in percentage Houselisting and Housing Census Data Tables- District Level , Census of India": 95.87315261,
      "Primary Girl's Enrolment in percentage DISE": "NA",
      "Marginal Workers worked for 3 - 6 moths during last year - Males": 7095,
      "Prevalence of Acute illness in percentage DLHS-4": "Not available",
      "Main Workers - Persons": 105318,
      "Main Workers Cultivators - Females": 825,
      "Marginal Workers Agricultural Labourers worked for 3 - 6 moths during last year - Females": 1617,
      "Marginal Workers Other worked for 0 - 3 moths during last year - Males": 1162,
      "Upper Primary Schools with drinking water facility in percentage DISE": "NA",
      "Primary Schools with girls toilet in percentage DISE": "NA",
      "Marginal Workers worked for 3 - 6 moths during last year - Persons": 13876,
      "Upper Primary Drop Out Rate in percentage DISE": "NA",
      "Prevalence of Anaemia in pregnant women aged 15-49years in percentage DLHS-4": "Not available",
      "Current use of any modern method of family planning in percentage DLHS-4": "Not available",
      "Marginal Workers Agricultural Labourers - Males": 1180,
      "Upper Primary Female Teachers in percentage DISE": "NA",
      "Marginal Workers - Females": 8077,
      "Marginal Workers Other worked for 3 - 6 moths during last year - Persons": 10189,
      "Main Workers Agricultural Labourers - Females": 1902,
      "Marginal Workers Cultivators worked for 3 - 6 moths during last year - Females": 352,
      "Households with no lighting  Houselisting and Housing Census Data Tables- District Level , Census of India__5": 664,
      "Prevalence of Severe Anaemia  in percentage DLHS-4": "Not available",
      "Total unmet need for family planning in percentage DLHS-4": "Not available",
      "Main Workers Other - Males": 77255,
      "Children who received full vaccination in percentage DLHS-4": "Not available",
      "Marginal Workers Household Industry - Persons": 690,
      "Primary Pupil-Teacher Ratio in percentage DISE": "NA",
      "Marginal Workers Agricultural Labourers worked for 3 - 6 moths during last year - Males": 924,
      "Scheduled Caste Females": 13818,
      "Marginal Workers Cultivators - Males": 235,
      "Marginal Workers - Males": 8573,
      "Marginal Workers worked for 0 - 3 moths during last year - Females": 1296,
      "Households with main source of drinking water within premises in percentage Houselisting and Housing Census Data Tables- District Level , Census of India": 78.10724958,
      "Marginal Workers Household Industry worked for 3 - 6 moths during last year - Persons": 582,
      "Upper Primary Girl's Enrolment in percentage DISE": "NA",
      "Prevalence of Severe Anaemia in women aged 15-49years in percentage DLHS-4": "Not available",
      "Marginal Workers Agricultural Labourers worked for 0 - 3 moths during last year - Males": 256,
      "Households with electricity as main source of lighting  Houselisting and Housing Census Data Tables- District Level , Census of India__3": 71228,
      "Households with computer or laptop with internet connection in percentage": 3.79,
      "PHCs functioning on a 24x7hours basis in percentage DLHS-4": 0,
      "Non Workers - Males": 91216,
      "Total Households in District Houselisting and Housing Census Data Tables- District Level , Census of India": 74294,
      "Upper Primary Schools with girls toilet in percentage DISE": "NA",
      "Households with mobile phone in percentage": 55.37,
      "Households receiving untreated tap water within premises in percentage Houselisting and Housing Census Data Tables- District Level , Census of India__2": 39.17813013,
      "Marginal Workers Cultivators worked for 3 - 6 moths during last year - Males": 212,
      "Prevalence of Anaemia  in percentage DLHS-4": "Not available",
      "Prevalence of Chronic illness in percentage DLHS-4": "Not available",
      "Households with solar energy as main source of lighting in percentage Houselisting and Housing Census Data Tables- District Level , Census of India__1": 0.0861,
      "Marginal Workers Agricultural Labourers worked for 0 - 3 moths during last year - Females": 225,
      "Main Workers - Males": 88301,
      "Female": "NA",
      "Sno": 507,
      "Marginal Workers Other worked for 3 - 6 moths during last year - Females": 4407,
      "Marginal Workers Cultivators worked for 0 - 3 moths during last year - Females": 21,
      "Scheduled Tribe Males": 11400,
      "Male Illiterates": 37970,
      "Prevalence of Severe Anaemia in pregnant women aged 15-49years in percentage DLHS-4": "Not available",
      "0-6 Age Group Persons": 43623,
      "Upper Primary Student-Classroom Ratio in percentage DISE": "NA",
      "Currently married men married below 21years of age in percentage DLHS-4": "Not available",
      "Male Literates": 150120,
      "Households with no lighting in percentage Houselisting and Housing Census Data Tables- District Level , Census of India__2": 0.893746467,
      "Primary Drop Out Rate in percentage DISE": "NA",
      "Marginal Workers Household Industry - Males": 214,
      "Female Illiterates": 55005,
      "Main Workers Other - Females": 13845,
      "Marginal Workers Cultivators - Persons": 608,
      "Upper Primary Gross Enrolment Ratio in percentage DISE": "NA",
      "Scheduled Caste Persons": 28471,
      "Marginal Workers Cultivators worked for 3 - 6 moths during last year - Persons": 564,
      "Households with landline phone in percentage": 4.35,
      "Total Households in District  Houselisting and Housing Census Data Tables- District Level , Census of India": 74294,
      "Upper Primary Pupil-Teacher Ratio in percentage DISE": "NA",
      "Primary Student-Classroom Ratio in percentage DISE": "NA",
      "Primary Schools with boys toilet in percentage DISE": "NA",
      "Mean number of children ever born to women aged 40-49years  DLHS-4": "Not available",
      "Households receiving untreated tap water within premises  Houselisting and Housing Census Data Tables- District Level , Census of India__5": 29107,
      "Marginal Workers Household Industry worked for 0 - 3 moths during last year - Persons": 108,
      "Total Male Population": 188090,
      "Non Workers - Females": 150536,
      "Current use of family planning methods in percentage DLHS-4": "Not available",
      "Households with main source of drinking water within premises  Houselisting and Housing Census Data Tables- District Level , Census of India__3": 58029,
      "Main Workers Agricultural Labourers - Males": 4457,
      "Marginal Workers Other worked for 0 - 3 moths during last year - Persons": 2141,
      "Currently married women married below 18years of age in percentage DLHS-4": "Not available",
      "Person Illiterates": 92975,
      "Main Workers Household Industry - Females": 445,
      "Female Literates": 120625,
      "Marginal Workers Cultivators worked for 0 - 3 moths during last year - Males": 23,
      "Male": "NA",
      "Households with improved source of drinking water in percentage DLHS-4": "Not available",
      "Upper Primary Schools with electricity in percentage DISE": "NA",
      "Households with electricity in percentage DLHS-4": "Not available",
      "Villages with Primary Health Centre within 10km in percentage DLHS-4": 0,
      "Births to women aged 15-19years out of Total births in percentage DLHS-4": "Not available",
      "Prevalence of Anaemia in women aged 15-49years in percentage DLHS-4": "Not available",
      "Marginal Workers Agricultural Labourers worked for 3 - 6 moths during last year - Persons": 2541,
      "Main Workers Household Industry - Males": 1037,
      "Scheduled Tribe Females": 10553,
      "Marginal Workers worked for 0 - 3 moths during last year - Males": 1478,
      "Marginal Workers Other worked for 3 - 6 moths during last year - Males": 5782,
      "Primary Net Enrolment Ratio in percentage DISE": "NA",
      "Total": "NA",
      "Mean age at marriage for boys DLHS-4": "Not available",
      "Number of District Hospitals  DLHS-4": 0,
      "0-6 Age Group Females": 20168,
      "Marginal Workers Agricultural Labourers worked for 0 - 3 moths during last year - Persons": 481,
      "Marginal Workers Household Industry worked for 0 - 3 moths during last year - Males": 37,
      "Total Workers  Females": 25094,
      "Marginal Workers worked for 3 - 6 moths during last year - Females": 6781,
      "Institutional Deliveries in percentage DLHS-4": "Not available",
      "Marginal Workers Other - Males": 6944,
      "Total Workers  Males": 96874,
      "Main Workers - Females": 17017,
      "Primary Gross Enrolment Ratio in percentage DISE": "NA",
      "Main Workers Cultivators - Persons": 6377,
      "Marginal Workers Household Industry worked for 0 - 3 moths during last year - Females": 71,
      "Upper Primary Net Enrolment Ratio in percentage DISE": "NA",
      "Primary New Government Schools since 2003 in percentage DISE": "NA",
      "Tier": "Urban",
      "Marginal Workers Household Industry - Females": 476,
      "Primary Schools with electricity in percentage DISE": "NA",
      "Main Workers Other - Persons": 91100,
      "Marginal Workers Household Industry worked for 3 - 6 moths during last year - Females": 405,
      "Main Workers Cultivators - Males": 5552,
      "Main Workers Household Industry - Persons": 1482,
      "Marginal Workers Cultivators worked for 0 - 3 moths during last year - Persons": 44,
      "Scheduled Caste Males": 14653,
      "Marginal Workers - Persons": 16650,
      "Deliveries at home conducted by skilled health personnel in percentage DLHS-4": "Not available",
      "Villages with Sub-Health Centres within 3km in percentage DLHS-4": 0,
      "Upper Primary New Government Schools since 2003 in percentage DISE": "NA",
      "0-6 Age Group Males": 23455,
      "Primary Schools with drinking water facility in percentage DISE": "NA",
      "Non Workers - Persons": 241752,
      "Person Literates": 270745,
      "State": "GUJRAT",
      "Total Female Population": 175630,
      "Marginal Workers worked for 0 - 3 moths during last year - Persons": 2774,
      "Marginal Workers Cultivators - Females": 373,
      "Marginal Workers Other - Persons": 12330,
      "Sex Ratio": 934,
      "Scheduled Tribe Persons": 21953,
      "Marginal Workers Household Industry worked for 3 - 6 moths during last year - Males": 177,
      "Marginal Workers Agricultural Labourers - Females": 1842,
      "Mean age at marriage for girls DLHS-4": "Not available",
      "Households with solar energy as main source of lighting  Houselisting and Housing Census Data Tables- District Level , Census of India__4": 64,
      "District": "SABAR KANTHA",
      "Households receiving treated tap water within premises in percentage Houselisting and Housing Census Data Tables- District Level , Census of India__1": 36.53727084,
      "Total Workers  Persons": 121968,
      "Households receiving treated tap water within premises  Houselisting and Housing Census Data Tables- District Level , Census of India__4": 27145,
      "Primary Female Teachers in percentage DISE": "NA",
      "Number of Households": 75375,
      "Main Workers Agricultural Labourers - Persons": 6359
    }
  ]
}