{
  "Total": [
    {
      "Marginal Workers Agricultural Labourers - Persons": 51003,
      "Marginal Workers Other - Females": 33062,
      "Marginal Workers Other worked for 0 - 3 moths during last year - Females": 4062,
      "Upper Primary Schools with boys toilet in percentage DISE": 100,
      "Total Population": 6081322,
      "Households with electricity as main source of lighting in percentage Houselisting and Housing Census Data Tables- District Level , Census of India": 96.36692391,
      "Primary Girl's Enrolment in percentage DISE": 48.1,
      "Marginal Workers worked for 3 - 6 moths during last year - Males": 58706,
      "Prevalence of Acute illness in percentage DLHS-4": "Not available",
      "Main Workers - Persons": 2405288,
      "Main Workers Cultivators - Females": 13973,
      "Marginal Workers Agricultural Labourers worked for 3 - 6 moths during last year - Females": 32957,
      "Marginal Workers Other worked for 0 - 3 moths during last year - Males": 6150,
      "Upper Primary Schools with drinking water facility in percentage DISE": 100,
      "Primary Schools with girls toilet in percentage DISE": 100,
      "Marginal Workers worked for 3 - 6 moths during last year - Persons": 131757,
      "Upper Primary Drop Out Rate in percentage DISE": "Not available",
      "Prevalence of Anaemia in pregnant women aged 15-49years in percentage DLHS-4": "Not available",
      "Current use of any modern method of family planning in percentage DLHS-4": "Not available",
      "Marginal Workers Agricultural Labourers - Males": 15267,
      "Upper Primary Female Teachers in percentage DISE": 52.2,
      "Marginal Workers - Females": 81355,
      "Marginal Workers Other worked for 3 - 6 moths during last year - Persons": 70130,
      "Main Workers Agricultural Labourers - Females": 115318,
      "Marginal Workers Cultivators worked for 3 - 6 moths during last year - Females": 4796,
      "Households with no lighting  Houselisting and Housing Census Data Tables- District Level , Census of India__5": 3489,
      "Prevalence of Severe Anaemia  in percentage DLHS-4": "Not available",
      "Total unmet need for family planning in percentage DLHS-4": "Not available",
      "Main Workers Other - Males": 1807990,
      "Children who received full vaccination in percentage DLHS-4": "Not available",
      "Marginal Workers Household Industry - Persons": 9107,
      "Primary Pupil-Teacher Ratio in percentage DISE": 20,
      "Marginal Workers Agricultural Labourers worked for 3 - 6 moths during last year - Males": 13672,
      "Scheduled Caste Females": 75913,
      "Marginal Workers Cultivators - Males": 2583,
      "Marginal Workers - Males": 66899,
      "Marginal Workers worked for 0 - 3 moths during last year - Females": 8304,
      "Households with main source of drinking water within premises in percentage Houselisting and Housing Census Data Tables- District Level , Census of India": 77.64178599,
      "Marginal Workers Household Industry worked for 3 - 6 moths during last year - Persons": 7878,
      "Upper Primary Girl's Enrolment in percentage DISE": 46.1,
      "Prevalence of Severe Anaemia in women aged 15-49years in percentage DLHS-4": "Not available",
      "Marginal Workers Agricultural Labourers worked for 0 - 3 moths during last year - Males": 1595,
      "Households with electricity as main source of lighting  Houselisting and Housing Census Data Tables- District Level , Census of India__3": 1252452,
      "Households with computer or laptop with internet connection in percentage": 4.29,
      "PHCs functioning on a 24x7hours basis in percentage DLHS-4": "Not available",
      "Non Workers - Males": 1259405,
      "Total Households in District Houselisting and Housing Census Data Tables- District Level , Census of India": 1299670,
      "Upper Primary Schools with girls toilet in percentage DISE": 100,
      "Households with mobile phone in percentage": 65.81,
      "Households receiving untreated tap water within premises in percentage Houselisting and Housing Census Data Tables- District Level , Census of India__2": 11.97096186,
      "Marginal Workers Cultivators worked for 3 - 6 moths during last year - Males": 2324,
      "Prevalence of Anaemia  in percentage DLHS-4": "Not available",
      "Prevalence of Chronic illness in percentage DLHS-4": "Not available",
      "Households with solar energy as main source of lighting in percentage Houselisting and Housing Census Data Tables- District Level , Census of India__1": 0.0319,
      "Marginal Workers Agricultural Labourers worked for 0 - 3 moths during last year - Females": 2779,
      "Main Workers - Males": 2075920,
      "Female": 80.37,
      "Sno": 509,
      "Marginal Workers Other worked for 3 - 6 moths during last year - Females": 29000,
      "Marginal Workers Cultivators worked for 0 - 3 moths during last year - Females": 423,
      "Scheduled Tribe Males": 432089,
      "Male Illiterates": 714756,
      "Prevalence of Severe Anaemia in pregnant women aged 15-49years in percentage DLHS-4": "Not available",
      "0-6 Age Group Persons": 736286,
      "Upper Primary Student-Classroom Ratio in percentage DISE": 29,
      "Currently married men married below 21years of age in percentage DLHS-4": "Not available",
      "Male Literates": 2687468,
      "Households with no lighting in percentage Houselisting and Housing Census Data Tables- District Level , Census of India__2": 0.268452761,
      "Primary Drop Out Rate in percentage DISE": "Not available",
      "Marginal Workers Household Industry - Males": 1769,
      "Female Illiterates": 795156,
      "Main Workers Other - Females": 187882,
      "Marginal Workers Cultivators - Persons": 7802,
      "Upper Primary Gross Enrolment Ratio in percentage DISE": 86.5,
      "Scheduled Caste Persons": 158115,
      "Marginal Workers Cultivators worked for 3 - 6 moths during last year - Persons": 7120,
      "Households with landline phone in percentage": 3.07,
      "Total Households in District  Houselisting and Housing Census Data Tables- District Level , Census of India": 1299670,
      "Upper Primary Pupil-Teacher Ratio in percentage DISE": 43,
      "Primary Student-Classroom Ratio in percentage DISE": 18,
      "Primary Schools with boys toilet in percentage DISE": 75.4,
      "Mean number of children ever born to women aged 40-49years  DLHS-4": "Not available",
      "Households receiving untreated tap water within premises  Houselisting and Housing Census Data Tables- District Level , Census of India__5": 155583,
      "Marginal Workers Household Industry worked for 0 - 3 moths during last year - Persons": 1229,
      "Total Male Population": 3402224,
      "Non Workers - Females": 2268375,
      "Current use of family planning methods in percentage DLHS-4": "Not available",
      "Households with main source of drinking water within premises  Houselisting and Housing Census Data Tables- District Level , Census of India__3": 1009087,
      "Main Workers Agricultural Labourers - Males": 159418,
      "Marginal Workers Other worked for 0 - 3 moths during last year - Persons": 10212,
      "Currently married women married below 18years of age in percentage DLHS-4": "Not available",
      "Person Illiterates": 1509912,
      "Main Workers Household Industry - Females": 12195,
      "Female Literates": 1883942,
      "Marginal Workers Cultivators worked for 0 - 3 moths during last year - Males": 259,
      "Male": 89.56,
      "Households with improved source of drinking water in percentage DLHS-4": "Not available",
      "Upper Primary Schools with electricity in percentage DISE": 100,
      "Households with electricity in percentage DLHS-4": "Not available",
      "Villages with Primary Health Centre within 10km in percentage DLHS-4": "Not available",
      "Births to women aged 15-19years out of Total births in percentage DLHS-4": "Not available",
      "Prevalence of Anaemia in women aged 15-49years in percentage DLHS-4": "Not available",
      "Marginal Workers Agricultural Labourers worked for 3 - 6 moths during last year - Persons": 46629,
      "Main Workers Household Industry - Males": 20738,
      "Scheduled Tribe Females": 424863,
      "Marginal Workers worked for 0 - 3 moths during last year - Males": 8193,
      "Marginal Workers Other worked for 3 - 6 moths during last year - Males": 41130,
      "Primary Net Enrolment Ratio in percentage DISE": 79.9,
      "Total": 85.53,
      "Mean age at marriage for boys DLHS-4": "Not available",
      "Number of District Hospitals  DLHS-4": "Not available",
      "0-6 Age Group Females": 334971,
      "Marginal Workers Agricultural Labourers worked for 0 - 3 moths during last year - Persons": 4374,
      "Marginal Workers Household Industry worked for 0 - 3 moths during last year - Males": 189,
      "Total Workers  Females": 410723,
      "Marginal Workers worked for 3 - 6 moths during last year - Females": 73051,
      "Institutional Deliveries in percentage DLHS-4": "Not available",
      "Marginal Workers Other - Males": 47280,
      "Total Workers  Males": 2142819,
      "Main Workers - Females": 329368,
      "Primary Gross Enrolment Ratio in percentage DISE": 94.6,
      "Main Workers Cultivators - Persons": 101747,
      "Marginal Workers Household Industry worked for 0 - 3 moths during last year - Females": 1040,
      "Upper Primary Net Enrolment Ratio in percentage DISE": 66.9,
      "Primary New Government Schools since 2003 in percentage DISE": 4.2,
      "Tier": "Total",
      "Marginal Workers Household Industry - Females": 7338,
      "Primary Schools with electricity in percentage DISE": 100,
      "Main Workers Other - Persons": 1995872,
      "Marginal Workers Household Industry worked for 3 - 6 moths during last year - Females": 6298,
      "Main Workers Cultivators - Males": 87774,
      "Main Workers Household Industry - Persons": 32933,
      "Marginal Workers Cultivators worked for 0 - 3 moths during last year - Persons": 682,
      "Scheduled Caste Males": 82202,
      "Marginal Workers - Persons": 148254,
      "Deliveries at home conducted by skilled health personnel in percentage DLHS-4": "Not available",
      "Villages with Sub-Health Centres within 3km in percentage DLHS-4": "Not available",
      "Upper Primary New Government Schools since 2003 in percentage DISE": 0,
      "0-6 Age Group Males": 401315,
      "Primary Schools with drinking water facility in percentage DISE": 100,
      "Non Workers - Persons": 3527780,
      "Person Literates": 4571410,
      "State": "GUJRAT",
      "Total Female Population": 2679098,
      "Marginal Workers worked for 0 - 3 moths during last year - Persons": 16497,
      "Marginal Workers Cultivators - Females": 5219,
      "Marginal Workers Other - Persons": 80342,
      "Sex Ratio": 787,
      "Scheduled Tribe Persons": 856952,
      "Marginal Workers Household Industry worked for 3 - 6 moths during last year - Males": 1580,
      "Marginal Workers Agricultural Labourers - Females": 35736,
      "Mean age at marriage for girls DLHS-4": "Not available",
      "Households with solar energy as main source of lighting  Houselisting and Housing Census Data Tables- District Level , Census of India__4": 414,
      "District": "SURAT",
      "Households receiving treated tap water within premises in percentage Houselisting and Housing Census Data Tables- District Level , Census of India__1": 57.03224665,
      "Total Workers  Persons": 2553542,
      "Households receiving treated tap water within premises  Houselisting and Housing Census Data Tables- District Level , Census of India__4": 741231,
      "Primary Female Teachers in percentage DISE": 64.1,
      "Number of Households": 1333200,
      "Main Workers Agricultural Labourers - Persons": 274736
    }
  ],
  "Rural": [
    {
      "Marginal Workers Agricultural Labourers - Persons": 48877,
      "Marginal Workers Other - Females": 7819,
      "Marginal Workers Other worked for 0 - 3 moths during last year - Females": 677,
      "Upper Primary Schools with boys toilet in percentage DISE": "NA",
      "Total Population": 1232109,
      "Households with electricity as main source of lighting in percentage Houselisting and Housing Census Data Tables- District Level , Census of India": 87.38920333,
      "Primary Girl's Enrolment in percentage DISE": "NA",
      "Marginal Workers worked for 3 - 6 moths during last year - Males": 22311,
      "Prevalence of Acute illness in percentage DLHS-4": "Not available",
      "Main Workers - Persons": 522191,
      "Main Workers Cultivators - Females": 13050,
      "Marginal Workers Agricultural Labourers worked for 3 - 6 moths during last year - Females": 31883,
      "Marginal Workers Other worked for 0 - 3 moths during last year - Males": 1099,
      "Upper Primary Schools with drinking water facility in percentage DISE": "NA",
      "Primary Schools with girls toilet in percentage DISE": "NA",
      "Marginal Workers worked for 3 - 6 moths during last year - Persons": 66490,
      "Upper Primary Drop Out Rate in percentage DISE": "NA",
      "Prevalence of Anaemia in pregnant women aged 15-49years in percentage DLHS-4": "Not available",
      "Current use of any modern method of family planning in percentage DLHS-4": "Not available",
      "Marginal Workers Agricultural Labourers - Males": 14331,
      "Upper Primary Female Teachers in percentage DISE": "NA",
      "Marginal Workers - Females": 48025,
      "Marginal Workers Other worked for 3 - 6 moths during last year - Persons": 14392,
      "Main Workers Agricultural Labourers - Females": 107351,
      "Marginal Workers Cultivators worked for 3 - 6 moths during last year - Females": 4336,
      "Households with no lighting  Houselisting and Housing Census Data Tables- District Level , Census of India__5": 1990,
      "Prevalence of Severe Anaemia  in percentage DLHS-4": "Not available",
      "Total unmet need for family planning in percentage DLHS-4": "Not available",
      "Main Workers Other - Males": 147001,
      "Children who received full vaccination in percentage DLHS-4": "Not available",
      "Marginal Workers Household Industry - Persons": 1327,
      "Primary Pupil-Teacher Ratio in percentage DISE": "NA",
      "Marginal Workers Agricultural Labourers worked for 3 - 6 moths during last year - Males": 12836,
      "Scheduled Caste Females": 19081,
      "Marginal Workers Cultivators - Males": 2091,
      "Marginal Workers - Males": 25183,
      "Marginal Workers worked for 0 - 3 moths during last year - Females": 3846,
      "Households with main source of drinking water within premises in percentage Houselisting and Housing Census Data Tables- District Level , Census of India": 44.35169474,
      "Marginal Workers Household Industry worked for 3 - 6 moths during last year - Persons": 1188,
      "Upper Primary Girl's Enrolment in percentage DISE": "NA",
      "Prevalence of Severe Anaemia in women aged 15-49years in percentage DLHS-4": "Not available",
      "Marginal Workers Agricultural Labourers worked for 0 - 3 moths during last year - Males": 1495,
      "Households with electricity as main source of lighting  Houselisting and Housing Census Data Tables- District Level , Census of India__3": 230212,
      "Households with computer or laptop with internet connection in percentage": 1.25,
      "PHCs functioning on a 24x7hours basis in percentage DLHS-4": "Not applicable",
      "Non Workers - Males": 239610,
      "Total Households in District Houselisting and Housing Census Data Tables- District Level , Census of India": 263433,
      "Upper Primary Schools with girls toilet in percentage DISE": "NA",
      "Households with mobile phone in percentage": 45.78,
      "Households receiving untreated tap water within premises in percentage Houselisting and Housing Census Data Tables- District Level , Census of India__2": 16.20412021,
      "Marginal Workers Cultivators worked for 3 - 6 moths during last year - Males": 1855,
      "Prevalence of Anaemia  in percentage DLHS-4": "Not available",
      "Prevalence of Chronic illness in percentage DLHS-4": "Not available",
      "Households with solar energy as main source of lighting in percentage Houselisting and Housing Census Data Tables- District Level , Census of India__1": 0.0448,
      "Marginal Workers Agricultural Labourers worked for 0 - 3 moths during last year - Females": 2663,
      "Main Workers - Males": 375267,
      "Female": "NA",
      "Sno": 508,
      "Marginal Workers Other worked for 3 - 6 moths during last year - Females": 7142,
      "Marginal Workers Cultivators worked for 0 - 3 moths during last year - Females": 409,
      "Scheduled Tribe Males": 342580,
      "Male Illiterates": 170045,
      "Prevalence of Severe Anaemia in pregnant women aged 15-49years in percentage DLHS-4": "Not available",
      "0-6 Age Group Persons": 139486,
      "Upper Primary Student-Classroom Ratio in percentage DISE": "NA",
      "Currently married men married below 21years of age in percentage DLHS-4": "Not available",
      "Male Literates": 470015,
      "Households with no lighting in percentage Houselisting and Housing Census Data Tables- District Level , Census of India__2": 0.755410294,
      "Primary Drop Out Rate in percentage DISE": "NA",
      "Marginal Workers Household Industry - Males": 412,
      "Female Illiterates": 221620,
      "Main Workers Other - Females": 24942,
      "Marginal Workers Cultivators - Persons": 6836,
      "Upper Primary Gross Enrolment Ratio in percentage DISE": "NA",
      "Scheduled Caste Persons": 38640,
      "Marginal Workers Cultivators worked for 3 - 6 moths during last year - Persons": 6191,
      "Households with landline phone in percentage": 2.75,
      "Total Households in District  Houselisting and Housing Census Data Tables- District Level , Census of India": 263433,
      "Upper Primary Pupil-Teacher Ratio in percentage DISE": "NA",
      "Primary Student-Classroom Ratio in percentage DISE": "NA",
      "Primary Schools with boys toilet in percentage DISE": "NA",
      "Mean number of children ever born to women aged 40-49years  DLHS-4": "Not available",
      "Households receiving untreated tap water within premises  Houselisting and Housing Census Data Tables- District Level , Census of India__5": 42687,
      "Marginal Workers Household Industry worked for 0 - 3 moths during last year - Persons": 139,
      "Total Male Population": 640060,
      "Non Workers - Females": 397100,
      "Current use of family planning methods in percentage DLHS-4": "Not available",
      "Households with main source of drinking water within premises  Houselisting and Housing Census Data Tables- District Level , Census of India__3": 116837,
      "Main Workers Agricultural Labourers - Males": 145164,
      "Marginal Workers Other worked for 0 - 3 moths during last year - Persons": 1776,
      "Currently married women married below 18years of age in percentage DLHS-4": "Not available",
      "Person Illiterates": 391665,
      "Main Workers Household Industry - Females": 1581,
      "Female Literates": 370429,
      "Marginal Workers Cultivators worked for 0 - 3 moths during last year - Males": 236,
      "Male": "NA",
      "Households with improved source of drinking water in percentage DLHS-4": "Not available",
      "Upper Primary Schools with electricity in percentage DISE": "NA",
      "Households with electricity in percentage DLHS-4": "Not available",
      "Villages with Primary Health Centre within 10km in percentage DLHS-4": "Not applicable",
      "Births to women aged 15-19years out of Total births in percentage DLHS-4": "Not available",
      "Prevalence of Anaemia in women aged 15-49years in percentage DLHS-4": "Not available",
      "Marginal Workers Agricultural Labourers worked for 3 - 6 moths during last year - Persons": 44719,
      "Main Workers Household Industry - Males": 3969,
      "Scheduled Tribe Females": 340833,
      "Marginal Workers worked for 0 - 3 moths during last year - Males": 2872,
      "Marginal Workers Other worked for 3 - 6 moths during last year - Males": 7250,
      "Primary Net Enrolment Ratio in percentage DISE": "NA",
      "Total": "NA",
      "Mean age at marriage for boys DLHS-4": "Not available",
      "Number of District Hospitals  DLHS-4": "Not applicable",
      "0-6 Age Group Females": 67363,
      "Marginal Workers Agricultural Labourers worked for 0 - 3 moths during last year - Persons": 4158,
      "Marginal Workers Household Industry worked for 0 - 3 moths during last year - Males": 42,
      "Total Workers  Females": 194949,
      "Marginal Workers worked for 3 - 6 moths during last year - Females": 44179,
      "Institutional Deliveries in percentage DLHS-4": "Not available",
      "Marginal Workers Other - Males": 8349,
      "Total Workers  Males": 400450,
      "Main Workers - Females": 146924,
      "Primary Gross Enrolment Ratio in percentage DISE": "NA",
      "Main Workers Cultivators - Persons": 92183,
      "Marginal Workers Household Industry worked for 0 - 3 moths during last year - Females": 97,
      "Upper Primary Net Enrolment Ratio in percentage DISE": "NA",
      "Primary New Government Schools since 2003 in percentage DISE": "NA",
      "Tier": "Rural",
      "Marginal Workers Household Industry - Females": 915,
      "Primary Schools with electricity in percentage DISE": "NA",
      "Main Workers Other - Persons": 171943,
      "Marginal Workers Household Industry worked for 3 - 6 moths during last year - Females": 818,
      "Main Workers Cultivators - Males": 79133,
      "Main Workers Household Industry - Persons": 5550,
      "Marginal Workers Cultivators worked for 0 - 3 moths during last year - Persons": 645,
      "Scheduled Caste Males": 19559,
      "Marginal Workers - Persons": 73208,
      "Deliveries at home conducted by skilled health personnel in percentage DLHS-4": "Not available",
      "Villages with Sub-Health Centres within 3km in percentage DLHS-4": "Not applicable",
      "Upper Primary New Government Schools since 2003 in percentage DISE": "NA",
      "0-6 Age Group Males": 72123,
      "Primary Schools with drinking water facility in percentage DISE": "NA",
      "Non Workers - Persons": 636710,
      "Person Literates": 840444,
      "State": "GUJRAT",
      "Total Female Population": 592049,
      "Marginal Workers worked for 0 - 3 moths during last year - Persons": 6718,
      "Marginal Workers Cultivators - Females": 4745,
      "Marginal Workers Other - Persons": 16168,
      "Sex Ratio": 925,
      "Scheduled Tribe Persons": 683413,
      "Marginal Workers Household Industry worked for 3 - 6 moths during last year - Males": 370,
      "Marginal Workers Agricultural Labourers - Females": 34546,
      "Mean age at marriage for girls DLHS-4": "Not available",
      "Households with solar energy as main source of lighting  Houselisting and Housing Census Data Tables- District Level , Census of India__4": 118,
      "District": "SURAT",
      "Households receiving treated tap water within premises in percentage Houselisting and Housing Census Data Tables- District Level , Census of India__1": 16.9826863,
      "Total Workers  Persons": 595399,
      "Households receiving treated tap water within premises  Houselisting and Housing Census Data Tables- District Level , Census of India__4": 44738,
      "Primary Female Teachers in percentage DISE": "NA",
      "Number of Households": 269680,
      "Main Workers Agricultural Labourers - Persons": 252515
    }
  ],
  "Urban": [
    {
      "Marginal Workers Agricultural Labourers - Persons": 2126,
      "Marginal Workers Other - Females": 25243,
      "Marginal Workers Other worked for 0 - 3 moths during last year - Females": 3385,
      "Upper Primary Schools with boys toilet in percentage DISE": "NA",
      "Total Population": 4849213,
      "Households with electricity as main source of lighting in percentage Houselisting and Housing Census Data Tables- District Level , Census of India": 98.64924723,
      "Primary Girl's Enrolment in percentage DISE": "NA",
      "Marginal Workers worked for 3 - 6 moths during last year - Males": 36395,
      "Prevalence of Acute illness in percentage DLHS-4": "Not available",
      "Main Workers - Persons": 1883097,
      "Main Workers Cultivators - Females": 923,
      "Marginal Workers Agricultural Labourers worked for 3 - 6 moths during last year - Females": 1074,
      "Marginal Workers Other worked for 0 - 3 moths during last year - Males": 5051,
      "Upper Primary Schools with drinking water facility in percentage DISE": "NA",
      "Primary Schools with girls toilet in percentage DISE": "NA",
      "Marginal Workers worked for 3 - 6 moths during last year - Persons": 65267,
      "Upper Primary Drop Out Rate in percentage DISE": "NA",
      "Prevalence of Anaemia in pregnant women aged 15-49years in percentage DLHS-4": "Not available",
      "Current use of any modern method of family planning in percentage DLHS-4": "Not available",
      "Marginal Workers Agricultural Labourers - Males": 936,
      "Upper Primary Female Teachers in percentage DISE": "NA",
      "Marginal Workers - Females": 33330,
      "Marginal Workers Other worked for 3 - 6 moths during last year - Persons": 55738,
      "Main Workers Agricultural Labourers - Females": 7967,
      "Marginal Workers Cultivators worked for 3 - 6 moths during last year - Females": 460,
      "Households with no lighting  Houselisting and Housing Census Data Tables- District Level , Census of India__5": 1499,
      "Prevalence of Severe Anaemia  in percentage DLHS-4": "Not available",
      "Total unmet need for family planning in percentage DLHS-4": "Not available",
      "Main Workers Other - Males": 1660989,
      "Children who received full vaccination in percentage DLHS-4": "Not available",
      "Marginal Workers Household Industry - Persons": 7780,
      "Primary Pupil-Teacher Ratio in percentage DISE": "NA",
      "Marginal Workers Agricultural Labourers worked for 3 - 6 moths during last year - Males": 836,
      "Scheduled Caste Females": 56832,
      "Marginal Workers Cultivators - Males": 492,
      "Marginal Workers - Males": 41716,
      "Marginal Workers worked for 0 - 3 moths during last year - Females": 4458,
      "Households with main source of drinking water within premises in percentage Houselisting and Housing Census Data Tables- District Level , Census of India": 86.10481965,
      "Marginal Workers Household Industry worked for 3 - 6 moths during last year - Persons": 6690,
      "Upper Primary Girl's Enrolment in percentage DISE": "NA",
      "Prevalence of Severe Anaemia in women aged 15-49years in percentage DLHS-4": "Not available",
      "Marginal Workers Agricultural Labourers worked for 0 - 3 moths during last year - Males": 100,
      "Households with electricity as main source of lighting  Houselisting and Housing Census Data Tables- District Level , Census of India__3": 1022240,
      "Households with computer or laptop with internet connection in percentage": 5.06,
      "PHCs functioning on a 24x7hours basis in percentage DLHS-4": 0,
      "Non Workers - Males": 1019795,
      "Total Households in District Houselisting and Housing Census Data Tables- District Level , Census of India": 1036237,
      "Upper Primary Schools with girls toilet in percentage DISE": "NA",
      "Households with mobile phone in percentage": 70.9,
      "Households receiving untreated tap water within premises in percentage Houselisting and Housing Census Data Tables- District Level , Census of India__2": 10.89480495,
      "Marginal Workers Cultivators worked for 3 - 6 moths during last year - Males": 469,
      "Prevalence of Anaemia  in percentage DLHS-4": "Not available",
      "Prevalence of Chronic illness in percentage DLHS-4": "Not available",
      "Households with solar energy as main source of lighting in percentage Houselisting and Housing Census Data Tables- District Level , Census of India__1": 0.0286,
      "Marginal Workers Agricultural Labourers worked for 0 - 3 moths during last year - Females": 116,
      "Main Workers - Males": 1700653,
      "Female": "NA",
      "Sno": 510,
      "Marginal Workers Other worked for 3 - 6 moths during last year - Females": 21858,
      "Marginal Workers Cultivators worked for 0 - 3 moths during last year - Females": 14,
      "Scheduled Tribe Males": 89509,
      "Male Illiterates": 544711,
      "Prevalence of Severe Anaemia in pregnant women aged 15-49years in percentage DLHS-4": "Not available",
      "0-6 Age Group Persons": 596800,
      "Upper Primary Student-Classroom Ratio in percentage DISE": "NA",
      "Currently married men married below 21years of age in percentage DLHS-4": "Not available",
      "Male Literates": 2217453,
      "Households with no lighting in percentage Houselisting and Housing Census Data Tables- District Level , Census of India__2": 0.144658027,
      "Primary Drop Out Rate in percentage DISE": "NA",
      "Marginal Workers Household Industry - Males": 1357,
      "Female Illiterates": 573536,
      "Main Workers Other - Females": 162940,
      "Marginal Workers Cultivators - Persons": 966,
      "Upper Primary Gross Enrolment Ratio in percentage DISE": "NA",
      "Scheduled Caste Persons": 119475,
      "Marginal Workers Cultivators worked for 3 - 6 moths during last year - Persons": 929,
      "Households with landline phone in percentage": 3.16,
      "Total Households in District  Houselisting and Housing Census Data Tables- District Level , Census of India": 1036237,
      "Upper Primary Pupil-Teacher Ratio in percentage DISE": "NA",
      "Primary Student-Classroom Ratio in percentage DISE": "NA",
      "Primary Schools with boys toilet in percentage DISE": "NA",
      "Mean number of children ever born to women aged 40-49years  DLHS-4": "Not available",
      "Households receiving untreated tap water within premises  Houselisting and Housing Census Data Tables- District Level , Census of India__5": 112896,
      "Marginal Workers Household Industry worked for 0 - 3 moths during last year - Persons": 1090,
      "Total Male Population": 2762164,
      "Non Workers - Females": 1871275,
      "Current use of family planning methods in percentage DLHS-4": "Not available",
      "Households with main source of drinking water within premises  Houselisting and Housing Census Data Tables- District Level , Census of India__3": 892250,
      "Main Workers Agricultural Labourers - Males": 14254,
      "Marginal Workers Other worked for 0 - 3 moths during last year - Persons": 8436,
      "Currently married women married below 18years of age in percentage DLHS-4": "Not available",
      "Person Illiterates": 1118247,
      "Main Workers Household Industry - Females": 10614,
      "Female Literates": 1513513,
      "Marginal Workers Cultivators worked for 0 - 3 moths during last year - Males": 23,
      "Male": "NA",
      "Households with improved source of drinking water in percentage DLHS-4": "Not available",
      "Upper Primary Schools with electricity in percentage DISE": "NA",
      "Households with electricity in percentage DLHS-4": "Not available",
      "Villages with Primary Health Centre within 10km in percentage DLHS-4": 0,
      "Births to women aged 15-19years out of Total births in percentage DLHS-4": "Not available",
      "Prevalence of Anaemia in women aged 15-49years in percentage DLHS-4": "Not available",
      "Marginal Workers Agricultural Labourers worked for 3 - 6 moths during last year - Persons": 1910,
      "Main Workers Household Industry - Males": 16769,
      "Scheduled Tribe Females": 84030,
      "Marginal Workers worked for 0 - 3 moths during last year - Males": 5321,
      "Marginal Workers Other worked for 3 - 6 moths during last year - Males": 33880,
      "Primary Net Enrolment Ratio in percentage DISE": "NA",
      "Total": "NA",
      "Mean age at marriage for boys DLHS-4": "Not available",
      "Number of District Hospitals  DLHS-4": 0,
      "0-6 Age Group Females": 267608,
      "Marginal Workers Agricultural Labourers worked for 0 - 3 moths during last year - Persons": 216,
      "Marginal Workers Household Industry worked for 0 - 3 moths during last year - Males": 147,
      "Total Workers  Females": 215774,
      "Marginal Workers worked for 3 - 6 moths during last year - Females": 28872,
      "Institutional Deliveries in percentage DLHS-4": "Not available",
      "Marginal Workers Other - Males": 38931,
      "Total Workers  Males": 1742369,
      "Main Workers - Females": 182444,
      "Primary Gross Enrolment Ratio in percentage DISE": "NA",
      "Main Workers Cultivators - Persons": 9564,
      "Marginal Workers Household Industry worked for 0 - 3 moths during last year - Females": 943,
      "Upper Primary Net Enrolment Ratio in percentage DISE": "NA",
      "Primary New Government Schools since 2003 in percentage DISE": "NA",
      "Tier": "Urban",
      "Marginal Workers Household Industry - Females": 6423,
      "Primary Schools with electricity in percentage DISE": "NA",
      "Main Workers Other - Persons": 1823929,
      "Marginal Workers Household Industry worked for 3 - 6 moths during last year - Females": 5480,
      "Main Workers Cultivators - Males": 8641,
      "Main Workers Household Industry - Persons": 27383,
      "Marginal Workers Cultivators worked for 0 - 3 moths during last year - Persons": 37,
      "Scheduled Caste Males": 62643,
      "Marginal Workers - Persons": 75046,
      "Deliveries at home conducted by skilled health personnel in percentage DLHS-4": "Not available",
      "Villages with Sub-Health Centres within 3km in percentage DLHS-4": 0,
      "Upper Primary New Government Schools since 2003 in percentage DISE": "NA",
      "0-6 Age Group Males": 329192,
      "Primary Schools with drinking water facility in percentage DISE": "NA",
      "Non Workers - Persons": 2891070,
      "Person Literates": 3730966,
      "State": "GUJRAT",
      "Total Female Population": 2087049,
      "Marginal Workers worked for 0 - 3 moths during last year - Persons": 9779,
      "Marginal Workers Cultivators - Females": 474,
      "Marginal Workers Other - Persons": 64174,
      "Sex Ratio": 756,
      "Scheduled Tribe Persons": 173539,
      "Marginal Workers Household Industry worked for 3 - 6 moths during last year - Males": 1210,
      "Marginal Workers Agricultural Labourers - Females": 1190,
      "Mean age at marriage for girls DLHS-4": "Not available",
      "Households with solar energy as main source of lighting  Houselisting and Housing Census Data Tables- District Level , Census of India__4": 296,
      "District": "SURAT",
      "Households receiving treated tap water within premises in percentage Houselisting and Housing Census Data Tables- District Level , Census of India__1": 67.21367795,
      "Total Workers  Persons": 1958143,
      "Households receiving treated tap water within premises  Houselisting and Housing Census Data Tables- District Level , Census of India__4": 696493,
      "Primary Female Teachers in percentage DISE": "NA",
      "Number of Households": 1063520,
      "Main Workers Agricultural Labourers - Persons": 22221
    }
  ]
}