{
  "Total": [
    {
      "Marginal Workers Agricultural Labourers - Persons": 18355,
      "Marginal Workers Other - Females": 919,
      "Marginal Workers Other worked for 0 - 3 moths during last year - Females": 100,
      "Upper Primary Schools with boys toilet in percentage DISE": 100,
      "Total Population": 228291,
      "Households with electricity as main source of lighting in percentage Houselisting and Housing Census Data Tables- District Level , Census of India": 61.49686262,
      "Primary Girl's Enrolment in percentage DISE": 49.5,
      "Marginal Workers worked for 3 - 6 moths during last year - Males": 6619,
      "Prevalence of Acute illness in percentage DLHS-4": "Not available",
      "Main Workers - Persons": 88038,
      "Main Workers Cultivators - Females": 19774,
      "Marginal Workers Agricultural Labourers worked for 3 - 6 moths during last year - Females": 12134,
      "Marginal Workers Other worked for 0 - 3 moths during last year - Males": 125,
      "Upper Primary Schools with drinking water facility in percentage DISE": 100,
      "Primary Schools with girls toilet in percentage DISE": 100,
      "Marginal Workers worked for 3 - 6 moths during last year - Persons": 27451,
      "Upper Primary Drop Out Rate in percentage DISE": 13.08,
      "Prevalence of Anaemia in pregnant women aged 15-49years in percentage DLHS-4": "Not available",
      "Current use of any modern method of family planning in percentage DLHS-4": "Not available",
      "Marginal Workers Agricultural Labourers - Males": 4712,
      "Upper Primary Female Teachers in percentage DISE": 66.7,
      "Marginal Workers - Females": 22816,
      "Marginal Workers Other worked for 3 - 6 moths during last year - Persons": 1439,
      "Main Workers Agricultural Labourers - Females": 11253,
      "Marginal Workers Cultivators worked for 3 - 6 moths during last year - Females": 7607,
      "Households with no lighting  Houselisting and Housing Census Data Tables- District Level , Census of India__5": 529,
      "Prevalence of Severe Anaemia  in percentage DLHS-4": "Not available",
      "Total unmet need for family planning in percentage DLHS-4": "Not available",
      "Main Workers Other - Males": 7578,
      "Children who received full vaccination in percentage DLHS-4": "Not available",
      "Marginal Workers Household Industry - Persons": 414,
      "Primary Pupil-Teacher Ratio in percentage DISE": 26,
      "Marginal Workers Agricultural Labourers worked for 3 - 6 moths during last year - Males": 4300,
      "Scheduled Caste Females": 502,
      "Marginal Workers Cultivators - Males": 1827,
      "Marginal Workers - Males": 7403,
      "Marginal Workers worked for 0 - 3 moths during last year - Females": 1984,
      "Households with main source of drinking water within premises in percentage Houselisting and Housing Census Data Tables- District Level , Census of India": 11.26362285,
      "Marginal Workers Household Industry worked for 3 - 6 moths during last year - Persons": 361,
      "Upper Primary Girl's Enrolment in percentage DISE": 50,
      "Prevalence of Severe Anaemia in women aged 15-49years in percentage DLHS-4": "Not available",
      "Marginal Workers Agricultural Labourers worked for 0 - 3 moths during last year - Males": 412,
      "Households with electricity as main source of lighting  Houselisting and Housing Census Data Tables- District Level , Census of India__3": 29794,
      "Households with computer or laptop with internet connection in percentage": 0.28,
      "PHCs functioning on a 24x7hours basis in percentage DLHS-4": "Not available",
      "Non Workers - Males": 52492,
      "Total Households in District Houselisting and Housing Census Data Tables- District Level , Census of India": 48448,
      "Upper Primary Schools with girls toilet in percentage DISE": 100,
      "Households with mobile phone in percentage": 19.08,
      "Households receiving untreated tap water within premises in percentage Houselisting and Housing Census Data Tables- District Level , Census of India__2": 2.505779392,
      "Marginal Workers Cultivators worked for 3 - 6 moths during last year - Males": 1610,
      "Prevalence of Anaemia  in percentage DLHS-4": "Not available",
      "Prevalence of Chronic illness in percentage DLHS-4": "Not available",
      "Households with solar energy as main source of lighting in percentage Houselisting and Housing Census Data Tables- District Level , Census of India__1": 0.177509908,
      "Marginal Workers Agricultural Labourers worked for 0 - 3 moths during last year - Females": 1509,
      "Main Workers - Males": 53926,
      "Female": 67.38,
      "Sno": 518,
      "Marginal Workers Other worked for 3 - 6 moths during last year - Females": 819,
      "Marginal Workers Cultivators worked for 0 - 3 moths during last year - Females": 352,
      "Scheduled Tribe Males": 107539,
      "Male Illiterates": 36507,
      "Prevalence of Severe Anaemia in pregnant women aged 15-49years in percentage DLHS-4": "Not available",
      "0-6 Age Group Persons": 40743,
      "Upper Primary Student-Classroom Ratio in percentage DISE": 59,
      "Currently married men married below 21years of age in percentage DLHS-4": "Not available",
      "Male Literates": 77314,
      "Households with no lighting in percentage Houselisting and Housing Census Data Tables- District Level , Census of India__2": 1.091892338,
      "Primary Drop Out Rate in percentage DISE": 6.7,
      "Marginal Workers Household Industry - Males": 119,
      "Female Illiterates": 50816,
      "Main Workers Other - Females": 2796,
      "Marginal Workers Cultivators - Persons": 9786,
      "Upper Primary Gross Enrolment Ratio in percentage DISE": 88.1,
      "Scheduled Caste Persons": 992,
      "Marginal Workers Cultivators worked for 3 - 6 moths during last year - Persons": 9217,
      "Households with landline phone in percentage": 1.62,
      "Total Households in District  Houselisting and Housing Census Data Tables- District Level , Census of India": 48448,
      "Upper Primary Pupil-Teacher Ratio in percentage DISE": 59,
      "Primary Student-Classroom Ratio in percentage DISE": 21,
      "Primary Schools with boys toilet in percentage DISE": 83.2,
      "Mean number of children ever born to women aged 40-49years  DLHS-4": "Not available",
      "Households receiving untreated tap water within premises  Houselisting and Housing Census Data Tables- District Level , Census of India__5": 1214,
      "Marginal Workers Household Industry worked for 0 - 3 moths during last year - Persons": 53,
      "Total Male Population": 113821,
      "Non Workers - Females": 57542,
      "Current use of family planning methods in percentage DLHS-4": "Not available",
      "Households with main source of drinking water within premises  Houselisting and Housing Census Data Tables- District Level , Census of India__3": 5457,
      "Main Workers Agricultural Labourers - Males": 10878,
      "Marginal Workers Other worked for 0 - 3 moths during last year - Persons": 225,
      "Currently married women married below 18years of age in percentage DLHS-4": "Not available",
      "Person Illiterates": 87323,
      "Main Workers Household Industry - Females": 289,
      "Female Literates": 63654,
      "Marginal Workers Cultivators worked for 0 - 3 moths during last year - Males": 217,
      "Male": 83.06,
      "Households with improved source of drinking water in percentage DLHS-4": "Not available",
      "Upper Primary Schools with electricity in percentage DISE": 100,
      "Households with electricity in percentage DLHS-4": "Not available",
      "Villages with Primary Health Centre within 10km in percentage DLHS-4": "Not available",
      "Births to women aged 15-19years out of Total births in percentage DLHS-4": "Not available",
      "Prevalence of Anaemia in women aged 15-49years in percentage DLHS-4": "Not available",
      "Marginal Workers Agricultural Labourers worked for 3 - 6 moths during last year - Persons": 16434,
      "Main Workers Household Industry - Males": 469,
      "Scheduled Tribe Females": 108534,
      "Marginal Workers worked for 0 - 3 moths during last year - Males": 784,
      "Marginal Workers Other worked for 3 - 6 moths during last year - Males": 620,
      "Primary Net Enrolment Ratio in percentage DISE": 100,
      "Total": 75.16,
      "Mean age at marriage for boys DLHS-4": "Not available",
      "Number of District Hospitals  DLHS-4": "Not available",
      "0-6 Age Group Females": 20000,
      "Marginal Workers Agricultural Labourers worked for 0 - 3 moths during last year - Persons": 1921,
      "Marginal Workers Household Industry worked for 0 - 3 moths during last year - Males": 30,
      "Total Workers  Females": 56928,
      "Marginal Workers worked for 3 - 6 moths during last year - Females": 20832,
      "Institutional Deliveries in percentage DLHS-4": "Not available",
      "Marginal Workers Other - Males": 745,
      "Total Workers  Males": 61329,
      "Main Workers - Females": 34112,
      "Primary Gross Enrolment Ratio in percentage DISE": 130.9,
      "Main Workers Cultivators - Persons": 54775,
      "Marginal Workers Household Industry worked for 0 - 3 moths during last year - Females": 23,
      "Upper Primary Net Enrolment Ratio in percentage DISE": 66.7,
      "Primary New Government Schools since 2003 in percentage DISE": 0.4,
      "Tier": "Total",
      "Marginal Workers Household Industry - Females": 295,
      "Primary Schools with electricity in percentage DISE": 100,
      "Main Workers Other - Persons": 10374,
      "Marginal Workers Household Industry worked for 3 - 6 moths during last year - Females": 272,
      "Main Workers Cultivators - Males": 35001,
      "Main Workers Household Industry - Persons": 758,
      "Marginal Workers Cultivators worked for 0 - 3 moths during last year - Persons": 569,
      "Scheduled Caste Males": 490,
      "Marginal Workers - Persons": 30219,
      "Deliveries at home conducted by skilled health personnel in percentage DLHS-4": "Not available",
      "Villages with Sub-Health Centres within 3km in percentage DLHS-4": "Not available",
      "Upper Primary New Government Schools since 2003 in percentage DISE": 0,
      "0-6 Age Group Males": 20743,
      "Primary Schools with drinking water facility in percentage DISE": 100,
      "Non Workers - Persons": 110034,
      "Person Literates": 140968,
      "State": "GUJRAT",
      "Total Female Population": 114470,
      "Marginal Workers worked for 0 - 3 moths during last year - Persons": 2768,
      "Marginal Workers Cultivators - Females": 7959,
      "Marginal Workers Other - Persons": 1664,
      "Sex Ratio": 1006,
      "Scheduled Tribe Persons": 216073,
      "Marginal Workers Household Industry worked for 3 - 6 moths during last year - Males": 89,
      "Marginal Workers Agricultural Labourers - Females": 13643,
      "Mean age at marriage for girls DLHS-4": "Not available",
      "Households with solar energy as main source of lighting  Houselisting and Housing Census Data Tables- District Level , Census of India__4": 86,
      "District": "THE DANGS",
      "Households receiving treated tap water within premises in percentage Houselisting and Housing Census Data Tables- District Level , Census of India__1": 3.116743725,
      "Total Workers  Persons": 118257,
      "Households receiving treated tap water within premises  Houselisting and Housing Census Data Tables- District Level , Census of India__4": 1510,
      "Primary Female Teachers in percentage DISE": 41.8,
      "Number of Households": 44699,
      "Main Workers Agricultural Labourers - Persons": 22131
    }
  ],
  "Rural": [
    {
      "Marginal Workers Agricultural Labourers - Persons": 18283,
      "Marginal Workers Other - Females": 670,
      "Marginal Workers Other worked for 0 - 3 moths during last year - Females": 70,
      "Upper Primary Schools with boys toilet in percentage DISE": "NA",
      "Total Population": 203604,
      "Households with electricity as main source of lighting in percentage Houselisting and Housing Census Data Tables- District Level , Census of India": 58.67204963,
      "Primary Girl's Enrolment in percentage DISE": "NA",
      "Marginal Workers worked for 3 - 6 moths during last year - Males": 6254,
      "Prevalence of Acute illness in percentage DLHS-4": "Not available",
      "Main Workers - Persons": 81533,
      "Main Workers Cultivators - Females": 19749,
      "Marginal Workers Agricultural Labourers worked for 3 - 6 moths during last year - Females": 12103,
      "Marginal Workers Other worked for 0 - 3 moths during last year - Males": 51,
      "Upper Primary Schools with drinking water facility in percentage DISE": "NA",
      "Primary Schools with girls toilet in percentage DISE": "NA",
      "Marginal Workers worked for 3 - 6 moths during last year - Persons": 26719,
      "Upper Primary Drop Out Rate in percentage DISE": "NA",
      "Prevalence of Anaemia in pregnant women aged 15-49years in percentage DLHS-4": "Not available",
      "Current use of any modern method of family planning in percentage DLHS-4": "Not available",
      "Marginal Workers Agricultural Labourers - Males": 4677,
      "Upper Primary Female Teachers in percentage DISE": "NA",
      "Marginal Workers - Females": 22402,
      "Marginal Workers Other worked for 3 - 6 moths during last year - Persons": 937,
      "Main Workers Agricultural Labourers - Females": 10998,
      "Marginal Workers Cultivators worked for 3 - 6 moths during last year - Females": 7601,
      "Households with no lighting  Houselisting and Housing Census Data Tables- District Level , Census of India__5": 476,
      "Prevalence of Severe Anaemia  in percentage DLHS-4": "Not available",
      "Total unmet need for family planning in percentage DLHS-4": "Not available",
      "Main Workers Other - Males": 3367,
      "Children who received full vaccination in percentage DLHS-4": "Not available",
      "Marginal Workers Household Industry - Persons": 241,
      "Primary Pupil-Teacher Ratio in percentage DISE": "NA",
      "Marginal Workers Agricultural Labourers worked for 3 - 6 moths during last year - Males": 4266,
      "Scheduled Caste Females": 71,
      "Marginal Workers Cultivators - Males": 1819,
      "Marginal Workers - Males": 6951,
      "Marginal Workers worked for 0 - 3 moths during last year - Females": 1937,
      "Households with main source of drinking water within premises in percentage Houselisting and Housing Census Data Tables- District Level , Census of India": 9.885497924,
      "Marginal Workers Household Industry worked for 3 - 6 moths during last year - Persons": 210,
      "Upper Primary Girl's Enrolment in percentage DISE": "NA",
      "Prevalence of Severe Anaemia in women aged 15-49years in percentage DLHS-4": "Not available",
      "Marginal Workers Agricultural Labourers worked for 0 - 3 moths during last year - Males": 411,
      "Households with electricity as main source of lighting  Houselisting and Housing Census Data Tables- District Level , Census of India__3": 25723,
      "Households with computer or laptop with internet connection in percentage": 0.14,
      "PHCs functioning on a 24x7hours basis in percentage DLHS-4": "Not applicable",
      "Non Workers - Males": 45952,
      "Total Households in District Houselisting and Housing Census Data Tables- District Level , Census of India": 43842,
      "Upper Primary Schools with girls toilet in percentage DISE": "NA",
      "Households with mobile phone in percentage": 16.47,
      "Households receiving untreated tap water within premises in percentage Houselisting and Housing Census Data Tables- District Level , Census of India__2": 2.365311801,
      "Marginal Workers Cultivators worked for 3 - 6 moths during last year - Males": 1602,
      "Prevalence of Anaemia  in percentage DLHS-4": "Not available",
      "Prevalence of Chronic illness in percentage DLHS-4": "Not available",
      "Households with solar energy as main source of lighting in percentage Houselisting and Housing Census Data Tables- District Level , Census of India__1": 0.191597099,
      "Marginal Workers Agricultural Labourers worked for 0 - 3 moths during last year - Females": 1503,
      "Main Workers - Males": 48807,
      "Female": "NA",
      "Sno": 517,
      "Marginal Workers Other worked for 3 - 6 moths during last year - Females": 600,
      "Marginal Workers Cultivators worked for 0 - 3 moths during last year - Females": 351,
      "Scheduled Tribe Males": 99888,
      "Male Illiterates": 34310,
      "Prevalence of Severe Anaemia in pregnant women aged 15-49years in percentage DLHS-4": "Not available",
      "0-6 Age Group Persons": 37988,
      "Upper Primary Student-Classroom Ratio in percentage DISE": "NA",
      "Currently married men married below 21years of age in percentage DLHS-4": "Not available",
      "Male Literates": 67400,
      "Households with no lighting in percentage Houselisting and Housing Census Data Tables- District Level , Census of India__2": 1.085716892,
      "Primary Drop Out Rate in percentage DISE": "NA",
      "Marginal Workers Household Industry - Males": 67,
      "Female Illiterates": 47697,
      "Main Workers Other - Females": 1728,
      "Marginal Workers Cultivators - Persons": 9771,
      "Upper Primary Gross Enrolment Ratio in percentage DISE": "NA",
      "Scheduled Caste Persons": 151,
      "Marginal Workers Cultivators worked for 3 - 6 moths during last year - Persons": 9203,
      "Households with landline phone in percentage": 1.35,
      "Total Households in District  Houselisting and Housing Census Data Tables- District Level , Census of India": 43842,
      "Upper Primary Pupil-Teacher Ratio in percentage DISE": "NA",
      "Primary Student-Classroom Ratio in percentage DISE": "NA",
      "Primary Schools with boys toilet in percentage DISE": "NA",
      "Mean number of children ever born to women aged 40-49years  DLHS-4": "Not available",
      "Households receiving untreated tap water within premises  Houselisting and Housing Census Data Tables- District Level , Census of India__5": 1037,
      "Marginal Workers Household Industry worked for 0 - 3 moths during last year - Persons": 31,
      "Total Male Population": 101710,
      "Non Workers - Females": 46766,
      "Current use of family planning methods in percentage DLHS-4": "Not available",
      "Households with main source of drinking water within premises  Houselisting and Housing Census Data Tables- District Level , Census of India__3": 4334,
      "Main Workers Agricultural Labourers - Males": 10227,
      "Marginal Workers Other worked for 0 - 3 moths during last year - Persons": 121,
      "Currently married women married below 18years of age in percentage DLHS-4": "Not available",
      "Person Illiterates": 82007,
      "Main Workers Household Industry - Females": 251,
      "Female Literates": 54197,
      "Marginal Workers Cultivators worked for 0 - 3 moths during last year - Males": 217,
      "Male": "NA",
      "Households with improved source of drinking water in percentage DLHS-4": "Not available",
      "Upper Primary Schools with electricity in percentage DISE": "NA",
      "Households with electricity in percentage DLHS-4": "Not available",
      "Villages with Primary Health Centre within 10km in percentage DLHS-4": "Not applicable",
      "Births to women aged 15-19years out of Total births in percentage DLHS-4": "Not available",
      "Prevalence of Anaemia in women aged 15-49years in percentage DLHS-4": "Not available",
      "Marginal Workers Agricultural Labourers worked for 3 - 6 moths during last year - Persons": 16369,
      "Main Workers Household Industry - Males": 279,
      "Scheduled Tribe Females": 100250,
      "Marginal Workers worked for 0 - 3 moths during last year - Males": 697,
      "Marginal Workers Other worked for 3 - 6 moths during last year - Males": 337,
      "Primary Net Enrolment Ratio in percentage DISE": "NA",
      "Total": "NA",
      "Mean age at marriage for boys DLHS-4": "Not available",
      "Number of District Hospitals  DLHS-4": "Not applicable",
      "0-6 Age Group Females": 18672,
      "Marginal Workers Agricultural Labourers worked for 0 - 3 moths during last year - Persons": 1914,
      "Marginal Workers Household Industry worked for 0 - 3 moths during last year - Males": 18,
      "Total Workers  Females": 55128,
      "Marginal Workers worked for 3 - 6 moths during last year - Females": 20465,
      "Institutional Deliveries in percentage DLHS-4": "Not available",
      "Marginal Workers Other - Males": 388,
      "Total Workers  Males": 55758,
      "Main Workers - Females": 32726,
      "Primary Gross Enrolment Ratio in percentage DISE": "NA",
      "Main Workers Cultivators - Persons": 54683,
      "Marginal Workers Household Industry worked for 0 - 3 moths during last year - Females": 13,
      "Upper Primary Net Enrolment Ratio in percentage DISE": "NA",
      "Primary New Government Schools since 2003 in percentage DISE": "NA",
      "Tier": "Rural",
      "Marginal Workers Household Industry - Females": 174,
      "Primary Schools with electricity in percentage DISE": "NA",
      "Main Workers Other - Persons": 5095,
      "Marginal Workers Household Industry worked for 3 - 6 moths during last year - Females": 161,
      "Main Workers Cultivators - Males": 34934,
      "Main Workers Household Industry - Persons": 530,
      "Marginal Workers Cultivators worked for 0 - 3 moths during last year - Persons": 568,
      "Scheduled Caste Males": 80,
      "Marginal Workers - Persons": 29353,
      "Deliveries at home conducted by skilled health personnel in percentage DLHS-4": "Not available",
      "Villages with Sub-Health Centres within 3km in percentage DLHS-4": "Not applicable",
      "Upper Primary New Government Schools since 2003 in percentage DISE": "NA",
      "0-6 Age Group Males": 19316,
      "Primary Schools with drinking water facility in percentage DISE": "NA",
      "Non Workers - Persons": 92718,
      "Person Literates": 121597,
      "State": "GUJRAT",
      "Total Female Population": 101894,
      "Marginal Workers worked for 0 - 3 moths during last year - Persons": 2634,
      "Marginal Workers Cultivators - Females": 7952,
      "Marginal Workers Other - Persons": 1058,
      "Sex Ratio": 1002,
      "Scheduled Tribe Persons": 200138,
      "Marginal Workers Household Industry worked for 3 - 6 moths during last year - Males": 49,
      "Marginal Workers Agricultural Labourers - Females": 13606,
      "Mean age at marriage for girls DLHS-4": "Not available",
      "Households with solar energy as main source of lighting  Houselisting and Housing Census Data Tables- District Level , Census of India__4": 84,
      "District": "THE DANGS",
      "Households receiving treated tap water within premises in percentage Houselisting and Housing Census Data Tables- District Level , Census of India__1": 2.064230646,
      "Total Workers  Persons": 110886,
      "Households receiving treated tap water within premises  Houselisting and Housing Census Data Tables- District Level , Census of India__4": 905,
      "Primary Female Teachers in percentage DISE": "NA",
      "Number of Households": 39889,
      "Main Workers Agricultural Labourers - Persons": 21225
    }
  ],
  "Urban": [
    {
      "Marginal Workers Agricultural Labourers - Persons": 72,
      "Marginal Workers Other - Females": 249,
      "Marginal Workers Other worked for 0 - 3 moths during last year - Females": 30,
      "Upper Primary Schools with boys toilet in percentage DISE": "NA",
      "Total Population": 24687,
      "Households with electricity as main source of lighting in percentage Houselisting and Housing Census Data Tables- District Level , Census of India": 88.38471559,
      "Primary Girl's Enrolment in percentage DISE": "NA",
      "Marginal Workers worked for 3 - 6 moths during last year - Males": 365,
      "Prevalence of Acute illness in percentage DLHS-4": "Not available",
      "Main Workers - Persons": 6505,
      "Main Workers Cultivators - Females": 25,
      "Marginal Workers Agricultural Labourers worked for 3 - 6 moths during last year - Females": 31,
      "Marginal Workers Other worked for 0 - 3 moths during last year - Males": 74,
      "Upper Primary Schools with drinking water facility in percentage DISE": "NA",
      "Primary Schools with girls toilet in percentage DISE": "NA",
      "Marginal Workers worked for 3 - 6 moths during last year - Persons": 732,
      "Upper Primary Drop Out Rate in percentage DISE": "NA",
      "Prevalence of Anaemia in pregnant women aged 15-49years in percentage DLHS-4": "Not available",
      "Current use of any modern method of family planning in percentage DLHS-4": "Not available",
      "Marginal Workers Agricultural Labourers - Males": 35,
      "Upper Primary Female Teachers in percentage DISE": "NA",
      "Marginal Workers - Females": 414,
      "Marginal Workers Other worked for 3 - 6 moths during last year - Persons": 502,
      "Main Workers Agricultural Labourers - Females": 255,
      "Marginal Workers Cultivators worked for 3 - 6 moths during last year - Females": 6,
      "Households with no lighting  Houselisting and Housing Census Data Tables- District Level , Census of India__5": 53,
      "Prevalence of Severe Anaemia  in percentage DLHS-4": "Not available",
      "Total unmet need for family planning in percentage DLHS-4": "Not available",
      "Main Workers Other - Males": 4211,
      "Children who received full vaccination in percentage DLHS-4": "Not available",
      "Marginal Workers Household Industry - Persons": 173,
      "Primary Pupil-Teacher Ratio in percentage DISE": "NA",
      "Marginal Workers Agricultural Labourers worked for 3 - 6 moths during last year - Males": 34,
      "Scheduled Caste Females": 431,
      "Marginal Workers Cultivators - Males": 8,
      "Marginal Workers - Males": 452,
      "Marginal Workers worked for 0 - 3 moths during last year - Females": 47,
      "Households with main source of drinking water within premises in percentage Houselisting and Housing Census Data Tables- District Level , Census of India": 24.38124186,
      "Marginal Workers Household Industry worked for 3 - 6 moths during last year - Persons": 151,
      "Upper Primary Girl's Enrolment in percentage DISE": "NA",
      "Prevalence of Severe Anaemia in women aged 15-49years in percentage DLHS-4": "Not available",
      "Marginal Workers Agricultural Labourers worked for 0 - 3 moths during last year - Males": 1,
      "Households with electricity as main source of lighting  Houselisting and Housing Census Data Tables- District Level , Census of India__3": 4071,
      "Households with computer or laptop with internet connection in percentage": 1.67,
      "PHCs functioning on a 24x7hours basis in percentage DLHS-4": 0,
      "Non Workers - Males": 6540,
      "Total Households in District Houselisting and Housing Census Data Tables- District Level , Census of India": 4606,
      "Upper Primary Schools with girls toilet in percentage DISE": "NA",
      "Households with mobile phone in percentage": 43.94,
      "Households receiving untreated tap water within premises in percentage Houselisting and Housing Census Data Tables- District Level , Census of India__2": 3.842813721,
      "Marginal Workers Cultivators worked for 3 - 6 moths during last year - Males": 8,
      "Prevalence of Anaemia  in percentage DLHS-4": "Not available",
      "Prevalence of Chronic illness in percentage DLHS-4": "Not available",
      "Households with solar energy as main source of lighting in percentage Houselisting and Housing Census Data Tables- District Level , Census of India__1": 0.0434,
      "Marginal Workers Agricultural Labourers worked for 0 - 3 moths during last year - Females": 6,
      "Main Workers - Males": 5119,
      "Female": "NA",
      "Sno": 519,
      "Marginal Workers Other worked for 3 - 6 moths during last year - Females": 219,
      "Marginal Workers Cultivators worked for 0 - 3 moths during last year - Females": 1,
      "Scheduled Tribe Males": 7651,
      "Male Illiterates": 2197,
      "Prevalence of Severe Anaemia in pregnant women aged 15-49years in percentage DLHS-4": "Not available",
      "0-6 Age Group Persons": 2755,
      "Upper Primary Student-Classroom Ratio in percentage DISE": "NA",
      "Currently married men married below 21years of age in percentage DLHS-4": "Not available",
      "Male Literates": 9914,
      "Households with no lighting in percentage Houselisting and Housing Census Data Tables- District Level , Census of India__2": 1.150673035,
      "Primary Drop Out Rate in percentage DISE": "NA",
      "Marginal Workers Household Industry - Males": 52,
      "Female Illiterates": 3119,
      "Main Workers Other - Females": 1068,
      "Marginal Workers Cultivators - Persons": 15,
      "Upper Primary Gross Enrolment Ratio in percentage DISE": "NA",
      "Scheduled Caste Persons": 841,
      "Marginal Workers Cultivators worked for 3 - 6 moths during last year - Persons": 14,
      "Households with landline phone in percentage": 4.21,
      "Total Households in District  Houselisting and Housing Census Data Tables- District Level , Census of India": 4606,
      "Upper Primary Pupil-Teacher Ratio in percentage DISE": "NA",
      "Primary Student-Classroom Ratio in percentage DISE": "NA",
      "Primary Schools with boys toilet in percentage DISE": "NA",
      "Mean number of children ever born to women aged 40-49years  DLHS-4": "Not available",
      "Households receiving untreated tap water within premises  Houselisting and Housing Census Data Tables- District Level , Census of India__5": 177,
      "Marginal Workers Household Industry worked for 0 - 3 moths during last year - Persons": 22,
      "Total Male Population": 12111,
      "Non Workers - Females": 10776,
      "Current use of family planning methods in percentage DLHS-4": "Not available",
      "Households with main source of drinking water within premises  Houselisting and Housing Census Data Tables- District Level , Census of India__3": 1123,
      "Main Workers Agricultural Labourers - Males": 651,
      "Marginal Workers Other worked for 0 - 3 moths during last year - Persons": 104,
      "Currently married women married below 18years of age in percentage DLHS-4": "Not available",
      "Person Illiterates": 5316,
      "Main Workers Household Industry - Females": 38,
      "Female Literates": 9457,
      "Marginal Workers Cultivators worked for 0 - 3 moths during last year - Males": 0,
      "Male": "NA",
      "Households with improved source of drinking water in percentage DLHS-4": "Not available",
      "Upper Primary Schools with electricity in percentage DISE": "NA",
      "Households with electricity in percentage DLHS-4": "Not available",
      "Villages with Primary Health Centre within 10km in percentage DLHS-4": 0,
      "Births to women aged 15-19years out of Total births in percentage DLHS-4": "Not available",
      "Prevalence of Anaemia in women aged 15-49years in percentage DLHS-4": "Not available",
      "Marginal Workers Agricultural Labourers worked for 3 - 6 moths during last year - Persons": 65,
      "Main Workers Household Industry - Males": 190,
      "Scheduled Tribe Females": 8284,
      "Marginal Workers worked for 0 - 3 moths during last year - Males": 87,
      "Marginal Workers Other worked for 3 - 6 moths during last year - Males": 283,
      "Primary Net Enrolment Ratio in percentage DISE": "NA",
      "Total": "NA",
      "Mean age at marriage for boys DLHS-4": "Not available",
      "Number of District Hospitals  DLHS-4": 0,
      "0-6 Age Group Females": 1328,
      "Marginal Workers Agricultural Labourers worked for 0 - 3 moths during last year - Persons": 7,
      "Marginal Workers Household Industry worked for 0 - 3 moths during last year - Males": 12,
      "Total Workers  Females": 1800,
      "Marginal Workers worked for 3 - 6 moths during last year - Females": 367,
      "Institutional Deliveries in percentage DLHS-4": "Not available",
      "Marginal Workers Other - Males": 357,
      "Total Workers  Males": 5571,
      "Main Workers - Females": 1386,
      "Primary Gross Enrolment Ratio in percentage DISE": "NA",
      "Main Workers Cultivators - Persons": 92,
      "Marginal Workers Household Industry worked for 0 - 3 moths during last year - Females": 10,
      "Upper Primary Net Enrolment Ratio in percentage DISE": "NA",
      "Primary New Government Schools since 2003 in percentage DISE": "NA",
      "Tier": "Urban",
      "Marginal Workers Household Industry - Females": 121,
      "Primary Schools with electricity in percentage DISE": "NA",
      "Main Workers Other - Persons": 5279,
      "Marginal Workers Household Industry worked for 3 - 6 moths during last year - Females": 111,
      "Main Workers Cultivators - Males": 67,
      "Main Workers Household Industry - Persons": 228,
      "Marginal Workers Cultivators worked for 0 - 3 moths during last year - Persons": 1,
      "Scheduled Caste Males": 410,
      "Marginal Workers - Persons": 866,
      "Deliveries at home conducted by skilled health personnel in percentage DLHS-4": "Not available",
      "Villages with Sub-Health Centres within 3km in percentage DLHS-4": 0,
      "Upper Primary New Government Schools since 2003 in percentage DISE": "NA",
      "0-6 Age Group Males": 1427,
      "Primary Schools with drinking water facility in percentage DISE": "NA",
      "Non Workers - Persons": 17316,
      "Person Literates": 19371,
      "State": "GUJRAT",
      "Total Female Population": 12576,
      "Marginal Workers worked for 0 - 3 moths during last year - Persons": 134,
      "Marginal Workers Cultivators - Females": 7,
      "Marginal Workers Other - Persons": 606,
      "Sex Ratio": 1038,
      "Scheduled Tribe Persons": 15935,
      "Marginal Workers Household Industry worked for 3 - 6 moths during last year - Males": 40,
      "Marginal Workers Agricultural Labourers - Females": 37,
      "Mean age at marriage for girls DLHS-4": "Not available",
      "Households with solar energy as main source of lighting  Houselisting and Housing Census Data Tables- District Level , Census of India__4": 2,
      "District": "THE DANGS",
      "Households receiving treated tap water within premises in percentage Houselisting and Housing Census Data Tables- District Level , Census of India__1": 13.13504125,
      "Total Workers  Persons": 7371,
      "Households receiving treated tap water within premises  Houselisting and Housing Census Data Tables- District Level , Census of India__4": 605,
      "Primary Female Teachers in percentage DISE": "NA",
      "Number of Households": 4810,
      "Main Workers Agricultural Labourers - Persons": 906
    }
  ]
}