{
  "Total": [
    {
      "Marginal Workers Agricultural Labourers - Persons": 16171,
      "Marginal Workers Other - Females": 8755,
      "Marginal Workers Other worked for 0 - 3 moths during last year - Females": 1119,
      "Upper Primary Schools with boys toilet in percentage DISE": 100,
      "Total Population": 1128350,
      "Households with electricity as main source of lighting in percentage Houselisting and Housing Census Data Tables- District Level , Census of India": 95.96772256,
      "Primary Girl's Enrolment in percentage DISE": 48.8,
      "Marginal Workers worked for 3 - 6 moths during last year - Males": 32911,
      "Prevalence of Acute illness in percentage DLHS-4": 7,
      "Main Workers - Persons": 319475,
      "Main Workers Cultivators - Females": 2401,
      "Marginal Workers Agricultural Labourers worked for 3 - 6 moths during last year - Females": 2904,
      "Marginal Workers Other worked for 0 - 3 moths during last year - Males": 2700,
      "Upper Primary Schools with drinking water facility in percentage DISE": 100,
      "Primary Schools with girls toilet in percentage DISE": 100,
      "Marginal Workers worked for 3 - 6 moths during last year - Persons": 45044,
      "Upper Primary Drop Out Rate in percentage DISE": 3.53,
      "Prevalence of Anaemia in pregnant women aged 15-49years in percentage DLHS-4": 49.6,
      "Current use of any modern method of family planning in percentage DLHS-4": 61.5,
      "Marginal Workers Agricultural Labourers - Males": 12331,
      "Upper Primary Female Teachers in percentage DISE": 46.7,
      "Marginal Workers - Females": 14610,
      "Marginal Workers Other worked for 3 - 6 moths during last year - Persons": 27453,
      "Main Workers Agricultural Labourers - Females": 3861,
      "Marginal Workers Cultivators worked for 3 - 6 moths during last year - Females": 865,
      "Households with no lighting  Houselisting and Housing Census Data Tables- District Level , Census of India__5": 692,
      "Prevalence of Severe Anaemia  in percentage DLHS-4": 5.2,
      "Total unmet need for family planning in percentage DLHS-4": 21.2,
      "Main Workers Other - Males": 185654,
      "Children who received full vaccination in percentage DLHS-4": 64.6,
      "Marginal Workers Household Industry - Persons": 2274,
      "Primary Pupil-Teacher Ratio in percentage DISE": 25,
      "Marginal Workers Agricultural Labourers worked for 3 - 6 moths during last year - Males": 10385,
      "Scheduled Caste Females": 139372,
      "Marginal Workers Cultivators - Males": 1891,
      "Marginal Workers - Males": 38054,
      "Marginal Workers worked for 0 - 3 moths during last year - Females": 2477,
      "Households with main source of drinking water within premises in percentage Houselisting and Housing Census Data Tables- District Level , Census of India": 84.28565249,
      "Marginal Workers Household Industry worked for 3 - 6 moths during last year - Persons": 1820,
      "Upper Primary Girl's Enrolment in percentage DISE": 50.7,
      "Prevalence of Severe Anaemia in women aged 15-49years in percentage DLHS-4": 3.2,
      "Marginal Workers Agricultural Labourers worked for 0 - 3 moths during last year - Males": 1946,
      "Households with electricity as main source of lighting  Houselisting and Housing Census Data Tables- District Level , Census of India__3": 199681,
      "Households with computer or laptop with internet connection in percentage": 6.2,
      "PHCs functioning on a 24x7hours basis in percentage DLHS-4": 70,
      "Non Workers - Males": 278583,
      "Total Households in District Houselisting and Housing Census Data Tables- District Level , Census of India": 208071,
      "Upper Primary Schools with girls toilet in percentage DISE": 100,
      "Households with mobile phone in percentage": 59.74,
      "Households receiving untreated tap water within premises in percentage Houselisting and Housing Census Data Tables- District Level , Census of India__2": 6.236813395,
      "Marginal Workers Cultivators worked for 3 - 6 moths during last year - Males": 1617,
      "Prevalence of Anaemia  in percentage DLHS-4": 58.3,
      "Prevalence of Chronic illness in percentage DLHS-4": 14.4,
      "Households with solar energy as main source of lighting in percentage Houselisting and Housing Census Data Tables- District Level , Census of India__1": 0.113422822,
      "Marginal Workers Agricultural Labourers worked for 0 - 3 moths during last year - Females": 936,
      "Main Workers - Males": 282066,
      "Female": 75.5,
      "Sno": 527,
      "Marginal Workers Other worked for 3 - 6 moths during last year - Females": 7636,
      "Marginal Workers Cultivators worked for 0 - 3 moths during last year - Females": 191,
      "Scheduled Tribe Males": 0,
      "Male Illiterates": 137415,
      "Prevalence of Severe Anaemia in pregnant women aged 15-49years in percentage DLHS-4": 2.9,
      "0-6 Age Group Persons": 127689,
      "Upper Primary Student-Classroom Ratio in percentage DISE": 23,
      "Currently married men married below 21years of age in percentage DLHS-4": 6.1,
      "Male Literates": 461288,
      "Households with no lighting in percentage Houselisting and Housing Census Data Tables- District Level , Census of India__2": 0.332578783,
      "Primary Drop Out Rate in percentage DISE": 2.4,
      "Marginal Workers Household Industry - Males": 1315,
      "Female Illiterates": 172910,
      "Main Workers Other - Females": 29296,
      "Marginal Workers Cultivators - Persons": 2947,
      "Upper Primary Gross Enrolment Ratio in percentage DISE": 102.3,
      "Scheduled Caste Persons": 296246,
      "Marginal Workers Cultivators worked for 3 - 6 moths during last year - Persons": 2482,
      "Households with landline phone in percentage": 7.61,
      "Total Households in District  Houselisting and Housing Census Data Tables- District Level , Census of India": 208071,
      "Upper Primary Pupil-Teacher Ratio in percentage DISE": 16,
      "Primary Student-Classroom Ratio in percentage DISE": 21,
      "Primary Schools with boys toilet in percentage DISE": 94.4,
      "Mean number of children ever born to women aged 40-49years  DLHS-4": 2.6,
      "Households receiving untreated tap water within premises  Houselisting and Housing Census Data Tables- District Level , Census of India__5": 12977,
      "Marginal Workers Household Industry worked for 0 - 3 moths during last year - Persons": 454,
      "Total Male Population": 598703,
      "Non Workers - Females": 477628,
      "Current use of family planning methods in percentage DLHS-4": 64.3,
      "Households with main source of drinking water within premises  Houselisting and Housing Census Data Tables- District Level , Census of India__3": 175374,
      "Main Workers Agricultural Labourers - Males": 37261,
      "Marginal Workers Other worked for 0 - 3 moths during last year - Persons": 3819,
      "Currently married women married below 18years of age in percentage DLHS-4": 0.8,
      "Person Illiterates": 310325,
      "Main Workers Household Industry - Females": 1851,
      "Female Literates": 356737,
      "Marginal Workers Cultivators worked for 0 - 3 moths during last year - Males": 274,
      "Male": 87.34,
      "Households with improved source of drinking water in percentage DLHS-4": 99.6,
      "Upper Primary Schools with electricity in percentage DISE": 100,
      "Households with electricity in percentage DLHS-4": 99.2,
      "Villages with Primary Health Centre within 10km in percentage DLHS-4": 87.9,
      "Births to women aged 15-19years out of Total births in percentage DLHS-4": 0.8,
      "Prevalence of Anaemia in women aged 15-49years in percentage DLHS-4": 52.7,
      "Marginal Workers Agricultural Labourers worked for 3 - 6 moths during last year - Persons": 13289,
      "Main Workers Household Industry - Males": 11628,
      "Scheduled Tribe Females": 0,
      "Marginal Workers worked for 0 - 3 moths during last year - Males": 5143,
      "Marginal Workers Other worked for 3 - 6 moths during last year - Males": 19817,
      "Primary Net Enrolment Ratio in percentage DISE": 81.9,
      "Total": 81.75,
      "Mean age at marriage for boys DLHS-4": 24.5,
      "Number of District Hospitals  DLHS-4": 1,
      "0-6 Age Group Females": 57148,
      "Marginal Workers Agricultural Labourers worked for 0 - 3 moths during last year - Persons": 2882,
      "Marginal Workers Household Industry worked for 0 - 3 moths during last year - Males": 223,
      "Total Workers  Females": 52019,
      "Marginal Workers worked for 3 - 6 moths during last year - Females": 12133,
      "Institutional Deliveries in percentage DLHS-4": 91,
      "Marginal Workers Other - Males": 22517,
      "Total Workers  Males": 320120,
      "Main Workers - Females": 37409,
      "Primary Gross Enrolment Ratio in percentage DISE": 102,
      "Main Workers Cultivators - Persons": 49924,
      "Marginal Workers Household Industry worked for 0 - 3 moths during last year - Females": 231,
      "Upper Primary Net Enrolment Ratio in percentage DISE": 74.8,
      "Primary New Government Schools since 2003 in percentage DISE": 1.8,
      "Tier": "Total",
      "Marginal Workers Household Industry - Females": 959,
      "Primary Schools with electricity in percentage DISE": 100,
      "Main Workers Other - Persons": 214950,
      "Marginal Workers Household Industry worked for 3 - 6 moths during last year - Females": 728,
      "Main Workers Cultivators - Males": 47523,
      "Main Workers Household Industry - Persons": 13479,
      "Marginal Workers Cultivators worked for 0 - 3 moths during last year - Persons": 465,
      "Scheduled Caste Males": 156874,
      "Marginal Workers - Persons": 52664,
      "Deliveries at home conducted by skilled health personnel in percentage DLHS-4": 7.5,
      "Villages with Sub-Health Centres within 3km in percentage DLHS-4": 57.6,
      "Upper Primary New Government Schools since 2003 in percentage DISE": 5.8,
      "0-6 Age Group Males": 70541,
      "Primary Schools with drinking water facility in percentage DISE": 100,
      "Non Workers - Persons": 756211,
      "Person Literates": 818025,
      "State": "HARAYANA",
      "Total Female Population": 529647,
      "Marginal Workers worked for 0 - 3 moths during last year - Persons": 7620,
      "Marginal Workers Cultivators - Females": 1056,
      "Marginal Workers Other - Persons": 31272,
      "Sex Ratio": 885,
      "Scheduled Tribe Persons": 0,
      "Marginal Workers Household Industry worked for 3 - 6 moths during last year - Males": 1092,
      "Marginal Workers Agricultural Labourers - Females": 3840,
      "Mean age at marriage for girls DLHS-4": 21.9,
      "Households with solar energy as main source of lighting  Houselisting and Housing Census Data Tables- District Level , Census of India__4": 236,
      "District": "AMBALA",
      "Households receiving treated tap water within premises in percentage Houselisting and Housing Census Data Tables- District Level , Census of India__1": 65.81407308,
      "Total Workers  Persons": 372139,
      "Households receiving treated tap water within premises  Houselisting and Housing Census Data Tables- District Level , Census of India__4": 136940,
      "Primary Female Teachers in percentage DISE": 61.3,
      "Number of Households": 224334,
      "Main Workers Agricultural Labourers - Persons": 41122
    }
  ],
  "Rural": [
    {
      "Marginal Workers Agricultural Labourers - Persons": 14406,
      "Marginal Workers Other - Females": 3263,
      "Marginal Workers Other worked for 0 - 3 moths during last year - Females": 588,
      "Upper Primary Schools with boys toilet in percentage DISE": "NA",
      "Total Population": 627576,
      "Households with electricity as main source of lighting in percentage Houselisting and Housing Census Data Tables- District Level , Census of India": 94.73272606,
      "Primary Girl's Enrolment in percentage DISE": "NA",
      "Marginal Workers worked for 3 - 6 moths during last year - Males": 20808,
      "Prevalence of Acute illness in percentage DLHS-4": 6.9,
      "Main Workers - Persons": 163089,
      "Main Workers Cultivators - Females": 2198,
      "Marginal Workers Agricultural Labourers worked for 3 - 6 moths during last year - Females": 2630,
      "Marginal Workers Other worked for 0 - 3 moths during last year - Males": 1611,
      "Upper Primary Schools with drinking water facility in percentage DISE": "NA",
      "Primary Schools with girls toilet in percentage DISE": "NA",
      "Marginal Workers worked for 3 - 6 moths during last year - Persons": 27216,
      "Upper Primary Drop Out Rate in percentage DISE": "NA",
      "Prevalence of Anaemia in pregnant women aged 15-49years in percentage DLHS-4": 45.9,
      "Current use of any modern method of family planning in percentage DLHS-4": 61.9,
      "Marginal Workers Agricultural Labourers - Males": 10874,
      "Upper Primary Female Teachers in percentage DISE": "NA",
      "Marginal Workers - Females": 8183,
      "Marginal Workers Other worked for 3 - 6 moths during last year - Persons": 12383,
      "Main Workers Agricultural Labourers - Females": 3281,
      "Marginal Workers Cultivators worked for 3 - 6 moths during last year - Females": 725,
      "Households with no lighting  Houselisting and Housing Census Data Tables- District Level , Census of India__5": 511,
      "Prevalence of Severe Anaemia  in percentage DLHS-4": 5,
      "Total unmet need for family planning in percentage DLHS-4": 21.3,
      "Main Workers Other - Males": 66495,
      "Children who received full vaccination in percentage DLHS-4": 65,
      "Marginal Workers Household Industry - Persons": 1217,
      "Primary Pupil-Teacher Ratio in percentage DISE": "NA",
      "Marginal Workers Agricultural Labourers worked for 3 - 6 moths during last year - Males": 9122,
      "Scheduled Caste Females": 97488,
      "Marginal Workers Cultivators - Males": 1646,
      "Marginal Workers - Males": 24574,
      "Marginal Workers worked for 0 - 3 moths during last year - Females": 1775,
      "Households with main source of drinking water within premises in percentage Houselisting and Housing Census Data Tables- District Level , Census of India": 79.78760275,
      "Marginal Workers Household Industry worked for 3 - 6 moths during last year - Persons": 959,
      "Upper Primary Girl's Enrolment in percentage DISE": "NA",
      "Prevalence of Severe Anaemia in women aged 15-49years in percentage DLHS-4": 4.6,
      "Marginal Workers Agricultural Labourers worked for 0 - 3 moths during last year - Males": 1752,
      "Households with electricity as main source of lighting  Houselisting and Housing Census Data Tables- District Level , Census of India__3": 106598,
      "Households with computer or laptop with internet connection in percentage": 2.17,
      "PHCs functioning on a 24x7hours basis in percentage DLHS-4": "Not applicable",
      "Non Workers - Males": 158539,
      "Total Households in District Houselisting and Housing Census Data Tables- District Level , Census of India": 112525,
      "Upper Primary Schools with girls toilet in percentage DISE": "NA",
      "Households with mobile phone in percentage": 61.64,
      "Households receiving untreated tap water within premises in percentage Houselisting and Housing Census Data Tables- District Level , Census of India__2": 8.00622084,
      "Marginal Workers Cultivators worked for 3 - 6 moths during last year - Males": 1397,
      "Prevalence of Anaemia  in percentage DLHS-4": 62.4,
      "Prevalence of Chronic illness in percentage DLHS-4": 13.8,
      "Households with solar energy as main source of lighting in percentage Houselisting and Housing Census Data Tables- District Level , Census of India__1": 0.0844,
      "Marginal Workers Agricultural Labourers worked for 0 - 3 moths during last year - Females": 902,
      "Main Workers - Males": 148590,
      "Female": "NA",
      "Sno": 526,
      "Marginal Workers Other worked for 3 - 6 moths during last year - Females": 2675,
      "Marginal Workers Cultivators worked for 0 - 3 moths during last year - Females": 181,
      "Scheduled Tribe Males": 0,
      "Male Illiterates": 87421,
      "Prevalence of Severe Anaemia in pregnant women aged 15-49years in percentage DLHS-4": 4.1,
      "0-6 Age Group Persons": 74425,
      "Upper Primary Student-Classroom Ratio in percentage DISE": "NA",
      "Currently married men married below 21years of age in percentage DLHS-4": 8.4,
      "Male Literates": 244282,
      "Households with no lighting in percentage Houselisting and Housing Census Data Tables- District Level , Census of India__2": 0.454121306,
      "Primary Drop Out Rate in percentage DISE": "NA",
      "Marginal Workers Household Industry - Males": 735,
      "Female Illiterates": 113513,
      "Main Workers Other - Females": 8255,
      "Marginal Workers Cultivators - Persons": 2552,
      "Upper Primary Gross Enrolment Ratio in percentage DISE": "NA",
      "Scheduled Caste Persons": 208224,
      "Marginal Workers Cultivators worked for 3 - 6 moths during last year - Persons": 2122,
      "Households with landline phone in percentage": 6.5,
      "Total Households in District  Houselisting and Housing Census Data Tables- District Level , Census of India": 112525,
      "Upper Primary Pupil-Teacher Ratio in percentage DISE": "NA",
      "Primary Student-Classroom Ratio in percentage DISE": "NA",
      "Primary Schools with boys toilet in percentage DISE": "NA",
      "Mean number of children ever born to women aged 40-49years  DLHS-4": 2.8,
      "Households receiving untreated tap water within premises  Houselisting and Housing Census Data Tables- District Level , Census of India__5": 9009,
      "Marginal Workers Household Industry worked for 0 - 3 moths during last year - Persons": 258,
      "Total Male Population": 331703,
      "Non Workers - Females": 273191,
      "Current use of family planning methods in percentage DLHS-4": 64.7,
      "Households with main source of drinking water within premises  Houselisting and Housing Census Data Tables- District Level , Census of India__3": 89781,
      "Main Workers Agricultural Labourers - Males": 32391,
      "Marginal Workers Other worked for 0 - 3 moths during last year - Persons": 2199,
      "Currently married women married below 18years of age in percentage DLHS-4": 0,
      "Person Illiterates": 200934,
      "Main Workers Household Industry - Females": 765,
      "Female Literates": 182360,
      "Marginal Workers Cultivators worked for 0 - 3 moths during last year - Males": 249,
      "Male": "NA",
      "Households with improved source of drinking water in percentage DLHS-4": 66.4,
      "Upper Primary Schools with electricity in percentage DISE": "NA",
      "Households with electricity in percentage DLHS-4": 98.9,
      "Villages with Primary Health Centre within 10km in percentage DLHS-4": "Not applicable",
      "Births to women aged 15-19years out of Total births in percentage DLHS-4": "Not available",
      "Prevalence of Anaemia in women aged 15-49years in percentage DLHS-4": 59.1,
      "Marginal Workers Agricultural Labourers worked for 3 - 6 moths during last year - Persons": 11752,
      "Main Workers Household Industry - Males": 4469,
      "Scheduled Tribe Females": 0,
      "Marginal Workers worked for 0 - 3 moths during last year - Males": 3766,
      "Marginal Workers Other worked for 3 - 6 moths during last year - Males": 9708,
      "Primary Net Enrolment Ratio in percentage DISE": "NA",
      "Total": "NA",
      "Mean age at marriage for boys DLHS-4": 24.1,
      "Number of District Hospitals  DLHS-4": "Not applicable",
      "0-6 Age Group Females": 32958,
      "Marginal Workers Agricultural Labourers worked for 0 - 3 moths during last year - Persons": 2654,
      "Marginal Workers Household Industry worked for 0 - 3 moths during last year - Males": 154,
      "Total Workers  Females": 22682,
      "Marginal Workers worked for 3 - 6 moths during last year - Females": 6408,
      "Institutional Deliveries in percentage DLHS-4": 91,
      "Marginal Workers Other - Males": 11319,
      "Total Workers  Males": 173164,
      "Main Workers - Females": 14499,
      "Primary Gross Enrolment Ratio in percentage DISE": "NA",
      "Main Workers Cultivators - Persons": 47433,
      "Marginal Workers Household Industry worked for 0 - 3 moths during last year - Females": 104,
      "Upper Primary Net Enrolment Ratio in percentage DISE": "NA",
      "Primary New Government Schools since 2003 in percentage DISE": "NA",
      "Tier": "Rural",
      "Marginal Workers Household Industry - Females": 482,
      "Primary Schools with electricity in percentage DISE": "NA",
      "Main Workers Other - Persons": 74750,
      "Marginal Workers Household Industry worked for 3 - 6 moths during last year - Females": 378,
      "Main Workers Cultivators - Males": 45235,
      "Main Workers Household Industry - Persons": 5234,
      "Marginal Workers Cultivators worked for 0 - 3 moths during last year - Persons": 430,
      "Scheduled Caste Males": 110736,
      "Marginal Workers - Persons": 32757,
      "Deliveries at home conducted by skilled health personnel in percentage DLHS-4": 7.4,
      "Villages with Sub-Health Centres within 3km in percentage DLHS-4": "Not applicable",
      "Upper Primary New Government Schools since 2003 in percentage DISE": "NA",
      "0-6 Age Group Males": 41467,
      "Primary Schools with drinking water facility in percentage DISE": "NA",
      "Non Workers - Persons": 431730,
      "Person Literates": 426642,
      "State": "HARAYANA",
      "Total Female Population": 295873,
      "Marginal Workers worked for 0 - 3 moths during last year - Persons": 5541,
      "Marginal Workers Cultivators - Females": 906,
      "Marginal Workers Other - Persons": 14582,
      "Sex Ratio": 892,
      "Scheduled Tribe Persons": 0,
      "Marginal Workers Household Industry worked for 3 - 6 moths during last year - Males": 581,
      "Marginal Workers Agricultural Labourers - Females": 3532,
      "Mean age at marriage for girls DLHS-4": 21.4,
      "Households with solar energy as main source of lighting  Houselisting and Housing Census Data Tables- District Level , Census of India__4": 95,
      "District": "AMBALA",
      "Households receiving treated tap water within premises in percentage Houselisting and Housing Census Data Tables- District Level , Census of India__1": 58.79848922,
      "Total Workers  Persons": 195846,
      "Households receiving treated tap water within premises  Houselisting and Housing Census Data Tables- District Level , Census of India__4": 66163,
      "Primary Female Teachers in percentage DISE": "NA",
      "Number of Households": 117702,
      "Main Workers Agricultural Labourers - Persons": 35672
    }
  ],
  "Urban": [
    {
      "Marginal Workers Agricultural Labourers - Persons": 1765,
      "Marginal Workers Other - Females": 5492,
      "Marginal Workers Other worked for 0 - 3 moths during last year - Females": 531,
      "Upper Primary Schools with boys toilet in percentage DISE": "NA",
      "Total Population": 500774,
      "Households with electricity as main source of lighting in percentage Houselisting and Housing Census Data Tables- District Level , Census of India": 97.42218408,
      "Primary Girl's Enrolment in percentage DISE": "NA",
      "Marginal Workers worked for 3 - 6 moths during last year - Males": 12103,
      "Prevalence of Acute illness in percentage DLHS-4": "Not available",
      "Main Workers - Persons": 156386,
      "Main Workers Cultivators - Females": 203,
      "Marginal Workers Agricultural Labourers worked for 3 - 6 moths during last year - Females": 274,
      "Marginal Workers Other worked for 0 - 3 moths during last year - Males": 1089,
      "Upper Primary Schools with drinking water facility in percentage DISE": "NA",
      "Primary Schools with girls toilet in percentage DISE": "NA",
      "Marginal Workers worked for 3 - 6 moths during last year - Persons": 17828,
      "Upper Primary Drop Out Rate in percentage DISE": "NA",
      "Prevalence of Anaemia in pregnant women aged 15-49years in percentage DLHS-4": "Not available",
      "Current use of any modern method of family planning in percentage DLHS-4": "Not available",
      "Marginal Workers Agricultural Labourers - Males": 1457,
      "Upper Primary Female Teachers in percentage DISE": "NA",
      "Marginal Workers - Females": 6427,
      "Marginal Workers Other worked for 3 - 6 moths during last year - Persons": 15070,
      "Main Workers Agricultural Labourers - Females": 580,
      "Marginal Workers Cultivators worked for 3 - 6 moths during last year - Females": 140,
      "Households with no lighting  Houselisting and Housing Census Data Tables- District Level , Census of India__5": 181,
      "Prevalence of Severe Anaemia  in percentage DLHS-4": "Not available",
      "Total unmet need for family planning in percentage DLHS-4": "Not available",
      "Main Workers Other - Males": 119159,
      "Children who received full vaccination in percentage DLHS-4": "Not available",
      "Marginal Workers Household Industry - Persons": 1057,
      "Primary Pupil-Teacher Ratio in percentage DISE": "NA",
      "Marginal Workers Agricultural Labourers worked for 3 - 6 moths during last year - Males": 1263,
      "Scheduled Caste Females": 41884,
      "Marginal Workers Cultivators - Males": 245,
      "Marginal Workers - Males": 13480,
      "Marginal Workers worked for 0 - 3 moths during last year - Females": 702,
      "Households with main source of drinking water within premises in percentage Houselisting and Housing Census Data Tables- District Level , Census of India": 89.58302807,
      "Marginal Workers Household Industry worked for 3 - 6 moths during last year - Persons": 861,
      "Upper Primary Girl's Enrolment in percentage DISE": "NA",
      "Prevalence of Severe Anaemia in women aged 15-49years in percentage DLHS-4": "Not available",
      "Marginal Workers Agricultural Labourers worked for 0 - 3 moths during last year - Males": 194,
      "Households with electricity as main source of lighting  Houselisting and Housing Census Data Tables- District Level , Census of India__3": 93083,
      "Households with computer or laptop with internet connection in percentage": 10.94,
      "PHCs functioning on a 24x7hours basis in percentage DLHS-4": 0,
      "Non Workers - Males": 120044,
      "Total Households in District Houselisting and Housing Census Data Tables- District Level , Census of India": 95546,
      "Upper Primary Schools with girls toilet in percentage DISE": "NA",
      "Households with mobile phone in percentage": 57.49,
      "Households receiving untreated tap water within premises in percentage Houselisting and Housing Census Data Tables- District Level , Census of India__2": 4.152973437,
      "Marginal Workers Cultivators worked for 3 - 6 moths during last year - Males": 220,
      "Prevalence of Anaemia  in percentage DLHS-4": "Not available",
      "Prevalence of Chronic illness in percentage DLHS-4": "Not available",
      "Households with solar energy as main source of lighting in percentage Houselisting and Housing Census Data Tables- District Level , Census of India__1": 0.147572897,
      "Marginal Workers Agricultural Labourers worked for 0 - 3 moths during last year - Females": 34,
      "Main Workers - Males": 133476,
      "Female": "NA",
      "Sno": 528,
      "Marginal Workers Other worked for 3 - 6 moths during last year - Females": 4961,
      "Marginal Workers Cultivators worked for 0 - 3 moths during last year - Females": 10,
      "Scheduled Tribe Males": 0,
      "Male Illiterates": 49994,
      "Prevalence of Severe Anaemia in pregnant women aged 15-49years in percentage DLHS-4": "Not available",
      "0-6 Age Group Persons": 53264,
      "Upper Primary Student-Classroom Ratio in percentage DISE": "NA",
      "Currently married men married below 21years of age in percentage DLHS-4": "Not available",
      "Male Literates": 217006,
      "Households with no lighting in percentage Houselisting and Housing Census Data Tables- District Level , Census of India__2": 0.189437548,
      "Primary Drop Out Rate in percentage DISE": "NA",
      "Marginal Workers Household Industry - Males": 580,
      "Female Illiterates": 59397,
      "Main Workers Other - Females": 21041,
      "Marginal Workers Cultivators - Persons": 395,
      "Upper Primary Gross Enrolment Ratio in percentage DISE": "NA",
      "Scheduled Caste Persons": 88022,
      "Marginal Workers Cultivators worked for 3 - 6 moths during last year - Persons": 360,
      "Households with landline phone in percentage": 8.92,
      "Total Households in District  Houselisting and Housing Census Data Tables- District Level , Census of India": 95546,
      "Upper Primary Pupil-Teacher Ratio in percentage DISE": "NA",
      "Primary Student-Classroom Ratio in percentage DISE": "NA",
      "Primary Schools with boys toilet in percentage DISE": "NA",
      "Mean number of children ever born to women aged 40-49years  DLHS-4": "Not available",
      "Households receiving untreated tap water within premises  Houselisting and Housing Census Data Tables- District Level , Census of India__5": 3968,
      "Marginal Workers Household Industry worked for 0 - 3 moths during last year - Persons": 196,
      "Total Male Population": 267000,
      "Non Workers - Females": 204437,
      "Current use of family planning methods in percentage DLHS-4": "Not available",
      "Households with main source of drinking water within premises  Houselisting and Housing Census Data Tables- District Level , Census of India__3": 85593,
      "Main Workers Agricultural Labourers - Males": 4870,
      "Marginal Workers Other worked for 0 - 3 moths during last year - Persons": 1620,
      "Currently married women married below 18years of age in percentage DLHS-4": "Not available",
      "Person Illiterates": 109391,
      "Main Workers Household Industry - Females": 1086,
      "Female Literates": 174377,
      "Marginal Workers Cultivators worked for 0 - 3 moths during last year - Males": 25,
      "Male": "NA",
      "Households with improved source of drinking water in percentage DLHS-4": "Not available",
      "Upper Primary Schools with electricity in percentage DISE": "NA",
      "Households with electricity in percentage DLHS-4": "Not available",
      "Villages with Primary Health Centre within 10km in percentage DLHS-4": 0,
      "Births to women aged 15-19years out of Total births in percentage DLHS-4": "Not available",
      "Prevalence of Anaemia in women aged 15-49years in percentage DLHS-4": "Not available",
      "Marginal Workers Agricultural Labourers worked for 3 - 6 moths during last year - Persons": 1537,
      "Main Workers Household Industry - Males": 7159,
      "Scheduled Tribe Females": 0,
      "Marginal Workers worked for 0 - 3 moths during last year - Males": 1377,
      "Marginal Workers Other worked for 3 - 6 moths during last year - Males": 10109,
      "Primary Net Enrolment Ratio in percentage DISE": "NA",
      "Total": "NA",
      "Mean age at marriage for boys DLHS-4": "Not available",
      "Number of District Hospitals  DLHS-4": 0,
      "0-6 Age Group Females": 24190,
      "Marginal Workers Agricultural Labourers worked for 0 - 3 moths during last year - Persons": 228,
      "Marginal Workers Household Industry worked for 0 - 3 moths during last year - Males": 69,
      "Total Workers  Females": 29337,
      "Marginal Workers worked for 3 - 6 moths during last year - Females": 5725,
      "Institutional Deliveries in percentage DLHS-4": "Not available",
      "Marginal Workers Other - Males": 11198,
      "Total Workers  Males": 146956,
      "Main Workers - Females": 22910,
      "Primary Gross Enrolment Ratio in percentage DISE": "NA",
      "Main Workers Cultivators - Persons": 2491,
      "Marginal Workers Household Industry worked for 0 - 3 moths during last year - Females": 127,
      "Upper Primary Net Enrolment Ratio in percentage DISE": "NA",
      "Primary New Government Schools since 2003 in percentage DISE": "NA",
      "Tier": "Urban",
      "Marginal Workers Household Industry - Females": 477,
      "Primary Schools with electricity in percentage DISE": "NA",
      "Main Workers Other - Persons": 140200,
      "Marginal Workers Household Industry worked for 3 - 6 moths during last year - Females": 350,
      "Main Workers Cultivators - Males": 2288,
      "Main Workers Household Industry - Persons": 8245,
      "Marginal Workers Cultivators worked for 0 - 3 moths during last year - Persons": 35,
      "Scheduled Caste Males": 46138,
      "Marginal Workers - Persons": 19907,
      "Deliveries at home conducted by skilled health personnel in percentage DLHS-4": "Not available",
      "Villages with Sub-Health Centres within 3km in percentage DLHS-4": 0,
      "Upper Primary New Government Schools since 2003 in percentage DISE": "NA",
      "0-6 Age Group Males": 29074,
      "Primary Schools with drinking water facility in percentage DISE": "NA",
      "Non Workers - Persons": 324481,
      "Person Literates": 391383,
      "State": "HARAYANA",
      "Total Female Population": 233774,
      "Marginal Workers worked for 0 - 3 moths during last year - Persons": 2079,
      "Marginal Workers Cultivators - Females": 150,
      "Marginal Workers Other - Persons": 16690,
      "Sex Ratio": 876,
      "Scheduled Tribe Persons": 0,
      "Marginal Workers Household Industry worked for 3 - 6 moths during last year - Males": 511,
      "Marginal Workers Agricultural Labourers - Females": 308,
      "Mean age at marriage for girls DLHS-4": "Not available",
      "Households with solar energy as main source of lighting  Houselisting and Housing Census Data Tables- District Level , Census of India__4": 141,
      "District": "AMBALA",
      "Households receiving treated tap water within premises in percentage Houselisting and Housing Census Data Tables- District Level , Census of India__1": 74.07636112,
      "Total Workers  Persons": 176293,
      "Households receiving treated tap water within premises  Houselisting and Housing Census Data Tables- District Level , Census of India__4": 70777,
      "Primary Female Teachers in percentage DISE": "NA",
      "Number of Households": 106632,
      "Main Workers Agricultural Labourers - Persons": 5450
    }
  ]
}