{
  "Total": [
    {
      "Marginal Workers Agricultural Labourers - Persons": 25412,
      "Marginal Workers Other - Females": 8759,
      "Marginal Workers Other worked for 0 - 3 moths during last year - Females": 955,
      "Upper Primary Schools with boys toilet in percentage DISE": 98.2,
      "Total Population": 958405,
      "Households with electricity as main source of lighting in percentage Houselisting and Housing Census Data Tables- District Level , Census of India": 91.90730643,
      "Primary Girl's Enrolment in percentage DISE": 50,
      "Marginal Workers worked for 3 - 6 moths during last year - Males": 36999,
      "Prevalence of Acute illness in percentage DLHS-4": 16.5,
      "Main Workers - Persons": 246457,
      "Main Workers Cultivators - Females": 15193,
      "Marginal Workers Agricultural Labourers worked for 3 - 6 moths during last year - Females": 7569,
      "Marginal Workers Other worked for 0 - 3 moths during last year - Males": 2253,
      "Upper Primary Schools with drinking water facility in percentage DISE": 100,
      "Primary Schools with girls toilet in percentage DISE": 99.5,
      "Marginal Workers worked for 3 - 6 moths during last year - Persons": 64662,
      "Upper Primary Drop Out Rate in percentage DISE": 0.53,
      "Prevalence of Anaemia in pregnant women aged 15-49years in percentage DLHS-4": 61,
      "Current use of any modern method of family planning in percentage DLHS-4": 48.5,
      "Marginal Workers Agricultural Labourers - Males": 15485,
      "Upper Primary Female Teachers in percentage DISE": 36.4,
      "Marginal Workers - Females": 35939,
      "Marginal Workers Other worked for 3 - 6 moths during last year - Persons": 22647,
      "Main Workers Agricultural Labourers - Females": 3742,
      "Marginal Workers Cultivators worked for 3 - 6 moths during last year - Females": 11156,
      "Households with no lighting  Houselisting and Housing Census Data Tables- District Level , Census of India__5": 569,
      "Prevalence of Severe Anaemia  in percentage DLHS-4": 10.9,
      "Total unmet need for family planning in percentage DLHS-4": 30.5,
      "Main Workers Other - Males": 113841,
      "Children who received full vaccination in percentage DLHS-4": 52.6,
      "Marginal Workers Household Industry - Persons": 2734,
      "Primary Pupil-Teacher Ratio in percentage DISE": 27,
      "Marginal Workers Agricultural Labourers worked for 3 - 6 moths during last year - Males": 13013,
      "Scheduled Caste Females": 79592,
      "Marginal Workers Cultivators - Males": 10171,
      "Marginal Workers - Males": 44138,
      "Marginal Workers worked for 0 - 3 moths during last year - Females": 8276,
      "Households with main source of drinking water within premises in percentage Houselisting and Housing Census Data Tables- District Level , Census of India": 62.20338059,
      "Marginal Workers Household Industry worked for 3 - 6 moths during last year - Persons": 2294,
      "Upper Primary Girl's Enrolment in percentage DISE": 58.8,
      "Prevalence of Severe Anaemia in women aged 15-49years in percentage DLHS-4": 5.7,
      "Marginal Workers Agricultural Labourers worked for 0 - 3 moths during last year - Males": 2472,
      "Households with electricity as main source of lighting  Houselisting and Housing Census Data Tables- District Level , Census of India__3": 168558,
      "Households with computer or laptop with internet connection in percentage": 2.74,
      "PHCs functioning on a 24x7hours basis in percentage DLHS-4": 73.3,
      "Non Workers - Males": 264647,
      "Total Households in District Houselisting and Housing Census Data Tables- District Level , Census of India": 183400,
      "Upper Primary Schools with girls toilet in percentage DISE": 98.3,
      "Households with mobile phone in percentage": 67.19,
      "Households receiving untreated tap water within premises in percentage Houselisting and Housing Census Data Tables- District Level , Census of India__2": 11.587241,
      "Marginal Workers Cultivators worked for 3 - 6 moths during last year - Males": 7983,
      "Prevalence of Anaemia  in percentage DLHS-4": 66.9,
      "Prevalence of Chronic illness in percentage DLHS-4": 24.3,
      "Households with solar energy as main source of lighting in percentage Houselisting and Housing Census Data Tables- District Level , Census of India__1": 0.0927,
      "Marginal Workers Agricultural Labourers worked for 0 - 3 moths during last year - Females": 2358,
      "Main Workers - Males": 205882,
      "Female": 70.73,
      "Sno": 545,
      "Marginal Workers Other worked for 3 - 6 moths during last year - Females": 7804,
      "Marginal Workers Cultivators worked for 0 - 3 moths during last year - Females": 4749,
      "Scheduled Tribe Males": 0,
      "Male Illiterates": 115187,
      "Prevalence of Severe Anaemia in pregnant women aged 15-49years in percentage DLHS-4": 7.3,
      "0-6 Age Group Persons": 120051,
      "Upper Primary Student-Classroom Ratio in percentage DISE": 15,
      "Currently married men married below 21years of age in percentage DLHS-4": 13.3,
      "Male Literates": 399480,
      "Households with no lighting in percentage Houselisting and Housing Census Data Tables- District Level , Census of India__2": 0.310250818,
      "Primary Drop Out Rate in percentage DISE": 2.8,
      "Marginal Workers Household Industry - Males": 1386,
      "Female Illiterates": 167127,
      "Main Workers Other - Females": 20350,
      "Marginal Workers Cultivators - Persons": 26076,
      "Upper Primary Gross Enrolment Ratio in percentage DISE": 93,
      "Scheduled Caste Persons": 170448,
      "Marginal Workers Cultivators worked for 3 - 6 moths during last year - Persons": 19139,
      "Households with landline phone in percentage": 6.03,
      "Total Households in District  Houselisting and Housing Census Data Tables- District Level , Census of India": 183400,
      "Upper Primary Pupil-Teacher Ratio in percentage DISE": 11,
      "Primary Student-Classroom Ratio in percentage DISE": 18,
      "Primary Schools with boys toilet in percentage DISE": 91.6,
      "Mean number of children ever born to women aged 40-49years  DLHS-4": 2.8,
      "Households receiving untreated tap water within premises  Houselisting and Housing Census Data Tables- District Level , Census of India__5": 21251,
      "Marginal Workers Household Industry worked for 0 - 3 moths during last year - Persons": 440,
      "Total Male Population": 514667,
      "Non Workers - Females": 367224,
      "Current use of family planning methods in percentage DLHS-4": 49.9,
      "Households with main source of drinking water within premises  Houselisting and Housing Census Data Tables- District Level , Census of India__3": 114081,
      "Main Workers Agricultural Labourers - Males": 15691,
      "Marginal Workers Other worked for 0 - 3 moths during last year - Persons": 3208,
      "Currently married women married below 18years of age in percentage DLHS-4": 4.5,
      "Person Illiterates": 282314,
      "Main Workers Household Industry - Females": 1290,
      "Female Literates": 276611,
      "Marginal Workers Cultivators worked for 0 - 3 moths during last year - Males": 2188,
      "Male": 89.31,
      "Households with improved source of drinking water in percentage DLHS-4": 97.4,
      "Upper Primary Schools with electricity in percentage DISE": 100,
      "Households with electricity in percentage DLHS-4": 99.4,
      "Villages with Primary Health Centre within 10km in percentage DLHS-4": 97.7,
      "Births to women aged 15-19years out of Total births in percentage DLHS-4": 3.4,
      "Prevalence of Anaemia in women aged 15-49years in percentage DLHS-4": 56.3,
      "Marginal Workers Agricultural Labourers worked for 3 - 6 moths during last year - Persons": 20582,
      "Main Workers Household Industry - Males": 5230,
      "Scheduled Tribe Females": 0,
      "Marginal Workers worked for 0 - 3 moths during last year - Males": 7139,
      "Marginal Workers Other worked for 3 - 6 moths during last year - Males": 14843,
      "Primary Net Enrolment Ratio in percentage DISE": 80.8,
      "Total": 80.65,
      "Mean age at marriage for boys DLHS-4": 24.4,
      "Number of District Hospitals  DLHS-4": 1,
      "0-6 Age Group Females": 52671,
      "Marginal Workers Agricultural Labourers worked for 0 - 3 moths during last year - Persons": 4830,
      "Marginal Workers Household Industry worked for 0 - 3 moths during last year - Males": 226,
      "Total Workers  Females": 76514,
      "Marginal Workers worked for 3 - 6 moths during last year - Females": 27663,
      "Institutional Deliveries in percentage DLHS-4": 90,
      "Marginal Workers Other - Males": 17096,
      "Total Workers  Males": 250020,
      "Main Workers - Females": 40575,
      "Primary Gross Enrolment Ratio in percentage DISE": 100.4,
      "Main Workers Cultivators - Persons": 86313,
      "Marginal Workers Household Industry worked for 0 - 3 moths during last year - Females": 214,
      "Upper Primary Net Enrolment Ratio in percentage DISE": 68.5,
      "Primary New Government Schools since 2003 in percentage DISE": 2.4,
      "Tier": "Total",
      "Marginal Workers Household Industry - Females": 1348,
      "Primary Schools with electricity in percentage DISE": 100,
      "Main Workers Other - Persons": 134191,
      "Marginal Workers Household Industry worked for 3 - 6 moths during last year - Females": 1134,
      "Main Workers Cultivators - Males": 71120,
      "Main Workers Household Industry - Persons": 6520,
      "Marginal Workers Cultivators worked for 0 - 3 moths during last year - Persons": 6937,
      "Scheduled Caste Males": 90856,
      "Marginal Workers - Persons": 80077,
      "Deliveries at home conducted by skilled health personnel in percentage DLHS-4": 7,
      "Villages with Sub-Health Centres within 3km in percentage DLHS-4": 93.2,
      "Upper Primary New Government Schools since 2003 in percentage DISE": 5.3,
      "0-6 Age Group Males": 67380,
      "Primary Schools with drinking water facility in percentage DISE": 100,
      "Non Workers - Persons": 631871,
      "Person Literates": 676091,
      "State": "HARAYANA",
      "Total Female Population": 443738,
      "Marginal Workers worked for 0 - 3 moths during last year - Persons": 15415,
      "Marginal Workers Cultivators - Females": 15905,
      "Marginal Workers Other - Persons": 25855,
      "Sex Ratio": 862,
      "Scheduled Tribe Persons": 0,
      "Marginal Workers Household Industry worked for 3 - 6 moths during last year - Males": 1160,
      "Marginal Workers Agricultural Labourers - Females": 9927,
      "Mean age at marriage for girls DLHS-4": 20.9,
      "Households with solar energy as main source of lighting  Houselisting and Housing Census Data Tables- District Level , Census of India__4": 170,
      "District": "JHAJJAR",
      "Households receiving treated tap water within premises in percentage Houselisting and Housing Census Data Tables- District Level , Census of India__1": 41.98854962,
      "Total Workers  Persons": 326534,
      "Households receiving treated tap water within premises  Houselisting and Housing Census Data Tables- District Level , Census of India__4": 77007,
      "Primary Female Teachers in percentage DISE": 62.3,
      "Number of Households": 185334,
      "Main Workers Agricultural Labourers - Persons": 19433
    }
  ],
  "Rural": [
    {
      "Marginal Workers Agricultural Labourers - Persons": 24166,
      "Marginal Workers Other - Females": 6883,
      "Marginal Workers Other worked for 0 - 3 moths during last year - Females": 841,
      "Upper Primary Schools with boys toilet in percentage DISE": "NA",
      "Total Population": 715066,
      "Households with electricity as main source of lighting in percentage Houselisting and Housing Census Data Tables- District Level , Census of India": 90.3967545,
      "Primary Girl's Enrolment in percentage DISE": "NA",
      "Marginal Workers worked for 3 - 6 moths during last year - Males": 31442,
      "Prevalence of Acute illness in percentage DLHS-4": 16.9,
      "Main Workers - Persons": 182688,
      "Main Workers Cultivators - Females": 14628,
      "Marginal Workers Agricultural Labourers worked for 3 - 6 moths during last year - Females": 7381,
      "Marginal Workers Other worked for 0 - 3 moths during last year - Males": 1601,
      "Upper Primary Schools with drinking water facility in percentage DISE": "NA",
      "Primary Schools with girls toilet in percentage DISE": "NA",
      "Marginal Workers worked for 3 - 6 moths during last year - Persons": 56929,
      "Upper Primary Drop Out Rate in percentage DISE": "NA",
      "Prevalence of Anaemia in pregnant women aged 15-49years in percentage DLHS-4": 61.4,
      "Current use of any modern method of family planning in percentage DLHS-4": 45.9,
      "Marginal Workers Agricultural Labourers - Males": 14482,
      "Upper Primary Female Teachers in percentage DISE": "NA",
      "Marginal Workers - Females": 33540,
      "Marginal Workers Other worked for 3 - 6 moths during last year - Persons": 16505,
      "Main Workers Agricultural Labourers - Females": 3452,
      "Marginal Workers Cultivators worked for 3 - 6 moths during last year - Females": 11032,
      "Households with no lighting  Houselisting and Housing Census Data Tables- District Level , Census of India__5": 422,
      "Prevalence of Severe Anaemia  in percentage DLHS-4": 11.3,
      "Total unmet need for family planning in percentage DLHS-4": 37.9,
      "Main Workers Other - Males": 65161,
      "Children who received full vaccination in percentage DLHS-4": 48.6,
      "Marginal Workers Household Industry - Persons": 2368,
      "Primary Pupil-Teacher Ratio in percentage DISE": "NA",
      "Marginal Workers Agricultural Labourers worked for 3 - 6 moths during last year - Males": 12240,
      "Scheduled Caste Females": 61019,
      "Marginal Workers Cultivators - Males": 9915,
      "Marginal Workers - Males": 37605,
      "Marginal Workers worked for 0 - 3 moths during last year - Females": 8053,
      "Households with main source of drinking water within premises in percentage Houselisting and Housing Census Data Tables- District Level , Census of India": 54.88834301,
      "Marginal Workers Household Industry worked for 3 - 6 moths during last year - Persons": 2000,
      "Upper Primary Girl's Enrolment in percentage DISE": "NA",
      "Prevalence of Severe Anaemia in women aged 15-49years in percentage DLHS-4": 5.7,
      "Marginal Workers Agricultural Labourers worked for 0 - 3 moths during last year - Males": 2242,
      "Households with electricity as main source of lighting  Houselisting and Housing Census Data Tables- District Level , Census of India__3": 121439,
      "Households with computer or laptop with internet connection in percentage": 1.36,
      "PHCs functioning on a 24x7hours basis in percentage DLHS-4": "Not applicable",
      "Non Workers - Males": 195562,
      "Total Households in District Houselisting and Housing Census Data Tables- District Level , Census of India": 134340,
      "Upper Primary Schools with girls toilet in percentage DISE": "NA",
      "Households with mobile phone in percentage": 66.45,
      "Households receiving untreated tap water within premises in percentage Houselisting and Housing Census Data Tables- District Level , Census of India__2": 14.85410153,
      "Marginal Workers Cultivators worked for 3 - 6 moths during last year - Males": 7771,
      "Prevalence of Anaemia  in percentage DLHS-4": 66.7,
      "Prevalence of Chronic illness in percentage DLHS-4": 24.6,
      "Households with solar energy as main source of lighting in percentage Houselisting and Housing Census Data Tables- District Level , Census of India__1": 0.116123269,
      "Marginal Workers Agricultural Labourers worked for 0 - 3 moths during last year - Females": 2303,
      "Main Workers - Males": 151052,
      "Female": "NA",
      "Sno": 544,
      "Marginal Workers Other worked for 3 - 6 moths during last year - Females": 6042,
      "Marginal Workers Cultivators worked for 0 - 3 moths during last year - Females": 4717,
      "Scheduled Tribe Males": 0,
      "Male Illiterates": 87386,
      "Prevalence of Severe Anaemia in pregnant women aged 15-49years in percentage DLHS-4": 7.6,
      "0-6 Age Group Persons": 89704,
      "Upper Primary Student-Classroom Ratio in percentage DISE": "NA",
      "Currently married men married below 21years of age in percentage DLHS-4": 14.9,
      "Male Literates": 296833,
      "Households with no lighting in percentage Houselisting and Housing Census Data Tables- District Level , Census of India__2": 0.314128331,
      "Primary Drop Out Rate in percentage DISE": "NA",
      "Marginal Workers Household Industry - Males": 1144,
      "Female Illiterates": 131225,
      "Main Workers Other - Females": 12567,
      "Marginal Workers Cultivators - Persons": 25664,
      "Upper Primary Gross Enrolment Ratio in percentage DISE": "NA",
      "Scheduled Caste Persons": 130913,
      "Marginal Workers Cultivators worked for 3 - 6 moths during last year - Persons": 18803,
      "Households with landline phone in percentage": 5.95,
      "Total Households in District  Houselisting and Housing Census Data Tables- District Level , Census of India": 134340,
      "Upper Primary Pupil-Teacher Ratio in percentage DISE": "NA",
      "Primary Student-Classroom Ratio in percentage DISE": "NA",
      "Primary Schools with boys toilet in percentage DISE": "NA",
      "Mean number of children ever born to women aged 40-49years  DLHS-4": 2.9,
      "Households receiving untreated tap water within premises  Houselisting and Housing Census Data Tables- District Level , Census of India__5": 19955,
      "Marginal Workers Household Industry worked for 0 - 3 moths during last year - Persons": 368,
      "Total Male Population": 384219,
      "Non Workers - Females": 265671,
      "Current use of family planning methods in percentage DLHS-4": 46.9,
      "Households with main source of drinking water within premises  Houselisting and Housing Census Data Tables- District Level , Census of India__3": 73737,
      "Main Workers Agricultural Labourers - Males": 13933,
      "Marginal Workers Other worked for 0 - 3 moths during last year - Persons": 2442,
      "Currently married women married below 18years of age in percentage DLHS-4": 5.1,
      "Person Illiterates": 218611,
      "Main Workers Household Industry - Females": 989,
      "Female Literates": 199622,
      "Marginal Workers Cultivators worked for 0 - 3 moths during last year - Males": 2144,
      "Male": "NA",
      "Households with improved source of drinking water in percentage DLHS-4": 96.2,
      "Upper Primary Schools with electricity in percentage DISE": "NA",
      "Households with electricity in percentage DLHS-4": 99.1,
      "Villages with Primary Health Centre within 10km in percentage DLHS-4": "Not applicable",
      "Births to women aged 15-19years out of Total births in percentage DLHS-4": 4.3,
      "Prevalence of Anaemia in women aged 15-49years in percentage DLHS-4": 55.2,
      "Marginal Workers Agricultural Labourers worked for 3 - 6 moths during last year - Persons": 19621,
      "Main Workers Household Industry - Males": 3410,
      "Scheduled Tribe Females": 0,
      "Marginal Workers worked for 0 - 3 moths during last year - Males": 6163,
      "Marginal Workers Other worked for 3 - 6 moths during last year - Males": 10463,
      "Primary Net Enrolment Ratio in percentage DISE": "NA",
      "Total": "NA",
      "Mean age at marriage for boys DLHS-4": 24.3,
      "Number of District Hospitals  DLHS-4": "Not applicable",
      "0-6 Age Group Females": 39239,
      "Marginal Workers Agricultural Labourers worked for 0 - 3 moths during last year - Persons": 4545,
      "Marginal Workers Household Industry worked for 0 - 3 moths during last year - Males": 176,
      "Total Workers  Females": 65176,
      "Marginal Workers worked for 3 - 6 moths during last year - Females": 25487,
      "Institutional Deliveries in percentage DLHS-4": 90.2,
      "Marginal Workers Other - Males": 12064,
      "Total Workers  Males": 188657,
      "Main Workers - Females": 31636,
      "Primary Gross Enrolment Ratio in percentage DISE": "NA",
      "Main Workers Cultivators - Persons": 83176,
      "Marginal Workers Household Industry worked for 0 - 3 moths during last year - Females": 192,
      "Upper Primary Net Enrolment Ratio in percentage DISE": "NA",
      "Primary New Government Schools since 2003 in percentage DISE": "NA",
      "Tier": "Rural",
      "Marginal Workers Household Industry - Females": 1224,
      "Primary Schools with electricity in percentage DISE": "NA",
      "Main Workers Other - Persons": 77728,
      "Marginal Workers Household Industry worked for 3 - 6 moths during last year - Females": 1032,
      "Main Workers Cultivators - Males": 68548,
      "Main Workers Household Industry - Persons": 4399,
      "Marginal Workers Cultivators worked for 0 - 3 moths during last year - Persons": 6861,
      "Scheduled Caste Males": 69894,
      "Marginal Workers - Persons": 71145,
      "Deliveries at home conducted by skilled health personnel in percentage DLHS-4": 6.6,
      "Villages with Sub-Health Centres within 3km in percentage DLHS-4": "Not applicable",
      "Upper Primary New Government Schools since 2003 in percentage DISE": "NA",
      "0-6 Age Group Males": 50465,
      "Primary Schools with drinking water facility in percentage DISE": "NA",
      "Non Workers - Persons": 461233,
      "Person Literates": 496455,
      "State": "HARAYANA",
      "Total Female Population": 330847,
      "Marginal Workers worked for 0 - 3 moths during last year - Persons": 14216,
      "Marginal Workers Cultivators - Females": 15749,
      "Marginal Workers Other - Persons": 18947,
      "Sex Ratio": 861,
      "Scheduled Tribe Persons": 0,
      "Marginal Workers Household Industry worked for 3 - 6 moths during last year - Males": 968,
      "Marginal Workers Agricultural Labourers - Females": 9684,
      "Mean age at marriage for girls DLHS-4": 20.6,
      "Households with solar energy as main source of lighting  Houselisting and Housing Census Data Tables- District Level , Census of India__4": 156,
      "District": "JHAJJAR",
      "Households receiving treated tap water within premises in percentage Houselisting and Housing Census Data Tables- District Level , Census of India__1": 32.54726813,
      "Total Workers  Persons": 253833,
      "Households receiving treated tap water within premises  Houselisting and Housing Census Data Tables- District Level , Census of India__4": 43724,
      "Primary Female Teachers in percentage DISE": "NA",
      "Number of Households": 136503,
      "Main Workers Agricultural Labourers - Persons": 17385
    }
  ],
  "Urban": [
    {
      "Marginal Workers Agricultural Labourers - Persons": 1246,
      "Marginal Workers Other - Females": 1876,
      "Marginal Workers Other worked for 0 - 3 moths during last year - Females": 114,
      "Upper Primary Schools with boys toilet in percentage DISE": "NA",
      "Total Population": 243339,
      "Households with electricity as main source of lighting in percentage Houselisting and Housing Census Data Tables- District Level , Census of India": 96.04362006,
      "Primary Girl's Enrolment in percentage DISE": "NA",
      "Marginal Workers worked for 3 - 6 moths during last year - Males": 5557,
      "Prevalence of Acute illness in percentage DLHS-4": "Not available",
      "Main Workers - Persons": 63769,
      "Main Workers Cultivators - Females": 565,
      "Marginal Workers Agricultural Labourers worked for 3 - 6 moths during last year - Females": 188,
      "Marginal Workers Other worked for 0 - 3 moths during last year - Males": 652,
      "Upper Primary Schools with drinking water facility in percentage DISE": "NA",
      "Primary Schools with girls toilet in percentage DISE": "NA",
      "Marginal Workers worked for 3 - 6 moths during last year - Persons": 7733,
      "Upper Primary Drop Out Rate in percentage DISE": "NA",
      "Prevalence of Anaemia in pregnant women aged 15-49years in percentage DLHS-4": "Not available",
      "Current use of any modern method of family planning in percentage DLHS-4": "Not available",
      "Marginal Workers Agricultural Labourers - Males": 1003,
      "Upper Primary Female Teachers in percentage DISE": "NA",
      "Marginal Workers - Females": 2399,
      "Marginal Workers Other worked for 3 - 6 moths during last year - Persons": 6142,
      "Main Workers Agricultural Labourers - Females": 290,
      "Marginal Workers Cultivators worked for 3 - 6 moths during last year - Females": 124,
      "Households with no lighting  Houselisting and Housing Census Data Tables- District Level , Census of India__5": 147,
      "Prevalence of Severe Anaemia  in percentage DLHS-4": "Not available",
      "Total unmet need for family planning in percentage DLHS-4": "Not available",
      "Main Workers Other - Males": 48680,
      "Children who received full vaccination in percentage DLHS-4": "Not available",
      "Marginal Workers Household Industry - Persons": 366,
      "Primary Pupil-Teacher Ratio in percentage DISE": "NA",
      "Marginal Workers Agricultural Labourers worked for 3 - 6 moths during last year - Males": 773,
      "Scheduled Caste Females": 18573,
      "Marginal Workers Cultivators - Males": 256,
      "Marginal Workers - Males": 6533,
      "Marginal Workers worked for 0 - 3 moths during last year - Females": 223,
      "Households with main source of drinking water within premises in percentage Houselisting and Housing Census Data Tables- District Level , Census of India": 82.23399918,
      "Marginal Workers Household Industry worked for 3 - 6 moths during last year - Persons": 294,
      "Upper Primary Girl's Enrolment in percentage DISE": "NA",
      "Prevalence of Severe Anaemia in women aged 15-49years in percentage DLHS-4": "Not available",
      "Marginal Workers Agricultural Labourers worked for 0 - 3 moths during last year - Males": 230,
      "Households with electricity as main source of lighting  Houselisting and Housing Census Data Tables- District Level , Census of India__3": 47119,
      "Households with computer or laptop with internet connection in percentage": 6.53,
      "PHCs functioning on a 24x7hours basis in percentage DLHS-4": 0,
      "Non Workers - Males": 69085,
      "Total Households in District Houselisting and Housing Census Data Tables- District Level , Census of India": 49060,
      "Upper Primary Schools with girls toilet in percentage DISE": "NA",
      "Households with mobile phone in percentage": 69.22,
      "Households receiving untreated tap water within premises in percentage Houselisting and Housing Census Data Tables- District Level , Census of India__2": 2.641663269,
      "Marginal Workers Cultivators worked for 3 - 6 moths during last year - Males": 212,
      "Prevalence of Anaemia  in percentage DLHS-4": "Not available",
      "Prevalence of Chronic illness in percentage DLHS-4": "Not available",
      "Households with solar energy as main source of lighting in percentage Houselisting and Housing Census Data Tables- District Level , Census of India__1": 0.0285,
      "Marginal Workers Agricultural Labourers worked for 0 - 3 moths during last year - Females": 55,
      "Main Workers - Males": 54830,
      "Female": "NA",
      "Sno": 546,
      "Marginal Workers Other worked for 3 - 6 moths during last year - Females": 1762,
      "Marginal Workers Cultivators worked for 0 - 3 moths during last year - Females": 32,
      "Scheduled Tribe Males": 0,
      "Male Illiterates": 27801,
      "Prevalence of Severe Anaemia in pregnant women aged 15-49years in percentage DLHS-4": "Not available",
      "0-6 Age Group Persons": 30347,
      "Upper Primary Student-Classroom Ratio in percentage DISE": "NA",
      "Currently married men married below 21years of age in percentage DLHS-4": "Not available",
      "Male Literates": 102647,
      "Households with no lighting in percentage Houselisting and Housing Census Data Tables- District Level , Census of India__2": 0.299633102,
      "Primary Drop Out Rate in percentage DISE": "NA",
      "Marginal Workers Household Industry - Males": 242,
      "Female Illiterates": 35902,
      "Main Workers Other - Females": 7783,
      "Marginal Workers Cultivators - Persons": 412,
      "Upper Primary Gross Enrolment Ratio in percentage DISE": "NA",
      "Scheduled Caste Persons": 39535,
      "Marginal Workers Cultivators worked for 3 - 6 moths during last year - Persons": 336,
      "Households with landline phone in percentage": 6.23,
      "Total Households in District  Houselisting and Housing Census Data Tables- District Level , Census of India": 49060,
      "Upper Primary Pupil-Teacher Ratio in percentage DISE": "NA",
      "Primary Student-Classroom Ratio in percentage DISE": "NA",
      "Primary Schools with boys toilet in percentage DISE": "NA",
      "Mean number of children ever born to women aged 40-49years  DLHS-4": "Not available",
      "Households receiving untreated tap water within premises  Houselisting and Housing Census Data Tables- District Level , Census of India__5": 1296,
      "Marginal Workers Household Industry worked for 0 - 3 moths during last year - Persons": 72,
      "Total Male Population": 130448,
      "Non Workers - Females": 101553,
      "Current use of family planning methods in percentage DLHS-4": "Not available",
      "Households with main source of drinking water within premises  Houselisting and Housing Census Data Tables- District Level , Census of India__3": 40344,
      "Main Workers Agricultural Labourers - Males": 1758,
      "Marginal Workers Other worked for 0 - 3 moths during last year - Persons": 766,
      "Currently married women married below 18years of age in percentage DLHS-4": "Not available",
      "Person Illiterates": 63703,
      "Main Workers Household Industry - Females": 301,
      "Female Literates": 76989,
      "Marginal Workers Cultivators worked for 0 - 3 moths during last year - Males": 44,
      "Male": "NA",
      "Households with improved source of drinking water in percentage DLHS-4": "Not available",
      "Upper Primary Schools with electricity in percentage DISE": "NA",
      "Households with electricity in percentage DLHS-4": "Not available",
      "Villages with Primary Health Centre within 10km in percentage DLHS-4": 0,
      "Births to women aged 15-19years out of Total births in percentage DLHS-4": "Not available",
      "Prevalence of Anaemia in women aged 15-49years in percentage DLHS-4": "Not available",
      "Marginal Workers Agricultural Labourers worked for 3 - 6 moths during last year - Persons": 961,
      "Main Workers Household Industry - Males": 1820,
      "Scheduled Tribe Females": 0,
      "Marginal Workers worked for 0 - 3 moths during last year - Males": 976,
      "Marginal Workers Other worked for 3 - 6 moths during last year - Males": 4380,
      "Primary Net Enrolment Ratio in percentage DISE": "NA",
      "Total": "NA",
      "Mean age at marriage for boys DLHS-4": "Not available",
      "Number of District Hospitals  DLHS-4": 0,
      "0-6 Age Group Females": 13432,
      "Marginal Workers Agricultural Labourers worked for 0 - 3 moths during last year - Persons": 285,
      "Marginal Workers Household Industry worked for 0 - 3 moths during last year - Males": 50,
      "Total Workers  Females": 11338,
      "Marginal Workers worked for 3 - 6 moths during last year - Females": 2176,
      "Institutional Deliveries in percentage DLHS-4": "Not available",
      "Marginal Workers Other - Males": 5032,
      "Total Workers  Males": 61363,
      "Main Workers - Females": 8939,
      "Primary Gross Enrolment Ratio in percentage DISE": "NA",
      "Main Workers Cultivators - Persons": 3137,
      "Marginal Workers Household Industry worked for 0 - 3 moths during last year - Females": 22,
      "Upper Primary Net Enrolment Ratio in percentage DISE": "NA",
      "Primary New Government Schools since 2003 in percentage DISE": "NA",
      "Tier": "Urban",
      "Marginal Workers Household Industry - Females": 124,
      "Primary Schools with electricity in percentage DISE": "NA",
      "Main Workers Other - Persons": 56463,
      "Marginal Workers Household Industry worked for 3 - 6 moths during last year - Females": 102,
      "Main Workers Cultivators - Males": 2572,
      "Main Workers Household Industry - Persons": 2121,
      "Marginal Workers Cultivators worked for 0 - 3 moths during last year - Persons": 76,
      "Scheduled Caste Males": 20962,
      "Marginal Workers - Persons": 8932,
      "Deliveries at home conducted by skilled health personnel in percentage DLHS-4": "Not available",
      "Villages with Sub-Health Centres within 3km in percentage DLHS-4": 0,
      "Upper Primary New Government Schools since 2003 in percentage DISE": "NA",
      "0-6 Age Group Males": 16915,
      "Primary Schools with drinking water facility in percentage DISE": "NA",
      "Non Workers - Persons": 170638,
      "Person Literates": 179636,
      "State": "HARAYANA",
      "Total Female Population": 112891,
      "Marginal Workers worked for 0 - 3 moths during last year - Persons": 1199,
      "Marginal Workers Cultivators - Females": 156,
      "Marginal Workers Other - Persons": 6908,
      "Sex Ratio": 865,
      "Scheduled Tribe Persons": 0,
      "Marginal Workers Household Industry worked for 3 - 6 moths during last year - Males": 192,
      "Marginal Workers Agricultural Labourers - Females": 243,
      "Mean age at marriage for girls DLHS-4": "Not available",
      "Households with solar energy as main source of lighting  Houselisting and Housing Census Data Tables- District Level , Census of India__4": 14,
      "District": "JHAJJAR",
      "Households receiving treated tap water within premises in percentage Houselisting and Housing Census Data Tables- District Level , Census of India__1": 67.84141867,
      "Total Workers  Persons": 72701,
      "Households receiving treated tap water within premises  Houselisting and Housing Census Data Tables- District Level , Census of India__4": 33283,
      "Primary Female Teachers in percentage DISE": "NA",
      "Number of Households": 48831,
      "Main Workers Agricultural Labourers - Persons": 2048
    }
  ]
}