{
  "Total": [
    {
      "Marginal Workers Agricultural Labourers - Persons": 45429,
      "Marginal Workers Other - Females": 12232,
      "Marginal Workers Other worked for 0 - 3 moths during last year - Females": 2135,
      "Upper Primary Schools with boys toilet in percentage DISE": 92.3,
      "Total Population": 1334152,
      "Households with electricity as main source of lighting in percentage Houselisting and Housing Census Data Tables- District Level , Census of India": 90.9559984,
      "Primary Girl's Enrolment in percentage DISE": 51.3,
      "Marginal Workers worked for 3 - 6 moths during last year - Males": 43035,
      "Prevalence of Acute illness in percentage DLHS-4": 18,
      "Main Workers - Persons": 385851,
      "Main Workers Cultivators - Females": 36310,
      "Marginal Workers Agricultural Labourers worked for 3 - 6 moths during last year - Females": 19529,
      "Marginal Workers Other worked for 0 - 3 moths during last year - Males": 3083,
      "Upper Primary Schools with drinking water facility in percentage DISE": 100,
      "Primary Schools with girls toilet in percentage DISE": 96.7,
      "Marginal Workers worked for 3 - 6 moths during last year - Persons": 107751,
      "Upper Primary Drop Out Rate in percentage DISE": 1.52,
      "Prevalence of Anaemia in pregnant women aged 15-49years in percentage DLHS-4": 60.3,
      "Current use of any modern method of family planning in percentage DLHS-4": 49.3,
      "Marginal Workers Agricultural Labourers - Males": 20016,
      "Upper Primary Female Teachers in percentage DISE": 33.7,
      "Marginal Workers - Females": 82454,
      "Marginal Workers Other worked for 3 - 6 moths during last year - Persons": 26663,
      "Main Workers Agricultural Labourers - Females": 13393,
      "Marginal Workers Cultivators worked for 3 - 6 moths during last year - Females": 33989,
      "Households with no lighting  Houselisting and Housing Census Data Tables- District Level , Census of India__5": 931,
      "Prevalence of Severe Anaemia  in percentage DLHS-4": 5.4,
      "Total unmet need for family planning in percentage DLHS-4": 27.6,
      "Main Workers Other - Males": 128282,
      "Children who received full vaccination in percentage DLHS-4": 64.9,
      "Marginal Workers Household Industry - Persons": 2556,
      "Primary Pupil-Teacher Ratio in percentage DISE": 29,
      "Marginal Workers Agricultural Labourers worked for 3 - 6 moths during last year - Males": 16696,
      "Scheduled Caste Females": 131411,
      "Marginal Workers Cultivators - Males": 14338,
      "Marginal Workers - Males": 55117,
      "Marginal Workers worked for 0 - 3 moths during last year - Females": 17738,
      "Households with main source of drinking water within premises in percentage Houselisting and Housing Census Data Tables- District Level , Census of India": 48.97498589,
      "Marginal Workers Household Industry worked for 3 - 6 moths during last year - Persons": 1937,
      "Upper Primary Girl's Enrolment in percentage DISE": 63.9,
      "Prevalence of Severe Anaemia in women aged 15-49years in percentage DLHS-4": 5.2,
      "Marginal Workers Agricultural Labourers worked for 0 - 3 moths during last year - Males": 3320,
      "Households with electricity as main source of lighting  Houselisting and Housing Census Data Tables- District Level , Census of India__3": 222462,
      "Households with computer or laptop with internet connection in percentage": 2.15,
      "PHCs functioning on a 24x7hours basis in percentage DLHS-4": 100,
      "Non Workers - Males": 344729,
      "Total Households in District Houselisting and Housing Census Data Tables- District Level , Census of India": 244582,
      "Upper Primary Schools with girls toilet in percentage DISE": 98,
      "Households with mobile phone in percentage": 68.87,
      "Households receiving untreated tap water within premises in percentage Houselisting and Housing Census Data Tables- District Level , Census of India__2": 5.128341415,
      "Marginal Workers Cultivators worked for 3 - 6 moths during last year - Males": 8937,
      "Prevalence of Anaemia  in percentage DLHS-4": 60.6,
      "Prevalence of Chronic illness in percentage DLHS-4": 20.2,
      "Households with solar energy as main source of lighting in percentage Houselisting and Housing Census Data Tables- District Level , Census of India__1": 0.0838,
      "Marginal Workers Agricultural Labourers worked for 0 - 3 moths during last year - Females": 5884,
      "Main Workers - Males": 313160,
      "Female": 60.76,
      "Sno": 548,
      "Marginal Workers Other worked for 3 - 6 moths during last year - Females": 10097,
      "Marginal Workers Cultivators worked for 0 - 3 moths during last year - Females": 9378,
      "Scheduled Tribe Males": 0,
      "Male Illiterates": 210957,
      "Prevalence of Severe Anaemia in pregnant women aged 15-49years in percentage DLHS-4": 4,
      "0-6 Age Group Persons": 168554,
      "Upper Primary Student-Classroom Ratio in percentage DISE": 27,
      "Currently married men married below 21years of age in percentage DLHS-4": 17,
      "Male Literates": 502049,
      "Households with no lighting in percentage Houselisting and Housing Census Data Tables- District Level , Census of India__2": 0.380649435,
      "Primary Drop Out Rate in percentage DISE": 2.3,
      "Marginal Workers Household Industry - Males": 1114,
      "Female Illiterates": 290437,
      "Main Workers Other - Females": 21687,
      "Marginal Workers Cultivators - Persons": 57705,
      "Upper Primary Gross Enrolment Ratio in percentage DISE": 97.7,
      "Scheduled Caste Persons": 282351,
      "Marginal Workers Cultivators worked for 3 - 6 moths during last year - Persons": 42926,
      "Households with landline phone in percentage": 4.53,
      "Total Households in District  Houselisting and Housing Census Data Tables- District Level , Census of India": 244582,
      "Upper Primary Pupil-Teacher Ratio in percentage DISE": 18,
      "Primary Student-Classroom Ratio in percentage DISE": 25,
      "Primary Schools with boys toilet in percentage DISE": 77.3,
      "Mean number of children ever born to women aged 40-49years  DLHS-4": 3,
      "Households receiving untreated tap water within premises  Houselisting and Housing Census Data Tables- District Level , Census of India__5": 12543,
      "Marginal Workers Household Industry worked for 0 - 3 moths during last year - Persons": 619,
      "Total Male Population": 713006,
      "Non Workers - Females": 466001,
      "Current use of family planning methods in percentage DLHS-4": 51.6,
      "Households with main source of drinking water within premises  Houselisting and Housing Census Data Tables- District Level , Census of India__3": 119784,
      "Main Workers Agricultural Labourers - Males": 43249,
      "Marginal Workers Other worked for 0 - 3 moths during last year - Persons": 5218,
      "Currently married women married below 18years of age in percentage DLHS-4": 4.8,
      "Person Illiterates": 501394,
      "Main Workers Household Industry - Females": 1301,
      "Female Literates": 330709,
      "Marginal Workers Cultivators worked for 0 - 3 moths during last year - Males": 5401,
      "Male": 80.81,
      "Households with improved source of drinking water in percentage DLHS-4": 96.4,
      "Upper Primary Schools with electricity in percentage DISE": 100,
      "Households with electricity in percentage DLHS-4": 87.8,
      "Villages with Primary Health Centre within 10km in percentage DLHS-4": 86.4,
      "Births to women aged 15-19years out of Total births in percentage DLHS-4": 2.8,
      "Prevalence of Anaemia in women aged 15-49years in percentage DLHS-4": 56.3,
      "Marginal Workers Agricultural Labourers worked for 3 - 6 moths during last year - Persons": 36225,
      "Main Workers Household Industry - Males": 5257,
      "Scheduled Tribe Females": 0,
      "Marginal Workers worked for 0 - 3 moths during last year - Males": 12082,
      "Marginal Workers Other worked for 3 - 6 moths during last year - Males": 16566,
      "Primary Net Enrolment Ratio in percentage DISE": 74.4,
      "Total": 71.44,
      "Mean age at marriage for boys DLHS-4": 24,
      "Number of District Hospitals  DLHS-4": 1,
      "0-6 Age Group Females": 76844,
      "Marginal Workers Agricultural Labourers worked for 0 - 3 moths during last year - Persons": 9204,
      "Marginal Workers Household Industry worked for 0 - 3 moths during last year - Males": 278,
      "Total Workers  Females": 155145,
      "Marginal Workers worked for 3 - 6 moths during last year - Females": 64716,
      "Institutional Deliveries in percentage DLHS-4": 88,
      "Marginal Workers Other - Males": 19649,
      "Total Workers  Males": 368277,
      "Main Workers - Females": 72691,
      "Primary Gross Enrolment Ratio in percentage DISE": 96.2,
      "Main Workers Cultivators - Persons": 172682,
      "Marginal Workers Household Industry worked for 0 - 3 moths during last year - Females": 341,
      "Upper Primary Net Enrolment Ratio in percentage DISE": 73,
      "Primary New Government Schools since 2003 in percentage DISE": 0,
      "Tier": "Total",
      "Marginal Workers Household Industry - Females": 1442,
      "Primary Schools with electricity in percentage DISE": 99.2,
      "Main Workers Other - Persons": 149969,
      "Marginal Workers Household Industry worked for 3 - 6 moths during last year - Females": 1101,
      "Main Workers Cultivators - Males": 136372,
      "Main Workers Household Industry - Persons": 6558,
      "Marginal Workers Cultivators worked for 0 - 3 moths during last year - Persons": 14779,
      "Scheduled Caste Males": 150940,
      "Marginal Workers - Persons": 137571,
      "Deliveries at home conducted by skilled health personnel in percentage DLHS-4": 8.6,
      "Villages with Sub-Health Centres within 3km in percentage DLHS-4": 75,
      "Upper Primary New Government Schools since 2003 in percentage DISE": 0,
      "0-6 Age Group Males": 91710,
      "Primary Schools with drinking water facility in percentage DISE": 100,
      "Non Workers - Persons": 810730,
      "Person Literates": 832758,
      "State": "HARAYANA",
      "Total Female Population": 621146,
      "Marginal Workers worked for 0 - 3 moths during last year - Persons": 29820,
      "Marginal Workers Cultivators - Females": 43367,
      "Marginal Workers Other - Persons": 31881,
      "Sex Ratio": 871,
      "Scheduled Tribe Persons": 0,
      "Marginal Workers Household Industry worked for 3 - 6 moths during last year - Males": 836,
      "Marginal Workers Agricultural Labourers - Females": 25413,
      "Mean age at marriage for girls DLHS-4": 20.9,
      "Households with solar energy as main source of lighting  Houselisting and Housing Census Data Tables- District Level , Census of India__4": 205,
      "District": "JIND",
      "Households receiving treated tap water within premises in percentage Houselisting and Housing Census Data Tables- District Level , Census of India__1": 27.12137443,
      "Total Workers  Persons": 523422,
      "Households receiving treated tap water within premises  Houselisting and Housing Census Data Tables- District Level , Census of India__4": 66334,
      "Primary Female Teachers in percentage DISE": 42.1,
      "Number of Households": 249736,
      "Main Workers Agricultural Labourers - Persons": 56642
    }
  ],
  "Rural": [
    {
      "Marginal Workers Agricultural Labourers - Persons": 43082,
      "Marginal Workers Other - Females": 9336,
      "Marginal Workers Other worked for 0 - 3 moths during last year - Females": 1773,
      "Upper Primary Schools with boys toilet in percentage DISE": "NA",
      "Total Population": 1028569,
      "Households with electricity as main source of lighting in percentage Houselisting and Housing Census Data Tables- District Level , Census of India": 89.76365746,
      "Primary Girl's Enrolment in percentage DISE": "NA",
      "Marginal Workers worked for 3 - 6 moths during last year - Males": 35125,
      "Prevalence of Acute illness in percentage DLHS-4": 14.4,
      "Main Workers - Persons": 306210,
      "Main Workers Cultivators - Females": 35802,
      "Marginal Workers Agricultural Labourers worked for 3 - 6 moths during last year - Females": 18950,
      "Marginal Workers Other worked for 0 - 3 moths during last year - Males": 2149,
      "Upper Primary Schools with drinking water facility in percentage DISE": "NA",
      "Primary Schools with girls toilet in percentage DISE": "NA",
      "Marginal Workers worked for 3 - 6 moths during last year - Persons": 95990,
      "Upper Primary Drop Out Rate in percentage DISE": "NA",
      "Prevalence of Anaemia in pregnant women aged 15-49years in percentage DLHS-4": 62.7,
      "Current use of any modern method of family planning in percentage DLHS-4": 39.4,
      "Marginal Workers Agricultural Labourers - Males": 18384,
      "Upper Primary Female Teachers in percentage DISE": "NA",
      "Marginal Workers - Females": 77991,
      "Marginal Workers Other worked for 3 - 6 moths during last year - Persons": 18266,
      "Main Workers Agricultural Labourers - Females": 12848,
      "Marginal Workers Cultivators worked for 3 - 6 moths during last year - Females": 33485,
      "Households with no lighting  Houselisting and Housing Census Data Tables- District Level , Census of India__5": 682,
      "Prevalence of Severe Anaemia  in percentage DLHS-4": 7.5,
      "Total unmet need for family planning in percentage DLHS-4": 35.6,
      "Main Workers Other - Males": 68827,
      "Children who received full vaccination in percentage DLHS-4": 58.2,
      "Marginal Workers Household Industry - Persons": 1917,
      "Primary Pupil-Teacher Ratio in percentage DISE": "NA",
      "Marginal Workers Agricultural Labourers worked for 3 - 6 moths during last year - Males": 15288,
      "Scheduled Caste Females": 106208,
      "Marginal Workers Cultivators - Males": 13954,
      "Marginal Workers - Males": 45960,
      "Marginal Workers worked for 0 - 3 moths during last year - Females": 17126,
      "Households with main source of drinking water within premises in percentage Houselisting and Housing Census Data Tables- District Level , Census of India": 38.64823398,
      "Marginal Workers Household Industry worked for 3 - 6 moths during last year - Persons": 1419,
      "Upper Primary Girl's Enrolment in percentage DISE": "NA",
      "Prevalence of Severe Anaemia in women aged 15-49years in percentage DLHS-4": 7,
      "Marginal Workers Agricultural Labourers worked for 0 - 3 moths during last year - Males": 3096,
      "Households with electricity as main source of lighting  Houselisting and Housing Census Data Tables- District Level , Census of India__3": 167911,
      "Households with computer or laptop with internet connection in percentage": 1.06,
      "PHCs functioning on a 24x7hours basis in percentage DLHS-4": "Not applicable",
      "Non Workers - Males": 261170,
      "Total Households in District Houselisting and Housing Census Data Tables- District Level , Census of India": 187059,
      "Upper Primary Schools with girls toilet in percentage DISE": "NA",
      "Households with mobile phone in percentage": 68.5,
      "Households receiving untreated tap water within premises in percentage Houselisting and Housing Census Data Tables- District Level , Census of India__2": 5.211724643,
      "Marginal Workers Cultivators worked for 3 - 6 moths during last year - Males": 8582,
      "Prevalence of Anaemia  in percentage DLHS-4": 61,
      "Prevalence of Chronic illness in percentage DLHS-4": 16.9,
      "Households with solar energy as main source of lighting in percentage Houselisting and Housing Census Data Tables- District Level , Census of India__1": 0.0984,
      "Marginal Workers Agricultural Labourers worked for 0 - 3 moths during last year - Females": 5748,
      "Main Workers - Males": 243389,
      "Female": "NA",
      "Sno": 547,
      "Marginal Workers Other worked for 3 - 6 moths during last year - Females": 7563,
      "Marginal Workers Cultivators worked for 0 - 3 moths during last year - Females": 9325,
      "Scheduled Tribe Males": 0,
      "Male Illiterates": 172552,
      "Prevalence of Severe Anaemia in pregnant women aged 15-49years in percentage DLHS-4": 5.9,
      "0-6 Age Group Persons": 131390,
      "Upper Primary Student-Classroom Ratio in percentage DISE": "NA",
      "Currently married men married below 21years of age in percentage DLHS-4": 18.5,
      "Male Literates": 377967,
      "Households with no lighting in percentage Houselisting and Housing Census Data Tables- District Level , Census of India__2": 0.364590851,
      "Primary Drop Out Rate in percentage DISE": "NA",
      "Marginal Workers Household Industry - Males": 770,
      "Female Illiterates": 238302,
      "Main Workers Other - Females": 13227,
      "Marginal Workers Cultivators - Persons": 56764,
      "Upper Primary Gross Enrolment Ratio in percentage DISE": "NA",
      "Scheduled Caste Persons": 228804,
      "Marginal Workers Cultivators worked for 3 - 6 moths during last year - Persons": 42067,
      "Households with landline phone in percentage": 4.02,
      "Total Households in District  Houselisting and Housing Census Data Tables- District Level , Census of India": 187059,
      "Upper Primary Pupil-Teacher Ratio in percentage DISE": "NA",
      "Primary Student-Classroom Ratio in percentage DISE": "NA",
      "Primary Schools with boys toilet in percentage DISE": "NA",
      "Mean number of children ever born to women aged 40-49years  DLHS-4": 3.1,
      "Households receiving untreated tap water within premises  Houselisting and Housing Census Data Tables- District Level , Census of India__5": 9749,
      "Marginal Workers Household Industry worked for 0 - 3 moths during last year - Persons": 498,
      "Total Male Population": 550519,
      "Non Workers - Females": 337238,
      "Current use of family planning methods in percentage DLHS-4": 40.5,
      "Households with main source of drinking water within premises  Houselisting and Housing Census Data Tables- District Level , Census of India__3": 72295,
      "Main Workers Agricultural Labourers - Males": 39736,
      "Marginal Workers Other worked for 0 - 3 moths during last year - Persons": 3922,
      "Currently married women married below 18years of age in percentage DLHS-4": 4.9,
      "Person Illiterates": 410854,
      "Main Workers Household Industry - Females": 944,
      "Female Literates": 239748,
      "Marginal Workers Cultivators worked for 0 - 3 moths during last year - Males": 5372,
      "Male": "NA",
      "Households with improved source of drinking water in percentage DLHS-4": 96,
      "Upper Primary Schools with electricity in percentage DISE": "NA",
      "Households with electricity in percentage DLHS-4": 87.7,
      "Villages with Primary Health Centre within 10km in percentage DLHS-4": "Not applicable",
      "Births to women aged 15-19years out of Total births in percentage DLHS-4": 4.4,
      "Prevalence of Anaemia in women aged 15-49years in percentage DLHS-4": 54.6,
      "Marginal Workers Agricultural Labourers worked for 3 - 6 moths during last year - Persons": 34238,
      "Main Workers Household Industry - Males": 2701,
      "Scheduled Tribe Females": 0,
      "Marginal Workers worked for 0 - 3 moths during last year - Males": 10835,
      "Marginal Workers Other worked for 3 - 6 moths during last year - Males": 10703,
      "Primary Net Enrolment Ratio in percentage DISE": "NA",
      "Total": "NA",
      "Mean age at marriage for boys DLHS-4": 23.5,
      "Number of District Hospitals  DLHS-4": "Not applicable",
      "0-6 Age Group Females": 59953,
      "Marginal Workers Agricultural Labourers worked for 0 - 3 moths during last year - Persons": 8844,
      "Marginal Workers Household Industry worked for 0 - 3 moths during last year - Males": 218,
      "Total Workers  Females": 140812,
      "Marginal Workers worked for 3 - 6 moths during last year - Females": 60865,
      "Institutional Deliveries in percentage DLHS-4": 88.7,
      "Marginal Workers Other - Males": 12852,
      "Total Workers  Males": 289349,
      "Main Workers - Females": 62821,
      "Primary Gross Enrolment Ratio in percentage DISE": "NA",
      "Main Workers Cultivators - Persons": 167927,
      "Marginal Workers Household Industry worked for 0 - 3 moths during last year - Females": 280,
      "Upper Primary Net Enrolment Ratio in percentage DISE": "NA",
      "Primary New Government Schools since 2003 in percentage DISE": "NA",
      "Tier": "Rural",
      "Marginal Workers Household Industry - Females": 1147,
      "Primary Schools with electricity in percentage DISE": "NA",
      "Main Workers Other - Persons": 82054,
      "Marginal Workers Household Industry worked for 3 - 6 moths during last year - Females": 867,
      "Main Workers Cultivators - Males": 132125,
      "Main Workers Household Industry - Persons": 3645,
      "Marginal Workers Cultivators worked for 0 - 3 moths during last year - Persons": 14697,
      "Scheduled Caste Males": 122596,
      "Marginal Workers - Persons": 123951,
      "Deliveries at home conducted by skilled health personnel in percentage DLHS-4": 7.5,
      "Villages with Sub-Health Centres within 3km in percentage DLHS-4": "Not applicable",
      "Upper Primary New Government Schools since 2003 in percentage DISE": "NA",
      "0-6 Age Group Males": 71437,
      "Primary Schools with drinking water facility in percentage DISE": "NA",
      "Non Workers - Persons": 598408,
      "Person Literates": 617715,
      "State": "HARAYANA",
      "Total Female Population": 478050,
      "Marginal Workers worked for 0 - 3 moths during last year - Persons": 27961,
      "Marginal Workers Cultivators - Females": 42810,
      "Marginal Workers Other - Persons": 22188,
      "Sex Ratio": 868,
      "Scheduled Tribe Persons": 0,
      "Marginal Workers Household Industry worked for 3 - 6 moths during last year - Males": 552,
      "Marginal Workers Agricultural Labourers - Females": 24698,
      "Mean age at marriage for girls DLHS-4": 20.5,
      "Households with solar energy as main source of lighting  Houselisting and Housing Census Data Tables- District Level , Census of India__4": 184,
      "District": "JIND",
      "Households receiving treated tap water within premises in percentage Houselisting and Housing Census Data Tables- District Level , Census of India__1": 17.81790772,
      "Total Workers  Persons": 430161,
      "Households receiving treated tap water within premises  Houselisting and Housing Census Data Tables- District Level , Census of India__4": 33330,
      "Primary Female Teachers in percentage DISE": "NA",
      "Number of Households": 190875,
      "Main Workers Agricultural Labourers - Persons": 52584
    }
  ],
  "Urban": [
    {
      "Marginal Workers Agricultural Labourers - Persons": 2347,
      "Marginal Workers Other - Females": 2896,
      "Marginal Workers Other worked for 0 - 3 moths during last year - Females": 362,
      "Upper Primary Schools with boys toilet in percentage DISE": "NA",
      "Total Population": 305583,
      "Households with electricity as main source of lighting in percentage Houselisting and Housing Census Data Tables- District Level , Census of India": 94.833371,
      "Primary Girl's Enrolment in percentage DISE": "NA",
      "Marginal Workers worked for 3 - 6 moths during last year - Males": 7910,
      "Prevalence of Acute illness in percentage DLHS-4": "Not available",
      "Main Workers - Persons": 79641,
      "Main Workers Cultivators - Females": 508,
      "Marginal Workers Agricultural Labourers worked for 3 - 6 moths during last year - Females": 579,
      "Marginal Workers Other worked for 0 - 3 moths during last year - Males": 934,
      "Upper Primary Schools with drinking water facility in percentage DISE": "NA",
      "Primary Schools with girls toilet in percentage DISE": "NA",
      "Marginal Workers worked for 3 - 6 moths during last year - Persons": 11761,
      "Upper Primary Drop Out Rate in percentage DISE": "NA",
      "Prevalence of Anaemia in pregnant women aged 15-49years in percentage DLHS-4": "Not available",
      "Current use of any modern method of family planning in percentage DLHS-4": "Not available",
      "Marginal Workers Agricultural Labourers - Males": 1632,
      "Upper Primary Female Teachers in percentage DISE": "NA",
      "Marginal Workers - Females": 4463,
      "Marginal Workers Other worked for 3 - 6 moths during last year - Persons": 8397,
      "Main Workers Agricultural Labourers - Females": 545,
      "Marginal Workers Cultivators worked for 3 - 6 moths during last year - Females": 504,
      "Households with no lighting  Houselisting and Housing Census Data Tables- District Level , Census of India__5": 249,
      "Prevalence of Severe Anaemia  in percentage DLHS-4": "Not available",
      "Total unmet need for family planning in percentage DLHS-4": "Not available",
      "Main Workers Other - Males": 59455,
      "Children who received full vaccination in percentage DLHS-4": "Not available",
      "Marginal Workers Household Industry - Persons": 639,
      "Primary Pupil-Teacher Ratio in percentage DISE": "NA",
      "Marginal Workers Agricultural Labourers worked for 3 - 6 moths during last year - Males": 1408,
      "Scheduled Caste Females": 25203,
      "Marginal Workers Cultivators - Males": 384,
      "Marginal Workers - Males": 9157,
      "Marginal Workers worked for 0 - 3 moths during last year - Females": 612,
      "Households with main source of drinking water within premises in percentage Houselisting and Housing Census Data Tables- District Level , Census of India": 82.5565426,
      "Marginal Workers Household Industry worked for 3 - 6 moths during last year - Persons": 518,
      "Upper Primary Girl's Enrolment in percentage DISE": "NA",
      "Prevalence of Severe Anaemia in women aged 15-49years in percentage DLHS-4": "Not available",
      "Marginal Workers Agricultural Labourers worked for 0 - 3 moths during last year - Males": 224,
      "Households with electricity as main source of lighting  Houselisting and Housing Census Data Tables- District Level , Census of India__3": 54551,
      "Households with computer or laptop with internet connection in percentage": 5.7,
      "PHCs functioning on a 24x7hours basis in percentage DLHS-4": 0,
      "Non Workers - Males": 83559,
      "Total Households in District Houselisting and Housing Census Data Tables- District Level , Census of India": 57523,
      "Upper Primary Schools with girls toilet in percentage DISE": "NA",
      "Households with mobile phone in percentage": 70.08,
      "Households receiving untreated tap water within premises in percentage Houselisting and Housing Census Data Tables- District Level , Census of India__2": 4.85718756,
      "Marginal Workers Cultivators worked for 3 - 6 moths during last year - Males": 355,
      "Prevalence of Anaemia  in percentage DLHS-4": "Not available",
      "Prevalence of Chronic illness in percentage DLHS-4": "Not available",
      "Households with solar energy as main source of lighting in percentage Houselisting and Housing Census Data Tables- District Level , Census of India__1": 0.0365,
      "Marginal Workers Agricultural Labourers worked for 0 - 3 moths during last year - Females": 136,
      "Main Workers - Males": 69771,
      "Female": "NA",
      "Sno": 549,
      "Marginal Workers Other worked for 3 - 6 moths during last year - Females": 2534,
      "Marginal Workers Cultivators worked for 0 - 3 moths during last year - Females": 53,
      "Scheduled Tribe Males": 0,
      "Male Illiterates": 38405,
      "Prevalence of Severe Anaemia in pregnant women aged 15-49years in percentage DLHS-4": "Not available",
      "0-6 Age Group Persons": 37164,
      "Upper Primary Student-Classroom Ratio in percentage DISE": "NA",
      "Currently married men married below 21years of age in percentage DLHS-4": "Not available",
      "Male Literates": 124082,
      "Households with no lighting in percentage Houselisting and Housing Census Data Tables- District Level , Census of India__2": 0.43287033,
      "Primary Drop Out Rate in percentage DISE": "NA",
      "Marginal Workers Household Industry - Males": 344,
      "Female Illiterates": 52135,
      "Main Workers Other - Females": 8460,
      "Marginal Workers Cultivators - Persons": 941,
      "Upper Primary Gross Enrolment Ratio in percentage DISE": "NA",
      "Scheduled Caste Persons": 53547,
      "Marginal Workers Cultivators worked for 3 - 6 moths during last year - Persons": 859,
      "Households with landline phone in percentage": 6.21,
      "Total Households in District  Houselisting and Housing Census Data Tables- District Level , Census of India": 57523,
      "Upper Primary Pupil-Teacher Ratio in percentage DISE": "NA",
      "Primary Student-Classroom Ratio in percentage DISE": "NA",
      "Primary Schools with boys toilet in percentage DISE": "NA",
      "Mean number of children ever born to women aged 40-49years  DLHS-4": "Not available",
      "Households receiving untreated tap water within premises  Houselisting and Housing Census Data Tables- District Level , Census of India__5": 2794,
      "Marginal Workers Household Industry worked for 0 - 3 moths during last year - Persons": 121,
      "Total Male Population": 162487,
      "Non Workers - Females": 128763,
      "Current use of family planning methods in percentage DLHS-4": "Not available",
      "Households with main source of drinking water within premises  Houselisting and Housing Census Data Tables- District Level , Census of India__3": 47489,
      "Main Workers Agricultural Labourers - Males": 3513,
      "Marginal Workers Other worked for 0 - 3 moths during last year - Persons": 1296,
      "Currently married women married below 18years of age in percentage DLHS-4": "Not available",
      "Person Illiterates": 90540,
      "Main Workers Household Industry - Females": 357,
      "Female Literates": 90961,
      "Marginal Workers Cultivators worked for 0 - 3 moths during last year - Males": 29,
      "Male": "NA",
      "Households with improved source of drinking water in percentage DLHS-4": "Not available",
      "Upper Primary Schools with electricity in percentage DISE": "NA",
      "Households with electricity in percentage DLHS-4": "Not available",
      "Villages with Primary Health Centre within 10km in percentage DLHS-4": 0,
      "Births to women aged 15-19years out of Total births in percentage DLHS-4": "Not available",
      "Prevalence of Anaemia in women aged 15-49years in percentage DLHS-4": "Not available",
      "Marginal Workers Agricultural Labourers worked for 3 - 6 moths during last year - Persons": 1987,
      "Main Workers Household Industry - Males": 2556,
      "Scheduled Tribe Females": 0,
      "Marginal Workers worked for 0 - 3 moths during last year - Males": 1247,
      "Marginal Workers Other worked for 3 - 6 moths during last year - Males": 5863,
      "Primary Net Enrolment Ratio in percentage DISE": "NA",
      "Total": "NA",
      "Mean age at marriage for boys DLHS-4": "Not available",
      "Number of District Hospitals  DLHS-4": 0,
      "0-6 Age Group Females": 16891,
      "Marginal Workers Agricultural Labourers worked for 0 - 3 moths during last year - Persons": 360,
      "Marginal Workers Household Industry worked for 0 - 3 moths during last year - Males": 60,
      "Total Workers  Females": 14333,
      "Marginal Workers worked for 3 - 6 moths during last year - Females": 3851,
      "Institutional Deliveries in percentage DLHS-4": "Not available",
      "Marginal Workers Other - Males": 6797,
      "Total Workers  Males": 78928,
      "Main Workers - Females": 9870,
      "Primary Gross Enrolment Ratio in percentage DISE": "NA",
      "Main Workers Cultivators - Persons": 4755,
      "Marginal Workers Household Industry worked for 0 - 3 moths during last year - Females": 61,
      "Upper Primary Net Enrolment Ratio in percentage DISE": "NA",
      "Primary New Government Schools since 2003 in percentage DISE": "NA",
      "Tier": "Urban",
      "Marginal Workers Household Industry - Females": 295,
      "Primary Schools with electricity in percentage DISE": "NA",
      "Main Workers Other - Persons": 67915,
      "Marginal Workers Household Industry worked for 3 - 6 moths during last year - Females": 234,
      "Main Workers Cultivators - Males": 4247,
      "Main Workers Household Industry - Persons": 2913,
      "Marginal Workers Cultivators worked for 0 - 3 moths during last year - Persons": 82,
      "Scheduled Caste Males": 28344,
      "Marginal Workers - Persons": 13620,
      "Deliveries at home conducted by skilled health personnel in percentage DLHS-4": "Not available",
      "Villages with Sub-Health Centres within 3km in percentage DLHS-4": 0,
      "Upper Primary New Government Schools since 2003 in percentage DISE": "NA",
      "0-6 Age Group Males": 20273,
      "Primary Schools with drinking water facility in percentage DISE": "NA",
      "Non Workers - Persons": 212322,
      "Person Literates": 215043,
      "State": "HARAYANA",
      "Total Female Population": 143096,
      "Marginal Workers worked for 0 - 3 moths during last year - Persons": 1859,
      "Marginal Workers Cultivators - Females": 557,
      "Marginal Workers Other - Persons": 9693,
      "Sex Ratio": 881,
      "Scheduled Tribe Persons": 0,
      "Marginal Workers Household Industry worked for 3 - 6 moths during last year - Males": 284,
      "Marginal Workers Agricultural Labourers - Females": 715,
      "Mean age at marriage for girls DLHS-4": "Not available",
      "Households with solar energy as main source of lighting  Houselisting and Housing Census Data Tables- District Level , Census of India__4": 21,
      "District": "JIND",
      "Households receiving treated tap water within premises in percentage Houselisting and Housing Census Data Tables- District Level , Census of India__1": 57.37531075,
      "Total Workers  Persons": 93261,
      "Households receiving treated tap water within premises  Houselisting and Housing Census Data Tables- District Level , Census of India__4": 33004,
      "Primary Female Teachers in percentage DISE": "NA",
      "Number of Households": 58861,
      "Main Workers Agricultural Labourers - Persons": 4058
    }
  ]
}