{
  "Total": [
    {
      "Marginal Workers Agricultural Labourers - Persons": 29852,
      "Marginal Workers Other - Females": 6884,
      "Marginal Workers Other worked for 0 - 3 moths during last year - Females": 1424,
      "Upper Primary Schools with boys toilet in percentage DISE": 73.8,
      "Total Population": 1089263,
      "Households with electricity as main source of lighting in percentage Houselisting and Housing Census Data Tables- District Level , Census of India": 61.33549866,
      "Primary Girl's Enrolment in percentage DISE": 49.8,
      "Marginal Workers worked for 3 - 6 moths during last year - Males": 40820,
      "Prevalence of Acute illness in percentage DLHS-4": 14.6,
      "Main Workers - Persons": 204178,
      "Main Workers Cultivators - Females": 12303,
      "Marginal Workers Agricultural Labourers worked for 3 - 6 moths during last year - Females": 10698,
      "Marginal Workers Other worked for 0 - 3 moths during last year - Males": 3835,
      "Upper Primary Schools with drinking water facility in percentage DISE": 100,
      "Primary Schools with girls toilet in percentage DISE": 90,
      "Marginal Workers worked for 3 - 6 moths during last year - Persons": 69512,
      "Upper Primary Drop Out Rate in percentage DISE": 12.42,
      "Prevalence of Anaemia in pregnant women aged 15-49years in percentage DLHS-4": 63.2,
      "Current use of any modern method of family planning in percentage DLHS-4": 21.7,
      "Marginal Workers Agricultural Labourers - Males": 15923,
      "Upper Primary Female Teachers in percentage DISE": 12.3,
      "Marginal Workers - Females": 36814,
      "Marginal Workers Other worked for 3 - 6 moths during last year - Persons": 26057,
      "Main Workers Agricultural Labourers - Females": 5089,
      "Marginal Workers Cultivators worked for 3 - 6 moths during last year - Females": 11818,
      "Households with no lighting  Houselisting and Housing Census Data Tables- District Level , Census of India__5": 1367,
      "Prevalence of Severe Anaemia  in percentage DLHS-4": 14.5,
      "Total unmet need for family planning in percentage DLHS-4": 54.8,
      "Main Workers Other - Males": 83090,
      "Children who received full vaccination in percentage DLHS-4": 27.3,
      "Marginal Workers Household Industry - Persons": 1989,
      "Primary Pupil-Teacher Ratio in percentage DISE": 54,
      "Marginal Workers Agricultural Labourers worked for 3 - 6 moths during last year - Males": 13273,
      "Scheduled Caste Females": 35508,
      "Marginal Workers Cultivators - Males": 7714,
      "Marginal Workers - Males": 48972,
      "Marginal Workers worked for 0 - 3 moths during last year - Females": 8122,
      "Households with main source of drinking water within premises in percentage Houselisting and Housing Census Data Tables- District Level , Census of India": 23.41930964,
      "Marginal Workers Household Industry worked for 3 - 6 moths during last year - Persons": 1416,
      "Upper Primary Girl's Enrolment in percentage DISE": 50.5,
      "Prevalence of Severe Anaemia in women aged 15-49years in percentage DLHS-4": 15.5,
      "Marginal Workers Agricultural Labourers worked for 0 - 3 moths during last year - Males": 2650,
      "Households with electricity as main source of lighting  Houselisting and Housing Census Data Tables- District Level , Census of India__3": 96309,
      "Households with computer or laptop with internet connection in percentage": 0.6,
      "PHCs functioning on a 24x7hours basis in percentage DLHS-4": 83.3,
      "Non Workers - Males": 346520,
      "Total Households in District Houselisting and Housing Census Data Tables- District Level , Census of India": 157020,
      "Upper Primary Schools with girls toilet in percentage DISE": 84.6,
      "Households with mobile phone in percentage": 68.35,
      "Households receiving untreated tap water within premises in percentage Houselisting and Housing Census Data Tables- District Level , Census of India__2": 3.601452044,
      "Marginal Workers Cultivators worked for 3 - 6 moths during last year - Males": 6250,
      "Prevalence of Anaemia  in percentage DLHS-4": 69.5,
      "Prevalence of Chronic illness in percentage DLHS-4": 10,
      "Households with solar energy as main source of lighting in percentage Houselisting and Housing Census Data Tables- District Level , Census of India__1": 0.480193606,
      "Marginal Workers Agricultural Labourers worked for 0 - 3 moths during last year - Females": 3231,
      "Main Workers - Males": 175670,
      "Female": 36.6,
      "Sno": 563,
      "Marginal Workers Other worked for 3 - 6 moths during last year - Females": 5460,
      "Marginal Workers Cultivators worked for 0 - 3 moths during last year - Females": 3097,
      "Scheduled Tribe Males": 0,
      "Male Illiterates": 262727,
      "Prevalence of Severe Anaemia in pregnant women aged 15-49years in percentage DLHS-4": 17.4,
      "0-6 Age Group Persons": 248128,
      "Upper Primary Student-Classroom Ratio in percentage DISE": 40,
      "Currently married men married below 21years of age in percentage DLHS-4": 37.2,
      "Male Literates": 308435,
      "Households with no lighting in percentage Houselisting and Housing Census Data Tables- District Level , Census of India__2": 0.870589734,
      "Primary Drop Out Rate in percentage DISE": 5,
      "Marginal Workers Household Industry - Males": 903,
      "Female Illiterates": 371639,
      "Main Workers Other - Females": 10020,
      "Marginal Workers Cultivators - Persons": 22629,
      "Upper Primary Gross Enrolment Ratio in percentage DISE": 73.5,
      "Scheduled Caste Persons": 75251,
      "Marginal Workers Cultivators worked for 3 - 6 moths during last year - Persons": 18068,
      "Households with landline phone in percentage": 1.49,
      "Total Households in District  Houselisting and Housing Census Data Tables- District Level , Census of India": 157020,
      "Upper Primary Pupil-Teacher Ratio in percentage DISE": 65,
      "Primary Student-Classroom Ratio in percentage DISE": 50,
      "Primary Schools with boys toilet in percentage DISE": 70.8,
      "Mean number of children ever born to women aged 40-49years  DLHS-4": 4.3,
      "Households receiving untreated tap water within premises  Houselisting and Housing Census Data Tables- District Level , Census of India__5": 5655,
      "Marginal Workers Household Industry worked for 0 - 3 moths during last year - Persons": 573,
      "Total Male Population": 571162,
      "Non Workers - Females": 452779,
      "Current use of family planning methods in percentage DLHS-4": 23.5,
      "Households with main source of drinking water within premises  Houselisting and Housing Census Data Tables- District Level , Census of India__3": 36773,
      "Main Workers Agricultural Labourers - Males": 20337,
      "Marginal Workers Other worked for 0 - 3 moths during last year - Persons": 5259,
      "Currently married women married below 18years of age in percentage DLHS-4": 10.6,
      "Person Illiterates": 634366,
      "Main Workers Household Industry - Females": 1096,
      "Female Literates": 146462,
      "Marginal Workers Cultivators worked for 0 - 3 moths during last year - Males": 1464,
      "Male": 69.94,
      "Households with improved source of drinking water in percentage DLHS-4": 99.3,
      "Upper Primary Schools with electricity in percentage DISE": 63.9,
      "Households with electricity in percentage DLHS-4": 98.9,
      "Villages with Primary Health Centre within 10km in percentage DLHS-4": 88,
      "Births to women aged 15-19years out of Total births in percentage DLHS-4": 5,
      "Prevalence of Anaemia in women aged 15-49years in percentage DLHS-4": 70,
      "Marginal Workers Agricultural Labourers worked for 3 - 6 moths during last year - Persons": 23971,
      "Main Workers Household Industry - Males": 2938,
      "Scheduled Tribe Females": 0,
      "Marginal Workers worked for 0 - 3 moths during last year - Males": 8152,
      "Marginal Workers Other worked for 3 - 6 moths during last year - Males": 20597,
      "Primary Net Enrolment Ratio in percentage DISE": 86.2,
      "Total": 54.08,
      "Mean age at marriage for boys DLHS-4": 21.7,
      "Number of District Hospitals  DLHS-4": 1,
      "0-6 Age Group Females": 117960,
      "Marginal Workers Agricultural Labourers worked for 0 - 3 moths during last year - Persons": 5881,
      "Marginal Workers Household Industry worked for 0 - 3 moths during last year - Males": 203,
      "Total Workers  Females": 65322,
      "Marginal Workers worked for 3 - 6 moths during last year - Females": 28692,
      "Institutional Deliveries in percentage DLHS-4": 51.2,
      "Marginal Workers Other - Males": 24432,
      "Total Workers  Males": 224642,
      "Main Workers - Females": 28508,
      "Primary Gross Enrolment Ratio in percentage DISE": 105.2,
      "Main Workers Cultivators - Persons": 81608,
      "Marginal Workers Household Industry worked for 0 - 3 moths during last year - Females": 370,
      "Upper Primary Net Enrolment Ratio in percentage DISE": 53.2,
      "Primary New Government Schools since 2003 in percentage DISE": 7.5,
      "Tier": "Total",
      "Marginal Workers Household Industry - Females": 1086,
      "Primary Schools with electricity in percentage DISE": 82.6,
      "Main Workers Other - Persons": 93110,
      "Marginal Workers Household Industry worked for 3 - 6 moths during last year - Females": 716,
      "Main Workers Cultivators - Males": 69305,
      "Main Workers Household Industry - Persons": 4034,
      "Marginal Workers Cultivators worked for 0 - 3 moths during last year - Persons": 4561,
      "Scheduled Caste Males": 39743,
      "Marginal Workers - Persons": 85786,
      "Deliveries at home conducted by skilled health personnel in percentage DLHS-4": 32.6,
      "Villages with Sub-Health Centres within 3km in percentage DLHS-4": 88,
      "Upper Primary New Government Schools since 2003 in percentage DISE": 41.4,
      "0-6 Age Group Males": 130168,
      "Primary Schools with drinking water facility in percentage DISE": 100,
      "Non Workers - Persons": 799299,
      "Person Literates": 454897,
      "State": "HARAYANA",
      "Total Female Population": 518101,
      "Marginal Workers worked for 0 - 3 moths during last year - Persons": 16274,
      "Marginal Workers Cultivators - Females": 14915,
      "Marginal Workers Other - Persons": 31316,
      "Sex Ratio": 907,
      "Scheduled Tribe Persons": 0,
      "Marginal Workers Household Industry worked for 3 - 6 moths during last year - Males": 700,
      "Marginal Workers Agricultural Labourers - Females": 13929,
      "Mean age at marriage for girls DLHS-4": 19.7,
      "Households with solar energy as main source of lighting  Houselisting and Housing Census Data Tables- District Level , Census of India__4": 754,
      "District": "MEWAT",
      "Households receiving treated tap water within premises in percentage Houselisting and Housing Census Data Tables- District Level , Census of India__1": 10.90306967,
      "Total Workers  Persons": 289964,
      "Households receiving treated tap water within premises  Houselisting and Housing Census Data Tables- District Level , Census of India__4": 17120,
      "Primary Female Teachers in percentage DISE": 11.2,
      "Number of Households": 160280,
      "Main Workers Agricultural Labourers - Persons": 25426
    }
  ],
  "Rural": [
    {
      "Marginal Workers Agricultural Labourers - Persons": 28617,
      "Marginal Workers Other - Females": 6147,
      "Marginal Workers Other worked for 0 - 3 moths during last year - Females": 1248,
      "Upper Primary Schools with boys toilet in percentage DISE": "NA",
      "Total Population": 965157,
      "Households with electricity as main source of lighting in percentage Houselisting and Housing Census Data Tables- District Level , Census of India": 57.63399655,
      "Primary Girl's Enrolment in percentage DISE": "NA",
      "Marginal Workers worked for 3 - 6 moths during last year - Males": 36590,
      "Prevalence of Acute illness in percentage DLHS-4": 15.7,
      "Main Workers - Persons": 179382,
      "Main Workers Cultivators - Females": 12079,
      "Marginal Workers Agricultural Labourers worked for 3 - 6 moths during last year - Females": 10463,
      "Marginal Workers Other worked for 0 - 3 moths during last year - Males": 3217,
      "Upper Primary Schools with drinking water facility in percentage DISE": "NA",
      "Primary Schools with girls toilet in percentage DISE": "NA",
      "Marginal Workers worked for 3 - 6 moths during last year - Persons": 64247,
      "Upper Primary Drop Out Rate in percentage DISE": "NA",
      "Prevalence of Anaemia in pregnant women aged 15-49years in percentage DLHS-4": 67.9,
      "Current use of any modern method of family planning in percentage DLHS-4": 13.9,
      "Marginal Workers Agricultural Labourers - Males": 15005,
      "Upper Primary Female Teachers in percentage DISE": "NA",
      "Marginal Workers - Females": 35430,
      "Marginal Workers Other worked for 3 - 6 moths during last year - Persons": 22350,
      "Main Workers Agricultural Labourers - Females": 4989,
      "Marginal Workers Cultivators worked for 3 - 6 moths during last year - Females": 11637,
      "Households with no lighting  Houselisting and Housing Census Data Tables- District Level , Census of India__5": 1207,
      "Prevalence of Severe Anaemia  in percentage DLHS-4": 11.4,
      "Total unmet need for family planning in percentage DLHS-4": 61.3,
      "Main Workers Other - Males": 64483,
      "Children who received full vaccination in percentage DLHS-4": 20.8,
      "Marginal Workers Household Industry - Persons": 1763,
      "Primary Pupil-Teacher Ratio in percentage DISE": "NA",
      "Marginal Workers Agricultural Labourers worked for 3 - 6 moths during last year - Males": 12526,
      "Scheduled Caste Females": 26926,
      "Marginal Workers Cultivators - Males": 7472,
      "Marginal Workers - Males": 43909,
      "Marginal Workers worked for 0 - 3 moths during last year - Females": 7773,
      "Households with main source of drinking water within premises in percentage Houselisting and Housing Census Data Tables- District Level , Census of India": 17.25690473,
      "Marginal Workers Household Industry worked for 3 - 6 moths during last year - Persons": 1234,
      "Upper Primary Girl's Enrolment in percentage DISE": "NA",
      "Prevalence of Severe Anaemia in women aged 15-49years in percentage DLHS-4": 15.2,
      "Marginal Workers Agricultural Labourers worked for 0 - 3 moths during last year - Males": 2479,
      "Households with electricity as main source of lighting  Houselisting and Housing Census Data Tables- District Level , Census of India__3": 79109,
      "Households with computer or laptop with internet connection in percentage": 0.37,
      "PHCs functioning on a 24x7hours basis in percentage DLHS-4": "Not applicable",
      "Non Workers - Males": 308989,
      "Total Households in District Houselisting and Housing Census Data Tables- District Level , Census of India": 137261,
      "Upper Primary Schools with girls toilet in percentage DISE": "NA",
      "Households with mobile phone in percentage": 68.11,
      "Households receiving untreated tap water within premises in percentage Houselisting and Housing Census Data Tables- District Level , Census of India__2": 2.984824531,
      "Marginal Workers Cultivators worked for 3 - 6 moths during last year - Males": 6037,
      "Prevalence of Anaemia  in percentage DLHS-4": 71,
      "Prevalence of Chronic illness in percentage DLHS-4": 9.1,
      "Households with solar energy as main source of lighting in percentage Houselisting and Housing Census Data Tables- District Level , Census of India__1": 0.534019131,
      "Marginal Workers Agricultural Labourers worked for 0 - 3 moths during last year - Females": 3149,
      "Main Workers - Males": 153188,
      "Female": "NA",
      "Sno": 562,
      "Marginal Workers Other worked for 3 - 6 moths during last year - Females": 4899,
      "Marginal Workers Cultivators worked for 0 - 3 moths during last year - Females": 3035,
      "Scheduled Tribe Males": 0,
      "Male Illiterates": 240000,
      "Prevalence of Severe Anaemia in pregnant women aged 15-49years in percentage DLHS-4": 17.5,
      "0-6 Age Group Persons": 225069,
      "Upper Primary Student-Classroom Ratio in percentage DISE": "NA",
      "Currently married men married below 21years of age in percentage DLHS-4": 44.4,
      "Male Literates": 266086,
      "Households with no lighting in percentage Houselisting and Housing Census Data Tables- District Level , Census of India__2": 0.879346646,
      "Primary Drop Out Rate in percentage DISE": "NA",
      "Marginal Workers Household Industry - Males": 764,
      "Female Illiterates": 340408,
      "Main Workers Other - Females": 8152,
      "Marginal Workers Cultivators - Persons": 22144,
      "Upper Primary Gross Enrolment Ratio in percentage DISE": "NA",
      "Scheduled Caste Persons": 57238,
      "Marginal Workers Cultivators worked for 3 - 6 moths during last year - Persons": 17674,
      "Households with landline phone in percentage": 1.32,
      "Total Households in District  Houselisting and Housing Census Data Tables- District Level , Census of India": 137261,
      "Upper Primary Pupil-Teacher Ratio in percentage DISE": "NA",
      "Primary Student-Classroom Ratio in percentage DISE": "NA",
      "Primary Schools with boys toilet in percentage DISE": "NA",
      "Mean number of children ever born to women aged 40-49years  DLHS-4": 4.5,
      "Households receiving untreated tap water within premises  Houselisting and Housing Census Data Tables- District Level , Census of India__5": 4097,
      "Marginal Workers Household Industry worked for 0 - 3 moths during last year - Persons": 529,
      "Total Male Population": 506086,
      "Non Workers - Females": 397447,
      "Current use of family planning methods in percentage DLHS-4": 15.7,
      "Households with main source of drinking water within premises  Houselisting and Housing Census Data Tables- District Level , Census of India__3": 23687,
      "Main Workers Agricultural Labourers - Males": 19215,
      "Marginal Workers Other worked for 0 - 3 moths during last year - Persons": 4465,
      "Currently married women married below 18years of age in percentage DLHS-4": 16.9,
      "Person Illiterates": 580408,
      "Main Workers Household Industry - Females": 974,
      "Female Literates": 118663,
      "Marginal Workers Cultivators worked for 0 - 3 moths during last year - Males": 1435,
      "Male": "NA",
      "Households with improved source of drinking water in percentage DLHS-4": 99,
      "Upper Primary Schools with electricity in percentage DISE": "NA",
      "Households with electricity in percentage DLHS-4": 98.5,
      "Villages with Primary Health Centre within 10km in percentage DLHS-4": "Not applicable",
      "Births to women aged 15-19years out of Total births in percentage DLHS-4": 7.1,
      "Prevalence of Anaemia in women aged 15-49years in percentage DLHS-4": 70.5,
      "Marginal Workers Agricultural Labourers worked for 3 - 6 moths during last year - Persons": 22989,
      "Main Workers Household Industry - Males": 2277,
      "Scheduled Tribe Females": 0,
      "Marginal Workers worked for 0 - 3 moths during last year - Males": 7319,
      "Marginal Workers Other worked for 3 - 6 moths during last year - Males": 17451,
      "Primary Net Enrolment Ratio in percentage DISE": "NA",
      "Total": "NA",
      "Mean age at marriage for boys DLHS-4": 20.9,
      "Number of District Hospitals  DLHS-4": "Not applicable",
      "0-6 Age Group Females": 107102,
      "Marginal Workers Agricultural Labourers worked for 0 - 3 moths during last year - Persons": 5628,
      "Marginal Workers Household Industry worked for 0 - 3 moths during last year - Males": 188,
      "Total Workers  Females": 61624,
      "Marginal Workers worked for 3 - 6 moths during last year - Females": 27657,
      "Institutional Deliveries in percentage DLHS-4": 40.3,
      "Marginal Workers Other - Males": 20668,
      "Total Workers  Males": 197097,
      "Main Workers - Females": 26194,
      "Primary Gross Enrolment Ratio in percentage DISE": "NA",
      "Main Workers Cultivators - Persons": 79292,
      "Marginal Workers Household Industry worked for 0 - 3 moths during last year - Females": 341,
      "Upper Primary Net Enrolment Ratio in percentage DISE": "NA",
      "Primary New Government Schools since 2003 in percentage DISE": "NA",
      "Tier": "Rural",
      "Marginal Workers Household Industry - Females": 999,
      "Primary Schools with electricity in percentage DISE": "NA",
      "Main Workers Other - Persons": 72635,
      "Marginal Workers Household Industry worked for 3 - 6 moths during last year - Females": 658,
      "Main Workers Cultivators - Males": 67213,
      "Main Workers Household Industry - Persons": 3251,
      "Marginal Workers Cultivators worked for 0 - 3 moths during last year - Persons": 4470,
      "Scheduled Caste Males": 30312,
      "Marginal Workers - Persons": 79339,
      "Deliveries at home conducted by skilled health personnel in percentage DLHS-4": 36.4,
      "Villages with Sub-Health Centres within 3km in percentage DLHS-4": "Not applicable",
      "Upper Primary New Government Schools since 2003 in percentage DISE": "NA",
      "0-6 Age Group Males": 117967,
      "Primary Schools with drinking water facility in percentage DISE": "NA",
      "Non Workers - Persons": 706436,
      "Person Literates": 384749,
      "State": "HARAYANA",
      "Total Female Population": 459071,
      "Marginal Workers worked for 0 - 3 moths during last year - Persons": 15092,
      "Marginal Workers Cultivators - Females": 14672,
      "Marginal Workers Other - Persons": 26815,
      "Sex Ratio": 907,
      "Scheduled Tribe Persons": 0,
      "Marginal Workers Household Industry worked for 3 - 6 moths during last year - Males": 576,
      "Marginal Workers Agricultural Labourers - Females": 13612,
      "Mean age at marriage for girls DLHS-4": 18.7,
      "Households with solar energy as main source of lighting  Houselisting and Housing Census Data Tables- District Level , Census of India__4": 733,
      "District": "MEWAT",
      "Households receiving treated tap water within premises in percentage Houselisting and Housing Census Data Tables- District Level , Census of India__1": 6.293848945,
      "Total Workers  Persons": 258721,
      "Households receiving treated tap water within premises  Houselisting and Housing Census Data Tables- District Level , Census of India__4": 8639,
      "Primary Female Teachers in percentage DISE": "NA",
      "Number of Households": 139975,
      "Main Workers Agricultural Labourers - Persons": 24204
    }
  ],
  "Urban": [
    {
      "Marginal Workers Agricultural Labourers - Persons": 1235,
      "Marginal Workers Other - Females": 737,
      "Marginal Workers Other worked for 0 - 3 moths during last year - Females": 176,
      "Upper Primary Schools with boys toilet in percentage DISE": "NA",
      "Total Population": 124106,
      "Households with electricity as main source of lighting in percentage Houselisting and Housing Census Data Tables- District Level , Census of India": 87.04893972,
      "Primary Girl's Enrolment in percentage DISE": "NA",
      "Marginal Workers worked for 3 - 6 moths during last year - Males": 4230,
      "Prevalence of Acute illness in percentage DLHS-4": "Not available",
      "Main Workers - Persons": 24796,
      "Main Workers Cultivators - Females": 224,
      "Marginal Workers Agricultural Labourers worked for 3 - 6 moths during last year - Females": 235,
      "Marginal Workers Other worked for 0 - 3 moths during last year - Males": 618,
      "Upper Primary Schools with drinking water facility in percentage DISE": "NA",
      "Primary Schools with girls toilet in percentage DISE": "NA",
      "Marginal Workers worked for 3 - 6 moths during last year - Persons": 5265,
      "Upper Primary Drop Out Rate in percentage DISE": "NA",
      "Prevalence of Anaemia in pregnant women aged 15-49years in percentage DLHS-4": "Not available",
      "Current use of any modern method of family planning in percentage DLHS-4": "Not available",
      "Marginal Workers Agricultural Labourers - Males": 918,
      "Upper Primary Female Teachers in percentage DISE": "NA",
      "Marginal Workers - Females": 1384,
      "Marginal Workers Other worked for 3 - 6 moths during last year - Persons": 3707,
      "Main Workers Agricultural Labourers - Females": 100,
      "Marginal Workers Cultivators worked for 3 - 6 moths during last year - Females": 181,
      "Households with no lighting  Houselisting and Housing Census Data Tables- District Level , Census of India__5": 160,
      "Prevalence of Severe Anaemia  in percentage DLHS-4": "Not available",
      "Total unmet need for family planning in percentage DLHS-4": "Not available",
      "Main Workers Other - Males": 18607,
      "Children who received full vaccination in percentage DLHS-4": "Not available",
      "Marginal Workers Household Industry - Persons": 226,
      "Primary Pupil-Teacher Ratio in percentage DISE": "NA",
      "Marginal Workers Agricultural Labourers worked for 3 - 6 moths during last year - Males": 747,
      "Scheduled Caste Females": 8582,
      "Marginal Workers Cultivators - Males": 242,
      "Marginal Workers - Males": 5063,
      "Marginal Workers worked for 0 - 3 moths during last year - Females": 349,
      "Households with main source of drinking water within premises in percentage Houselisting and Housing Census Data Tables- District Level , Census of India": 66.22804798,
      "Marginal Workers Household Industry worked for 3 - 6 moths during last year - Persons": 182,
      "Upper Primary Girl's Enrolment in percentage DISE": "NA",
      "Prevalence of Severe Anaemia in women aged 15-49years in percentage DLHS-4": "Not available",
      "Marginal Workers Agricultural Labourers worked for 0 - 3 moths during last year - Males": 171,
      "Households with electricity as main source of lighting  Houselisting and Housing Census Data Tables- District Level , Census of India__3": 17200,
      "Households with computer or laptop with internet connection in percentage": 2.18,
      "PHCs functioning on a 24x7hours basis in percentage DLHS-4": 0,
      "Non Workers - Males": 37531,
      "Total Households in District Houselisting and Housing Census Data Tables- District Level , Census of India": 19759,
      "Upper Primary Schools with girls toilet in percentage DISE": "NA",
      "Households with mobile phone in percentage": 70.02,
      "Households receiving untreated tap water within premises in percentage Houselisting and Housing Census Data Tables- District Level , Census of India__2": 7.885014424,
      "Marginal Workers Cultivators worked for 3 - 6 moths during last year - Males": 213,
      "Prevalence of Anaemia  in percentage DLHS-4": "Not available",
      "Prevalence of Chronic illness in percentage DLHS-4": "Not available",
      "Households with solar energy as main source of lighting in percentage Houselisting and Housing Census Data Tables- District Level , Census of India__1": 0.106280682,
      "Marginal Workers Agricultural Labourers worked for 0 - 3 moths during last year - Females": 82,
      "Main Workers - Males": 22482,
      "Female": "NA",
      "Sno": 564,
      "Marginal Workers Other worked for 3 - 6 moths during last year - Females": 561,
      "Marginal Workers Cultivators worked for 0 - 3 moths during last year - Females": 62,
      "Scheduled Tribe Males": 0,
      "Male Illiterates": 22727,
      "Prevalence of Severe Anaemia in pregnant women aged 15-49years in percentage DLHS-4": "Not available",
      "0-6 Age Group Persons": 23059,
      "Upper Primary Student-Classroom Ratio in percentage DISE": "NA",
      "Currently married men married below 21years of age in percentage DLHS-4": "Not available",
      "Male Literates": 42349,
      "Households with no lighting in percentage Houselisting and Housing Census Data Tables- District Level , Census of India__2": 0.809757579,
      "Primary Drop Out Rate in percentage DISE": "NA",
      "Marginal Workers Household Industry - Males": 139,
      "Female Illiterates": 31231,
      "Main Workers Other - Females": 1868,
      "Marginal Workers Cultivators - Persons": 485,
      "Upper Primary Gross Enrolment Ratio in percentage DISE": "NA",
      "Scheduled Caste Persons": 18013,
      "Marginal Workers Cultivators worked for 3 - 6 moths during last year - Persons": 394,
      "Households with landline phone in percentage": 2.66,
      "Total Households in District  Houselisting and Housing Census Data Tables- District Level , Census of India": 19759,
      "Upper Primary Pupil-Teacher Ratio in percentage DISE": "NA",
      "Primary Student-Classroom Ratio in percentage DISE": "NA",
      "Primary Schools with boys toilet in percentage DISE": "NA",
      "Mean number of children ever born to women aged 40-49years  DLHS-4": "Not available",
      "Households receiving untreated tap water within premises  Houselisting and Housing Census Data Tables- District Level , Census of India__5": 1558,
      "Marginal Workers Household Industry worked for 0 - 3 moths during last year - Persons": 44,
      "Total Male Population": 65076,
      "Non Workers - Females": 55332,
      "Current use of family planning methods in percentage DLHS-4": "Not available",
      "Households with main source of drinking water within premises  Houselisting and Housing Census Data Tables- District Level , Census of India__3": 13086,
      "Main Workers Agricultural Labourers - Males": 1122,
      "Marginal Workers Other worked for 0 - 3 moths during last year - Persons": 794,
      "Currently married women married below 18years of age in percentage DLHS-4": "Not available",
      "Person Illiterates": 53958,
      "Main Workers Household Industry - Females": 122,
      "Female Literates": 27799,
      "Marginal Workers Cultivators worked for 0 - 3 moths during last year - Males": 29,
      "Male": "NA",
      "Households with improved source of drinking water in percentage DLHS-4": "Not available",
      "Upper Primary Schools with electricity in percentage DISE": "NA",
      "Households with electricity in percentage DLHS-4": "Not available",
      "Villages with Primary Health Centre within 10km in percentage DLHS-4": 0,
      "Births to women aged 15-19years out of Total births in percentage DLHS-4": "Not available",
      "Prevalence of Anaemia in women aged 15-49years in percentage DLHS-4": "Not available",
      "Marginal Workers Agricultural Labourers worked for 3 - 6 moths during last year - Persons": 982,
      "Main Workers Household Industry - Males": 661,
      "Scheduled Tribe Females": 0,
      "Marginal Workers worked for 0 - 3 moths during last year - Males": 833,
      "Marginal Workers Other worked for 3 - 6 moths during last year - Males": 3146,
      "Primary Net Enrolment Ratio in percentage DISE": "NA",
      "Total": "NA",
      "Mean age at marriage for boys DLHS-4": "Not available",
      "Number of District Hospitals  DLHS-4": 0,
      "0-6 Age Group Females": 10858,
      "Marginal Workers Agricultural Labourers worked for 0 - 3 moths during last year - Persons": 253,
      "Marginal Workers Household Industry worked for 0 - 3 moths during last year - Males": 15,
      "Total Workers  Females": 3698,
      "Marginal Workers worked for 3 - 6 moths during last year - Females": 1035,
      "Institutional Deliveries in percentage DLHS-4": "Not available",
      "Marginal Workers Other - Males": 3764,
      "Total Workers  Males": 27545,
      "Main Workers - Females": 2314,
      "Primary Gross Enrolment Ratio in percentage DISE": "NA",
      "Main Workers Cultivators - Persons": 2316,
      "Marginal Workers Household Industry worked for 0 - 3 moths during last year - Females": 29,
      "Upper Primary Net Enrolment Ratio in percentage DISE": "NA",
      "Primary New Government Schools since 2003 in percentage DISE": "NA",
      "Tier": "Urban",
      "Marginal Workers Household Industry - Females": 87,
      "Primary Schools with electricity in percentage DISE": "NA",
      "Main Workers Other - Persons": 20475,
      "Marginal Workers Household Industry worked for 3 - 6 moths during last year - Females": 58,
      "Main Workers Cultivators - Males": 2092,
      "Main Workers Household Industry - Persons": 783,
      "Marginal Workers Cultivators worked for 0 - 3 moths during last year - Persons": 91,
      "Scheduled Caste Males": 9431,
      "Marginal Workers - Persons": 6447,
      "Deliveries at home conducted by skilled health personnel in percentage DLHS-4": "Not available",
      "Villages with Sub-Health Centres within 3km in percentage DLHS-4": 0,
      "Upper Primary New Government Schools since 2003 in percentage DISE": "NA",
      "0-6 Age Group Males": 12201,
      "Primary Schools with drinking water facility in percentage DISE": "NA",
      "Non Workers - Persons": 92863,
      "Person Literates": 70148,
      "State": "HARAYANA",
      "Total Female Population": 59030,
      "Marginal Workers worked for 0 - 3 moths during last year - Persons": 1182,
      "Marginal Workers Cultivators - Females": 243,
      "Marginal Workers Other - Persons": 4501,
      "Sex Ratio": 907,
      "Scheduled Tribe Persons": 0,
      "Marginal Workers Household Industry worked for 3 - 6 moths during last year - Males": 124,
      "Marginal Workers Agricultural Labourers - Females": 317,
      "Mean age at marriage for girls DLHS-4": "Not available",
      "Households with solar energy as main source of lighting  Houselisting and Housing Census Data Tables- District Level , Census of India__4": 21,
      "District": "MEWAT",
      "Households receiving treated tap water within premises in percentage Houselisting and Housing Census Data Tables- District Level , Census of India__1": 42.92221266,
      "Total Workers  Persons": 31243,
      "Households receiving treated tap water within premises  Houselisting and Housing Census Data Tables- District Level , Census of India__4": 8481,
      "Primary Female Teachers in percentage DISE": "NA",
      "Number of Households": 20305,
      "Main Workers Agricultural Labourers - Persons": 1222
    }
  ]
}