{
  "Total": [
    {
      "Marginal Workers Agricultural Labourers - Persons": 17763,
      "Marginal Workers Other - Females": 19382,
      "Marginal Workers Other worked for 0 - 3 moths during last year - Females": 3439,
      "Upper Primary Schools with boys toilet in percentage DISE": 100,
      "Total Population": 900332,
      "Households with electricity as main source of lighting in percentage Houselisting and Housing Census Data Tables- District Level , Census of India": 90.25767466,
      "Primary Girl's Enrolment in percentage DISE": 51.2,
      "Marginal Workers worked for 3 - 6 moths during last year - Males": 26269,
      "Prevalence of Acute illness in percentage DLHS-4": 11.8,
      "Main Workers - Persons": 250219,
      "Main Workers Cultivators - Females": 15826,
      "Marginal Workers Agricultural Labourers worked for 3 - 6 moths during last year - Females": 6448,
      "Marginal Workers Other worked for 0 - 3 moths during last year - Males": 3501,
      "Upper Primary Schools with drinking water facility in percentage DISE": 100,
      "Primary Schools with girls toilet in percentage DISE": 100,
      "Marginal Workers worked for 3 - 6 moths during last year - Persons": 64581,
      "Upper Primary Drop Out Rate in percentage DISE": "Not available",
      "Prevalence of Anaemia in pregnant women aged 15-49years in percentage DLHS-4": 78.3,
      "Current use of any modern method of family planning in percentage DLHS-4": 35.7,
      "Marginal Workers Agricultural Labourers - Males": 7582,
      "Upper Primary Female Teachers in percentage DISE": 36.1,
      "Marginal Workers - Females": 52752,
      "Marginal Workers Other worked for 3 - 6 moths during last year - Persons": 30568,
      "Main Workers Agricultural Labourers - Females": 2438,
      "Marginal Workers Cultivators worked for 3 - 6 moths during last year - Females": 13850,
      "Households with no lighting  Houselisting and Housing Census Data Tables- District Level , Census of India__5": 868,
      "Prevalence of Severe Anaemia  in percentage DLHS-4": 12.9,
      "Total unmet need for family planning in percentage DLHS-4": 39,
      "Main Workers Other - Males": 130012,
      "Children who received full vaccination in percentage DLHS-4": 44,
      "Marginal Workers Household Industry - Persons": 3533,
      "Primary Pupil-Teacher Ratio in percentage DISE": 23,
      "Marginal Workers Agricultural Labourers worked for 3 - 6 moths during last year - Males": 5729,
      "Scheduled Caste Females": 87035,
      "Marginal Workers Cultivators - Males": 8038,
      "Marginal Workers - Males": 34756,
      "Marginal Workers worked for 0 - 3 moths during last year - Females": 14440,
      "Households with main source of drinking water within premises in percentage Houselisting and Housing Census Data Tables- District Level , Census of India": 67.82377844,
      "Marginal Workers Household Industry worked for 3 - 6 moths during last year - Persons": 2848,
      "Upper Primary Girl's Enrolment in percentage DISE": 52.4,
      "Prevalence of Severe Anaemia in women aged 15-49years in percentage DLHS-4": 12.1,
      "Marginal Workers Agricultural Labourers worked for 0 - 3 moths during last year - Males": 1853,
      "Households with electricity as main source of lighting  Houselisting and Housing Census Data Tables- District Level , Census of India__3": 152651,
      "Households with computer or laptop with internet connection in percentage": 3.03,
      "PHCs functioning on a 24x7hours basis in percentage DLHS-4": 100,
      "Non Workers - Males": 239009,
      "Total Households in District Houselisting and Housing Census Data Tables- District Level , Census of India": 169128,
      "Upper Primary Schools with girls toilet in percentage DISE": 100,
      "Households with mobile phone in percentage": 67.17,
      "Households receiving untreated tap water within premises in percentage Houselisting and Housing Census Data Tables- District Level , Census of India__2": 14.76041814,
      "Marginal Workers Cultivators worked for 3 - 6 moths during last year - Males": 5138,
      "Prevalence of Anaemia  in percentage DLHS-4": 67.5,
      "Prevalence of Chronic illness in percentage DLHS-4": 11.7,
      "Households with solar energy as main source of lighting in percentage Houselisting and Housing Census Data Tables- District Level , Census of India__1": 0.19511849,
      "Marginal Workers Agricultural Labourers worked for 0 - 3 moths during last year - Females": 3733,
      "Main Workers - Males": 200570,
      "Female": 69.57,
      "Sno": 575,
      "Marginal Workers Other worked for 3 - 6 moths during last year - Females": 15943,
      "Marginal Workers Cultivators worked for 0 - 3 moths during last year - Females": 6816,
      "Scheduled Tribe Males": 0,
      "Male Illiterates": 98882,
      "Prevalence of Severe Anaemia in pregnant women aged 15-49years in percentage DLHS-4": 18.1,
      "0-6 Age Group Persons": 113893,
      "Upper Primary Student-Classroom Ratio in percentage DISE": 20,
      "Currently married men married below 21years of age in percentage DLHS-4": 13.2,
      "Male Literates": 375453,
      "Households with no lighting in percentage Houselisting and Housing Census Data Tables- District Level , Census of India__2": 0.513220756,
      "Primary Drop Out Rate in percentage DISE": 2,
      "Marginal Workers Household Industry - Males": 1010,
      "Female Illiterates": 164503,
      "Main Workers Other - Females": 29512,
      "Marginal Workers Cultivators - Persons": 28704,
      "Upper Primary Gross Enrolment Ratio in percentage DISE": 91.5,
      "Scheduled Caste Persons": 182606,
      "Marginal Workers Cultivators worked for 3 - 6 moths during last year - Persons": 18988,
      "Households with landline phone in percentage": 5.1,
      "Total Households in District  Houselisting and Housing Census Data Tables- District Level , Census of India": 169128,
      "Upper Primary Pupil-Teacher Ratio in percentage DISE": 13,
      "Primary Student-Classroom Ratio in percentage DISE": 19,
      "Primary Schools with boys toilet in percentage DISE": 95.8,
      "Mean number of children ever born to women aged 40-49years  DLHS-4": 2.8,
      "Households receiving untreated tap water within premises  Houselisting and Housing Census Data Tables- District Level , Census of India__5": 24964,
      "Marginal Workers Household Industry worked for 0 - 3 moths during last year - Persons": 685,
      "Total Male Population": 474335,
      "Non Workers - Females": 323596,
      "Current use of family planning methods in percentage DLHS-4": 43.4,
      "Households with main source of drinking water within premises  Houselisting and Housing Census Data Tables- District Level , Census of India__3": 114709,
      "Main Workers Agricultural Labourers - Males": 8014,
      "Marginal Workers Other worked for 0 - 3 moths during last year - Persons": 6940,
      "Currently married women married below 18years of age in percentage DLHS-4": 3.2,
      "Person Illiterates": 263385,
      "Main Workers Household Industry - Females": 1873,
      "Female Literates": 261494,
      "Marginal Workers Cultivators worked for 0 - 3 moths during last year - Males": 2900,
      "Male": 91.44,
      "Households with improved source of drinking water in percentage DLHS-4": 99.3,
      "Upper Primary Schools with electricity in percentage DISE": 100,
      "Households with electricity in percentage DLHS-4": 98.4,
      "Villages with Primary Health Centre within 10km in percentage DLHS-4": 88,
      "Births to women aged 15-19years out of Total births in percentage DLHS-4": 2.1,
      "Prevalence of Anaemia in women aged 15-49years in percentage DLHS-4": 68.6,
      "Marginal Workers Agricultural Labourers worked for 3 - 6 moths during last year - Persons": 12177,
      "Main Workers Household Industry - Males": 4376,
      "Scheduled Tribe Females": 0,
      "Marginal Workers worked for 0 - 3 moths during last year - Males": 8487,
      "Marginal Workers Other worked for 3 - 6 moths during last year - Males": 14625,
      "Primary Net Enrolment Ratio in percentage DISE": 67.4,
      "Total": 80.99,
      "Mean age at marriage for boys DLHS-4": 24.1,
      "Number of District Hospitals  DLHS-4": 1,
      "0-6 Age Group Females": 50150,
      "Marginal Workers Agricultural Labourers worked for 0 - 3 moths during last year - Persons": 5586,
      "Marginal Workers Household Industry worked for 0 - 3 moths during last year - Males": 233,
      "Total Workers  Females": 102401,
      "Marginal Workers worked for 3 - 6 moths during last year - Females": 38312,
      "Institutional Deliveries in percentage DLHS-4": 83.4,
      "Marginal Workers Other - Males": 18126,
      "Total Workers  Males": 235326,
      "Main Workers - Females": 49649,
      "Primary Gross Enrolment Ratio in percentage DISE": 94.7,
      "Main Workers Cultivators - Persons": 73994,
      "Marginal Workers Household Industry worked for 0 - 3 moths during last year - Females": 452,
      "Upper Primary Net Enrolment Ratio in percentage DISE": 64.5,
      "Primary New Government Schools since 2003 in percentage DISE": 0.5,
      "Tier": "Total",
      "Marginal Workers Household Industry - Females": 2523,
      "Primary Schools with electricity in percentage DISE": 100,
      "Main Workers Other - Persons": 159524,
      "Marginal Workers Household Industry worked for 3 - 6 moths during last year - Females": 2071,
      "Main Workers Cultivators - Males": 58168,
      "Main Workers Household Industry - Persons": 6249,
      "Marginal Workers Cultivators worked for 0 - 3 moths during last year - Persons": 9716,
      "Scheduled Caste Males": 95571,
      "Marginal Workers - Persons": 87508,
      "Deliveries at home conducted by skilled health personnel in percentage DLHS-4": 11.2,
      "Villages with Sub-Health Centres within 3km in percentage DLHS-4": 84,
      "Upper Primary New Government Schools since 2003 in percentage DISE": 3,
      "0-6 Age Group Males": 63743,
      "Primary Schools with drinking water facility in percentage DISE": 99.8,
      "Non Workers - Persons": 562605,
      "Person Literates": 636947,
      "State": "HARAYANA",
      "Total Female Population": 425997,
      "Marginal Workers worked for 0 - 3 moths during last year - Persons": 22927,
      "Marginal Workers Cultivators - Females": 20666,
      "Marginal Workers Other - Persons": 37508,
      "Sex Ratio": 898,
      "Scheduled Tribe Persons": 0,
      "Marginal Workers Household Industry worked for 3 - 6 moths during last year - Males": 777,
      "Marginal Workers Agricultural Labourers - Females": 10181,
      "Mean age at marriage for girls DLHS-4": 21.3,
      "Households with solar energy as main source of lighting  Houselisting and Housing Census Data Tables- District Level , Census of India__4": 330,
      "District": "REWARI",
      "Households receiving treated tap water within premises in percentage Houselisting and Housing Census Data Tables- District Level , Census of India__1": 39.05680904,
      "Total Workers  Persons": 337727,
      "Households receiving treated tap water within premises  Houselisting and Housing Census Data Tables- District Level , Census of India__4": 66056,
      "Primary Female Teachers in percentage DISE": 55.4,
      "Number of Households": 178043,
      "Main Workers Agricultural Labourers - Persons": 10452
    }
  ],
  "Rural": [
    {
      "Marginal Workers Agricultural Labourers - Persons": 17243,
      "Marginal Workers Other - Females": 18054,
      "Marginal Workers Other worked for 0 - 3 moths during last year - Females": 3170,
      "Upper Primary Schools with boys toilet in percentage DISE": "NA",
      "Total Population": 666902,
      "Households with electricity as main source of lighting in percentage Houselisting and Housing Census Data Tables- District Level , Census of India": 88.02084571,
      "Primary Girl's Enrolment in percentage DISE": "NA",
      "Marginal Workers worked for 3 - 6 moths during last year - Males": 22982,
      "Prevalence of Acute illness in percentage DLHS-4": 11.7,
      "Main Workers - Persons": 182761,
      "Main Workers Cultivators - Females": 15481,
      "Marginal Workers Agricultural Labourers worked for 3 - 6 moths during last year - Females": 6315,
      "Marginal Workers Other worked for 0 - 3 moths during last year - Males": 2917,
      "Upper Primary Schools with drinking water facility in percentage DISE": "NA",
      "Primary Schools with girls toilet in percentage DISE": "NA",
      "Marginal Workers worked for 3 - 6 moths during last year - Persons": 59851,
      "Upper Primary Drop Out Rate in percentage DISE": "NA",
      "Prevalence of Anaemia in pregnant women aged 15-49years in percentage DLHS-4": 62.1,
      "Current use of any modern method of family planning in percentage DLHS-4": 40.4,
      "Marginal Workers Agricultural Labourers - Males": 7309,
      "Upper Primary Female Teachers in percentage DISE": "NA",
      "Marginal Workers - Females": 50839,
      "Marginal Workers Other worked for 3 - 6 moths during last year - Persons": 26683,
      "Main Workers Agricultural Labourers - Females": 2273,
      "Marginal Workers Cultivators worked for 3 - 6 moths during last year - Females": 13759,
      "Households with no lighting  Houselisting and Housing Census Data Tables- District Level , Census of India__5": 672,
      "Prevalence of Severe Anaemia  in percentage DLHS-4": 8.8,
      "Total unmet need for family planning in percentage DLHS-4": 37.7,
      "Main Workers Other - Males": 76004,
      "Children who received full vaccination in percentage DLHS-4": 30,
      "Marginal Workers Household Industry - Persons": 3168,
      "Primary Pupil-Teacher Ratio in percentage DISE": "NA",
      "Marginal Workers Agricultural Labourers worked for 3 - 6 moths during last year - Males": 5529,
      "Scheduled Caste Females": 67020,
      "Marginal Workers Cultivators - Males": 7914,
      "Marginal Workers - Males": 30775,
      "Marginal Workers worked for 0 - 3 moths during last year - Females": 13970,
      "Households with main source of drinking water within premises in percentage Houselisting and Housing Census Data Tables- District Level , Census of India": 61.24852488,
      "Marginal Workers Household Industry worked for 3 - 6 moths during last year - Persons": 2541,
      "Upper Primary Girl's Enrolment in percentage DISE": "NA",
      "Prevalence of Severe Anaemia in women aged 15-49years in percentage DLHS-4": 9.2,
      "Marginal Workers Agricultural Labourers worked for 0 - 3 moths during last year - Males": 1780,
      "Households with electricity as main source of lighting  Houselisting and Housing Census Data Tables- District Level , Census of India__3": 111136,
      "Households with computer or laptop with internet connection in percentage": 1.6,
      "PHCs functioning on a 24x7hours basis in percentage DLHS-4": "Not applicable",
      "Non Workers - Males": 177531,
      "Total Households in District Houselisting and Housing Census Data Tables- District Level , Census of India": 126261,
      "Upper Primary Schools with girls toilet in percentage DISE": "NA",
      "Households with mobile phone in percentage": 66.87,
      "Households receiving untreated tap water within premises in percentage Houselisting and Housing Census Data Tables- District Level , Census of India__2": 18.34691631,
      "Marginal Workers Cultivators worked for 3 - 6 moths during last year - Males": 5024,
      "Prevalence of Anaemia  in percentage DLHS-4": 65.5,
      "Prevalence of Chronic illness in percentage DLHS-4": 12.2,
      "Households with solar energy as main source of lighting in percentage Houselisting and Housing Census Data Tables- District Level , Census of India__1": 0.231266979,
      "Marginal Workers Agricultural Labourers worked for 0 - 3 moths during last year - Females": 3619,
      "Main Workers - Males": 141404,
      "Female": "NA",
      "Sno": 574,
      "Marginal Workers Other worked for 3 - 6 moths during last year - Females": 14884,
      "Marginal Workers Cultivators worked for 0 - 3 moths during last year - Females": 6760,
      "Scheduled Tribe Males": 0,
      "Male Illiterates": 73152,
      "Prevalence of Severe Anaemia in pregnant women aged 15-49years in percentage DLHS-4": 13.8,
      "0-6 Age Group Persons": 84052,
      "Upper Primary Student-Classroom Ratio in percentage DISE": "NA",
      "Currently married men married below 21years of age in percentage DLHS-4": 16.5,
      "Male Literates": 276558,
      "Households with no lighting in percentage Houselisting and Housing Census Data Tables- District Level , Census of India__2": 0.532230855,
      "Primary Drop Out Rate in percentage DISE": "NA",
      "Marginal Workers Household Industry - Males": 836,
      "Female Illiterates": 129298,
      "Main Workers Other - Females": 22041,
      "Marginal Workers Cultivators - Persons": 28433,
      "Upper Primary Gross Enrolment Ratio in percentage DISE": "NA",
      "Scheduled Caste Persons": 140637,
      "Marginal Workers Cultivators worked for 3 - 6 moths during last year - Persons": 18783,
      "Households with landline phone in percentage": 4.79,
      "Total Households in District  Houselisting and Housing Census Data Tables- District Level , Census of India": 126261,
      "Upper Primary Pupil-Teacher Ratio in percentage DISE": "NA",
      "Primary Student-Classroom Ratio in percentage DISE": "NA",
      "Primary Schools with boys toilet in percentage DISE": "NA",
      "Mean number of children ever born to women aged 40-49years  DLHS-4": 2.9,
      "Households receiving untreated tap water within premises  Houselisting and Housing Census Data Tables- District Level , Census of India__5": 23165,
      "Marginal Workers Household Industry worked for 0 - 3 moths during last year - Persons": 627,
      "Total Male Population": 349710,
      "Non Workers - Females": 224996,
      "Current use of family planning methods in percentage DLHS-4": 52.4,
      "Households with main source of drinking water within premises  Houselisting and Housing Census Data Tables- District Level , Census of India__3": 77333,
      "Main Workers Agricultural Labourers - Males": 7103,
      "Marginal Workers Other worked for 0 - 3 moths during last year - Persons": 6087,
      "Currently married women married below 18years of age in percentage DLHS-4": 5.4,
      "Person Illiterates": 202450,
      "Main Workers Household Industry - Females": 1562,
      "Female Literates": 187894,
      "Marginal Workers Cultivators worked for 0 - 3 moths during last year - Males": 2890,
      "Male": "NA",
      "Households with improved source of drinking water in percentage DLHS-4": 99,
      "Upper Primary Schools with electricity in percentage DISE": "NA",
      "Households with electricity in percentage DLHS-4": 99.6,
      "Villages with Primary Health Centre within 10km in percentage DLHS-4": "Not applicable",
      "Births to women aged 15-19years out of Total births in percentage DLHS-4": 2.9,
      "Prevalence of Anaemia in women aged 15-49years in percentage DLHS-4": 66.3,
      "Marginal Workers Agricultural Labourers worked for 3 - 6 moths during last year - Persons": 11844,
      "Main Workers Household Industry - Males": 2380,
      "Scheduled Tribe Females": 0,
      "Marginal Workers worked for 0 - 3 moths during last year - Males": 7793,
      "Marginal Workers Other worked for 3 - 6 moths during last year - Males": 11799,
      "Primary Net Enrolment Ratio in percentage DISE": "NA",
      "Total": "NA",
      "Mean age at marriage for boys DLHS-4": 23.7,
      "Number of District Hospitals  DLHS-4": "Not applicable",
      "0-6 Age Group Females": 36898,
      "Marginal Workers Agricultural Labourers worked for 0 - 3 moths during last year - Persons": 5399,
      "Marginal Workers Household Industry worked for 0 - 3 moths during last year - Males": 206,
      "Total Workers  Females": 92196,
      "Marginal Workers worked for 3 - 6 moths during last year - Females": 36869,
      "Institutional Deliveries in percentage DLHS-4": 87.5,
      "Marginal Workers Other - Males": 14716,
      "Total Workers  Males": 172179,
      "Main Workers - Females": 41357,
      "Primary Gross Enrolment Ratio in percentage DISE": "NA",
      "Main Workers Cultivators - Persons": 71398,
      "Marginal Workers Household Industry worked for 0 - 3 moths during last year - Females": 421,
      "Upper Primary Net Enrolment Ratio in percentage DISE": "NA",
      "Primary New Government Schools since 2003 in percentage DISE": "NA",
      "Tier": "Rural",
      "Marginal Workers Household Industry - Females": 2332,
      "Primary Schools with electricity in percentage DISE": "NA",
      "Main Workers Other - Persons": 98045,
      "Marginal Workers Household Industry worked for 3 - 6 moths during last year - Females": 1911,
      "Main Workers Cultivators - Males": 55917,
      "Main Workers Household Industry - Persons": 3942,
      "Marginal Workers Cultivators worked for 0 - 3 moths during last year - Persons": 9650,
      "Scheduled Caste Males": 73617,
      "Marginal Workers - Persons": 81614,
      "Deliveries at home conducted by skilled health personnel in percentage DLHS-4": 9.7,
      "Villages with Sub-Health Centres within 3km in percentage DLHS-4": "Not applicable",
      "Upper Primary New Government Schools since 2003 in percentage DISE": "NA",
      "0-6 Age Group Males": 47154,
      "Primary Schools with drinking water facility in percentage DISE": "NA",
      "Non Workers - Persons": 402527,
      "Person Literates": 464452,
      "State": "HARAYANA",
      "Total Female Population": 317192,
      "Marginal Workers worked for 0 - 3 moths during last year - Persons": 21763,
      "Marginal Workers Cultivators - Females": 20519,
      "Marginal Workers Other - Persons": 32770,
      "Sex Ratio": 907,
      "Scheduled Tribe Persons": 0,
      "Marginal Workers Household Industry worked for 3 - 6 moths during last year - Males": 630,
      "Marginal Workers Agricultural Labourers - Females": 9934,
      "Mean age at marriage for girls DLHS-4": 20.9,
      "Households with solar energy as main source of lighting  Houselisting and Housing Census Data Tables- District Level , Census of India__4": 292,
      "District": "REWARI",
      "Households receiving treated tap water within premises in percentage Houselisting and Housing Census Data Tables- District Level , Census of India__1": 31.31291531,
      "Total Workers  Persons": 264375,
      "Households receiving treated tap water within premises  Houselisting and Housing Census Data Tables- District Level , Census of India__4": 39536,
      "Primary Female Teachers in percentage DISE": "NA",
      "Number of Households": 130299,
      "Main Workers Agricultural Labourers - Persons": 9376
    }
  ],
  "Urban": [
    {
      "Marginal Workers Agricultural Labourers - Persons": 520,
      "Marginal Workers Other - Females": 1328,
      "Marginal Workers Other worked for 0 - 3 moths during last year - Females": 269,
      "Upper Primary Schools with boys toilet in percentage DISE": "NA",
      "Total Population": 233430,
      "Households with electricity as main source of lighting in percentage Houselisting and Housing Census Data Tables- District Level , Census of India": 96.84605874,
      "Primary Girl's Enrolment in percentage DISE": "NA",
      "Marginal Workers worked for 3 - 6 moths during last year - Males": 3287,
      "Prevalence of Acute illness in percentage DLHS-4": "Not available",
      "Main Workers - Persons": 67458,
      "Main Workers Cultivators - Females": 345,
      "Marginal Workers Agricultural Labourers worked for 3 - 6 moths during last year - Females": 133,
      "Marginal Workers Other worked for 0 - 3 moths during last year - Males": 584,
      "Upper Primary Schools with drinking water facility in percentage DISE": "NA",
      "Primary Schools with girls toilet in percentage DISE": "NA",
      "Marginal Workers worked for 3 - 6 moths during last year - Persons": 4730,
      "Upper Primary Drop Out Rate in percentage DISE": "NA",
      "Prevalence of Anaemia in pregnant women aged 15-49years in percentage DLHS-4": "Not available",
      "Current use of any modern method of family planning in percentage DLHS-4": "Not available",
      "Marginal Workers Agricultural Labourers - Males": 273,
      "Upper Primary Female Teachers in percentage DISE": "NA",
      "Marginal Workers - Females": 1913,
      "Marginal Workers Other worked for 3 - 6 moths during last year - Persons": 3885,
      "Main Workers Agricultural Labourers - Females": 165,
      "Marginal Workers Cultivators worked for 3 - 6 moths during last year - Females": 91,
      "Households with no lighting  Houselisting and Housing Census Data Tables- District Level , Census of India__5": 196,
      "Prevalence of Severe Anaemia  in percentage DLHS-4": "Not available",
      "Total unmet need for family planning in percentage DLHS-4": "Not available",
      "Main Workers Other - Males": 54008,
      "Children who received full vaccination in percentage DLHS-4": "Not available",
      "Marginal Workers Household Industry - Persons": 365,
      "Primary Pupil-Teacher Ratio in percentage DISE": "NA",
      "Marginal Workers Agricultural Labourers worked for 3 - 6 moths during last year - Males": 200,
      "Scheduled Caste Females": 20015,
      "Marginal Workers Cultivators - Males": 124,
      "Marginal Workers - Males": 3981,
      "Marginal Workers worked for 0 - 3 moths during last year - Females": 470,
      "Households with main source of drinking water within premises in percentage Houselisting and Housing Census Data Tables- District Level , Census of India": 87.19061283,
      "Marginal Workers Household Industry worked for 3 - 6 moths during last year - Persons": 307,
      "Upper Primary Girl's Enrolment in percentage DISE": "NA",
      "Prevalence of Severe Anaemia in women aged 15-49years in percentage DLHS-4": "Not available",
      "Marginal Workers Agricultural Labourers worked for 0 - 3 moths during last year - Males": 73,
      "Households with electricity as main source of lighting  Houselisting and Housing Census Data Tables- District Level , Census of India__3": 41515,
      "Households with computer or laptop with internet connection in percentage": 7.24,
      "PHCs functioning on a 24x7hours basis in percentage DLHS-4": 0,
      "Non Workers - Males": 61478,
      "Total Households in District Houselisting and Housing Census Data Tables- District Level , Census of India": 42867,
      "Upper Primary Schools with girls toilet in percentage DISE": "NA",
      "Households with mobile phone in percentage": 68.04,
      "Households receiving untreated tap water within premises in percentage Houselisting and Housing Census Data Tables- District Level , Census of India__2": 4.196701425,
      "Marginal Workers Cultivators worked for 3 - 6 moths during last year - Males": 114,
      "Prevalence of Anaemia  in percentage DLHS-4": "Not available",
      "Prevalence of Chronic illness in percentage DLHS-4": "Not available",
      "Households with solar energy as main source of lighting in percentage Houselisting and Housing Census Data Tables- District Level , Census of India__1": 0.0886,
      "Marginal Workers Agricultural Labourers worked for 0 - 3 moths during last year - Females": 114,
      "Main Workers - Males": 59166,
      "Female": "NA",
      "Sno": 576,
      "Marginal Workers Other worked for 3 - 6 moths during last year - Females": 1059,
      "Marginal Workers Cultivators worked for 0 - 3 moths during last year - Females": 56,
      "Scheduled Tribe Males": 0,
      "Male Illiterates": 25730,
      "Prevalence of Severe Anaemia in pregnant women aged 15-49years in percentage DLHS-4": "Not available",
      "0-6 Age Group Persons": 29841,
      "Upper Primary Student-Classroom Ratio in percentage DISE": "NA",
      "Currently married men married below 21years of age in percentage DLHS-4": "Not available",
      "Male Literates": 98895,
      "Households with no lighting in percentage Houselisting and Housing Census Data Tables- District Level , Census of India__2": 0.457228171,
      "Primary Drop Out Rate in percentage DISE": "NA",
      "Marginal Workers Household Industry - Males": 174,
      "Female Illiterates": 35205,
      "Main Workers Other - Females": 7471,
      "Marginal Workers Cultivators - Persons": 271,
      "Upper Primary Gross Enrolment Ratio in percentage DISE": "NA",
      "Scheduled Caste Persons": 41969,
      "Marginal Workers Cultivators worked for 3 - 6 moths during last year - Persons": 205,
      "Households with landline phone in percentage": 6.01,
      "Total Households in District  Houselisting and Housing Census Data Tables- District Level , Census of India": 42867,
      "Upper Primary Pupil-Teacher Ratio in percentage DISE": "NA",
      "Primary Student-Classroom Ratio in percentage DISE": "NA",
      "Primary Schools with boys toilet in percentage DISE": "NA",
      "Mean number of children ever born to women aged 40-49years  DLHS-4": "Not available",
      "Households receiving untreated tap water within premises  Houselisting and Housing Census Data Tables- District Level , Census of India__5": 1799,
      "Marginal Workers Household Industry worked for 0 - 3 moths during last year - Persons": 58,
      "Total Male Population": 124625,
      "Non Workers - Females": 98600,
      "Current use of family planning methods in percentage DLHS-4": "Not available",
      "Households with main source of drinking water within premises  Houselisting and Housing Census Data Tables- District Level , Census of India__3": 37376,
      "Main Workers Agricultural Labourers - Males": 911,
      "Marginal Workers Other worked for 0 - 3 moths during last year - Persons": 853,
      "Currently married women married below 18years of age in percentage DLHS-4": "Not available",
      "Person Illiterates": 60935,
      "Main Workers Household Industry - Females": 311,
      "Female Literates": 73600,
      "Marginal Workers Cultivators worked for 0 - 3 moths during last year - Males": 10,
      "Male": "NA",
      "Households with improved source of drinking water in percentage DLHS-4": "Not available",
      "Upper Primary Schools with electricity in percentage DISE": "NA",
      "Households with electricity in percentage DLHS-4": "Not available",
      "Villages with Primary Health Centre within 10km in percentage DLHS-4": 0,
      "Births to women aged 15-19years out of Total births in percentage DLHS-4": "Not available",
      "Prevalence of Anaemia in women aged 15-49years in percentage DLHS-4": "Not available",
      "Marginal Workers Agricultural Labourers worked for 3 - 6 moths during last year - Persons": 333,
      "Main Workers Household Industry - Males": 1996,
      "Scheduled Tribe Females": 0,
      "Marginal Workers worked for 0 - 3 moths during last year - Males": 694,
      "Marginal Workers Other worked for 3 - 6 moths during last year - Males": 2826,
      "Primary Net Enrolment Ratio in percentage DISE": "NA",
      "Total": "NA",
      "Mean age at marriage for boys DLHS-4": "Not available",
      "Number of District Hospitals  DLHS-4": 0,
      "0-6 Age Group Females": 13252,
      "Marginal Workers Agricultural Labourers worked for 0 - 3 moths during last year - Persons": 187,
      "Marginal Workers Household Industry worked for 0 - 3 moths during last year - Males": 27,
      "Total Workers  Females": 10205,
      "Marginal Workers worked for 3 - 6 moths during last year - Females": 1443,
      "Institutional Deliveries in percentage DLHS-4": "Not available",
      "Marginal Workers Other - Males": 3410,
      "Total Workers  Males": 63147,
      "Main Workers - Females": 8292,
      "Primary Gross Enrolment Ratio in percentage DISE": "NA",
      "Main Workers Cultivators - Persons": 2596,
      "Marginal Workers Household Industry worked for 0 - 3 moths during last year - Females": 31,
      "Upper Primary Net Enrolment Ratio in percentage DISE": "NA",
      "Primary New Government Schools since 2003 in percentage DISE": "NA",
      "Tier": "Urban",
      "Marginal Workers Household Industry - Females": 191,
      "Primary Schools with electricity in percentage DISE": "NA",
      "Main Workers Other - Persons": 61479,
      "Marginal Workers Household Industry worked for 3 - 6 moths during last year - Females": 160,
      "Main Workers Cultivators - Males": 2251,
      "Main Workers Household Industry - Persons": 2307,
      "Marginal Workers Cultivators worked for 0 - 3 moths during last year - Persons": 66,
      "Scheduled Caste Males": 21954,
      "Marginal Workers - Persons": 5894,
      "Deliveries at home conducted by skilled health personnel in percentage DLHS-4": "Not available",
      "Villages with Sub-Health Centres within 3km in percentage DLHS-4": 0,
      "Upper Primary New Government Schools since 2003 in percentage DISE": "NA",
      "0-6 Age Group Males": 16589,
      "Primary Schools with drinking water facility in percentage DISE": "NA",
      "Non Workers - Persons": 160078,
      "Person Literates": 172495,
      "State": "HARAYANA",
      "Total Female Population": 108805,
      "Marginal Workers worked for 0 - 3 moths during last year - Persons": 1164,
      "Marginal Workers Cultivators - Females": 147,
      "Marginal Workers Other - Persons": 4738,
      "Sex Ratio": 873,
      "Scheduled Tribe Persons": 0,
      "Marginal Workers Household Industry worked for 3 - 6 moths during last year - Males": 147,
      "Marginal Workers Agricultural Labourers - Females": 247,
      "Mean age at marriage for girls DLHS-4": "Not available",
      "Households with solar energy as main source of lighting  Houselisting and Housing Census Data Tables- District Level , Census of India__4": 38,
      "District": "REWARI",
      "Households receiving treated tap water within premises in percentage Houselisting and Housing Census Data Tables- District Level , Census of India__1": 61.86577087,
      "Total Workers  Persons": 73352,
      "Households receiving treated tap water within premises  Houselisting and Housing Census Data Tables- District Level , Census of India__4": 26520,
      "Primary Female Teachers in percentage DISE": "NA",
      "Number of Households": 47744,
      "Main Workers Agricultural Labourers - Persons": 1076
    }
  ]
}