{
  "Total": [
    {
      "Marginal Workers Agricultural Labourers - Persons": 47693,
      "Marginal Workers Other - Females": 14741,
      "Marginal Workers Other worked for 0 - 3 moths during last year - Females": 2776,
      "Upper Primary Schools with boys toilet in percentage DISE": 100,
      "Total Population": 1450001,
      "Households with electricity as main source of lighting in percentage Houselisting and Housing Census Data Tables- District Level , Census of India": 93.84257096,
      "Primary Girl's Enrolment in percentage DISE": 49,
      "Marginal Workers worked for 3 - 6 moths during last year - Males": 52104,
      "Prevalence of Acute illness in percentage DLHS-4": 10.1,
      "Main Workers - Persons": 396763,
      "Main Workers Cultivators - Females": 17589,
      "Marginal Workers Agricultural Labourers worked for 3 - 6 moths during last year - Females": 17469,
      "Marginal Workers Other worked for 0 - 3 moths during last year - Males": 5012,
      "Upper Primary Schools with drinking water facility in percentage DISE": 100,
      "Primary Schools with girls toilet in percentage DISE": 100,
      "Marginal Workers worked for 3 - 6 moths during last year - Persons": 101389,
      "Upper Primary Drop Out Rate in percentage DISE": 1.73,
      "Prevalence of Anaemia in pregnant women aged 15-49years in percentage DLHS-4": 72.6,
      "Current use of any modern method of family planning in percentage DLHS-4": 51.6,
      "Marginal Workers Agricultural Labourers - Males": 25615,
      "Upper Primary Female Teachers in percentage DISE": 47.3,
      "Marginal Workers - Females": 61861,
      "Marginal Workers Other worked for 3 - 6 moths during last year - Persons": 33074,
      "Main Workers Agricultural Labourers - Females": 12736,
      "Marginal Workers Cultivators worked for 3 - 6 moths during last year - Females": 17079,
      "Households with no lighting  Houselisting and Housing Census Data Tables- District Level , Census of India__5": 1044,
      "Prevalence of Severe Anaemia  in percentage DLHS-4": 14,
      "Total unmet need for family planning in percentage DLHS-4": 31.9,
      "Main Workers Other - Males": 183232,
      "Children who received full vaccination in percentage DLHS-4": 32.8,
      "Marginal Workers Household Industry - Persons": 5779,
      "Primary Pupil-Teacher Ratio in percentage DISE": 29,
      "Marginal Workers Agricultural Labourers worked for 3 - 6 moths during last year - Males": 21290,
      "Scheduled Caste Females": 125419,
      "Marginal Workers Cultivators - Males": 10438,
      "Marginal Workers - Males": 64555,
      "Marginal Workers worked for 0 - 3 moths during last year - Females": 12576,
      "Households with main source of drinking water within premises in percentage Houselisting and Housing Census Data Tables- District Level , Census of India": 63.47892516,
      "Marginal Workers Household Industry worked for 3 - 6 moths during last year - Persons": 4618,
      "Upper Primary Girl's Enrolment in percentage DISE": 51.3,
      "Prevalence of Severe Anaemia in women aged 15-49years in percentage DLHS-4": 10.7,
      "Marginal Workers Agricultural Labourers worked for 0 - 3 moths during last year - Males": 4325,
      "Households with electricity as main source of lighting  Houselisting and Housing Census Data Tables- District Level , Census of India__3": 253054,
      "Households with computer or laptop with internet connection in percentage": 3.35,
      "PHCs functioning on a 24x7hours basis in percentage DLHS-4": 100,
      "Non Workers - Males": 390214,
      "Total Households in District Houselisting and Housing Census Data Tables- District Level , Census of India": 269658,
      "Upper Primary Schools with girls toilet in percentage DISE": 100,
      "Households with mobile phone in percentage": 65.91,
      "Households receiving untreated tap water within premises in percentage Houselisting and Housing Census Data Tables- District Level , Census of India__2": 9.471627024,
      "Marginal Workers Cultivators worked for 3 - 6 moths during last year - Males": 7859,
      "Prevalence of Anaemia  in percentage DLHS-4": 69.3,
      "Prevalence of Chronic illness in percentage DLHS-4": 10.6,
      "Households with solar energy as main source of lighting in percentage Houselisting and Housing Census Data Tables- District Level , Census of India__1": 0.079,
      "Marginal Workers Agricultural Labourers worked for 0 - 3 moths during last year - Females": 4609,
      "Main Workers - Males": 326530,
      "Female": 69.8,
      "Sno": 584,
      "Marginal Workers Other worked for 3 - 6 moths during last year - Females": 11965,
      "Marginal Workers Cultivators worked for 0 - 3 moths during last year - Females": 4565,
      "Scheduled Tribe Males": 0,
      "Male Illiterates": 191418,
      "Prevalence of Severe Anaemia in pregnant women aged 15-49years in percentage DLHS-4": 9.4,
      "0-6 Age Group Persons": 188262,
      "Upper Primary Student-Classroom Ratio in percentage DISE": 22,
      "Currently married men married below 21years of age in percentage DLHS-4": 10.7,
      "Male Literates": 589881,
      "Households with no lighting in percentage Houselisting and Housing Census Data Tables- District Level , Census of India__2": 0.387157066,
      "Primary Drop Out Rate in percentage DISE": 2,
      "Marginal Workers Household Industry - Males": 2381,
      "Female Illiterates": 260267,
      "Main Workers Other - Females": 36824,
      "Marginal Workers Cultivators - Persons": 32082,
      "Upper Primary Gross Enrolment Ratio in percentage DISE": 94.5,
      "Scheduled Caste Persons": 269935,
      "Marginal Workers Cultivators worked for 3 - 6 moths during last year - Persons": 24938,
      "Households with landline phone in percentage": 4.67,
      "Total Households in District  Houselisting and Housing Census Data Tables- District Level , Census of India": 269658,
      "Upper Primary Pupil-Teacher Ratio in percentage DISE": 17,
      "Primary Student-Classroom Ratio in percentage DISE": 22,
      "Primary Schools with boys toilet in percentage DISE": 95.8,
      "Mean number of children ever born to women aged 40-49years  DLHS-4": 2.9,
      "Households receiving untreated tap water within premises  Houselisting and Housing Census Data Tables- District Level , Census of India__5": 25541,
      "Marginal Workers Household Industry worked for 0 - 3 moths during last year - Persons": 1161,
      "Total Male Population": 781299,
      "Non Workers - Females": 536608,
      "Current use of family planning methods in percentage DLHS-4": 53.2,
      "Households with main source of drinking water within premises  Houselisting and Housing Census Data Tables- District Level , Census of India__3": 171176,
      "Main Workers Agricultural Labourers - Males": 41304,
      "Marginal Workers Other worked for 0 - 3 moths during last year - Persons": 7788,
      "Currently married women married below 18years of age in percentage DLHS-4": 3.4,
      "Person Illiterates": 451685,
      "Main Workers Household Industry - Females": 3084,
      "Female Literates": 408435,
      "Marginal Workers Cultivators worked for 0 - 3 moths during last year - Males": 2579,
      "Male": 87.18,
      "Households with improved source of drinking water in percentage DLHS-4": 97.8,
      "Upper Primary Schools with electricity in percentage DISE": 100,
      "Households with electricity in percentage DLHS-4": 98.1,
      "Villages with Primary Health Centre within 10km in percentage DLHS-4": 95.5,
      "Births to women aged 15-19years out of Total births in percentage DLHS-4": 1.5,
      "Prevalence of Anaemia in women aged 15-49years in percentage DLHS-4": 66.1,
      "Marginal Workers Agricultural Labourers worked for 3 - 6 moths during last year - Persons": 38759,
      "Main Workers Household Industry - Males": 9321,
      "Scheduled Tribe Females": 0,
      "Marginal Workers worked for 0 - 3 moths during last year - Males": 12451,
      "Marginal Workers Other worked for 3 - 6 moths during last year - Males": 21109,
      "Primary Net Enrolment Ratio in percentage DISE": 77.7,
      "Total": 79.12,
      "Mean age at marriage for boys DLHS-4": 24.2,
      "Number of District Hospitals  DLHS-4": 1,
      "0-6 Age Group Females": 83569,
      "Marginal Workers Agricultural Labourers worked for 0 - 3 moths during last year - Persons": 8934,
      "Marginal Workers Household Industry worked for 0 - 3 moths during last year - Males": 535,
      "Total Workers  Females": 132094,
      "Marginal Workers worked for 3 - 6 moths during last year - Females": 49285,
      "Institutional Deliveries in percentage DLHS-4": 75.6,
      "Marginal Workers Other - Males": 26121,
      "Total Workers  Males": 391085,
      "Main Workers - Females": 70233,
      "Primary Gross Enrolment Ratio in percentage DISE": 100.1,
      "Main Workers Cultivators - Persons": 110262,
      "Marginal Workers Household Industry worked for 0 - 3 moths during last year - Females": 626,
      "Upper Primary Net Enrolment Ratio in percentage DISE": 70.2,
      "Primary New Government Schools since 2003 in percentage DISE": 0.4,
      "Tier": "Total",
      "Marginal Workers Household Industry - Females": 3398,
      "Primary Schools with electricity in percentage DISE": 100,
      "Main Workers Other - Persons": 220056,
      "Marginal Workers Household Industry worked for 3 - 6 moths during last year - Females": 2772,
      "Main Workers Cultivators - Males": 92673,
      "Main Workers Household Industry - Persons": 12405,
      "Marginal Workers Cultivators worked for 0 - 3 moths during last year - Persons": 7144,
      "Scheduled Caste Males": 144516,
      "Marginal Workers - Persons": 126416,
      "Deliveries at home conducted by skilled health personnel in percentage DLHS-4": 14,
      "Villages with Sub-Health Centres within 3km in percentage DLHS-4": 75,
      "Upper Primary New Government Schools since 2003 in percentage DISE": 2.5,
      "0-6 Age Group Males": 104693,
      "Primary Schools with drinking water facility in percentage DISE": 100,
      "Non Workers - Persons": 926822,
      "Person Literates": 998316,
      "State": "HARAYANA",
      "Total Female Population": 668702,
      "Marginal Workers worked for 0 - 3 moths during last year - Persons": 25027,
      "Marginal Workers Cultivators - Females": 21644,
      "Marginal Workers Other - Persons": 40862,
      "Sex Ratio": 856,
      "Scheduled Tribe Persons": 0,
      "Marginal Workers Household Industry worked for 3 - 6 moths during last year - Males": 1846,
      "Marginal Workers Agricultural Labourers - Females": 22078,
      "Mean age at marriage for girls DLHS-4": 20.8,
      "Households with solar energy as main source of lighting  Houselisting and Housing Census Data Tables- District Level , Census of India__4": 213,
      "District": "SONIPAT",
      "Households receiving treated tap water within premises in percentage Houselisting and Housing Census Data Tables- District Level , Census of India__1": 32.88980857,
      "Total Workers  Persons": 523179,
      "Households receiving treated tap water within premises  Houselisting and Housing Census Data Tables- District Level , Census of India__4": 88690,
      "Primary Female Teachers in percentage DISE": 61.5,
      "Number of Households": 277726,
      "Main Workers Agricultural Labourers - Persons": 54040
    }
  ],
  "Rural": [
    {
      "Marginal Workers Agricultural Labourers - Persons": 44455,
      "Marginal Workers Other - Females": 9768,
      "Marginal Workers Other worked for 0 - 3 moths during last year - Females": 2093,
      "Upper Primary Schools with boys toilet in percentage DISE": "NA",
      "Total Population": 996637,
      "Households with electricity as main source of lighting in percentage Houselisting and Housing Census Data Tables- District Level , Census of India": 92.3044496,
      "Primary Girl's Enrolment in percentage DISE": "NA",
      "Marginal Workers worked for 3 - 6 moths during last year - Males": 40453,
      "Prevalence of Acute illness in percentage DLHS-4": 7.8,
      "Main Workers - Persons": 271676,
      "Main Workers Cultivators - Females": 17194,
      "Marginal Workers Agricultural Labourers worked for 3 - 6 moths during last year - Females": 16632,
      "Marginal Workers Other worked for 0 - 3 moths during last year - Males": 2843,
      "Upper Primary Schools with drinking water facility in percentage DISE": "NA",
      "Primary Schools with girls toilet in percentage DISE": "NA",
      "Marginal Workers worked for 3 - 6 moths during last year - Persons": 83632,
      "Upper Primary Drop Out Rate in percentage DISE": "NA",
      "Prevalence of Anaemia in pregnant women aged 15-49years in percentage DLHS-4": 78.1,
      "Current use of any modern method of family planning in percentage DLHS-4": 55.3,
      "Marginal Workers Agricultural Labourers - Males": 23472,
      "Upper Primary Female Teachers in percentage DISE": "NA",
      "Marginal Workers - Females": 54454,
      "Marginal Workers Other worked for 3 - 6 moths during last year - Persons": 19856,
      "Main Workers Agricultural Labourers - Females": 11922,
      "Marginal Workers Cultivators worked for 3 - 6 moths during last year - Females": 16680,
      "Households with no lighting  Houselisting and Housing Census Data Tables- District Level , Census of India__5": 744,
      "Prevalence of Severe Anaemia  in percentage DLHS-4": 14,
      "Total unmet need for family planning in percentage DLHS-4": 31.1,
      "Main Workers Other - Males": 91237,
      "Children who received full vaccination in percentage DLHS-4": 32.9,
      "Marginal Workers Household Industry - Persons": 4444,
      "Primary Pupil-Teacher Ratio in percentage DISE": "NA",
      "Marginal Workers Agricultural Labourers worked for 3 - 6 moths during last year - Males": 19532,
      "Scheduled Caste Females": 89238,
      "Marginal Workers Cultivators - Males": 9838,
      "Marginal Workers - Males": 50058,
      "Marginal Workers worked for 0 - 3 moths during last year - Females": 11275,
      "Households with main source of drinking water within premises in percentage Houselisting and Housing Census Data Tables- District Level , Census of India": 51.76497343,
      "Marginal Workers Household Industry worked for 3 - 6 moths during last year - Persons": 3515,
      "Upper Primary Girl's Enrolment in percentage DISE": "NA",
      "Prevalence of Severe Anaemia in women aged 15-49years in percentage DLHS-4": 10.1,
      "Marginal Workers Agricultural Labourers worked for 0 - 3 moths during last year - Males": 3940,
      "Households with electricity as main source of lighting  Houselisting and Housing Census Data Tables- District Level , Census of India__3": 166412,
      "Households with computer or laptop with internet connection in percentage": 1.25,
      "PHCs functioning on a 24x7hours basis in percentage DLHS-4": "Not applicable",
      "Non Workers - Males": 266717,
      "Total Households in District Houselisting and Housing Census Data Tables- District Level , Census of India": 180286,
      "Upper Primary Schools with girls toilet in percentage DISE": "NA",
      "Households with mobile phone in percentage": 65.61,
      "Households receiving untreated tap water within premises in percentage Houselisting and Housing Census Data Tables- District Level , Census of India__2": 11.47121795,
      "Marginal Workers Cultivators worked for 3 - 6 moths during last year - Males": 7417,
      "Prevalence of Anaemia  in percentage DLHS-4": 69,
      "Prevalence of Chronic illness in percentage DLHS-4": 8.9,
      "Households with solar energy as main source of lighting in percentage Houselisting and Housing Census Data Tables- District Level , Census of India__1": 0.076,
      "Marginal Workers Agricultural Labourers worked for 0 - 3 moths during last year - Females": 4351,
      "Main Workers - Males": 221975,
      "Female": "NA",
      "Sno": 583,
      "Marginal Workers Other worked for 3 - 6 moths during last year - Females": 7675,
      "Marginal Workers Cultivators worked for 0 - 3 moths during last year - Females": 4303,
      "Scheduled Tribe Males": 0,
      "Male Illiterates": 138638,
      "Prevalence of Severe Anaemia in pregnant women aged 15-49years in percentage DLHS-4": 10.5,
      "0-6 Age Group Persons": 132007,
      "Upper Primary Student-Classroom Ratio in percentage DISE": "NA",
      "Currently married men married below 21years of age in percentage DLHS-4": 13.9,
      "Male Literates": 400112,
      "Households with no lighting in percentage Houselisting and Housing Census Data Tables- District Level , Census of India__2": 0.412677634,
      "Primary Drop Out Rate in percentage DISE": "NA",
      "Marginal Workers Household Industry - Males": 1724,
      "Female Illiterates": 192858,
      "Main Workers Other - Females": 18245,
      "Marginal Workers Cultivators - Persons": 30821,
      "Upper Primary Gross Enrolment Ratio in percentage DISE": "NA",
      "Scheduled Caste Persons": 192682,
      "Marginal Workers Cultivators worked for 3 - 6 moths during last year - Persons": 24097,
      "Households with landline phone in percentage": 3.59,
      "Total Households in District  Houselisting and Housing Census Data Tables- District Level , Census of India": 180286,
      "Upper Primary Pupil-Teacher Ratio in percentage DISE": "NA",
      "Primary Student-Classroom Ratio in percentage DISE": "NA",
      "Primary Schools with boys toilet in percentage DISE": "NA",
      "Mean number of children ever born to women aged 40-49years  DLHS-4": 3,
      "Households receiving untreated tap water within premises  Houselisting and Housing Census Data Tables- District Level , Census of India__5": 20681,
      "Marginal Workers Household Industry worked for 0 - 3 moths during last year - Persons": 929,
      "Total Male Population": 538750,
      "Non Workers - Females": 353732,
      "Current use of family planning methods in percentage DLHS-4": 56.5,
      "Households with main source of drinking water within premises  Houselisting and Housing Census Data Tables- District Level , Census of India__3": 93325,
      "Main Workers Agricultural Labourers - Males": 36541,
      "Marginal Workers Other worked for 0 - 3 moths during last year - Persons": 4936,
      "Currently married women married below 18years of age in percentage DLHS-4": 5.1,
      "Person Illiterates": 331496,
      "Main Workers Household Industry - Females": 2340,
      "Female Literates": 265029,
      "Marginal Workers Cultivators worked for 0 - 3 moths during last year - Males": 2421,
      "Male": "NA",
      "Households with improved source of drinking water in percentage DLHS-4": 97.7,
      "Upper Primary Schools with electricity in percentage DISE": "NA",
      "Households with electricity in percentage DLHS-4": 97.6,
      "Villages with Primary Health Centre within 10km in percentage DLHS-4": "Not applicable",
      "Births to women aged 15-19years out of Total births in percentage DLHS-4": 2.3,
      "Prevalence of Anaemia in women aged 15-49years in percentage DLHS-4": 67.8,
      "Marginal Workers Agricultural Labourers worked for 3 - 6 moths during last year - Persons": 36164,
      "Main Workers Household Industry - Males": 4541,
      "Scheduled Tribe Females": 0,
      "Marginal Workers worked for 0 - 3 moths during last year - Males": 9605,
      "Marginal Workers Other worked for 3 - 6 moths during last year - Males": 12181,
      "Primary Net Enrolment Ratio in percentage DISE": "NA",
      "Total": "NA",
      "Mean age at marriage for boys DLHS-4": 23.9,
      "Number of District Hospitals  DLHS-4": "Not applicable",
      "0-6 Age Group Females": 58679,
      "Marginal Workers Agricultural Labourers worked for 0 - 3 moths during last year - Persons": 8291,
      "Marginal Workers Household Industry worked for 0 - 3 moths during last year - Males": 401,
      "Total Workers  Females": 104155,
      "Marginal Workers worked for 3 - 6 moths during last year - Females": 43179,
      "Institutional Deliveries in percentage DLHS-4": 70.3,
      "Marginal Workers Other - Males": 15024,
      "Total Workers  Males": 272033,
      "Main Workers - Females": 49701,
      "Primary Gross Enrolment Ratio in percentage DISE": "NA",
      "Main Workers Cultivators - Persons": 106850,
      "Marginal Workers Household Industry worked for 0 - 3 moths during last year - Females": 528,
      "Upper Primary Net Enrolment Ratio in percentage DISE": "NA",
      "Primary New Government Schools since 2003 in percentage DISE": "NA",
      "Tier": "Rural",
      "Marginal Workers Household Industry - Females": 2720,
      "Primary Schools with electricity in percentage DISE": "NA",
      "Main Workers Other - Persons": 109482,
      "Marginal Workers Household Industry worked for 3 - 6 moths during last year - Females": 2192,
      "Main Workers Cultivators - Males": 89656,
      "Main Workers Household Industry - Persons": 6881,
      "Marginal Workers Cultivators worked for 0 - 3 moths during last year - Persons": 6724,
      "Scheduled Caste Males": 103444,
      "Marginal Workers - Persons": 104512,
      "Deliveries at home conducted by skilled health personnel in percentage DLHS-4": 16.2,
      "Villages with Sub-Health Centres within 3km in percentage DLHS-4": "Not applicable",
      "Upper Primary New Government Schools since 2003 in percentage DISE": "NA",
      "0-6 Age Group Males": 73328,
      "Primary Schools with drinking water facility in percentage DISE": "NA",
      "Non Workers - Persons": 620449,
      "Person Literates": 665141,
      "State": "HARAYANA",
      "Total Female Population": 457887,
      "Marginal Workers worked for 0 - 3 moths during last year - Persons": 20880,
      "Marginal Workers Cultivators - Females": 20983,
      "Marginal Workers Other - Persons": 24792,
      "Sex Ratio": 850,
      "Scheduled Tribe Persons": 0,
      "Marginal Workers Household Industry worked for 3 - 6 moths during last year - Males": 1323,
      "Marginal Workers Agricultural Labourers - Females": 20983,
      "Mean age at marriage for girls DLHS-4": 20,
      "Households with solar energy as main source of lighting  Houselisting and Housing Census Data Tables- District Level , Census of India__4": 137,
      "District": "SONIPAT",
      "Households receiving treated tap water within premises in percentage Houselisting and Housing Census Data Tables- District Level , Census of India__1": 18.84672132,
      "Total Workers  Persons": 376188,
      "Households receiving treated tap water within premises  Houselisting and Housing Census Data Tables- District Level , Census of India__4": 33978,
      "Primary Female Teachers in percentage DISE": "NA",
      "Number of Households": 187552,
      "Main Workers Agricultural Labourers - Persons": 48463
    }
  ],
  "Urban": [
    {
      "Marginal Workers Agricultural Labourers - Persons": 3238,
      "Marginal Workers Other - Females": 4973,
      "Marginal Workers Other worked for 0 - 3 moths during last year - Females": 683,
      "Upper Primary Schools with boys toilet in percentage DISE": "NA",
      "Total Population": 453364,
      "Households with electricity as main source of lighting in percentage Houselisting and Housing Census Data Tables- District Level , Census of India": 96.94535201,
      "Primary Girl's Enrolment in percentage DISE": "NA",
      "Marginal Workers worked for 3 - 6 moths during last year - Males": 11651,
      "Prevalence of Acute illness in percentage DLHS-4": "Not available",
      "Main Workers - Persons": 125087,
      "Main Workers Cultivators - Females": 395,
      "Marginal Workers Agricultural Labourers worked for 3 - 6 moths during last year - Females": 837,
      "Marginal Workers Other worked for 0 - 3 moths during last year - Males": 2169,
      "Upper Primary Schools with drinking water facility in percentage DISE": "NA",
      "Primary Schools with girls toilet in percentage DISE": "NA",
      "Marginal Workers worked for 3 - 6 moths during last year - Persons": 17757,
      "Upper Primary Drop Out Rate in percentage DISE": "NA",
      "Prevalence of Anaemia in pregnant women aged 15-49years in percentage DLHS-4": "Not available",
      "Current use of any modern method of family planning in percentage DLHS-4": "Not available",
      "Marginal Workers Agricultural Labourers - Males": 2143,
      "Upper Primary Female Teachers in percentage DISE": "NA",
      "Marginal Workers - Females": 7407,
      "Marginal Workers Other worked for 3 - 6 moths during last year - Persons": 13218,
      "Main Workers Agricultural Labourers - Females": 814,
      "Marginal Workers Cultivators worked for 3 - 6 moths during last year - Females": 399,
      "Households with no lighting  Houselisting and Housing Census Data Tables- District Level , Census of India__5": 300,
      "Prevalence of Severe Anaemia  in percentage DLHS-4": "Not available",
      "Total unmet need for family planning in percentage DLHS-4": "Not available",
      "Main Workers Other - Males": 91995,
      "Children who received full vaccination in percentage DLHS-4": "Not available",
      "Marginal Workers Household Industry - Persons": 1335,
      "Primary Pupil-Teacher Ratio in percentage DISE": "NA",
      "Marginal Workers Agricultural Labourers worked for 3 - 6 moths during last year - Males": 1758,
      "Scheduled Caste Females": 36181,
      "Marginal Workers Cultivators - Males": 600,
      "Marginal Workers - Males": 14497,
      "Marginal Workers worked for 0 - 3 moths during last year - Females": 1301,
      "Households with main source of drinking water within premises in percentage Houselisting and Housing Census Data Tables- District Level , Census of India": 87.10893792,
      "Marginal Workers Household Industry worked for 3 - 6 moths during last year - Persons": 1103,
      "Upper Primary Girl's Enrolment in percentage DISE": "NA",
      "Prevalence of Severe Anaemia in women aged 15-49years in percentage DLHS-4": "Not available",
      "Marginal Workers Agricultural Labourers worked for 0 - 3 moths during last year - Males": 385,
      "Households with electricity as main source of lighting  Houselisting and Housing Census Data Tables- District Level , Census of India__3": 86642,
      "Households with computer or laptop with internet connection in percentage": 7.59,
      "PHCs functioning on a 24x7hours basis in percentage DLHS-4": 0,
      "Non Workers - Males": 123497,
      "Total Households in District Houselisting and Housing Census Data Tables- District Level , Census of India": 89372,
      "Upper Primary Schools with girls toilet in percentage DISE": "NA",
      "Households with mobile phone in percentage": 66.53,
      "Households receiving untreated tap water within premises in percentage Houselisting and Housing Census Data Tables- District Level , Census of India__2": 5.43794477,
      "Marginal Workers Cultivators worked for 3 - 6 moths during last year - Males": 442,
      "Prevalence of Anaemia  in percentage DLHS-4": "Not available",
      "Prevalence of Chronic illness in percentage DLHS-4": "Not available",
      "Households with solar energy as main source of lighting in percentage Houselisting and Housing Census Data Tables- District Level , Census of India__1": 0.085,
      "Marginal Workers Agricultural Labourers worked for 0 - 3 moths during last year - Females": 258,
      "Main Workers - Males": 104555,
      "Female": "NA",
      "Sno": 585,
      "Marginal Workers Other worked for 3 - 6 moths during last year - Females": 4290,
      "Marginal Workers Cultivators worked for 0 - 3 moths during last year - Females": 262,
      "Scheduled Tribe Males": 0,
      "Male Illiterates": 52780,
      "Prevalence of Severe Anaemia in pregnant women aged 15-49years in percentage DLHS-4": "Not available",
      "0-6 Age Group Persons": 56255,
      "Upper Primary Student-Classroom Ratio in percentage DISE": "NA",
      "Currently married men married below 21years of age in percentage DLHS-4": "Not available",
      "Male Literates": 189769,
      "Households with no lighting in percentage Houselisting and Housing Census Data Tables- District Level , Census of India__2": 0.335675603,
      "Primary Drop Out Rate in percentage DISE": "NA",
      "Marginal Workers Household Industry - Males": 657,
      "Female Illiterates": 67409,
      "Main Workers Other - Females": 18579,
      "Marginal Workers Cultivators - Persons": 1261,
      "Upper Primary Gross Enrolment Ratio in percentage DISE": "NA",
      "Scheduled Caste Persons": 77253,
      "Marginal Workers Cultivators worked for 3 - 6 moths during last year - Persons": 841,
      "Households with landline phone in percentage": 6.86,
      "Total Households in District  Houselisting and Housing Census Data Tables- District Level , Census of India": 89372,
      "Upper Primary Pupil-Teacher Ratio in percentage DISE": "NA",
      "Primary Student-Classroom Ratio in percentage DISE": "NA",
      "Primary Schools with boys toilet in percentage DISE": "NA",
      "Mean number of children ever born to women aged 40-49years  DLHS-4": "Not available",
      "Households receiving untreated tap water within premises  Houselisting and Housing Census Data Tables- District Level , Census of India__5": 4860,
      "Marginal Workers Household Industry worked for 0 - 3 moths during last year - Persons": 232,
      "Total Male Population": 242549,
      "Non Workers - Females": 182876,
      "Current use of family planning methods in percentage DLHS-4": "Not available",
      "Households with main source of drinking water within premises  Houselisting and Housing Census Data Tables- District Level , Census of India__3": 77851,
      "Main Workers Agricultural Labourers - Males": 4763,
      "Marginal Workers Other worked for 0 - 3 moths during last year - Persons": 2852,
      "Currently married women married below 18years of age in percentage DLHS-4": "Not available",
      "Person Illiterates": 120189,
      "Main Workers Household Industry - Females": 744,
      "Female Literates": 143406,
      "Marginal Workers Cultivators worked for 0 - 3 moths during last year - Males": 158,
      "Male": "NA",
      "Households with improved source of drinking water in percentage DLHS-4": "Not available",
      "Upper Primary Schools with electricity in percentage DISE": "NA",
      "Households with electricity in percentage DLHS-4": "Not available",
      "Villages with Primary Health Centre within 10km in percentage DLHS-4": 0,
      "Births to women aged 15-19years out of Total births in percentage DLHS-4": "Not available",
      "Prevalence of Anaemia in women aged 15-49years in percentage DLHS-4": "Not available",
      "Marginal Workers Agricultural Labourers worked for 3 - 6 moths during last year - Persons": 2595,
      "Main Workers Household Industry - Males": 4780,
      "Scheduled Tribe Females": 0,
      "Marginal Workers worked for 0 - 3 moths during last year - Males": 2846,
      "Marginal Workers Other worked for 3 - 6 moths during last year - Males": 8928,
      "Primary Net Enrolment Ratio in percentage DISE": "NA",
      "Total": "NA",
      "Mean age at marriage for boys DLHS-4": "Not available",
      "Number of District Hospitals  DLHS-4": 0,
      "0-6 Age Group Females": 24890,
      "Marginal Workers Agricultural Labourers worked for 0 - 3 moths during last year - Persons": 643,
      "Marginal Workers Household Industry worked for 0 - 3 moths during last year - Males": 134,
      "Total Workers  Females": 27939,
      "Marginal Workers worked for 3 - 6 moths during last year - Females": 6106,
      "Institutional Deliveries in percentage DLHS-4": "Not available",
      "Marginal Workers Other - Males": 11097,
      "Total Workers  Males": 119052,
      "Main Workers - Females": 20532,
      "Primary Gross Enrolment Ratio in percentage DISE": "NA",
      "Main Workers Cultivators - Persons": 3412,
      "Marginal Workers Household Industry worked for 0 - 3 moths during last year - Females": 98,
      "Upper Primary Net Enrolment Ratio in percentage DISE": "NA",
      "Primary New Government Schools since 2003 in percentage DISE": "NA",
      "Tier": "Urban",
      "Marginal Workers Household Industry - Females": 678,
      "Primary Schools with electricity in percentage DISE": "NA",
      "Main Workers Other - Persons": 110574,
      "Marginal Workers Household Industry worked for 3 - 6 moths during last year - Females": 580,
      "Main Workers Cultivators - Males": 3017,
      "Main Workers Household Industry - Persons": 5524,
      "Marginal Workers Cultivators worked for 0 - 3 moths during last year - Persons": 420,
      "Scheduled Caste Males": 41072,
      "Marginal Workers - Persons": 21904,
      "Deliveries at home conducted by skilled health personnel in percentage DLHS-4": "Not available",
      "Villages with Sub-Health Centres within 3km in percentage DLHS-4": 0,
      "Upper Primary New Government Schools since 2003 in percentage DISE": "NA",
      "0-6 Age Group Males": 31365,
      "Primary Schools with drinking water facility in percentage DISE": "NA",
      "Non Workers - Persons": 306373,
      "Person Literates": 333175,
      "State": "HARAYANA",
      "Total Female Population": 210815,
      "Marginal Workers worked for 0 - 3 moths during last year - Persons": 4147,
      "Marginal Workers Cultivators - Females": 661,
      "Marginal Workers Other - Persons": 16070,
      "Sex Ratio": 869,
      "Scheduled Tribe Persons": 0,
      "Marginal Workers Household Industry worked for 3 - 6 moths during last year - Males": 523,
      "Marginal Workers Agricultural Labourers - Females": 1095,
      "Mean age at marriage for girls DLHS-4": "Not available",
      "Households with solar energy as main source of lighting  Houselisting and Housing Census Data Tables- District Level , Census of India__4": 76,
      "District": "SONIPAT",
      "Households receiving treated tap water within premises in percentage Houselisting and Housing Census Data Tables- District Level , Census of India__1": 61.21827866,
      "Total Workers  Persons": 146991,
      "Households receiving treated tap water within premises  Houselisting and Housing Census Data Tables- District Level , Census of India__4": 54712,
      "Primary Female Teachers in percentage DISE": "NA",
      "Number of Households": 90174,
      "Main Workers Agricultural Labourers - Persons": 5577
    }
  ]
}