{
  "Total": [
    {
      "Marginal Workers Agricultural Labourers - Persons": 90,
      "Marginal Workers Other - Females": 3395,
      "Marginal Workers Other worked for 0 - 3 moths during last year - Females": 366,
      "Upper Primary Schools with boys toilet in percentage DISE": "NA",
      "Total Population": 582320,
      "Households with electricity as main source of lighting in percentage Houselisting and Housing Census Data Tables- District Level , Census of India": "NA",
      "Primary Girl's Enrolment in percentage DISE": "NA",
      "Marginal Workers worked for 3 - 6 moths during last year - Males": 6636,
      "Prevalence of Acute illness in percentage DLHS-4": "NA",
      "Main Workers - Persons": 195978,
      "Main Workers Cultivators - Females": 148,
      "Marginal Workers Agricultural Labourers worked for 3 - 6 moths during last year - Females": 23,
      "Marginal Workers Other worked for 0 - 3 moths during last year - Males": 979,
      "Upper Primary Schools with drinking water facility in percentage DISE": "NA",
      "Primary Schools with girls toilet in percentage DISE": "NA",
      "Marginal Workers worked for 3 - 6 moths during last year - Persons": 9938,
      "Upper Primary Drop Out Rate in percentage DISE": "NA",
      "Prevalence of Anaemia in pregnant women aged 15-49years in percentage DLHS-4": "NA",
      "Current use of any modern method of family planning in percentage DLHS-4": "NA",
      "Marginal Workers Agricultural Labourers - Males": 59,
      "Upper Primary Female Teachers in percentage DISE": "NA",
      "Marginal Workers - Females": 3738,
      "Marginal Workers Other worked for 3 - 6 moths during last year - Persons": 9267,
      "Main Workers Agricultural Labourers - Females": 105,
      "Marginal Workers Cultivators worked for 3 - 6 moths during last year - Females": 69,
      "Households with no lighting  Houselisting and Housing Census Data Tables- District Level , Census of India__5": "NA",
      "Prevalence of Severe Anaemia  in percentage DLHS-4": "NA",
      "Total unmet need for family planning in percentage DLHS-4": "NA",
      "Main Workers Other - Males": 160242,
      "Children who received full vaccination in percentage DLHS-4": "NA",
      "Marginal Workers Household Industry - Persons": 560,
      "Primary Pupil-Teacher Ratio in percentage DISE": "NA",
      "Marginal Workers Agricultural Labourers worked for 3 - 6 moths during last year - Males": 55,
      "Scheduled Caste Females": 69396,
      "Marginal Workers Cultivators - Males": 65,
      "Marginal Workers - Males": 7658,
      "Marginal Workers worked for 0 - 3 moths during last year - Females": 436,
      "Households with main source of drinking water within premises in percentage Houselisting and Housing Census Data Tables- District Level , Census of India": "NA",
      "Marginal Workers Household Industry worked for 3 - 6 moths during last year - Persons": 459,
      "Upper Primary Girl's Enrolment in percentage DISE": "NA",
      "Prevalence of Severe Anaemia in women aged 15-49years in percentage DLHS-4": "NA",
      "Marginal Workers Agricultural Labourers worked for 0 - 3 moths during last year - Males": 4,
      "Households with electricity as main source of lighting  Houselisting and Housing Census Data Tables- District Level , Census of India__3": "NA",
      "Households with computer or laptop with internet connection in percentage": "NA",
      "PHCs functioning on a 24x7hours basis in percentage DLHS-4": "NA",
      "Non Workers - Males": 130200,
      "Total Households in District Houselisting and Housing Census Data Tables- District Level , Census of India": "NA",
      "Upper Primary Schools with girls toilet in percentage DISE": "NA",
      "Households with mobile phone in percentage": "NA",
      "Households receiving untreated tap water within premises in percentage Houselisting and Housing Census Data Tables- District Level , Census of India__2": "NA",
      "Marginal Workers Cultivators worked for 3 - 6 moths during last year - Males": 65,
      "Prevalence of Anaemia  in percentage DLHS-4": "NA",
      "Prevalence of Chronic illness in percentage DLHS-4": "NA",
      "Households with solar energy as main source of lighting in percentage Houselisting and Housing Census Data Tables- District Level , Census of India__1": "NA",
      "Marginal Workers Agricultural Labourers worked for 0 - 3 moths during last year - Females": 8,
      "Main Workers - Males": 169963,
      "Female": "NA",
      "Sno": 389,
      "Marginal Workers Other worked for 3 - 6 moths during last year - Females": 3029,
      "Marginal Workers Cultivators worked for 0 - 3 moths during last year - Females": 0,
      "Scheduled Tribe Males": 0,
      "Male Illiterates": 67303,
      "Prevalence of Severe Anaemia in pregnant women aged 15-49years in percentage DLHS-4": "NA",
      "0-6 Age Group Persons": 62739,
      "Upper Primary Student-Classroom Ratio in percentage DISE": "NA",
      "Currently married men married below 21years of age in percentage DLHS-4": "NA",
      "Male Literates": 240518,
      "Households with no lighting in percentage Houselisting and Housing Census Data Tables- District Level , Census of India__2": "NA",
      "Primary Drop Out Rate in percentage DISE": "NA",
      "Marginal Workers Household Industry - Males": 317,
      "Female Illiterates": 72657,
      "Main Workers Other - Females": 24420,
      "Marginal Workers Cultivators - Persons": 134,
      "Upper Primary Gross Enrolment Ratio in percentage DISE": "NA",
      "Scheduled Caste Persons": 143178,
      "Marginal Workers Cultivators worked for 3 - 6 moths during last year - Persons": 134,
      "Households with landline phone in percentage": "NA",
      "Total Households in District  Houselisting and Housing Census Data Tables- District Level , Census of India": "NA",
      "Upper Primary Pupil-Teacher Ratio in percentage DISE": "NA",
      "Primary Student-Classroom Ratio in percentage DISE": "NA",
      "Primary Schools with boys toilet in percentage DISE": "NA",
      "Mean number of children ever born to women aged 40-49years  DLHS-4": "NA",
      "Households receiving untreated tap water within premises  Houselisting and Housing Census Data Tables- District Level , Census of India__5": "NA",
      "Marginal Workers Household Industry worked for 0 - 3 moths during last year - Persons": 101,
      "Total Male Population": 307821,
      "Non Workers - Females": 244746,
      "Current use of family planning methods in percentage DLHS-4": "NA",
      "Households with main source of drinking water within premises  Houselisting and Housing Census Data Tables- District Level , Census of India__3": "NA",
      "Main Workers Agricultural Labourers - Males": 406,
      "Marginal Workers Other worked for 0 - 3 moths during last year - Persons": 1345,
      "Currently married women married below 18years of age in percentage DLHS-4": "NA",
      "Person Illiterates": 139960,
      "Main Workers Household Industry - Females": 1342,
      "Female Literates": 201842,
      "Marginal Workers Cultivators worked for 0 - 3 moths during last year - Males": 0,
      "Male": "NA",
      "Households with improved source of drinking water in percentage DLHS-4": "NA",
      "Upper Primary Schools with electricity in percentage DISE": "NA",
      "Households with electricity in percentage DLHS-4": "NA",
      "Villages with Primary Health Centre within 10km in percentage DLHS-4": "NA",
      "Births to women aged 15-19years out of Total births in percentage DLHS-4": "NA",
      "Prevalence of Anaemia in women aged 15-49years in percentage DLHS-4": "NA",
      "Marginal Workers Agricultural Labourers worked for 3 - 6 moths during last year - Persons": 78,
      "Main Workers Household Industry - Males": 9000,
      "Scheduled Tribe Females": 0,
      "Marginal Workers worked for 0 - 3 moths during last year - Males": 1022,
      "Marginal Workers Other worked for 3 - 6 moths during last year - Males": 6238,
      "Primary Net Enrolment Ratio in percentage DISE": "NA",
      "Total": "NA",
      "Mean age at marriage for boys DLHS-4": "NA",
      "Number of District Hospitals  DLHS-4": "NA",
      "0-6 Age Group Females": 29811,
      "Marginal Workers Agricultural Labourers worked for 0 - 3 moths during last year - Persons": 12,
      "Marginal Workers Household Industry worked for 0 - 3 moths during last year - Males": 39,
      "Total Workers  Females": 29753,
      "Marginal Workers worked for 3 - 6 moths during last year - Females": 3302,
      "Institutional Deliveries in percentage DLHS-4": "NA",
      "Marginal Workers Other - Males": 7217,
      "Total Workers  Males": 177621,
      "Main Workers - Females": 26015,
      "Primary Gross Enrolment Ratio in percentage DISE": "NA",
      "Main Workers Cultivators - Persons": 463,
      "Marginal Workers Household Industry worked for 0 - 3 moths during last year - Females": 62,
      "Upper Primary Net Enrolment Ratio in percentage DISE": "NA",
      "Primary New Government Schools since 2003 in percentage DISE": "NA",
      "Tier": "Total",
      "Marginal Workers Household Industry - Females": 243,
      "Primary Schools with electricity in percentage DISE": "NA",
      "Main Workers Other - Persons": 184662,
      "Marginal Workers Household Industry worked for 3 - 6 moths during last year - Females": 181,
      "Main Workers Cultivators - Males": 315,
      "Main Workers Household Industry - Persons": 10342,
      "Marginal Workers Cultivators worked for 0 - 3 moths during last year - Persons": 0,
      "Scheduled Caste Males": 73782,
      "Marginal Workers - Persons": 11396,
      "Deliveries at home conducted by skilled health personnel in percentage DLHS-4": "NA",
      "Villages with Sub-Health Centres within 3km in percentage DLHS-4": "NA",
      "Upper Primary New Government Schools since 2003 in percentage DISE": "NA",
      "0-6 Age Group Males": 32928,
      "Primary Schools with drinking water facility in percentage DISE": "NA",
      "Non Workers - Persons": 374946,
      "Person Literates": 442360,
      "State": "DELHI (NCT)",
      "Total Female Population": 274499,
      "Marginal Workers worked for 0 - 3 moths during last year - Persons": 1458,
      "Marginal Workers Cultivators - Females": 69,
      "Marginal Workers Other - Persons": 10612,
      "Sex Ratio": "NA",
      "Scheduled Tribe Persons": 0,
      "Marginal Workers Household Industry worked for 3 - 6 moths during last year - Males": 278,
      "Marginal Workers Agricultural Labourers - Females": 31,
      "Mean age at marriage for girls DLHS-4": "NA",
      "Households with solar energy as main source of lighting  Houselisting and Housing Census Data Tables- District Level , Census of India__4": "NA",
      "District": "CENTRAL",
      "Households receiving treated tap water within premises in percentage Houselisting and Housing Census Data Tables- District Level , Census of India__1": "NA",
      "Total Workers  Persons": 207374,
      "Households receiving treated tap water within premises  Houselisting and Housing Census Data Tables- District Level , Census of India__4": "NA",
      "Primary Female Teachers in percentage DISE": "NA",
      "Number of Households": 119639,
      "Main Workers Agricultural Labourers - Persons": 511
    }
  ],
  "Rural": [
    {
      "Marginal Workers Agricultural Labourers - Persons": 0,
      "Marginal Workers Other - Females": 0,
      "Marginal Workers Other worked for 0 - 3 moths during last year - Females": 0,
      "Upper Primary Schools with boys toilet in percentage DISE": "NA",
      "Total Population": 0,
      "Households with electricity as main source of lighting in percentage Houselisting and Housing Census Data Tables- District Level , Census of India": "NA",
      "Primary Girl's Enrolment in percentage DISE": "NA",
      "Marginal Workers worked for 3 - 6 moths during last year - Males": 0,
      "Prevalence of Acute illness in percentage DLHS-4": "NA",
      "Main Workers - Persons": 0,
      "Main Workers Cultivators - Females": 0,
      "Marginal Workers Agricultural Labourers worked for 3 - 6 moths during last year - Females": 0,
      "Marginal Workers Other worked for 0 - 3 moths during last year - Males": 0,
      "Upper Primary Schools with drinking water facility in percentage DISE": "NA",
      "Primary Schools with girls toilet in percentage DISE": "NA",
      "Marginal Workers worked for 3 - 6 moths during last year - Persons": 0,
      "Upper Primary Drop Out Rate in percentage DISE": "NA",
      "Prevalence of Anaemia in pregnant women aged 15-49years in percentage DLHS-4": "NA",
      "Current use of any modern method of family planning in percentage DLHS-4": "NA",
      "Marginal Workers Agricultural Labourers - Males": 0,
      "Upper Primary Female Teachers in percentage DISE": "NA",
      "Marginal Workers - Females": 0,
      "Marginal Workers Other worked for 3 - 6 moths during last year - Persons": 0,
      "Main Workers Agricultural Labourers - Females": 0,
      "Marginal Workers Cultivators worked for 3 - 6 moths during last year - Females": 0,
      "Households with no lighting  Houselisting and Housing Census Data Tables- District Level , Census of India__5": "NA",
      "Prevalence of Severe Anaemia  in percentage DLHS-4": "NA",
      "Total unmet need for family planning in percentage DLHS-4": "NA",
      "Main Workers Other - Males": 0,
      "Children who received full vaccination in percentage DLHS-4": "NA",
      "Marginal Workers Household Industry - Persons": 0,
      "Primary Pupil-Teacher Ratio in percentage DISE": "NA",
      "Marginal Workers Agricultural Labourers worked for 3 - 6 moths during last year - Males": 0,
      "Scheduled Caste Females": 0,
      "Marginal Workers Cultivators - Males": 0,
      "Marginal Workers - Males": 0,
      "Marginal Workers worked for 0 - 3 moths during last year - Females": 0,
      "Households with main source of drinking water within premises in percentage Houselisting and Housing Census Data Tables- District Level , Census of India": "NA",
      "Marginal Workers Household Industry worked for 3 - 6 moths during last year - Persons": 0,
      "Upper Primary Girl's Enrolment in percentage DISE": "NA",
      "Prevalence of Severe Anaemia in women aged 15-49years in percentage DLHS-4": "NA",
      "Marginal Workers Agricultural Labourers worked for 0 - 3 moths during last year - Males": 0,
      "Households with electricity as main source of lighting  Houselisting and Housing Census Data Tables- District Level , Census of India__3": "NA",
      "Households with computer or laptop with internet connection in percentage": "NA",
      "PHCs functioning on a 24x7hours basis in percentage DLHS-4": "NA",
      "Non Workers - Males": 0,
      "Total Households in District Houselisting and Housing Census Data Tables- District Level , Census of India": "NA",
      "Upper Primary Schools with girls toilet in percentage DISE": "NA",
      "Households with mobile phone in percentage": "NA",
      "Households receiving untreated tap water within premises in percentage Houselisting and Housing Census Data Tables- District Level , Census of India__2": "NA",
      "Marginal Workers Cultivators worked for 3 - 6 moths during last year - Males": 0,
      "Prevalence of Anaemia  in percentage DLHS-4": "NA",
      "Prevalence of Chronic illness in percentage DLHS-4": "NA",
      "Households with solar energy as main source of lighting in percentage Houselisting and Housing Census Data Tables- District Level , Census of India__1": "NA",
      "Marginal Workers Agricultural Labourers worked for 0 - 3 moths during last year - Females": 0,
      "Main Workers - Males": 0,
      "Female": "NA",
      "Sno": 388,
      "Marginal Workers Other worked for 3 - 6 moths during last year - Females": 0,
      "Marginal Workers Cultivators worked for 0 - 3 moths during last year - Females": 0,
      "Scheduled Tribe Males": 0,
      "Male Illiterates": 0,
      "Prevalence of Severe Anaemia in pregnant women aged 15-49years in percentage DLHS-4": "NA",
      "0-6 Age Group Persons": 0,
      "Upper Primary Student-Classroom Ratio in percentage DISE": "NA",
      "Currently married men married below 21years of age in percentage DLHS-4": "NA",
      "Male Literates": 0,
      "Households with no lighting in percentage Houselisting and Housing Census Data Tables- District Level , Census of India__2": "NA",
      "Primary Drop Out Rate in percentage DISE": "NA",
      "Marginal Workers Household Industry - Males": 0,
      "Female Illiterates": 0,
      "Main Workers Other - Females": 0,
      "Marginal Workers Cultivators - Persons": 0,
      "Upper Primary Gross Enrolment Ratio in percentage DISE": "NA",
      "Scheduled Caste Persons": 0,
      "Marginal Workers Cultivators worked for 3 - 6 moths during last year - Persons": 0,
      "Households with landline phone in percentage": "NA",
      "Total Households in District  Houselisting and Housing Census Data Tables- District Level , Census of India": "NA",
      "Upper Primary Pupil-Teacher Ratio in percentage DISE": "NA",
      "Primary Student-Classroom Ratio in percentage DISE": "NA",
      "Primary Schools with boys toilet in percentage DISE": "NA",
      "Mean number of children ever born to women aged 40-49years  DLHS-4": "NA",
      "Households receiving untreated tap water within premises  Houselisting and Housing Census Data Tables- District Level , Census of India__5": "NA",
      "Marginal Workers Household Industry worked for 0 - 3 moths during last year - Persons": 0,
      "Total Male Population": 0,
      "Non Workers - Females": 0,
      "Current use of family planning methods in percentage DLHS-4": "NA",
      "Households with main source of drinking water within premises  Houselisting and Housing Census Data Tables- District Level , Census of India__3": "NA",
      "Main Workers Agricultural Labourers - Males": 0,
      "Marginal Workers Other worked for 0 - 3 moths during last year - Persons": 0,
      "Currently married women married below 18years of age in percentage DLHS-4": "NA",
      "Person Illiterates": 0,
      "Main Workers Household Industry - Females": 0,
      "Female Literates": 0,
      "Marginal Workers Cultivators worked for 0 - 3 moths during last year - Males": 0,
      "Male": "NA",
      "Households with improved source of drinking water in percentage DLHS-4": "NA",
      "Upper Primary Schools with electricity in percentage DISE": "NA",
      "Households with electricity in percentage DLHS-4": "NA",
      "Villages with Primary Health Centre within 10km in percentage DLHS-4": "NA",
      "Births to women aged 15-19years out of Total births in percentage DLHS-4": "NA",
      "Prevalence of Anaemia in women aged 15-49years in percentage DLHS-4": "NA",
      "Marginal Workers Agricultural Labourers worked for 3 - 6 moths during last year - Persons": 0,
      "Main Workers Household Industry - Males": 0,
      "Scheduled Tribe Females": 0,
      "Marginal Workers worked for 0 - 3 moths during last year - Males": 0,
      "Marginal Workers Other worked for 3 - 6 moths during last year - Males": 0,
      "Primary Net Enrolment Ratio in percentage DISE": "NA",
      "Total": "NA",
      "Mean age at marriage for boys DLHS-4": "NA",
      "Number of District Hospitals  DLHS-4": "NA",
      "0-6 Age Group Females": 0,
      "Marginal Workers Agricultural Labourers worked for 0 - 3 moths during last year - Persons": 0,
      "Marginal Workers Household Industry worked for 0 - 3 moths during last year - Males": 0,
      "Total Workers  Females": 0,
      "Marginal Workers worked for 3 - 6 moths during last year - Females": 0,
      "Institutional Deliveries in percentage DLHS-4": "NA",
      "Marginal Workers Other - Males": 0,
      "Total Workers  Males": 0,
      "Main Workers - Females": 0,
      "Primary Gross Enrolment Ratio in percentage DISE": "NA",
      "Main Workers Cultivators - Persons": 0,
      "Marginal Workers Household Industry worked for 0 - 3 moths during last year - Females": 0,
      "Upper Primary Net Enrolment Ratio in percentage DISE": "NA",
      "Primary New Government Schools since 2003 in percentage DISE": "NA",
      "Tier": "Rural",
      "Marginal Workers Household Industry - Females": 0,
      "Primary Schools with electricity in percentage DISE": "NA",
      "Main Workers Other - Persons": 0,
      "Marginal Workers Household Industry worked for 3 - 6 moths during last year - Females": 0,
      "Main Workers Cultivators - Males": 0,
      "Main Workers Household Industry - Persons": 0,
      "Marginal Workers Cultivators worked for 0 - 3 moths during last year - Persons": 0,
      "Scheduled Caste Males": 0,
      "Marginal Workers - Persons": 0,
      "Deliveries at home conducted by skilled health personnel in percentage DLHS-4": "NA",
      "Villages with Sub-Health Centres within 3km in percentage DLHS-4": "NA",
      "Upper Primary New Government Schools since 2003 in percentage DISE": "NA",
      "0-6 Age Group Males": 0,
      "Primary Schools with drinking water facility in percentage DISE": "NA",
      "Non Workers - Persons": 0,
      "Person Literates": 0,
      "State": "DELHI (NCT)",
      "Total Female Population": 0,
      "Marginal Workers worked for 0 - 3 moths during last year - Persons": 0,
      "Marginal Workers Cultivators - Females": 0,
      "Marginal Workers Other - Persons": 0,
      "Sex Ratio": "NA",
      "Scheduled Tribe Persons": 0,
      "Marginal Workers Household Industry worked for 3 - 6 moths during last year - Males": 0,
      "Marginal Workers Agricultural Labourers - Females": 0,
      "Mean age at marriage for girls DLHS-4": "NA",
      "Households with solar energy as main source of lighting  Houselisting and Housing Census Data Tables- District Level , Census of India__4": "NA",
      "District": "CENTRAL",
      "Households receiving treated tap water within premises in percentage Houselisting and Housing Census Data Tables- District Level , Census of India__1": "NA",
      "Total Workers  Persons": 0,
      "Households receiving treated tap water within premises  Houselisting and Housing Census Data Tables- District Level , Census of India__4": "NA",
      "Primary Female Teachers in percentage DISE": "NA",
      "Number of Households": 0,
      "Main Workers Agricultural Labourers - Persons": 0
    }
  ],
  "Urban": [
    {
      "Marginal Workers Agricultural Labourers - Persons": 90,
      "Marginal Workers Other - Females": 3395,
      "Marginal Workers Other worked for 0 - 3 moths during last year - Females": 366,
      "Upper Primary Schools with boys toilet in percentage DISE": "NA",
      "Total Population": 582320,
      "Households with electricity as main source of lighting in percentage Houselisting and Housing Census Data Tables- District Level , Census of India": "NA",
      "Primary Girl's Enrolment in percentage DISE": "NA",
      "Marginal Workers worked for 3 - 6 moths during last year - Males": 6636,
      "Prevalence of Acute illness in percentage DLHS-4": "NA",
      "Main Workers - Persons": 195978,
      "Main Workers Cultivators - Females": 148,
      "Marginal Workers Agricultural Labourers worked for 3 - 6 moths during last year - Females": 23,
      "Marginal Workers Other worked for 0 - 3 moths during last year - Males": 979,
      "Upper Primary Schools with drinking water facility in percentage DISE": "NA",
      "Primary Schools with girls toilet in percentage DISE": "NA",
      "Marginal Workers worked for 3 - 6 moths during last year - Persons": 9938,
      "Upper Primary Drop Out Rate in percentage DISE": "NA",
      "Prevalence of Anaemia in pregnant women aged 15-49years in percentage DLHS-4": "NA",
      "Current use of any modern method of family planning in percentage DLHS-4": "NA",
      "Marginal Workers Agricultural Labourers - Males": 59,
      "Upper Primary Female Teachers in percentage DISE": "NA",
      "Marginal Workers - Females": 3738,
      "Marginal Workers Other worked for 3 - 6 moths during last year - Persons": 9267,
      "Main Workers Agricultural Labourers - Females": 105,
      "Marginal Workers Cultivators worked for 3 - 6 moths during last year - Females": 69,
      "Households with no lighting  Houselisting and Housing Census Data Tables- District Level , Census of India__5": "NA",
      "Prevalence of Severe Anaemia  in percentage DLHS-4": "NA",
      "Total unmet need for family planning in percentage DLHS-4": "NA",
      "Main Workers Other - Males": 160242,
      "Children who received full vaccination in percentage DLHS-4": "NA",
      "Marginal Workers Household Industry - Persons": 560,
      "Primary Pupil-Teacher Ratio in percentage DISE": "NA",
      "Marginal Workers Agricultural Labourers worked for 3 - 6 moths during last year - Males": 55,
      "Scheduled Caste Females": 69396,
      "Marginal Workers Cultivators - Males": 65,
      "Marginal Workers - Males": 7658,
      "Marginal Workers worked for 0 - 3 moths during last year - Females": 436,
      "Households with main source of drinking water within premises in percentage Houselisting and Housing Census Data Tables- District Level , Census of India": "NA",
      "Marginal Workers Household Industry worked for 3 - 6 moths during last year - Persons": 459,
      "Upper Primary Girl's Enrolment in percentage DISE": "NA",
      "Prevalence of Severe Anaemia in women aged 15-49years in percentage DLHS-4": "NA",
      "Marginal Workers Agricultural Labourers worked for 0 - 3 moths during last year - Males": 4,
      "Households with electricity as main source of lighting  Houselisting and Housing Census Data Tables- District Level , Census of India__3": "NA",
      "Households with computer or laptop with internet connection in percentage": "NA",
      "PHCs functioning on a 24x7hours basis in percentage DLHS-4": "NA",
      "Non Workers - Males": 130200,
      "Total Households in District Houselisting and Housing Census Data Tables- District Level , Census of India": "NA",
      "Upper Primary Schools with girls toilet in percentage DISE": "NA",
      "Households with mobile phone in percentage": "NA",
      "Households receiving untreated tap water within premises in percentage Houselisting and Housing Census Data Tables- District Level , Census of India__2": "NA",
      "Marginal Workers Cultivators worked for 3 - 6 moths during last year - Males": 65,
      "Prevalence of Anaemia  in percentage DLHS-4": "NA",
      "Prevalence of Chronic illness in percentage DLHS-4": "NA",
      "Households with solar energy as main source of lighting in percentage Houselisting and Housing Census Data Tables- District Level , Census of India__1": "NA",
      "Marginal Workers Agricultural Labourers worked for 0 - 3 moths during last year - Females": 8,
      "Main Workers - Males": 169963,
      "Female": "NA",
      "Sno": 390,
      "Marginal Workers Other worked for 3 - 6 moths during last year - Females": 3029,
      "Marginal Workers Cultivators worked for 0 - 3 moths during last year - Females": 0,
      "Scheduled Tribe Males": 0,
      "Male Illiterates": 67303,
      "Prevalence of Severe Anaemia in pregnant women aged 15-49years in percentage DLHS-4": "NA",
      "0-6 Age Group Persons": 62739,
      "Upper Primary Student-Classroom Ratio in percentage DISE": "NA",
      "Currently married men married below 21years of age in percentage DLHS-4": "NA",
      "Male Literates": 240518,
      "Households with no lighting in percentage Houselisting and Housing Census Data Tables- District Level , Census of India__2": "NA",
      "Primary Drop Out Rate in percentage DISE": "NA",
      "Marginal Workers Household Industry - Males": 317,
      "Female Illiterates": 72657,
      "Main Workers Other - Females": 24420,
      "Marginal Workers Cultivators - Persons": 134,
      "Upper Primary Gross Enrolment Ratio in percentage DISE": "NA",
      "Scheduled Caste Persons": 143178,
      "Marginal Workers Cultivators worked for 3 - 6 moths during last year - Persons": 134,
      "Households with landline phone in percentage": "NA",
      "Total Households in District  Houselisting and Housing Census Data Tables- District Level , Census of India": "NA",
      "Upper Primary Pupil-Teacher Ratio in percentage DISE": "NA",
      "Primary Student-Classroom Ratio in percentage DISE": "NA",
      "Primary Schools with boys toilet in percentage DISE": "NA",
      "Mean number of children ever born to women aged 40-49years  DLHS-4": "NA",
      "Households receiving untreated tap water within premises  Houselisting and Housing Census Data Tables- District Level , Census of India__5": "NA",
      "Marginal Workers Household Industry worked for 0 - 3 moths during last year - Persons": 101,
      "Total Male Population": 307821,
      "Non Workers - Females": 244746,
      "Current use of family planning methods in percentage DLHS-4": "NA",
      "Households with main source of drinking water within premises  Houselisting and Housing Census Data Tables- District Level , Census of India__3": "NA",
      "Main Workers Agricultural Labourers - Males": 406,
      "Marginal Workers Other worked for 0 - 3 moths during last year - Persons": 1345,
      "Currently married women married below 18years of age in percentage DLHS-4": "NA",
      "Person Illiterates": 139960,
      "Main Workers Household Industry - Females": 1342,
      "Female Literates": 201842,
      "Marginal Workers Cultivators worked for 0 - 3 moths during last year - Males": 0,
      "Male": "NA",
      "Households with improved source of drinking water in percentage DLHS-4": "NA",
      "Upper Primary Schools with electricity in percentage DISE": "NA",
      "Households with electricity in percentage DLHS-4": "NA",
      "Villages with Primary Health Centre within 10km in percentage DLHS-4": "NA",
      "Births to women aged 15-19years out of Total births in percentage DLHS-4": "NA",
      "Prevalence of Anaemia in women aged 15-49years in percentage DLHS-4": "NA",
      "Marginal Workers Agricultural Labourers worked for 3 - 6 moths during last year - Persons": 78,
      "Main Workers Household Industry - Males": 9000,
      "Scheduled Tribe Females": 0,
      "Marginal Workers worked for 0 - 3 moths during last year - Males": 1022,
      "Marginal Workers Other worked for 3 - 6 moths during last year - Males": 6238,
      "Primary Net Enrolment Ratio in percentage DISE": "NA",
      "Total": "NA",
      "Mean age at marriage for boys DLHS-4": "NA",
      "Number of District Hospitals  DLHS-4": "NA",
      "0-6 Age Group Females": 29811,
      "Marginal Workers Agricultural Labourers worked for 0 - 3 moths during last year - Persons": 12,
      "Marginal Workers Household Industry worked for 0 - 3 moths during last year - Males": 39,
      "Total Workers  Females": 29753,
      "Marginal Workers worked for 3 - 6 moths during last year - Females": 3302,
      "Institutional Deliveries in percentage DLHS-4": "NA",
      "Marginal Workers Other - Males": 7217,
      "Total Workers  Males": 177621,
      "Main Workers - Females": 26015,
      "Primary Gross Enrolment Ratio in percentage DISE": "NA",
      "Main Workers Cultivators - Persons": 463,
      "Marginal Workers Household Industry worked for 0 - 3 moths during last year - Females": 62,
      "Upper Primary Net Enrolment Ratio in percentage DISE": "NA",
      "Primary New Government Schools since 2003 in percentage DISE": "NA",
      "Tier": "Urban",
      "Marginal Workers Household Industry - Females": 243,
      "Primary Schools with electricity in percentage DISE": "NA",
      "Main Workers Other - Persons": 184662,
      "Marginal Workers Household Industry worked for 3 - 6 moths during last year - Females": 181,
      "Main Workers Cultivators - Males": 315,
      "Main Workers Household Industry - Persons": 10342,
      "Marginal Workers Cultivators worked for 0 - 3 moths during last year - Persons": 0,
      "Scheduled Caste Males": 73782,
      "Marginal Workers - Persons": 11396,
      "Deliveries at home conducted by skilled health personnel in percentage DLHS-4": "NA",
      "Villages with Sub-Health Centres within 3km in percentage DLHS-4": "NA",
      "Upper Primary New Government Schools since 2003 in percentage DISE": "NA",
      "0-6 Age Group Males": 32928,
      "Primary Schools with drinking water facility in percentage DISE": "NA",
      "Non Workers - Persons": 374946,
      "Person Literates": 442360,
      "State": "DELHI (NCT)",
      "Total Female Population": 274499,
      "Marginal Workers worked for 0 - 3 moths during last year - Persons": 1458,
      "Marginal Workers Cultivators - Females": 69,
      "Marginal Workers Other - Persons": 10612,
      "Sex Ratio": "NA",
      "Scheduled Tribe Persons": 0,
      "Marginal Workers Household Industry worked for 3 - 6 moths during last year - Males": 278,
      "Marginal Workers Agricultural Labourers - Females": 31,
      "Mean age at marriage for girls DLHS-4": "NA",
      "Households with solar energy as main source of lighting  Houselisting and Housing Census Data Tables- District Level , Census of India__4": "NA",
      "District": "CENTRAL",
      "Households receiving treated tap water within premises in percentage Houselisting and Housing Census Data Tables- District Level , Census of India__1": "NA",
      "Total Workers  Persons": 207374,
      "Households receiving treated tap water within premises  Houselisting and Housing Census Data Tables- District Level , Census of India__4": "NA",
      "Primary Female Teachers in percentage DISE": "NA",
      "Number of Households": 119639,
      "Main Workers Agricultural Labourers - Persons": 511
    }
  ]
}