{
  "Total": [
    {
      "Marginal Workers Agricultural Labourers - Persons": "NA",
      "Marginal Workers Other - Females": "NA",
      "Marginal Workers Other worked for 0 - 3 moths during last year - Females": "NA",
      "Upper Primary Schools with boys toilet in percentage DISE": 100,
      "Total Population": "NA",
      "Households with electricity as main source of lighting in percentage Houselisting and Housing Census Data Tables- District Level , Census of India": 98.92214741,
      "Primary Girl's Enrolment in percentage DISE": 48.2,
      "Marginal Workers worked for 3 - 6 moths during last year - Males": "NA",
      "Prevalence of Acute illness in percentage DLHS-4": "Not available",
      "Main Workers - Persons": "NA",
      "Main Workers Cultivators - Females": "NA",
      "Marginal Workers Agricultural Labourers worked for 3 - 6 moths during last year - Females": "NA",
      "Marginal Workers Other worked for 0 - 3 moths during last year - Males": "NA",
      "Upper Primary Schools with drinking water facility in percentage DISE": 100,
      "Primary Schools with girls toilet in percentage DISE": 100,
      "Marginal Workers worked for 3 - 6 moths during last year - Persons": "NA",
      "Upper Primary Drop Out Rate in percentage DISE": "Not available",
      "Prevalence of Anaemia in pregnant women aged 15-49years in percentage DLHS-4": "Not available",
      "Current use of any modern method of family planning in percentage DLHS-4": "Not available",
      "Marginal Workers Agricultural Labourers - Males": "NA",
      "Upper Primary Female Teachers in percentage DISE": 58.3,
      "Marginal Workers - Females": "NA",
      "Marginal Workers Other worked for 3 - 6 moths during last year - Persons": "NA",
      "Main Workers Agricultural Labourers - Females": "NA",
      "Marginal Workers Cultivators worked for 3 - 6 moths during last year - Females": "NA",
      "Households with no lighting  Houselisting and Housing Census Data Tables- District Level , Census of India__5": 333,
      "Prevalence of Severe Anaemia  in percentage DLHS-4": "Not available",
      "Total unmet need for family planning in percentage DLHS-4": "Not available",
      "Main Workers Other - Males": "NA",
      "Children who received full vaccination in percentage DLHS-4": "Not available",
      "Marginal Workers Household Industry - Persons": "NA",
      "Primary Pupil-Teacher Ratio in percentage DISE": 35,
      "Marginal Workers Agricultural Labourers worked for 3 - 6 moths during last year - Males": "NA",
      "Scheduled Caste Females": "NA",
      "Marginal Workers Cultivators - Males": "NA",
      "Marginal Workers - Males": "NA",
      "Marginal Workers worked for 0 - 3 moths during last year - Females": "NA",
      "Households with main source of drinking water within premises in percentage Houselisting and Housing Census Data Tables- District Level , Census of India": 80.71728627,
      "Marginal Workers Household Industry worked for 3 - 6 moths during last year - Persons": "NA",
      "Upper Primary Girl's Enrolment in percentage DISE": 47.6,
      "Prevalence of Severe Anaemia in women aged 15-49years in percentage DLHS-4": "Not available",
      "Marginal Workers Agricultural Labourers worked for 0 - 3 moths during last year - Males": "NA",
      "Households with electricity as main source of lighting  Houselisting and Housing Census Data Tables- District Level , Census of India__3": 457784,
      "Households with computer or laptop with internet connection in percentage": 20.5,
      "PHCs functioning on a 24x7hours basis in percentage DLHS-4": "Not available",
      "Non Workers - Males": "NA",
      "Total Households in District Houselisting and Housing Census Data Tables- District Level , Census of India": 462772,
      "Upper Primary Schools with girls toilet in percentage DISE": 100,
      "Households with mobile phone in percentage": 68.67,
      "Households receiving untreated tap water within premises in percentage Houselisting and Housing Census Data Tables- District Level , Census of India__2": 4.576551736,
      "Marginal Workers Cultivators worked for 3 - 6 moths during last year - Males": "NA",
      "Prevalence of Anaemia  in percentage DLHS-4": "Not available",
      "Prevalence of Chronic illness in percentage DLHS-4": "Not available",
      "Households with solar energy as main source of lighting in percentage Houselisting and Housing Census Data Tables- District Level , Census of India__1": 0.0475,
      "Marginal Workers Agricultural Labourers worked for 0 - 3 moths during last year - Females": "NA",
      "Main Workers - Males": "NA",
      "Female": 82.5,
      "Sno": 416,
      "Marginal Workers Other worked for 3 - 6 moths during last year - Females": "NA",
      "Marginal Workers Cultivators worked for 0 - 3 moths during last year - Females": "NA",
      "Scheduled Tribe Males": "NA",
      "Male Illiterates": "NA",
      "Prevalence of Severe Anaemia in pregnant women aged 15-49years in percentage DLHS-4": "Not available",
      "0-6 Age Group Persons": "NA",
      "Upper Primary Student-Classroom Ratio in percentage DISE": 13,
      "Currently married men married below 21years of age in percentage DLHS-4": "Not available",
      "Male Literates": "NA",
      "Households with no lighting in percentage Houselisting and Housing Census Data Tables- District Level , Census of India__2": 0.072,
      "Primary Drop Out Rate in percentage DISE": "Not available",
      "Marginal Workers Household Industry - Males": "NA",
      "Female Illiterates": "NA",
      "Main Workers Other - Females": "NA",
      "Marginal Workers Cultivators - Persons": "NA",
      "Upper Primary Gross Enrolment Ratio in percentage DISE": 109.9,
      "Scheduled Caste Persons": "NA",
      "Marginal Workers Cultivators worked for 3 - 6 moths during last year - Persons": "NA",
      "Households with landline phone in percentage": 5.17,
      "Total Households in District  Houselisting and Housing Census Data Tables- District Level , Census of India": 462772,
      "Upper Primary Pupil-Teacher Ratio in percentage DISE": 19,
      "Primary Student-Classroom Ratio in percentage DISE": 33,
      "Primary Schools with boys toilet in percentage DISE": 84,
      "Mean number of children ever born to women aged 40-49years  DLHS-4": "Not available",
      "Households receiving untreated tap water within premises  Houselisting and Housing Census Data Tables- District Level , Census of India__5": 21179,
      "Marginal Workers Household Industry worked for 0 - 3 moths during last year - Persons": "NA",
      "Total Male Population": "NA",
      "Non Workers - Females": "NA",
      "Current use of family planning methods in percentage DLHS-4": "Not available",
      "Households with main source of drinking water within premises  Houselisting and Housing Census Data Tables- District Level , Census of India__3": 373537,
      "Main Workers Agricultural Labourers - Males": "NA",
      "Marginal Workers Other worked for 0 - 3 moths during last year - Persons": "NA",
      "Currently married women married below 18years of age in percentage DLHS-4": "Not available",
      "Person Illiterates": "NA",
      "Main Workers Household Industry - Females": "NA",
      "Female Literates": "NA",
      "Marginal Workers Cultivators worked for 0 - 3 moths during last year - Males": "NA",
      "Male": 93.14,
      "Households with improved source of drinking water in percentage DLHS-4": "Not available",
      "Upper Primary Schools with electricity in percentage DISE": 50,
      "Households with electricity in percentage DLHS-4": "Not available",
      "Villages with Primary Health Centre within 10km in percentage DLHS-4": "Not available",
      "Births to women aged 15-19years out of Total births in percentage DLHS-4": "Not available",
      "Prevalence of Anaemia in women aged 15-49years in percentage DLHS-4": "Not available",
      "Marginal Workers Agricultural Labourers worked for 3 - 6 moths during last year - Persons": "NA",
      "Main Workers Household Industry - Males": "NA",
      "Scheduled Tribe Females": "NA",
      "Marginal Workers worked for 0 - 3 moths during last year - Males": "NA",
      "Marginal Workers Other worked for 3 - 6 moths during last year - Males": "NA",
      "Primary Net Enrolment Ratio in percentage DISE": 100,
      "Total": 88.28,
      "Mean age at marriage for boys DLHS-4": "Not available",
      "Number of District Hospitals  DLHS-4": "Not available",
      "0-6 Age Group Females": "NA",
      "Marginal Workers Agricultural Labourers worked for 0 - 3 moths during last year - Persons": "NA",
      "Marginal Workers Household Industry worked for 0 - 3 moths during last year - Males": "NA",
      "Total Workers  Females": "NA",
      "Marginal Workers worked for 3 - 6 moths during last year - Females": "NA",
      "Institutional Deliveries in percentage DLHS-4": "Not available",
      "Marginal Workers Other - Males": "NA",
      "Total Workers  Males": "NA",
      "Main Workers - Females": "NA",
      "Primary Gross Enrolment Ratio in percentage DISE": 123.9,
      "Main Workers Cultivators - Persons": "NA",
      "Marginal Workers Household Industry worked for 0 - 3 moths during last year - Females": "NA",
      "Upper Primary Net Enrolment Ratio in percentage DISE": 83.9,
      "Primary New Government Schools since 2003 in percentage DISE": 6.3,
      "Tier": "Total",
      "Marginal Workers Household Industry - Females": "NA",
      "Primary Schools with electricity in percentage DISE": 100,
      "Main Workers Other - Persons": "NA",
      "Marginal Workers Household Industry worked for 3 - 6 moths during last year - Females": "NA",
      "Main Workers Cultivators - Males": "NA",
      "Main Workers Household Industry - Persons": "NA",
      "Marginal Workers Cultivators worked for 0 - 3 moths during last year - Persons": "NA",
      "Scheduled Caste Males": "NA",
      "Marginal Workers - Persons": "NA",
      "Deliveries at home conducted by skilled health personnel in percentage DLHS-4": "Not available",
      "Villages with Sub-Health Centres within 3km in percentage DLHS-4": "Not available",
      "Upper Primary New Government Schools since 2003 in percentage DISE": 100,
      "0-6 Age Group Males": "NA",
      "Primary Schools with drinking water facility in percentage DISE": 100,
      "Non Workers - Persons": "NA",
      "Person Literates": "NA",
      "State": "DELHI (NCT)",
      "Total Female Population": "NA",
      "Marginal Workers worked for 0 - 3 moths during last year - Persons": "NA",
      "Marginal Workers Cultivators - Females": "NA",
      "Marginal Workers Other - Persons": "NA",
      "Sex Ratio": 840,
      "Scheduled Tribe Persons": "NA",
      "Marginal Workers Household Industry worked for 3 - 6 moths during last year - Males": "NA",
      "Marginal Workers Agricultural Labourers - Females": "NA",
      "Mean age at marriage for girls DLHS-4": "Not available",
      "Households with solar energy as main source of lighting  Houselisting and Housing Census Data Tables- District Level , Census of India__4": 220,
      "District": "SOUTH WEST DELHI",
      "Households receiving treated tap water within premises in percentage Houselisting and Housing Census Data Tables- District Level , Census of India__1": 62.30562783,
      "Total Workers  Persons": "NA",
      "Households receiving treated tap water within premises  Houselisting and Housing Census Data Tables- District Level , Census of India__4": 288333,
      "Primary Female Teachers in percentage DISE": 77,
      "Number of Households": "NA",
      "Main Workers Agricultural Labourers - Persons": "NA"
    }
  ],
  "Rural": [
    {
      "Marginal Workers Agricultural Labourers - Persons": "NA",
      "Marginal Workers Other - Females": "NA",
      "Marginal Workers Other worked for 0 - 3 moths during last year - Females": "NA",
      "Upper Primary Schools with boys toilet in percentage DISE": "NA",
      "Total Population": "NA",
      "Households with electricity as main source of lighting in percentage Houselisting and Housing Census Data Tables- District Level , Census of India": 98.97331371,
      "Primary Girl's Enrolment in percentage DISE": "NA",
      "Marginal Workers worked for 3 - 6 moths during last year - Males": "NA",
      "Prevalence of Acute illness in percentage DLHS-4": "Not available",
      "Main Workers - Persons": "NA",
      "Main Workers Cultivators - Females": "NA",
      "Marginal Workers Agricultural Labourers worked for 3 - 6 moths during last year - Females": "NA",
      "Marginal Workers Other worked for 0 - 3 moths during last year - Males": "NA",
      "Upper Primary Schools with drinking water facility in percentage DISE": "NA",
      "Primary Schools with girls toilet in percentage DISE": "NA",
      "Marginal Workers worked for 3 - 6 moths during last year - Persons": "NA",
      "Upper Primary Drop Out Rate in percentage DISE": "NA",
      "Prevalence of Anaemia in pregnant women aged 15-49years in percentage DLHS-4": "Not available",
      "Current use of any modern method of family planning in percentage DLHS-4": "Not available",
      "Marginal Workers Agricultural Labourers - Males": "NA",
      "Upper Primary Female Teachers in percentage DISE": "NA",
      "Marginal Workers - Females": "NA",
      "Marginal Workers Other worked for 3 - 6 moths during last year - Persons": "NA",
      "Main Workers Agricultural Labourers - Females": "NA",
      "Marginal Workers Cultivators worked for 3 - 6 moths during last year - Females": "NA",
      "Households with no lighting  Houselisting and Housing Census Data Tables- District Level , Census of India__5": 20,
      "Prevalence of Severe Anaemia  in percentage DLHS-4": "Not available",
      "Total unmet need for family planning in percentage DLHS-4": "Not available",
      "Main Workers Other - Males": "NA",
      "Children who received full vaccination in percentage DLHS-4": "Not available",
      "Marginal Workers Household Industry - Persons": "NA",
      "Primary Pupil-Teacher Ratio in percentage DISE": "NA",
      "Marginal Workers Agricultural Labourers worked for 3 - 6 moths during last year - Males": "NA",
      "Scheduled Caste Females": "NA",
      "Marginal Workers Cultivators - Males": "NA",
      "Marginal Workers - Males": "NA",
      "Marginal Workers worked for 0 - 3 moths during last year - Females": "NA",
      "Households with main source of drinking water within premises in percentage Houselisting and Housing Census Data Tables- District Level , Census of India": 70.64507606,
      "Marginal Workers Household Industry worked for 3 - 6 moths during last year - Persons": "NA",
      "Upper Primary Girl's Enrolment in percentage DISE": "NA",
      "Prevalence of Severe Anaemia in women aged 15-49years in percentage DLHS-4": "Not available",
      "Marginal Workers Agricultural Labourers worked for 0 - 3 moths during last year - Males": "NA",
      "Households with electricity as main source of lighting  Houselisting and Housing Census Data Tables- District Level , Census of India__3": 26221,
      "Households with computer or laptop with internet connection in percentage": 4.7,
      "PHCs functioning on a 24x7hours basis in percentage DLHS-4": "Not applicable",
      "Non Workers - Males": "NA",
      "Total Households in District Houselisting and Housing Census Data Tables- District Level , Census of India": 26493,
      "Upper Primary Schools with girls toilet in percentage DISE": "NA",
      "Households with mobile phone in percentage": 78.6,
      "Households receiving untreated tap water within premises in percentage Houselisting and Housing Census Data Tables- District Level , Census of India__2": 6.677235496,
      "Marginal Workers Cultivators worked for 3 - 6 moths during last year - Males": "NA",
      "Prevalence of Anaemia  in percentage DLHS-4": "Not available",
      "Prevalence of Chronic illness in percentage DLHS-4": "Not available",
      "Households with solar energy as main source of lighting in percentage Houselisting and Housing Census Data Tables- District Level , Census of India__1": 0.0302,
      "Marginal Workers Agricultural Labourers worked for 0 - 3 moths during last year - Females": "NA",
      "Main Workers - Males": "NA",
      "Female": "NA",
      "Sno": 415,
      "Marginal Workers Other worked for 3 - 6 moths during last year - Females": "NA",
      "Marginal Workers Cultivators worked for 0 - 3 moths during last year - Females": "NA",
      "Scheduled Tribe Males": "NA",
      "Male Illiterates": "NA",
      "Prevalence of Severe Anaemia in pregnant women aged 15-49years in percentage DLHS-4": "Not available",
      "0-6 Age Group Persons": "NA",
      "Upper Primary Student-Classroom Ratio in percentage DISE": "NA",
      "Currently married men married below 21years of age in percentage DLHS-4": "Not available",
      "Male Literates": "NA",
      "Households with no lighting in percentage Houselisting and Housing Census Data Tables- District Level , Census of India__2": 0.0755,
      "Primary Drop Out Rate in percentage DISE": "NA",
      "Marginal Workers Household Industry - Males": "NA",
      "Female Illiterates": "NA",
      "Main Workers Other - Females": "NA",
      "Marginal Workers Cultivators - Persons": "NA",
      "Upper Primary Gross Enrolment Ratio in percentage DISE": "NA",
      "Scheduled Caste Persons": "NA",
      "Marginal Workers Cultivators worked for 3 - 6 moths during last year - Persons": "NA",
      "Households with landline phone in percentage": 4.73,
      "Total Households in District  Houselisting and Housing Census Data Tables- District Level , Census of India": 26493,
      "Upper Primary Pupil-Teacher Ratio in percentage DISE": "NA",
      "Primary Student-Classroom Ratio in percentage DISE": "NA",
      "Primary Schools with boys toilet in percentage DISE": "NA",
      "Mean number of children ever born to women aged 40-49years  DLHS-4": "Not available",
      "Households receiving untreated tap water within premises  Houselisting and Housing Census Data Tables- District Level , Census of India__5": 1769,
      "Marginal Workers Household Industry worked for 0 - 3 moths during last year - Persons": "NA",
      "Total Male Population": "NA",
      "Non Workers - Females": "NA",
      "Current use of family planning methods in percentage DLHS-4": "Not available",
      "Households with main source of drinking water within premises  Houselisting and Housing Census Data Tables- District Level , Census of India__3": 18716,
      "Main Workers Agricultural Labourers - Males": "NA",
      "Marginal Workers Other worked for 0 - 3 moths during last year - Persons": "NA",
      "Currently married women married below 18years of age in percentage DLHS-4": "Not available",
      "Person Illiterates": "NA",
      "Main Workers Household Industry - Females": "NA",
      "Female Literates": "NA",
      "Marginal Workers Cultivators worked for 0 - 3 moths during last year - Males": "NA",
      "Male": "NA",
      "Households with improved source of drinking water in percentage DLHS-4": "Not available",
      "Upper Primary Schools with electricity in percentage DISE": "NA",
      "Households with electricity in percentage DLHS-4": "Not available",
      "Villages with Primary Health Centre within 10km in percentage DLHS-4": "Not applicable",
      "Births to women aged 15-19years out of Total births in percentage DLHS-4": "Not available",
      "Prevalence of Anaemia in women aged 15-49years in percentage DLHS-4": "Not available",
      "Marginal Workers Agricultural Labourers worked for 3 - 6 moths during last year - Persons": "NA",
      "Main Workers Household Industry - Males": "NA",
      "Scheduled Tribe Females": "NA",
      "Marginal Workers worked for 0 - 3 moths during last year - Males": "NA",
      "Marginal Workers Other worked for 3 - 6 moths during last year - Males": "NA",
      "Primary Net Enrolment Ratio in percentage DISE": "NA",
      "Total": "NA",
      "Mean age at marriage for boys DLHS-4": "Not available",
      "Number of District Hospitals  DLHS-4": "Not applicable",
      "0-6 Age Group Females": "NA",
      "Marginal Workers Agricultural Labourers worked for 0 - 3 moths during last year - Persons": "NA",
      "Marginal Workers Household Industry worked for 0 - 3 moths during last year - Males": "NA",
      "Total Workers  Females": "NA",
      "Marginal Workers worked for 3 - 6 moths during last year - Females": "NA",
      "Institutional Deliveries in percentage DLHS-4": "Not available",
      "Marginal Workers Other - Males": "NA",
      "Total Workers  Males": "NA",
      "Main Workers - Females": "NA",
      "Primary Gross Enrolment Ratio in percentage DISE": "NA",
      "Main Workers Cultivators - Persons": "NA",
      "Marginal Workers Household Industry worked for 0 - 3 moths during last year - Females": "NA",
      "Upper Primary Net Enrolment Ratio in percentage DISE": "NA",
      "Primary New Government Schools since 2003 in percentage DISE": "NA",
      "Tier": "Rural",
      "Marginal Workers Household Industry - Females": "NA",
      "Primary Schools with electricity in percentage DISE": "NA",
      "Main Workers Other - Persons": "NA",
      "Marginal Workers Household Industry worked for 3 - 6 moths during last year - Females": "NA",
      "Main Workers Cultivators - Males": "NA",
      "Main Workers Household Industry - Persons": "NA",
      "Marginal Workers Cultivators worked for 0 - 3 moths during last year - Persons": "NA",
      "Scheduled Caste Males": "NA",
      "Marginal Workers - Persons": "NA",
      "Deliveries at home conducted by skilled health personnel in percentage DLHS-4": "Not available",
      "Villages with Sub-Health Centres within 3km in percentage DLHS-4": "Not applicable",
      "Upper Primary New Government Schools since 2003 in percentage DISE": "NA",
      "0-6 Age Group Males": "NA",
      "Primary Schools with drinking water facility in percentage DISE": "NA",
      "Non Workers - Persons": "NA",
      "Person Literates": "NA",
      "State": "DELHI (NCT)",
      "Total Female Population": "NA",
      "Marginal Workers worked for 0 - 3 moths during last year - Persons": "NA",
      "Marginal Workers Cultivators - Females": "NA",
      "Marginal Workers Other - Persons": "NA",
      "Sex Ratio": 858,
      "Scheduled Tribe Persons": "NA",
      "Marginal Workers Household Industry worked for 3 - 6 moths during last year - Males": "NA",
      "Marginal Workers Agricultural Labourers - Females": "NA",
      "Mean age at marriage for girls DLHS-4": "Not available",
      "Households with solar energy as main source of lighting  Houselisting and Housing Census Data Tables- District Level , Census of India__4": 8,
      "District": "SOUTH WEST DELHI",
      "Households receiving treated tap water within premises in percentage Houselisting and Housing Census Data Tables- District Level , Census of India__1": 38.62152267,
      "Total Workers  Persons": "NA",
      "Households receiving treated tap water within premises  Houselisting and Housing Census Data Tables- District Level , Census of India__4": 10232,
      "Primary Female Teachers in percentage DISE": "NA",
      "Number of Households": "NA",
      "Main Workers Agricultural Labourers - Persons": "NA"
    }
  ],
  "Urban": [
    {
      "Marginal Workers Agricultural Labourers - Persons": "NA",
      "Marginal Workers Other - Females": "NA",
      "Marginal Workers Other worked for 0 - 3 moths during last year - Females": "NA",
      "Upper Primary Schools with boys toilet in percentage DISE": "NA",
      "Total Population": "NA",
      "Households with electricity as main source of lighting in percentage Houselisting and Housing Census Data Tables- District Level , Census of India": 98.91904034,
      "Primary Girl's Enrolment in percentage DISE": "NA",
      "Marginal Workers worked for 3 - 6 moths during last year - Males": "NA",
      "Prevalence of Acute illness in percentage DLHS-4": "Not available",
      "Main Workers - Persons": "NA",
      "Main Workers Cultivators - Females": "NA",
      "Marginal Workers Agricultural Labourers worked for 3 - 6 moths during last year - Females": "NA",
      "Marginal Workers Other worked for 0 - 3 moths during last year - Males": "NA",
      "Upper Primary Schools with drinking water facility in percentage DISE": "NA",
      "Primary Schools with girls toilet in percentage DISE": "NA",
      "Marginal Workers worked for 3 - 6 moths during last year - Persons": "NA",
      "Upper Primary Drop Out Rate in percentage DISE": "NA",
      "Prevalence of Anaemia in pregnant women aged 15-49years in percentage DLHS-4": "Not available",
      "Current use of any modern method of family planning in percentage DLHS-4": "Not available",
      "Marginal Workers Agricultural Labourers - Males": "NA",
      "Upper Primary Female Teachers in percentage DISE": "NA",
      "Marginal Workers - Females": "NA",
      "Marginal Workers Other worked for 3 - 6 moths during last year - Persons": "NA",
      "Main Workers Agricultural Labourers - Females": "NA",
      "Marginal Workers Cultivators worked for 3 - 6 moths during last year - Females": "NA",
      "Households with no lighting  Houselisting and Housing Census Data Tables- District Level , Census of India__5": 313,
      "Prevalence of Severe Anaemia  in percentage DLHS-4": "Not available",
      "Total unmet need for family planning in percentage DLHS-4": "Not available",
      "Main Workers Other - Males": "NA",
      "Children who received full vaccination in percentage DLHS-4": "Not available",
      "Marginal Workers Household Industry - Persons": "NA",
      "Primary Pupil-Teacher Ratio in percentage DISE": "NA",
      "Marginal Workers Agricultural Labourers worked for 3 - 6 moths during last year - Males": "NA",
      "Scheduled Caste Females": "NA",
      "Marginal Workers Cultivators - Males": "NA",
      "Marginal Workers - Males": "NA",
      "Marginal Workers worked for 0 - 3 moths during last year - Females": "NA",
      "Households with main source of drinking water within premises in percentage Houselisting and Housing Census Data Tables- District Level , Census of India": 81.32892026,
      "Marginal Workers Household Industry worked for 3 - 6 moths during last year - Persons": "NA",
      "Upper Primary Girl's Enrolment in percentage DISE": "NA",
      "Prevalence of Severe Anaemia in women aged 15-49years in percentage DLHS-4": "Not available",
      "Marginal Workers Agricultural Labourers worked for 0 - 3 moths during last year - Males": "NA",
      "Households with electricity as main source of lighting  Houselisting and Housing Census Data Tables- District Level , Census of India__3": 431563,
      "Households with computer or laptop with internet connection in percentage": 21.46,
      "PHCs functioning on a 24x7hours basis in percentage DLHS-4": 0,
      "Non Workers - Males": "NA",
      "Total Households in District Houselisting and Housing Census Data Tables- District Level , Census of India": 436279,
      "Upper Primary Schools with girls toilet in percentage DISE": "NA",
      "Households with mobile phone in percentage": 68.06,
      "Households receiving untreated tap water within premises in percentage Houselisting and Housing Census Data Tables- District Level , Census of India__2": 4.448987918,
      "Marginal Workers Cultivators worked for 3 - 6 moths during last year - Males": "NA",
      "Prevalence of Anaemia  in percentage DLHS-4": "Not available",
      "Prevalence of Chronic illness in percentage DLHS-4": "Not available",
      "Households with solar energy as main source of lighting in percentage Houselisting and Housing Census Data Tables- District Level , Census of India__1": 0.0486,
      "Marginal Workers Agricultural Labourers worked for 0 - 3 moths during last year - Females": "NA",
      "Main Workers - Males": "NA",
      "Female": "NA",
      "Sno": 417,
      "Marginal Workers Other worked for 3 - 6 moths during last year - Females": "NA",
      "Marginal Workers Cultivators worked for 0 - 3 moths during last year - Females": "NA",
      "Scheduled Tribe Males": "NA",
      "Male Illiterates": "NA",
      "Prevalence of Severe Anaemia in pregnant women aged 15-49years in percentage DLHS-4": "Not available",
      "0-6 Age Group Persons": "NA",
      "Upper Primary Student-Classroom Ratio in percentage DISE": "NA",
      "Currently married men married below 21years of age in percentage DLHS-4": "Not available",
      "Male Literates": "NA",
      "Households with no lighting in percentage Houselisting and Housing Census Data Tables- District Level , Census of India__2": 0.0717,
      "Primary Drop Out Rate in percentage DISE": "NA",
      "Marginal Workers Household Industry - Males": "NA",
      "Female Illiterates": "NA",
      "Main Workers Other - Females": "NA",
      "Marginal Workers Cultivators - Persons": "NA",
      "Upper Primary Gross Enrolment Ratio in percentage DISE": "NA",
      "Scheduled Caste Persons": "NA",
      "Marginal Workers Cultivators worked for 3 - 6 moths during last year - Persons": "NA",
      "Households with landline phone in percentage": 5.2,
      "Total Households in District  Houselisting and Housing Census Data Tables- District Level , Census of India": 436279,
      "Upper Primary Pupil-Teacher Ratio in percentage DISE": "NA",
      "Primary Student-Classroom Ratio in percentage DISE": "NA",
      "Primary Schools with boys toilet in percentage DISE": "NA",
      "Mean number of children ever born to women aged 40-49years  DLHS-4": "Not available",
      "Households receiving untreated tap water within premises  Houselisting and Housing Census Data Tables- District Level , Census of India__5": 19410,
      "Marginal Workers Household Industry worked for 0 - 3 moths during last year - Persons": "NA",
      "Total Male Population": "NA",
      "Non Workers - Females": "NA",
      "Current use of family planning methods in percentage DLHS-4": "Not available",
      "Households with main source of drinking water within premises  Houselisting and Housing Census Data Tables- District Level , Census of India__3": 354821,
      "Main Workers Agricultural Labourers - Males": "NA",
      "Marginal Workers Other worked for 0 - 3 moths during last year - Persons": "NA",
      "Currently married women married below 18years of age in percentage DLHS-4": "Not available",
      "Person Illiterates": "NA",
      "Main Workers Household Industry - Females": "NA",
      "Female Literates": "NA",
      "Marginal Workers Cultivators worked for 0 - 3 moths during last year - Males": "NA",
      "Male": "NA",
      "Households with improved source of drinking water in percentage DLHS-4": "Not available",
      "Upper Primary Schools with electricity in percentage DISE": "NA",
      "Households with electricity in percentage DLHS-4": "Not available",
      "Villages with Primary Health Centre within 10km in percentage DLHS-4": 0,
      "Births to women aged 15-19years out of Total births in percentage DLHS-4": "Not available",
      "Prevalence of Anaemia in women aged 15-49years in percentage DLHS-4": "Not available",
      "Marginal Workers Agricultural Labourers worked for 3 - 6 moths during last year - Persons": "NA",
      "Main Workers Household Industry - Males": "NA",
      "Scheduled Tribe Females": "NA",
      "Marginal Workers worked for 0 - 3 moths during last year - Males": "NA",
      "Marginal Workers Other worked for 3 - 6 moths during last year - Males": "NA",
      "Primary Net Enrolment Ratio in percentage DISE": "NA",
      "Total": "NA",
      "Mean age at marriage for boys DLHS-4": "Not available",
      "Number of District Hospitals  DLHS-4": 0,
      "0-6 Age Group Females": "NA",
      "Marginal Workers Agricultural Labourers worked for 0 - 3 moths during last year - Persons": "NA",
      "Marginal Workers Household Industry worked for 0 - 3 moths during last year - Males": "NA",
      "Total Workers  Females": "NA",
      "Marginal Workers worked for 3 - 6 moths during last year - Females": "NA",
      "Institutional Deliveries in percentage DLHS-4": "Not available",
      "Marginal Workers Other - Males": "NA",
      "Total Workers  Males": "NA",
      "Main Workers - Females": "NA",
      "Primary Gross Enrolment Ratio in percentage DISE": "NA",
      "Main Workers Cultivators - Persons": "NA",
      "Marginal Workers Household Industry worked for 0 - 3 moths during last year - Females": "NA",
      "Upper Primary Net Enrolment Ratio in percentage DISE": "NA",
      "Primary New Government Schools since 2003 in percentage DISE": "NA",
      "Tier": "Urban",
      "Marginal Workers Household Industry - Females": "NA",
      "Primary Schools with electricity in percentage DISE": "NA",
      "Main Workers Other - Persons": "NA",
      "Marginal Workers Household Industry worked for 3 - 6 moths during last year - Females": "NA",
      "Main Workers Cultivators - Males": "NA",
      "Main Workers Household Industry - Persons": "NA",
      "Marginal Workers Cultivators worked for 0 - 3 moths during last year - Persons": "NA",
      "Scheduled Caste Males": "NA",
      "Marginal Workers - Persons": "NA",
      "Deliveries at home conducted by skilled health personnel in percentage DLHS-4": "Not available",
      "Villages with Sub-Health Centres within 3km in percentage DLHS-4": 0,
      "Upper Primary New Government Schools since 2003 in percentage DISE": "NA",
      "0-6 Age Group Males": "NA",
      "Primary Schools with drinking water facility in percentage DISE": "NA",
      "Non Workers - Persons": "NA",
      "Person Literates": "NA",
      "State": "DELHI (NCT)",
      "Total Female Population": "NA",
      "Marginal Workers worked for 0 - 3 moths during last year - Persons": "NA",
      "Marginal Workers Cultivators - Females": "NA",
      "Marginal Workers Other - Persons": "NA",
      "Sex Ratio": 839,
      "Scheduled Tribe Persons": "NA",
      "Marginal Workers Household Industry worked for 3 - 6 moths during last year - Males": "NA",
      "Marginal Workers Agricultural Labourers - Females": "NA",
      "Mean age at marriage for girls DLHS-4": "Not available",
      "Households with solar energy as main source of lighting  Houselisting and Housing Census Data Tables- District Level , Census of India__4": 212,
      "District": "SOUTH WEST DELHI",
      "Households receiving treated tap water within premises in percentage Houselisting and Housing Census Data Tables- District Level , Census of India__1": 63.74384282,
      "Total Workers  Persons": "NA",
      "Households receiving treated tap water within premises  Houselisting and Housing Census Data Tables- District Level , Census of India__4": 278101,
      "Primary Female Teachers in percentage DISE": "NA",
      "Number of Households": "NA",
      "Main Workers Agricultural Labourers - Persons": "NA"
    }
  ]
}