{
  "Marginal Workers Agricultural Labourers - Persons": "281",
  "Marginal Workers Agricultural Labourers worked for 3 - 6 moths during last year - Females": "154",
  "Main Workers - Females": "11821",
  "Total Population": "243247",
  "Households with electricity as main source of lighting in percentage Houselisting and Housing Census Data Tables- District Level , Census of India": "198",
  "Primary Girl's Enrolment in percentage DISE": "50.85",
  "Marginal Workers worked for 3 - 6 moths during last year - Males": "961.50",
  "Prevalence of Acute illness in percentage DLHS-4": "N/A",
  "Main Workers - Persons": "116435",
  "Main Workers Cultivators - Females": "349",
  "Marginal Workers Other worked for 0 - 3 moths during last year - Males": "849",
  "Marginal Workers Cultivators worked for 3 - 6 moths during last year - Persons": "593",
  "Currently married women married below 18years of age in percentage DLHS-4": "N/A",
  "Primary Schools with girls toilet in percentage DISE": "100.00",
  "Marginal Workers worked for 3 - 6 moths during last year - Persons": "3575",
  "Upper Primary Drop Out Rate in percentage DISE": "1.58",
  "Prevalence of Anaemia in pregnant women aged 15-49years in percentage DLHS-4": "N/A",
  "Current use of any modern method of family planning in percentage DLHS-4": "N/A",
  "Marginal Workers Other - Males": "2501",
  "Upper Primary Female Teachers in percentage DISE": "53.55",
  "Marginal Workers - Females": "2016",
  "Marginal Workers Household Industry - Persons": "152.00",
  "Marginal Workers Cultivators worked for 3 - 6 moths during last year - Females": "424",
  "Households with no lighting  Houselisting and Housing Census Data Tables- District Level , Census of India__5": "52",
  "Mean age at marriage for girls DLHS-4": "N/A",
  "Total unmet need for family planning in percentage DLHS-4": "N/A",
  "Marginal Workers Other - Females": "1083",
  "Children who received full vaccination in percentage DLHS-4": "N/A",
  "Households with main source of drinking water within premises  Houselisting and Housing Census Data Tables- District Level , Census of India__3": "46134",
  "Primary Pupil-Teacher Ratio in percentage DISE": "28.50",
  "Marginal Workers Agricultural Labourers worked for 3 - 6 moths during last year - Males": "72",
  "Marginal Workers worked for 0 - 3 moths during last year - Persons": "1261",
  "Scheduled Caste Females": "2973",
  "Marginal Workers Cultivators - Males": "192",
  "Marginal Workers Agricultural Labourers - Males": "45.00",
  "Marginal Workers worked for 0 - 3 moths during last year - Females": "182.00",
  "Households with main source of drinking water within premises in percentage Houselisting and Housing Census Data Tables- District Level , Census of India": "79.54",
  "Marginal Workers worked for 0 - 3 moths during last year - Males": "897",
  "Female Literates": "63763",
  "working population": "N/A",
  "Upper Primary Girl's Enrolment in percentage DISE": "52.40",
  "Prevalence of Severe Anaemia in women aged 15-49years in percentage DLHS-4": "N/A",
  "Marginal Workers Agricultural Labourers worked for 0 - 3 moths during last year - Males": "18",
  "Marginal Workers Household Industry worked for 0 - 3 moths during last year - Males": "7",
  "Marginal Workers Household Industry - Females": "267",
  "Current use of family planning methods in percentage DLHS-4": "N/A",
  "Non Workers - Males": "42867",
  "Total Households in District Houselisting and Housing Census Data Tables- District Level , Census of India": "60381",
  "Upper Primary Schools with girls toilet in percentage DISE": "100.00",
  "Primary Schools with drinking water facility in percentage DISE": "100.00",
  "Upper Primary Schools with boys toilet in percentage DISE": "100.00",
  "Households receiving untreated tap water within premises in percentage Houselisting and Housing Census Data Tables- District Level , Census of India__2": "17",
  "Marginal Workers Cultivators worked for 3 - 6 moths during last year - Males": "169",
  "Prevalence of Anaemia  in percentage DLHS-4": "N/A",
  "Prevalence of Chronic illness in percentage DLHS-4": "N/A",
  "Households with solar energy as main source of lighting in percentage Houselisting and Housing Census Data Tables- District Level , Census of India__1": "0",
  "Marginal Workers Agricultural Labourers worked for 0 - 3 moths during last year - Females": "18.50",
  "Female": "157",
  "Total Male Population": "150301",
  "Marginal Workers Cultivators worked for 0 - 3 moths during last year - Females": "51",
  "Scheduled Tribe Males": "7771",
  "Male Illiterates": "25658",
  "Prevalence of Severe Anaemia in pregnant women aged 15-49years in percentage DLHS-4": "N/A",
  "0-6 Age Group Persons": "26934",
  "Marginal Workers - Persons": "4836",
  "Currently married men married below 21years of age in percentage DLHS-4": "N/A",
  "Male Literates": "124643",
  "Households with improved source of drinking water in percentage DLHS-4": "N/A",
  "Primary Drop Out Rate in percentage DISE": "4.00",
  "Marginal Workers Household Industry - Males": "37",
  "Female Illiterates": "29183",
  "Main Workers Other - Females": "5584.00",
  "Upper Primary Gross Enrolment Ratio in percentage DISE": "94.15",
  "Scheduled Caste Persons": "3062.00",
  "Upper Primary Schools with electricity in percentage DISE": "200",
  "Number of Households": "60956",
  "Marginal Workers - Males": "2820",
  "Total Households in District  Houselisting and Housing Census Data Tables- District Level , Census of India": "60381",
  "Upper Primary Pupil-Teacher Ratio in percentage DISE": "19.50",
  "Primary Student-Classroom Ratio in percentage DISE": "31.00",
  "Primary Schools with boys toilet in percentage DISE": "100.00",
  "Mean number of children ever born to women aged 40-49years  DLHS-4": "N/A",
  "Households receiving untreated tap water within premises  Houselisting and Housing Census Data Tables- District Level , Census of India__5": "8672",
  "Marginal Workers Household Industry worked for 0 - 3 moths during last year - Persons": "69",
  "Marginal Workers Household Industry worked for 3 - 6 moths during last year - Persons": "117.50",
  "sexratio": "N/A",
  "Marginal Workers Cultivators - Persons": "333.50",
  "Marginal Workers Other worked for 3 - 6 moths during last year - Females": "869",
  "Main Workers Agricultural Labourers - Males": "272",
  "Upper Primary Schools with drinking water facility in percentage DISE": "100.00",
  "Main Workers Agricultural Labourers - Persons": "491",
  "Person Illiterates": "54841",
  "Main Workers Household Industry - Females": "85",
  "Primary Net Enrolment Ratio in percentage DISE": "80.05",
  "Marginal Workers Cultivators worked for 0 - 3 moths during last year - Males": "23",
  "Male": "182",
  "Households with no lighting in percentage Houselisting and Housing Census Data Tables- District Level , Census of India__2": "0",
  "Main Workers Other - Males": "102747",
  "Marginal Workers Other worked for 3 - 6 moths during last year - Persons": "1260.50",
  "Households with electricity in percentage DLHS-4": "N/A",
  "Villages with Primary Health Centre within 10km in percentage DLHS-4": "N/A",
  "Births to women aged 15-19years out of Total births in percentage DLHS-4": "N/A",
  "Prevalence of Anaemia in women aged 15-49years in percentage DLHS-4": "N/A",
  "Main Workers Household Industry - Males": "147.50",
  "Scheduled Tribe Females": "7592",
  "PHCs functioning on a 24x7hours basis in percentage DLHS-4": "N/A",
  "Marginal Workers Other worked for 3 - 6 moths during last year - Males": "1652",
  "Marginal Workers Other worked for 0 - 3 moths during last year - Females": "214",
  "Households with computer/laptop with internet connection in percentage": "N/A",
  "enrollment rate of education": "N/A",
  "Mean age at marriage for boys DLHS-4": "N/A",
  "Number of District Hospitals  DLHS-4": "N/A",
  "0-6 Age Group Females": "6395.00",
  "Total": "171",
  "Households with electricity as main source of lighting  Houselisting and Housing Census Data Tables- District Level , Census of India__3": "59824",
  "Total Workers  Females": "13837",
  "Marginal Workers Agricultural Labourers worked for 0 - 3 moths during last year - Persons": "55",
  "Marginal Workers worked for 3 - 6 moths during last year - Females": "1652",
  "Institutional Deliveries in percentage DLHS-4": "N/A",
  "Upper Primary Net Enrolment Ratio in percentage DISE": "74.85",
  "Marginal Workers Agricultural Labourers worked for 3 - 6 moths during last year - Persons": "226",
  "Total Workers  Males": "107434",
  "Primary Gross Enrolment Ratio in percentage DISE": "93.15",
  "Main Workers Cultivators - Persons": "1649",
  "Marginal Workers Household Industry worked for 0 - 3 moths during last year - Females": "62",
  "Households with landline phone in percentage": "10",
  "Primary New Government Schools since 2003 in percentage DISE": "12.35",
  "Tier": "N/A",
  "Households with mobile phone in percentage": "138",
  "Primary Schools with electricity in percentage DISE": "100.00",
  "Main Workers Other - Persons": "56957.50",
  "Marginal Workers Household Industry worked for 3 - 6 moths during last year - Females": "205",
  "Households receiving treated tap water within premises in percentage Houselisting and Housing Census Data Tables- District Level , Census of India__1": "118",
  "Main Workers Agricultural Labourers - Females": "219",
  "Marginal Workers Cultivators worked for 0 - 3 moths during last year - Persons": "74",
  "Scheduled Caste Males": "3151",
  "Marginal Workers Other worked for 0 - 3 moths during last year - Persons": "1063",
  "Deliveries at home conducted by skilled health personnel in percentage DLHS-4": "N/A",
  "Villages with Sub-Health Centres within 3km in percentage DLHS-4": "N/A",
  "Upper Primary New Government Schools since 2003 in percentage DISE": "4.15",
  "0-6 Age Group Males": "14144",
  "Non Workers - Females": "79109",
  "Non Workers - Persons": "121976",
  "Person Literates": "188406",
  "enrolment rate": "N/A",
  "State": "N/A",
  "Main Workers - Males": "104614",
  "Total Female Population": "92946",
  "Marginal Workers Cultivators - Females": "237.50",
  "Marginal Workers Other - Persons": "1792.00",
  "Sex Ratio": "782.50",
  "Scheduled Tribe Persons": "15363",
  "Marginal Workers Household Industry worked for 3 - 6 moths during last year - Males": "15.00",
  "Marginal Workers Agricultural Labourers - Females": "191",
  "Prevalence of Severe Anaemia  in percentage DLHS-4": "N/A",
  "Upper Primary Student-Classroom Ratio in percentage DISE": "26.50",
  "Main Workers Household Industry - Persons": "190.00",
  "Households with solar energy as main source of lighting  Houselisting and Housing Census Data Tables- District Level , Census of India__4": "8",
  "District": "N/A",
  "Main Workers Cultivators - Males": "1300",
  "Total Workers  Persons": "121271",
  "Households receiving treated tap water within premises  Houselisting and Housing Census Data Tables- District Level , Census of India__4": "26368",
  "Primary Female Teachers in percentage DISE": "74.00"
}