{
  "Total": [
    {
      "Marginal Workers Agricultural Labourers - Persons": 110020,
      "Marginal Workers Other - Females": 68369,
      "Marginal Workers Other worked for 0 - 3 moths during last year - Females": 10198,
      "Upper Primary Schools with boys toilet in percentage DISE": 100,
      "Total Population": 3998252,
      "Households with electricity as main source of lighting in percentage Houselisting and Housing Census Data Tables- District Level , Census of India": 96.71486171,
      "Primary Girl's Enrolment in percentage DISE": 50.5,
      "Marginal Workers worked for 3 - 6 moths during last year - Males": 141002,
      "Prevalence of Acute illness in percentage DLHS-4": 3,
      "Main Workers - Persons": 1367378,
      "Main Workers Cultivators - Females": 19749,
      "Marginal Workers Agricultural Labourers worked for 3 - 6 moths during last year - Females": 50673,
      "Marginal Workers Other worked for 0 - 3 moths during last year - Males": 14762,
      "Upper Primary Schools with drinking water facility in percentage DISE": 100,
      "Primary Schools with girls toilet in percentage DISE": 99.4,
      "Marginal Workers worked for 3 - 6 moths during last year - Persons": 261173,
      "Upper Primary Drop Out Rate in percentage DISE": "Not available",
      "Prevalence of Anaemia in pregnant women aged 15-49years in percentage DLHS-4": 58.3,
      "Current use of any modern method of family planning in percentage DLHS-4": 59.8,
      "Marginal Workers Agricultural Labourers - Males": 49930,
      "Upper Primary Female Teachers in percentage DISE": 72.7,
      "Marginal Workers - Females": 142571,
      "Marginal Workers Other worked for 3 - 6 moths during last year - Persons": 143291,
      "Main Workers Agricultural Labourers - Females": 70067,
      "Marginal Workers Cultivators worked for 3 - 6 moths during last year - Females": 5035,
      "Households with no lighting  Houselisting and Housing Census Data Tables- District Level , Census of India__5": 3356,
      "Prevalence of Severe Anaemia  in percentage DLHS-4": 6.1,
      "Total unmet need for family planning in percentage DLHS-4": 30.3,
      "Main Workers Other - Males": 844025,
      "Children who received full vaccination in percentage DLHS-4": 64.4,
      "Marginal Workers Household Industry - Persons": 13583,
      "Primary Pupil-Teacher Ratio in percentage DISE": 20,
      "Marginal Workers Agricultural Labourers worked for 3 - 6 moths during last year - Males": 44051,
      "Scheduled Caste Females": 473817,
      "Marginal Workers Cultivators - Males": 8832,
      "Marginal Workers - Males": 163865,
      "Marginal Workers worked for 0 - 3 moths during last year - Females": 22400,
      "Households with main source of drinking water within premises in percentage Houselisting and Housing Census Data Tables- District Level , Census of India": 43.83850418,
      "Marginal Workers Household Industry worked for 3 - 6 moths during last year - Persons": 10294,
      "Upper Primary Girl's Enrolment in percentage DISE": 23.4,
      "Prevalence of Severe Anaemia in women aged 15-49years in percentage DLHS-4": 3,
      "Marginal Workers Agricultural Labourers worked for 0 - 3 moths during last year - Males": 5879,
      "Households with electricity as main source of lighting  Houselisting and Housing Census Data Tables- District Level , Census of India__3": 961161,
      "Households with computer or laptop with internet connection in percentage": 10.09,
      "PHCs functioning on a 24x7hours basis in percentage DLHS-4": 100,
      "Non Workers - Males": 831650,
      "Total Households in District Houselisting and Housing Census Data Tables- District Level , Census of India": 993809,
      "Upper Primary Schools with girls toilet in percentage DISE": 100,
      "Households with mobile phone in percentage": 66.95,
      "Households receiving untreated tap water within premises in percentage Houselisting and Housing Census Data Tables- District Level , Census of India__2": 4.130471751,
      "Marginal Workers Cultivators worked for 3 - 6 moths during last year - Males": 7829,
      "Prevalence of Anaemia  in percentage DLHS-4": 72.1,
      "Prevalence of Chronic illness in percentage DLHS-4": 2.9,
      "Households with solar energy as main source of lighting in percentage Houselisting and Housing Census Data Tables- District Level , Census of India__1": 0.0838,
      "Marginal Workers Agricultural Labourers worked for 0 - 3 moths during last year - Females": 9417,
      "Main Workers - Males": 1017443,
      "Female": 79.02,
      "Sno": 1574,
      "Marginal Workers Other worked for 3 - 6 moths during last year - Females": 58171,
      "Marginal Workers Cultivators worked for 0 - 3 moths during last year - Females": 715,
      "Scheduled Tribe Males": 20605,
      "Male Illiterates": 401497,
      "Prevalence of Severe Anaemia in pregnant women aged 15-49years in percentage DLHS-4": 4.2,
      "0-6 Age Group Persons": 431574,
      "Upper Primary Student-Classroom Ratio in percentage DISE": 20,
      "Currently married men married below 21years of age in percentage DLHS-4": 3.5,
      "Male Literates": 1611461,
      "Households with no lighting in percentage Houselisting and Housing Census Data Tables- District Level , Census of India__2": 0.337690643,
      "Primary Drop Out Rate in percentage DISE": "Not available",
      "Marginal Workers Household Industry - Males": 5221,
      "Female Illiterates": 583373,
      "Main Workers Other - Females": 244949,
      "Marginal Workers Cultivators - Persons": 14582,
      "Upper Primary Gross Enrolment Ratio in percentage DISE": 100.8,
      "Scheduled Caste Persons": 948081,
      "Marginal Workers Cultivators worked for 3 - 6 moths during last year - Persons": 12864,
      "Households with landline phone in percentage": 6.44,
      "Total Households in District  Houselisting and Housing Census Data Tables- District Level , Census of India": 993809,
      "Upper Primary Pupil-Teacher Ratio in percentage DISE": 17,
      "Primary Student-Classroom Ratio in percentage DISE": 18,
      "Primary Schools with boys toilet in percentage DISE": 96,
      "Mean number of children ever born to women aged 40-49years  DLHS-4": 2.5,
      "Households receiving untreated tap water within premises  Houselisting and Housing Census Data Tables- District Level , Census of India__5": 41049,
      "Marginal Workers Household Industry worked for 0 - 3 moths during last year - Persons": 3289,
      "Total Male Population": 2012958,
      "Non Workers - Females": 1492788,
      "Current use of family planning methods in percentage DLHS-4": 60.2,
      "Households with main source of drinking water within premises  Houselisting and Housing Census Data Tables- District Level , Census of India__3": 435671,
      "Main Workers Agricultural Labourers - Males": 92427,
      "Marginal Workers Other worked for 0 - 3 moths during last year - Persons": 24960,
      "Currently married women married below 18years of age in percentage DLHS-4": 2.1,
      "Person Illiterates": 984870,
      "Main Workers Household Industry - Females": 15170,
      "Female Literates": 1401921,
      "Marginal Workers Cultivators worked for 0 - 3 moths during last year - Males": 1003,
      "Male": 89.89,
      "Households with improved source of drinking water in percentage DLHS-4": 98.4,
      "Upper Primary Schools with electricity in percentage DISE": 100,
      "Households with electricity in percentage DLHS-4": 99.4,
      "Villages with Primary Health Centre within 10km in percentage DLHS-4": 84,
      "Births to women aged 15-19years out of Total births in percentage DLHS-4": 1.5,
      "Prevalence of Anaemia in women aged 15-49years in percentage DLHS-4": 55.5,
      "Marginal Workers Agricultural Labourers worked for 3 - 6 moths during last year - Persons": 94724,
      "Main Workers Household Industry - Males": 25979,
      "Scheduled Tribe Females": 20605,
      "Marginal Workers worked for 0 - 3 moths during last year - Males": 22863,
      "Marginal Workers Other worked for 3 - 6 moths during last year - Males": 85120,
      "Primary Net Enrolment Ratio in percentage DISE": 90.1,
      "Total": 84.49,
      "Mean age at marriage for boys DLHS-4": 26.7,
      "Number of District Hospitals  DLHS-4": 1,
      "0-6 Age Group Females": 211233,
      "Marginal Workers Agricultural Labourers worked for 0 - 3 moths during last year - Persons": 15296,
      "Marginal Workers Household Industry worked for 0 - 3 moths during last year - Males": 1219,
      "Total Workers  Females": 492506,
      "Marginal Workers worked for 3 - 6 moths during last year - Females": 120171,
      "Institutional Deliveries in percentage DLHS-4": 100,
      "Marginal Workers Other - Males": 99882,
      "Total Workers  Males": 1181308,
      "Main Workers - Females": 349935,
      "Primary Gross Enrolment Ratio in percentage DISE": 106.5,
      "Main Workers Cultivators - Persons": 74761,
      "Marginal Workers Household Industry worked for 0 - 3 moths during last year - Females": 2070,
      "Upper Primary Net Enrolment Ratio in percentage DISE": 80.6,
      "Primary New Government Schools since 2003 in percentage DISE": 4,
      "Tier": "Total",
      "Marginal Workers Household Industry - Females": 8362,
      "Primary Schools with electricity in percentage DISE": 98.8,
      "Main Workers Other - Persons": 1088974,
      "Marginal Workers Household Industry worked for 3 - 6 moths during last year - Females": 6292,
      "Main Workers Cultivators - Males": 55012,
      "Main Workers Household Industry - Persons": 41149,
      "Marginal Workers Cultivators worked for 0 - 3 moths during last year - Persons": 1718,
      "Scheduled Caste Males": 474264,
      "Marginal Workers - Persons": 306436,
      "Deliveries at home conducted by skilled health personnel in percentage DLHS-4": 0,
      "Villages with Sub-Health Centres within 3km in percentage DLHS-4": 68,
      "Upper Primary New Government Schools since 2003 in percentage DISE": 0,
      "0-6 Age Group Males": 220341,
      "Primary Schools with drinking water facility in percentage DISE": 100,
      "Non Workers - Persons": 2324438,
      "Person Literates": 3013382,
      "State": "TAMIL NADU",
      "Total Female Population": 1985294,
      "Marginal Workers worked for 0 - 3 moths during last year - Persons": 45263,
      "Marginal Workers Cultivators - Females": 5750,
      "Marginal Workers Other - Persons": 168251,
      "Sex Ratio": 986,
      "Scheduled Tribe Persons": 41210,
      "Marginal Workers Household Industry worked for 3 - 6 moths during last year - Males": 4002,
      "Marginal Workers Agricultural Labourers - Females": 60090,
      "Mean age at marriage for girls DLHS-4": 21.9,
      "Households with solar energy as main source of lighting  Houselisting and Housing Census Data Tables- District Level , Census of India__4": 833,
      "District": "KANCHEEPURAM",
      "Households receiving treated tap water within premises in percentage Houselisting and Housing Census Data Tables- District Level , Census of India__1": 27.02018195,
      "Total Workers  Persons": 1673814,
      "Households receiving treated tap water within premises  Houselisting and Housing Census Data Tables- District Level , Census of India__4": 268529,
      "Primary Female Teachers in percentage DISE": 89.2,
      "Number of Households": 1006245,
      "Main Workers Agricultural Labourers - Persons": 162494
    }
  ],
  "Rural": [
    {
      "Marginal Workers Agricultural Labourers - Persons": 100333,
      "Marginal Workers Other - Females": 29149,
      "Marginal Workers Other worked for 0 - 3 moths during last year - Females": 5651,
      "Upper Primary Schools with boys toilet in percentage DISE": "NA",
      "Total Population": 1459916,
      "Households with electricity as main source of lighting in percentage Houselisting and Housing Census Data Tables- District Level , Census of India": 94.41175143,
      "Primary Girl's Enrolment in percentage DISE": "NA",
      "Marginal Workers worked for 3 - 6 moths during last year - Males": 79522,
      "Prevalence of Acute illness in percentage DLHS-4": 2.1,
      "Main Workers - Persons": 490908,
      "Main Workers Cultivators - Females": 17717,
      "Marginal Workers Agricultural Labourers worked for 3 - 6 moths during last year - Females": 46776,
      "Marginal Workers Other worked for 0 - 3 moths during last year - Males": 6315,
      "Upper Primary Schools with drinking water facility in percentage DISE": "NA",
      "Primary Schools with girls toilet in percentage DISE": "NA",
      "Marginal Workers worked for 3 - 6 moths during last year - Persons": 157530,
      "Upper Primary Drop Out Rate in percentage DISE": "NA",
      "Prevalence of Anaemia in pregnant women aged 15-49years in percentage DLHS-4": 61.3,
      "Current use of any modern method of family planning in percentage DLHS-4": 65.6,
      "Marginal Workers Agricultural Labourers - Males": 44642,
      "Upper Primary Female Teachers in percentage DISE": "NA",
      "Marginal Workers - Females": 94601,
      "Marginal Workers Other worked for 3 - 6 moths during last year - Persons": 55039,
      "Main Workers Agricultural Labourers - Females": 63721,
      "Marginal Workers Cultivators worked for 3 - 6 moths during last year - Females": 4259,
      "Households with no lighting  Houselisting and Housing Census Data Tables- District Level , Census of India__5": 1806,
      "Prevalence of Severe Anaemia  in percentage DLHS-4": 7.6,
      "Total unmet need for family planning in percentage DLHS-4": 27.31,
      "Main Workers Other - Males": 203099,
      "Children who received full vaccination in percentage DLHS-4": 56.5,
      "Marginal Workers Household Industry - Persons": 7578,
      "Primary Pupil-Teacher Ratio in percentage DISE": "NA",
      "Marginal Workers Agricultural Labourers worked for 3 - 6 moths during last year - Males": 39301,
      "Scheduled Caste Females": 275277,
      "Marginal Workers Cultivators - Males": 7484,
      "Marginal Workers - Males": 92742,
      "Marginal Workers worked for 0 - 3 moths during last year - Females": 16593,
      "Households with main source of drinking water within premises in percentage Houselisting and Housing Census Data Tables- District Level , Census of India": 24.66062583,
      "Marginal Workers Household Industry worked for 3 - 6 moths during last year - Persons": 5598,
      "Upper Primary Girl's Enrolment in percentage DISE": "NA",
      "Prevalence of Severe Anaemia in women aged 15-49years in percentage DLHS-4": 2.9,
      "Marginal Workers Agricultural Labourers worked for 0 - 3 moths during last year - Males": 5341,
      "Households with electricity as main source of lighting  Houselisting and Housing Census Data Tables- District Level , Census of India__3": 334667,
      "Households with computer or laptop with internet connection in percentage": 2.26,
      "PHCs functioning on a 24x7hours basis in percentage DLHS-4": "Not applicable",
      "Non Workers - Males": 300651,
      "Total Households in District Houselisting and Housing Census Data Tables- District Level , Census of India": 354476,
      "Upper Primary Schools with girls toilet in percentage DISE": "NA",
      "Households with mobile phone in percentage": 63.72,
      "Households receiving untreated tap water within premises in percentage Houselisting and Housing Census Data Tables- District Level , Census of India__2": 4.095904941,
      "Marginal Workers Cultivators worked for 3 - 6 moths during last year - Males": 6557,
      "Prevalence of Anaemia  in percentage DLHS-4": 74.2,
      "Prevalence of Chronic illness in percentage DLHS-4": 2.5,
      "Households with solar energy as main source of lighting in percentage Houselisting and Housing Census Data Tables- District Level , Census of India__1": 0.0745,
      "Marginal Workers Agricultural Labourers worked for 0 - 3 moths during last year - Females": 8915,
      "Main Workers - Males": 341586,
      "Female": "NA",
      "Sno": 1573,
      "Marginal Workers Other worked for 3 - 6 moths during last year - Females": 23498,
      "Marginal Workers Cultivators worked for 0 - 3 moths during last year - Females": 684,
      "Scheduled Tribe Males": 13486,
      "Male Illiterates": 187985,
      "Prevalence of Severe Anaemia in pregnant women aged 15-49years in percentage DLHS-4": 6.5,
      "0-6 Age Group Persons": 158626,
      "Upper Primary Student-Classroom Ratio in percentage DISE": "NA",
      "Currently married men married below 21years of age in percentage DLHS-4": 5.3,
      "Male Literates": 546994,
      "Households with no lighting in percentage Houselisting and Housing Census Data Tables- District Level , Census of India__2": 0.509484422,
      "Primary Drop Out Rate in percentage DISE": "NA",
      "Marginal Workers Household Industry - Males": 2760,
      "Female Illiterates": 283553,
      "Main Workers Other - Females": 61963,
      "Marginal Workers Cultivators - Persons": 12427,
      "Upper Primary Gross Enrolment Ratio in percentage DISE": "NA",
      "Scheduled Caste Persons": 550997,
      "Marginal Workers Cultivators worked for 3 - 6 moths during last year - Persons": 10816,
      "Households with landline phone in percentage": 4.31,
      "Total Households in District  Houselisting and Housing Census Data Tables- District Level , Census of India": 354476,
      "Upper Primary Pupil-Teacher Ratio in percentage DISE": "NA",
      "Primary Student-Classroom Ratio in percentage DISE": "NA",
      "Primary Schools with boys toilet in percentage DISE": "NA",
      "Mean number of children ever born to women aged 40-49years  DLHS-4": 2.9,
      "Households receiving untreated tap water within premises  Houselisting and Housing Census Data Tables- District Level , Census of India__5": 14519,
      "Marginal Workers Household Industry worked for 0 - 3 moths during last year - Persons": 1980,
      "Total Male Population": 734979,
      "Non Workers - Females": 481014,
      "Current use of family planning methods in percentage DLHS-4": 66,
      "Households with main source of drinking water within premises  Houselisting and Housing Census Data Tables- District Level , Census of India__3": 87416,
      "Main Workers Agricultural Labourers - Males": 80806,
      "Marginal Workers Other worked for 0 - 3 moths during last year - Persons": 11966,
      "Currently married women married below 18years of age in percentage DLHS-4": 1.5,
      "Person Illiterates": 471538,
      "Main Workers Household Industry - Females": 5921,
      "Female Literates": 441384,
      "Marginal Workers Cultivators worked for 0 - 3 moths during last year - Males": 927,
      "Male": "NA",
      "Households with improved source of drinking water in percentage DLHS-4": 99,
      "Upper Primary Schools with electricity in percentage DISE": "NA",
      "Households with electricity in percentage DLHS-4": 99.4,
      "Villages with Primary Health Centre within 10km in percentage DLHS-4": "Not applicable",
      "Births to women aged 15-19years out of Total births in percentage DLHS-4": 1.2,
      "Prevalence of Anaemia in women aged 15-49years in percentage DLHS-4": 53.2,
      "Marginal Workers Agricultural Labourers worked for 3 - 6 moths during last year - Persons": 86077,
      "Main Workers Household Industry - Males": 8751,
      "Scheduled Tribe Females": 13571,
      "Marginal Workers worked for 0 - 3 moths during last year - Males": 13220,
      "Marginal Workers Other worked for 3 - 6 moths during last year - Males": 31541,
      "Primary Net Enrolment Ratio in percentage DISE": "NA",
      "Total": "NA",
      "Mean age at marriage for boys DLHS-4": 25.7,
      "Number of District Hospitals  DLHS-4": "Not applicable",
      "0-6 Age Group Females": 77727,
      "Marginal Workers Agricultural Labourers worked for 0 - 3 moths during last year - Persons": 14256,
      "Marginal Workers Household Industry worked for 0 - 3 moths during last year - Males": 637,
      "Total Workers  Females": 243923,
      "Marginal Workers worked for 3 - 6 moths during last year - Females": 78008,
      "Institutional Deliveries in percentage DLHS-4": 100,
      "Marginal Workers Other - Males": 37856,
      "Total Workers  Males": 434328,
      "Main Workers - Females": 149322,
      "Primary Gross Enrolment Ratio in percentage DISE": "NA",
      "Main Workers Cultivators - Persons": 66647,
      "Marginal Workers Household Industry worked for 0 - 3 moths during last year - Females": 1343,
      "Upper Primary Net Enrolment Ratio in percentage DISE": "NA",
      "Primary New Government Schools since 2003 in percentage DISE": "NA",
      "Tier": "Rural",
      "Marginal Workers Household Industry - Females": 4818,
      "Primary Schools with electricity in percentage DISE": "NA",
      "Main Workers Other - Persons": 265062,
      "Marginal Workers Household Industry worked for 3 - 6 moths during last year - Females": 3475,
      "Main Workers Cultivators - Males": 48930,
      "Main Workers Household Industry - Persons": 14672,
      "Marginal Workers Cultivators worked for 0 - 3 moths during last year - Persons": 1611,
      "Scheduled Caste Males": 275720,
      "Marginal Workers - Persons": 187343,
      "Deliveries at home conducted by skilled health personnel in percentage DLHS-4": 0,
      "Villages with Sub-Health Centres within 3km in percentage DLHS-4": "Not applicable",
      "Upper Primary New Government Schools since 2003 in percentage DISE": "NA",
      "0-6 Age Group Males": 80899,
      "Primary Schools with drinking water facility in percentage DISE": "NA",
      "Non Workers - Persons": 781665,
      "Person Literates": 988378,
      "State": "TAMIL NADU",
      "Total Female Population": 724937,
      "Marginal Workers worked for 0 - 3 moths during last year - Persons": 29813,
      "Marginal Workers Cultivators - Females": 4943,
      "Marginal Workers Other - Persons": 67005,
      "Sex Ratio": 986,
      "Scheduled Tribe Persons": 27057,
      "Marginal Workers Household Industry worked for 3 - 6 moths during last year - Males": 2123,
      "Marginal Workers Agricultural Labourers - Females": 55691,
      "Mean age at marriage for girls DLHS-4": 21.8,
      "Households with solar energy as main source of lighting  Houselisting and Housing Census Data Tables- District Level , Census of India__4": 264,
      "District": "KANCHEEPURAM",
      "Households receiving treated tap water within premises in percentage Houselisting and Housing Census Data Tables- District Level , Census of India__1": 15.50796105,
      "Total Workers  Persons": 678251,
      "Households receiving treated tap water within premises  Houselisting and Housing Census Data Tables- District Level , Census of India__4": 54972,
      "Primary Female Teachers in percentage DISE": "NA",
      "Number of Households": 361365,
      "Main Workers Agricultural Labourers - Persons": 144527
    }
  ],
  "Urban": [
    {
      "Marginal Workers Agricultural Labourers - Persons": 9687,
      "Marginal Workers Other - Females": 39220,
      "Marginal Workers Other worked for 0 - 3 moths during last year - Females": 4547,
      "Upper Primary Schools with boys toilet in percentage DISE": "NA",
      "Total Population": 2538336,
      "Households with electricity as main source of lighting in percentage Houselisting and Housing Census Data Tables- District Level , Census of India": 97.99181334,
      "Primary Girl's Enrolment in percentage DISE": "NA",
      "Marginal Workers worked for 3 - 6 moths during last year - Males": 61480,
      "Prevalence of Acute illness in percentage DLHS-4": "Not available",
      "Main Workers - Persons": 876470,
      "Main Workers Cultivators - Females": 2032,
      "Marginal Workers Agricultural Labourers worked for 3 - 6 moths during last year - Females": 3897,
      "Marginal Workers Other worked for 0 - 3 moths during last year - Males": 8447,
      "Upper Primary Schools with drinking water facility in percentage DISE": "NA",
      "Primary Schools with girls toilet in percentage DISE": "NA",
      "Marginal Workers worked for 3 - 6 moths during last year - Persons": 103643,
      "Upper Primary Drop Out Rate in percentage DISE": "NA",
      "Prevalence of Anaemia in pregnant women aged 15-49years in percentage DLHS-4": "Not available",
      "Current use of any modern method of family planning in percentage DLHS-4": "Not available",
      "Marginal Workers Agricultural Labourers - Males": 5288,
      "Upper Primary Female Teachers in percentage DISE": "NA",
      "Marginal Workers - Females": 47970,
      "Marginal Workers Other worked for 3 - 6 moths during last year - Persons": 88252,
      "Main Workers Agricultural Labourers - Females": 6346,
      "Marginal Workers Cultivators worked for 3 - 6 moths during last year - Females": 776,
      "Households with no lighting  Houselisting and Housing Census Data Tables- District Level , Census of India__5": 1550,
      "Prevalence of Severe Anaemia  in percentage DLHS-4": "Not available",
      "Total unmet need for family planning in percentage DLHS-4": "Not available",
      "Main Workers Other - Males": 640926,
      "Children who received full vaccination in percentage DLHS-4": "Not available",
      "Marginal Workers Household Industry - Persons": 6005,
      "Primary Pupil-Teacher Ratio in percentage DISE": "NA",
      "Marginal Workers Agricultural Labourers worked for 3 - 6 moths during last year - Males": 4750,
      "Scheduled Caste Females": 198540,
      "Marginal Workers Cultivators - Males": 1348,
      "Marginal Workers - Males": 71123,
      "Marginal Workers worked for 0 - 3 moths during last year - Females": 5807,
      "Households with main source of drinking water within premises in percentage Houselisting and Housing Census Data Tables- District Level , Census of India": 54.47161338,
      "Marginal Workers Household Industry worked for 3 - 6 moths during last year - Persons": 4696,
      "Upper Primary Girl's Enrolment in percentage DISE": "NA",
      "Prevalence of Severe Anaemia in women aged 15-49years in percentage DLHS-4": "Not available",
      "Marginal Workers Agricultural Labourers worked for 0 - 3 moths during last year - Males": 538,
      "Households with electricity as main source of lighting  Houselisting and Housing Census Data Tables- District Level , Census of India__3": 626494,
      "Households with computer or laptop with internet connection in percentage": 14.44,
      "PHCs functioning on a 24x7hours basis in percentage DLHS-4": 0,
      "Non Workers - Males": 530999,
      "Total Households in District Houselisting and Housing Census Data Tables- District Level , Census of India": 639333,
      "Upper Primary Schools with girls toilet in percentage DISE": "NA",
      "Households with mobile phone in percentage": 68.74,
      "Households receiving untreated tap water within premises in percentage Houselisting and Housing Census Data Tables- District Level , Census of India__2": 4.1496372,
      "Marginal Workers Cultivators worked for 3 - 6 moths during last year - Males": 1272,
      "Prevalence of Anaemia  in percentage DLHS-4": "Not available",
      "Prevalence of Chronic illness in percentage DLHS-4": "Not available",
      "Households with solar energy as main source of lighting in percentage Houselisting and Housing Census Data Tables- District Level , Census of India__1": 0.089,
      "Marginal Workers Agricultural Labourers worked for 0 - 3 moths during last year - Females": 502,
      "Main Workers - Males": 675857,
      "Female": "NA",
      "Sno": 1575,
      "Marginal Workers Other worked for 3 - 6 moths during last year - Females": 34673,
      "Marginal Workers Cultivators worked for 0 - 3 moths during last year - Females": 31,
      "Scheduled Tribe Males": 7119,
      "Male Illiterates": 213512,
      "Prevalence of Severe Anaemia in pregnant women aged 15-49years in percentage DLHS-4": "Not available",
      "0-6 Age Group Persons": 272948,
      "Upper Primary Student-Classroom Ratio in percentage DISE": "NA",
      "Currently married men married below 21years of age in percentage DLHS-4": "Not available",
      "Male Literates": 1064467,
      "Households with no lighting in percentage Houselisting and Housing Census Data Tables- District Level , Census of India__2": 0.242440168,
      "Primary Drop Out Rate in percentage DISE": "NA",
      "Marginal Workers Household Industry - Males": 2461,
      "Female Illiterates": 299820,
      "Main Workers Other - Females": 182986,
      "Marginal Workers Cultivators - Persons": 2155,
      "Upper Primary Gross Enrolment Ratio in percentage DISE": "NA",
      "Scheduled Caste Persons": 397084,
      "Marginal Workers Cultivators worked for 3 - 6 moths during last year - Persons": 2048,
      "Households with landline phone in percentage": 7.62,
      "Total Households in District  Houselisting and Housing Census Data Tables- District Level , Census of India": 639333,
      "Upper Primary Pupil-Teacher Ratio in percentage DISE": "NA",
      "Primary Student-Classroom Ratio in percentage DISE": "NA",
      "Primary Schools with boys toilet in percentage DISE": "NA",
      "Mean number of children ever born to women aged 40-49years  DLHS-4": "Not available",
      "Households receiving untreated tap water within premises  Houselisting and Housing Census Data Tables- District Level , Census of India__5": 26530,
      "Marginal Workers Household Industry worked for 0 - 3 moths during last year - Persons": 1309,
      "Total Male Population": 1277979,
      "Non Workers - Females": 1011774,
      "Current use of family planning methods in percentage DLHS-4": "Not available",
      "Households with main source of drinking water within premises  Houselisting and Housing Census Data Tables- District Level , Census of India__3": 348255,
      "Main Workers Agricultural Labourers - Males": 11621,
      "Marginal Workers Other worked for 0 - 3 moths during last year - Persons": 12994,
      "Currently married women married below 18years of age in percentage DLHS-4": "Not available",
      "Person Illiterates": 513332,
      "Main Workers Household Industry - Females": 9249,
      "Female Literates": 960537,
      "Marginal Workers Cultivators worked for 0 - 3 moths during last year - Males": 76,
      "Male": "NA",
      "Households with improved source of drinking water in percentage DLHS-4": "Not available",
      "Upper Primary Schools with electricity in percentage DISE": "NA",
      "Households with electricity in percentage DLHS-4": "Not available",
      "Villages with Primary Health Centre within 10km in percentage DLHS-4": 0,
      "Births to women aged 15-19years out of Total births in percentage DLHS-4": "Not available",
      "Prevalence of Anaemia in women aged 15-49years in percentage DLHS-4": "Not available",
      "Marginal Workers Agricultural Labourers worked for 3 - 6 moths during last year - Persons": 8647,
      "Main Workers Household Industry - Males": 17228,
      "Scheduled Tribe Females": 7034,
      "Marginal Workers worked for 0 - 3 moths during last year - Males": 9643,
      "Marginal Workers Other worked for 3 - 6 moths during last year - Males": 53579,
      "Primary Net Enrolment Ratio in percentage DISE": "NA",
      "Total": "NA",
      "Mean age at marriage for boys DLHS-4": "Not available",
      "Number of District Hospitals  DLHS-4": 0,
      "0-6 Age Group Females": 133506,
      "Marginal Workers Agricultural Labourers worked for 0 - 3 moths during last year - Persons": 1040,
      "Marginal Workers Household Industry worked for 0 - 3 moths during last year - Males": 582,
      "Total Workers  Females": 248583,
      "Marginal Workers worked for 3 - 6 moths during last year - Females": 42163,
      "Institutional Deliveries in percentage DLHS-4": "Not available",
      "Marginal Workers Other - Males": 62026,
      "Total Workers  Males": 746980,
      "Main Workers - Females": 200613,
      "Primary Gross Enrolment Ratio in percentage DISE": "NA",
      "Main Workers Cultivators - Persons": 8114,
      "Marginal Workers Household Industry worked for 0 - 3 moths during last year - Females": 727,
      "Upper Primary Net Enrolment Ratio in percentage DISE": "NA",
      "Primary New Government Schools since 2003 in percentage DISE": "NA",
      "Tier": "Urban",
      "Marginal Workers Household Industry - Females": 3544,
      "Primary Schools with electricity in percentage DISE": "NA",
      "Main Workers Other - Persons": 823912,
      "Marginal Workers Household Industry worked for 3 - 6 moths during last year - Females": 2817,
      "Main Workers Cultivators - Males": 6082,
      "Main Workers Household Industry - Persons": 26477,
      "Marginal Workers Cultivators worked for 0 - 3 moths during last year - Persons": 107,
      "Scheduled Caste Males": 198544,
      "Marginal Workers - Persons": 119093,
      "Deliveries at home conducted by skilled health personnel in percentage DLHS-4": "Not available",
      "Villages with Sub-Health Centres within 3km in percentage DLHS-4": 0,
      "Upper Primary New Government Schools since 2003 in percentage DISE": "NA",
      "0-6 Age Group Males": 139442,
      "Primary Schools with drinking water facility in percentage DISE": "NA",
      "Non Workers - Persons": 1542773,
      "Person Literates": 2025004,
      "State": "TAMIL NADU",
      "Total Female Population": 1260357,
      "Marginal Workers worked for 0 - 3 moths during last year - Persons": 15450,
      "Marginal Workers Cultivators - Females": 807,
      "Marginal Workers Other - Persons": 101246,
      "Sex Ratio": 986,
      "Scheduled Tribe Persons": 14153,
      "Marginal Workers Household Industry worked for 3 - 6 moths during last year - Males": 1879,
      "Marginal Workers Agricultural Labourers - Females": 4399,
      "Mean age at marriage for girls DLHS-4": "Not available",
      "Households with solar energy as main source of lighting  Houselisting and Housing Census Data Tables- District Level , Census of India__4": 569,
      "District": "KANCHEEPURAM",
      "Households receiving treated tap water within premises in percentage Houselisting and Housing Census Data Tables- District Level , Census of India__1": 33.40309354,
      "Total Workers  Persons": 995563,
      "Households receiving treated tap water within premises  Houselisting and Housing Census Data Tables- District Level , Census of India__4": 213557,
      "Primary Female Teachers in percentage DISE": "NA",
      "Number of Households": 644880,
      "Main Workers Agricultural Labourers - Persons": 17967
    }
  ]
}