{
  "Total": [
    {
      "Marginal Workers Agricultural Labourers - Persons": 65959,
      "Marginal Workers Other - Females": 19011,
      "Marginal Workers Other worked for 0 - 3 moths during last year - Females": 3439,
      "Upper Primary Schools with boys toilet in percentage DISE": 100,
      "Total Population": 1879809,
      "Households with electricity as main source of lighting in percentage Houselisting and Housing Census Data Tables- District Level , Census of India": 90.92902756,
      "Primary Girl's Enrolment in percentage DISE": 49.8,
      "Marginal Workers worked for 3 - 6 moths during last year - Males": 57601,
      "Prevalence of Acute illness in percentage DLHS-4": 3.3,
      "Main Workers - Persons": 742001,
      "Main Workers Cultivators - Females": 77754,
      "Marginal Workers Agricultural Labourers worked for 3 - 6 moths during last year - Females": 32520,
      "Marginal Workers Other worked for 0 - 3 moths during last year - Males": 4141,
      "Upper Primary Schools with drinking water facility in percentage DISE": 100,
      "Primary Schools with girls toilet in percentage DISE": 97.5,
      "Marginal Workers worked for 3 - 6 moths during last year - Persons": 115537,
      "Upper Primary Drop Out Rate in percentage DISE": 2.66,
      "Prevalence of Anaemia in pregnant women aged 15-49years in percentage DLHS-4": 43.7,
      "Current use of any modern method of family planning in percentage DLHS-4": 56.3,
      "Marginal Workers Agricultural Labourers - Males": 28313,
      "Upper Primary Female Teachers in percentage DISE": 81.8,
      "Marginal Workers - Females": 68553,
      "Marginal Workers Other worked for 3 - 6 moths during last year - Persons": 38120,
      "Main Workers Agricultural Labourers - Females": 95256,
      "Marginal Workers Cultivators worked for 3 - 6 moths during last year - Females": 6493,
      "Households with no lighting  Houselisting and Housing Census Data Tables- District Level , Census of India__5": 2756,
      "Prevalence of Severe Anaemia  in percentage DLHS-4": 2.8,
      "Total unmet need for family planning in percentage DLHS-4": 21.9,
      "Main Workers Other - Males": 244404,
      "Children who received full vaccination in percentage DLHS-4": 72.7,
      "Marginal Workers Household Industry - Persons": 6681,
      "Primary Pupil-Teacher Ratio in percentage DISE": 22,
      "Marginal Workers Agricultural Labourers worked for 3 - 6 moths during last year - Males": 24723,
      "Scheduled Caste Females": 131912,
      "Marginal Workers Cultivators - Males": 9982,
      "Marginal Workers - Males": 67225,
      "Marginal Workers worked for 0 - 3 moths during last year - Females": 10617,
      "Households with main source of drinking water within premises in percentage Houselisting and Housing Census Data Tables- District Level , Census of India": 18.85206927,
      "Marginal Workers Household Industry worked for 3 - 6 moths during last year - Persons": 4913,
      "Upper Primary Girl's Enrolment in percentage DISE": 38.2,
      "Prevalence of Severe Anaemia in women aged 15-49years in percentage DLHS-4": 2,
      "Marginal Workers Agricultural Labourers worked for 0 - 3 moths during last year - Males": 3590,
      "Households with electricity as main source of lighting  Houselisting and Housing Census Data Tables- District Level , Census of India__3": 409237,
      "Households with computer or laptop with internet connection in percentage": 2.14,
      "PHCs functioning on a 24x7hours basis in percentage DLHS-4": 89.5,
      "Non Workers - Males": 398598,
      "Total Households in District Houselisting and Housing Census Data Tables- District Level , Census of India": 450062,
      "Upper Primary Schools with girls toilet in percentage DISE": 100,
      "Households with mobile phone in percentage": 62.99,
      "Households receiving untreated tap water within premises in percentage Houselisting and Housing Census Data Tables- District Level , Census of India__2": 2.795837018,
      "Marginal Workers Cultivators worked for 3 - 6 moths during last year - Males": 8768,
      "Prevalence of Anaemia  in percentage DLHS-4": 51.8,
      "Prevalence of Chronic illness in percentage DLHS-4": 3.7,
      "Households with solar energy as main source of lighting in percentage Houselisting and Housing Census Data Tables- District Level , Census of India__1": 0.0793,
      "Marginal Workers Agricultural Labourers worked for 0 - 3 moths during last year - Females": 5126,
      "Main Workers - Males": 494409,
      "Female": 63.91,
      "Sno": 1583,
      "Marginal Workers Other worked for 3 - 6 moths during last year - Females": 15572,
      "Marginal Workers Cultivators worked for 0 - 3 moths during last year - Females": 963,
      "Scheduled Tribe Males": 11419,
      "Male Illiterates": 293170,
      "Prevalence of Severe Anaemia in pregnant women aged 15-49years in percentage DLHS-4": 2.3,
      "0-6 Age Group Persons": 217323,
      "Upper Primary Student-Classroom Ratio in percentage DISE": 36,
      "Currently married men married below 21years of age in percentage DLHS-4": 5.1,
      "Male Literates": 667062,
      "Households with no lighting in percentage Houselisting and Housing Census Data Tables- District Level , Census of India__2": 0.612360075,
      "Primary Drop Out Rate in percentage DISE": 4.6,
      "Marginal Workers Household Industry - Males": 2241,
      "Female Illiterates": 398681,
      "Main Workers Other - Females": 66391,
      "Marginal Workers Cultivators - Persons": 17438,
      "Upper Primary Gross Enrolment Ratio in percentage DISE": 92.2,
      "Scheduled Caste Persons": 267386,
      "Marginal Workers Cultivators worked for 3 - 6 moths during last year - Persons": 15261,
      "Households with landline phone in percentage": 4.53,
      "Total Households in District  Houselisting and Housing Census Data Tables- District Level , Census of India": 450062,
      "Upper Primary Pupil-Teacher Ratio in percentage DISE": 22,
      "Primary Student-Classroom Ratio in percentage DISE": 18,
      "Primary Schools with boys toilet in percentage DISE": 82,
      "Mean number of children ever born to women aged 40-49years  DLHS-4": 2.6,
      "Households receiving untreated tap water within premises  Houselisting and Housing Census Data Tables- District Level , Census of India__5": 12583,
      "Marginal Workers Household Industry worked for 0 - 3 moths during last year - Persons": 1768,
      "Total Male Population": 960232,
      "Non Workers - Females": 603432,
      "Current use of family planning methods in percentage DLHS-4": 57.3,
      "Households with main source of drinking water within premises  Houselisting and Housing Census Data Tables- District Level , Census of India__3": 84846,
      "Main Workers Agricultural Labourers - Males": 102113,
      "Marginal Workers Other worked for 0 - 3 moths during last year - Persons": 7580,
      "Currently married women married below 18years of age in percentage DLHS-4": 7.1,
      "Person Illiterates": 691851,
      "Main Workers Household Industry - Females": 8191,
      "Female Literates": 520896,
      "Marginal Workers Cultivators worked for 0 - 3 moths during last year - Males": 1214,
      "Male": 78.72,
      "Households with improved source of drinking water in percentage DLHS-4": 93.8,
      "Upper Primary Schools with electricity in percentage DISE": 100,
      "Households with electricity in percentage DLHS-4": 98.6,
      "Villages with Primary Health Centre within 10km in percentage DLHS-4": 90.5,
      "Births to women aged 15-19years out of Total births in percentage DLHS-4": 2.8,
      "Prevalence of Anaemia in women aged 15-49years in percentage DLHS-4": 38.1,
      "Marginal Workers Agricultural Labourers worked for 3 - 6 moths during last year - Persons": 57243,
      "Main Workers Household Industry - Males": 7046,
      "Scheduled Tribe Females": 10969,
      "Marginal Workers worked for 0 - 3 moths during last year - Males": 9624,
      "Marginal Workers Other worked for 3 - 6 moths during last year - Males": 22548,
      "Primary Net Enrolment Ratio in percentage DISE": 83.6,
      "Total": 71.46,
      "Mean age at marriage for boys DLHS-4": 25.9,
      "Number of District Hospitals  DLHS-4": 1,
      "0-6 Age Group Females": 104491,
      "Marginal Workers Agricultural Labourers worked for 0 - 3 moths during last year - Persons": 8716,
      "Marginal Workers Household Industry worked for 0 - 3 moths during last year - Males": 679,
      "Total Workers  Females": 316145,
      "Marginal Workers worked for 3 - 6 moths during last year - Females": 57936,
      "Institutional Deliveries in percentage DLHS-4": 98.2,
      "Marginal Workers Other - Males": 26689,
      "Total Workers  Males": 561634,
      "Main Workers - Females": 247592,
      "Primary Gross Enrolment Ratio in percentage DISE": 104.4,
      "Main Workers Cultivators - Persons": 218600,
      "Marginal Workers Household Industry worked for 0 - 3 moths during last year - Females": 1089,
      "Upper Primary Net Enrolment Ratio in percentage DISE": 71,
      "Primary New Government Schools since 2003 in percentage DISE": 10.8,
      "Tier": "Total",
      "Marginal Workers Household Industry - Females": 4440,
      "Primary Schools with electricity in percentage DISE": 98.5,
      "Main Workers Other - Persons": 310795,
      "Marginal Workers Household Industry worked for 3 - 6 moths during last year - Females": 3351,
      "Main Workers Cultivators - Males": 140846,
      "Main Workers Household Industry - Persons": 15237,
      "Marginal Workers Cultivators worked for 0 - 3 moths during last year - Persons": 2177,
      "Scheduled Caste Males": 135474,
      "Marginal Workers - Persons": 135778,
      "Deliveries at home conducted by skilled health personnel in percentage DLHS-4": 0,
      "Villages with Sub-Health Centres within 3km in percentage DLHS-4": 85.7,
      "Upper Primary New Government Schools since 2003 in percentage DISE": 0,
      "0-6 Age Group Males": 112832,
      "Primary Schools with drinking water facility in percentage DISE": 100,
      "Non Workers - Persons": 1002030,
      "Person Literates": 1187958,
      "State": "TAMIL NADU",
      "Total Female Population": 919577,
      "Marginal Workers worked for 0 - 3 moths during last year - Persons": 20241,
      "Marginal Workers Cultivators - Females": 7456,
      "Marginal Workers Other - Persons": 45700,
      "Sex Ratio": 958,
      "Scheduled Tribe Persons": 22388,
      "Marginal Workers Household Industry worked for 3 - 6 moths during last year - Males": 1562,
      "Marginal Workers Agricultural Labourers - Females": 37646,
      "Mean age at marriage for girls DLHS-4": 20.8,
      "Households with solar energy as main source of lighting  Houselisting and Housing Census Data Tables- District Level , Census of India__4": 357,
      "District": "KRISHNAGIRI",
      "Households receiving treated tap water within premises in percentage Houselisting and Housing Census Data Tables- District Level , Census of India__1": 11.18379246,
      "Total Workers  Persons": 877779,
      "Households receiving treated tap water within premises  Houselisting and Housing Census Data Tables- District Level , Census of India__4": 50334,
      "Primary Female Teachers in percentage DISE": 72.9,
      "Number of Households": 448053,
      "Main Workers Agricultural Labourers - Persons": 197369
    }
  ],
  "Rural": [
    {
      "Marginal Workers Agricultural Labourers - Persons": 64025,
      "Marginal Workers Other - Females": 14983,
      "Marginal Workers Other worked for 0 - 3 moths during last year - Females": 2830,
      "Upper Primary Schools with boys toilet in percentage DISE": "NA",
      "Total Population": 1451446,
      "Households with electricity as main source of lighting in percentage Houselisting and Housing Census Data Tables- District Level , Census of India": 89.06518719,
      "Primary Girl's Enrolment in percentage DISE": "NA",
      "Marginal Workers worked for 3 - 6 moths during last year - Males": 50793,
      "Prevalence of Acute illness in percentage DLHS-4": 3,
      "Main Workers - Persons": 593454,
      "Main Workers Cultivators - Females": 76350,
      "Marginal Workers Agricultural Labourers worked for 3 - 6 moths during last year - Females": 31618,
      "Marginal Workers Other worked for 0 - 3 moths during last year - Males": 2953,
      "Upper Primary Schools with drinking water facility in percentage DISE": "NA",
      "Primary Schools with girls toilet in percentage DISE": "NA",
      "Marginal Workers worked for 3 - 6 moths during last year - Persons": 103670,
      "Upper Primary Drop Out Rate in percentage DISE": "NA",
      "Prevalence of Anaemia in pregnant women aged 15-49years in percentage DLHS-4": 48,
      "Current use of any modern method of family planning in percentage DLHS-4": 58.5,
      "Marginal Workers Agricultural Labourers - Males": 27359,
      "Upper Primary Female Teachers in percentage DISE": "NA",
      "Marginal Workers - Females": 62634,
      "Marginal Workers Other worked for 3 - 6 moths during last year - Persons": 29214,
      "Main Workers Agricultural Labourers - Females": 92750,
      "Marginal Workers Cultivators worked for 3 - 6 moths during last year - Females": 6322,
      "Households with no lighting  Houselisting and Housing Census Data Tables- District Level , Census of India__5": 2504,
      "Prevalence of Severe Anaemia  in percentage DLHS-4": 3.1,
      "Total unmet need for family planning in percentage DLHS-4": 21.9,
      "Main Workers Other - Males": 136922,
      "Children who received full vaccination in percentage DLHS-4": 75.8,
      "Marginal Workers Household Industry - Persons": 5644,
      "Primary Pupil-Teacher Ratio in percentage DISE": "NA",
      "Marginal Workers Agricultural Labourers worked for 3 - 6 moths during last year - Males": 23842,
      "Scheduled Caste Females": 107384,
      "Marginal Workers Cultivators - Males": 9746,
      "Marginal Workers - Males": 59051,
      "Marginal Workers worked for 0 - 3 moths during last year - Females": 9757,
      "Households with main source of drinking water within premises in percentage Houselisting and Housing Census Data Tables- District Level , Census of India": 9.621324393,
      "Marginal Workers Household Industry worked for 3 - 6 moths during last year - Persons": 4129,
      "Upper Primary Girl's Enrolment in percentage DISE": "NA",
      "Prevalence of Severe Anaemia in women aged 15-49years in percentage DLHS-4": 2.2,
      "Marginal Workers Agricultural Labourers worked for 0 - 3 moths during last year - Males": 3517,
      "Households with electricity as main source of lighting  Houselisting and Housing Census Data Tables- District Level , Census of India__3": 307103,
      "Households with computer or laptop with internet connection in percentage": 0.94,
      "PHCs functioning on a 24x7hours basis in percentage DLHS-4": "Not applicable",
      "Non Workers - Males": 305130,
      "Total Households in District Houselisting and Housing Census Data Tables- District Level , Census of India": 344807,
      "Upper Primary Schools with girls toilet in percentage DISE": "NA",
      "Households with mobile phone in percentage": 59.81,
      "Households receiving untreated tap water within premises in percentage Houselisting and Housing Census Data Tables- District Level , Census of India__2": 2.591014684,
      "Marginal Workers Cultivators worked for 3 - 6 moths during last year - Males": 8545,
      "Prevalence of Anaemia  in percentage DLHS-4": 51.2,
      "Prevalence of Chronic illness in percentage DLHS-4": 2.8,
      "Households with solar energy as main source of lighting in percentage Houselisting and Housing Census Data Tables- District Level , Census of India__1": 0.0861,
      "Marginal Workers Agricultural Labourers worked for 0 - 3 moths during last year - Females": 5048,
      "Main Workers - Males": 378263,
      "Female": "NA",
      "Sno": 1582,
      "Marginal Workers Other worked for 3 - 6 moths during last year - Females": 12153,
      "Marginal Workers Cultivators worked for 0 - 3 moths during last year - Females": 951,
      "Scheduled Tribe Males": 10720,
      "Male Illiterates": 247726,
      "Prevalence of Severe Anaemia in pregnant women aged 15-49years in percentage DLHS-4": 2,
      "0-6 Age Group Persons": 166231,
      "Upper Primary Student-Classroom Ratio in percentage DISE": "NA",
      "Currently married men married below 21years of age in percentage DLHS-4": 6,
      "Male Literates": 494718,
      "Households with no lighting in percentage Houselisting and Housing Census Data Tables- District Level , Census of India__2": 0.726203354,
      "Primary Drop Out Rate in percentage DISE": "NA",
      "Marginal Workers Household Industry - Males": 1932,
      "Female Illiterates": 338461,
      "Main Workers Other - Females": 39749,
      "Marginal Workers Cultivators - Persons": 17019,
      "Upper Primary Gross Enrolment Ratio in percentage DISE": "NA",
      "Scheduled Caste Persons": 217822,
      "Marginal Workers Cultivators worked for 3 - 6 moths during last year - Persons": 14867,
      "Households with landline phone in percentage": 4.07,
      "Total Households in District  Houselisting and Housing Census Data Tables- District Level , Census of India": 344807,
      "Upper Primary Pupil-Teacher Ratio in percentage DISE": "NA",
      "Primary Student-Classroom Ratio in percentage DISE": "NA",
      "Primary Schools with boys toilet in percentage DISE": "NA",
      "Mean number of children ever born to women aged 40-49years  DLHS-4": 2.8,
      "Households receiving untreated tap water within premises  Houselisting and Housing Census Data Tables- District Level , Census of India__5": 8934,
      "Marginal Workers Household Industry worked for 0 - 3 moths during last year - Persons": 1515,
      "Total Male Population": 742444,
      "Non Workers - Females": 431177,
      "Current use of family planning methods in percentage DLHS-4": 59,
      "Households with main source of drinking water within premises  Houselisting and Housing Census Data Tables- District Level , Census of India__3": 33175,
      "Main Workers Agricultural Labourers - Males": 98491,
      "Marginal Workers Other worked for 0 - 3 moths during last year - Persons": 5783,
      "Currently married women married below 18years of age in percentage DLHS-4": 8.8,
      "Person Illiterates": 586187,
      "Main Workers Household Industry - Females": 6342,
      "Female Literates": 370541,
      "Marginal Workers Cultivators worked for 0 - 3 moths during last year - Males": 1201,
      "Male": "NA",
      "Households with improved source of drinking water in percentage DLHS-4": 94.7,
      "Upper Primary Schools with electricity in percentage DISE": "NA",
      "Households with electricity in percentage DLHS-4": 98.6,
      "Villages with Primary Health Centre within 10km in percentage DLHS-4": "Not applicable",
      "Births to women aged 15-19years out of Total births in percentage DLHS-4": 4,
      "Prevalence of Anaemia in women aged 15-49years in percentage DLHS-4": 40.9,
      "Marginal Workers Agricultural Labourers worked for 3 - 6 moths during last year - Persons": 55460,
      "Main Workers Household Industry - Males": 5279,
      "Scheduled Tribe Females": 10321,
      "Marginal Workers worked for 0 - 3 moths during last year - Males": 8258,
      "Marginal Workers Other worked for 3 - 6 moths during last year - Males": 17061,
      "Primary Net Enrolment Ratio in percentage DISE": "NA",
      "Total": "NA",
      "Mean age at marriage for boys DLHS-4": 25.4,
      "Number of District Hospitals  DLHS-4": "Not applicable",
      "0-6 Age Group Females": 79670,
      "Marginal Workers Agricultural Labourers worked for 0 - 3 moths during last year - Persons": 8565,
      "Marginal Workers Household Industry worked for 0 - 3 moths during last year - Males": 587,
      "Total Workers  Females": 277825,
      "Marginal Workers worked for 3 - 6 moths during last year - Females": 52877,
      "Institutional Deliveries in percentage DLHS-4": 99.2,
      "Marginal Workers Other - Males": 20014,
      "Total Workers  Males": 437314,
      "Main Workers - Females": 215191,
      "Primary Gross Enrolment Ratio in percentage DISE": "NA",
      "Main Workers Cultivators - Persons": 213921,
      "Marginal Workers Household Industry worked for 0 - 3 moths during last year - Females": 928,
      "Upper Primary Net Enrolment Ratio in percentage DISE": "NA",
      "Primary New Government Schools since 2003 in percentage DISE": "NA",
      "Tier": "Rural",
      "Marginal Workers Household Industry - Females": 3712,
      "Primary Schools with electricity in percentage DISE": "NA",
      "Main Workers Other - Persons": 176671,
      "Marginal Workers Household Industry worked for 3 - 6 moths during last year - Females": 2784,
      "Main Workers Cultivators - Males": 137571,
      "Main Workers Household Industry - Persons": 11621,
      "Marginal Workers Cultivators worked for 0 - 3 moths during last year - Persons": 2152,
      "Scheduled Caste Males": 110438,
      "Marginal Workers - Persons": 121685,
      "Deliveries at home conducted by skilled health personnel in percentage DLHS-4": 0,
      "Villages with Sub-Health Centres within 3km in percentage DLHS-4": "Not applicable",
      "Upper Primary New Government Schools since 2003 in percentage DISE": "NA",
      "0-6 Age Group Males": 86561,
      "Primary Schools with drinking water facility in percentage DISE": "NA",
      "Non Workers - Persons": 736307,
      "Person Literates": 865259,
      "State": "TAMIL NADU",
      "Total Female Population": 709002,
      "Marginal Workers worked for 0 - 3 moths during last year - Persons": 18015,
      "Marginal Workers Cultivators - Females": 7273,
      "Marginal Workers Other - Persons": 34997,
      "Sex Ratio": 955,
      "Scheduled Tribe Persons": 21041,
      "Marginal Workers Household Industry worked for 3 - 6 moths during last year - Males": 1345,
      "Marginal Workers Agricultural Labourers - Females": 36666,
      "Mean age at marriage for girls DLHS-4": 20.2,
      "Households with solar energy as main source of lighting  Houselisting and Housing Census Data Tables- District Level , Census of India__4": 297,
      "District": "KRISHNAGIRI",
      "Households receiving treated tap water within premises in percentage Houselisting and Housing Census Data Tables- District Level , Census of India__1": 4.646367388,
      "Total Workers  Persons": 715139,
      "Households receiving treated tap water within premises  Houselisting and Housing Census Data Tables- District Level , Census of India__4": 16021,
      "Primary Female Teachers in percentage DISE": "NA",
      "Number of Households": 342859,
      "Main Workers Agricultural Labourers - Persons": 191241
    }
  ],
  "Urban": [
    {
      "Marginal Workers Agricultural Labourers - Persons": 1934,
      "Marginal Workers Other - Females": 4028,
      "Marginal Workers Other worked for 0 - 3 moths during last year - Females": 609,
      "Upper Primary Schools with boys toilet in percentage DISE": "NA",
      "Total Population": 428363,
      "Households with electricity as main source of lighting in percentage Houselisting and Housing Census Data Tables- District Level , Census of India": 97.0348202,
      "Primary Girl's Enrolment in percentage DISE": "NA",
      "Marginal Workers worked for 3 - 6 moths during last year - Males": 6808,
      "Prevalence of Acute illness in percentage DLHS-4": "Not available",
      "Main Workers - Persons": 148547,
      "Main Workers Cultivators - Females": 1404,
      "Marginal Workers Agricultural Labourers worked for 3 - 6 moths during last year - Females": 902,
      "Marginal Workers Other worked for 0 - 3 moths during last year - Males": 1188,
      "Upper Primary Schools with drinking water facility in percentage DISE": "NA",
      "Primary Schools with girls toilet in percentage DISE": "NA",
      "Marginal Workers worked for 3 - 6 moths during last year - Persons": 11867,
      "Upper Primary Drop Out Rate in percentage DISE": "NA",
      "Prevalence of Anaemia in pregnant women aged 15-49years in percentage DLHS-4": "Not available",
      "Current use of any modern method of family planning in percentage DLHS-4": "Not available",
      "Marginal Workers Agricultural Labourers - Males": 954,
      "Upper Primary Female Teachers in percentage DISE": "NA",
      "Marginal Workers - Females": 5919,
      "Marginal Workers Other worked for 3 - 6 moths during last year - Persons": 8906,
      "Main Workers Agricultural Labourers - Females": 2506,
      "Marginal Workers Cultivators worked for 3 - 6 moths during last year - Females": 171,
      "Households with no lighting  Houselisting and Housing Census Data Tables- District Level , Census of India__5": 252,
      "Prevalence of Severe Anaemia  in percentage DLHS-4": "Not available",
      "Total unmet need for family planning in percentage DLHS-4": "Not available",
      "Main Workers Other - Males": 107482,
      "Children who received full vaccination in percentage DLHS-4": "Not available",
      "Marginal Workers Household Industry - Persons": 1037,
      "Primary Pupil-Teacher Ratio in percentage DISE": "NA",
      "Marginal Workers Agricultural Labourers worked for 3 - 6 moths during last year - Males": 881,
      "Scheduled Caste Females": 24528,
      "Marginal Workers Cultivators - Males": 236,
      "Marginal Workers - Males": 8174,
      "Marginal Workers worked for 0 - 3 moths during last year - Females": 860,
      "Households with main source of drinking water within premises in percentage Houselisting and Housing Census Data Tables- District Level , Census of India": 49.09125457,
      "Marginal Workers Household Industry worked for 3 - 6 moths during last year - Persons": 784,
      "Upper Primary Girl's Enrolment in percentage DISE": "NA",
      "Prevalence of Severe Anaemia in women aged 15-49years in percentage DLHS-4": "Not available",
      "Marginal Workers Agricultural Labourers worked for 0 - 3 moths during last year - Males": 73,
      "Households with electricity as main source of lighting  Houselisting and Housing Census Data Tables- District Level , Census of India__3": 102134,
      "Households with computer or laptop with internet connection in percentage": 6.06,
      "PHCs functioning on a 24x7hours basis in percentage DLHS-4": 0,
      "Non Workers - Males": 93468,
      "Total Households in District Houselisting and Housing Census Data Tables- District Level , Census of India": 105255,
      "Upper Primary Schools with girls toilet in percentage DISE": "NA",
      "Households with mobile phone in percentage": 73.41,
      "Households receiving untreated tap water within premises in percentage Houselisting and Housing Census Data Tables- District Level , Census of India__2": 3.466818678,
      "Marginal Workers Cultivators worked for 3 - 6 moths during last year - Males": 223,
      "Prevalence of Anaemia  in percentage DLHS-4": "Not available",
      "Prevalence of Chronic illness in percentage DLHS-4": "Not available",
      "Households with solar energy as main source of lighting in percentage Houselisting and Housing Census Data Tables- District Level , Census of India__1": 0.057,
      "Marginal Workers Agricultural Labourers worked for 0 - 3 moths during last year - Females": 78,
      "Main Workers - Males": 116146,
      "Female": "NA",
      "Sno": 1584,
      "Marginal Workers Other worked for 3 - 6 moths during last year - Females": 3419,
      "Marginal Workers Cultivators worked for 0 - 3 moths during last year - Females": 12,
      "Scheduled Tribe Males": 699,
      "Male Illiterates": 45444,
      "Prevalence of Severe Anaemia in pregnant women aged 15-49years in percentage DLHS-4": "Not available",
      "0-6 Age Group Persons": 51092,
      "Upper Primary Student-Classroom Ratio in percentage DISE": "NA",
      "Currently married men married below 21years of age in percentage DLHS-4": "Not available",
      "Male Literates": 172344,
      "Households with no lighting in percentage Houselisting and Housing Census Data Tables- District Level , Census of India__2": 0.239418555,
      "Primary Drop Out Rate in percentage DISE": "NA",
      "Marginal Workers Household Industry - Males": 309,
      "Female Illiterates": 60220,
      "Main Workers Other - Females": 26642,
      "Marginal Workers Cultivators - Persons": 419,
      "Upper Primary Gross Enrolment Ratio in percentage DISE": "NA",
      "Scheduled Caste Persons": 49564,
      "Marginal Workers Cultivators worked for 3 - 6 moths during last year - Persons": 394,
      "Households with landline phone in percentage": 6.03,
      "Total Households in District  Houselisting and Housing Census Data Tables- District Level , Census of India": 105255,
      "Upper Primary Pupil-Teacher Ratio in percentage DISE": "NA",
      "Primary Student-Classroom Ratio in percentage DISE": "NA",
      "Primary Schools with boys toilet in percentage DISE": "NA",
      "Mean number of children ever born to women aged 40-49years  DLHS-4": "Not available",
      "Households receiving untreated tap water within premises  Houselisting and Housing Census Data Tables- District Level , Census of India__5": 3649,
      "Marginal Workers Household Industry worked for 0 - 3 moths during last year - Persons": 253,
      "Total Male Population": 217788,
      "Non Workers - Females": 172255,
      "Current use of family planning methods in percentage DLHS-4": "Not available",
      "Households with main source of drinking water within premises  Houselisting and Housing Census Data Tables- District Level , Census of India__3": 51671,
      "Main Workers Agricultural Labourers - Males": 3622,
      "Marginal Workers Other worked for 0 - 3 moths during last year - Persons": 1797,
      "Currently married women married below 18years of age in percentage DLHS-4": "Not available",
      "Person Illiterates": 105664,
      "Main Workers Household Industry - Females": 1849,
      "Female Literates": 150355,
      "Marginal Workers Cultivators worked for 0 - 3 moths during last year - Males": 13,
      "Male": "NA",
      "Households with improved source of drinking water in percentage DLHS-4": "Not available",
      "Upper Primary Schools with electricity in percentage DISE": "NA",
      "Households with electricity in percentage DLHS-4": "Not available",
      "Villages with Primary Health Centre within 10km in percentage DLHS-4": 0,
      "Births to women aged 15-19years out of Total births in percentage DLHS-4": "Not available",
      "Prevalence of Anaemia in women aged 15-49years in percentage DLHS-4": "Not available",
      "Marginal Workers Agricultural Labourers worked for 3 - 6 moths during last year - Persons": 1783,
      "Main Workers Household Industry - Males": 1767,
      "Scheduled Tribe Females": 648,
      "Marginal Workers worked for 0 - 3 moths during last year - Males": 1366,
      "Marginal Workers Other worked for 3 - 6 moths during last year - Males": 5487,
      "Primary Net Enrolment Ratio in percentage DISE": "NA",
      "Total": "NA",
      "Mean age at marriage for boys DLHS-4": "Not available",
      "Number of District Hospitals  DLHS-4": 0,
      "0-6 Age Group Females": 24821,
      "Marginal Workers Agricultural Labourers worked for 0 - 3 moths during last year - Persons": 151,
      "Marginal Workers Household Industry worked for 0 - 3 moths during last year - Males": 92,
      "Total Workers  Females": 38320,
      "Marginal Workers worked for 3 - 6 moths during last year - Females": 5059,
      "Institutional Deliveries in percentage DLHS-4": "Not available",
      "Marginal Workers Other - Males": 6675,
      "Total Workers  Males": 124320,
      "Main Workers - Females": 32401,
      "Primary Gross Enrolment Ratio in percentage DISE": "NA",
      "Main Workers Cultivators - Persons": 4679,
      "Marginal Workers Household Industry worked for 0 - 3 moths during last year - Females": 161,
      "Upper Primary Net Enrolment Ratio in percentage DISE": "NA",
      "Primary New Government Schools since 2003 in percentage DISE": "NA",
      "Tier": "Urban",
      "Marginal Workers Household Industry - Females": 728,
      "Primary Schools with electricity in percentage DISE": "NA",
      "Main Workers Other - Persons": 134124,
      "Marginal Workers Household Industry worked for 3 - 6 moths during last year - Females": 567,
      "Main Workers Cultivators - Males": 3275,
      "Main Workers Household Industry - Persons": 3616,
      "Marginal Workers Cultivators worked for 0 - 3 moths during last year - Persons": 25,
      "Scheduled Caste Males": 25036,
      "Marginal Workers - Persons": 14093,
      "Deliveries at home conducted by skilled health personnel in percentage DLHS-4": "Not available",
      "Villages with Sub-Health Centres within 3km in percentage DLHS-4": 0,
      "Upper Primary New Government Schools since 2003 in percentage DISE": "NA",
      "0-6 Age Group Males": 26271,
      "Primary Schools with drinking water facility in percentage DISE": "NA",
      "Non Workers - Persons": 265723,
      "Person Literates": 322699,
      "State": "TAMIL NADU",
      "Total Female Population": 210575,
      "Marginal Workers worked for 0 - 3 moths during last year - Persons": 2226,
      "Marginal Workers Cultivators - Females": 183,
      "Marginal Workers Other - Persons": 10703,
      "Sex Ratio": 967,
      "Scheduled Tribe Persons": 1347,
      "Marginal Workers Household Industry worked for 3 - 6 moths during last year - Males": 217,
      "Marginal Workers Agricultural Labourers - Females": 980,
      "Mean age at marriage for girls DLHS-4": "Not available",
      "Households with solar energy as main source of lighting  Houselisting and Housing Census Data Tables- District Level , Census of India__4": 60,
      "District": "KRISHNAGIRI",
      "Households receiving treated tap water within premises in percentage Houselisting and Housing Census Data Tables- District Level , Census of India__1": 32.59987649,
      "Total Workers  Persons": 162640,
      "Households receiving treated tap water within premises  Houselisting and Housing Census Data Tables- District Level , Census of India__4": 34313,
      "Primary Female Teachers in percentage DISE": "NA",
      "Number of Households": 105194,
      "Main Workers Agricultural Labourers - Persons": 6128
    }
  ]
}