{
  "Total": [
    {
      "Marginal Workers Agricultural Labourers - Persons": 59062,
      "Marginal Workers Other - Females": 22636,
      "Marginal Workers Other worked for 0 - 3 moths during last year - Females": 3051,
      "Upper Primary Schools with boys toilet in percentage DISE": 0,
      "Total Population": 2722290,
      "Households with electricity as main source of lighting in percentage Houselisting and Housing Census Data Tables- District Level , Census of India": 92.97554976,
      "Primary Girl's Enrolment in percentage DISE": 49.7,
      "Marginal Workers worked for 3 - 6 moths during last year - Males": 56979,
      "Prevalence of Acute illness in percentage DLHS-4": 5.2,
      "Main Workers - Persons": 1082329,
      "Main Workers Cultivators - Females": 61611,
      "Marginal Workers Agricultural Labourers worked for 3 - 6 moths during last year - Females": 30724,
      "Marginal Workers Other worked for 0 - 3 moths during last year - Males": 4451,
      "Upper Primary Schools with drinking water facility in percentage DISE": 0,
      "Primary Schools with girls toilet in percentage DISE": 96.4,
      "Marginal Workers worked for 3 - 6 moths during last year - Persons": 113318,
      "Upper Primary Drop Out Rate in percentage DISE": "Not available",
      "Prevalence of Anaemia in pregnant women aged 15-49years in percentage DLHS-4": 80,
      "Current use of any modern method of family planning in percentage DLHS-4": 44.3,
      "Marginal Workers Agricultural Labourers - Males": 22809,
      "Upper Primary Female Teachers in percentage DISE": 0,
      "Marginal Workers - Females": 66555,
      "Marginal Workers Other worked for 3 - 6 moths during last year - Persons": 50862,
      "Main Workers Agricultural Labourers - Females": 164940,
      "Marginal Workers Cultivators worked for 3 - 6 moths during last year - Females": 3485,
      "Households with no lighting  Houselisting and Housing Census Data Tables- District Level , Census of India__5": 2933,
      "Prevalence of Severe Anaemia  in percentage DLHS-4": 3.7,
      "Total unmet need for family planning in percentage DLHS-4": 32.3,
      "Main Workers Other - Males": 456653,
      "Children who received full vaccination in percentage DLHS-4": 43.5,
      "Marginal Workers Household Industry - Persons": 5212,
      "Primary Pupil-Teacher Ratio in percentage DISE": 19,
      "Marginal Workers Agricultural Labourers worked for 3 - 6 moths during last year - Males": 20110,
      "Scheduled Caste Females": 235771,
      "Marginal Workers Cultivators - Males": 4849,
      "Marginal Workers - Males": 65095,
      "Marginal Workers worked for 0 - 3 moths during last year - Females": 10216,
      "Households with main source of drinking water within premises in percentage Houselisting and Housing Census Data Tables- District Level , Census of India": 40.98140549,
      "Marginal Workers Household Industry worked for 3 - 6 moths during last year - Persons": 3828,
      "Upper Primary Girl's Enrolment in percentage DISE": 0,
      "Prevalence of Severe Anaemia in women aged 15-49years in percentage DLHS-4": 5.3,
      "Marginal Workers Agricultural Labourers worked for 0 - 3 moths during last year - Males": 2699,
      "Households with electricity as main source of lighting  Houselisting and Housing Census Data Tables- District Level , Census of India__3": 651621,
      "Households with computer or laptop with internet connection in percentage": 4.29,
      "PHCs functioning on a 24x7hours basis in percentage DLHS-4": 91.7,
      "Non Workers - Males": 563078,
      "Total Households in District Houselisting and Housing Census Data Tables- District Level , Census of India": 700852,
      "Upper Primary Schools with girls toilet in percentage DISE": 0,
      "Households with mobile phone in percentage": 63.81,
      "Households receiving untreated tap water within premises in percentage Houselisting and Housing Census Data Tables- District Level , Census of India__2": 4.954541044,
      "Marginal Workers Cultivators worked for 3 - 6 moths during last year - Males": 4309,
      "Prevalence of Anaemia  in percentage DLHS-4": 70.8,
      "Prevalence of Chronic illness in percentage DLHS-4": 5.4,
      "Households with solar energy as main source of lighting in percentage Houselisting and Housing Census Data Tables- District Level , Census of India__1": 0.039,
      "Marginal Workers Agricultural Labourers worked for 0 - 3 moths during last year - Females": 5529,
      "Main Workers - Males": 724111,
      "Female": 76.87,
      "Sno": 1628,
      "Marginal Workers Other worked for 3 - 6 moths during last year - Females": 19585,
      "Marginal Workers Cultivators worked for 0 - 3 moths during last year - Females": 678,
      "Scheduled Tribe Males": 9414,
      "Male Illiterates": 264519,
      "Prevalence of Severe Anaemia in pregnant women aged 15-49years in percentage DLHS-4": 5.5,
      "0-6 Age Group Persons": 272456,
      "Upper Primary Student-Classroom Ratio in percentage DISE": 0,
      "Currently married men married below 21years of age in percentage DLHS-4": 3.2,
      "Male Literates": 1087765,
      "Households with no lighting in percentage Houselisting and Housing Census Data Tables- District Level , Census of India__2": 0.418490637,
      "Primary Drop Out Rate in percentage DISE": 1,
      "Marginal Workers Household Industry - Males": 1709,
      "Female Illiterates": 418790,
      "Main Workers Other - Females": 119125,
      "Marginal Workers Cultivators - Persons": 9012,
      "Upper Primary Gross Enrolment Ratio in percentage DISE": 99.7,
      "Scheduled Caste Persons": 466561,
      "Marginal Workers Cultivators worked for 3 - 6 moths during last year - Persons": 7794,
      "Households with landline phone in percentage": 4.97,
      "Total Households in District  Houselisting and Housing Census Data Tables- District Level , Census of India": 700852,
      "Upper Primary Pupil-Teacher Ratio in percentage DISE": 0,
      "Primary Student-Classroom Ratio in percentage DISE": 19,
      "Primary Schools with boys toilet in percentage DISE": 91.5,
      "Mean number of children ever born to women aged 40-49years  DLHS-4": 2.4,
      "Households receiving untreated tap water within premises  Houselisting and Housing Census Data Tables- District Level , Census of India__5": 34724,
      "Marginal Workers Household Industry worked for 0 - 3 moths during last year - Persons": 1384,
      "Total Male Population": 1352284,
      "Non Workers - Females": 945233,
      "Current use of family planning methods in percentage DLHS-4": 46,
      "Households with main source of drinking water within premises  Houselisting and Housing Census Data Tables- District Level , Census of India__3": 287219,
      "Main Workers Agricultural Labourers - Males": 154780,
      "Marginal Workers Other worked for 0 - 3 moths during last year - Persons": 7502,
      "Currently married women married below 18years of age in percentage DLHS-4": 2.8,
      "Person Illiterates": 683309,
      "Main Workers Household Industry - Females": 12542,
      "Female Literates": 951216,
      "Marginal Workers Cultivators worked for 0 - 3 moths during last year - Males": 540,
      "Male": 89.72,
      "Households with improved source of drinking water in percentage DLHS-4": 97.7,
      "Upper Primary Schools with electricity in percentage DISE": 0,
      "Households with electricity in percentage DLHS-4": 97,
      "Villages with Primary Health Centre within 10km in percentage DLHS-4": 72,
      "Births to women aged 15-19years out of Total births in percentage DLHS-4": 4.8,
      "Prevalence of Anaemia in women aged 15-49years in percentage DLHS-4": 66.4,
      "Marginal Workers Agricultural Labourers worked for 3 - 6 moths during last year - Persons": 50834,
      "Main Workers Household Industry - Males": 12632,
      "Scheduled Tribe Females": 8784,
      "Marginal Workers worked for 0 - 3 moths during last year - Males": 8116,
      "Marginal Workers Other worked for 3 - 6 moths during last year - Males": 31277,
      "Primary Net Enrolment Ratio in percentage DISE": 91.4,
      "Total": 83.23,
      "Mean age at marriage for boys DLHS-4": 24.5,
      "Number of District Hospitals  DLHS-4": 1,
      "0-6 Age Group Females": 132510,
      "Marginal Workers Agricultural Labourers worked for 0 - 3 moths during last year - Persons": 8228,
      "Marginal Workers Household Industry worked for 0 - 3 moths during last year - Males": 426,
      "Total Workers  Females": 424773,
      "Marginal Workers worked for 3 - 6 moths during last year - Females": 56339,
      "Institutional Deliveries in percentage DLHS-4": 99.5,
      "Marginal Workers Other - Males": 35728,
      "Total Workers  Males": 789206,
      "Main Workers - Females": 358218,
      "Primary Gross Enrolment Ratio in percentage DISE": 105.1,
      "Main Workers Cultivators - Persons": 161657,
      "Marginal Workers Household Industry worked for 0 - 3 moths during last year - Females": 958,
      "Upper Primary Net Enrolment Ratio in percentage DISE": 79.2,
      "Primary New Government Schools since 2003 in percentage DISE": 3.6,
      "Tier": "Total",
      "Marginal Workers Household Industry - Females": 3503,
      "Primary Schools with electricity in percentage DISE": 97.4,
      "Main Workers Other - Persons": 575778,
      "Marginal Workers Household Industry worked for 3 - 6 moths during last year - Females": 2545,
      "Main Workers Cultivators - Males": 100046,
      "Main Workers Household Industry - Persons": 25174,
      "Marginal Workers Cultivators worked for 0 - 3 moths during last year - Persons": 1218,
      "Scheduled Caste Males": 230790,
      "Marginal Workers - Persons": 131650,
      "Deliveries at home conducted by skilled health personnel in percentage DLHS-4": 0,
      "Villages with Sub-Health Centres within 3km in percentage DLHS-4": 88,
      "Upper Primary New Government Schools since 2003 in percentage DISE": 0,
      "0-6 Age Group Males": 139946,
      "Primary Schools with drinking water facility in percentage DISE": 100,
      "Non Workers - Persons": 1508311,
      "Person Literates": 2038981,
      "State": "TAMIL NADU",
      "Total Female Population": 1370006,
      "Marginal Workers worked for 0 - 3 moths during last year - Persons": 18332,
      "Marginal Workers Cultivators - Females": 4163,
      "Marginal Workers Other - Persons": 58364,
      "Sex Ratio": 1013,
      "Scheduled Tribe Persons": 18198,
      "Marginal Workers Household Industry worked for 3 - 6 moths during last year - Males": 1283,
      "Marginal Workers Agricultural Labourers - Females": 36253,
      "Mean age at marriage for girls DLHS-4": 22.2,
      "Households with solar energy as main source of lighting  Houselisting and Housing Census Data Tables- District Level , Census of India__4": 273,
      "District": "TIRUCHIRAPPALLI",
      "Households receiving treated tap water within premises in percentage Houselisting and Housing Census Data Tables- District Level , Census of India__1": 30.80222358,
      "Total Workers  Persons": 1213979,
      "Households receiving treated tap water within premises  Houselisting and Housing Census Data Tables- District Level , Census of India__4": 215878,
      "Primary Female Teachers in percentage DISE": 85.9,
      "Number of Households": 698404,
      "Main Workers Agricultural Labourers - Persons": 319720
    }
  ],
  "Rural": [
    {
      "Marginal Workers Agricultural Labourers - Persons": 52672,
      "Marginal Workers Other - Females": 9248,
      "Marginal Workers Other worked for 0 - 3 moths during last year - Females": 1284,
      "Upper Primary Schools with boys toilet in percentage DISE": "NA",
      "Total Population": 1384257,
      "Households with electricity as main source of lighting in percentage Houselisting and Housing Census Data Tables- District Level , Census of India": 89.73777281,
      "Primary Girl's Enrolment in percentage DISE": "NA",
      "Marginal Workers worked for 3 - 6 moths during last year - Males": 33021,
      "Prevalence of Acute illness in percentage DLHS-4": 5,
      "Main Workers - Persons": 632679,
      "Main Workers Cultivators - Females": 59248,
      "Marginal Workers Agricultural Labourers worked for 3 - 6 moths during last year - Females": 28056,
      "Marginal Workers Other worked for 0 - 3 moths during last year - Males": 1666,
      "Upper Primary Schools with drinking water facility in percentage DISE": "NA",
      "Primary Schools with girls toilet in percentage DISE": "NA",
      "Marginal Workers worked for 3 - 6 moths during last year - Persons": 73425,
      "Upper Primary Drop Out Rate in percentage DISE": "NA",
      "Prevalence of Anaemia in pregnant women aged 15-49years in percentage DLHS-4": 73.3,
      "Current use of any modern method of family planning in percentage DLHS-4": 47.9,
      "Marginal Workers Agricultural Labourers - Males": 19820,
      "Upper Primary Female Teachers in percentage DISE": "NA",
      "Marginal Workers - Females": 47667,
      "Marginal Workers Other worked for 3 - 6 moths during last year - Persons": 19066,
      "Main Workers Agricultural Labourers - Females": 149338,
      "Marginal Workers Cultivators worked for 3 - 6 moths during last year - Females": 3135,
      "Households with no lighting  Houselisting and Housing Census Data Tables- District Level , Census of India__5": 2111,
      "Prevalence of Severe Anaemia  in percentage DLHS-4": 4.3,
      "Total unmet need for family planning in percentage DLHS-4": 31.1,
      "Main Workers Other - Males": 139117,
      "Children who received full vaccination in percentage DLHS-4": 26.3,
      "Marginal Workers Household Industry - Persons": 2789,
      "Primary Pupil-Teacher Ratio in percentage DISE": "NA",
      "Marginal Workers Agricultural Labourers worked for 3 - 6 moths during last year - Males": 17480,
      "Scheduled Caste Females": 145905,
      "Marginal Workers Cultivators - Males": 4215,
      "Marginal Workers - Males": 37795,
      "Marginal Workers worked for 0 - 3 moths during last year - Females": 7263,
      "Households with main source of drinking water within premises in percentage Houselisting and Housing Census Data Tables- District Level , Census of India": 22.60326467,
      "Marginal Workers Household Industry worked for 3 - 6 moths during last year - Persons": 1967,
      "Upper Primary Girl's Enrolment in percentage DISE": "NA",
      "Prevalence of Severe Anaemia in women aged 15-49years in percentage DLHS-4": 4.8,
      "Marginal Workers Agricultural Labourers worked for 0 - 3 moths during last year - Males": 2340,
      "Households with electricity as main source of lighting  Houselisting and Housing Census Data Tables- District Level , Census of India__3": 321989,
      "Households with computer or laptop with internet connection in percentage": 1.15,
      "PHCs functioning on a 24x7hours basis in percentage DLHS-4": "Not applicable",
      "Non Workers - Males": 275456,
      "Total Households in District Houselisting and Housing Census Data Tables- District Level , Census of India": 358811,
      "Upper Primary Schools with girls toilet in percentage DISE": "NA",
      "Households with mobile phone in percentage": 59.58,
      "Households receiving untreated tap water within premises in percentage Houselisting and Housing Census Data Tables- District Level , Census of India__2": 5.72474088,
      "Marginal Workers Cultivators worked for 3 - 6 moths during last year - Males": 3721,
      "Prevalence of Anaemia  in percentage DLHS-4": 71.4,
      "Prevalence of Chronic illness in percentage DLHS-4": 4.3,
      "Households with solar energy as main source of lighting in percentage Houselisting and Housing Census Data Tables- District Level , Census of India__1": 0.0465,
      "Marginal Workers Agricultural Labourers worked for 0 - 3 moths during last year - Females": 4796,
      "Main Workers - Males": 375301,
      "Female": "NA",
      "Sno": 1627,
      "Marginal Workers Other worked for 3 - 6 moths during last year - Females": 7964,
      "Marginal Workers Cultivators worked for 0 - 3 moths during last year - Females": 635,
      "Scheduled Tribe Males": 7171,
      "Male Illiterates": 164319,
      "Prevalence of Severe Anaemia in pregnant women aged 15-49years in percentage DLHS-4": 6.7,
      "0-6 Age Group Persons": 145260,
      "Upper Primary Student-Classroom Ratio in percentage DISE": "NA",
      "Currently married men married below 21years of age in percentage DLHS-4": 4.8,
      "Male Literates": 524233,
      "Households with no lighting in percentage Houselisting and Housing Census Data Tables- District Level , Census of India__2": 0.588332019,
      "Primary Drop Out Rate in percentage DISE": "NA",
      "Marginal Workers Household Industry - Males": 992,
      "Female Illiterates": 269696,
      "Main Workers Other - Females": 42007,
      "Marginal Workers Cultivators - Persons": 7985,
      "Upper Primary Gross Enrolment Ratio in percentage DISE": "NA",
      "Scheduled Caste Persons": 287702,
      "Marginal Workers Cultivators worked for 3 - 6 moths during last year - Persons": 6856,
      "Households with landline phone in percentage": 4,
      "Total Households in District  Houselisting and Housing Census Data Tables- District Level , Census of India": 358811,
      "Upper Primary Pupil-Teacher Ratio in percentage DISE": "NA",
      "Primary Student-Classroom Ratio in percentage DISE": "NA",
      "Primary Schools with boys toilet in percentage DISE": "NA",
      "Mean number of children ever born to women aged 40-49years  DLHS-4": 2.7,
      "Households receiving untreated tap water within premises  Houselisting and Housing Census Data Tables- District Level , Census of India__5": 20541,
      "Marginal Workers Household Industry worked for 0 - 3 moths during last year - Persons": 822,
      "Total Male Population": 688552,
      "Non Workers - Females": 390660,
      "Current use of family planning methods in percentage DLHS-4": 49.3,
      "Households with main source of drinking water within premises  Houselisting and Housing Census Data Tables- District Level , Census of India__3": 81103,
      "Main Workers Agricultural Labourers - Males": 136550,
      "Marginal Workers Other worked for 0 - 3 moths during last year - Persons": 2950,
      "Currently married women married below 18years of age in percentage DLHS-4": 5.3,
      "Person Illiterates": 434015,
      "Main Workers Household Industry - Females": 6785,
      "Female Literates": 426009,
      "Marginal Workers Cultivators worked for 0 - 3 moths during last year - Males": 494,
      "Male": "NA",
      "Households with improved source of drinking water in percentage DLHS-4": 98.5,
      "Upper Primary Schools with electricity in percentage DISE": "NA",
      "Households with electricity in percentage DLHS-4": 96.3,
      "Villages with Primary Health Centre within 10km in percentage DLHS-4": "Not applicable",
      "Births to women aged 15-19years out of Total births in percentage DLHS-4": 6.9,
      "Prevalence of Anaemia in women aged 15-49years in percentage DLHS-4": 65.3,
      "Marginal Workers Agricultural Labourers worked for 3 - 6 moths during last year - Persons": 45536,
      "Main Workers Household Industry - Males": 7193,
      "Scheduled Tribe Females": 6613,
      "Marginal Workers worked for 0 - 3 moths during last year - Males": 4774,
      "Marginal Workers Other worked for 3 - 6 moths during last year - Males": 11102,
      "Primary Net Enrolment Ratio in percentage DISE": "NA",
      "Total": "NA",
      "Mean age at marriage for boys DLHS-4": 24.6,
      "Number of District Hospitals  DLHS-4": "Not applicable",
      "0-6 Age Group Females": 70274,
      "Marginal Workers Agricultural Labourers worked for 0 - 3 moths during last year - Persons": 7136,
      "Marginal Workers Household Industry worked for 0 - 3 moths during last year - Males": 274,
      "Total Workers  Females": 305045,
      "Marginal Workers worked for 3 - 6 moths during last year - Females": 40404,
      "Institutional Deliveries in percentage DLHS-4": 99.1,
      "Marginal Workers Other - Males": 12768,
      "Total Workers  Males": 413096,
      "Main Workers - Females": 257378,
      "Primary Gross Enrolment Ratio in percentage DISE": "NA",
      "Main Workers Cultivators - Persons": 151689,
      "Marginal Workers Household Industry worked for 0 - 3 moths during last year - Females": 548,
      "Upper Primary Net Enrolment Ratio in percentage DISE": "NA",
      "Primary New Government Schools since 2003 in percentage DISE": "NA",
      "Tier": "Rural",
      "Marginal Workers Household Industry - Females": 1797,
      "Primary Schools with electricity in percentage DISE": "NA",
      "Main Workers Other - Persons": 181124,
      "Marginal Workers Household Industry worked for 3 - 6 moths during last year - Females": 1249,
      "Main Workers Cultivators - Males": 92441,
      "Main Workers Household Industry - Persons": 13978,
      "Marginal Workers Cultivators worked for 0 - 3 moths during last year - Persons": 1129,
      "Scheduled Caste Males": 141797,
      "Marginal Workers - Persons": 85462,
      "Deliveries at home conducted by skilled health personnel in percentage DLHS-4": 0,
      "Villages with Sub-Health Centres within 3km in percentage DLHS-4": "Not applicable",
      "Upper Primary New Government Schools since 2003 in percentage DISE": "NA",
      "0-6 Age Group Males": 74986,
      "Primary Schools with drinking water facility in percentage DISE": "NA",
      "Non Workers - Persons": 666116,
      "Person Literates": 950242,
      "State": "TAMIL NADU",
      "Total Female Population": 695705,
      "Marginal Workers worked for 0 - 3 moths during last year - Persons": 12037,
      "Marginal Workers Cultivators - Females": 3770,
      "Marginal Workers Other - Persons": 22016,
      "Sex Ratio": 1010,
      "Scheduled Tribe Persons": 13784,
      "Marginal Workers Household Industry worked for 3 - 6 moths during last year - Males": 718,
      "Marginal Workers Agricultural Labourers - Females": 32852,
      "Mean age at marriage for girls DLHS-4": 21.9,
      "Households with solar energy as main source of lighting  Houselisting and Housing Census Data Tables- District Level , Census of India__4": 167,
      "District": "TIRUCHIRAPPALLI",
      "Households receiving treated tap water within premises in percentage Houselisting and Housing Census Data Tables- District Level , Census of India__1": 13.23565888,
      "Total Workers  Persons": 718141,
      "Households receiving treated tap water within premises  Houselisting and Housing Census Data Tables- District Level , Census of India__4": 47491,
      "Primary Female Teachers in percentage DISE": "NA",
      "Number of Households": 357244,
      "Main Workers Agricultural Labourers - Persons": 285888
    }
  ],
  "Urban": [
    {
      "Marginal Workers Agricultural Labourers - Persons": 6390,
      "Marginal Workers Other - Females": 13388,
      "Marginal Workers Other worked for 0 - 3 moths during last year - Females": 1767,
      "Upper Primary Schools with boys toilet in percentage DISE": "NA",
      "Total Population": 1338033,
      "Households with electricity as main source of lighting in percentage Houselisting and Housing Census Data Tables- District Level , Census of India": 96.37207235,
      "Primary Girl's Enrolment in percentage DISE": "NA",
      "Marginal Workers worked for 3 - 6 moths during last year - Males": 23958,
      "Prevalence of Acute illness in percentage DLHS-4": "Not available",
      "Main Workers - Persons": 449650,
      "Main Workers Cultivators - Females": 2363,
      "Marginal Workers Agricultural Labourers worked for 3 - 6 moths during last year - Females": 2668,
      "Marginal Workers Other worked for 0 - 3 moths during last year - Males": 2785,
      "Upper Primary Schools with drinking water facility in percentage DISE": "NA",
      "Primary Schools with girls toilet in percentage DISE": "NA",
      "Marginal Workers worked for 3 - 6 moths during last year - Persons": 39893,
      "Upper Primary Drop Out Rate in percentage DISE": "NA",
      "Prevalence of Anaemia in pregnant women aged 15-49years in percentage DLHS-4": "Not available",
      "Current use of any modern method of family planning in percentage DLHS-4": "Not available",
      "Marginal Workers Agricultural Labourers - Males": 2989,
      "Upper Primary Female Teachers in percentage DISE": "NA",
      "Marginal Workers - Females": 18888,
      "Marginal Workers Other worked for 3 - 6 moths during last year - Persons": 31796,
      "Main Workers Agricultural Labourers - Females": 15602,
      "Marginal Workers Cultivators worked for 3 - 6 moths during last year - Females": 350,
      "Households with no lighting  Houselisting and Housing Census Data Tables- District Level , Census of India__5": 822,
      "Prevalence of Severe Anaemia  in percentage DLHS-4": "Not available",
      "Total unmet need for family planning in percentage DLHS-4": "Not available",
      "Main Workers Other - Males": 317536,
      "Children who received full vaccination in percentage DLHS-4": "Not available",
      "Marginal Workers Household Industry - Persons": 2423,
      "Primary Pupil-Teacher Ratio in percentage DISE": "NA",
      "Marginal Workers Agricultural Labourers worked for 3 - 6 moths during last year - Males": 2630,
      "Scheduled Caste Females": 89866,
      "Marginal Workers Cultivators - Males": 634,
      "Marginal Workers - Males": 27300,
      "Marginal Workers worked for 0 - 3 moths during last year - Females": 2953,
      "Households with main source of drinking water within premises in percentage Houselisting and Housing Census Data Tables- District Level , Census of India": 60.26061203,
      "Marginal Workers Household Industry worked for 3 - 6 moths during last year - Persons": 1861,
      "Upper Primary Girl's Enrolment in percentage DISE": "NA",
      "Prevalence of Severe Anaemia in women aged 15-49years in percentage DLHS-4": "Not available",
      "Marginal Workers Agricultural Labourers worked for 0 - 3 moths during last year - Males": 359,
      "Households with electricity as main source of lighting  Houselisting and Housing Census Data Tables- District Level , Census of India__3": 329632,
      "Households with computer or laptop with internet connection in percentage": 7.58,
      "PHCs functioning on a 24x7hours basis in percentage DLHS-4": 0,
      "Non Workers - Males": 287622,
      "Total Households in District Houselisting and Housing Census Data Tables- District Level , Census of India": 342041,
      "Upper Primary Schools with girls toilet in percentage DISE": "NA",
      "Households with mobile phone in percentage": 68.25,
      "Households receiving untreated tap water within premises in percentage Houselisting and Housing Census Data Tables- District Level , Census of India__2": 4.146578919,
      "Marginal Workers Cultivators worked for 3 - 6 moths during last year - Males": 588,
      "Prevalence of Anaemia  in percentage DLHS-4": "Not available",
      "Prevalence of Chronic illness in percentage DLHS-4": "Not available",
      "Households with solar energy as main source of lighting in percentage Houselisting and Housing Census Data Tables- District Level , Census of India__1": 0.031,
      "Marginal Workers Agricultural Labourers worked for 0 - 3 moths during last year - Females": 733,
      "Main Workers - Males": 348810,
      "Female": "NA",
      "Sno": 1629,
      "Marginal Workers Other worked for 3 - 6 moths during last year - Females": 11621,
      "Marginal Workers Cultivators worked for 0 - 3 moths during last year - Females": 43,
      "Scheduled Tribe Males": 2243,
      "Male Illiterates": 100200,
      "Prevalence of Severe Anaemia in pregnant women aged 15-49years in percentage DLHS-4": "Not available",
      "0-6 Age Group Persons": 127196,
      "Upper Primary Student-Classroom Ratio in percentage DISE": "NA",
      "Currently married men married below 21years of age in percentage DLHS-4": "Not available",
      "Male Literates": 563532,
      "Households with no lighting in percentage Houselisting and Housing Census Data Tables- District Level , Census of India__2": 0.240322067,
      "Primary Drop Out Rate in percentage DISE": "NA",
      "Marginal Workers Household Industry - Males": 717,
      "Female Illiterates": 149094,
      "Main Workers Other - Females": 77118,
      "Marginal Workers Cultivators - Persons": 1027,
      "Upper Primary Gross Enrolment Ratio in percentage DISE": "NA",
      "Scheduled Caste Persons": 178859,
      "Marginal Workers Cultivators worked for 3 - 6 moths during last year - Persons": 938,
      "Households with landline phone in percentage": 5.98,
      "Total Households in District  Houselisting and Housing Census Data Tables- District Level , Census of India": 342041,
      "Upper Primary Pupil-Teacher Ratio in percentage DISE": "NA",
      "Primary Student-Classroom Ratio in percentage DISE": "NA",
      "Primary Schools with boys toilet in percentage DISE": "NA",
      "Mean number of children ever born to women aged 40-49years  DLHS-4": "Not available",
      "Households receiving untreated tap water within premises  Houselisting and Housing Census Data Tables- District Level , Census of India__5": 14183,
      "Marginal Workers Household Industry worked for 0 - 3 moths during last year - Persons": 562,
      "Total Male Population": 663732,
      "Non Workers - Females": 554573,
      "Current use of family planning methods in percentage DLHS-4": "Not available",
      "Households with main source of drinking water within premises  Houselisting and Housing Census Data Tables- District Level , Census of India__3": 206116,
      "Main Workers Agricultural Labourers - Males": 18230,
      "Marginal Workers Other worked for 0 - 3 moths during last year - Persons": 4552,
      "Currently married women married below 18years of age in percentage DLHS-4": "Not available",
      "Person Illiterates": 249294,
      "Main Workers Household Industry - Females": 5757,
      "Female Literates": 525207,
      "Marginal Workers Cultivators worked for 0 - 3 moths during last year - Males": 46,
      "Male": "NA",
      "Households with improved source of drinking water in percentage DLHS-4": "Not available",
      "Upper Primary Schools with electricity in percentage DISE": "NA",
      "Households with electricity in percentage DLHS-4": "Not available",
      "Villages with Primary Health Centre within 10km in percentage DLHS-4": 0,
      "Births to women aged 15-19years out of Total births in percentage DLHS-4": "Not available",
      "Prevalence of Anaemia in women aged 15-49years in percentage DLHS-4": "Not available",
      "Marginal Workers Agricultural Labourers worked for 3 - 6 moths during last year - Persons": 5298,
      "Main Workers Household Industry - Males": 5439,
      "Scheduled Tribe Females": 2171,
      "Marginal Workers worked for 0 - 3 moths during last year - Males": 3342,
      "Marginal Workers Other worked for 3 - 6 moths during last year - Males": 20175,
      "Primary Net Enrolment Ratio in percentage DISE": "NA",
      "Total": "NA",
      "Mean age at marriage for boys DLHS-4": "Not available",
      "Number of District Hospitals  DLHS-4": 0,
      "0-6 Age Group Females": 62236,
      "Marginal Workers Agricultural Labourers worked for 0 - 3 moths during last year - Persons": 1092,
      "Marginal Workers Household Industry worked for 0 - 3 moths during last year - Males": 152,
      "Total Workers  Females": 119728,
      "Marginal Workers worked for 3 - 6 moths during last year - Females": 15935,
      "Institutional Deliveries in percentage DLHS-4": "Not available",
      "Marginal Workers Other - Males": 22960,
      "Total Workers  Males": 376110,
      "Main Workers - Females": 100840,
      "Primary Gross Enrolment Ratio in percentage DISE": "NA",
      "Main Workers Cultivators - Persons": 9968,
      "Marginal Workers Household Industry worked for 0 - 3 moths during last year - Females": 410,
      "Upper Primary Net Enrolment Ratio in percentage DISE": "NA",
      "Primary New Government Schools since 2003 in percentage DISE": "NA",
      "Tier": "Urban",
      "Marginal Workers Household Industry - Females": 1706,
      "Primary Schools with electricity in percentage DISE": "NA",
      "Main Workers Other - Persons": 394654,
      "Marginal Workers Household Industry worked for 3 - 6 moths during last year - Females": 1296,
      "Main Workers Cultivators - Males": 7605,
      "Main Workers Household Industry - Persons": 11196,
      "Marginal Workers Cultivators worked for 0 - 3 moths during last year - Persons": 89,
      "Scheduled Caste Males": 88993,
      "Marginal Workers - Persons": 46188,
      "Deliveries at home conducted by skilled health personnel in percentage DLHS-4": "Not available",
      "Villages with Sub-Health Centres within 3km in percentage DLHS-4": 0,
      "Upper Primary New Government Schools since 2003 in percentage DISE": "NA",
      "0-6 Age Group Males": 64960,
      "Primary Schools with drinking water facility in percentage DISE": "NA",
      "Non Workers - Persons": 842195,
      "Person Literates": 1088739,
      "State": "TAMIL NADU",
      "Total Female Population": 674301,
      "Marginal Workers worked for 0 - 3 moths during last year - Persons": 6295,
      "Marginal Workers Cultivators - Females": 393,
      "Marginal Workers Other - Persons": 36348,
      "Sex Ratio": 1016,
      "Scheduled Tribe Persons": 4414,
      "Marginal Workers Household Industry worked for 3 - 6 moths during last year - Males": 565,
      "Marginal Workers Agricultural Labourers - Females": 3401,
      "Mean age at marriage for girls DLHS-4": "Not available",
      "Households with solar energy as main source of lighting  Houselisting and Housing Census Data Tables- District Level , Census of India__4": 106,
      "District": "TIRUCHIRAPPALLI",
      "Households receiving treated tap water within premises in percentage Houselisting and Housing Census Data Tables- District Level , Census of India__1": 49.22421581,
      "Total Workers  Persons": 495838,
      "Households receiving treated tap water within premises  Houselisting and Housing Census Data Tables- District Level , Census of India__4": 168367,
      "Primary Female Teachers in percentage DISE": "NA",
      "Number of Households": 341160,
      "Main Workers Agricultural Labourers - Persons": 33832
    }
  ]
}