{
  "Total": [
    {
      "Marginal Workers Agricultural Labourers - Persons": 58680,
      "Marginal Workers Other - Females": 28758,
      "Marginal Workers Other worked for 0 - 3 moths during last year - Females": 5309,
      "Upper Primary Schools with boys toilet in percentage DISE": 80,
      "Total Population": 3077233,
      "Households with electricity as main source of lighting in percentage Houselisting and Housing Census Data Tables- District Level , Census of India": 94.97797829,
      "Primary Girl's Enrolment in percentage DISE": 49.8,
      "Marginal Workers worked for 3 - 6 moths during last year - Males": 71877,
      "Prevalence of Acute illness in percentage DLHS-4": 2.1,
      "Main Workers - Persons": 1271407,
      "Main Workers Cultivators - Females": 25763,
      "Marginal Workers Agricultural Labourers worked for 3 - 6 moths during last year - Females": 23643,
      "Marginal Workers Other worked for 0 - 3 moths during last year - Males": 7901,
      "Upper Primary Schools with drinking water facility in percentage DISE": 100,
      "Primary Schools with girls toilet in percentage DISE": 93.5,
      "Marginal Workers worked for 3 - 6 moths during last year - Persons": 137467,
      "Upper Primary Drop Out Rate in percentage DISE": 5.35,
      "Prevalence of Anaemia in pregnant women aged 15-49years in percentage DLHS-4": 55.9,
      "Current use of any modern method of family planning in percentage DLHS-4": 49,
      "Marginal Workers Agricultural Labourers - Males": 30717,
      "Upper Primary Female Teachers in percentage DISE": 53.3,
      "Marginal Workers - Females": 79939,
      "Marginal Workers Other worked for 3 - 6 moths during last year - Persons": 61388,
      "Main Workers Agricultural Labourers - Females": 127184,
      "Marginal Workers Cultivators worked for 3 - 6 moths during last year - Females": 2470,
      "Households with no lighting  Houselisting and Housing Census Data Tables- District Level , Census of India__5": 4697,
      "Prevalence of Severe Anaemia  in percentage DLHS-4": 2.9,
      "Total unmet need for family planning in percentage DLHS-4": 25.8,
      "Main Workers Other - Males": 489045,
      "Children who received full vaccination in percentage DLHS-4": 47.4,
      "Marginal Workers Household Industry - Persons": 23997,
      "Primary Pupil-Teacher Ratio in percentage DISE": 22,
      "Marginal Workers Agricultural Labourers worked for 3 - 6 moths during last year - Males": 26776,
      "Scheduled Caste Females": 290144,
      "Marginal Workers Cultivators - Males": 4962,
      "Marginal Workers - Males": 85108,
      "Marginal Workers worked for 0 - 3 moths during last year - Females": 14349,
      "Households with main source of drinking water within premises in percentage Houselisting and Housing Census Data Tables- District Level , Census of India": 36.17947477,
      "Marginal Workers Household Industry worked for 3 - 6 moths during last year - Persons": 18778,
      "Upper Primary Girl's Enrolment in percentage DISE": 48.1,
      "Prevalence of Severe Anaemia in women aged 15-49years in percentage DLHS-4": 3,
      "Marginal Workers Agricultural Labourers worked for 0 - 3 moths during last year - Males": 3941,
      "Households with electricity as main source of lighting  Houselisting and Housing Census Data Tables- District Level , Census of India__3": 779130,
      "Households with computer or laptop with internet connection in percentage": 2.32,
      "PHCs functioning on a 24x7hours basis in percentage DLHS-4": 100,
      "Non Workers - Males": 644737,
      "Total Households in District Houselisting and Housing Census Data Tables- District Level , Census of India": 820327,
      "Upper Primary Schools with girls toilet in percentage DISE": 80,
      "Households with mobile phone in percentage": 57.07,
      "Households receiving untreated tap water within premises in percentage Houselisting and Housing Census Data Tables- District Level , Census of India__2": 3.93977036,
      "Marginal Workers Cultivators worked for 3 - 6 moths during last year - Males": 4412,
      "Prevalence of Anaemia  in percentage DLHS-4": 68,
      "Prevalence of Chronic illness in percentage DLHS-4": 3.1,
      "Households with solar energy as main source of lighting in percentage Houselisting and Housing Census Data Tables- District Level , Census of India__1": 0.0456,
      "Marginal Workers Agricultural Labourers worked for 0 - 3 moths during last year - Females": 4320,
      "Main Workers - Males": 791067,
      "Female": 75.98,
      "Sno": 1631,
      "Marginal Workers Other worked for 3 - 6 moths during last year - Females": 23449,
      "Marginal Workers Cultivators worked for 0 - 3 moths during last year - Females": 340,
      "Scheduled Tribe Males": 5109,
      "Male Illiterates": 310202,
      "Prevalence of Severe Anaemia in pregnant women aged 15-49years in percentage DLHS-4": 5,
      "0-6 Age Group Persons": 321687,
      "Upper Primary Student-Classroom Ratio in percentage DISE": 18,
      "Currently married men married below 21years of age in percentage DLHS-4": 0.5,
      "Male Literates": 1210710,
      "Households with no lighting in percentage Houselisting and Housing Census Data Tables- District Level , Census of India__2": 0.572576546,
      "Primary Drop Out Rate in percentage DISE": 8.6,
      "Marginal Workers Household Industry - Males": 3589,
      "Female Illiterates": 493574,
      "Main Workers Other - Females": 137669,
      "Marginal Workers Cultivators - Persons": 7772,
      "Upper Primary Gross Enrolment Ratio in percentage DISE": 103.6,
      "Scheduled Caste Persons": 569714,
      "Marginal Workers Cultivators worked for 3 - 6 moths during last year - Persons": 6882,
      "Households with landline phone in percentage": 5.95,
      "Total Households in District  Houselisting and Housing Census Data Tables- District Level , Census of India": 820327,
      "Upper Primary Pupil-Teacher Ratio in percentage DISE": 21,
      "Primary Student-Classroom Ratio in percentage DISE": 20,
      "Primary Schools with boys toilet in percentage DISE": 77,
      "Mean number of children ever born to women aged 40-49years  DLHS-4": 2.4,
      "Households receiving untreated tap water within premises  Houselisting and Housing Census Data Tables- District Level , Census of India__5": 32319,
      "Marginal Workers Household Industry worked for 0 - 3 moths during last year - Persons": 5219,
      "Total Male Population": 1520912,
      "Non Workers - Females": 996042,
      "Current use of family planning methods in percentage DLHS-4": 49.6,
      "Households with main source of drinking water within premises  Houselisting and Housing Census Data Tables- District Level , Census of India__3": 296790,
      "Main Workers Agricultural Labourers - Males": 193899,
      "Marginal Workers Other worked for 0 - 3 moths during last year - Persons": 13210,
      "Currently married women married below 18years of age in percentage DLHS-4": 1.8,
      "Person Illiterates": 803776,
      "Main Workers Household Industry - Females": 189724,
      "Female Literates": 1062747,
      "Marginal Workers Cultivators worked for 0 - 3 moths during last year - Males": 550,
      "Male": 89.24,
      "Households with improved source of drinking water in percentage DLHS-4": 98.2,
      "Upper Primary Schools with electricity in percentage DISE": 60,
      "Households with electricity in percentage DLHS-4": 97.1,
      "Villages with Primary Health Centre within 10km in percentage DLHS-4": 96,
      "Births to women aged 15-19years out of Total births in percentage DLHS-4": 2.1,
      "Prevalence of Anaemia in women aged 15-49years in percentage DLHS-4": 51.9,
      "Marginal Workers Agricultural Labourers worked for 3 - 6 moths during last year - Persons": 50419,
      "Main Workers Household Industry - Males": 25943,
      "Scheduled Tribe Females": 5161,
      "Marginal Workers worked for 0 - 3 moths during last year - Males": 13231,
      "Marginal Workers Other worked for 3 - 6 moths during last year - Males": 37939,
      "Primary Net Enrolment Ratio in percentage DISE": 95.8,
      "Total": 82.5,
      "Mean age at marriage for boys DLHS-4": 28.2,
      "Number of District Hospitals  DLHS-4": 1,
      "0-6 Age Group Females": 157530,
      "Marginal Workers Agricultural Labourers worked for 0 - 3 moths during last year - Persons": 8261,
      "Marginal Workers Household Industry worked for 0 - 3 moths during last year - Males": 839,
      "Total Workers  Females": 560279,
      "Marginal Workers worked for 3 - 6 moths during last year - Females": 65590,
      "Institutional Deliveries in percentage DLHS-4": 97.6,
      "Marginal Workers Other - Males": 45840,
      "Total Workers  Males": 876175,
      "Main Workers - Females": 480340,
      "Primary Gross Enrolment Ratio in percentage DISE": 113.2,
      "Main Workers Cultivators - Persons": 107943,
      "Marginal Workers Household Industry worked for 0 - 3 moths during last year - Females": 4380,
      "Upper Primary Net Enrolment Ratio in percentage DISE": 81.5,
      "Primary New Government Schools since 2003 in percentage DISE": 4.3,
      "Tier": "Total",
      "Marginal Workers Household Industry - Females": 20408,
      "Primary Schools with electricity in percentage DISE": 87.9,
      "Main Workers Other - Persons": 626714,
      "Marginal Workers Household Industry worked for 3 - 6 moths during last year - Females": 16028,
      "Main Workers Cultivators - Males": 82180,
      "Main Workers Household Industry - Persons": 215667,
      "Marginal Workers Cultivators worked for 0 - 3 moths during last year - Persons": 890,
      "Scheduled Caste Males": 279570,
      "Marginal Workers - Persons": 165047,
      "Deliveries at home conducted by skilled health personnel in percentage DLHS-4": 1.2,
      "Villages with Sub-Health Centres within 3km in percentage DLHS-4": 88,
      "Upper Primary New Government Schools since 2003 in percentage DISE": 50,
      "0-6 Age Group Males": 164157,
      "Primary Schools with drinking water facility in percentage DISE": 100,
      "Non Workers - Persons": 1640779,
      "Person Literates": 2273457,
      "State": "TAMIL NADU",
      "Total Female Population": 1556321,
      "Marginal Workers worked for 0 - 3 moths during last year - Persons": 27580,
      "Marginal Workers Cultivators - Females": 2810,
      "Marginal Workers Other - Persons": 74598,
      "Sex Ratio": 1023,
      "Scheduled Tribe Persons": 10270,
      "Marginal Workers Household Industry worked for 3 - 6 moths during last year - Males": 2750,
      "Marginal Workers Agricultural Labourers - Females": 27963,
      "Mean age at marriage for girls DLHS-4": 22.9,
      "Households with solar energy as main source of lighting  Houselisting and Housing Census Data Tables- District Level , Census of India__4": 374,
      "District": "TIRUNELVELI",
      "Households receiving treated tap water within premises in percentage Houselisting and Housing Census Data Tables- District Level , Census of India__1": 28.84301017,
      "Total Workers  Persons": 1436454,
      "Households receiving treated tap water within premises  Houselisting and Housing Census Data Tables- District Level , Census of India__4": 236607,
      "Primary Female Teachers in percentage DISE": 85.1,
      "Number of Households": 815528,
      "Main Workers Agricultural Labourers - Persons": 321083
    }
  ],
  "Rural": [
    {
      "Marginal Workers Agricultural Labourers - Persons": 45670,
      "Marginal Workers Other - Females": 16118,
      "Marginal Workers Other worked for 0 - 3 moths during last year - Females": 2930,
      "Upper Primary Schools with boys toilet in percentage DISE": "NA",
      "Total Population": 1557004,
      "Households with electricity as main source of lighting in percentage Houselisting and Housing Census Data Tables- District Level , Census of India": 93.98836244,
      "Primary Girl's Enrolment in percentage DISE": "NA",
      "Marginal Workers worked for 3 - 6 moths during last year - Males": 44767,
      "Prevalence of Acute illness in percentage DLHS-4": 2.5,
      "Main Workers - Persons": 688776,
      "Main Workers Cultivators - Females": 21972,
      "Marginal Workers Agricultural Labourers worked for 3 - 6 moths during last year - Females": 18650,
      "Marginal Workers Other worked for 0 - 3 moths during last year - Males": 3301,
      "Upper Primary Schools with drinking water facility in percentage DISE": "NA",
      "Primary Schools with girls toilet in percentage DISE": "NA",
      "Marginal Workers worked for 3 - 6 moths during last year - Persons": 88047,
      "Upper Primary Drop Out Rate in percentage DISE": "NA",
      "Prevalence of Anaemia in pregnant women aged 15-49years in percentage DLHS-4": 53.2,
      "Current use of any modern method of family planning in percentage DLHS-4": 51.1,
      "Marginal Workers Agricultural Labourers - Males": 23506,
      "Upper Primary Female Teachers in percentage DISE": "NA",
      "Marginal Workers - Females": 52294,
      "Marginal Workers Other worked for 3 - 6 moths during last year - Persons": 32178,
      "Main Workers Agricultural Labourers - Females": 98891,
      "Marginal Workers Cultivators worked for 3 - 6 moths during last year - Females": 2201,
      "Households with no lighting  Houselisting and Housing Census Data Tables- District Level , Census of India__5": 2762,
      "Prevalence of Severe Anaemia  in percentage DLHS-4": 1.6,
      "Total unmet need for family planning in percentage DLHS-4": 24.49,
      "Main Workers Other - Males": 181015,
      "Children who received full vaccination in percentage DLHS-4": 61,
      "Marginal Workers Household Industry - Persons": 13600,
      "Primary Pupil-Teacher Ratio in percentage DISE": "NA",
      "Marginal Workers Agricultural Labourers worked for 3 - 6 moths during last year - Males": 20449,
      "Scheduled Caste Females": 175862,
      "Marginal Workers Cultivators - Males": 4168,
      "Marginal Workers - Males": 52060,
      "Marginal Workers worked for 0 - 3 moths during last year - Females": 9014,
      "Households with main source of drinking water within premises in percentage Houselisting and Housing Census Data Tables- District Level , Census of India": 18.97954789,
      "Marginal Workers Household Industry worked for 3 - 6 moths during last year - Persons": 10860,
      "Upper Primary Girl's Enrolment in percentage DISE": "NA",
      "Prevalence of Severe Anaemia in women aged 15-49years in percentage DLHS-4": 2.1,
      "Marginal Workers Agricultural Labourers worked for 0 - 3 moths during last year - Males": 3057,
      "Households with electricity as main source of lighting  Houselisting and Housing Census Data Tables- District Level , Census of India__3": 397192,
      "Households with computer or laptop with internet connection in percentage": 1.22,
      "PHCs functioning on a 24x7hours basis in percentage DLHS-4": "Not applicable",
      "Non Workers - Males": 317854,
      "Total Households in District Houselisting and Housing Census Data Tables- District Level , Census of India": 422597,
      "Upper Primary Schools with girls toilet in percentage DISE": "NA",
      "Households with mobile phone in percentage": 51.68,
      "Households receiving untreated tap water within premises in percentage Houselisting and Housing Census Data Tables- District Level , Census of India__2": 3.911291372,
      "Marginal Workers Cultivators worked for 3 - 6 moths during last year - Males": 3709,
      "Prevalence of Anaemia  in percentage DLHS-4": 67.7,
      "Prevalence of Chronic illness in percentage DLHS-4": 3.2,
      "Households with solar energy as main source of lighting in percentage Houselisting and Housing Census Data Tables- District Level , Census of India__1": 0.0495,
      "Marginal Workers Agricultural Labourers worked for 0 - 3 moths during last year - Females": 3514,
      "Main Workers - Males": 398814,
      "Female": "NA",
      "Sno": 1630,
      "Marginal Workers Other worked for 3 - 6 moths during last year - Females": 13188,
      "Marginal Workers Cultivators worked for 0 - 3 moths during last year - Females": 306,
      "Scheduled Tribe Males": 1923,
      "Male Illiterates": 175749,
      "Prevalence of Severe Anaemia in pregnant women aged 15-49years in percentage DLHS-4": 3.6,
      "0-6 Age Group Persons": 167364,
      "Upper Primary Student-Classroom Ratio in percentage DISE": "NA",
      "Currently married men married below 21years of age in percentage DLHS-4": 1.1,
      "Male Literates": 592979,
      "Households with no lighting in percentage Houselisting and Housing Census Data Tables- District Level , Census of India__2": 0.653577758,
      "Primary Drop Out Rate in percentage DISE": "NA",
      "Marginal Workers Household Industry - Males": 2095,
      "Female Illiterates": 281143,
      "Main Workers Other - Females": 57159,
      "Marginal Workers Cultivators - Persons": 6675,
      "Upper Primary Gross Enrolment Ratio in percentage DISE": "NA",
      "Scheduled Caste Persons": 345247,
      "Marginal Workers Cultivators worked for 3 - 6 moths during last year - Persons": 5910,
      "Households with landline phone in percentage": 6.49,
      "Total Households in District  Houselisting and Housing Census Data Tables- District Level , Census of India": 422597,
      "Upper Primary Pupil-Teacher Ratio in percentage DISE": "NA",
      "Primary Student-Classroom Ratio in percentage DISE": "NA",
      "Primary Schools with boys toilet in percentage DISE": "NA",
      "Mean number of children ever born to women aged 40-49years  DLHS-4": 2.6,
      "Households receiving untreated tap water within premises  Houselisting and Housing Census Data Tables- District Level , Census of India__5": 16529,
      "Marginal Workers Household Industry worked for 0 - 3 moths during last year - Persons": 2740,
      "Total Male Population": 768728,
      "Non Workers - Females": 446020,
      "Current use of family planning methods in percentage DLHS-4": 51.5,
      "Households with main source of drinking water within premises  Houselisting and Housing Census Data Tables- District Level , Census of India__3": 80207,
      "Main Workers Agricultural Labourers - Males": 140230,
      "Marginal Workers Other worked for 0 - 3 moths during last year - Persons": 6231,
      "Currently married women married below 18years of age in percentage DLHS-4": 2.7,
      "Person Illiterates": 456892,
      "Main Workers Household Industry - Females": 111940,
      "Female Literates": 507133,
      "Marginal Workers Cultivators worked for 0 - 3 moths during last year - Males": 459,
      "Male": "NA",
      "Households with improved source of drinking water in percentage DLHS-4": 97.2,
      "Upper Primary Schools with electricity in percentage DISE": "NA",
      "Households with electricity in percentage DLHS-4": 96,
      "Villages with Primary Health Centre within 10km in percentage DLHS-4": "Not applicable",
      "Births to women aged 15-19years out of Total births in percentage DLHS-4": 1.9,
      "Prevalence of Anaemia in women aged 15-49years in percentage DLHS-4": 49.8,
      "Marginal Workers Agricultural Labourers worked for 3 - 6 moths during last year - Persons": 39099,
      "Main Workers Household Industry - Males": 12893,
      "Scheduled Tribe Females": 1899,
      "Marginal Workers worked for 0 - 3 moths during last year - Males": 7293,
      "Marginal Workers Other worked for 3 - 6 moths during last year - Males": 18990,
      "Primary Net Enrolment Ratio in percentage DISE": "NA",
      "Total": "NA",
      "Mean age at marriage for boys DLHS-4": 27.8,
      "Number of District Hospitals  DLHS-4": "Not applicable",
      "0-6 Age Group Females": 82011,
      "Marginal Workers Agricultural Labourers worked for 0 - 3 moths during last year - Persons": 6571,
      "Marginal Workers Household Industry worked for 0 - 3 moths during last year - Males": 476,
      "Total Workers  Females": 342256,
      "Marginal Workers worked for 3 - 6 moths during last year - Females": 43280,
      "Institutional Deliveries in percentage DLHS-4": 97,
      "Marginal Workers Other - Males": 22291,
      "Total Workers  Males": 450874,
      "Main Workers - Females": 289962,
      "Primary Gross Enrolment Ratio in percentage DISE": "NA",
      "Main Workers Cultivators - Persons": 86648,
      "Marginal Workers Household Industry worked for 0 - 3 moths during last year - Females": 2264,
      "Upper Primary Net Enrolment Ratio in percentage DISE": "NA",
      "Primary New Government Schools since 2003 in percentage DISE": "NA",
      "Tier": "Rural",
      "Marginal Workers Household Industry - Females": 11505,
      "Primary Schools with electricity in percentage DISE": "NA",
      "Main Workers Other - Persons": 238174,
      "Marginal Workers Household Industry worked for 3 - 6 moths during last year - Females": 9241,
      "Main Workers Cultivators - Males": 64676,
      "Main Workers Household Industry - Persons": 124833,
      "Marginal Workers Cultivators worked for 0 - 3 moths during last year - Persons": 765,
      "Scheduled Caste Males": 169385,
      "Marginal Workers - Persons": 104354,
      "Deliveries at home conducted by skilled health personnel in percentage DLHS-4": 2.3,
      "Villages with Sub-Health Centres within 3km in percentage DLHS-4": "Not applicable",
      "Upper Primary New Government Schools since 2003 in percentage DISE": "NA",
      "0-6 Age Group Males": 85353,
      "Primary Schools with drinking water facility in percentage DISE": "NA",
      "Non Workers - Persons": 763874,
      "Person Literates": 1100112,
      "State": "TAMIL NADU",
      "Total Female Population": 788276,
      "Marginal Workers worked for 0 - 3 moths during last year - Persons": 16307,
      "Marginal Workers Cultivators - Females": 2507,
      "Marginal Workers Other - Persons": 38409,
      "Sex Ratio": 1025,
      "Scheduled Tribe Persons": 3822,
      "Marginal Workers Household Industry worked for 3 - 6 moths during last year - Males": 1619,
      "Marginal Workers Agricultural Labourers - Females": 22164,
      "Mean age at marriage for girls DLHS-4": 22.2,
      "Households with solar energy as main source of lighting  Houselisting and Housing Census Data Tables- District Level , Census of India__4": 209,
      "District": "TIRUNELVELI",
      "Households receiving treated tap water within premises in percentage Houselisting and Housing Census Data Tables- District Level , Census of India__1": 12.48328786,
      "Total Workers  Persons": 793130,
      "Households receiving treated tap water within premises  Houselisting and Housing Census Data Tables- District Level , Census of India__4": 52754,
      "Primary Female Teachers in percentage DISE": "NA",
      "Number of Households": 419057,
      "Main Workers Agricultural Labourers - Persons": 239121
    }
  ],
  "Urban": [
    {
      "Marginal Workers Agricultural Labourers - Persons": 13010,
      "Marginal Workers Other - Females": 12640,
      "Marginal Workers Other worked for 0 - 3 moths during last year - Females": 2379,
      "Upper Primary Schools with boys toilet in percentage DISE": "NA",
      "Total Population": 1520229,
      "Households with electricity as main source of lighting in percentage Houselisting and Housing Census Data Tables- District Level , Census of India": 96.02946723,
      "Primary Girl's Enrolment in percentage DISE": "NA",
      "Marginal Workers worked for 3 - 6 moths during last year - Males": 27110,
      "Prevalence of Acute illness in percentage DLHS-4": "Not available",
      "Main Workers - Persons": 582631,
      "Main Workers Cultivators - Females": 3791,
      "Marginal Workers Agricultural Labourers worked for 3 - 6 moths during last year - Females": 4993,
      "Marginal Workers Other worked for 0 - 3 moths during last year - Males": 4600,
      "Upper Primary Schools with drinking water facility in percentage DISE": "NA",
      "Primary Schools with girls toilet in percentage DISE": "NA",
      "Marginal Workers worked for 3 - 6 moths during last year - Persons": 49420,
      "Upper Primary Drop Out Rate in percentage DISE": "NA",
      "Prevalence of Anaemia in pregnant women aged 15-49years in percentage DLHS-4": "Not available",
      "Current use of any modern method of family planning in percentage DLHS-4": "Not available",
      "Marginal Workers Agricultural Labourers - Males": 7211,
      "Upper Primary Female Teachers in percentage DISE": "NA",
      "Marginal Workers - Females": 27645,
      "Marginal Workers Other worked for 3 - 6 moths during last year - Persons": 29210,
      "Main Workers Agricultural Labourers - Females": 28293,
      "Marginal Workers Cultivators worked for 3 - 6 moths during last year - Females": 269,
      "Households with no lighting  Houselisting and Housing Census Data Tables- District Level , Census of India__5": 1935,
      "Prevalence of Severe Anaemia  in percentage DLHS-4": "Not available",
      "Total unmet need for family planning in percentage DLHS-4": "Not available",
      "Main Workers Other - Males": 308030,
      "Children who received full vaccination in percentage DLHS-4": "Not available",
      "Marginal Workers Household Industry - Persons": 10397,
      "Primary Pupil-Teacher Ratio in percentage DISE": "NA",
      "Marginal Workers Agricultural Labourers worked for 3 - 6 moths during last year - Males": 6327,
      "Scheduled Caste Females": 114282,
      "Marginal Workers Cultivators - Males": 794,
      "Marginal Workers - Males": 33048,
      "Marginal Workers worked for 0 - 3 moths during last year - Females": 5335,
      "Households with main source of drinking water within premises in percentage Houselisting and Housing Census Data Tables- District Level , Census of India": 54.45478088,
      "Marginal Workers Household Industry worked for 3 - 6 moths during last year - Persons": 7918,
      "Upper Primary Girl's Enrolment in percentage DISE": "NA",
      "Prevalence of Severe Anaemia in women aged 15-49years in percentage DLHS-4": "Not available",
      "Marginal Workers Agricultural Labourers worked for 0 - 3 moths during last year - Males": 884,
      "Households with electricity as main source of lighting  Houselisting and Housing Census Data Tables- District Level , Census of India__3": 381938,
      "Households with computer or laptop with internet connection in percentage": 3.5,
      "PHCs functioning on a 24x7hours basis in percentage DLHS-4": 0,
      "Non Workers - Males": 326883,
      "Total Households in District Houselisting and Housing Census Data Tables- District Level , Census of India": 397730,
      "Upper Primary Schools with girls toilet in percentage DISE": "NA",
      "Households with mobile phone in percentage": 62.8,
      "Households receiving untreated tap water within premises in percentage Houselisting and Housing Census Data Tables- District Level , Census of India__2": 3.97002992,
      "Marginal Workers Cultivators worked for 3 - 6 moths during last year - Males": 703,
      "Prevalence of Anaemia  in percentage DLHS-4": "Not available",
      "Prevalence of Chronic illness in percentage DLHS-4": "Not available",
      "Households with solar energy as main source of lighting in percentage Houselisting and Housing Census Data Tables- District Level , Census of India__1": 0.0415,
      "Marginal Workers Agricultural Labourers worked for 0 - 3 moths during last year - Females": 806,
      "Main Workers - Males": 392253,
      "Female": "NA",
      "Sno": 1632,
      "Marginal Workers Other worked for 3 - 6 moths during last year - Females": 10261,
      "Marginal Workers Cultivators worked for 0 - 3 moths during last year - Females": 34,
      "Scheduled Tribe Males": 3186,
      "Male Illiterates": 134453,
      "Prevalence of Severe Anaemia in pregnant women aged 15-49years in percentage DLHS-4": "Not available",
      "0-6 Age Group Persons": 154323,
      "Upper Primary Student-Classroom Ratio in percentage DISE": "NA",
      "Currently married men married below 21years of age in percentage DLHS-4": "Not available",
      "Male Literates": 617731,
      "Households with no lighting in percentage Houselisting and Housing Census Data Tables- District Level , Census of India__2": 0.48651095,
      "Primary Drop Out Rate in percentage DISE": "NA",
      "Marginal Workers Household Industry - Males": 1494,
      "Female Illiterates": 212431,
      "Main Workers Other - Females": 80510,
      "Marginal Workers Cultivators - Persons": 1097,
      "Upper Primary Gross Enrolment Ratio in percentage DISE": "NA",
      "Scheduled Caste Persons": 224467,
      "Marginal Workers Cultivators worked for 3 - 6 moths during last year - Persons": 972,
      "Households with landline phone in percentage": 5.38,
      "Total Households in District  Houselisting and Housing Census Data Tables- District Level , Census of India": 397730,
      "Upper Primary Pupil-Teacher Ratio in percentage DISE": "NA",
      "Primary Student-Classroom Ratio in percentage DISE": "NA",
      "Primary Schools with boys toilet in percentage DISE": "NA",
      "Mean number of children ever born to women aged 40-49years  DLHS-4": "Not available",
      "Households receiving untreated tap water within premises  Houselisting and Housing Census Data Tables- District Level , Census of India__5": 15790,
      "Marginal Workers Household Industry worked for 0 - 3 moths during last year - Persons": 2479,
      "Total Male Population": 752184,
      "Non Workers - Females": 550022,
      "Current use of family planning methods in percentage DLHS-4": "Not available",
      "Households with main source of drinking water within premises  Houselisting and Housing Census Data Tables- District Level , Census of India__3": 216583,
      "Main Workers Agricultural Labourers - Males": 53669,
      "Marginal Workers Other worked for 0 - 3 moths during last year - Persons": 6979,
      "Currently married women married below 18years of age in percentage DLHS-4": "Not available",
      "Person Illiterates": 346884,
      "Main Workers Household Industry - Females": 77784,
      "Female Literates": 555614,
      "Marginal Workers Cultivators worked for 0 - 3 moths during last year - Males": 91,
      "Male": "NA",
      "Households with improved source of drinking water in percentage DLHS-4": "Not available",
      "Upper Primary Schools with electricity in percentage DISE": "NA",
      "Households with electricity in percentage DLHS-4": "Not available",
      "Villages with Primary Health Centre within 10km in percentage DLHS-4": 0,
      "Births to women aged 15-19years out of Total births in percentage DLHS-4": "Not available",
      "Prevalence of Anaemia in women aged 15-49years in percentage DLHS-4": "Not available",
      "Marginal Workers Agricultural Labourers worked for 3 - 6 moths during last year - Persons": 11320,
      "Main Workers Household Industry - Males": 13050,
      "Scheduled Tribe Females": 3262,
      "Marginal Workers worked for 0 - 3 moths during last year - Males": 5938,
      "Marginal Workers Other worked for 3 - 6 moths during last year - Males": 18949,
      "Primary Net Enrolment Ratio in percentage DISE": "NA",
      "Total": "NA",
      "Mean age at marriage for boys DLHS-4": "Not available",
      "Number of District Hospitals  DLHS-4": 0,
      "0-6 Age Group Females": 75519,
      "Marginal Workers Agricultural Labourers worked for 0 - 3 moths during last year - Persons": 1690,
      "Marginal Workers Household Industry worked for 0 - 3 moths during last year - Males": 363,
      "Total Workers  Females": 218023,
      "Marginal Workers worked for 3 - 6 moths during last year - Females": 22310,
      "Institutional Deliveries in percentage DLHS-4": "Not available",
      "Marginal Workers Other - Males": 23549,
      "Total Workers  Males": 425301,
      "Main Workers - Females": 190378,
      "Primary Gross Enrolment Ratio in percentage DISE": "NA",
      "Main Workers Cultivators - Persons": 21295,
      "Marginal Workers Household Industry worked for 0 - 3 moths during last year - Females": 2116,
      "Upper Primary Net Enrolment Ratio in percentage DISE": "NA",
      "Primary New Government Schools since 2003 in percentage DISE": "NA",
      "Tier": "Urban",
      "Marginal Workers Household Industry - Females": 8903,
      "Primary Schools with electricity in percentage DISE": "NA",
      "Main Workers Other - Persons": 388540,
      "Marginal Workers Household Industry worked for 3 - 6 moths during last year - Females": 6787,
      "Main Workers Cultivators - Males": 17504,
      "Main Workers Household Industry - Persons": 90834,
      "Marginal Workers Cultivators worked for 0 - 3 moths during last year - Persons": 125,
      "Scheduled Caste Males": 110185,
      "Marginal Workers - Persons": 60693,
      "Deliveries at home conducted by skilled health personnel in percentage DLHS-4": "Not available",
      "Villages with Sub-Health Centres within 3km in percentage DLHS-4": 0,
      "Upper Primary New Government Schools since 2003 in percentage DISE": "NA",
      "0-6 Age Group Males": 78804,
      "Primary Schools with drinking water facility in percentage DISE": "NA",
      "Non Workers - Persons": 876905,
      "Person Literates": 1173345,
      "State": "TAMIL NADU",
      "Total Female Population": 768045,
      "Marginal Workers worked for 0 - 3 moths during last year - Persons": 11273,
      "Marginal Workers Cultivators - Females": 303,
      "Marginal Workers Other - Persons": 36189,
      "Sex Ratio": 1021,
      "Scheduled Tribe Persons": 6448,
      "Marginal Workers Household Industry worked for 3 - 6 moths during last year - Males": 1131,
      "Marginal Workers Agricultural Labourers - Females": 5799,
      "Mean age at marriage for girls DLHS-4": "Not available",
      "Households with solar energy as main source of lighting  Houselisting and Housing Census Data Tables- District Level , Census of India__4": 165,
      "District": "TIRUNELVELI",
      "Households receiving treated tap water within premises in percentage Houselisting and Housing Census Data Tables- District Level , Census of India__1": 46.22558017,
      "Total Workers  Persons": 643324,
      "Households receiving treated tap water within premises  Houselisting and Housing Census Data Tables- District Level , Census of India__4": 183853,
      "Primary Female Teachers in percentage DISE": "NA",
      "Number of Households": 396471,
      "Main Workers Agricultural Labourers - Persons": 81962
    }
  ]
}