{
  "Total": [
    {
      "Marginal Workers Agricultural Labourers - Persons": 173753,
      "Marginal Workers Other - Females": 20884,
      "Marginal Workers Other worked for 0 - 3 moths during last year - Females": 4064,
      "Upper Primary Schools with boys toilet in percentage DISE": 100,
      "Total Population": 2464875,
      "Households with electricity as main source of lighting in percentage Houselisting and Housing Census Data Tables- District Level , Census of India": 92.55188247,
      "Primary Girl's Enrolment in percentage DISE": 50.2,
      "Marginal Workers worked for 3 - 6 moths during last year - Males": 103585,
      "Prevalence of Acute illness in percentage DLHS-4": 3.8,
      "Main Workers - Persons": 970072,
      "Main Workers Cultivators - Females": 87357,
      "Marginal Workers Agricultural Labourers worked for 3 - 6 moths during last year - Females": 94333,
      "Marginal Workers Other worked for 0 - 3 moths during last year - Males": 5683,
      "Upper Primary Schools with drinking water facility in percentage DISE": 100,
      "Primary Schools with girls toilet in percentage DISE": 99.3,
      "Marginal Workers worked for 3 - 6 moths during last year - Persons": 229431,
      "Upper Primary Drop Out Rate in percentage DISE": 3.36,
      "Prevalence of Anaemia in pregnant women aged 15-49years in percentage DLHS-4": 47.3,
      "Current use of any modern method of family planning in percentage DLHS-4": 54,
      "Marginal Workers Agricultural Labourers - Males": 64123,
      "Upper Primary Female Teachers in percentage DISE": 100,
      "Marginal Workers - Females": 148320,
      "Marginal Workers Other worked for 3 - 6 moths during last year - Persons": 47447,
      "Main Workers Agricultural Labourers - Females": 185995,
      "Marginal Workers Cultivators worked for 3 - 6 moths during last year - Females": 10155,
      "Households with no lighting  Houselisting and Housing Census Data Tables- District Level , Census of India__5": 2041,
      "Prevalence of Severe Anaemia  in percentage DLHS-4": 1.5,
      "Total unmet need for family planning in percentage DLHS-4": 23.1,
      "Main Workers Other - Males": 252049,
      "Children who received full vaccination in percentage DLHS-4": 60.5,
      "Marginal Workers Household Industry - Persons": 9700,
      "Primary Pupil-Teacher Ratio in percentage DISE": 22,
      "Marginal Workers Agricultural Labourers worked for 3 - 6 moths during last year - Males": 55937,
      "Scheduled Caste Females": 282714,
      "Marginal Workers Cultivators - Males": 15772,
      "Marginal Workers - Males": 119785,
      "Marginal Workers worked for 0 - 3 moths during last year - Females": 22474,
      "Households with main source of drinking water within premises in percentage Houselisting and Housing Census Data Tables- District Level , Census of India": 26.62676313,
      "Marginal Workers Household Industry worked for 3 - 6 moths during last year - Persons": 7301,
      "Upper Primary Girl's Enrolment in percentage DISE": 85.3,
      "Prevalence of Severe Anaemia in women aged 15-49years in percentage DLHS-4": 1.4,
      "Marginal Workers Agricultural Labourers worked for 0 - 3 moths during last year - Males": 8186,
      "Households with electricity as main source of lighting  Houselisting and Housing Census Data Tables- District Level , Census of India__3": 549077,
      "Households with computer or laptop with internet connection in percentage": 1.09,
      "PHCs functioning on a 24x7hours basis in percentage DLHS-4": 100,
      "Non Workers - Males": 496894,
      "Total Households in District Houselisting and Housing Census Data Tables- District Level , Census of India": 593264,
      "Upper Primary Schools with girls toilet in percentage DISE": 100,
      "Households with mobile phone in percentage": 58.28,
      "Households receiving untreated tap water within premises in percentage Houselisting and Housing Census Data Tables- District Level , Census of India__2": 8.341480353,
      "Marginal Workers Cultivators worked for 3 - 6 moths during last year - Males": 14258,
      "Prevalence of Anaemia  in percentage DLHS-4": 53.2,
      "Prevalence of Chronic illness in percentage DLHS-4": 3.7,
      "Households with solar energy as main source of lighting in percentage Houselisting and Housing Census Data Tables- District Level , Census of India__1": 0.0774,
      "Marginal Workers Agricultural Labourers worked for 0 - 3 moths during last year - Females": 15297,
      "Main Workers - Males": 619210,
      "Female": 65.32,
      "Sno": 1637,
      "Marginal Workers Other worked for 3 - 6 moths during last year - Females": 16820,
      "Marginal Workers Cultivators worked for 0 - 3 moths during last year - Females": 1531,
      "Scheduled Tribe Males": 45956,
      "Male Illiterates": 326086,
      "Prevalence of Severe Anaemia in pregnant women aged 15-49years in percentage DLHS-4": 1.8,
      "0-6 Age Group Persons": 272569,
      "Upper Primary Student-Classroom Ratio in percentage DISE": 16,
      "Currently married men married below 21years of age in percentage DLHS-4": 4.9,
      "Male Literates": 909803,
      "Households with no lighting in percentage Houselisting and Housing Census Data Tables- District Level , Census of India__2": 0.344028965,
      "Primary Drop Out Rate in percentage DISE": 1.5,
      "Marginal Workers Household Industry - Males": 3580,
      "Female Illiterates": 511976,
      "Main Workers Other - Females": 64510,
      "Marginal Workers Cultivators - Persons": 27458,
      "Upper Primary Gross Enrolment Ratio in percentage DISE": 96.7,
      "Scheduled Caste Persons": 565329,
      "Marginal Workers Cultivators worked for 3 - 6 moths during last year - Persons": 24413,
      "Households with landline phone in percentage": 3.98,
      "Total Households in District  Houselisting and Housing Census Data Tables- District Level , Census of India": 593264,
      "Upper Primary Pupil-Teacher Ratio in percentage DISE": 10,
      "Primary Student-Classroom Ratio in percentage DISE": 19,
      "Primary Schools with boys toilet in percentage DISE": 94.2,
      "Mean number of children ever born to women aged 40-49years  DLHS-4": 2.4,
      "Households receiving untreated tap water within premises  Houselisting and Housing Census Data Tables- District Level , Census of India__5": 49487,
      "Marginal Workers Household Industry worked for 0 - 3 moths during last year - Persons": 2399,
      "Total Male Population": 1235889,
      "Non Workers - Females": 729804,
      "Current use of family planning methods in percentage DLHS-4": 54.3,
      "Households with main source of drinking water within premises  Houselisting and Housing Census Data Tables- District Level , Census of India__3": 157967,
      "Main Workers Agricultural Labourers - Males": 165315,
      "Marginal Workers Other worked for 0 - 3 moths during last year - Persons": 9747,
      "Currently married women married below 18years of age in percentage DLHS-4": 11.6,
      "Person Illiterates": 838062,
      "Main Workers Household Industry - Females": 13000,
      "Female Literates": 717010,
      "Marginal Workers Cultivators worked for 0 - 3 moths during last year - Males": 1514,
      "Male": 83.11,
      "Households with improved source of drinking water in percentage DLHS-4": 98.8,
      "Upper Primary Schools with electricity in percentage DISE": 83.3,
      "Households with electricity in percentage DLHS-4": 97.9,
      "Villages with Primary Health Centre within 10km in percentage DLHS-4": 92,
      "Births to women aged 15-19years out of Total births in percentage DLHS-4": 10.7,
      "Prevalence of Anaemia in women aged 15-49years in percentage DLHS-4": 43.5,
      "Marginal Workers Agricultural Labourers worked for 3 - 6 moths during last year - Persons": 150270,
      "Main Workers Household Industry - Males": 24020,
      "Scheduled Tribe Females": 44998,
      "Marginal Workers worked for 0 - 3 moths during last year - Males": 16200,
      "Marginal Workers Other worked for 3 - 6 moths during last year - Males": 30627,
      "Primary Net Enrolment Ratio in percentage DISE": 81.6,
      "Total": 74.21,
      "Mean age at marriage for boys DLHS-4": 26.8,
      "Number of District Hospitals  DLHS-4": 1,
      "0-6 Age Group Females": 131364,
      "Marginal Workers Agricultural Labourers worked for 0 - 3 moths during last year - Persons": 23483,
      "Marginal Workers Household Industry worked for 0 - 3 moths during last year - Males": 817,
      "Total Workers  Females": 499182,
      "Marginal Workers worked for 3 - 6 moths during last year - Females": 125846,
      "Institutional Deliveries in percentage DLHS-4": 99,
      "Marginal Workers Other - Males": 36310,
      "Total Workers  Males": 738995,
      "Main Workers - Females": 350862,
      "Primary Gross Enrolment Ratio in percentage DISE": 100.3,
      "Main Workers Cultivators - Persons": 265183,
      "Marginal Workers Household Industry worked for 0 - 3 moths during last year - Females": 1582,
      "Upper Primary Net Enrolment Ratio in percentage DISE": 71.7,
      "Primary New Government Schools since 2003 in percentage DISE": 5.1,
      "Tier": "Total",
      "Marginal Workers Household Industry - Females": 6120,
      "Primary Schools with electricity in percentage DISE": 97.1,
      "Main Workers Other - Persons": 316559,
      "Marginal Workers Household Industry worked for 3 - 6 moths during last year - Females": 4538,
      "Main Workers Cultivators - Males": 177826,
      "Main Workers Household Industry - Persons": 37020,
      "Marginal Workers Cultivators worked for 0 - 3 moths during last year - Persons": 3045,
      "Scheduled Caste Males": 282615,
      "Marginal Workers - Persons": 268105,
      "Deliveries at home conducted by skilled health personnel in percentage DLHS-4": 0,
      "Villages with Sub-Health Centres within 3km in percentage DLHS-4": 76,
      "Upper Primary New Government Schools since 2003 in percentage DISE": 0,
      "0-6 Age Group Males": 141205,
      "Primary Schools with drinking water facility in percentage DISE": 100,
      "Non Workers - Persons": 1226698,
      "Person Literates": 1626813,
      "State": "TAMIL NADU",
      "Total Female Population": 1228986,
      "Marginal Workers worked for 0 - 3 moths during last year - Persons": 38674,
      "Marginal Workers Cultivators - Females": 11686,
      "Marginal Workers Other - Persons": 57194,
      "Sex Ratio": 994,
      "Scheduled Tribe Persons": 90954,
      "Marginal Workers Household Industry worked for 3 - 6 moths during last year - Males": 2763,
      "Marginal Workers Agricultural Labourers - Females": 109630,
      "Mean age at marriage for girls DLHS-4": 21.9,
      "Households with solar energy as main source of lighting  Houselisting and Housing Census Data Tables- District Level , Census of India__4": 459,
      "District": "TIRUVANNAMALAI",
      "Households receiving treated tap water within premises in percentage Houselisting and Housing Census Data Tables- District Level , Census of India__1": 15.16323256,
      "Total Workers  Persons": 1238177,
      "Households receiving treated tap water within premises  Houselisting and Housing Census Data Tables- District Level , Census of India__4": 89958,
      "Primary Female Teachers in percentage DISE": 73.1,
      "Number of Households": 588836,
      "Main Workers Agricultural Labourers - Persons": 351310
    }
  ],
  "Rural": [
    {
      "Marginal Workers Agricultural Labourers - Persons": 167460,
      "Marginal Workers Other - Females": 15476,
      "Marginal Workers Other worked for 0 - 3 moths during last year - Females": 3177,
      "Upper Primary Schools with boys toilet in percentage DISE": "NA",
      "Total Population": 1969930,
      "Households with electricity as main source of lighting in percentage Houselisting and Housing Census Data Tables- District Level , Census of India": 91.75948322,
      "Primary Girl's Enrolment in percentage DISE": "NA",
      "Marginal Workers worked for 3 - 6 moths during last year - Males": 93208,
      "Prevalence of Acute illness in percentage DLHS-4": 4.9,
      "Main Workers - Persons": 804135,
      "Main Workers Cultivators - Females": 85581,
      "Marginal Workers Agricultural Labourers worked for 3 - 6 moths during last year - Females": 91123,
      "Marginal Workers Other worked for 0 - 3 moths during last year - Males": 4038,
      "Upper Primary Schools with drinking water facility in percentage DISE": "NA",
      "Primary Schools with girls toilet in percentage DISE": "NA",
      "Marginal Workers worked for 3 - 6 moths during last year - Persons": 210087,
      "Upper Primary Drop Out Rate in percentage DISE": "NA",
      "Prevalence of Anaemia in pregnant women aged 15-49years in percentage DLHS-4": 40,
      "Current use of any modern method of family planning in percentage DLHS-4": 58.4,
      "Marginal Workers Agricultural Labourers - Males": 61815,
      "Upper Primary Female Teachers in percentage DISE": "NA",
      "Marginal Workers - Females": 137319,
      "Marginal Workers Other worked for 3 - 6 moths during last year - Persons": 35297,
      "Main Workers Agricultural Labourers - Females": 178087,
      "Marginal Workers Cultivators worked for 3 - 6 moths during last year - Females": 9886,
      "Households with no lighting  Houselisting and Housing Census Data Tables- District Level , Census of India__5": 1656,
      "Prevalence of Severe Anaemia  in percentage DLHS-4": 0.7,
      "Total unmet need for family planning in percentage DLHS-4": 19.5,
      "Main Workers Other - Males": 146406,
      "Children who received full vaccination in percentage DLHS-4": 57.7,
      "Marginal Workers Household Industry - Persons": 7854,
      "Primary Pupil-Teacher Ratio in percentage DISE": "NA",
      "Marginal Workers Agricultural Labourers worked for 3 - 6 moths during last year - Males": 54048,
      "Scheduled Caste Females": 246468,
      "Marginal Workers Cultivators - Males": 15304,
      "Marginal Workers - Males": 107192,
      "Marginal Workers worked for 0 - 3 moths during last year - Females": 20440,
      "Households with main source of drinking water within premises in percentage Houselisting and Housing Census Data Tables- District Level , Census of India": 18.82998747,
      "Marginal Workers Household Industry worked for 3 - 6 moths during last year - Persons": 5903,
      "Upper Primary Girl's Enrolment in percentage DISE": "NA",
      "Prevalence of Severe Anaemia in women aged 15-49years in percentage DLHS-4": 1.4,
      "Marginal Workers Agricultural Labourers worked for 0 - 3 moths during last year - Males": 7767,
      "Households with electricity as main source of lighting  Houselisting and Housing Census Data Tables- District Level , Census of India__3": 437790,
      "Households with computer or laptop with internet connection in percentage": 0.62,
      "PHCs functioning on a 24x7hours basis in percentage DLHS-4": "Not applicable",
      "Non Workers - Males": 389788,
      "Total Households in District Houselisting and Housing Census Data Tables- District Level , Census of India": 477106,
      "Upper Primary Schools with girls toilet in percentage DISE": "NA",
      "Households with mobile phone in percentage": 55.88,
      "Households receiving untreated tap water within premises in percentage Houselisting and Housing Census Data Tables- District Level , Census of India__2": 8.474427067,
      "Marginal Workers Cultivators worked for 3 - 6 moths during last year - Males": 13830,
      "Prevalence of Anaemia  in percentage DLHS-4": 49.3,
      "Prevalence of Chronic illness in percentage DLHS-4": 3.2,
      "Households with solar energy as main source of lighting in percentage Houselisting and Housing Census Data Tables- District Level , Census of India__1": 0.0828,
      "Marginal Workers Agricultural Labourers worked for 0 - 3 moths during last year - Females": 14522,
      "Main Workers - Males": 492746,
      "Female": "NA",
      "Sno": 1636,
      "Marginal Workers Other worked for 3 - 6 moths during last year - Females": 12299,
      "Marginal Workers Cultivators worked for 0 - 3 moths during last year - Females": 1495,
      "Scheduled Tribe Males": 43864,
      "Male Illiterates": 279061,
      "Prevalence of Severe Anaemia in pregnant women aged 15-49years in percentage DLHS-4": 4,
      "0-6 Age Group Persons": 220384,
      "Upper Primary Student-Classroom Ratio in percentage DISE": "NA",
      "Currently married men married below 21years of age in percentage DLHS-4": 4.3,
      "Male Literates": 710665,
      "Households with no lighting in percentage Houselisting and Housing Census Data Tables- District Level , Census of India__2": 0.34709268,
      "Primary Drop Out Rate in percentage DISE": "NA",
      "Marginal Workers Household Industry - Males": 3037,
      "Female Illiterates": 437771,
      "Main Workers Other - Females": 38382,
      "Marginal Workers Cultivators - Persons": 26685,
      "Upper Primary Gross Enrolment Ratio in percentage DISE": "NA",
      "Scheduled Caste Persons": 493925,
      "Marginal Workers Cultivators worked for 3 - 6 moths during last year - Persons": 23716,
      "Households with landline phone in percentage": 3.72,
      "Total Households in District  Houselisting and Housing Census Data Tables- District Level , Census of India": 477106,
      "Upper Primary Pupil-Teacher Ratio in percentage DISE": "NA",
      "Primary Student-Classroom Ratio in percentage DISE": "NA",
      "Primary Schools with boys toilet in percentage DISE": "NA",
      "Mean number of children ever born to women aged 40-49years  DLHS-4": 2.4,
      "Households receiving untreated tap water within premises  Houselisting and Housing Census Data Tables- District Level , Census of India__5": 40432,
      "Marginal Workers Household Industry worked for 0 - 3 moths during last year - Persons": 1951,
      "Total Male Population": 989726,
      "Non Workers - Females": 531496,
      "Current use of family planning methods in percentage DLHS-4": 59,
      "Households with main source of drinking water within premises  Houselisting and Housing Census Data Tables- District Level , Census of India__3": 89839,
      "Main Workers Agricultural Labourers - Males": 157051,
      "Marginal Workers Other worked for 0 - 3 moths during last year - Persons": 7215,
      "Currently married women married below 18years of age in percentage DLHS-4": 13.6,
      "Person Illiterates": 716832,
      "Main Workers Household Industry - Females": 9339,
      "Female Literates": 542433,
      "Marginal Workers Cultivators worked for 0 - 3 moths during last year - Males": 1474,
      "Male": "NA",
      "Households with improved source of drinking water in percentage DLHS-4": 99.2,
      "Upper Primary Schools with electricity in percentage DISE": "NA",
      "Households with electricity in percentage DLHS-4": 97.5,
      "Villages with Primary Health Centre within 10km in percentage DLHS-4": "Not applicable",
      "Births to women aged 15-19years out of Total births in percentage DLHS-4": 10.1,
      "Prevalence of Anaemia in women aged 15-49years in percentage DLHS-4": 38,
      "Marginal Workers Agricultural Labourers worked for 3 - 6 moths during last year - Persons": 145171,
      "Main Workers Household Industry - Males": 16983,
      "Scheduled Tribe Females": 42911,
      "Marginal Workers worked for 0 - 3 moths during last year - Males": 13984,
      "Marginal Workers Other worked for 3 - 6 moths during last year - Males": 22998,
      "Primary Net Enrolment Ratio in percentage DISE": "NA",
      "Total": "NA",
      "Mean age at marriage for boys DLHS-4": 26,
      "Number of District Hospitals  DLHS-4": "Not applicable",
      "0-6 Age Group Females": 106035,
      "Marginal Workers Agricultural Labourers worked for 0 - 3 moths during last year - Persons": 22289,
      "Marginal Workers Household Industry worked for 0 - 3 moths during last year - Males": 705,
      "Total Workers  Females": 448708,
      "Marginal Workers worked for 3 - 6 moths during last year - Females": 116879,
      "Institutional Deliveries in percentage DLHS-4": 99,
      "Marginal Workers Other - Males": 27036,
      "Total Workers  Males": 599938,
      "Main Workers - Females": 311389,
      "Primary Gross Enrolment Ratio in percentage DISE": "NA",
      "Main Workers Cultivators - Persons": 257887,
      "Marginal Workers Household Industry worked for 0 - 3 moths during last year - Females": 1246,
      "Upper Primary Net Enrolment Ratio in percentage DISE": "NA",
      "Primary New Government Schools since 2003 in percentage DISE": "NA",
      "Tier": "Rural",
      "Marginal Workers Household Industry - Females": 4817,
      "Primary Schools with electricity in percentage DISE": "NA",
      "Main Workers Other - Persons": 184788,
      "Marginal Workers Household Industry worked for 3 - 6 moths during last year - Females": 3571,
      "Main Workers Cultivators - Males": 172306,
      "Main Workers Household Industry - Persons": 26322,
      "Marginal Workers Cultivators worked for 0 - 3 moths during last year - Persons": 2969,
      "Scheduled Caste Males": 247457,
      "Marginal Workers - Persons": 244511,
      "Deliveries at home conducted by skilled health personnel in percentage DLHS-4": 0,
      "Villages with Sub-Health Centres within 3km in percentage DLHS-4": "Not applicable",
      "Upper Primary New Government Schools since 2003 in percentage DISE": "NA",
      "0-6 Age Group Males": 114349,
      "Primary Schools with drinking water facility in percentage DISE": "NA",
      "Non Workers - Persons": 921284,
      "Person Literates": 1253098,
      "State": "TAMIL NADU",
      "Total Female Population": 980204,
      "Marginal Workers worked for 0 - 3 moths during last year - Persons": 34424,
      "Marginal Workers Cultivators - Females": 11381,
      "Marginal Workers Other - Persons": 42512,
      "Sex Ratio": 990,
      "Scheduled Tribe Persons": 86775,
      "Marginal Workers Household Industry worked for 3 - 6 moths during last year - Males": 2332,
      "Marginal Workers Agricultural Labourers - Females": 105645,
      "Mean age at marriage for girls DLHS-4": 20.9,
      "Households with solar energy as main source of lighting  Houselisting and Housing Census Data Tables- District Level , Census of India__4": 395,
      "District": "TIRUVANNAMALAI",
      "Households receiving treated tap water within premises in percentage Houselisting and Housing Census Data Tables- District Level , Census of India__1": 8.822777328,
      "Total Workers  Persons": 1048646,
      "Households receiving treated tap water within premises  Houselisting and Housing Census Data Tables- District Level , Census of India__4": 42094,
      "Primary Female Teachers in percentage DISE": "NA",
      "Number of Households": 472689,
      "Main Workers Agricultural Labourers - Persons": 335138
    }
  ],
  "Urban": [
    {
      "Marginal Workers Agricultural Labourers - Persons": 6293,
      "Marginal Workers Other - Females": 5408,
      "Marginal Workers Other worked for 0 - 3 moths during last year - Females": 887,
      "Upper Primary Schools with boys toilet in percentage DISE": "NA",
      "Total Population": 494945,
      "Households with electricity as main source of lighting in percentage Houselisting and Housing Census Data Tables- District Level , Census of India": 95.8065738,
      "Primary Girl's Enrolment in percentage DISE": "NA",
      "Marginal Workers worked for 3 - 6 moths during last year - Males": 10377,
      "Prevalence of Acute illness in percentage DLHS-4": "Not available",
      "Main Workers - Persons": 165937,
      "Main Workers Cultivators - Females": 1776,
      "Marginal Workers Agricultural Labourers worked for 3 - 6 moths during last year - Females": 3210,
      "Marginal Workers Other worked for 0 - 3 moths during last year - Males": 1645,
      "Upper Primary Schools with drinking water facility in percentage DISE": "NA",
      "Primary Schools with girls toilet in percentage DISE": "NA",
      "Marginal Workers worked for 3 - 6 moths during last year - Persons": 19344,
      "Upper Primary Drop Out Rate in percentage DISE": "NA",
      "Prevalence of Anaemia in pregnant women aged 15-49years in percentage DLHS-4": "Not available",
      "Current use of any modern method of family planning in percentage DLHS-4": "Not available",
      "Marginal Workers Agricultural Labourers - Males": 2308,
      "Upper Primary Female Teachers in percentage DISE": "NA",
      "Marginal Workers - Females": 11001,
      "Marginal Workers Other worked for 3 - 6 moths during last year - Persons": 12150,
      "Main Workers Agricultural Labourers - Females": 7908,
      "Marginal Workers Cultivators worked for 3 - 6 moths during last year - Females": 269,
      "Households with no lighting  Houselisting and Housing Census Data Tables- District Level , Census of India__5": 385,
      "Prevalence of Severe Anaemia  in percentage DLHS-4": "Not available",
      "Total unmet need for family planning in percentage DLHS-4": "Not available",
      "Main Workers Other - Males": 105643,
      "Children who received full vaccination in percentage DLHS-4": "Not available",
      "Marginal Workers Household Industry - Persons": 1846,
      "Primary Pupil-Teacher Ratio in percentage DISE": "NA",
      "Marginal Workers Agricultural Labourers worked for 3 - 6 moths during last year - Males": 1889,
      "Scheduled Caste Females": 36246,
      "Marginal Workers Cultivators - Males": 468,
      "Marginal Workers - Males": 12593,
      "Marginal Workers worked for 0 - 3 moths during last year - Females": 2034,
      "Households with main source of drinking water within premises in percentage Houselisting and Housing Census Data Tables- District Level , Census of India": 58.65114757,
      "Marginal Workers Household Industry worked for 3 - 6 moths during last year - Persons": 1398,
      "Upper Primary Girl's Enrolment in percentage DISE": "NA",
      "Prevalence of Severe Anaemia in women aged 15-49years in percentage DLHS-4": "Not available",
      "Marginal Workers Agricultural Labourers worked for 0 - 3 moths during last year - Males": 419,
      "Households with electricity as main source of lighting  Houselisting and Housing Census Data Tables- District Level , Census of India__3": 111287,
      "Households with computer or laptop with internet connection in percentage": 3.01,
      "PHCs functioning on a 24x7hours basis in percentage DLHS-4": 0,
      "Non Workers - Males": 107106,
      "Total Households in District Houselisting and Housing Census Data Tables- District Level , Census of India": 116158,
      "Upper Primary Schools with girls toilet in percentage DISE": "NA",
      "Households with mobile phone in percentage": 68.12,
      "Households receiving untreated tap water within premises in percentage Houselisting and Housing Census Data Tables- District Level , Census of India__2": 7.795416588,
      "Marginal Workers Cultivators worked for 3 - 6 moths during last year - Males": 428,
      "Prevalence of Anaemia  in percentage DLHS-4": "Not available",
      "Prevalence of Chronic illness in percentage DLHS-4": "Not available",
      "Households with solar energy as main source of lighting in percentage Houselisting and Housing Census Data Tables- District Level , Census of India__1": 0.0551,
      "Marginal Workers Agricultural Labourers worked for 0 - 3 moths during last year - Females": 775,
      "Main Workers - Males": 126464,
      "Female": "NA",
      "Sno": 1638,
      "Marginal Workers Other worked for 3 - 6 moths during last year - Females": 4521,
      "Marginal Workers Cultivators worked for 0 - 3 moths during last year - Females": 36,
      "Scheduled Tribe Males": 2092,
      "Male Illiterates": 47025,
      "Prevalence of Severe Anaemia in pregnant women aged 15-49years in percentage DLHS-4": "Not available",
      "0-6 Age Group Persons": 52185,
      "Upper Primary Student-Classroom Ratio in percentage DISE": "NA",
      "Currently married men married below 21years of age in percentage DLHS-4": "Not available",
      "Male Literates": 199138,
      "Households with no lighting in percentage Houselisting and Housing Census Data Tables- District Level , Census of India__2": 0.331445101,
      "Primary Drop Out Rate in percentage DISE": "NA",
      "Marginal Workers Household Industry - Males": 543,
      "Female Illiterates": 74205,
      "Main Workers Other - Females": 26128,
      "Marginal Workers Cultivators - Persons": 773,
      "Upper Primary Gross Enrolment Ratio in percentage DISE": "NA",
      "Scheduled Caste Persons": 71404,
      "Marginal Workers Cultivators worked for 3 - 6 moths during last year - Persons": 697,
      "Households with landline phone in percentage": 5.05,
      "Total Households in District  Houselisting and Housing Census Data Tables- District Level , Census of India": 116158,
      "Upper Primary Pupil-Teacher Ratio in percentage DISE": "NA",
      "Primary Student-Classroom Ratio in percentage DISE": "NA",
      "Primary Schools with boys toilet in percentage DISE": "NA",
      "Mean number of children ever born to women aged 40-49years  DLHS-4": "Not available",
      "Households receiving untreated tap water within premises  Houselisting and Housing Census Data Tables- District Level , Census of India__5": 9055,
      "Marginal Workers Household Industry worked for 0 - 3 moths during last year - Persons": 448,
      "Total Male Population": 246163,
      "Non Workers - Females": 198308,
      "Current use of family planning methods in percentage DLHS-4": "Not available",
      "Households with main source of drinking water within premises  Houselisting and Housing Census Data Tables- District Level , Census of India__3": 68128,
      "Main Workers Agricultural Labourers - Males": 8264,
      "Marginal Workers Other worked for 0 - 3 moths during last year - Persons": 2532,
      "Currently married women married below 18years of age in percentage DLHS-4": "Not available",
      "Person Illiterates": 121230,
      "Main Workers Household Industry - Females": 3661,
      "Female Literates": 174577,
      "Marginal Workers Cultivators worked for 0 - 3 moths during last year - Males": 40,
      "Male": "NA",
      "Households with improved source of drinking water in percentage DLHS-4": "Not available",
      "Upper Primary Schools with electricity in percentage DISE": "NA",
      "Households with electricity in percentage DLHS-4": "Not available",
      "Villages with Primary Health Centre within 10km in percentage DLHS-4": 0,
      "Births to women aged 15-19years out of Total births in percentage DLHS-4": "Not available",
      "Prevalence of Anaemia in women aged 15-49years in percentage DLHS-4": "Not available",
      "Marginal Workers Agricultural Labourers worked for 3 - 6 moths during last year - Persons": 5099,
      "Main Workers Household Industry - Males": 7037,
      "Scheduled Tribe Females": 2087,
      "Marginal Workers worked for 0 - 3 moths during last year - Males": 2216,
      "Marginal Workers Other worked for 3 - 6 moths during last year - Males": 7629,
      "Primary Net Enrolment Ratio in percentage DISE": "NA",
      "Total": "NA",
      "Mean age at marriage for boys DLHS-4": "Not available",
      "Number of District Hospitals  DLHS-4": 0,
      "0-6 Age Group Females": 25329,
      "Marginal Workers Agricultural Labourers worked for 0 - 3 moths during last year - Persons": 1194,
      "Marginal Workers Household Industry worked for 0 - 3 moths during last year - Males": 112,
      "Total Workers  Females": 50474,
      "Marginal Workers worked for 3 - 6 moths during last year - Females": 8967,
      "Institutional Deliveries in percentage DLHS-4": "Not available",
      "Marginal Workers Other - Males": 9274,
      "Total Workers  Males": 139057,
      "Main Workers - Females": 39473,
      "Primary Gross Enrolment Ratio in percentage DISE": "NA",
      "Main Workers Cultivators - Persons": 7296,
      "Marginal Workers Household Industry worked for 0 - 3 moths during last year - Females": 336,
      "Upper Primary Net Enrolment Ratio in percentage DISE": "NA",
      "Primary New Government Schools since 2003 in percentage DISE": "NA",
      "Tier": "Urban",
      "Marginal Workers Household Industry - Females": 1303,
      "Primary Schools with electricity in percentage DISE": "NA",
      "Main Workers Other - Persons": 131771,
      "Marginal Workers Household Industry worked for 3 - 6 moths during last year - Females": 967,
      "Main Workers Cultivators - Males": 5520,
      "Main Workers Household Industry - Persons": 10698,
      "Marginal Workers Cultivators worked for 0 - 3 moths during last year - Persons": 76,
      "Scheduled Caste Males": 35158,
      "Marginal Workers - Persons": 23594,
      "Deliveries at home conducted by skilled health personnel in percentage DLHS-4": "Not available",
      "Villages with Sub-Health Centres within 3km in percentage DLHS-4": 0,
      "Upper Primary New Government Schools since 2003 in percentage DISE": "NA",
      "0-6 Age Group Males": 26856,
      "Primary Schools with drinking water facility in percentage DISE": "NA",
      "Non Workers - Persons": 305414,
      "Person Literates": 373715,
      "State": "TAMIL NADU",
      "Total Female Population": 248782,
      "Marginal Workers worked for 0 - 3 moths during last year - Persons": 4250,
      "Marginal Workers Cultivators - Females": 305,
      "Marginal Workers Other - Persons": 14682,
      "Sex Ratio": 1011,
      "Scheduled Tribe Persons": 4179,
      "Marginal Workers Household Industry worked for 3 - 6 moths during last year - Males": 431,
      "Marginal Workers Agricultural Labourers - Females": 3985,
      "Mean age at marriage for girls DLHS-4": "Not available",
      "Households with solar energy as main source of lighting  Houselisting and Housing Census Data Tables- District Level , Census of India__4": 64,
      "District": "TIRUVANNAMALAI",
      "Households receiving treated tap water within premises in percentage Houselisting and Housing Census Data Tables- District Level , Census of India__1": 41.20594363,
      "Total Workers  Persons": 189531,
      "Households receiving treated tap water within premises  Houselisting and Housing Census Data Tables- District Level , Census of India__4": 47864,
      "Primary Female Teachers in percentage DISE": "NA",
      "Number of Households": 116147,
      "Main Workers Agricultural Labourers - Persons": 16172
    }
  ]
}