{
  "Total": [
    {
      "Marginal Workers Agricultural Labourers - Persons": 11192,
      "Marginal Workers Other - Females": 3710,
      "Marginal Workers Other worked for 0 - 3 moths during last year - Females": 676,
      "Upper Primary Schools with boys toilet in percentage DISE": 45.5,
      "Total Population": 317917,
      "Households with electricity as main source of lighting in percentage Houselisting and Housing Census Data Tables- District Level , Census of India": 42.80209913,
      "Primary Girl's Enrolment in percentage DISE": 50.1,
      "Marginal Workers worked for 3 - 6 moths during last year - Males": 12219,
      "Prevalence of Acute illness in percentage DLHS-4": 5.2,
      "Main Workers - Persons": 83936,
      "Main Workers Cultivators - Females": 19344,
      "Marginal Workers Agricultural Labourers worked for 3 - 6 moths during last year - Females": 5548,
      "Marginal Workers Other worked for 0 - 3 moths during last year - Males": 794,
      "Upper Primary Schools with drinking water facility in percentage DISE": 59.3,
      "Primary Schools with girls toilet in percentage DISE": 50,
      "Marginal Workers worked for 3 - 6 moths during last year - Persons": 32703,
      "Upper Primary Drop Out Rate in percentage DISE": 10.07,
      "Prevalence of Anaemia in pregnant women aged 15-49years in percentage DLHS-4": 73.1,
      "Current use of any modern method of family planning in percentage DLHS-4": 12.2,
      "Marginal Workers Agricultural Labourers - Males": 4169,
      "Upper Primary Female Teachers in percentage DISE": 30.2,
      "Marginal Workers - Females": 25931,
      "Marginal Workers Other worked for 3 - 6 moths during last year - Persons": 6006,
      "Main Workers Agricultural Labourers - Females": 3207,
      "Marginal Workers Cultivators worked for 3 - 6 moths during last year - Females": 11345,
      "Households with no lighting  Houselisting and Housing Census Data Tables- District Level , Census of India__5": 299,
      "Prevalence of Severe Anaemia  in percentage DLHS-4": 10.6,
      "Total unmet need for family planning in percentage DLHS-4": 68.5,
      "Main Workers Other - Males": 14784,
      "Children who received full vaccination in percentage DLHS-4": 30.1,
      "Marginal Workers Household Industry - Persons": 1235,
      "Primary Pupil-Teacher Ratio in percentage DISE": 21,
      "Marginal Workers Agricultural Labourers worked for 3 - 6 moths during last year - Males": 3099,
      "Scheduled Caste Females": 205,
      "Marginal Workers Cultivators - Males": 7878,
      "Marginal Workers - Males": 16206,
      "Marginal Workers worked for 0 - 3 moths during last year - Females": 5447,
      "Households with main source of drinking water within premises in percentage Houselisting and Housing Census Data Tables- District Level , Census of India": 27.38462611,
      "Marginal Workers Household Industry worked for 3 - 6 moths during last year - Persons": 797,
      "Upper Primary Girl's Enrolment in percentage DISE": 51.4,
      "Prevalence of Severe Anaemia in women aged 15-49years in percentage DLHS-4": 3.8,
      "Marginal Workers Agricultural Labourers worked for 0 - 3 moths during last year - Males": 1070,
      "Households with electricity as main source of lighting  Houselisting and Housing Census Data Tables- District Level , Census of India__3": 24550,
      "Households with computer or laptop with internet connection in percentage": 0.5,
      "PHCs functioning on a 24x7hours basis in percentage DLHS-4": 100,
      "Non Workers - Males": 88961,
      "Total Households in District Houselisting and Housing Census Data Tables- District Level , Census of India": 57357,
      "Upper Primary Schools with girls toilet in percentage DISE": 44.7,
      "Households with mobile phone in percentage": 23.66,
      "Households receiving untreated tap water within premises in percentage Houselisting and Housing Census Data Tables- District Level , Census of India__2": 1.984064717,
      "Marginal Workers Cultivators worked for 3 - 6 moths during last year - Males": 5908,
      "Prevalence of Anaemia  in percentage DLHS-4": 83.9,
      "Prevalence of Chronic illness in percentage DLHS-4": 3.4,
      "Households with solar energy as main source of lighting in percentage Houselisting and Housing Census Data Tables- District Level , Census of India__1": 0.98680196,
      "Marginal Workers Agricultural Labourers worked for 0 - 3 moths during last year - Females": 1475,
      "Main Workers - Males": 56056,
      "Female": 70.05,
      "Sno": 1184,
      "Marginal Workers Other worked for 3 - 6 moths during last year - Females": 3034,
      "Marginal Workers Cultivators worked for 0 - 3 moths during last year - Females": 3011,
      "Scheduled Tribe Males": 153861,
      "Male Illiterates": 58710,
      "Prevalence of Severe Anaemia in pregnant women aged 15-49years in percentage DLHS-4": 5.4,
      "0-6 Age Group Persons": 58071,
      "Upper Primary Student-Classroom Ratio in percentage DISE": 14,
      "Currently married men married below 21years of age in percentage DLHS-4": 28.6,
      "Male Literates": 102513,
      "Households with no lighting in percentage Houselisting and Housing Census Data Tables- District Level , Census of India__2": 0.521296442,
      "Primary Drop Out Rate in percentage DISE": 10.5,
      "Marginal Workers Household Industry - Males": 393,
      "Female Illiterates": 67060,
      "Main Workers Other - Females": 4702,
      "Marginal Workers Cultivators - Persons": 22234,
      "Upper Primary Gross Enrolment Ratio in percentage DISE": 86.9,
      "Scheduled Caste Persons": 509,
      "Marginal Workers Cultivators worked for 3 - 6 moths during last year - Persons": 17253,
      "Households with landline phone in percentage": 1.81,
      "Total Households in District  Houselisting and Housing Census Data Tables- District Level , Census of India": 57357,
      "Upper Primary Pupil-Teacher Ratio in percentage DISE": 10,
      "Primary Student-Classroom Ratio in percentage DISE": 19,
      "Primary Schools with boys toilet in percentage DISE": 50.9,
      "Mean number of children ever born to women aged 40-49years  DLHS-4": 3.7,
      "Households receiving untreated tap water within premises  Houselisting and Housing Census Data Tables- District Level , Census of India__5": 1138,
      "Marginal Workers Household Industry worked for 0 - 3 moths during last year - Persons": 438,
      "Total Male Population": 161223,
      "Non Workers - Females": 102883,
      "Current use of family planning methods in percentage DLHS-4": 16.9,
      "Households with main source of drinking water within premises  Houselisting and Housing Census Data Tables- District Level , Census of India__3": 15707,
      "Main Workers Agricultural Labourers - Males": 4847,
      "Marginal Workers Other worked for 0 - 3 moths during last year - Persons": 1470,
      "Currently married women married below 18years of age in percentage DLHS-4": 12.8,
      "Person Illiterates": 125770,
      "Main Workers Household Industry - Females": 627,
      "Female Literates": 89634,
      "Marginal Workers Cultivators worked for 0 - 3 moths during last year - Males": 1970,
      "Male": 77.72,
      "Households with improved source of drinking water in percentage DLHS-4": 56.2,
      "Upper Primary Schools with electricity in percentage DISE": 20.3,
      "Households with electricity in percentage DLHS-4": 69.7,
      "Villages with Primary Health Centre within 10km in percentage DLHS-4": 60,
      "Births to women aged 15-19years out of Total births in percentage DLHS-4": 5.5,
      "Prevalence of Anaemia in women aged 15-49years in percentage DLHS-4": 66.2,
      "Marginal Workers Agricultural Labourers worked for 3 - 6 moths during last year - Persons": 8647,
      "Main Workers Household Industry - Males": 613,
      "Scheduled Tribe Females": 151319,
      "Marginal Workers worked for 0 - 3 moths during last year - Males": 3987,
      "Marginal Workers Other worked for 3 - 6 moths during last year - Males": 2972,
      "Primary Net Enrolment Ratio in percentage DISE": 99.2,
      "Total": 73.95,
      "Mean age at marriage for boys DLHS-4": 23.4,
      "Number of District Hospitals  DLHS-4": 1,
      "0-6 Age Group Females": 28743,
      "Marginal Workers Agricultural Labourers worked for 0 - 3 moths during last year - Persons": 2545,
      "Marginal Workers Household Industry worked for 0 - 3 moths during last year - Males": 153,
      "Total Workers  Females": 53811,
      "Marginal Workers worked for 3 - 6 moths during last year - Females": 20484,
      "Institutional Deliveries in percentage DLHS-4": 28.7,
      "Marginal Workers Other - Males": 3766,
      "Total Workers  Males": 72262,
      "Main Workers - Females": 27880,
      "Primary Gross Enrolment Ratio in percentage DISE": 137.7,
      "Main Workers Cultivators - Persons": 55156,
      "Marginal Workers Household Industry worked for 0 - 3 moths during last year - Females": 285,
      "Upper Primary Net Enrolment Ratio in percentage DISE": 50.3,
      "Primary New Government Schools since 2003 in percentage DISE": 17,
      "Tier": "Total",
      "Marginal Workers Household Industry - Females": 842,
      "Primary Schools with electricity in percentage DISE": 5.9,
      "Main Workers Other - Persons": 19486,
      "Marginal Workers Household Industry worked for 3 - 6 moths during last year - Females": 557,
      "Main Workers Cultivators - Males": 35812,
      "Main Workers Household Industry - Persons": 1240,
      "Marginal Workers Cultivators worked for 0 - 3 moths during last year - Persons": 4981,
      "Scheduled Caste Males": 304,
      "Marginal Workers - Persons": 42137,
      "Deliveries at home conducted by skilled health personnel in percentage DLHS-4": 42.3,
      "Villages with Sub-Health Centres within 3km in percentage DLHS-4": 86.7,
      "Upper Primary New Government Schools since 2003 in percentage DISE": 75.6,
      "0-6 Age Group Males": 29328,
      "Primary Schools with drinking water facility in percentage DISE": 65.2,
      "Non Workers - Persons": 191844,
      "Person Literates": 192147,
      "State": "MEGHALAYA",
      "Total Female Population": 156694,
      "Marginal Workers worked for 0 - 3 moths during last year - Persons": 9434,
      "Marginal Workers Cultivators - Females": 14356,
      "Marginal Workers Other - Persons": 7476,
      "Sex Ratio": 972,
      "Scheduled Tribe Persons": 305180,
      "Marginal Workers Household Industry worked for 3 - 6 moths during last year - Males": 240,
      "Marginal Workers Agricultural Labourers - Females": 7023,
      "Mean age at marriage for girls DLHS-4": 22.3,
      "Households with solar energy as main source of lighting  Houselisting and Housing Census Data Tables- District Level , Census of India__4": 566,
      "District": "EAST GARO HILLS",
      "Households receiving treated tap water within premises in percentage Houselisting and Housing Census Data Tables- District Level , Census of India__1": 4.651568248,
      "Total Workers  Persons": 126073,
      "Households receiving treated tap water within premises  Houselisting and Housing Census Data Tables- District Level , Census of India__4": 2668,
      "Primary Female Teachers in percentage DISE": 41.2,
      "Number of Households": 58328,
      "Main Workers Agricultural Labourers - Persons": 8054
    }
  ],
  "Rural": [
    {
      "Marginal Workers Agricultural Labourers - Persons": 10284,
      "Marginal Workers Other - Females": 3358,
      "Marginal Workers Other worked for 0 - 3 moths during last year - Females": 628,
      "Upper Primary Schools with boys toilet in percentage DISE": "NA",
      "Total Population": 273725,
      "Households with electricity as main source of lighting in percentage Houselisting and Housing Census Data Tables- District Level , Census of India": 35.46722567,
      "Primary Girl's Enrolment in percentage DISE": "NA",
      "Marginal Workers worked for 3 - 6 moths during last year - Males": 11041,
      "Prevalence of Acute illness in percentage DLHS-4": 5.5,
      "Main Workers - Persons": 73306,
      "Main Workers Cultivators - Females": 18743,
      "Marginal Workers Agricultural Labourers worked for 3 - 6 moths during last year - Females": 5189,
      "Marginal Workers Other worked for 0 - 3 moths during last year - Males": 676,
      "Upper Primary Schools with drinking water facility in percentage DISE": "NA",
      "Primary Schools with girls toilet in percentage DISE": "NA",
      "Marginal Workers worked for 3 - 6 moths during last year - Persons": 30461,
      "Upper Primary Drop Out Rate in percentage DISE": "NA",
      "Prevalence of Anaemia in pregnant women aged 15-49years in percentage DLHS-4": 72.1,
      "Current use of any modern method of family planning in percentage DLHS-4": 12.2,
      "Marginal Workers Agricultural Labourers - Males": 3674,
      "Upper Primary Female Teachers in percentage DISE": "NA",
      "Marginal Workers - Females": 24741,
      "Marginal Workers Other worked for 3 - 6 moths during last year - Persons": 5099,
      "Main Workers Agricultural Labourers - Females": 3141,
      "Marginal Workers Cultivators worked for 3 - 6 moths during last year - Females": 10987,
      "Households with no lighting  Houselisting and Housing Census Data Tables- District Level , Census of India__5": 256,
      "Prevalence of Severe Anaemia  in percentage DLHS-4": 10.4,
      "Total unmet need for family planning in percentage DLHS-4": 68,
      "Main Workers Other - Males": 8165,
      "Children who received full vaccination in percentage DLHS-4": 27.8,
      "Marginal Workers Household Industry - Persons": 1151,
      "Primary Pupil-Teacher Ratio in percentage DISE": "NA",
      "Marginal Workers Agricultural Labourers worked for 3 - 6 moths during last year - Males": 2766,
      "Scheduled Caste Females": 87,
      "Marginal Workers Cultivators - Males": 7632,
      "Marginal Workers - Males": 14718,
      "Marginal Workers worked for 0 - 3 moths during last year - Females": 5321,
      "Households with main source of drinking water within premises in percentage Houselisting and Housing Census Data Tables- District Level , Census of India": 21.62581633,
      "Marginal Workers Household Industry worked for 3 - 6 moths during last year - Persons": 737,
      "Upper Primary Girl's Enrolment in percentage DISE": "NA",
      "Prevalence of Severe Anaemia in women aged 15-49years in percentage DLHS-4": 3.2,
      "Marginal Workers Agricultural Labourers worked for 0 - 3 moths during last year - Males": 908,
      "Households with electricity as main source of lighting  Houselisting and Housing Census Data Tables- District Level , Census of India__3": 17596,
      "Households with computer or laptop with internet connection in percentage": 0.25,
      "PHCs functioning on a 24x7hours basis in percentage DLHS-4": "Not applicable",
      "Non Workers - Males": 76026,
      "Total Households in District Houselisting and Housing Census Data Tables- District Level , Census of India": 49612,
      "Upper Primary Schools with girls toilet in percentage DISE": "NA",
      "Households with mobile phone in percentage": 18.64,
      "Households receiving untreated tap water within premises in percentage Houselisting and Housing Census Data Tables- District Level , Census of India__2": 1.852374426,
      "Marginal Workers Cultivators worked for 3 - 6 moths during last year - Males": 5683,
      "Prevalence of Anaemia  in percentage DLHS-4": 82.9,
      "Prevalence of Chronic illness in percentage DLHS-4": 4,
      "Households with solar energy as main source of lighting in percentage Houselisting and Housing Census Data Tables- District Level , Census of India__1": 1.124727888,
      "Marginal Workers Agricultural Labourers worked for 0 - 3 moths during last year - Females": 1421,
      "Main Workers - Males": 48019,
      "Female": "NA",
      "Sno": 1183,
      "Marginal Workers Other worked for 3 - 6 moths during last year - Females": 2730,
      "Marginal Workers Cultivators worked for 0 - 3 moths during last year - Females": 3002,
      "Scheduled Tribe Males": 134637,
      "Male Illiterates": 54058,
      "Prevalence of Severe Anaemia in pregnant women aged 15-49years in percentage DLHS-4": 2.6,
      "0-6 Age Group Persons": 51865,
      "Upper Primary Student-Classroom Ratio in percentage DISE": "NA",
      "Currently married men married below 21years of age in percentage DLHS-4": 16.7,
      "Male Literates": 84705,
      "Households with no lighting in percentage Houselisting and Housing Census Data Tables- District Level , Census of India__2": 0.516004193,
      "Primary Drop Out Rate in percentage DISE": "NA",
      "Marginal Workers Household Industry - Males": 367,
      "Female Illiterates": 61774,
      "Main Workers Other - Females": 2812,
      "Marginal Workers Cultivators - Persons": 21621,
      "Upper Primary Gross Enrolment Ratio in percentage DISE": "NA",
      "Scheduled Caste Persons": 215,
      "Marginal Workers Cultivators worked for 3 - 6 moths during last year - Persons": 16670,
      "Households with landline phone in percentage": 1.35,
      "Total Households in District  Houselisting and Housing Census Data Tables- District Level , Census of India": 49612,
      "Upper Primary Pupil-Teacher Ratio in percentage DISE": "NA",
      "Primary Student-Classroom Ratio in percentage DISE": "NA",
      "Primary Schools with boys toilet in percentage DISE": "NA",
      "Mean number of children ever born to women aged 40-49years  DLHS-4": 3.6,
      "Households receiving untreated tap water within premises  Houselisting and Housing Census Data Tables- District Level , Census of India__5": 919,
      "Marginal Workers Household Industry worked for 0 - 3 moths during last year - Persons": 414,
      "Total Male Population": 138763,
      "Non Workers - Females": 84934,
      "Current use of family planning methods in percentage DLHS-4": 16.9,
      "Households with main source of drinking water within premises  Houselisting and Housing Census Data Tables- District Level , Census of India__3": 10729,
      "Main Workers Agricultural Labourers - Males": 4633,
      "Marginal Workers Other worked for 0 - 3 moths during last year - Persons": 1304,
      "Currently married women married below 18years of age in percentage DLHS-4": 15.6,
      "Person Illiterates": 115832,
      "Main Workers Household Industry - Females": 591,
      "Female Literates": 73188,
      "Marginal Workers Cultivators worked for 0 - 3 moths during last year - Males": 1949,
      "Male": "NA",
      "Households with improved source of drinking water in percentage DLHS-4": 53.6,
      "Upper Primary Schools with electricity in percentage DISE": "NA",
      "Households with electricity in percentage DLHS-4": 64.5,
      "Villages with Primary Health Centre within 10km in percentage DLHS-4": "Not applicable",
      "Births to women aged 15-19years out of Total births in percentage DLHS-4": 6,
      "Prevalence of Anaemia in women aged 15-49years in percentage DLHS-4": 66.5,
      "Marginal Workers Agricultural Labourers worked for 3 - 6 moths during last year - Persons": 7955,
      "Main Workers Household Industry - Males": 558,
      "Scheduled Tribe Females": 131342,
      "Marginal Workers worked for 0 - 3 moths during last year - Males": 3677,
      "Marginal Workers Other worked for 3 - 6 moths during last year - Males": 2369,
      "Primary Net Enrolment Ratio in percentage DISE": "NA",
      "Total": "NA",
      "Mean age at marriage for boys DLHS-4": 22.5,
      "Number of District Hospitals  DLHS-4": "Not applicable",
      "0-6 Age Group Females": 25599,
      "Marginal Workers Agricultural Labourers worked for 0 - 3 moths during last year - Persons": 2329,
      "Marginal Workers Household Industry worked for 0 - 3 moths during last year - Males": 144,
      "Total Workers  Females": 50028,
      "Marginal Workers worked for 3 - 6 moths during last year - Females": 19420,
      "Institutional Deliveries in percentage DLHS-4": 22.8,
      "Marginal Workers Other - Males": 3045,
      "Total Workers  Males": 62737,
      "Main Workers - Females": 25287,
      "Primary Gross Enrolment Ratio in percentage DISE": "NA",
      "Main Workers Cultivators - Persons": 53406,
      "Marginal Workers Household Industry worked for 0 - 3 moths during last year - Females": 270,
      "Upper Primary Net Enrolment Ratio in percentage DISE": "NA",
      "Primary New Government Schools since 2003 in percentage DISE": "NA",
      "Tier": "Rural",
      "Marginal Workers Household Industry - Females": 784,
      "Primary Schools with electricity in percentage DISE": "NA",
      "Main Workers Other - Persons": 10977,
      "Marginal Workers Household Industry worked for 3 - 6 moths during last year - Females": 514,
      "Main Workers Cultivators - Males": 34663,
      "Main Workers Household Industry - Persons": 1149,
      "Marginal Workers Cultivators worked for 0 - 3 moths during last year - Persons": 4951,
      "Scheduled Caste Males": 128,
      "Marginal Workers - Persons": 39459,
      "Deliveries at home conducted by skilled health personnel in percentage DLHS-4": 47.4,
      "Villages with Sub-Health Centres within 3km in percentage DLHS-4": "Not applicable",
      "Upper Primary New Government Schools since 2003 in percentage DISE": "NA",
      "0-6 Age Group Males": 26266,
      "Primary Schools with drinking water facility in percentage DISE": "NA",
      "Non Workers - Persons": 160960,
      "Person Literates": 157893,
      "State": "MEGHALAYA",
      "Total Female Population": 134962,
      "Marginal Workers worked for 0 - 3 moths during last year - Persons": 8998,
      "Marginal Workers Cultivators - Females": 13989,
      "Marginal Workers Other - Persons": 6403,
      "Sex Ratio": 973,
      "Scheduled Tribe Persons": 265979,
      "Marginal Workers Household Industry worked for 3 - 6 moths during last year - Males": 223,
      "Marginal Workers Agricultural Labourers - Females": 6610,
      "Mean age at marriage for girls DLHS-4": 22.9,
      "Households with solar energy as main source of lighting  Houselisting and Housing Census Data Tables- District Level , Census of India__4": 558,
      "District": "EAST GARO HILLS",
      "Households receiving treated tap water within premises in percentage Houselisting and Housing Census Data Tables- District Level , Census of India__1": 1.971297267,
      "Total Workers  Persons": 112765,
      "Households receiving treated tap water within premises  Houselisting and Housing Census Data Tables- District Level , Census of India__4": 978,
      "Primary Female Teachers in percentage DISE": "NA",
      "Number of Households": 50585,
      "Main Workers Agricultural Labourers - Persons": 7774
    }
  ],
  "Urban": [
    {
      "Marginal Workers Agricultural Labourers - Persons": 908,
      "Marginal Workers Other - Females": 352,
      "Marginal Workers Other worked for 0 - 3 moths during last year - Females": 48,
      "Upper Primary Schools with boys toilet in percentage DISE": "NA",
      "Total Population": 44192,
      "Households with electricity as main source of lighting in percentage Houselisting and Housing Census Data Tables- District Level , Census of India": 89.78695933,
      "Primary Girl's Enrolment in percentage DISE": "NA",
      "Marginal Workers worked for 3 - 6 moths during last year - Males": 1178,
      "Prevalence of Acute illness in percentage DLHS-4": "Not available",
      "Main Workers - Persons": 10630,
      "Main Workers Cultivators - Females": 601,
      "Marginal Workers Agricultural Labourers worked for 3 - 6 moths during last year - Females": 359,
      "Marginal Workers Other worked for 0 - 3 moths during last year - Males": 118,
      "Upper Primary Schools with drinking water facility in percentage DISE": "NA",
      "Primary Schools with girls toilet in percentage DISE": "NA",
      "Marginal Workers worked for 3 - 6 moths during last year - Persons": 2242,
      "Upper Primary Drop Out Rate in percentage DISE": "NA",
      "Prevalence of Anaemia in pregnant women aged 15-49years in percentage DLHS-4": "Not available",
      "Current use of any modern method of family planning in percentage DLHS-4": "Not available",
      "Marginal Workers Agricultural Labourers - Males": 495,
      "Upper Primary Female Teachers in percentage DISE": "NA",
      "Marginal Workers - Females": 1190,
      "Marginal Workers Other worked for 3 - 6 moths during last year - Persons": 907,
      "Main Workers Agricultural Labourers - Females": 66,
      "Marginal Workers Cultivators worked for 3 - 6 moths during last year - Females": 358,
      "Households with no lighting  Houselisting and Housing Census Data Tables- District Level , Census of India__5": 43,
      "Prevalence of Severe Anaemia  in percentage DLHS-4": "Not available",
      "Total unmet need for family planning in percentage DLHS-4": "Not available",
      "Main Workers Other - Males": 6619,
      "Children who received full vaccination in percentage DLHS-4": "Not available",
      "Marginal Workers Household Industry - Persons": 84,
      "Primary Pupil-Teacher Ratio in percentage DISE": "NA",
      "Marginal Workers Agricultural Labourers worked for 3 - 6 moths during last year - Males": 333,
      "Scheduled Caste Females": 118,
      "Marginal Workers Cultivators - Males": 246,
      "Marginal Workers - Males": 1488,
      "Marginal Workers worked for 0 - 3 moths during last year - Females": 126,
      "Households with main source of drinking water within premises in percentage Houselisting and Housing Census Data Tables- District Level , Census of India": 64.27372498,
      "Marginal Workers Household Industry worked for 3 - 6 moths during last year - Persons": 60,
      "Upper Primary Girl's Enrolment in percentage DISE": "NA",
      "Prevalence of Severe Anaemia in women aged 15-49years in percentage DLHS-4": "Not available",
      "Marginal Workers Agricultural Labourers worked for 0 - 3 moths during last year - Males": 162,
      "Households with electricity as main source of lighting  Houselisting and Housing Census Data Tables- District Level , Census of India__3": 6954,
      "Households with computer or laptop with internet connection in percentage": 2.09,
      "PHCs functioning on a 24x7hours basis in percentage DLHS-4": 0,
      "Non Workers - Males": 12935,
      "Total Households in District Houselisting and Housing Census Data Tables- District Level , Census of India": 7745,
      "Upper Primary Schools with girls toilet in percentage DISE": "NA",
      "Households with mobile phone in percentage": 55.86,
      "Households receiving untreated tap water within premises in percentage Houselisting and Housing Census Data Tables- District Level , Census of India__2": 2.82763073,
      "Marginal Workers Cultivators worked for 3 - 6 moths during last year - Males": 225,
      "Prevalence of Anaemia  in percentage DLHS-4": "Not available",
      "Prevalence of Chronic illness in percentage DLHS-4": "Not available",
      "Households with solar energy as main source of lighting in percentage Houselisting and Housing Census Data Tables- District Level , Census of India__1": 0.103292447,
      "Marginal Workers Agricultural Labourers worked for 0 - 3 moths during last year - Females": 54,
      "Main Workers - Males": 8037,
      "Female": "NA",
      "Sno": 1185,
      "Marginal Workers Other worked for 3 - 6 moths during last year - Females": 304,
      "Marginal Workers Cultivators worked for 0 - 3 moths during last year - Females": 9,
      "Scheduled Tribe Males": 19224,
      "Male Illiterates": 4652,
      "Prevalence of Severe Anaemia in pregnant women aged 15-49years in percentage DLHS-4": "Not available",
      "0-6 Age Group Persons": 6206,
      "Upper Primary Student-Classroom Ratio in percentage DISE": "NA",
      "Currently married men married below 21years of age in percentage DLHS-4": "Not available",
      "Male Literates": 17808,
      "Households with no lighting in percentage Houselisting and Housing Census Data Tables- District Level , Census of India__2": 0.555196901,
      "Primary Drop Out Rate in percentage DISE": "NA",
      "Marginal Workers Household Industry - Males": 26,
      "Female Illiterates": 5286,
      "Main Workers Other - Females": 1890,
      "Marginal Workers Cultivators - Persons": 613,
      "Upper Primary Gross Enrolment Ratio in percentage DISE": "NA",
      "Scheduled Caste Persons": 294,
      "Marginal Workers Cultivators worked for 3 - 6 moths during last year - Persons": 583,
      "Households with landline phone in percentage": 5.09,
      "Total Households in District  Houselisting and Housing Census Data Tables- District Level , Census of India": 7745,
      "Upper Primary Pupil-Teacher Ratio in percentage DISE": "NA",
      "Primary Student-Classroom Ratio in percentage DISE": "NA",
      "Primary Schools with boys toilet in percentage DISE": "NA",
      "Mean number of children ever born to women aged 40-49years  DLHS-4": "Not available",
      "Households receiving untreated tap water within premises  Houselisting and Housing Census Data Tables- District Level , Census of India__5": 219,
      "Marginal Workers Household Industry worked for 0 - 3 moths during last year - Persons": 24,
      "Total Male Population": 22460,
      "Non Workers - Females": 17949,
      "Current use of family planning methods in percentage DLHS-4": "Not available",
      "Households with main source of drinking water within premises  Houselisting and Housing Census Data Tables- District Level , Census of India__3": 4978,
      "Main Workers Agricultural Labourers - Males": 214,
      "Marginal Workers Other worked for 0 - 3 moths during last year - Persons": 166,
      "Currently married women married below 18years of age in percentage DLHS-4": "Not available",
      "Person Illiterates": 9938,
      "Main Workers Household Industry - Females": 36,
      "Female Literates": 16446,
      "Marginal Workers Cultivators worked for 0 - 3 moths during last year - Males": 21,
      "Male": "NA",
      "Households with improved source of drinking water in percentage DLHS-4": "Not available",
      "Upper Primary Schools with electricity in percentage DISE": "NA",
      "Households with electricity in percentage DLHS-4": "Not available",
      "Villages with Primary Health Centre within 10km in percentage DLHS-4": 0,
      "Births to women aged 15-19years out of Total births in percentage DLHS-4": "Not available",
      "Prevalence of Anaemia in women aged 15-49years in percentage DLHS-4": "Not available",
      "Marginal Workers Agricultural Labourers worked for 3 - 6 moths during last year - Persons": 692,
      "Main Workers Household Industry - Males": 55,
      "Scheduled Tribe Females": 19977,
      "Marginal Workers worked for 0 - 3 moths during last year - Males": 310,
      "Marginal Workers Other worked for 3 - 6 moths during last year - Males": 603,
      "Primary Net Enrolment Ratio in percentage DISE": "NA",
      "Total": "NA",
      "Mean age at marriage for boys DLHS-4": "Not available",
      "Number of District Hospitals  DLHS-4": 0,
      "0-6 Age Group Females": 3144,
      "Marginal Workers Agricultural Labourers worked for 0 - 3 moths during last year - Persons": 216,
      "Marginal Workers Household Industry worked for 0 - 3 moths during last year - Males": 9,
      "Total Workers  Females": 3783,
      "Marginal Workers worked for 3 - 6 moths during last year - Females": 1064,
      "Institutional Deliveries in percentage DLHS-4": "Not available",
      "Marginal Workers Other - Males": 721,
      "Total Workers  Males": 9525,
      "Main Workers - Females": 2593,
      "Primary Gross Enrolment Ratio in percentage DISE": "NA",
      "Main Workers Cultivators - Persons": 1750,
      "Marginal Workers Household Industry worked for 0 - 3 moths during last year - Females": 15,
      "Upper Primary Net Enrolment Ratio in percentage DISE": "NA",
      "Primary New Government Schools since 2003 in percentage DISE": "NA",
      "Tier": "Urban",
      "Marginal Workers Household Industry - Females": 58,
      "Primary Schools with electricity in percentage DISE": "NA",
      "Main Workers Other - Persons": 8509,
      "Marginal Workers Household Industry worked for 3 - 6 moths during last year - Females": 43,
      "Main Workers Cultivators - Males": 1149,
      "Main Workers Household Industry - Persons": 91,
      "Marginal Workers Cultivators worked for 0 - 3 moths during last year - Persons": 30,
      "Scheduled Caste Males": 176,
      "Marginal Workers - Persons": 2678,
      "Deliveries at home conducted by skilled health personnel in percentage DLHS-4": "Not available",
      "Villages with Sub-Health Centres within 3km in percentage DLHS-4": 0,
      "Upper Primary New Government Schools since 2003 in percentage DISE": "NA",
      "0-6 Age Group Males": 3062,
      "Primary Schools with drinking water facility in percentage DISE": "NA",
      "Non Workers - Persons": 30884,
      "Person Literates": 34254,
      "State": "MEGHALAYA",
      "Total Female Population": 21732,
      "Marginal Workers worked for 0 - 3 moths during last year - Persons": 436,
      "Marginal Workers Cultivators - Females": 367,
      "Marginal Workers Other - Persons": 1073,
      "Sex Ratio": 968,
      "Scheduled Tribe Persons": 39201,
      "Marginal Workers Household Industry worked for 3 - 6 moths during last year - Males": 17,
      "Marginal Workers Agricultural Labourers - Females": 413,
      "Mean age at marriage for girls DLHS-4": "Not available",
      "Households with solar energy as main source of lighting  Houselisting and Housing Census Data Tables- District Level , Census of India__4": 8,
      "District": "EAST GARO HILLS",
      "Households receiving treated tap water within premises in percentage Houselisting and Housing Census Data Tables- District Level , Census of India__1": 21.82052937,
      "Total Workers  Persons": 13308,
      "Households receiving treated tap water within premises  Houselisting and Housing Census Data Tables- District Level , Census of India__4": 1690,
      "Primary Female Teachers in percentage DISE": "NA",
      "Number of Households": 7743,
      "Main Workers Agricultural Labourers - Persons": 280
    }
  ]
}