{
  "Total": [
    {
      "Marginal Workers Agricultural Labourers - Persons": 6252,
      "Marginal Workers Other - Females": 1769,
      "Marginal Workers Other worked for 0 - 3 moths during last year - Females": 614,
      "Upper Primary Schools with boys toilet in percentage DISE": 95,
      "Total Population": 259898,
      "Households with electricity as main source of lighting in percentage Houselisting and Housing Census Data Tables- District Level , Census of India": 81.58268644,
      "Primary Girl's Enrolment in percentage DISE": 50.9,
      "Marginal Workers worked for 3 - 6 moths during last year - Males": 15532,
      "Prevalence of Acute illness in percentage DLHS-4": "Not available",
      "Main Workers - Persons": 78085,
      "Main Workers Cultivators - Females": 33895,
      "Marginal Workers Agricultural Labourers worked for 3 - 6 moths during last year - Females": 2280,
      "Marginal Workers Other worked for 0 - 3 moths during last year - Males": 1146,
      "Upper Primary Schools with drinking water facility in percentage DISE": 95.9,
      "Primary Schools with girls toilet in percentage DISE": 97.9,
      "Marginal Workers worked for 3 - 6 moths during last year - Persons": 35581,
      "Upper Primary Drop Out Rate in percentage DISE": 2.44,
      "Prevalence of Anaemia in pregnant women aged 15-49years in percentage DLHS-4": "Not available",
      "Current use of any modern method of family planning in percentage DLHS-4": 61.5,
      "Marginal Workers Agricultural Labourers - Males": 3233,
      "Upper Primary Female Teachers in percentage DISE": 28.7,
      "Marginal Workers - Females": 25679,
      "Marginal Workers Other worked for 3 - 6 moths during last year - Persons": 5129,
      "Main Workers Agricultural Labourers - Females": 1224,
      "Marginal Workers Cultivators worked for 3 - 6 moths during last year - Females": 15995,
      "Households with no lighting  Houselisting and Housing Census Data Tables- District Level , Census of India__5": 280,
      "Prevalence of Severe Anaemia  in percentage DLHS-4": "Not available",
      "Total unmet need for family planning in percentage DLHS-4": 24.2,
      "Main Workers Other - Males": 16068,
      "Children who received full vaccination in percentage DLHS-4": "Not available",
      "Marginal Workers Household Industry - Persons": 1343,
      "Primary Pupil-Teacher Ratio in percentage DISE": 17,
      "Marginal Workers Agricultural Labourers worked for 3 - 6 moths during last year - Males": 2637,
      "Scheduled Caste Females": 36438,
      "Marginal Workers Cultivators - Males": 10928,
      "Marginal Workers - Males": 19874,
      "Marginal Workers worked for 0 - 3 moths during last year - Females": 5630,
      "Households with main source of drinking water within premises in percentage Houselisting and Housing Census Data Tables- District Level , Census of India": 24.80420017,
      "Marginal Workers Household Industry worked for 3 - 6 moths during last year - Persons": 1115,
      "Upper Primary Girl's Enrolment in percentage DISE": 52.7,
      "Prevalence of Severe Anaemia in women aged 15-49years in percentage DLHS-4": "Not available",
      "Marginal Workers Agricultural Labourers worked for 0 - 3 moths during last year - Males": 596,
      "Households with electricity as main source of lighting  Houselisting and Housing Census Data Tables- District Level , Census of India__3": 47083,
      "Households with computer or laptop with internet connection in percentage": 0.75,
      "PHCs functioning on a 24x7hours basis in percentage DLHS-4": "Not available",
      "Non Workers - Males": 65618,
      "Total Households in District Houselisting and Housing Census Data Tables- District Level , Census of India": 57712,
      "Upper Primary Schools with girls toilet in percentage DISE": 95.9,
      "Households with mobile phone in percentage": 57.15,
      "Households receiving untreated tap water within premises in percentage Houselisting and Housing Census Data Tables- District Level , Census of India__2": 4.981632936,
      "Marginal Workers Cultivators worked for 3 - 6 moths during last year - Males": 8425,
      "Prevalence of Anaemia  in percentage DLHS-4": "Not available",
      "Prevalence of Chronic illness in percentage DLHS-4": "Not available",
      "Households with solar energy as main source of lighting in percentage Houselisting and Housing Census Data Tables- District Level , Census of India__1": 1.781258664,
      "Marginal Workers Agricultural Labourers worked for 0 - 3 moths during last year - Females": 739,
      "Main Workers - Males": 38834,
      "Female": 69.03,
      "Sno": 1931,
      "Marginal Workers Other worked for 3 - 6 moths during last year - Females": 1155,
      "Marginal Workers Cultivators worked for 0 - 3 moths during last year - Females": 4146,
      "Scheduled Tribe Males": 971,
      "Male Illiterates": 26780,
      "Prevalence of Severe Anaemia in pregnant women aged 15-49years in percentage DLHS-4": "Not available",
      "0-6 Age Group Persons": 35560,
      "Upper Primary Student-Classroom Ratio in percentage DISE": 10,
      "Currently married men married below 21years of age in percentage DLHS-4": 5.6,
      "Male Literates": 97546,
      "Households with no lighting in percentage Houselisting and Housing Census Data Tables- District Level , Census of India__2": 0.485167729,
      "Primary Drop Out Rate in percentage DISE": 1.1,
      "Marginal Workers Household Industry - Males": 593,
      "Female Illiterates": 53635,
      "Main Workers Other - Females": 3580,
      "Marginal Workers Cultivators - Persons": 31069,
      "Upper Primary Gross Enrolment Ratio in percentage DISE": 95.7,
      "Scheduled Caste Persons": 72061,
      "Marginal Workers Cultivators worked for 3 - 6 moths during last year - Persons": 24420,
      "Households with landline phone in percentage": 1.43,
      "Total Households in District  Houselisting and Housing Census Data Tables- District Level , Census of India": 57712,
      "Upper Primary Pupil-Teacher Ratio in percentage DISE": 13,
      "Primary Student-Classroom Ratio in percentage DISE": 11,
      "Primary Schools with boys toilet in percentage DISE": 98.7,
      "Mean number of children ever born to women aged 40-49years  DLHS-4": "Not available",
      "Households receiving untreated tap water within premises  Houselisting and Housing Census Data Tables- District Level , Census of India__5": 2875,
      "Marginal Workers Household Industry worked for 0 - 3 moths during last year - Persons": 228,
      "Total Male Population": 124326,
      "Non Workers - Females": 70642,
      "Current use of family planning methods in percentage DLHS-4": 70.6,
      "Households with main source of drinking water within premises  Houselisting and Housing Census Data Tables- District Level , Census of India__3": 14315,
      "Main Workers Agricultural Labourers - Males": 1509,
      "Marginal Workers Other worked for 0 - 3 moths during last year - Persons": 1760,
      "Currently married women married below 18years of age in percentage DLHS-4": 3.7,
      "Person Illiterates": 80415,
      "Main Workers Household Industry - Females": 552,
      "Female Literates": 81937,
      "Marginal Workers Cultivators worked for 0 - 3 moths during last year - Males": 2503,
      "Male": 92.33,
      "Households with improved source of drinking water in percentage DLHS-4": "Not available",
      "Upper Primary Schools with electricity in percentage DISE": 88.3,
      "Households with electricity in percentage DLHS-4": "Not available",
      "Villages with Primary Health Centre within 10km in percentage DLHS-4": "Not available",
      "Births to women aged 15-19years out of Total births in percentage DLHS-4": "Not available",
      "Prevalence of Anaemia in women aged 15-49years in percentage DLHS-4": "Not available",
      "Marginal Workers Agricultural Labourers worked for 3 - 6 moths during last year - Persons": 4917,
      "Main Workers Household Industry - Males": 1096,
      "Scheduled Tribe Females": 1011,
      "Marginal Workers worked for 0 - 3 moths during last year - Males": 4342,
      "Marginal Workers Other worked for 3 - 6 moths during last year - Males": 3974,
      "Primary Net Enrolment Ratio in percentage DISE": 85.1,
      "Total": 80.01,
      "Mean age at marriage for boys DLHS-4": 25.8,
      "Number of District Hospitals  DLHS-4": "Not available",
      "0-6 Age Group Females": 16881,
      "Marginal Workers Agricultural Labourers worked for 0 - 3 moths during last year - Persons": 1335,
      "Marginal Workers Household Industry worked for 0 - 3 moths during last year - Males": 97,
      "Total Workers  Females": 64930,
      "Marginal Workers worked for 3 - 6 moths during last year - Females": 20049,
      "Institutional Deliveries in percentage DLHS-4": 44.7,
      "Marginal Workers Other - Males": 5120,
      "Total Workers  Males": 58708,
      "Main Workers - Females": 39251,
      "Primary Gross Enrolment Ratio in percentage DISE": 96.8,
      "Main Workers Cultivators - Persons": 54056,
      "Marginal Workers Household Industry worked for 0 - 3 moths during last year - Females": 131,
      "Upper Primary Net Enrolment Ratio in percentage DISE": 74.8,
      "Primary New Government Schools since 2003 in percentage DISE": 10,
      "Tier": "Total",
      "Marginal Workers Household Industry - Females": 750,
      "Primary Schools with electricity in percentage DISE": 85.3,
      "Main Workers Other - Persons": 19648,
      "Marginal Workers Household Industry worked for 3 - 6 moths during last year - Females": 619,
      "Main Workers Cultivators - Males": 20161,
      "Main Workers Household Industry - Persons": 1648,
      "Marginal Workers Cultivators worked for 0 - 3 moths during last year - Persons": 6649,
      "Scheduled Caste Males": 35623,
      "Marginal Workers - Persons": 45553,
      "Deliveries at home conducted by skilled health personnel in percentage DLHS-4": 23,
      "Villages with Sub-Health Centres within 3km in percentage DLHS-4": "Not available",
      "Upper Primary New Government Schools since 2003 in percentage DISE": 74.6,
      "0-6 Age Group Males": 18679,
      "Primary Schools with drinking water facility in percentage DISE": 97.6,
      "Non Workers - Persons": 136260,
      "Person Literates": 179483,
      "State": "UTTARAKHAND",
      "Total Female Population": 135572,
      "Marginal Workers worked for 0 - 3 moths during last year - Persons": 9972,
      "Marginal Workers Cultivators - Females": 20141,
      "Marginal Workers Other - Persons": 6889,
      "Sex Ratio": 1090,
      "Scheduled Tribe Persons": 1982,
      "Marginal Workers Household Industry worked for 3 - 6 moths during last year - Males": 496,
      "Marginal Workers Agricultural Labourers - Females": 3019,
      "Mean age at marriage for girls DLHS-4": 21.1,
      "Households with solar energy as main source of lighting  Houselisting and Housing Census Data Tables- District Level , Census of India__4": 1028,
      "District": "BAGESHWAR",
      "Households receiving treated tap water within premises in percentage Houselisting and Housing Census Data Tables- District Level , Census of India__1": 19.11560854,
      "Total Workers  Persons": 123638,
      "Households receiving treated tap water within premises  Houselisting and Housing Census Data Tables- District Level , Census of India__4": 11032,
      "Primary Female Teachers in percentage DISE": 40.5,
      "Number of Households": 58046,
      "Main Workers Agricultural Labourers - Persons": 2733
    }
  ],
  "Rural": [
    {
      "Marginal Workers Agricultural Labourers - Persons": 6236,
      "Marginal Workers Other - Females": 1682,
      "Marginal Workers Other worked for 0 - 3 moths during last year - Females": 591,
      "Upper Primary Schools with boys toilet in percentage DISE": "NA",
      "Total Population": 250819,
      "Households with electricity as main source of lighting in percentage Houselisting and Housing Census Data Tables- District Level , Census of India": 81.02891584,
      "Primary Girl's Enrolment in percentage DISE": "NA",
      "Marginal Workers worked for 3 - 6 moths during last year - Males": 15088,
      "Prevalence of Acute illness in percentage DLHS-4": "Not available",
      "Main Workers - Persons": 75922,
      "Main Workers Cultivators - Females": 33862,
      "Marginal Workers Agricultural Labourers worked for 3 - 6 moths during last year - Females": 2273,
      "Marginal Workers Other worked for 0 - 3 moths during last year - Males": 1097,
      "Upper Primary Schools with drinking water facility in percentage DISE": "NA",
      "Primary Schools with girls toilet in percentage DISE": "NA",
      "Marginal Workers worked for 3 - 6 moths during last year - Persons": 35049,
      "Upper Primary Drop Out Rate in percentage DISE": "NA",
      "Prevalence of Anaemia in pregnant women aged 15-49years in percentage DLHS-4": "Not available",
      "Current use of any modern method of family planning in percentage DLHS-4": 61.4,
      "Marginal Workers Agricultural Labourers - Males": 3224,
      "Upper Primary Female Teachers in percentage DISE": "NA",
      "Marginal Workers - Females": 25566,
      "Marginal Workers Other worked for 3 - 6 moths during last year - Persons": 4643,
      "Main Workers Agricultural Labourers - Females": 1207,
      "Marginal Workers Cultivators worked for 3 - 6 moths during last year - Females": 15988,
      "Households with no lighting  Houselisting and Housing Census Data Tables- District Level , Census of India__5": 274,
      "Prevalence of Severe Anaemia  in percentage DLHS-4": "Not available",
      "Total unmet need for family planning in percentage DLHS-4": 24.7,
      "Main Workers Other - Males": 14434,
      "Children who received full vaccination in percentage DLHS-4": "Not available",
      "Marginal Workers Household Industry - Persons": 1318,
      "Primary Pupil-Teacher Ratio in percentage DISE": "NA",
      "Marginal Workers Agricultural Labourers worked for 3 - 6 moths during last year - Males": 2629,
      "Scheduled Caste Females": 35353,
      "Marginal Workers Cultivators - Males": 10926,
      "Marginal Workers - Males": 19379,
      "Marginal Workers worked for 0 - 3 moths during last year - Females": 5605,
      "Households with main source of drinking water within premises in percentage Houselisting and Housing Census Data Tables- District Level , Census of India": 23.25464591,
      "Marginal Workers Household Industry worked for 3 - 6 moths during last year - Persons": 1093,
      "Upper Primary Girl's Enrolment in percentage DISE": "NA",
      "Prevalence of Severe Anaemia in women aged 15-49years in percentage DLHS-4": "Not available",
      "Marginal Workers Agricultural Labourers worked for 0 - 3 moths during last year - Males": 595,
      "Households with electricity as main source of lighting  Houselisting and Housing Census Data Tables- District Level , Census of India__3": 45172,
      "Households with computer or laptop with internet connection in percentage": 0.64,
      "PHCs functioning on a 24x7hours basis in percentage DLHS-4": "Not applicable",
      "Non Workers - Males": 63143,
      "Total Households in District Houselisting and Housing Census Data Tables- District Level , Census of India": 55748,
      "Upper Primary Schools with girls toilet in percentage DISE": "NA",
      "Households with mobile phone in percentage": 56.51,
      "Households receiving untreated tap water within premises in percentage Houselisting and Housing Census Data Tables- District Level , Census of India__2": 5.151754323,
      "Marginal Workers Cultivators worked for 3 - 6 moths during last year - Males": 8423,
      "Prevalence of Anaemia  in percentage DLHS-4": "Not available",
      "Prevalence of Chronic illness in percentage DLHS-4": "Not available",
      "Households with solar energy as main source of lighting in percentage Houselisting and Housing Census Data Tables- District Level , Census of India__1": 1.842218555,
      "Marginal Workers Agricultural Labourers worked for 0 - 3 moths during last year - Females": 739,
      "Main Workers - Males": 37093,
      "Female": "NA",
      "Sno": 1930,
      "Marginal Workers Other worked for 3 - 6 moths during last year - Females": 1091,
      "Marginal Workers Cultivators worked for 0 - 3 moths during last year - Females": 4146,
      "Scheduled Tribe Males": 916,
      "Male Illiterates": 26027,
      "Prevalence of Severe Anaemia in pregnant women aged 15-49years in percentage DLHS-4": "Not available",
      "0-6 Age Group Persons": 34545,
      "Upper Primary Student-Classroom Ratio in percentage DISE": "NA",
      "Currently married men married below 21years of age in percentage DLHS-4": 5.8,
      "Male Literates": 93588,
      "Households with no lighting in percentage Houselisting and Housing Census Data Tables- District Level , Census of India__2": 0.491497453,
      "Primary Drop Out Rate in percentage DISE": "NA",
      "Marginal Workers Household Industry - Males": 580,
      "Female Illiterates": 52626,
      "Main Workers Other - Females": 3213,
      "Marginal Workers Cultivators - Persons": 31060,
      "Upper Primary Gross Enrolment Ratio in percentage DISE": "NA",
      "Scheduled Caste Persons": 69842,
      "Marginal Workers Cultivators worked for 3 - 6 moths during last year - Persons": 24411,
      "Households with landline phone in percentage": 1.39,
      "Total Households in District  Houselisting and Housing Census Data Tables- District Level , Census of India": 55748,
      "Upper Primary Pupil-Teacher Ratio in percentage DISE": "NA",
      "Primary Student-Classroom Ratio in percentage DISE": "NA",
      "Primary Schools with boys toilet in percentage DISE": "NA",
      "Mean number of children ever born to women aged 40-49years  DLHS-4": "Not available",
      "Households receiving untreated tap water within premises  Houselisting and Housing Census Data Tables- District Level , Census of India__5": 2872,
      "Marginal Workers Household Industry worked for 0 - 3 moths during last year - Persons": 225,
      "Total Male Population": 119615,
      "Non Workers - Females": 66809,
      "Current use of family planning methods in percentage DLHS-4": 70.4,
      "Households with main source of drinking water within premises  Houselisting and Housing Census Data Tables- District Level , Census of India__3": 12964,
      "Main Workers Agricultural Labourers - Males": 1492,
      "Marginal Workers Other worked for 0 - 3 moths during last year - Persons": 1688,
      "Currently married women married below 18years of age in percentage DLHS-4": 3.9,
      "Person Illiterates": 78653,
      "Main Workers Household Industry - Females": 547,
      "Female Literates": 78578,
      "Marginal Workers Cultivators worked for 0 - 3 moths during last year - Males": 2503,
      "Male": "NA",
      "Households with improved source of drinking water in percentage DLHS-4": "Not available",
      "Upper Primary Schools with electricity in percentage DISE": "NA",
      "Households with electricity in percentage DLHS-4": "Not available",
      "Villages with Primary Health Centre within 10km in percentage DLHS-4": "Not applicable",
      "Births to women aged 15-19years out of Total births in percentage DLHS-4": "Not available",
      "Prevalence of Anaemia in women aged 15-49years in percentage DLHS-4": "Not available",
      "Marginal Workers Agricultural Labourers worked for 3 - 6 moths during last year - Persons": 4902,
      "Main Workers Household Industry - Males": 1069,
      "Scheduled Tribe Females": 958,
      "Marginal Workers worked for 0 - 3 moths during last year - Males": 4291,
      "Marginal Workers Other worked for 3 - 6 moths during last year - Males": 3552,
      "Primary Net Enrolment Ratio in percentage DISE": "NA",
      "Total": "NA",
      "Mean age at marriage for boys DLHS-4": 25.7,
      "Number of District Hospitals  DLHS-4": "Not applicable",
      "0-6 Age Group Females": 16416,
      "Marginal Workers Agricultural Labourers worked for 0 - 3 moths during last year - Persons": 1334,
      "Marginal Workers Household Industry worked for 0 - 3 moths during last year - Males": 96,
      "Total Workers  Females": 64395,
      "Marginal Workers worked for 3 - 6 moths during last year - Females": 19961,
      "Institutional Deliveries in percentage DLHS-4": 43.8,
      "Marginal Workers Other - Males": 4649,
      "Total Workers  Males": 56472,
      "Main Workers - Females": 38829,
      "Primary Gross Enrolment Ratio in percentage DISE": "NA",
      "Main Workers Cultivators - Persons": 53960,
      "Marginal Workers Household Industry worked for 0 - 3 moths during last year - Females": 129,
      "Upper Primary Net Enrolment Ratio in percentage DISE": "NA",
      "Primary New Government Schools since 2003 in percentage DISE": "NA",
      "Tier": "Rural",
      "Marginal Workers Household Industry - Females": 738,
      "Primary Schools with electricity in percentage DISE": "NA",
      "Main Workers Other - Persons": 17647,
      "Marginal Workers Household Industry worked for 3 - 6 moths during last year - Females": 609,
      "Main Workers Cultivators - Males": 20098,
      "Main Workers Household Industry - Persons": 1616,
      "Marginal Workers Cultivators worked for 0 - 3 moths during last year - Persons": 6649,
      "Scheduled Caste Males": 34489,
      "Marginal Workers - Persons": 44945,
      "Deliveries at home conducted by skilled health personnel in percentage DLHS-4": 22.2,
      "Villages with Sub-Health Centres within 3km in percentage DLHS-4": "Not applicable",
      "Upper Primary New Government Schools since 2003 in percentage DISE": "NA",
      "0-6 Age Group Males": 18129,
      "Primary Schools with drinking water facility in percentage DISE": "NA",
      "Non Workers - Persons": 129952,
      "Person Literates": 172166,
      "State": "UTTARAKHAND",
      "Total Female Population": 131204,
      "Marginal Workers worked for 0 - 3 moths during last year - Persons": 9896,
      "Marginal Workers Cultivators - Females": 20134,
      "Marginal Workers Other - Persons": 6331,
      "Sex Ratio": 1097,
      "Scheduled Tribe Persons": 1874,
      "Marginal Workers Household Industry worked for 3 - 6 moths during last year - Males": 484,
      "Marginal Workers Agricultural Labourers - Females": 3012,
      "Mean age at marriage for girls DLHS-4": 21,
      "Households with solar energy as main source of lighting  Houselisting and Housing Census Data Tables- District Level , Census of India__4": 1027,
      "District": "BAGESHWAR",
      "Households receiving treated tap water within premises in percentage Houselisting and Housing Census Data Tables- District Level , Census of India__1": 17.46250987,
      "Total Workers  Persons": 120867,
      "Households receiving treated tap water within premises  Houselisting and Housing Census Data Tables- District Level , Census of India__4": 9735,
      "Primary Female Teachers in percentage DISE": "NA",
      "Number of Households": 55992,
      "Main Workers Agricultural Labourers - Persons": 2699
    }
  ],
  "Urban": [
    {
      "Marginal Workers Agricultural Labourers - Persons": 16,
      "Marginal Workers Other - Females": 87,
      "Marginal Workers Other worked for 0 - 3 moths during last year - Females": 23,
      "Upper Primary Schools with boys toilet in percentage DISE": "NA",
      "Total Population": 9079,
      "Households with electricity as main source of lighting in percentage Houselisting and Housing Census Data Tables- District Level , Census of India": 97.30142566,
      "Primary Girl's Enrolment in percentage DISE": "NA",
      "Marginal Workers worked for 3 - 6 moths during last year - Males": 444,
      "Prevalence of Acute illness in percentage DLHS-4": "Not available",
      "Main Workers - Persons": 2163,
      "Main Workers Cultivators - Females": 33,
      "Marginal Workers Agricultural Labourers worked for 3 - 6 moths during last year - Females": 7,
      "Marginal Workers Other worked for 0 - 3 moths during last year - Males": 49,
      "Upper Primary Schools with drinking water facility in percentage DISE": "NA",
      "Primary Schools with girls toilet in percentage DISE": "NA",
      "Marginal Workers worked for 3 - 6 moths during last year - Persons": 532,
      "Upper Primary Drop Out Rate in percentage DISE": "NA",
      "Prevalence of Anaemia in pregnant women aged 15-49years in percentage DLHS-4": "Not available",
      "Current use of any modern method of family planning in percentage DLHS-4": 63.4,
      "Marginal Workers Agricultural Labourers - Males": 9,
      "Upper Primary Female Teachers in percentage DISE": "NA",
      "Marginal Workers - Females": 113,
      "Marginal Workers Other worked for 3 - 6 moths during last year - Persons": 486,
      "Main Workers Agricultural Labourers - Females": 17,
      "Marginal Workers Cultivators worked for 3 - 6 moths during last year - Females": 7,
      "Households with no lighting  Houselisting and Housing Census Data Tables- District Level , Census of India__5": 6,
      "Prevalence of Severe Anaemia  in percentage DLHS-4": "Not available",
      "Total unmet need for family planning in percentage DLHS-4": 12.4,
      "Main Workers Other - Males": 1634,
      "Children who received full vaccination in percentage DLHS-4": "Not available",
      "Marginal Workers Household Industry - Persons": 25,
      "Primary Pupil-Teacher Ratio in percentage DISE": "NA",
      "Marginal Workers Agricultural Labourers worked for 3 - 6 moths during last year - Males": 8,
      "Scheduled Caste Females": 1085,
      "Marginal Workers Cultivators - Males": 2,
      "Marginal Workers - Males": 495,
      "Marginal Workers worked for 0 - 3 moths during last year - Females": 25,
      "Households with main source of drinking water within premises in percentage Houselisting and Housing Census Data Tables- District Level , Census of India": 68.78818737,
      "Marginal Workers Household Industry worked for 3 - 6 moths during last year - Persons": 22,
      "Upper Primary Girl's Enrolment in percentage DISE": "NA",
      "Prevalence of Severe Anaemia in women aged 15-49years in percentage DLHS-4": "Not available",
      "Marginal Workers Agricultural Labourers worked for 0 - 3 moths during last year - Males": 1,
      "Households with electricity as main source of lighting  Houselisting and Housing Census Data Tables- District Level , Census of India__3": 1911,
      "Households with computer or laptop with internet connection in percentage": 3.97,
      "PHCs functioning on a 24x7hours basis in percentage DLHS-4": 0,
      "Non Workers - Males": 2475,
      "Total Households in District Houselisting and Housing Census Data Tables- District Level , Census of India": 1964,
      "Upper Primary Schools with girls toilet in percentage DISE": "NA",
      "Households with mobile phone in percentage": 75.2,
      "Households receiving untreated tap water within premises in percentage Houselisting and Housing Census Data Tables- District Level , Census of India__2": 0.152749491,
      "Marginal Workers Cultivators worked for 3 - 6 moths during last year - Males": 2,
      "Prevalence of Anaemia  in percentage DLHS-4": "Not available",
      "Prevalence of Chronic illness in percentage DLHS-4": "Not available",
      "Households with solar energy as main source of lighting in percentage Houselisting and Housing Census Data Tables- District Level , Census of India__1": 0.0509,
      "Marginal Workers Agricultural Labourers worked for 0 - 3 moths during last year - Females": 0,
      "Main Workers - Males": 1741,
      "Female": "NA",
      "Sno": 1932,
      "Marginal Workers Other worked for 3 - 6 moths during last year - Females": 64,
      "Marginal Workers Cultivators worked for 0 - 3 moths during last year - Females": 0,
      "Scheduled Tribe Males": 55,
      "Male Illiterates": 753,
      "Prevalence of Severe Anaemia in pregnant women aged 15-49years in percentage DLHS-4": "Not available",
      "0-6 Age Group Persons": 1015,
      "Upper Primary Student-Classroom Ratio in percentage DISE": "NA",
      "Currently married men married below 21years of age in percentage DLHS-4": 2.6,
      "Male Literates": 3958,
      "Households with no lighting in percentage Houselisting and Housing Census Data Tables- District Level , Census of India__2": 0.305498982,
      "Primary Drop Out Rate in percentage DISE": "NA",
      "Marginal Workers Household Industry - Males": 13,
      "Female Illiterates": 1009,
      "Main Workers Other - Females": 367,
      "Marginal Workers Cultivators - Persons": 9,
      "Upper Primary Gross Enrolment Ratio in percentage DISE": "NA",
      "Scheduled Caste Persons": 2219,
      "Marginal Workers Cultivators worked for 3 - 6 moths during last year - Persons": 9,
      "Households with landline phone in percentage": 2.39,
      "Total Households in District  Houselisting and Housing Census Data Tables- District Level , Census of India": 1964,
      "Upper Primary Pupil-Teacher Ratio in percentage DISE": "NA",
      "Primary Student-Classroom Ratio in percentage DISE": "NA",
      "Primary Schools with boys toilet in percentage DISE": "NA",
      "Mean number of children ever born to women aged 40-49years  DLHS-4": "Not available",
      "Households receiving untreated tap water within premises  Houselisting and Housing Census Data Tables- District Level , Census of India__5": 3,
      "Marginal Workers Household Industry worked for 0 - 3 moths during last year - Persons": 3,
      "Total Male Population": 4711,
      "Non Workers - Females": 3833,
      "Current use of family planning methods in percentage DLHS-4": 73.7,
      "Households with main source of drinking water within premises  Houselisting and Housing Census Data Tables- District Level , Census of India__3": 1351,
      "Main Workers Agricultural Labourers - Males": 17,
      "Marginal Workers Other worked for 0 - 3 moths during last year - Persons": 72,
      "Currently married women married below 18years of age in percentage DLHS-4": 0,
      "Person Illiterates": 1762,
      "Main Workers Household Industry - Females": 5,
      "Female Literates": 3359,
      "Marginal Workers Cultivators worked for 0 - 3 moths during last year - Males": 0,
      "Male": "NA",
      "Households with improved source of drinking water in percentage DLHS-4": "Not available",
      "Upper Primary Schools with electricity in percentage DISE": "NA",
      "Households with electricity in percentage DLHS-4": "Not available",
      "Villages with Primary Health Centre within 10km in percentage DLHS-4": 0,
      "Births to women aged 15-19years out of Total births in percentage DLHS-4": "Not available",
      "Prevalence of Anaemia in women aged 15-49years in percentage DLHS-4": "Not available",
      "Marginal Workers Agricultural Labourers worked for 3 - 6 moths during last year - Persons": 15,
      "Main Workers Household Industry - Males": 27,
      "Scheduled Tribe Females": 53,
      "Marginal Workers worked for 0 - 3 moths during last year - Males": 51,
      "Marginal Workers Other worked for 3 - 6 moths during last year - Males": 422,
      "Primary Net Enrolment Ratio in percentage DISE": "NA",
      "Total": "NA",
      "Mean age at marriage for boys DLHS-4": 28.8,
      "Number of District Hospitals  DLHS-4": 0,
      "0-6 Age Group Females": 465,
      "Marginal Workers Agricultural Labourers worked for 0 - 3 moths during last year - Persons": 1,
      "Marginal Workers Household Industry worked for 0 - 3 moths during last year - Males": 1,
      "Total Workers  Females": 535,
      "Marginal Workers worked for 3 - 6 moths during last year - Females": 88,
      "Institutional Deliveries in percentage DLHS-4": 69.2,
      "Marginal Workers Other - Males": 471,
      "Total Workers  Males": 2236,
      "Main Workers - Females": 422,
      "Primary Gross Enrolment Ratio in percentage DISE": "NA",
      "Main Workers Cultivators - Persons": 96,
      "Marginal Workers Household Industry worked for 0 - 3 moths during last year - Females": 2,
      "Upper Primary Net Enrolment Ratio in percentage DISE": "NA",
      "Primary New Government Schools since 2003 in percentage DISE": "NA",
      "Tier": "Urban",
      "Marginal Workers Household Industry - Females": 12,
      "Primary Schools with electricity in percentage DISE": "NA",
      "Main Workers Other - Persons": 2001,
      "Marginal Workers Household Industry worked for 3 - 6 moths during last year - Females": 10,
      "Main Workers Cultivators - Males": 63,
      "Main Workers Household Industry - Persons": 32,
      "Marginal Workers Cultivators worked for 0 - 3 moths during last year - Persons": 0,
      "Scheduled Caste Males": 1134,
      "Marginal Workers - Persons": 608,
      "Deliveries at home conducted by skilled health personnel in percentage DLHS-4": 60.6,
      "Villages with Sub-Health Centres within 3km in percentage DLHS-4": 0,
      "Upper Primary New Government Schools since 2003 in percentage DISE": "NA",
      "0-6 Age Group Males": 550,
      "Primary Schools with drinking water facility in percentage DISE": "NA",
      "Non Workers - Persons": 6308,
      "Person Literates": 7317,
      "State": "UTTARAKHAND",
      "Total Female Population": 4368,
      "Marginal Workers worked for 0 - 3 moths during last year - Persons": 76,
      "Marginal Workers Cultivators - Females": 7,
      "Marginal Workers Other - Persons": 558,
      "Sex Ratio": 927,
      "Scheduled Tribe Persons": 108,
      "Marginal Workers Household Industry worked for 3 - 6 moths during last year - Males": 12,
      "Marginal Workers Agricultural Labourers - Females": 7,
      "Mean age at marriage for girls DLHS-4": 23.7,
      "Households with solar energy as main source of lighting  Houselisting and Housing Census Data Tables- District Level , Census of India__4": 1,
      "District": "BAGESHWAR",
      "Households receiving treated tap water within premises in percentage Houselisting and Housing Census Data Tables- District Level , Census of India__1": 66.03869654,
      "Total Workers  Persons": 2771,
      "Households receiving treated tap water within premises  Houselisting and Housing Census Data Tables- District Level , Census of India__4": 1297,
      "Primary Female Teachers in percentage DISE": "NA",
      "Number of Households": 2054,
      "Main Workers Agricultural Labourers - Persons": 34
    }
  ]
}