{
  "Total": [
    {
      "Marginal Workers Agricultural Labourers - Persons": 2773,
      "Marginal Workers Other - Females": 2752,
      "Marginal Workers Other worked for 0 - 3 moths during last year - Females": 659,
      "Upper Primary Schools with boys toilet in percentage DISE": 94.3,
      "Total Population": 391605,
      "Households with electricity as main source of lighting in percentage Houselisting and Housing Census Data Tables- District Level , Census of India": 83.39532443,
      "Primary Girl's Enrolment in percentage DISE": 50,
      "Marginal Workers worked for 3 - 6 moths during last year - Males": 21586,
      "Prevalence of Acute illness in percentage DLHS-4": "Not available",
      "Main Workers - Persons": 115115,
      "Main Workers Cultivators - Females": 41541,
      "Marginal Workers Agricultural Labourers worked for 3 - 6 moths during last year - Females": 1070,
      "Marginal Workers Other worked for 0 - 3 moths during last year - Males": 1430,
      "Upper Primary Schools with drinking water facility in percentage DISE": 97.3,
      "Primary Schools with girls toilet in percentage DISE": 100,
      "Marginal Workers worked for 3 - 6 moths during last year - Persons": 49092,
      "Upper Primary Drop Out Rate in percentage DISE": 2.55,
      "Prevalence of Anaemia in pregnant women aged 15-49years in percentage DLHS-4": "Not available",
      "Current use of any modern method of family planning in percentage DLHS-4": 72.5,
      "Marginal Workers Agricultural Labourers - Males": 1219,
      "Upper Primary Female Teachers in percentage DISE": 18.8,
      "Marginal Workers - Females": 37559,
      "Marginal Workers Other worked for 3 - 6 moths during last year - Persons": 7149,
      "Main Workers Agricultural Labourers - Females": 449,
      "Marginal Workers Cultivators worked for 3 - 6 moths during last year - Females": 23725,
      "Households with no lighting  Houselisting and Housing Census Data Tables- District Level , Census of India__5": 307,
      "Prevalence of Severe Anaemia  in percentage DLHS-4": "Not available",
      "Total unmet need for family planning in percentage DLHS-4": 11.1,
      "Main Workers Other - Males": 34782,
      "Children who received full vaccination in percentage DLHS-4": "Not available",
      "Marginal Workers Household Industry - Persons": 2269,
      "Primary Pupil-Teacher Ratio in percentage DISE": 13,
      "Marginal Workers Agricultural Labourers worked for 3 - 6 moths during last year - Males": 876,
      "Scheduled Caste Females": 39599,
      "Marginal Workers Cultivators - Males": 19493,
      "Marginal Workers - Males": 28266,
      "Marginal Workers worked for 0 - 3 moths during last year - Females": 10053,
      "Households with main source of drinking water within premises in percentage Houselisting and Housing Census Data Tables- District Level , Census of India": 37.09423626,
      "Marginal Workers Household Industry worked for 3 - 6 moths during last year - Persons": 1357,
      "Upper Primary Girl's Enrolment in percentage DISE": 53.1,
      "Prevalence of Severe Anaemia in women aged 15-49years in percentage DLHS-4": "Not available",
      "Marginal Workers Agricultural Labourers worked for 0 - 3 moths during last year - Males": 343,
      "Households with electricity as main source of lighting  Houselisting and Housing Census Data Tables- District Level , Census of India__3": 71524,
      "Households with computer or laptop with internet connection in percentage": 1.05,
      "PHCs functioning on a 24x7hours basis in percentage DLHS-4": "Not available",
      "Non Workers - Males": 100159,
      "Total Households in District Houselisting and Housing Census Data Tables- District Level , Census of India": 85795,
      "Upper Primary Schools with girls toilet in percentage DISE": 100,
      "Households with mobile phone in percentage": 62.24,
      "Households receiving untreated tap water within premises in percentage Houselisting and Housing Census Data Tables- District Level , Census of India__2": 7.033043884,
      "Marginal Workers Cultivators worked for 3 - 6 moths during last year - Males": 14915,
      "Prevalence of Anaemia  in percentage DLHS-4": "Not available",
      "Prevalence of Chronic illness in percentage DLHS-4": "Not available",
      "Households with solar energy as main source of lighting in percentage Houselisting and Housing Census Data Tables- District Level , Census of India__1": 4.832973824,
      "Marginal Workers Agricultural Labourers worked for 0 - 3 moths during last year - Females": 484,
      "Main Workers - Males": 65566,
      "Female": 72.32,
      "Sno": 1934,
      "Marginal Workers Other worked for 3 - 6 moths during last year - Females": 2093,
      "Marginal Workers Cultivators worked for 0 - 3 moths during last year - Females": 8327,
      "Scheduled Tribe Males": 6021,
      "Male Illiterates": 38596,
      "Prevalence of Severe Anaemia in pregnant women aged 15-49years in percentage DLHS-4": "Not available",
      "0-6 Age Group Persons": 52161,
      "Upper Primary Student-Classroom Ratio in percentage DISE": 9,
      "Currently married men married below 21years of age in percentage DLHS-4": 3.6,
      "Male Literates": 155395,
      "Households with no lighting in percentage Houselisting and Housing Census Data Tables- District Level , Census of India__2": 0.357954877,
      "Primary Drop Out Rate in percentage DISE": 2.9,
      "Marginal Workers Household Industry - Males": 1068,
      "Female Illiterates": 72453,
      "Main Workers Other - Females": 6534,
      "Marginal Workers Cultivators - Persons": 51545,
      "Upper Primary Gross Enrolment Ratio in percentage DISE": 93.6,
      "Scheduled Caste Persons": 79317,
      "Marginal Workers Cultivators worked for 3 - 6 moths during last year - Persons": 38640,
      "Households with landline phone in percentage": 1.73,
      "Total Households in District  Houselisting and Housing Census Data Tables- District Level , Census of India": 85765,
      "Upper Primary Pupil-Teacher Ratio in percentage DISE": 10,
      "Primary Student-Classroom Ratio in percentage DISE": 10,
      "Primary Schools with boys toilet in percentage DISE": 96.2,
      "Mean number of children ever born to women aged 40-49years  DLHS-4": "Not available",
      "Households receiving untreated tap water within premises  Houselisting and Housing Census Data Tables- District Level , Census of India__5": 6034,
      "Marginal Workers Household Industry worked for 0 - 3 moths during last year - Persons": 912,
      "Total Male Population": 193991,
      "Non Workers - Females": 110506,
      "Current use of family planning methods in percentage DLHS-4": 76.9,
      "Households with main source of drinking water within premises  Houselisting and Housing Census Data Tables- District Level , Census of India__3": 31825,
      "Main Workers Agricultural Labourers - Males": 623,
      "Marginal Workers Other worked for 0 - 3 moths during last year - Persons": 2089,
      "Currently married women married below 18years of age in percentage DLHS-4": 1.6,
      "Person Illiterates": 111049,
      "Main Workers Household Industry - Females": 1025,
      "Female Literates": 125161,
      "Marginal Workers Cultivators worked for 0 - 3 moths during last year - Males": 4578,
      "Male": 93.4,
      "Households with improved source of drinking water in percentage DLHS-4": "Not available",
      "Upper Primary Schools with electricity in percentage DISE": 54.7,
      "Households with electricity in percentage DLHS-4": "Not available",
      "Villages with Primary Health Centre within 10km in percentage DLHS-4": "Not available",
      "Births to women aged 15-19years out of Total births in percentage DLHS-4": "Not available",
      "Prevalence of Anaemia in women aged 15-49years in percentage DLHS-4": "Not available",
      "Marginal Workers Agricultural Labourers worked for 3 - 6 moths during last year - Persons": 1946,
      "Main Workers Household Industry - Males": 2090,
      "Scheduled Tribe Females": 6239,
      "Marginal Workers worked for 0 - 3 moths during last year - Males": 6680,
      "Marginal Workers Other worked for 3 - 6 moths during last year - Males": 5056,
      "Primary Net Enrolment Ratio in percentage DISE": 84,
      "Total": 82.65,
      "Mean age at marriage for boys DLHS-4": 26.1,
      "Number of District Hospitals  DLHS-4": "Not available",
      "0-6 Age Group Females": 24552,
      "Marginal Workers Agricultural Labourers worked for 0 - 3 moths during last year - Persons": 827,
      "Marginal Workers Household Industry worked for 0 - 3 moths during last year - Males": 329,
      "Total Workers  Females": 87108,
      "Marginal Workers worked for 3 - 6 moths during last year - Females": 27506,
      "Institutional Deliveries in percentage DLHS-4": 45,
      "Marginal Workers Other - Males": 6486,
      "Total Workers  Males": 93832,
      "Main Workers - Females": 49549,
      "Primary Gross Enrolment Ratio in percentage DISE": 98.6,
      "Main Workers Cultivators - Persons": 69612,
      "Marginal Workers Household Industry worked for 0 - 3 moths during last year - Females": 583,
      "Upper Primary Net Enrolment Ratio in percentage DISE": 69.5,
      "Primary New Government Schools since 2003 in percentage DISE": 12.4,
      "Tier": "Total",
      "Marginal Workers Household Industry - Females": 1201,
      "Primary Schools with electricity in percentage DISE": 20.1,
      "Main Workers Other - Persons": 41316,
      "Marginal Workers Household Industry worked for 3 - 6 moths during last year - Females": 618,
      "Main Workers Cultivators - Males": 28071,
      "Main Workers Household Industry - Persons": 3115,
      "Marginal Workers Cultivators worked for 0 - 3 moths during last year - Persons": 12905,
      "Scheduled Caste Males": 39718,
      "Marginal Workers - Persons": 65825,
      "Deliveries at home conducted by skilled health personnel in percentage DLHS-4": 29.7,
      "Villages with Sub-Health Centres within 3km in percentage DLHS-4": "Not available",
      "Upper Primary New Government Schools since 2003 in percentage DISE": 57.6,
      "0-6 Age Group Males": 27609,
      "Primary Schools with drinking water facility in percentage DISE": 98.1,
      "Non Workers - Persons": 210665,
      "Person Literates": 280556,
      "State": "UTTARAKHAND",
      "Total Female Population": 197614,
      "Marginal Workers worked for 0 - 3 moths during last year - Persons": 16733,
      "Marginal Workers Cultivators - Females": 32052,
      "Marginal Workers Other - Persons": 9238,
      "Sex Ratio": 1019,
      "Scheduled Tribe Persons": 12260,
      "Marginal Workers Household Industry worked for 3 - 6 moths during last year - Males": 739,
      "Marginal Workers Agricultural Labourers - Females": 1554,
      "Mean age at marriage for girls DLHS-4": 22,
      "Households with solar energy as main source of lighting  Houselisting and Housing Census Data Tables- District Level , Census of India__4": 4145,
      "District": "CHAMOLI",
      "Households receiving treated tap water within premises in percentage Houselisting and Housing Census Data Tables- District Level , Census of India__1": 29.8980127,
      "Total Workers  Persons": 180940,
      "Households receiving treated tap water within premises  Houselisting and Housing Census Data Tables- District Level , Census of India__4": 25651,
      "Primary Female Teachers in percentage DISE": 52,
      "Number of Households": 88964,
      "Main Workers Agricultural Labourers - Persons": 1072
    }
  ],
  "Rural": [
    {
      "Marginal Workers Agricultural Labourers - Persons": 2690,
      "Marginal Workers Other - Females": 2304,
      "Marginal Workers Other worked for 0 - 3 moths during last year - Females": 614,
      "Upper Primary Schools with boys toilet in percentage DISE": "NA",
      "Total Population": 332209,
      "Households with electricity as main source of lighting in percentage Houselisting and Housing Census Data Tables- District Level , Census of India": 80.81903662,
      "Primary Girl's Enrolment in percentage DISE": "NA",
      "Marginal Workers worked for 3 - 6 moths during last year - Males": 20438,
      "Prevalence of Acute illness in percentage DLHS-4": "Not available",
      "Main Workers - Persons": 94517,
      "Main Workers Cultivators - Females": 39916,
      "Marginal Workers Agricultural Labourers worked for 3 - 6 moths during last year - Females": 1042,
      "Marginal Workers Other worked for 0 - 3 moths during last year - Males": 1252,
      "Upper Primary Schools with drinking water facility in percentage DISE": "NA",
      "Primary Schools with girls toilet in percentage DISE": "NA",
      "Marginal Workers worked for 3 - 6 moths during last year - Persons": 47058,
      "Upper Primary Drop Out Rate in percentage DISE": "NA",
      "Prevalence of Anaemia in pregnant women aged 15-49years in percentage DLHS-4": "Not available",
      "Current use of any modern method of family planning in percentage DLHS-4": 73.3,
      "Marginal Workers Agricultural Labourers - Males": 1169,
      "Upper Primary Female Teachers in percentage DISE": "NA",
      "Marginal Workers - Females": 36532,
      "Marginal Workers Other worked for 3 - 6 moths during last year - Persons": 5859,
      "Main Workers Agricultural Labourers - Females": 415,
      "Marginal Workers Cultivators worked for 3 - 6 moths during last year - Females": 23317,
      "Households with no lighting  Houselisting and Housing Census Data Tables- District Level , Census of India__5": 304,
      "Prevalence of Severe Anaemia  in percentage DLHS-4": "Not available",
      "Total unmet need for family planning in percentage DLHS-4": 10.9,
      "Main Workers Other - Males": 20213,
      "Children who received full vaccination in percentage DLHS-4": "Not available",
      "Marginal Workers Household Industry - Persons": 2108,
      "Primary Pupil-Teacher Ratio in percentage DISE": "NA",
      "Marginal Workers Agricultural Labourers worked for 3 - 6 moths during last year - Males": 832,
      "Scheduled Caste Females": 34243,
      "Marginal Workers Cultivators - Males": 19300,
      "Marginal Workers - Males": 26860,
      "Marginal Workers worked for 0 - 3 moths during last year - Females": 9912,
      "Households with main source of drinking water within premises in percentage Houselisting and Housing Census Data Tables- District Level , Census of India": 29.60244144,
      "Marginal Workers Household Industry worked for 3 - 6 moths during last year - Persons": 1233,
      "Upper Primary Girl's Enrolment in percentage DISE": "NA",
      "Prevalence of Severe Anaemia in women aged 15-49years in percentage DLHS-4": "Not available",
      "Marginal Workers Agricultural Labourers worked for 0 - 3 moths during last year - Males": 337,
      "Households with electricity as main source of lighting  Houselisting and Housing Census Data Tables- District Level , Census of India__3": 58791,
      "Households with computer or laptop with internet connection in percentage": 0.58,
      "PHCs functioning on a 24x7hours basis in percentage DLHS-4": "Not applicable",
      "Non Workers - Males": 84528,
      "Total Households in District Houselisting and Housing Census Data Tables- District Level , Census of India": 72744,
      "Upper Primary Schools with girls toilet in percentage DISE": "NA",
      "Households with mobile phone in percentage": 59.54,
      "Households receiving untreated tap water within premises in percentage Houselisting and Housing Census Data Tables- District Level , Census of India__2": 7.670735731,
      "Marginal Workers Cultivators worked for 3 - 6 moths during last year - Males": 14775,
      "Prevalence of Anaemia  in percentage DLHS-4": "Not available",
      "Prevalence of Chronic illness in percentage DLHS-4": "Not available",
      "Households with solar energy as main source of lighting in percentage Houselisting and Housing Census Data Tables- District Level , Census of India__1": 5.688441658,
      "Marginal Workers Agricultural Labourers worked for 0 - 3 moths during last year - Females": 479,
      "Main Workers - Males": 48981,
      "Female": "NA",
      "Sno": 1933,
      "Marginal Workers Other worked for 3 - 6 moths during last year - Females": 1690,
      "Marginal Workers Cultivators worked for 0 - 3 moths during last year - Females": 8252,
      "Scheduled Tribe Males": 4457,
      "Male Illiterates": 33498,
      "Prevalence of Severe Anaemia in pregnant women aged 15-49years in percentage DLHS-4": "Not available",
      "0-6 Age Group Persons": 45217,
      "Upper Primary Student-Classroom Ratio in percentage DISE": "NA",
      "Currently married men married below 21years of age in percentage DLHS-4": 4,
      "Male Literates": 126871,
      "Households with no lighting in percentage Houselisting and Housing Census Data Tables- District Level , Census of India__2": 0.417903882,
      "Primary Drop Out Rate in percentage DISE": "NA",
      "Marginal Workers Household Industry - Males": 970,
      "Female Illiterates": 66408,
      "Main Workers Other - Females": 4418,
      "Marginal Workers Cultivators - Persons": 50869,
      "Upper Primary Gross Enrolment Ratio in percentage DISE": "NA",
      "Scheduled Caste Persons": 68000,
      "Marginal Workers Cultivators worked for 3 - 6 moths during last year - Persons": 38092,
      "Households with landline phone in percentage": 1.65,
      "Total Households in District  Houselisting and Housing Census Data Tables- District Level , Census of India": 72744,
      "Upper Primary Pupil-Teacher Ratio in percentage DISE": "NA",
      "Primary Student-Classroom Ratio in percentage DISE": "NA",
      "Primary Schools with boys toilet in percentage DISE": "NA",
      "Mean number of children ever born to women aged 40-49years  DLHS-4": "Not available",
      "Households receiving untreated tap water within premises  Houselisting and Housing Census Data Tables- District Level , Census of India__5": 5580,
      "Marginal Workers Household Industry worked for 0 - 3 moths during last year - Persons": 875,
      "Total Male Population": 160369,
      "Non Workers - Females": 89772,
      "Current use of family planning methods in percentage DLHS-4": 77.7,
      "Households with main source of drinking water within premises  Houselisting and Housing Census Data Tables- District Level , Census of India__3": 21534,
      "Main Workers Agricultural Labourers - Males": 459,
      "Marginal Workers Other worked for 0 - 3 moths during last year - Persons": 1866,
      "Currently married women married below 18years of age in percentage DLHS-4": 1.6,
      "Person Illiterates": 99906,
      "Main Workers Household Industry - Females": 787,
      "Female Literates": 105432,
      "Marginal Workers Cultivators worked for 0 - 3 moths during last year - Males": 4525,
      "Male": "NA",
      "Households with improved source of drinking water in percentage DLHS-4": "Not available",
      "Upper Primary Schools with electricity in percentage DISE": "NA",
      "Households with electricity in percentage DLHS-4": "Not available",
      "Villages with Primary Health Centre within 10km in percentage DLHS-4": "Not applicable",
      "Births to women aged 15-19years out of Total births in percentage DLHS-4": "Not available",
      "Prevalence of Anaemia in women aged 15-49years in percentage DLHS-4": "Not available",
      "Marginal Workers Agricultural Labourers worked for 3 - 6 moths during last year - Persons": 1874,
      "Main Workers Household Industry - Males": 1168,
      "Scheduled Tribe Females": 4589,
      "Marginal Workers worked for 0 - 3 moths during last year - Males": 6422,
      "Marginal Workers Other worked for 3 - 6 moths during last year - Males": 4169,
      "Primary Net Enrolment Ratio in percentage DISE": "NA",
      "Total": "NA",
      "Mean age at marriage for boys DLHS-4": 25.9,
      "Number of District Hospitals  DLHS-4": "Not applicable",
      "0-6 Age Group Females": 21404,
      "Marginal Workers Agricultural Labourers worked for 0 - 3 moths during last year - Persons": 816,
      "Marginal Workers Household Industry worked for 0 - 3 moths during last year - Males": 308,
      "Total Workers  Females": 82068,
      "Marginal Workers worked for 3 - 6 moths during last year - Females": 26620,
      "Institutional Deliveries in percentage DLHS-4": 40.7,
      "Marginal Workers Other - Males": 5421,
      "Total Workers  Males": 75841,
      "Main Workers - Females": 45536,
      "Primary Gross Enrolment Ratio in percentage DISE": "NA",
      "Main Workers Cultivators - Persons": 67057,
      "Marginal Workers Household Industry worked for 0 - 3 moths during last year - Females": 567,
      "Upper Primary Net Enrolment Ratio in percentage DISE": "NA",
      "Primary New Government Schools since 2003 in percentage DISE": "NA",
      "Tier": "Rural",
      "Marginal Workers Household Industry - Females": 1138,
      "Primary Schools with electricity in percentage DISE": "NA",
      "Main Workers Other - Persons": 24631,
      "Marginal Workers Household Industry worked for 3 - 6 moths during last year - Females": 571,
      "Main Workers Cultivators - Males": 27141,
      "Main Workers Household Industry - Persons": 1955,
      "Marginal Workers Cultivators worked for 0 - 3 moths during last year - Persons": 12777,
      "Scheduled Caste Males": 33757,
      "Marginal Workers - Persons": 63392,
      "Deliveries at home conducted by skilled health personnel in percentage DLHS-4": 28.9,
      "Villages with Sub-Health Centres within 3km in percentage DLHS-4": "Not applicable",
      "Upper Primary New Government Schools since 2003 in percentage DISE": "NA",
      "0-6 Age Group Males": 23813,
      "Primary Schools with drinking water facility in percentage DISE": "NA",
      "Non Workers - Persons": 174300,
      "Person Literates": 232303,
      "State": "UTTARAKHAND",
      "Total Female Population": 171840,
      "Marginal Workers worked for 0 - 3 moths during last year - Persons": 16334,
      "Marginal Workers Cultivators - Females": 31569,
      "Marginal Workers Other - Persons": 7725,
      "Sex Ratio": 1072,
      "Scheduled Tribe Persons": 9046,
      "Marginal Workers Household Industry worked for 3 - 6 moths during last year - Males": 662,
      "Marginal Workers Agricultural Labourers - Females": 1521,
      "Mean age at marriage for girls DLHS-4": 21.9,
      "Households with solar energy as main source of lighting  Houselisting and Housing Census Data Tables- District Level , Census of India__4": 4138,
      "District": "CHAMOLI",
      "Households receiving treated tap water within premises in percentage Houselisting and Housing Census Data Tables- District Level , Census of India__1": 21.74474871,
      "Total Workers  Persons": 157909,
      "Households receiving treated tap water within premises  Houselisting and Housing Census Data Tables- District Level , Census of India__4": 15818,
      "Primary Female Teachers in percentage DISE": "NA",
      "Number of Households": 74318,
      "Main Workers Agricultural Labourers - Persons": 874
    }
  ],
  "Urban": [
    {
      "Marginal Workers Agricultural Labourers - Persons": 83,
      "Marginal Workers Other - Females": 448,
      "Marginal Workers Other worked for 0 - 3 moths during last year - Females": 45,
      "Upper Primary Schools with boys toilet in percentage DISE": "NA",
      "Total Population": 59396,
      "Households with electricity as main source of lighting in percentage Houselisting and Housing Census Data Tables- District Level , Census of India": 97.78818831,
      "Primary Girl's Enrolment in percentage DISE": "NA",
      "Marginal Workers worked for 3 - 6 moths during last year - Males": 1148,
      "Prevalence of Acute illness in percentage DLHS-4": "Not available",
      "Main Workers - Persons": 20598,
      "Main Workers Cultivators - Females": 1625,
      "Marginal Workers Agricultural Labourers worked for 3 - 6 moths during last year - Females": 28,
      "Marginal Workers Other worked for 0 - 3 moths during last year - Males": 178,
      "Upper Primary Schools with drinking water facility in percentage DISE": "NA",
      "Primary Schools with girls toilet in percentage DISE": "NA",
      "Marginal Workers worked for 3 - 6 moths during last year - Persons": 2034,
      "Upper Primary Drop Out Rate in percentage DISE": "NA",
      "Prevalence of Anaemia in pregnant women aged 15-49years in percentage DLHS-4": "Not available",
      "Current use of any modern method of family planning in percentage DLHS-4": 68.4,
      "Marginal Workers Agricultural Labourers - Males": 50,
      "Upper Primary Female Teachers in percentage DISE": "NA",
      "Marginal Workers - Females": 1027,
      "Marginal Workers Other worked for 3 - 6 moths during last year - Persons": 1290,
      "Main Workers Agricultural Labourers - Females": 34,
      "Marginal Workers Cultivators worked for 3 - 6 moths during last year - Females": 408,
      "Households with no lighting  Houselisting and Housing Census Data Tables- District Level , Census of India__5": 3,
      "Prevalence of Severe Anaemia  in percentage DLHS-4": "Not available",
      "Total unmet need for family planning in percentage DLHS-4": 12.2,
      "Main Workers Other - Males": 14569,
      "Children who received full vaccination in percentage DLHS-4": "Not available",
      "Marginal Workers Household Industry - Persons": 161,
      "Primary Pupil-Teacher Ratio in percentage DISE": "NA",
      "Marginal Workers Agricultural Labourers worked for 3 - 6 moths during last year - Males": 44,
      "Scheduled Caste Females": 5356,
      "Marginal Workers Cultivators - Males": 193,
      "Marginal Workers - Males": 1406,
      "Marginal Workers worked for 0 - 3 moths during last year - Females": 141,
      "Households with main source of drinking water within premises in percentage Houselisting and Housing Census Data Tables- District Level , Census of India": 79.03386837,
      "Marginal Workers Household Industry worked for 3 - 6 moths during last year - Persons": 124,
      "Upper Primary Girl's Enrolment in percentage DISE": "NA",
      "Prevalence of Severe Anaemia in women aged 15-49years in percentage DLHS-4": "Not available",
      "Marginal Workers Agricultural Labourers worked for 0 - 3 moths during last year - Males": 6,
      "Households with electricity as main source of lighting  Houselisting and Housing Census Data Tables- District Level , Census of India__3": 12733,
      "Households with computer or laptop with internet connection in percentage": 3.65,
      "PHCs functioning on a 24x7hours basis in percentage DLHS-4": 0,
      "Non Workers - Males": 15631,
      "Total Households in District Houselisting and Housing Census Data Tables- District Level , Census of India": 13021,
      "Upper Primary Schools with girls toilet in percentage DISE": "NA",
      "Households with mobile phone in percentage": 77.34,
      "Households receiving untreated tap water within premises in percentage Houselisting and Housing Census Data Tables- District Level , Census of India__2": 3.486675371,
      "Marginal Workers Cultivators worked for 3 - 6 moths during last year - Males": 140,
      "Prevalence of Anaemia  in percentage DLHS-4": "Not available",
      "Prevalence of Chronic illness in percentage DLHS-4": "Not available",
      "Households with solar energy as main source of lighting in percentage Houselisting and Housing Census Data Tables- District Level , Census of India__1": 0.0538,
      "Marginal Workers Agricultural Labourers worked for 0 - 3 moths during last year - Females": 5,
      "Main Workers - Males": 16585,
      "Female": "NA",
      "Sno": 1935,
      "Marginal Workers Other worked for 3 - 6 moths during last year - Females": 403,
      "Marginal Workers Cultivators worked for 0 - 3 moths during last year - Females": 75,
      "Scheduled Tribe Males": 1564,
      "Male Illiterates": 5098,
      "Prevalence of Severe Anaemia in pregnant women aged 15-49years in percentage DLHS-4": "Not available",
      "0-6 Age Group Persons": 6944,
      "Upper Primary Student-Classroom Ratio in percentage DISE": "NA",
      "Currently married men married below 21years of age in percentage DLHS-4": 1.4,
      "Male Literates": 28524,
      "Households with no lighting in percentage Houselisting and Housing Census Data Tables- District Level , Census of India__2": 0.023,
      "Primary Drop Out Rate in percentage DISE": "NA",
      "Marginal Workers Household Industry - Males": 98,
      "Female Illiterates": 6045,
      "Main Workers Other - Females": 2116,
      "Marginal Workers Cultivators - Persons": 676,
      "Upper Primary Gross Enrolment Ratio in percentage DISE": "NA",
      "Scheduled Caste Persons": 11317,
      "Marginal Workers Cultivators worked for 3 - 6 moths during last year - Persons": 548,
      "Households with landline phone in percentage": 2.14,
      "Total Households in District  Houselisting and Housing Census Data Tables- District Level , Census of India": 13021,
      "Upper Primary Pupil-Teacher Ratio in percentage DISE": "NA",
      "Primary Student-Classroom Ratio in percentage DISE": "NA",
      "Primary Schools with boys toilet in percentage DISE": "NA",
      "Mean number of children ever born to women aged 40-49years  DLHS-4": "Not available",
      "Households receiving untreated tap water within premises  Houselisting and Housing Census Data Tables- District Level , Census of India__5": 454,
      "Marginal Workers Household Industry worked for 0 - 3 moths during last year - Persons": 37,
      "Total Male Population": 33622,
      "Non Workers - Females": 20734,
      "Current use of family planning methods in percentage DLHS-4": 72.6,
      "Households with main source of drinking water within premises  Houselisting and Housing Census Data Tables- District Level , Census of India__3": 10291,
      "Main Workers Agricultural Labourers - Males": 164,
      "Marginal Workers Other worked for 0 - 3 moths during last year - Persons": 223,
      "Currently married women married below 18years of age in percentage DLHS-4": 1.6,
      "Person Illiterates": 11143,
      "Main Workers Household Industry - Females": 238,
      "Female Literates": 19729,
      "Marginal Workers Cultivators worked for 0 - 3 moths during last year - Males": 53,
      "Male": "NA",
      "Households with improved source of drinking water in percentage DLHS-4": "Not available",
      "Upper Primary Schools with electricity in percentage DISE": "NA",
      "Households with electricity in percentage DLHS-4": "Not available",
      "Villages with Primary Health Centre within 10km in percentage DLHS-4": 0,
      "Births to women aged 15-19years out of Total births in percentage DLHS-4": "Not available",
      "Prevalence of Anaemia in women aged 15-49years in percentage DLHS-4": "Not available",
      "Marginal Workers Agricultural Labourers worked for 3 - 6 moths during last year - Persons": 72,
      "Main Workers Household Industry - Males": 922,
      "Scheduled Tribe Females": 1650,
      "Marginal Workers worked for 0 - 3 moths during last year - Males": 258,
      "Marginal Workers Other worked for 3 - 6 moths during last year - Males": 887,
      "Primary Net Enrolment Ratio in percentage DISE": "NA",
      "Total": "NA",
      "Mean age at marriage for boys DLHS-4": 27.6,
      "Number of District Hospitals  DLHS-4": 0,
      "0-6 Age Group Females": 3148,
      "Marginal Workers Agricultural Labourers worked for 0 - 3 moths during last year - Persons": 11,
      "Marginal Workers Household Industry worked for 0 - 3 moths during last year - Males": 21,
      "Total Workers  Females": 5040,
      "Marginal Workers worked for 3 - 6 moths during last year - Females": 886,
      "Institutional Deliveries in percentage DLHS-4": 74.6,
      "Marginal Workers Other - Males": 1065,
      "Total Workers  Males": 17991,
      "Main Workers - Females": 4013,
      "Primary Gross Enrolment Ratio in percentage DISE": "NA",
      "Main Workers Cultivators - Persons": 2555,
      "Marginal Workers Household Industry worked for 0 - 3 moths during last year - Females": 16,
      "Upper Primary Net Enrolment Ratio in percentage DISE": "NA",
      "Primary New Government Schools since 2003 in percentage DISE": "NA",
      "Tier": "Urban",
      "Marginal Workers Household Industry - Females": 63,
      "Primary Schools with electricity in percentage DISE": "NA",
      "Main Workers Other - Persons": 16685,
      "Marginal Workers Household Industry worked for 3 - 6 moths during last year - Females": 47,
      "Main Workers Cultivators - Males": 930,
      "Main Workers Household Industry - Persons": 1160,
      "Marginal Workers Cultivators worked for 0 - 3 moths during last year - Persons": 128,
      "Scheduled Caste Males": 5961,
      "Marginal Workers - Persons": 2433,
      "Deliveries at home conducted by skilled health personnel in percentage DLHS-4": 41.3,
      "Villages with Sub-Health Centres within 3km in percentage DLHS-4": 0,
      "Upper Primary New Government Schools since 2003 in percentage DISE": "NA",
      "0-6 Age Group Males": 3796,
      "Primary Schools with drinking water facility in percentage DISE": "NA",
      "Non Workers - Persons": 36365,
      "Person Literates": 48253,
      "State": "UTTARAKHAND",
      "Total Female Population": 25774,
      "Marginal Workers worked for 0 - 3 moths during last year - Persons": 399,
      "Marginal Workers Cultivators - Females": 483,
      "Marginal Workers Other - Persons": 1513,
      "Sex Ratio": 767,
      "Scheduled Tribe Persons": 3214,
      "Marginal Workers Household Industry worked for 3 - 6 moths during last year - Males": 77,
      "Marginal Workers Agricultural Labourers - Females": 33,
      "Mean age at marriage for girls DLHS-4": 22.8,
      "Households with solar energy as main source of lighting  Houselisting and Housing Census Data Tables- District Level , Census of India__4": 7,
      "District": "CHAMOLI",
      "Households receiving treated tap water within premises in percentage Houselisting and Housing Census Data Tables- District Level , Census of India__1": 75.51647339,
      "Total Workers  Persons": 23031,
      "Households receiving treated tap water within premises  Houselisting and Housing Census Data Tables- District Level , Census of India__4": 9833,
      "Primary Female Teachers in percentage DISE": "NA",
      "Number of Households": 14646,
      "Main Workers Agricultural Labourers - Persons": 198
    }
  ]
}