{
  "Total": [
    {
      "Marginal Workers Agricultural Labourers - Persons": 1287,
      "Marginal Workers Other - Females": 2955,
      "Marginal Workers Other worked for 0 - 3 moths during last year - Females": 714,
      "Upper Primary Schools with boys toilet in percentage DISE": 100,
      "Total Population": 267988,
      "Households with electricity as main source of lighting in percentage Houselisting and Housing Census Data Tables- District Level , Census of India": 97.29169863,
      "Primary Girl's Enrolment in percentage DISE": 51.8,
      "Marginal Workers worked for 3 - 6 moths during last year - Males": 5037,
      "Prevalence of Acute illness in percentage DLHS-4": 9.3,
      "Main Workers - Persons": 99408,
      "Main Workers Cultivators - Females": 21492,
      "Marginal Workers Agricultural Labourers worked for 3 - 6 moths during last year - Females": 483,
      "Marginal Workers Other worked for 0 - 3 moths during last year - Males": 868,
      "Upper Primary Schools with drinking water facility in percentage DISE": 50.8,
      "Primary Schools with girls toilet in percentage DISE": 96.8,
      "Marginal Workers worked for 3 - 6 moths during last year - Persons": 10697,
      "Upper Primary Drop Out Rate in percentage DISE": "Not available",
      "Prevalence of Anaemia in pregnant women aged 15-49years in percentage DLHS-4": 40,
      "Current use of any modern method of family planning in percentage DLHS-4": 25.2,
      "Marginal Workers Agricultural Labourers - Males": 600,
      "Upper Primary Female Teachers in percentage DISE": 49.1,
      "Marginal Workers - Females": 8116,
      "Marginal Workers Other worked for 3 - 6 moths during last year - Persons": 4940,
      "Main Workers Agricultural Labourers - Females": 404,
      "Marginal Workers Cultivators worked for 3 - 6 moths during last year - Females": 2562,
      "Households with no lighting  Houselisting and Housing Census Data Tables- District Level , Census of India__5": 105,
      "Prevalence of Severe Anaemia  in percentage DLHS-4": 0,
      "Total unmet need for family planning in percentage DLHS-4": 36.2,
      "Main Workers Other - Males": 43185,
      "Children who received full vaccination in percentage DLHS-4": 38.9,
      "Marginal Workers Household Industry - Persons": 941,
      "Primary Pupil-Teacher Ratio in percentage DISE": 7,
      "Marginal Workers Agricultural Labourers worked for 3 - 6 moths during last year - Males": 401,
      "Scheduled Caste Females": 0,
      "Marginal Workers Cultivators - Males": 2772,
      "Marginal Workers - Males": 7301,
      "Marginal Workers worked for 0 - 3 moths during last year - Females": 2456,
      "Households with main source of drinking water within premises in percentage Houselisting and Housing Census Data Tables- District Level , Census of India": 26.17193494,
      "Marginal Workers Household Industry worked for 3 - 6 moths during last year - Persons": 633,
      "Upper Primary Girl's Enrolment in percentage DISE": 55.5,
      "Prevalence of Severe Anaemia in women aged 15-49years in percentage DLHS-4": 4.7,
      "Marginal Workers Agricultural Labourers worked for 0 - 3 moths during last year - Males": 199,
      "Households with electricity as main source of lighting  Houselisting and Housing Census Data Tables- District Level , Census of India__3": 50724,
      "Households with computer or laptop with internet connection in percentage": 3.7,
      "PHCs functioning on a 24x7hours basis in percentage DLHS-4": 71.4,
      "Non Workers - Males": 70826,
      "Total Households in District Houselisting and Housing Census Data Tables- District Level , Census of India": 52136,
      "Upper Primary Schools with girls toilet in percentage DISE": 100,
      "Households with mobile phone in percentage": 69.36,
      "Households receiving untreated tap water within premises in percentage Houselisting and Housing Census Data Tables- District Level , Census of India__2": 15.0030689,
      "Marginal Workers Cultivators worked for 3 - 6 moths during last year - Males": 1678,
      "Prevalence of Anaemia  in percentage DLHS-4": 36.4,
      "Prevalence of Chronic illness in percentage DLHS-4": 4.7,
      "Households with solar energy as main source of lighting in percentage Houselisting and Housing Census Data Tables- District Level , Census of India__1": 0.0786,
      "Marginal Workers Agricultural Labourers worked for 0 - 3 moths during last year - Females": 204,
      "Main Workers - Males": 60839,
      "Female": 81.48,
      "Sno": 1247,
      "Marginal Workers Other worked for 3 - 6 moths during last year - Females": 2241,
      "Marginal Workers Cultivators worked for 0 - 3 moths during last year - Females": 1333,
      "Scheduled Tribe Males": 110617,
      "Male Illiterates": 31928,
      "Prevalence of Severe Anaemia in pregnant women aged 15-49years in percentage DLHS-4": 3.8,
      "0-6 Age Group Persons": 36286,
      "Upper Primary Student-Classroom Ratio in percentage DISE": 11,
      "Currently married men married below 21years of age in percentage DLHS-4": 7.5,
      "Male Literates": 107038,
      "Households with no lighting in percentage Houselisting and Housing Census Data Tables- District Level , Census of India__2": 0.201396348,
      "Primary Drop Out Rate in percentage DISE": "Not available",
      "Marginal Workers Household Industry - Males": 362,
      "Female Illiterates": 38571,
      "Main Workers Other - Females": 16164,
      "Marginal Workers Cultivators - Persons": 6667,
      "Upper Primary Gross Enrolment Ratio in percentage DISE": 76.3,
      "Scheduled Caste Persons": 0,
      "Marginal Workers Cultivators worked for 3 - 6 moths during last year - Persons": 4240,
      "Households with landline phone in percentage": 0.93,
      "Total Households in District  Houselisting and Housing Census Data Tables- District Level , Census of India": 52136,
      "Upper Primary Pupil-Teacher Ratio in percentage DISE": 6,
      "Primary Student-Classroom Ratio in percentage DISE": 8,
      "Primary Schools with boys toilet in percentage DISE": 96.8,
      "Mean number of children ever born to women aged 40-49years  DLHS-4": 2.9,
      "Households receiving untreated tap water within premises  Houselisting and Housing Census Data Tables- District Level , Census of India__5": 7822,
      "Marginal Workers Household Industry worked for 0 - 3 moths during last year - Persons": 308,
      "Total Male Population": 138966,
      "Non Workers - Females": 82337,
      "Current use of family planning methods in percentage DLHS-4": 44.4,
      "Households with main source of drinking water within premises  Houselisting and Housing Census Data Tables- District Level , Census of India__3": 13645,
      "Main Workers Agricultural Labourers - Males": 507,
      "Marginal Workers Other worked for 0 - 3 moths during last year - Persons": 1582,
      "Currently married women married below 18years of age in percentage DLHS-4": 2.3,
      "Person Illiterates": 70499,
      "Main Workers Household Industry - Females": 509,
      "Female Literates": 90451,
      "Marginal Workers Cultivators worked for 0 - 3 moths during last year - Males": 1094,
      "Male": 88.69,
      "Households with improved source of drinking water in percentage DLHS-4": 79.7,
      "Upper Primary Schools with electricity in percentage DISE": 44.4,
      "Households with electricity in percentage DLHS-4": 99.3,
      "Villages with Primary Health Centre within 10km in percentage DLHS-4": 94.7,
      "Births to women aged 15-19years out of Total births in percentage DLHS-4": 5.9,
      "Prevalence of Anaemia in women aged 15-49years in percentage DLHS-4": 41.7,
      "Marginal Workers Agricultural Labourers worked for 3 - 6 moths during last year - Persons": 884,
      "Main Workers Household Industry - Males": 622,
      "Scheduled Tribe Females": 114121,
      "Marginal Workers worked for 0 - 3 moths during last year - Males": 2264,
      "Marginal Workers Other worked for 3 - 6 moths during last year - Males": 2699,
      "Primary Net Enrolment Ratio in percentage DISE": 74.7,
      "Total": 85.23,
      "Mean age at marriage for boys DLHS-4": 29.7,
      "Number of District Hospitals  DLHS-4": 1,
      "0-6 Age Group Females": 18007,
      "Marginal Workers Agricultural Labourers worked for 0 - 3 moths during last year - Persons": 403,
      "Marginal Workers Household Industry worked for 0 - 3 moths during last year - Males": 103,
      "Total Workers  Females": 46685,
      "Marginal Workers worked for 3 - 6 moths during last year - Females": 5660,
      "Institutional Deliveries in percentage DLHS-4": 44.4,
      "Marginal Workers Other - Males": 3567,
      "Total Workers  Males": 68140,
      "Main Workers - Females": 38569,
      "Primary Gross Enrolment Ratio in percentage DISE": 87.7,
      "Main Workers Cultivators - Persons": 38017,
      "Marginal Workers Household Industry worked for 0 - 3 moths during last year - Females": 205,
      "Upper Primary Net Enrolment Ratio in percentage DISE": 56.6,
      "Primary New Government Schools since 2003 in percentage DISE": 26.2,
      "Tier": "Total",
      "Marginal Workers Household Industry - Females": 579,
      "Primary Schools with electricity in percentage DISE": 21.5,
      "Main Workers Other - Persons": 59349,
      "Marginal Workers Household Industry worked for 3 - 6 moths during last year - Females": 374,
      "Main Workers Cultivators - Males": 16525,
      "Main Workers Household Industry - Persons": 1131,
      "Marginal Workers Cultivators worked for 0 - 3 moths during last year - Persons": 2427,
      "Scheduled Caste Males": 0,
      "Marginal Workers - Persons": 15417,
      "Deliveries at home conducted by skilled health personnel in percentage DLHS-4": 15.3,
      "Villages with Sub-Health Centres within 3km in percentage DLHS-4": 94.7,
      "Upper Primary New Government Schools since 2003 in percentage DISE": 39.7,
      "0-6 Age Group Males": 18279,
      "Primary Schools with drinking water facility in percentage DISE": 67.2,
      "Non Workers - Persons": 153163,
      "Person Literates": 197489,
      "State": "NAGALAND",
      "Total Female Population": 129022,
      "Marginal Workers worked for 0 - 3 moths during last year - Persons": 4720,
      "Marginal Workers Cultivators - Females": 3895,
      "Marginal Workers Other - Persons": 6522,
      "Sex Ratio": 928,
      "Scheduled Tribe Persons": 224738,
      "Marginal Workers Household Industry worked for 3 - 6 moths during last year - Males": 259,
      "Marginal Workers Agricultural Labourers - Females": 687,
      "Mean age at marriage for girls DLHS-4": 25.7,
      "Households with solar energy as main source of lighting  Houselisting and Housing Census Data Tables- District Level , Census of India__4": 41,
      "District": "KOHIMA",
      "Households receiving treated tap water within premises in percentage Houselisting and Housing Census Data Tables- District Level , Census of India__1": 1.651450054,
      "Total Workers  Persons": 114825,
      "Households receiving treated tap water within premises  Houselisting and Housing Census Data Tables- District Level , Census of India__4": 861,
      "Primary Female Teachers in percentage DISE": 59.8,
      "Number of Households": 54391,
      "Main Workers Agricultural Labourers - Persons": 911
    }
  ],
  "Rural": [
    {
      "Marginal Workers Agricultural Labourers - Persons": 1058,
      "Marginal Workers Other - Females": 1657,
      "Marginal Workers Other worked for 0 - 3 moths during last year - Females": 503,
      "Upper Primary Schools with boys toilet in percentage DISE": "NA",
      "Total Population": 146900,
      "Households with electricity as main source of lighting in percentage Houselisting and Housing Census Data Tables- District Level , Census of India": 95.78365694,
      "Primary Girl's Enrolment in percentage DISE": "NA",
      "Marginal Workers worked for 3 - 6 moths during last year - Males": 3484,
      "Prevalence of Acute illness in percentage DLHS-4": 8.5,
      "Main Workers - Persons": 60240,
      "Main Workers Cultivators - Females": 20640,
      "Marginal Workers Agricultural Labourers worked for 3 - 6 moths during last year - Females": 354,
      "Marginal Workers Other worked for 0 - 3 moths during last year - Males": 631,
      "Upper Primary Schools with drinking water facility in percentage DISE": "NA",
      "Primary Schools with girls toilet in percentage DISE": "NA",
      "Marginal Workers worked for 3 - 6 moths during last year - Persons": 7473,
      "Upper Primary Drop Out Rate in percentage DISE": "NA",
      "Prevalence of Anaemia in pregnant women aged 15-49years in percentage DLHS-4": 58.3,
      "Current use of any modern method of family planning in percentage DLHS-4": 19.1,
      "Marginal Workers Agricultural Labourers - Males": 521,
      "Upper Primary Female Teachers in percentage DISE": "NA",
      "Marginal Workers - Females": 6126,
      "Marginal Workers Other worked for 3 - 6 moths during last year - Persons": 2596,
      "Main Workers Agricultural Labourers - Females": 340,
      "Marginal Workers Cultivators worked for 3 - 6 moths during last year - Females": 2185,
      "Households with no lighting  Houselisting and Housing Census Data Tables- District Level , Census of India__5": 56,
      "Prevalence of Severe Anaemia  in percentage DLHS-4": 0,
      "Total unmet need for family planning in percentage DLHS-4": 42,
      "Main Workers Other - Males": 17278,
      "Children who received full vaccination in percentage DLHS-4": 36,
      "Marginal Workers Household Industry - Persons": 755,
      "Primary Pupil-Teacher Ratio in percentage DISE": "NA",
      "Marginal Workers Agricultural Labourers worked for 3 - 6 moths during last year - Males": 336,
      "Scheduled Caste Females": 0,
      "Marginal Workers Cultivators - Males": 2572,
      "Marginal Workers - Males": 5452,
      "Marginal Workers worked for 0 - 3 moths during last year - Females": 2137,
      "Households with main source of drinking water within premises in percentage Houselisting and Housing Census Data Tables- District Level , Census of India": 10.65440369,
      "Marginal Workers Household Industry worked for 3 - 6 moths during last year - Persons": 499,
      "Upper Primary Girl's Enrolment in percentage DISE": "NA",
      "Prevalence of Severe Anaemia in women aged 15-49years in percentage DLHS-4": 3.8,
      "Marginal Workers Agricultural Labourers worked for 0 - 3 moths during last year - Males": 185,
      "Households with electricity as main source of lighting  Houselisting and Housing Census Data Tables- District Level , Census of India__3": 25307,
      "Households with computer or laptop with internet connection in percentage": 0.93,
      "PHCs functioning on a 24x7hours basis in percentage DLHS-4": "Not applicable",
      "Non Workers - Males": 36779,
      "Total Households in District Houselisting and Housing Census Data Tables- District Level , Census of India": 26421,
      "Upper Primary Schools with girls toilet in percentage DISE": "NA",
      "Households with mobile phone in percentage": 54.87,
      "Households receiving untreated tap water within premises in percentage Houselisting and Housing Census Data Tables- District Level , Census of India__2": 6.839256652,
      "Marginal Workers Cultivators worked for 3 - 6 moths during last year - Males": 1503,
      "Prevalence of Anaemia  in percentage DLHS-4": 60,
      "Prevalence of Chronic illness in percentage DLHS-4": 4.9,
      "Households with solar energy as main source of lighting in percentage Houselisting and Housing Census Data Tables- District Level , Census of India__1": 0.121115779,
      "Marginal Workers Agricultural Labourers worked for 0 - 3 moths during last year - Females": 183,
      "Main Workers - Males": 34138,
      "Female": "NA",
      "Sno": 1246,
      "Marginal Workers Other worked for 3 - 6 moths during last year - Females": 1154,
      "Marginal Workers Cultivators worked for 0 - 3 moths during last year - Females": 1278,
      "Scheduled Tribe Males": 66258,
      "Male Illiterates": 20098,
      "Prevalence of Severe Anaemia in pregnant women aged 15-49years in percentage DLHS-4": 0,
      "0-6 Age Group Persons": 21211,
      "Upper Primary Student-Classroom Ratio in percentage DISE": "NA",
      "Currently married men married below 21years of age in percentage DLHS-4": 8,
      "Male Literates": 56271,
      "Households with no lighting in percentage Houselisting and Housing Census Data Tables- District Level , Census of India__2": 0.211952613,
      "Primary Drop Out Rate in percentage DISE": "NA",
      "Marginal Workers Household Industry - Males": 286,
      "Female Illiterates": 24818,
      "Main Workers Other - Females": 4774,
      "Marginal Workers Cultivators - Persons": 6035,
      "Upper Primary Gross Enrolment Ratio in percentage DISE": "NA",
      "Scheduled Caste Persons": 0,
      "Marginal Workers Cultivators worked for 3 - 6 moths during last year - Persons": 3688,
      "Households with landline phone in percentage": 0.83,
      "Total Households in District  Houselisting and Housing Census Data Tables- District Level , Census of India": 26421,
      "Upper Primary Pupil-Teacher Ratio in percentage DISE": "NA",
      "Primary Student-Classroom Ratio in percentage DISE": "NA",
      "Primary Schools with boys toilet in percentage DISE": "NA",
      "Mean number of children ever born to women aged 40-49years  DLHS-4": 3.3,
      "Households receiving untreated tap water within premises  Houselisting and Housing Census Data Tables- District Level , Census of India__5": 1807,
      "Marginal Workers Household Industry worked for 0 - 3 moths during last year - Persons": 256,
      "Total Male Population": 76369,
      "Non Workers - Females": 38303,
      "Current use of family planning methods in percentage DLHS-4": 43.6,
      "Households with main source of drinking water within premises  Houselisting and Housing Census Data Tables- District Level , Census of India__3": 2815,
      "Main Workers Agricultural Labourers - Males": 389,
      "Marginal Workers Other worked for 0 - 3 moths during last year - Persons": 1134,
      "Currently married women married below 18years of age in percentage DLHS-4": 3.8,
      "Person Illiterates": 44916,
      "Main Workers Household Industry - Females": 348,
      "Female Literates": 45713,
      "Marginal Workers Cultivators worked for 0 - 3 moths during last year - Males": 1069,
      "Male": "NA",
      "Households with improved source of drinking water in percentage DLHS-4": 78.6,
      "Upper Primary Schools with electricity in percentage DISE": "NA",
      "Households with electricity in percentage DLHS-4": 98.9,
      "Villages with Primary Health Centre within 10km in percentage DLHS-4": "Not applicable",
      "Births to women aged 15-19years out of Total births in percentage DLHS-4": 7,
      "Prevalence of Anaemia in women aged 15-49years in percentage DLHS-4": 42.7,
      "Marginal Workers Agricultural Labourers worked for 3 - 6 moths during last year - Persons": 690,
      "Main Workers Household Industry - Males": 422,
      "Scheduled Tribe Females": 67314,
      "Marginal Workers worked for 0 - 3 moths during last year - Males": 1968,
      "Marginal Workers Other worked for 3 - 6 moths during last year - Males": 1442,
      "Primary Net Enrolment Ratio in percentage DISE": "NA",
      "Total": "NA",
      "Mean age at marriage for boys DLHS-4": 30.8,
      "Number of District Hospitals  DLHS-4": "Not applicable",
      "0-6 Age Group Females": 10504,
      "Marginal Workers Agricultural Labourers worked for 0 - 3 moths during last year - Persons": 368,
      "Marginal Workers Household Industry worked for 0 - 3 moths during last year - Males": 83,
      "Total Workers  Females": 32228,
      "Marginal Workers worked for 3 - 6 moths during last year - Females": 3989,
      "Institutional Deliveries in percentage DLHS-4": 44.1,
      "Marginal Workers Other - Males": 2073,
      "Total Workers  Males": 39590,
      "Main Workers - Females": 26102,
      "Primary Gross Enrolment Ratio in percentage DISE": "NA",
      "Main Workers Cultivators - Persons": 36689,
      "Marginal Workers Household Industry worked for 0 - 3 moths during last year - Females": 173,
      "Upper Primary Net Enrolment Ratio in percentage DISE": "NA",
      "Primary New Government Schools since 2003 in percentage DISE": "NA",
      "Tier": "Rural",
      "Marginal Workers Household Industry - Females": 469,
      "Primary Schools with electricity in percentage DISE": "NA",
      "Main Workers Other - Persons": 22052,
      "Marginal Workers Household Industry worked for 3 - 6 moths during last year - Females": 296,
      "Main Workers Cultivators - Males": 16049,
      "Main Workers Household Industry - Persons": 770,
      "Marginal Workers Cultivators worked for 0 - 3 moths during last year - Persons": 2347,
      "Scheduled Caste Males": 0,
      "Marginal Workers - Persons": 11578,
      "Deliveries at home conducted by skilled health personnel in percentage DLHS-4": 14.7,
      "Villages with Sub-Health Centres within 3km in percentage DLHS-4": "Not applicable",
      "Upper Primary New Government Schools since 2003 in percentage DISE": "NA",
      "0-6 Age Group Males": 10707,
      "Primary Schools with drinking water facility in percentage DISE": "NA",
      "Non Workers - Persons": 75082,
      "Person Literates": 101984,
      "State": "NAGALAND",
      "Total Female Population": 70531,
      "Marginal Workers worked for 0 - 3 moths during last year - Persons": 4105,
      "Marginal Workers Cultivators - Females": 3463,
      "Marginal Workers Other - Persons": 3730,
      "Sex Ratio": 924,
      "Scheduled Tribe Persons": 133572,
      "Marginal Workers Household Industry worked for 3 - 6 moths during last year - Males": 203,
      "Marginal Workers Agricultural Labourers - Females": 537,
      "Mean age at marriage for girls DLHS-4": 24.3,
      "Households with solar energy as main source of lighting  Houselisting and Housing Census Data Tables- District Level , Census of India__4": 32,
      "District": "KOHIMA",
      "Households receiving treated tap water within premises in percentage Houselisting and Housing Census Data Tables- District Level , Census of India__1": 1.794027478,
      "Total Workers  Persons": 71818,
      "Households receiving treated tap water within premises  Houselisting and Housing Census Data Tables- District Level , Census of India__4": 474,
      "Primary Female Teachers in percentage DISE": "NA",
      "Number of Households": 27636,
      "Main Workers Agricultural Labourers - Persons": 729
    }
  ],
  "Urban": [
    {
      "Marginal Workers Agricultural Labourers - Persons": 229,
      "Marginal Workers Other - Females": 1298,
      "Marginal Workers Other worked for 0 - 3 moths during last year - Females": 211,
      "Upper Primary Schools with boys toilet in percentage DISE": "NA",
      "Total Population": 121088,
      "Households with electricity as main source of lighting in percentage Houselisting and Housing Census Data Tables- District Level , Census of India": 98.8411433,
      "Primary Girl's Enrolment in percentage DISE": "NA",
      "Marginal Workers worked for 3 - 6 moths during last year - Males": 1553,
      "Prevalence of Acute illness in percentage DLHS-4": "Not available",
      "Main Workers - Persons": 39168,
      "Main Workers Cultivators - Females": 852,
      "Marginal Workers Agricultural Labourers worked for 3 - 6 moths during last year - Females": 129,
      "Marginal Workers Other worked for 0 - 3 moths during last year - Males": 237,
      "Upper Primary Schools with drinking water facility in percentage DISE": "NA",
      "Primary Schools with girls toilet in percentage DISE": "NA",
      "Marginal Workers worked for 3 - 6 moths during last year - Persons": 3224,
      "Upper Primary Drop Out Rate in percentage DISE": "NA",
      "Prevalence of Anaemia in pregnant women aged 15-49years in percentage DLHS-4": "Not available",
      "Current use of any modern method of family planning in percentage DLHS-4": "Not available",
      "Marginal Workers Agricultural Labourers - Males": 79,
      "Upper Primary Female Teachers in percentage DISE": "NA",
      "Marginal Workers - Females": 1990,
      "Marginal Workers Other worked for 3 - 6 moths during last year - Persons": 2344,
      "Main Workers Agricultural Labourers - Females": 64,
      "Marginal Workers Cultivators worked for 3 - 6 moths during last year - Females": 377,
      "Households with no lighting  Houselisting and Housing Census Data Tables- District Level , Census of India__5": 49,
      "Prevalence of Severe Anaemia  in percentage DLHS-4": "Not available",
      "Total unmet need for family planning in percentage DLHS-4": "Not available",
      "Main Workers Other - Males": 25907,
      "Children who received full vaccination in percentage DLHS-4": "Not available",
      "Marginal Workers Household Industry - Persons": 186,
      "Primary Pupil-Teacher Ratio in percentage DISE": "NA",
      "Marginal Workers Agricultural Labourers worked for 3 - 6 moths during last year - Males": 65,
      "Scheduled Caste Females": 0,
      "Marginal Workers Cultivators - Males": 200,
      "Marginal Workers - Males": 1849,
      "Marginal Workers worked for 0 - 3 moths during last year - Females": 319,
      "Households with main source of drinking water within premises in percentage Houselisting and Housing Census Data Tables- District Level , Census of India": 42.11549679,
      "Marginal Workers Household Industry worked for 3 - 6 moths during last year - Persons": 134,
      "Upper Primary Girl's Enrolment in percentage DISE": "NA",
      "Prevalence of Severe Anaemia in women aged 15-49years in percentage DLHS-4": "Not available",
      "Marginal Workers Agricultural Labourers worked for 0 - 3 moths during last year - Males": 14,
      "Households with electricity as main source of lighting  Houselisting and Housing Census Data Tables- District Level , Census of India__3": 25417,
      "Households with computer or laptop with internet connection in percentage": 6.54,
      "PHCs functioning on a 24x7hours basis in percentage DLHS-4": 0,
      "Non Workers - Males": 34047,
      "Total Households in District Houselisting and Housing Census Data Tables- District Level , Census of India": 25715,
      "Upper Primary Schools with girls toilet in percentage DISE": "NA",
      "Households with mobile phone in percentage": 84.24,
      "Households receiving untreated tap water within premises in percentage Houselisting and Housing Census Data Tables- District Level , Census of India__2": 23.39101692,
      "Marginal Workers Cultivators worked for 3 - 6 moths during last year - Males": 175,
      "Prevalence of Anaemia  in percentage DLHS-4": "Not available",
      "Prevalence of Chronic illness in percentage DLHS-4": "Not available",
      "Households with solar energy as main source of lighting in percentage Houselisting and Housing Census Data Tables- District Level , Census of India__1": 0.035,
      "Marginal Workers Agricultural Labourers worked for 0 - 3 moths during last year - Females": 21,
      "Main Workers - Males": 26701,
      "Female": "NA",
      "Sno": 1248,
      "Marginal Workers Other worked for 3 - 6 moths during last year - Females": 1087,
      "Marginal Workers Cultivators worked for 0 - 3 moths during last year - Females": 55,
      "Scheduled Tribe Males": 44359,
      "Male Illiterates": 11830,
      "Prevalence of Severe Anaemia in pregnant women aged 15-49years in percentage DLHS-4": "Not available",
      "0-6 Age Group Persons": 15075,
      "Upper Primary Student-Classroom Ratio in percentage DISE": "NA",
      "Currently married men married below 21years of age in percentage DLHS-4": "Not available",
      "Male Literates": 50767,
      "Households with no lighting in percentage Houselisting and Housing Census Data Tables- District Level , Census of India__2": 0.190550262,
      "Primary Drop Out Rate in percentage DISE": "NA",
      "Marginal Workers Household Industry - Males": 76,
      "Female Illiterates": 13753,
      "Main Workers Other - Females": 11390,
      "Marginal Workers Cultivators - Persons": 632,
      "Upper Primary Gross Enrolment Ratio in percentage DISE": "NA",
      "Scheduled Caste Persons": 0,
      "Marginal Workers Cultivators worked for 3 - 6 moths during last year - Persons": 552,
      "Households with landline phone in percentage": 1.04,
      "Total Households in District  Houselisting and Housing Census Data Tables- District Level , Census of India": 25715,
      "Upper Primary Pupil-Teacher Ratio in percentage DISE": "NA",
      "Primary Student-Classroom Ratio in percentage DISE": "NA",
      "Primary Schools with boys toilet in percentage DISE": "NA",
      "Mean number of children ever born to women aged 40-49years  DLHS-4": "Not available",
      "Households receiving untreated tap water within premises  Houselisting and Housing Census Data Tables- District Level , Census of India__5": 6015,
      "Marginal Workers Household Industry worked for 0 - 3 moths during last year - Persons": 52,
      "Total Male Population": 62597,
      "Non Workers - Females": 44034,
      "Current use of family planning methods in percentage DLHS-4": "Not available",
      "Households with main source of drinking water within premises  Houselisting and Housing Census Data Tables- District Level , Census of India__3": 10830,
      "Main Workers Agricultural Labourers - Males": 118,
      "Marginal Workers Other worked for 0 - 3 moths during last year - Persons": 448,
      "Currently married women married below 18years of age in percentage DLHS-4": "Not available",
      "Person Illiterates": 25583,
      "Main Workers Household Industry - Females": 161,
      "Female Literates": 44738,
      "Marginal Workers Cultivators worked for 0 - 3 moths during last year - Males": 25,
      "Male": "NA",
      "Households with improved source of drinking water in percentage DLHS-4": "Not available",
      "Upper Primary Schools with electricity in percentage DISE": "NA",
      "Households with electricity in percentage DLHS-4": "Not available",
      "Villages with Primary Health Centre within 10km in percentage DLHS-4": 0,
      "Births to women aged 15-19years out of Total births in percentage DLHS-4": "Not available",
      "Prevalence of Anaemia in women aged 15-49years in percentage DLHS-4": "Not available",
      "Marginal Workers Agricultural Labourers worked for 3 - 6 moths during last year - Persons": 194,
      "Main Workers Household Industry - Males": 200,
      "Scheduled Tribe Females": 46807,
      "Marginal Workers worked for 0 - 3 moths during last year - Males": 296,
      "Marginal Workers Other worked for 3 - 6 moths during last year - Males": 1257,
      "Primary Net Enrolment Ratio in percentage DISE": "NA",
      "Total": "NA",
      "Mean age at marriage for boys DLHS-4": "Not available",
      "Number of District Hospitals  DLHS-4": 0,
      "0-6 Age Group Females": 7503,
      "Marginal Workers Agricultural Labourers worked for 0 - 3 moths during last year - Persons": 35,
      "Marginal Workers Household Industry worked for 0 - 3 moths during last year - Males": 20,
      "Total Workers  Females": 14457,
      "Marginal Workers worked for 3 - 6 moths during last year - Females": 1671,
      "Institutional Deliveries in percentage DLHS-4": "Not available",
      "Marginal Workers Other - Males": 1494,
      "Total Workers  Males": 28550,
      "Main Workers - Females": 12467,
      "Primary Gross Enrolment Ratio in percentage DISE": "NA",
      "Main Workers Cultivators - Persons": 1328,
      "Marginal Workers Household Industry worked for 0 - 3 moths during last year - Females": 32,
      "Upper Primary Net Enrolment Ratio in percentage DISE": "NA",
      "Primary New Government Schools since 2003 in percentage DISE": "NA",
      "Tier": "Urban",
      "Marginal Workers Household Industry - Females": 110,
      "Primary Schools with electricity in percentage DISE": "NA",
      "Main Workers Other - Persons": 37297,
      "Marginal Workers Household Industry worked for 3 - 6 moths during last year - Females": 78,
      "Main Workers Cultivators - Males": 476,
      "Main Workers Household Industry - Persons": 361,
      "Marginal Workers Cultivators worked for 0 - 3 moths during last year - Persons": 80,
      "Scheduled Caste Males": 0,
      "Marginal Workers - Persons": 3839,
      "Deliveries at home conducted by skilled health personnel in percentage DLHS-4": "Not available",
      "Villages with Sub-Health Centres within 3km in percentage DLHS-4": 0,
      "Upper Primary New Government Schools since 2003 in percentage DISE": "NA",
      "0-6 Age Group Males": 7572,
      "Primary Schools with drinking water facility in percentage DISE": "NA",
      "Non Workers - Persons": 78081,
      "Person Literates": 95505,
      "State": "NAGALAND",
      "Total Female Population": 58491,
      "Marginal Workers worked for 0 - 3 moths during last year - Persons": 615,
      "Marginal Workers Cultivators - Females": 432,
      "Marginal Workers Other - Persons": 2792,
      "Sex Ratio": 934,
      "Scheduled Tribe Persons": 91166,
      "Marginal Workers Household Industry worked for 3 - 6 moths during last year - Males": 56,
      "Marginal Workers Agricultural Labourers - Females": 150,
      "Mean age at marriage for girls DLHS-4": "Not available",
      "Households with solar energy as main source of lighting  Houselisting and Housing Census Data Tables- District Level , Census of India__4": 9,
      "District": "KOHIMA",
      "Households receiving treated tap water within premises in percentage Houselisting and Housing Census Data Tables- District Level , Census of India__1": 1.504958196,
      "Total Workers  Persons": 43007,
      "Households receiving treated tap water within premises  Houselisting and Housing Census Data Tables- District Level , Census of India__4": 387,
      "Primary Female Teachers in percentage DISE": "NA",
      "Number of Households": 26755,
      "Main Workers Agricultural Labourers - Persons": 182
    }
  ]
}