{
  "Total": [
    {
      "Marginal Workers Agricultural Labourers - Persons": 22492,
      "Marginal Workers Other - Females": 8130,
      "Marginal Workers Other worked for 0 - 3 moths during last year - Females": 1614,
      "Upper Primary Schools with boys toilet in percentage DISE": 50.2,
      "Total Population": 738804,
      "Households with electricity as main source of lighting in percentage Houselisting and Housing Census Data Tables- District Level , Census of India": 33.18051462,
      "Primary Girl's Enrolment in percentage DISE": 50,
      "Marginal Workers worked for 3 - 6 moths during last year - Males": 24318,
      "Prevalence of Acute illness in percentage DLHS-4": "Not available",
      "Main Workers - Persons": 191671,
      "Main Workers Cultivators - Females": 4296,
      "Marginal Workers Agricultural Labourers worked for 3 - 6 moths during last year - Females": 9258,
      "Marginal Workers Other worked for 0 - 3 moths during last year - Males": 2159,
      "Upper Primary Schools with drinking water facility in percentage DISE": 90.2,
      "Primary Schools with girls toilet in percentage DISE": 54,
      "Marginal Workers worked for 3 - 6 moths during last year - Persons": 50284,
      "Upper Primary Drop Out Rate in percentage DISE": 5.54,
      "Prevalence of Anaemia in pregnant women aged 15-49years in percentage DLHS-4": "Not available",
      "Current use of any modern method of family planning in percentage DLHS-4": 35.7,
      "Marginal Workers Agricultural Labourers - Males": 10729,
      "Upper Primary Female Teachers in percentage DISE": 22.2,
      "Marginal Workers - Females": 34076,
      "Marginal Workers Other worked for 3 - 6 moths during last year - Persons": 16466,
      "Main Workers Agricultural Labourers - Females": 5555,
      "Marginal Workers Cultivators worked for 3 - 6 moths during last year - Females": 7286,
      "Households with no lighting  Houselisting and Housing Census Data Tables- District Level , Census of India__5": 212,
      "Prevalence of Severe Anaemia  in percentage DLHS-4": "Not available",
      "Total unmet need for family planning in percentage DLHS-4": 11.8,
      "Main Workers Other - Males": 82200,
      "Children who received full vaccination in percentage DLHS-4": "Not available",
      "Marginal Workers Household Industry - Persons": 4729,
      "Primary Pupil-Teacher Ratio in percentage DISE": 32,
      "Marginal Workers Agricultural Labourers worked for 3 - 6 moths during last year - Males": 8862,
      "Scheduled Caste Females": 40271,
      "Marginal Workers Cultivators - Males": 5966,
      "Marginal Workers - Males": 30059,
      "Marginal Workers worked for 0 - 3 moths during last year - Females": 8110,
      "Households with main source of drinking water within premises in percentage Houselisting and Housing Census Data Tables- District Level , Census of India": 65.20910851,
      "Marginal Workers Household Industry worked for 3 - 6 moths during last year - Persons": 3869,
      "Upper Primary Girl's Enrolment in percentage DISE": 53.9,
      "Prevalence of Severe Anaemia in women aged 15-49years in percentage DLHS-4": "Not available",
      "Marginal Workers Agricultural Labourers worked for 0 - 3 moths during last year - Males": 1867,
      "Households with electricity as main source of lighting  Houselisting and Housing Census Data Tables- District Level , Census of India__3": 49866,
      "Households with computer or laptop with internet connection in percentage": 1.68,
      "PHCs functioning on a 24x7hours basis in percentage DLHS-4": "Not available",
      "Non Workers - Males": 178276,
      "Total Households in District Houselisting and Housing Census Data Tables- District Level , Census of India": 150287,
      "Upper Primary Schools with girls toilet in percentage DISE": 63.5,
      "Households with mobile phone in percentage": 46.88,
      "Households receiving untreated tap water within premises in percentage Houselisting and Housing Census Data Tables- District Level , Census of India__2": 0.2797277,
      "Marginal Workers Cultivators worked for 3 - 6 moths during last year - Males": 4543,
      "Prevalence of Anaemia  in percentage DLHS-4": "Not available",
      "Prevalence of Chronic illness in percentage DLHS-4": "Not available",
      "Households with solar energy as main source of lighting in percentage Houselisting and Housing Census Data Tables- District Level , Census of India__1": 0.215587509,
      "Marginal Workers Agricultural Labourers worked for 0 - 3 moths during last year - Females": 2505,
      "Main Workers - Males": 167483,
      "Female": 64.43,
      "Sno": 107,
      "Marginal Workers Other worked for 3 - 6 moths during last year - Females": 6516,
      "Marginal Workers Cultivators worked for 0 - 3 moths during last year - Females": 3423,
      "Scheduled Tribe Males": 9377,
      "Male Illiterates": 138704,
      "Prevalence of Severe Anaemia in pregnant women aged 15-49years in percentage DLHS-4": "Not available",
      "0-6 Age Group Persons": 116392,
      "Upper Primary Student-Classroom Ratio in percentage DISE": 34,
      "Currently married men married below 21years of age in percentage DLHS-4": 9.9,
      "Male Literates": 237114,
      "Households with no lighting in percentage Houselisting and Housing Census Data Tables- District Level , Census of India__2": 0.141063432,
      "Primary Drop Out Rate in percentage DISE": 5.2,
      "Marginal Workers Household Industry - Males": 1255,
      "Female Illiterates": 166022,
      "Main Workers Other - Females": 13034,
      "Marginal Workers Cultivators - Persons": 16675,
      "Upper Primary Gross Enrolment Ratio in percentage DISE": 87.5,
      "Scheduled Caste Persons": 82784,
      "Marginal Workers Cultivators worked for 3 - 6 moths during last year - Persons": 11829,
      "Households with landline phone in percentage": 2.4,
      "Total Households in District  Houselisting and Housing Census Data Tables- District Level , Census of India": 150287,
      "Upper Primary Pupil-Teacher Ratio in percentage DISE": 17,
      "Primary Student-Classroom Ratio in percentage DISE": 36,
      "Primary Schools with boys toilet in percentage DISE": 45.3,
      "Mean number of children ever born to women aged 40-49years  DLHS-4": "Not available",
      "Households receiving untreated tap water within premises  Houselisting and Housing Census Data Tables- District Level , Census of India__5": 1160,
      "Marginal Workers Household Industry worked for 0 - 3 moths during last year - Persons": 860,
      "Total Male Population": 375818,
      "Non Workers - Females": 304722,
      "Current use of family planning methods in percentage DLHS-4": 70.5,
      "Households with main source of drinking water within premises  Houselisting and Housing Census Data Tables- District Level , Census of India__3": 270415,
      "Main Workers Agricultural Labourers - Males": 19359,
      "Marginal Workers Other worked for 0 - 3 moths during last year - Persons": 3773,
      "Currently married women married below 18years of age in percentage DLHS-4": 7.8,
      "Person Illiterates": 304726,
      "Main Workers Household Industry - Females": 1303,
      "Female Literates": 196964,
      "Marginal Workers Cultivators worked for 0 - 3 moths during last year - Males": 1423,
      "Male": 74.87,
      "Households with improved source of drinking water in percentage DLHS-4": "Not available",
      "Upper Primary Schools with electricity in percentage DISE": 24.9,
      "Households with electricity in percentage DLHS-4": "Not available",
      "Villages with Primary Health Centre within 10km in percentage DLHS-4": "Not available",
      "Births to women aged 15-19years out of Total births in percentage DLHS-4": "Not available",
      "Prevalence of Anaemia in women aged 15-49years in percentage DLHS-4": "Not available",
      "Marginal Workers Agricultural Labourers worked for 3 - 6 moths during last year - Persons": 18120,
      "Main Workers Household Industry - Males": 3453,
      "Scheduled Tribe Females": 9458,
      "Marginal Workers worked for 0 - 3 moths during last year - Males": 5741,
      "Marginal Workers Other worked for 3 - 6 moths during last year - Males": 9950,
      "Primary Net Enrolment Ratio in percentage DISE": 100,
      "Total": 69.74,
      "Mean age at marriage for boys DLHS-4": 26.9,
      "Number of District Hospitals  DLHS-4": "Not available",
      "0-6 Age Group Females": 57293,
      "Marginal Workers Agricultural Labourers worked for 0 - 3 moths during last year - Persons": 4372,
      "Marginal Workers Household Industry worked for 0 - 3 moths during last year - Males": 292,
      "Total Workers  Females": 58264,
      "Marginal Workers worked for 3 - 6 moths during last year - Females": 25966,
      "Institutional Deliveries in percentage DLHS-4": 54.8,
      "Marginal Workers Other - Males": 12109,
      "Total Workers  Males": 197542,
      "Main Workers - Females": 24188,
      "Primary Gross Enrolment Ratio in percentage DISE": 114.4,
      "Main Workers Cultivators - Persons": 66767,
      "Marginal Workers Household Industry worked for 0 - 3 moths during last year - Females": 568,
      "Upper Primary Net Enrolment Ratio in percentage DISE": 67.9,
      "Primary New Government Schools since 2003 in percentage DISE": 17.2,
      "Tier": "Total",
      "Marginal Workers Household Industry - Females": 3474,
      "Primary Schools with electricity in percentage DISE": 7.7,
      "Main Workers Other - Persons": 95234,
      "Marginal Workers Household Industry worked for 3 - 6 moths during last year - Females": 2906,
      "Main Workers Cultivators - Males": 62471,
      "Main Workers Household Industry - Persons": 4756,
      "Marginal Workers Cultivators worked for 0 - 3 moths during last year - Persons": 4846,
      "Scheduled Caste Males": 42513,
      "Marginal Workers - Persons": 64135,
      "Deliveries at home conducted by skilled health personnel in percentage DLHS-4": 34.8,
      "Villages with Sub-Health Centres within 3km in percentage DLHS-4": "Not available",
      "Upper Primary New Government Schools since 2003 in percentage DISE": 1.3,
      "0-6 Age Group Males": 59099,
      "Primary Schools with drinking water facility in percentage DISE": 81.1,
      "Non Workers - Persons": 482998,
      "Person Literates": 434078,
      "State": "ASSAM",
      "Total Female Population": 362986,
      "Marginal Workers worked for 0 - 3 moths during last year - Persons": 13851,
      "Marginal Workers Cultivators - Females": 10709,
      "Marginal Workers Other - Persons": 20239,
      "Sex Ratio": 966,
      "Scheduled Tribe Persons": 18835,
      "Marginal Workers Household Industry worked for 3 - 6 moths during last year - Males": 963,
      "Marginal Workers Agricultural Labourers - Females": 11763,
      "Mean age at marriage for girls DLHS-4": 21.7,
      "Households with solar energy as main source of lighting  Houselisting and Housing Census Data Tables- District Level , Census of India__4": 324,
      "District": "BONGAIGAON",
      "Households receiving treated tap water within premises in percentage Houselisting and Housing Census Data Tables- District Level , Census of India__1": 0.973500623,
      "Total Workers  Persons": 255806,
      "Households receiving treated tap water within premises  Houselisting and Housing Census Data Tables- District Level , Census of India__4": 4037,
      "Primary Female Teachers in percentage DISE": 32.2,
      "Number of Households": 150018,
      "Main Workers Agricultural Labourers - Persons": 24914
    }
  ],
  "Rural": [
    {
      "Marginal Workers Agricultural Labourers - Persons": 22088,
      "Marginal Workers Other - Females": 6903,
      "Marginal Workers Other worked for 0 - 3 moths during last year - Females": 1522,
      "Upper Primary Schools with boys toilet in percentage DISE": "NA",
      "Total Population": 628994,
      "Households with electricity as main source of lighting in percentage Houselisting and Housing Census Data Tables- District Level , Census of India": 19.52730442,
      "Primary Girl's Enrolment in percentage DISE": "NA",
      "Marginal Workers worked for 3 - 6 moths during last year - Males": 22247,
      "Prevalence of Acute illness in percentage DLHS-4": "Not available",
      "Main Workers - Persons": 158430,
      "Main Workers Cultivators - Females": 4270,
      "Marginal Workers Agricultural Labourers worked for 3 - 6 moths during last year - Females": 9135,
      "Marginal Workers Other worked for 0 - 3 moths during last year - Males": 1909,
      "Upper Primary Schools with drinking water facility in percentage DISE": "NA",
      "Primary Schools with girls toilet in percentage DISE": "NA",
      "Marginal Workers worked for 3 - 6 moths during last year - Persons": 46787,
      "Upper Primary Drop Out Rate in percentage DISE": "NA",
      "Prevalence of Anaemia in pregnant women aged 15-49years in percentage DLHS-4": "Not available",
      "Current use of any modern method of family planning in percentage DLHS-4": 36.5,
      "Marginal Workers Agricultural Labourers - Males": 10533,
      "Upper Primary Female Teachers in percentage DISE": "NA",
      "Marginal Workers - Females": 32448,
      "Marginal Workers Other worked for 3 - 6 moths during last year - Persons": 13529,
      "Main Workers Agricultural Labourers - Females": 5492,
      "Marginal Workers Cultivators worked for 3 - 6 moths during last year - Females": 7247,
      "Households with no lighting  Houselisting and Housing Census Data Tables- District Level , Census of India__5": 144,
      "Prevalence of Severe Anaemia  in percentage DLHS-4": "Not available",
      "Total unmet need for family planning in percentage DLHS-4": 12.5,
      "Main Workers Other - Males": 54527,
      "Children who received full vaccination in percentage DLHS-4": "Not available",
      "Marginal Workers Household Industry - Persons": 4443,
      "Primary Pupil-Teacher Ratio in percentage DISE": "NA",
      "Marginal Workers Agricultural Labourers worked for 3 - 6 moths during last year - Males": 8718,
      "Scheduled Caste Females": 32700,
      "Marginal Workers Cultivators - Males": 5902,
      "Marginal Workers - Males": 27609,
      "Marginal Workers worked for 0 - 3 moths during last year - Females": 7908,
      "Households with main source of drinking water within premises in percentage Houselisting and Housing Census Data Tables- District Level , Census of India": 62.88794661,
      "Marginal Workers Household Industry worked for 3 - 6 moths during last year - Persons": 3671,
      "Upper Primary Girl's Enrolment in percentage DISE": "NA",
      "Prevalence of Severe Anaemia in women aged 15-49years in percentage DLHS-4": "Not available",
      "Marginal Workers Agricultural Labourers worked for 0 - 3 moths during last year - Males": 1815,
      "Households with electricity as main source of lighting  Houselisting and Housing Census Data Tables- District Level , Census of India__3": 29347,
      "Households with computer or laptop with internet connection in percentage": 0.5,
      "PHCs functioning on a 24x7hours basis in percentage DLHS-4": "Not applicable",
      "Non Workers - Males": 153304,
      "Total Households in District Houselisting and Housing Census Data Tables- District Level , Census of India": 124874,
      "Upper Primary Schools with girls toilet in percentage DISE": "NA",
      "Households with mobile phone in percentage": 43.27,
      "Households receiving untreated tap water within premises in percentage Houselisting and Housing Census Data Tables- District Level , Census of India__2": 0.136485998,
      "Marginal Workers Cultivators worked for 3 - 6 moths during last year - Males": 4487,
      "Prevalence of Anaemia  in percentage DLHS-4": "Not available",
      "Prevalence of Chronic illness in percentage DLHS-4": "Not available",
      "Households with solar energy as main source of lighting in percentage Houselisting and Housing Census Data Tables- District Level , Census of India__1": 0.190302554,
      "Marginal Workers Agricultural Labourers worked for 0 - 3 moths during last year - Females": 2420,
      "Main Workers - Males": 138873,
      "Female": "NA",
      "Sno": 106,
      "Marginal Workers Other worked for 3 - 6 moths during last year - Females": 5381,
      "Marginal Workers Cultivators worked for 0 - 3 moths during last year - Females": 3417,
      "Scheduled Tribe Males": 7574,
      "Male Illiterates": 128628,
      "Prevalence of Severe Anaemia in pregnant women aged 15-49years in percentage DLHS-4": "Not available",
      "0-6 Age Group Persons": 105251,
      "Upper Primary Student-Classroom Ratio in percentage DISE": "NA",
      "Currently married men married below 21years of age in percentage DLHS-4": 10.9,
      "Male Literates": 191158,
      "Households with no lighting in percentage Houselisting and Housing Census Data Tables- District Level , Census of India__2": 0.0958,
      "Primary Drop Out Rate in percentage DISE": "NA",
      "Marginal Workers Household Industry - Males": 1117,
      "Female Illiterates": 152497,
      "Main Workers Other - Females": 8592,
      "Marginal Workers Cultivators - Persons": 16566,
      "Upper Primary Gross Enrolment Ratio in percentage DISE": "NA",
      "Scheduled Caste Persons": 67460,
      "Marginal Workers Cultivators worked for 3 - 6 moths during last year - Persons": 11734,
      "Households with landline phone in percentage": 1.86,
      "Total Households in District  Houselisting and Housing Census Data Tables- District Level , Census of India": 124874,
      "Upper Primary Pupil-Teacher Ratio in percentage DISE": "NA",
      "Primary Student-Classroom Ratio in percentage DISE": "NA",
      "Primary Schools with boys toilet in percentage DISE": "NA",
      "Mean number of children ever born to women aged 40-49years  DLHS-4": "Not available",
      "Households receiving untreated tap water within premises  Houselisting and Housing Census Data Tables- District Level , Census of India__5": 506,
      "Marginal Workers Household Industry worked for 0 - 3 moths during last year - Persons": 772,
      "Total Male Population": 319786,
      "Non Workers - Females": 257203,
      "Current use of family planning methods in percentage DLHS-4": 70.5,
      "Households with main source of drinking water within premises  Houselisting and Housing Census Data Tables- District Level , Census of India__3": 233147,
      "Main Workers Agricultural Labourers - Males": 19131,
      "Marginal Workers Other worked for 0 - 3 moths during last year - Persons": 3431,
      "Currently married women married below 18years of age in percentage DLHS-4": 8.4,
      "Person Illiterates": 281125,
      "Main Workers Household Industry - Females": 1203,
      "Female Literates": 156711,
      "Marginal Workers Cultivators worked for 0 - 3 moths during last year - Males": 1415,
      "Male": "NA",
      "Households with improved source of drinking water in percentage DLHS-4": "Not available",
      "Upper Primary Schools with electricity in percentage DISE": "NA",
      "Households with electricity in percentage DLHS-4": "Not available",
      "Villages with Primary Health Centre within 10km in percentage DLHS-4": "Not applicable",
      "Births to women aged 15-19years out of Total births in percentage DLHS-4": "Not available",
      "Prevalence of Anaemia in women aged 15-49years in percentage DLHS-4": "Not available",
      "Marginal Workers Agricultural Labourers worked for 3 - 6 moths during last year - Persons": 17853,
      "Main Workers Household Industry - Males": 3081,
      "Scheduled Tribe Females": 7693,
      "Marginal Workers worked for 0 - 3 moths during last year - Males": 5362,
      "Marginal Workers Other worked for 3 - 6 moths during last year - Males": 8148,
      "Primary Net Enrolment Ratio in percentage DISE": "NA",
      "Total": "NA",
      "Mean age at marriage for boys DLHS-4": 26.4,
      "Number of District Hospitals  DLHS-4": "Not applicable",
      "0-6 Age Group Females": 51915,
      "Marginal Workers Agricultural Labourers worked for 0 - 3 moths during last year - Persons": 4235,
      "Marginal Workers Household Industry worked for 0 - 3 moths during last year - Males": 223,
      "Total Workers  Females": 52005,
      "Marginal Workers worked for 3 - 6 moths during last year - Females": 24540,
      "Institutional Deliveries in percentage DLHS-4": 52,
      "Marginal Workers Other - Males": 10057,
      "Total Workers  Males": 166482,
      "Main Workers - Females": 19557,
      "Primary Gross Enrolment Ratio in percentage DISE": "NA",
      "Main Workers Cultivators - Persons": 66404,
      "Marginal Workers Household Industry worked for 0 - 3 moths during last year - Females": 549,
      "Upper Primary Net Enrolment Ratio in percentage DISE": "NA",
      "Primary New Government Schools since 2003 in percentage DISE": "NA",
      "Tier": "Rural",
      "Marginal Workers Household Industry - Females": 3326,
      "Primary Schools with electricity in percentage DISE": "NA",
      "Main Workers Other - Persons": 63119,
      "Marginal Workers Household Industry worked for 3 - 6 moths during last year - Females": 2777,
      "Main Workers Cultivators - Males": 62134,
      "Main Workers Household Industry - Persons": 4284,
      "Marginal Workers Cultivators worked for 0 - 3 moths during last year - Persons": 4832,
      "Scheduled Caste Males": 34760,
      "Marginal Workers - Persons": 60057,
      "Deliveries at home conducted by skilled health personnel in percentage DLHS-4": 34.4,
      "Villages with Sub-Health Centres within 3km in percentage DLHS-4": "Not applicable",
      "Upper Primary New Government Schools since 2003 in percentage DISE": "NA",
      "0-6 Age Group Males": 53336,
      "Primary Schools with drinking water facility in percentage DISE": "NA",
      "Non Workers - Persons": 410507,
      "Person Literates": 347869,
      "State": "ASSAM",
      "Total Female Population": 309208,
      "Marginal Workers worked for 0 - 3 moths during last year - Persons": 13270,
      "Marginal Workers Cultivators - Females": 10664,
      "Marginal Workers Other - Persons": 16960,
      "Sex Ratio": 967,
      "Scheduled Tribe Persons": 15267,
      "Marginal Workers Household Industry worked for 3 - 6 moths during last year - Males": 894,
      "Marginal Workers Agricultural Labourers - Females": 11555,
      "Mean age at marriage for girls DLHS-4": 21.4,
      "Households with solar energy as main source of lighting  Houselisting and Housing Census Data Tables- District Level , Census of India__4": 286,
      "District": "BONGAIGAON",
      "Households receiving treated tap water within premises in percentage Houselisting and Housing Census Data Tables- District Level , Census of India__1": 0.507102127,
      "Total Workers  Persons": 218487,
      "Households receiving treated tap water within premises  Houselisting and Housing Census Data Tables- District Level , Census of India__4": 1880,
      "Primary Female Teachers in percentage DISE": "NA",
      "Number of Households": 125095,
      "Main Workers Agricultural Labourers - Persons": 24623
    }
  ],
  "Urban": [
    {
      "Marginal Workers Agricultural Labourers - Persons": 404,
      "Marginal Workers Other - Females": 1227,
      "Marginal Workers Other worked for 0 - 3 moths during last year - Females": 92,
      "Upper Primary Schools with boys toilet in percentage DISE": "NA",
      "Total Population": 109810,
      "Households with electricity as main source of lighting in percentage Houselisting and Housing Census Data Tables- District Level , Census of India": 13.65321019,
      "Primary Girl's Enrolment in percentage DISE": "NA",
      "Marginal Workers worked for 3 - 6 moths during last year - Males": 2071,
      "Prevalence of Acute illness in percentage DLHS-4": "Not available",
      "Main Workers - Persons": 33241,
      "Main Workers Cultivators - Females": 26,
      "Marginal Workers Agricultural Labourers worked for 3 - 6 moths during last year - Females": 123,
      "Marginal Workers Other worked for 0 - 3 moths during last year - Males": 250,
      "Upper Primary Schools with drinking water facility in percentage DISE": "NA",
      "Primary Schools with girls toilet in percentage DISE": "NA",
      "Marginal Workers worked for 3 - 6 moths during last year - Persons": 3497,
      "Upper Primary Drop Out Rate in percentage DISE": "NA",
      "Prevalence of Anaemia in pregnant women aged 15-49years in percentage DLHS-4": "Not available",
      "Current use of any modern method of family planning in percentage DLHS-4": 30.6,
      "Marginal Workers Agricultural Labourers - Males": 196,
      "Upper Primary Female Teachers in percentage DISE": "NA",
      "Marginal Workers - Females": 1628,
      "Marginal Workers Other worked for 3 - 6 moths during last year - Persons": 2937,
      "Main Workers Agricultural Labourers - Females": 63,
      "Marginal Workers Cultivators worked for 3 - 6 moths during last year - Females": 39,
      "Households with no lighting  Houselisting and Housing Census Data Tables- District Level , Census of India__5": 68,
      "Prevalence of Severe Anaemia  in percentage DLHS-4": "Not available",
      "Total unmet need for family planning in percentage DLHS-4": 7.8,
      "Main Workers Other - Males": 27673,
      "Children who received full vaccination in percentage DLHS-4": "Not available",
      "Marginal Workers Household Industry - Persons": 286,
      "Primary Pupil-Teacher Ratio in percentage DISE": "NA",
      "Marginal Workers Agricultural Labourers worked for 3 - 6 moths during last year - Males": 144,
      "Scheduled Caste Females": 7571,
      "Marginal Workers Cultivators - Males": 64,
      "Marginal Workers - Males": 2450,
      "Marginal Workers worked for 0 - 3 moths during last year - Females": 202,
      "Households with main source of drinking water within premises in percentage Houselisting and Housing Census Data Tables- District Level , Census of India": 84.78671368,
      "Marginal Workers Household Industry worked for 3 - 6 moths during last year - Persons": 198,
      "Upper Primary Girl's Enrolment in percentage DISE": "NA",
      "Prevalence of Severe Anaemia in women aged 15-49years in percentage DLHS-4": "Not available",
      "Marginal Workers Agricultural Labourers worked for 0 - 3 moths during last year - Males": 52,
      "Households with electricity as main source of lighting  Houselisting and Housing Census Data Tables- District Level , Census of India__3": 20519,
      "Households with computer or laptop with internet connection in percentage": 7.48,
      "PHCs functioning on a 24x7hours basis in percentage DLHS-4": 0,
      "Non Workers - Males": 24972,
      "Total Households in District Houselisting and Housing Census Data Tables- District Level , Census of India": 25413,
      "Upper Primary Schools with girls toilet in percentage DISE": "NA",
      "Households with mobile phone in percentage": 64.61,
      "Households receiving untreated tap water within premises in percentage Houselisting and Housing Census Data Tables- District Level , Census of India__2": 1.487885337,
      "Marginal Workers Cultivators worked for 3 - 6 moths during last year - Males": 56,
      "Prevalence of Anaemia  in percentage DLHS-4": "Not available",
      "Prevalence of Chronic illness in percentage DLHS-4": "Not available",
      "Households with solar energy as main source of lighting in percentage Houselisting and Housing Census Data Tables- District Level , Census of India__1": 0.0253,
      "Marginal Workers Agricultural Labourers worked for 0 - 3 moths during last year - Females": 85,
      "Main Workers - Males": 28610,
      "Female": "NA",
      "Sno": 108,
      "Marginal Workers Other worked for 3 - 6 moths during last year - Females": 1135,
      "Marginal Workers Cultivators worked for 0 - 3 moths during last year - Females": 6,
      "Scheduled Tribe Males": 1803,
      "Male Illiterates": 10076,
      "Prevalence of Severe Anaemia in pregnant women aged 15-49years in percentage DLHS-4": "Not available",
      "0-6 Age Group Persons": 11141,
      "Upper Primary Student-Classroom Ratio in percentage DISE": "NA",
      "Currently married men married below 21years of age in percentage DLHS-4": 2.4,
      "Male Literates": 45956,
      "Households with no lighting in percentage Houselisting and Housing Census Data Tables- District Level , Census of India__2": 0.0452,
      "Primary Drop Out Rate in percentage DISE": "NA",
      "Marginal Workers Household Industry - Males": 138,
      "Female Illiterates": 13525,
      "Main Workers Other - Females": 4442,
      "Marginal Workers Cultivators - Persons": 109,
      "Upper Primary Gross Enrolment Ratio in percentage DISE": "NA",
      "Scheduled Caste Persons": 15324,
      "Marginal Workers Cultivators worked for 3 - 6 moths during last year - Persons": 95,
      "Households with landline phone in percentage": 5.03,
      "Total Households in District  Houselisting and Housing Census Data Tables- District Level , Census of India": 25413,
      "Upper Primary Pupil-Teacher Ratio in percentage DISE": "NA",
      "Primary Student-Classroom Ratio in percentage DISE": "NA",
      "Primary Schools with boys toilet in percentage DISE": "NA",
      "Mean number of children ever born to women aged 40-49years  DLHS-4": "Not available",
      "Households receiving untreated tap water within premises  Houselisting and Housing Census Data Tables- District Level , Census of India__5": 654,
      "Marginal Workers Household Industry worked for 0 - 3 moths during last year - Persons": 88,
      "Total Male Population": 56032,
      "Non Workers - Females": 47519,
      "Current use of family planning methods in percentage DLHS-4": 70.5,
      "Households with main source of drinking water within premises  Houselisting and Housing Census Data Tables- District Level , Census of India__3": 37268,
      "Main Workers Agricultural Labourers - Males": 228,
      "Marginal Workers Other worked for 0 - 3 moths during last year - Persons": 342,
      "Currently married women married below 18years of age in percentage DLHS-4": 3.6,
      "Person Illiterates": 23601,
      "Main Workers Household Industry - Females": 100,
      "Female Literates": 40253,
      "Marginal Workers Cultivators worked for 0 - 3 moths during last year - Males": 8,
      "Male": "NA",
      "Households with improved source of drinking water in percentage DLHS-4": "Not available",
      "Upper Primary Schools with electricity in percentage DISE": "NA",
      "Households with electricity in percentage DLHS-4": "Not available",
      "Villages with Primary Health Centre within 10km in percentage DLHS-4": 0,
      "Births to women aged 15-19years out of Total births in percentage DLHS-4": "Not available",
      "Prevalence of Anaemia in women aged 15-49years in percentage DLHS-4": "Not available",
      "Marginal Workers Agricultural Labourers worked for 3 - 6 moths during last year - Persons": 267,
      "Main Workers Household Industry - Males": 372,
      "Scheduled Tribe Females": 1765,
      "Marginal Workers worked for 0 - 3 moths during last year - Males": 379,
      "Marginal Workers Other worked for 3 - 6 moths during last year - Males": 1802,
      "Primary Net Enrolment Ratio in percentage DISE": "NA",
      "Total": "NA",
      "Mean age at marriage for boys DLHS-4": 30.7,
      "Number of District Hospitals  DLHS-4": 0,
      "0-6 Age Group Females": 5378,
      "Marginal Workers Agricultural Labourers worked for 0 - 3 moths during last year - Persons": 137,
      "Marginal Workers Household Industry worked for 0 - 3 moths during last year - Males": 69,
      "Total Workers  Females": 6259,
      "Marginal Workers worked for 3 - 6 moths during last year - Females": 1426,
      "Institutional Deliveries in percentage DLHS-4": 86.6,
      "Marginal Workers Other - Males": 2052,
      "Total Workers  Males": 31060,
      "Main Workers - Females": 4631,
      "Primary Gross Enrolment Ratio in percentage DISE": "NA",
      "Main Workers Cultivators - Persons": 363,
      "Marginal Workers Household Industry worked for 0 - 3 moths during last year - Females": 19,
      "Upper Primary Net Enrolment Ratio in percentage DISE": "NA",
      "Primary New Government Schools since 2003 in percentage DISE": "NA",
      "Tier": "Urban",
      "Marginal Workers Household Industry - Females": 148,
      "Primary Schools with electricity in percentage DISE": "NA",
      "Main Workers Other - Persons": 32115,
      "Marginal Workers Household Industry worked for 3 - 6 moths during last year - Females": 129,
      "Main Workers Cultivators - Males": 337,
      "Main Workers Household Industry - Persons": 472,
      "Marginal Workers Cultivators worked for 0 - 3 moths during last year - Persons": 14,
      "Scheduled Caste Males": 7753,
      "Marginal Workers - Persons": 4078,
      "Deliveries at home conducted by skilled health personnel in percentage DLHS-4": 54.1,
      "Villages with Sub-Health Centres within 3km in percentage DLHS-4": 0,
      "Upper Primary New Government Schools since 2003 in percentage DISE": "NA",
      "0-6 Age Group Males": 5763,
      "Primary Schools with drinking water facility in percentage DISE": "NA",
      "Non Workers - Persons": 72491,
      "Person Literates": 86209,
      "State": "ASSAM",
      "Total Female Population": 53778,
      "Marginal Workers worked for 0 - 3 moths during last year - Persons": 581,
      "Marginal Workers Cultivators - Females": 45,
      "Marginal Workers Other - Persons": 3279,
      "Sex Ratio": 960,
      "Scheduled Tribe Persons": 3568,
      "Marginal Workers Household Industry worked for 3 - 6 moths during last year - Males": 69,
      "Marginal Workers Agricultural Labourers - Females": 208,
      "Mean age at marriage for girls DLHS-4": 23.8,
      "Households with solar energy as main source of lighting  Houselisting and Housing Census Data Tables- District Level , Census of India__4": 38,
      "District": "BONGAIGAON",
      "Households receiving treated tap water within premises in percentage Houselisting and Housing Census Data Tables- District Level , Census of India__1": 4.907291548,
      "Total Workers  Persons": 37319,
      "Households receiving treated tap water within premises  Houselisting and Housing Census Data Tables- District Level , Census of India__4": 2157,
      "Primary Female Teachers in percentage DISE": "NA",
      "Number of Households": 24923,
      "Main Workers Agricultural Labourers - Persons": 291
    }
  ]
}