{
  "Total": [
    {
      "Marginal Workers Agricultural Labourers - Persons": 19328,
      "Marginal Workers Other - Females": 8705,
      "Marginal Workers Other worked for 0 - 3 moths during last year - Females": 1284,
      "Upper Primary Schools with boys toilet in percentage DISE": 35.1,
      "Total Population": 482162,
      "Households with electricity as main source of lighting in percentage Houselisting and Housing Census Data Tables- District Level , Census of India": 23.13616221,
      "Primary Girl's Enrolment in percentage DISE": 50.6,
      "Marginal Workers worked for 3 - 6 moths during last year - Males": 18907,
      "Prevalence of Acute illness in percentage DLHS-4": "Not available",
      "Main Workers - Persons": 139027,
      "Main Workers Cultivators - Females": 14088,
      "Marginal Workers Agricultural Labourers worked for 3 - 6 moths during last year - Females": 10852,
      "Marginal Workers Other worked for 0 - 3 moths during last year - Males": 1802,
      "Upper Primary Schools with drinking water facility in percentage DISE": 91.9,
      "Primary Schools with girls toilet in percentage DISE": 73.5,
      "Marginal Workers worked for 3 - 6 moths during last year - Persons": 46421,
      "Upper Primary Drop Out Rate in percentage DISE": 2.03,
      "Prevalence of Anaemia in pregnant women aged 15-49years in percentage DLHS-4": "Not available",
      "Current use of any modern method of family planning in percentage DLHS-4": "Not available",
      "Marginal Workers Agricultural Labourers - Males": 6687,
      "Upper Primary Female Teachers in percentage DISE": 19.8,
      "Marginal Workers - Females": 32306,
      "Marginal Workers Other worked for 3 - 6 moths during last year - Persons": 15468,
      "Main Workers Agricultural Labourers - Females": 5541,
      "Marginal Workers Cultivators worked for 3 - 6 moths during last year - Females": 7255,
      "Households with no lighting  Houselisting and Housing Census Data Tables- District Level , Census of India__5": 5042,
      "Prevalence of Severe Anaemia  in percentage DLHS-4": "Not available",
      "Total unmet need for family planning in percentage DLHS-4": "Not available",
      "Main Workers Other - Males": 41079,
      "Children who received full vaccination in percentage DLHS-4": "Not available",
      "Marginal Workers Household Industry - Persons": 3431,
      "Primary Pupil-Teacher Ratio in percentage DISE": 23,
      "Marginal Workers Agricultural Labourers worked for 3 - 6 moths during last year - Males": 5808,
      "Scheduled Caste Females": 17030,
      "Marginal Workers Cultivators - Males": 5295,
      "Marginal Workers - Males": 22561,
      "Marginal Workers worked for 0 - 3 moths during last year - Females": 4792,
      "Households with main source of drinking water within premises in percentage Houselisting and Housing Census Data Tables- District Level , Census of India": 58.73800864,
      "Marginal Workers Household Industry worked for 3 - 6 moths during last year - Persons": 2556,
      "Upper Primary Girl's Enrolment in percentage DISE": 50.9,
      "Prevalence of Severe Anaemia in women aged 15-49years in percentage DLHS-4": "Not available",
      "Marginal Workers Agricultural Labourers worked for 0 - 3 moths during last year - Males": 879,
      "Households with electricity as main source of lighting  Houselisting and Housing Census Data Tables- District Level , Census of India__3": 22502,
      "Households with computer or laptop with internet connection in percentage": 0.77,
      "PHCs functioning on a 24x7hours basis in percentage DLHS-4": "Not available",
      "Non Workers - Males": 116098,
      "Total Households in District Houselisting and Housing Census Data Tables- District Level , Census of India": 97259,
      "Upper Primary Schools with girls toilet in percentage DISE": 56.5,
      "Households with mobile phone in percentage": 40.95,
      "Households receiving untreated tap water within premises in percentage Houselisting and Housing Census Data Tables- District Level , Census of India__2": 0.175483377,
      "Marginal Workers Cultivators worked for 3 - 6 moths during last year - Males": 4482,
      "Prevalence of Anaemia  in percentage DLHS-4": "Not available",
      "Prevalence of Chronic illness in percentage DLHS-4": "Not available",
      "Households with solar energy as main source of lighting in percentage Houselisting and Housing Census Data Tables- District Level , Census of India__1": 17.95206613,
      "Marginal Workers Agricultural Labourers worked for 0 - 3 moths during last year - Females": 1789,
      "Main Workers - Males": 106201,
      "Female": 56.65,
      "Sno": 113,
      "Marginal Workers Other worked for 3 - 6 moths during last year - Females": 7421,
      "Marginal Workers Cultivators worked for 0 - 3 moths during last year - Females": 1004,
      "Scheduled Tribe Males": 89273,
      "Male Illiterates": 98991,
      "Prevalence of Severe Anaemia in pregnant women aged 15-49years in percentage DLHS-4": "Not available",
      "0-6 Age Group Persons": 73215,
      "Upper Primary Student-Classroom Ratio in percentage DISE": 37,
      "Currently married men married below 21years of age in percentage DLHS-4": "Not available",
      "Male Literates": 145869,
      "Households with no lighting in percentage Houselisting and Housing Census Data Tables- District Level , Census of India__2": 5.184096073,
      "Primary Drop Out Rate in percentage DISE": 7.6,
      "Marginal Workers Household Industry - Males": 730,
      "Female Illiterates": 123269,
      "Main Workers Other - Females": 11037,
      "Marginal Workers Cultivators - Persons": 13554,
      "Upper Primary Gross Enrolment Ratio in percentage DISE": 97.6,
      "Scheduled Caste Persons": 35135,
      "Marginal Workers Cultivators worked for 3 - 6 moths during last year - Persons": 11737,
      "Households with landline phone in percentage": 2.18,
      "Total Households in District  Houselisting and Housing Census Data Tables- District Level , Census of India": 97259,
      "Upper Primary Pupil-Teacher Ratio in percentage DISE": 22,
      "Primary Student-Classroom Ratio in percentage DISE": 28,
      "Primary Schools with boys toilet in percentage DISE": 42.5,
      "Mean number of children ever born to women aged 40-49years  DLHS-4": "Not available",
      "Households receiving untreated tap water within premises  Houselisting and Housing Census Data Tables- District Level , Census of India__5": 330,
      "Marginal Workers Household Industry worked for 0 - 3 moths during last year - Persons": 875,
      "Total Male Population": 244860,
      "Non Workers - Females": 172170,
      "Current use of family planning methods in percentage DLHS-4": "Not available",
      "Households with main source of drinking water within premises  Houselisting and Housing Census Data Tables- District Level , Census of India__3": 110458,
      "Main Workers Agricultural Labourers - Males": 10355,
      "Marginal Workers Other worked for 0 - 3 moths during last year - Persons": 3086,
      "Currently married women married below 18years of age in percentage DLHS-4": "Not available",
      "Person Illiterates": 222260,
      "Main Workers Household Industry - Females": 2160,
      "Female Literates": 114033,
      "Marginal Workers Cultivators worked for 0 - 3 moths during last year - Males": 813,
      "Male": 70.24,
      "Households with improved source of drinking water in percentage DLHS-4": "Not available",
      "Upper Primary Schools with electricity in percentage DISE": 26.7,
      "Households with electricity in percentage DLHS-4": "Not available",
      "Villages with Primary Health Centre within 10km in percentage DLHS-4": "Not available",
      "Births to women aged 15-19years out of Total births in percentage DLHS-4": "Not available",
      "Prevalence of Anaemia in women aged 15-49years in percentage DLHS-4": "Not available",
      "Marginal Workers Agricultural Labourers worked for 3 - 6 moths during last year - Persons": 16660,
      "Main Workers Household Industry - Males": 2081,
      "Scheduled Tribe Females": 89415,
      "Marginal Workers worked for 0 - 3 moths during last year - Males": 3654,
      "Marginal Workers Other worked for 3 - 6 moths during last year - Males": 8047,
      "Primary Net Enrolment Ratio in percentage DISE": 100,
      "Total": 63.55,
      "Mean age at marriage for boys DLHS-4": "Not available",
      "Number of District Hospitals  DLHS-4": "Not available",
      "0-6 Age Group Females": 36014,
      "Marginal Workers Agricultural Labourers worked for 0 - 3 moths during last year - Persons": 2668,
      "Marginal Workers Household Industry worked for 0 - 3 moths during last year - Males": 160,
      "Total Workers  Females": 65132,
      "Marginal Workers worked for 3 - 6 moths during last year - Females": 27514,
      "Institutional Deliveries in percentage DLHS-4": "Not available",
      "Marginal Workers Other - Males": 9849,
      "Total Workers  Males": 128762,
      "Main Workers - Females": 32826,
      "Primary Gross Enrolment Ratio in percentage DISE": 126.7,
      "Main Workers Cultivators - Persons": 66774,
      "Marginal Workers Household Industry worked for 0 - 3 moths during last year - Females": 715,
      "Upper Primary Net Enrolment Ratio in percentage DISE": 75.1,
      "Primary New Government Schools since 2003 in percentage DISE": 14.7,
      "Tier": "Total",
      "Marginal Workers Household Industry - Females": 2701,
      "Primary Schools with electricity in percentage DISE": 6.2,
      "Main Workers Other - Persons": 52116,
      "Marginal Workers Household Industry worked for 3 - 6 moths during last year - Females": 1986,
      "Main Workers Cultivators - Males": 52686,
      "Main Workers Household Industry - Persons": 4241,
      "Marginal Workers Cultivators worked for 0 - 3 moths during last year - Persons": 1817,
      "Scheduled Caste Males": 18105,
      "Marginal Workers - Persons": 54867,
      "Deliveries at home conducted by skilled health personnel in percentage DLHS-4": "Not available",
      "Villages with Sub-Health Centres within 3km in percentage DLHS-4": "Not available",
      "Upper Primary New Government Schools since 2003 in percentage DISE": 0.9,
      "0-6 Age Group Males": 37201,
      "Primary Schools with drinking water facility in percentage DISE": 85.3,
      "Non Workers - Persons": 288268,
      "Person Literates": 259902,
      "State": "ASSAM",
      "Total Female Population": 237302,
      "Marginal Workers worked for 0 - 3 moths during last year - Persons": 8446,
      "Marginal Workers Cultivators - Females": 8259,
      "Marginal Workers Other - Persons": 18554,
      "Sex Ratio": 969,
      "Scheduled Tribe Persons": 178688,
      "Marginal Workers Household Industry worked for 3 - 6 moths during last year - Males": 570,
      "Marginal Workers Agricultural Labourers - Females": 12641,
      "Mean age at marriage for girls DLHS-4": "Not available",
      "Households with solar energy as main source of lighting  Houselisting and Housing Census Data Tables- District Level , Census of India__4": 17460,
      "District": "CHIRANG",
      "Households receiving treated tap water within premises in percentage Houselisting and Housing Census Data Tables- District Level , Census of India__1": 1.043328441,
      "Total Workers  Persons": 193894,
      "Households receiving treated tap water within premises  Houselisting and Housing Census Data Tables- District Level , Census of India__4": 1962,
      "Primary Female Teachers in percentage DISE": 32.5,
      "Number of Households": 97395,
      "Main Workers Agricultural Labourers - Persons": 15896
    }
  ],
  "Rural": [
    {
      "Marginal Workers Agricultural Labourers - Persons": 19142,
      "Marginal Workers Other - Females": 8197,
      "Marginal Workers Other worked for 0 - 3 moths during last year - Females": 1242,
      "Upper Primary Schools with boys toilet in percentage DISE": "NA",
      "Total Population": 446825,
      "Households with electricity as main source of lighting in percentage Houselisting and Housing Census Data Tables- District Level , Census of India": 1.710965123,
      "Primary Girl's Enrolment in percentage DISE": "NA",
      "Marginal Workers worked for 3 - 6 moths during last year - Males": 17662,
      "Prevalence of Acute illness in percentage DLHS-4": "Not available",
      "Main Workers - Persons": 129239,
      "Main Workers Cultivators - Females": 14077,
      "Marginal Workers Agricultural Labourers worked for 3 - 6 moths during last year - Females": 10804,
      "Marginal Workers Other worked for 0 - 3 moths during last year - Males": 1637,
      "Upper Primary Schools with drinking water facility in percentage DISE": "NA",
      "Primary Schools with girls toilet in percentage DISE": "NA",
      "Marginal Workers worked for 3 - 6 moths during last year - Persons": 44593,
      "Upper Primary Drop Out Rate in percentage DISE": "NA",
      "Prevalence of Anaemia in pregnant women aged 15-49years in percentage DLHS-4": "Not available",
      "Current use of any modern method of family planning in percentage DLHS-4": "Not available",
      "Marginal Workers Agricultural Labourers - Males": 6571,
      "Upper Primary Female Teachers in percentage DISE": "NA",
      "Marginal Workers - Females": 31633,
      "Marginal Workers Other worked for 3 - 6 moths during last year - Persons": 13962,
      "Main Workers Agricultural Labourers - Females": 5526,
      "Marginal Workers Cultivators worked for 3 - 6 moths during last year - Females": 7242,
      "Households with no lighting  Houselisting and Housing Census Data Tables- District Level , Census of India__5": 46,
      "Prevalence of Severe Anaemia  in percentage DLHS-4": "Not available",
      "Total unmet need for family planning in percentage DLHS-4": "Not available",
      "Main Workers Other - Males": 32854,
      "Children who received full vaccination in percentage DLHS-4": "Not available",
      "Marginal Workers Household Industry - Persons": 3249,
      "Primary Pupil-Teacher Ratio in percentage DISE": "NA",
      "Marginal Workers Agricultural Labourers worked for 3 - 6 moths during last year - Males": 5706,
      "Scheduled Caste Females": 15150,
      "Marginal Workers Cultivators - Males": 5276,
      "Marginal Workers - Males": 21119,
      "Marginal Workers worked for 0 - 3 moths during last year - Females": 4702,
      "Households with main source of drinking water within premises in percentage Houselisting and Housing Census Data Tables- District Level , Census of India": 56.48401019,
      "Marginal Workers Household Industry worked for 3 - 6 moths during last year - Persons": 2415,
      "Upper Primary Girl's Enrolment in percentage DISE": "NA",
      "Prevalence of Severe Anaemia in women aged 15-49years in percentage DLHS-4": "Not available",
      "Marginal Workers Agricultural Labourers worked for 0 - 3 moths during last year - Males": 865,
      "Households with electricity as main source of lighting  Houselisting and Housing Census Data Tables- District Level , Census of India__3": 1534,
      "Households with computer or laptop with internet connection in percentage": 0.71,
      "PHCs functioning on a 24x7hours basis in percentage DLHS-4": "Not applicable",
      "Non Workers - Males": 108254,
      "Total Households in District Houselisting and Housing Census Data Tables- District Level , Census of India": 89657,
      "Upper Primary Schools with girls toilet in percentage DISE": "NA",
      "Households with mobile phone in percentage": 39.14,
      "Households receiving untreated tap water within premises in percentage Houselisting and Housing Census Data Tables- District Level , Census of India__2": 0.0969,
      "Marginal Workers Cultivators worked for 3 - 6 moths during last year - Males": 4464,
      "Prevalence of Anaemia  in percentage DLHS-4": "Not available",
      "Prevalence of Chronic illness in percentage DLHS-4": "Not available",
      "Households with solar energy as main source of lighting in percentage Houselisting and Housing Census Data Tables- District Level , Census of India__1": 1.659658476,
      "Marginal Workers Agricultural Labourers worked for 0 - 3 moths during last year - Females": 1767,
      "Main Workers - Males": 97522,
      "Female": "NA",
      "Sno": 112,
      "Marginal Workers Other worked for 3 - 6 moths during last year - Females": 6955,
      "Marginal Workers Cultivators worked for 0 - 3 moths during last year - Females": 1002,
      "Scheduled Tribe Males": 88167,
      "Male Illiterates": 94793,
      "Prevalence of Severe Anaemia in pregnant women aged 15-49years in percentage DLHS-4": "Not available",
      "0-6 Age Group Persons": 69176,
      "Upper Primary Student-Classroom Ratio in percentage DISE": "NA",
      "Currently married men married below 21years of age in percentage DLHS-4": "Not available",
      "Male Literates": 132102,
      "Households with no lighting in percentage Houselisting and Housing Census Data Tables- District Level , Census of India__2": 0.0513,
      "Primary Drop Out Rate in percentage DISE": "NA",
      "Marginal Workers Household Industry - Males": 628,
      "Female Illiterates": 117569,
      "Main Workers Other - Females": 10000,
      "Marginal Workers Cultivators - Persons": 13520,
      "Upper Primary Gross Enrolment Ratio in percentage DISE": "NA",
      "Scheduled Caste Persons": 31362,
      "Marginal Workers Cultivators worked for 3 - 6 moths during last year - Persons": 11706,
      "Households with landline phone in percentage": 2.13,
      "Total Households in District  Houselisting and Housing Census Data Tables- District Level , Census of India": 89657,
      "Upper Primary Pupil-Teacher Ratio in percentage DISE": "NA",
      "Primary Student-Classroom Ratio in percentage DISE": "NA",
      "Primary Schools with boys toilet in percentage DISE": "NA",
      "Mean number of children ever born to women aged 40-49years  DLHS-4": "Not available",
      "Households receiving untreated tap water within premises  Houselisting and Housing Census Data Tables- District Level , Census of India__5": 170,
      "Marginal Workers Household Industry worked for 0 - 3 moths during last year - Persons": 834,
      "Total Male Population": 226895,
      "Non Workers - Females": 156580,
      "Current use of family planning methods in percentage DLHS-4": "Not available",
      "Households with main source of drinking water within premises  Houselisting and Housing Census Data Tables- District Level , Census of India__3": 99069,
      "Main Workers Agricultural Labourers - Males": 10289,
      "Marginal Workers Other worked for 0 - 3 moths during last year - Persons": 2879,
      "Currently married women married below 18years of age in percentage DLHS-4": "Not available",
      "Person Illiterates": 212362,
      "Main Workers Household Industry - Females": 2114,
      "Female Literates": 102361,
      "Marginal Workers Cultivators worked for 0 - 3 moths during last year - Males": 812,
      "Male": "NA",
      "Households with improved source of drinking water in percentage DLHS-4": "Not available",
      "Upper Primary Schools with electricity in percentage DISE": "NA",
      "Households with electricity in percentage DLHS-4": "Not available",
      "Villages with Primary Health Centre within 10km in percentage DLHS-4": "Not applicable",
      "Births to women aged 15-19years out of Total births in percentage DLHS-4": "Not available",
      "Prevalence of Anaemia in women aged 15-49years in percentage DLHS-4": "Not available",
      "Marginal Workers Agricultural Labourers worked for 3 - 6 moths during last year - Persons": 16510,
      "Main Workers Household Industry - Males": 1782,
      "Scheduled Tribe Females": 88256,
      "Marginal Workers worked for 0 - 3 moths during last year - Males": 3457,
      "Marginal Workers Other worked for 3 - 6 moths during last year - Males": 7007,
      "Primary Net Enrolment Ratio in percentage DISE": "NA",
      "Total": "NA",
      "Mean age at marriage for boys DLHS-4": "Not available",
      "Number of District Hospitals  DLHS-4": "Not applicable",
      "0-6 Age Group Females": 34035,
      "Marginal Workers Agricultural Labourers worked for 0 - 3 moths during last year - Persons": 2632,
      "Marginal Workers Household Industry worked for 0 - 3 moths during last year - Males": 143,
      "Total Workers  Females": 63350,
      "Marginal Workers worked for 3 - 6 moths during last year - Females": 26931,
      "Institutional Deliveries in percentage DLHS-4": "Not available",
      "Marginal Workers Other - Males": 8644,
      "Total Workers  Males": 118641,
      "Main Workers - Females": 31717,
      "Primary Gross Enrolment Ratio in percentage DISE": "NA",
      "Main Workers Cultivators - Persons": 66674,
      "Marginal Workers Household Industry worked for 0 - 3 moths during last year - Females": 691,
      "Upper Primary Net Enrolment Ratio in percentage DISE": "NA",
      "Primary New Government Schools since 2003 in percentage DISE": "NA",
      "Tier": "Rural",
      "Marginal Workers Household Industry - Females": 2621,
      "Primary Schools with electricity in percentage DISE": "NA",
      "Main Workers Other - Persons": 42854,
      "Marginal Workers Household Industry worked for 3 - 6 moths during last year - Females": 1930,
      "Main Workers Cultivators - Males": 52597,
      "Main Workers Household Industry - Persons": 3896,
      "Marginal Workers Cultivators worked for 0 - 3 moths during last year - Persons": 1814,
      "Scheduled Caste Males": 16212,
      "Marginal Workers - Persons": 52752,
      "Deliveries at home conducted by skilled health personnel in percentage DLHS-4": "Not available",
      "Villages with Sub-Health Centres within 3km in percentage DLHS-4": "Not applicable",
      "Upper Primary New Government Schools since 2003 in percentage DISE": "NA",
      "0-6 Age Group Males": 35141,
      "Primary Schools with drinking water facility in percentage DISE": "NA",
      "Non Workers - Persons": 264834,
      "Person Literates": 234463,
      "State": "ASSAM",
      "Total Female Population": 219930,
      "Marginal Workers worked for 0 - 3 moths during last year - Persons": 8159,
      "Marginal Workers Cultivators - Females": 8244,
      "Marginal Workers Other - Persons": 16841,
      "Sex Ratio": 969,
      "Scheduled Tribe Persons": 176423,
      "Marginal Workers Household Industry worked for 3 - 6 moths during last year - Males": 485,
      "Marginal Workers Agricultural Labourers - Females": 12571,
      "Mean age at marriage for girls DLHS-4": "Not available",
      "Households with solar energy as main source of lighting  Houselisting and Housing Census Data Tables- District Level , Census of India__4": 1488,
      "District": "CHIRANG",
      "Households receiving treated tap water within premises in percentage Houselisting and Housing Census Data Tables- District Level , Census of India__1": 0.702992708,
      "Total Workers  Persons": 181991,
      "Households receiving treated tap water within premises  Houselisting and Housing Census Data Tables- District Level , Census of India__4": 1233,
      "Primary Female Teachers in percentage DISE": "NA",
      "Number of Households": 89823,
      "Main Workers Agricultural Labourers - Persons": 15815
    }
  ],
  "Urban": [
    {
      "Marginal Workers Agricultural Labourers - Persons": 186,
      "Marginal Workers Other - Females": 508,
      "Marginal Workers Other worked for 0 - 3 moths during last year - Females": 42,
      "Upper Primary Schools with boys toilet in percentage DISE": "NA",
      "Total Population": 35337,
      "Households with electricity as main source of lighting in percentage Houselisting and Housing Census Data Tables- District Level , Census of India": 13.12812418,
      "Primary Girl's Enrolment in percentage DISE": "NA",
      "Marginal Workers worked for 3 - 6 moths during last year - Males": 1245,
      "Prevalence of Acute illness in percentage DLHS-4": "Not available",
      "Main Workers - Persons": 9788,
      "Main Workers Cultivators - Females": 11,
      "Marginal Workers Agricultural Labourers worked for 3 - 6 moths during last year - Females": 48,
      "Marginal Workers Other worked for 0 - 3 moths during last year - Males": 165,
      "Upper Primary Schools with drinking water facility in percentage DISE": "NA",
      "Primary Schools with girls toilet in percentage DISE": "NA",
      "Marginal Workers worked for 3 - 6 moths during last year - Persons": 1828,
      "Upper Primary Drop Out Rate in percentage DISE": "NA",
      "Prevalence of Anaemia in pregnant women aged 15-49years in percentage DLHS-4": "Not available",
      "Current use of any modern method of family planning in percentage DLHS-4": "Not available",
      "Marginal Workers Agricultural Labourers - Males": 116,
      "Upper Primary Female Teachers in percentage DISE": "NA",
      "Marginal Workers - Females": 673,
      "Marginal Workers Other worked for 3 - 6 moths during last year - Persons": 1506,
      "Main Workers Agricultural Labourers - Females": 15,
      "Marginal Workers Cultivators worked for 3 - 6 moths during last year - Females": 13,
      "Households with no lighting  Houselisting and Housing Census Data Tables- District Level , Census of India__5": 37,
      "Prevalence of Severe Anaemia  in percentage DLHS-4": "Not available",
      "Total unmet need for family planning in percentage DLHS-4": "Not available",
      "Main Workers Other - Males": 8225,
      "Children who received full vaccination in percentage DLHS-4": "Not available",
      "Marginal Workers Household Industry - Persons": 182,
      "Primary Pupil-Teacher Ratio in percentage DISE": "NA",
      "Marginal Workers Agricultural Labourers worked for 3 - 6 moths during last year - Males": 102,
      "Scheduled Caste Females": 1880,
      "Marginal Workers Cultivators - Males": 19,
      "Marginal Workers - Males": 1442,
      "Marginal Workers worked for 0 - 3 moths during last year - Females": 90,
      "Households with main source of drinking water within premises in percentage Houselisting and Housing Census Data Tables- District Level , Census of India": 89.96761198,
      "Marginal Workers Household Industry worked for 3 - 6 moths during last year - Persons": 141,
      "Upper Primary Girl's Enrolment in percentage DISE": "NA",
      "Prevalence of Severe Anaemia in women aged 15-49years in percentage DLHS-4": "Not available",
      "Marginal Workers Agricultural Labourers worked for 0 - 3 moths during last year - Males": 14,
      "Households with electricity as main source of lighting  Houselisting and Housing Census Data Tables- District Level , Census of India__3": 998,
      "Households with computer or laptop with internet connection in percentage": 1.47,
      "PHCs functioning on a 24x7hours basis in percentage DLHS-4": 0,
      "Non Workers - Males": 7844,
      "Total Households in District Houselisting and Housing Census Data Tables- District Level , Census of India": 7602,
      "Upper Primary Schools with girls toilet in percentage DISE": "NA",
      "Households with mobile phone in percentage": 62.4,
      "Households receiving untreated tap water within premises in percentage Houselisting and Housing Census Data Tables- District Level , Census of India__2": 1.263922901,
      "Marginal Workers Cultivators worked for 3 - 6 moths during last year - Males": 18,
      "Prevalence of Anaemia  in percentage DLHS-4": "Not available",
      "Prevalence of Chronic illness in percentage DLHS-4": "Not available",
      "Households with solar energy as main source of lighting in percentage Houselisting and Housing Census Data Tables- District Level , Census of India__1": 12.64141016,
      "Marginal Workers Agricultural Labourers worked for 0 - 3 moths during last year - Females": 22,
      "Main Workers - Males": 8679,
      "Female": "NA",
      "Sno": 114,
      "Marginal Workers Other worked for 3 - 6 moths during last year - Females": 466,
      "Marginal Workers Cultivators worked for 0 - 3 moths during last year - Females": 2,
      "Scheduled Tribe Males": 1106,
      "Male Illiterates": 4198,
      "Prevalence of Severe Anaemia in pregnant women aged 15-49years in percentage DLHS-4": "Not available",
      "0-6 Age Group Persons": 4039,
      "Upper Primary Student-Classroom Ratio in percentage DISE": "NA",
      "Currently married men married below 21years of age in percentage DLHS-4": "Not available",
      "Male Literates": 13767,
      "Households with no lighting in percentage Houselisting and Housing Census Data Tables- District Level , Census of India__2": 0.486714023,
      "Primary Drop Out Rate in percentage DISE": "NA",
      "Marginal Workers Household Industry - Males": 102,
      "Female Illiterates": 5700,
      "Main Workers Other - Females": 1037,
      "Marginal Workers Cultivators - Persons": 34,
      "Upper Primary Gross Enrolment Ratio in percentage DISE": "NA",
      "Scheduled Caste Persons": 3773,
      "Marginal Workers Cultivators worked for 3 - 6 moths during last year - Persons": 31,
      "Households with landline phone in percentage": 2.78,
      "Total Households in District  Houselisting and Housing Census Data Tables- District Level , Census of India": 7602,
      "Upper Primary Pupil-Teacher Ratio in percentage DISE": "NA",
      "Primary Student-Classroom Ratio in percentage DISE": "NA",
      "Primary Schools with boys toilet in percentage DISE": "NA",
      "Mean number of children ever born to women aged 40-49years  DLHS-4": "Not available",
      "Households receiving untreated tap water within premises  Houselisting and Housing Census Data Tables- District Level , Census of India__5": 160,
      "Marginal Workers Household Industry worked for 0 - 3 moths during last year - Persons": 41,
      "Total Male Population": 17965,
      "Non Workers - Females": 15590,
      "Current use of family planning methods in percentage DLHS-4": "Not available",
      "Households with main source of drinking water within premises  Houselisting and Housing Census Data Tables- District Level , Census of India__3": 11389,
      "Main Workers Agricultural Labourers - Males": 66,
      "Marginal Workers Other worked for 0 - 3 moths during last year - Persons": 207,
      "Currently married women married below 18years of age in percentage DLHS-4": "Not available",
      "Person Illiterates": 9898,
      "Main Workers Household Industry - Females": 46,
      "Female Literates": 11672,
      "Marginal Workers Cultivators worked for 0 - 3 moths during last year - Males": 1,
      "Male": "NA",
      "Households with improved source of drinking water in percentage DLHS-4": "Not available",
      "Upper Primary Schools with electricity in percentage DISE": "NA",
      "Households with electricity in percentage DLHS-4": "Not available",
      "Villages with Primary Health Centre within 10km in percentage DLHS-4": 0,
      "Births to women aged 15-19years out of Total births in percentage DLHS-4": "Not available",
      "Prevalence of Anaemia in women aged 15-49years in percentage DLHS-4": "Not available",
      "Marginal Workers Agricultural Labourers worked for 3 - 6 moths during last year - Persons": 150,
      "Main Workers Household Industry - Males": 299,
      "Scheduled Tribe Females": 1159,
      "Marginal Workers worked for 0 - 3 moths during last year - Males": 197,
      "Marginal Workers Other worked for 3 - 6 moths during last year - Males": 1040,
      "Primary Net Enrolment Ratio in percentage DISE": "NA",
      "Total": "NA",
      "Mean age at marriage for boys DLHS-4": "Not available",
      "Number of District Hospitals  DLHS-4": 0,
      "0-6 Age Group Females": 1979,
      "Marginal Workers Agricultural Labourers worked for 0 - 3 moths during last year - Persons": 36,
      "Marginal Workers Household Industry worked for 0 - 3 moths during last year - Males": 17,
      "Total Workers  Females": 1782,
      "Marginal Workers worked for 3 - 6 moths during last year - Females": 583,
      "Institutional Deliveries in percentage DLHS-4": "Not available",
      "Marginal Workers Other - Males": 1205,
      "Total Workers  Males": 10121,
      "Main Workers - Females": 1109,
      "Primary Gross Enrolment Ratio in percentage DISE": "NA",
      "Main Workers Cultivators - Persons": 100,
      "Marginal Workers Household Industry worked for 0 - 3 moths during last year - Females": 24,
      "Upper Primary Net Enrolment Ratio in percentage DISE": "NA",
      "Primary New Government Schools since 2003 in percentage DISE": "NA",
      "Tier": "Urban",
      "Marginal Workers Household Industry - Females": 80,
      "Primary Schools with electricity in percentage DISE": "NA",
      "Main Workers Other - Persons": 9262,
      "Marginal Workers Household Industry worked for 3 - 6 moths during last year - Females": 56,
      "Main Workers Cultivators - Males": 89,
      "Main Workers Household Industry - Persons": 345,
      "Marginal Workers Cultivators worked for 0 - 3 moths during last year - Persons": 3,
      "Scheduled Caste Males": 1893,
      "Marginal Workers - Persons": 2115,
      "Deliveries at home conducted by skilled health personnel in percentage DLHS-4": "Not available",
      "Villages with Sub-Health Centres within 3km in percentage DLHS-4": 0,
      "Upper Primary New Government Schools since 2003 in percentage DISE": "NA",
      "0-6 Age Group Males": 2060,
      "Primary Schools with drinking water facility in percentage DISE": "NA",
      "Non Workers - Persons": 23434,
      "Person Literates": 25439,
      "State": "ASSAM",
      "Total Female Population": 17372,
      "Marginal Workers worked for 0 - 3 moths during last year - Persons": 287,
      "Marginal Workers Cultivators - Females": 15,
      "Marginal Workers Other - Persons": 1713,
      "Sex Ratio": 967,
      "Scheduled Tribe Persons": 2265,
      "Marginal Workers Household Industry worked for 3 - 6 moths during last year - Males": 85,
      "Marginal Workers Agricultural Labourers - Females": 70,
      "Mean age at marriage for girls DLHS-4": "Not available",
      "Households with solar energy as main source of lighting  Houselisting and Housing Census Data Tables- District Level , Census of India__4": 961,
      "District": "CHIRANG",
      "Households receiving treated tap water within premises in percentage Houselisting and Housing Census Data Tables- District Level , Census of India__1": 5.758748716,
      "Total Workers  Persons": 11903,
      "Households receiving treated tap water within premises  Houselisting and Housing Census Data Tables- District Level , Census of India__4": 729,
      "Primary Female Teachers in percentage DISE": "NA",
      "Number of Households": 7572,
      "Main Workers Agricultural Labourers - Persons": 81
    }
  ]
}