{
  "Total": [
    {
      "Marginal Workers Agricultural Labourers - Persons": 39417,
      "Marginal Workers Other - Females": 32734,
      "Marginal Workers Other worked for 0 - 3 moths during last year - Females": 4740,
      "Upper Primary Schools with boys toilet in percentage DISE": 75.5,
      "Total Population": 1326335,
      "Households with electricity as main source of lighting in percentage Houselisting and Housing Census Data Tables- District Level , Census of India": 50.07858841,
      "Primary Girl's Enrolment in percentage DISE": 50.1,
      "Marginal Workers worked for 3 - 6 moths during last year - Males": 67824,
      "Prevalence of Acute illness in percentage DLHS-4": "Not available",
      "Main Workers - Persons": 391597,
      "Main Workers Cultivators - Females": 19783,
      "Marginal Workers Agricultural Labourers worked for 3 - 6 moths during last year - Females": 17964,
      "Marginal Workers Other worked for 0 - 3 moths during last year - Males": 6546,
      "Upper Primary Schools with drinking water facility in percentage DISE": 94.8,
      "Primary Schools with girls toilet in percentage DISE": 87.3,
      "Marginal Workers worked for 3 - 6 moths during last year - Persons": 137935,
      "Upper Primary Drop Out Rate in percentage DISE": 0.66,
      "Prevalence of Anaemia in pregnant women aged 15-49years in percentage DLHS-4": "Not available",
      "Current use of any modern method of family planning in percentage DLHS-4": 43.9,
      "Marginal Workers Agricultural Labourers - Males": 17303,
      "Upper Primary Female Teachers in percentage DISE": 38.2,
      "Marginal Workers - Females": 85902,
      "Marginal Workers Other worked for 3 - 6 moths during last year - Persons": 61311,
      "Main Workers Agricultural Labourers - Females": 8352,
      "Marginal Workers Cultivators worked for 3 - 6 moths during last year - Females": 20631,
      "Households with no lighting  Houselisting and Housing Census Data Tables- District Level , Census of India__5": 715,
      "Prevalence of Severe Anaemia  in percentage DLHS-4": "Not available",
      "Total unmet need for family planning in percentage DLHS-4": 15.2,
      "Main Workers Other - Males": 200534,
      "Children who received full vaccination in percentage DLHS-4": "Not available",
      "Marginal Workers Household Industry - Persons": 7834,
      "Primary Pupil-Teacher Ratio in percentage DISE": 28,
      "Marginal Workers Agricultural Labourers worked for 3 - 6 moths during last year - Males": 13973,
      "Scheduled Caste Females": 28359,
      "Marginal Workers Cultivators - Males": 22963,
      "Marginal Workers - Males": 83058,
      "Marginal Workers worked for 0 - 3 moths during last year - Females": 15791,
      "Households with main source of drinking water within premises in percentage Houselisting and Housing Census Data Tables- District Level , Census of India": 67.58530232,
      "Marginal Workers Household Industry worked for 3 - 6 moths during last year - Persons": 5603,
      "Upper Primary Girl's Enrolment in percentage DISE": 50,
      "Prevalence of Severe Anaemia in women aged 15-49years in percentage DLHS-4": "Not available",
      "Marginal Workers Agricultural Labourers worked for 0 - 3 moths during last year - Males": 3330,
      "Households with electricity as main source of lighting  Houselisting and Housing Census Data Tables- District Level , Census of India__3": 136685,
      "Households with computer or laptop with internet connection in percentage": 3.23,
      "PHCs functioning on a 24x7hours basis in percentage DLHS-4": "Not available",
      "Non Workers - Males": 308421,
      "Total Households in District Houselisting and Housing Census Data Tables- District Level , Census of India": 272941,
      "Upper Primary Schools with girls toilet in percentage DISE": 81.2,
      "Households with mobile phone in percentage": 44.7,
      "Households receiving untreated tap water within premises in percentage Houselisting and Housing Census Data Tables- District Level , Census of India__2": 1.277565481,
      "Marginal Workers Cultivators worked for 3 - 6 moths during last year - Males": 18453,
      "Prevalence of Anaemia  in percentage DLHS-4": "Not available",
      "Prevalence of Chronic illness in percentage DLHS-4": "Not available",
      "Households with solar energy as main source of lighting in percentage Houselisting and Housing Census Data Tables- District Level , Census of India__1": 0.200043233,
      "Marginal Workers Agricultural Labourers worked for 0 - 3 moths during last year - Females": 4150,
      "Main Workers - Males": 284955,
      "Female": 68.99,
      "Sno": 125,
      "Marginal Workers Other worked for 3 - 6 moths during last year - Females": 27994,
      "Marginal Workers Cultivators worked for 0 - 3 moths during last year - Females": 5518,
      "Scheduled Tribe Males": 51835,
      "Male Illiterates": 185073,
      "Prevalence of Severe Anaemia in pregnant women aged 15-49years in percentage DLHS-4": "Not available",
      "0-6 Age Group Persons": 163210,
      "Upper Primary Student-Classroom Ratio in percentage DISE": 32,
      "Currently married men married below 21years of age in percentage DLHS-4": 7.8,
      "Male Literates": 491361,
      "Households with no lighting in percentage Houselisting and Housing Census Data Tables- District Level , Census of India__2": 0.261961376,
      "Primary Drop Out Rate in percentage DISE": 4.5,
      "Marginal Workers Household Industry - Males": 2929,
      "Female Illiterates": 256731,
      "Main Workers Other - Females": 76661,
      "Marginal Workers Cultivators - Persons": 49112,
      "Upper Primary Gross Enrolment Ratio in percentage DISE": 82,
      "Scheduled Caste Persons": 58876,
      "Marginal Workers Cultivators worked for 3 - 6 moths during last year - Persons": 39084,
      "Households with landline phone in percentage": 2.93,
      "Total Households in District  Houselisting and Housing Census Data Tables- District Level , Census of India": 272941,
      "Upper Primary Pupil-Teacher Ratio in percentage DISE": 20,
      "Primary Student-Classroom Ratio in percentage DISE": 24,
      "Primary Schools with boys toilet in percentage DISE": 73.2,
      "Mean number of children ever born to women aged 40-49years  DLHS-4": "Not available",
      "Households receiving untreated tap water within premises  Houselisting and Housing Census Data Tables- District Level , Census of India__5": 3487,
      "Marginal Workers Household Industry worked for 0 - 3 moths during last year - Persons": 2231,
      "Total Male Population": 676434,
      "Non Workers - Females": 457357,
      "Current use of family planning methods in percentage DLHS-4": 65.1,
      "Households with main source of drinking water within premises  Houselisting and Housing Census Data Tables- District Level , Census of India__3": 184468,
      "Main Workers Agricultural Labourers - Males": 13440,
      "Marginal Workers Other worked for 0 - 3 moths during last year - Persons": 11286,
      "Currently married women married below 18years of age in percentage DLHS-4": 4.9,
      "Person Illiterates": 441804,
      "Main Workers Household Industry - Females": 1846,
      "Female Literates": 393170,
      "Marginal Workers Cultivators worked for 0 - 3 moths during last year - Males": 4510,
      "Male": 82.82,
      "Households with improved source of drinking water in percentage DLHS-4": "Not available",
      "Upper Primary Schools with electricity in percentage DISE": 29.4,
      "Households with electricity in percentage DLHS-4": "Not available",
      "Villages with Primary Health Centre within 10km in percentage DLHS-4": "Not available",
      "Births to women aged 15-19years out of Total births in percentage DLHS-4": "Not available",
      "Prevalence of Anaemia in women aged 15-49years in percentage DLHS-4": "Not available",
      "Marginal Workers Agricultural Labourers worked for 3 - 6 moths during last year - Persons": 31937,
      "Main Workers Household Industry - Males": 4682,
      "Scheduled Tribe Females": 51036,
      "Marginal Workers worked for 0 - 3 moths during last year - Males": 15234,
      "Marginal Workers Other worked for 3 - 6 moths during last year - Males": 33317,
      "Primary Net Enrolment Ratio in percentage DISE": 96.4,
      "Total": 76.05,
      "Mean age at marriage for boys DLHS-4": 26.7,
      "Number of District Hospitals  DLHS-4": "Not available",
      "0-6 Age Group Females": 80042,
      "Marginal Workers Agricultural Labourers worked for 0 - 3 moths during last year - Persons": 7480,
      "Marginal Workers Household Industry worked for 0 - 3 moths during last year - Males": 848,
      "Total Workers  Females": 192544,
      "Marginal Workers worked for 3 - 6 moths during last year - Females": 70111,
      "Institutional Deliveries in percentage DLHS-4": 81.2,
      "Marginal Workers Other - Males": 39863,
      "Total Workers  Males": 368013,
      "Main Workers - Females": 106642,
      "Primary Gross Enrolment Ratio in percentage DISE": 102.6,
      "Main Workers Cultivators - Persons": 86082,
      "Marginal Workers Household Industry worked for 0 - 3 moths during last year - Females": 1383,
      "Upper Primary Net Enrolment Ratio in percentage DISE": 68.6,
      "Primary New Government Schools since 2003 in percentage DISE": 7.7,
      "Tier": "Total",
      "Marginal Workers Household Industry - Females": 4905,
      "Primary Schools with electricity in percentage DISE": 13.5,
      "Main Workers Other - Persons": 277195,
      "Marginal Workers Household Industry worked for 3 - 6 moths during last year - Females": 3522,
      "Main Workers Cultivators - Males": 66299,
      "Main Workers Household Industry - Persons": 6528,
      "Marginal Workers Cultivators worked for 0 - 3 moths during last year - Persons": 10028,
      "Scheduled Caste Males": 30517,
      "Marginal Workers - Persons": 168960,
      "Deliveries at home conducted by skilled health personnel in percentage DLHS-4": 36.4,
      "Villages with Sub-Health Centres within 3km in percentage DLHS-4": "Not available",
      "Upper Primary New Government Schools since 2003 in percentage DISE": 0.9,
      "0-6 Age Group Males": 83168,
      "Primary Schools with drinking water facility in percentage DISE": 96.6,
      "Non Workers - Persons": 765778,
      "Person Literates": 884531,
      "State": "ASSAM",
      "Total Female Population": 649901,
      "Marginal Workers worked for 0 - 3 moths during last year - Persons": 31025,
      "Marginal Workers Cultivators - Females": 26149,
      "Marginal Workers Other - Persons": 72597,
      "Sex Ratio": 961,
      "Scheduled Tribe Persons": 102871,
      "Marginal Workers Household Industry worked for 3 - 6 moths during last year - Males": 2081,
      "Marginal Workers Agricultural Labourers - Females": 22114,
      "Mean age at marriage for girls DLHS-4": 22.6,
      "Households with solar energy as main source of lighting  Houselisting and Housing Census Data Tables- District Level , Census of India__4": 546,
      "District": "DIBRUGARH",
      "Households receiving treated tap water within premises in percentage Houselisting and Housing Census Data Tables- District Level , Census of India__1": 8.003561209,
      "Total Workers  Persons": 560557,
      "Households receiving treated tap water within premises  Houselisting and Housing Census Data Tables- District Level , Census of India__4": 21845,
      "Primary Female Teachers in percentage DISE": 45.3,
      "Number of Households": 276867,
      "Main Workers Agricultural Labourers - Persons": 21792
    }
  ],
  "Rural": [
    {
      "Marginal Workers Agricultural Labourers - Persons": 39047,
      "Marginal Workers Other - Females": 28822,
      "Marginal Workers Other worked for 0 - 3 moths during last year - Females": 4410,
      "Upper Primary Schools with boys toilet in percentage DISE": "NA",
      "Total Population": 1082605,
      "Households with electricity as main source of lighting in percentage Houselisting and Housing Census Data Tables- District Level , Census of India": 39.76614618,
      "Primary Girl's Enrolment in percentage DISE": "NA",
      "Marginal Workers worked for 3 - 6 moths during last year - Males": 61465,
      "Prevalence of Acute illness in percentage DLHS-4": "Not available",
      "Main Workers - Persons": 313762,
      "Main Workers Cultivators - Females": 19621,
      "Marginal Workers Agricultural Labourers worked for 3 - 6 moths during last year - Females": 17845,
      "Marginal Workers Other worked for 0 - 3 moths during last year - Males": 5467,
      "Upper Primary Schools with drinking water facility in percentage DISE": "NA",
      "Primary Schools with girls toilet in percentage DISE": "NA",
      "Marginal Workers worked for 3 - 6 moths during last year - Persons": 127360,
      "Upper Primary Drop Out Rate in percentage DISE": "NA",
      "Prevalence of Anaemia in pregnant women aged 15-49years in percentage DLHS-4": "Not available",
      "Current use of any modern method of family planning in percentage DLHS-4": 44.3,
      "Marginal Workers Agricultural Labourers - Males": 17063,
      "Upper Primary Female Teachers in percentage DISE": "NA",
      "Marginal Workers - Females": 81262,
      "Marginal Workers Other worked for 3 - 6 moths during last year - Persons": 51990,
      "Main Workers Agricultural Labourers - Females": 8081,
      "Marginal Workers Cultivators worked for 3 - 6 moths during last year - Females": 20538,
      "Households with no lighting  Houselisting and Housing Census Data Tables- District Level , Census of India__5": 542,
      "Prevalence of Severe Anaemia  in percentage DLHS-4": "Not available",
      "Total unmet need for family planning in percentage DLHS-4": 15.4,
      "Main Workers Other - Males": 137352,
      "Children who received full vaccination in percentage DLHS-4": "Not available",
      "Marginal Workers Household Industry - Persons": 6922,
      "Primary Pupil-Teacher Ratio in percentage DISE": "NA",
      "Marginal Workers Agricultural Labourers worked for 3 - 6 moths during last year - Males": 13760,
      "Scheduled Caste Females": 19916,
      "Marginal Workers Cultivators - Males": 22844,
      "Marginal Workers - Males": 75472,
      "Marginal Workers worked for 0 - 3 moths during last year - Females": 15367,
      "Households with main source of drinking water within premises in percentage Houselisting and Housing Census Data Tables- District Level , Census of India": 62.54994135,
      "Marginal Workers Household Industry worked for 3 - 6 moths during last year - Persons": 4878,
      "Upper Primary Girl's Enrolment in percentage DISE": "NA",
      "Prevalence of Severe Anaemia in women aged 15-49years in percentage DLHS-4": "Not available",
      "Marginal Workers Agricultural Labourers worked for 0 - 3 moths during last year - Males": 3303,
      "Households with electricity as main source of lighting  Houselisting and Housing Census Data Tables- District Level , Census of India__3": 86792,
      "Households with computer or laptop with internet connection in percentage": 1.31,
      "PHCs functioning on a 24x7hours basis in percentage DLHS-4": "Not applicable",
      "Non Workers - Males": 254683,
      "Total Households in District Houselisting and Housing Census Data Tables- District Level , Census of India": 218256,
      "Upper Primary Schools with girls toilet in percentage DISE": "NA",
      "Households with mobile phone in percentage": 39.02,
      "Households receiving untreated tap water within premises in percentage Houselisting and Housing Census Data Tables- District Level , Census of India__2": 0.586925445,
      "Marginal Workers Cultivators worked for 3 - 6 moths during last year - Males": 18349,
      "Prevalence of Anaemia  in percentage DLHS-4": "Not available",
      "Prevalence of Chronic illness in percentage DLHS-4": "Not available",
      "Households with solar energy as main source of lighting in percentage Houselisting and Housing Census Data Tables- District Level , Census of India__1": 0.224048823,
      "Marginal Workers Agricultural Labourers worked for 0 - 3 moths during last year - Females": 4139,
      "Main Workers - Males": 220144,
      "Female": "NA",
      "Sno": 124,
      "Marginal Workers Other worked for 3 - 6 moths during last year - Females": 24412,
      "Marginal Workers Cultivators worked for 0 - 3 moths during last year - Females": 5516,
      "Scheduled Tribe Males": 46689,
      "Male Illiterates": 165177,
      "Prevalence of Severe Anaemia in pregnant women aged 15-49years in percentage DLHS-4": "Not available",
      "0-6 Age Group Persons": 140283,
      "Upper Primary Student-Classroom Ratio in percentage DISE": "NA",
      "Currently married men married below 21years of age in percentage DLHS-4": 9,
      "Male Literates": 385122,
      "Households with no lighting in percentage Houselisting and Housing Census Data Tables- District Level , Census of India__2": 0.248332234,
      "Primary Drop Out Rate in percentage DISE": "NA",
      "Marginal Workers Household Industry - Males": 2520,
      "Female Illiterates": 231855,
      "Main Workers Other - Females": 64389,
      "Marginal Workers Cultivators - Persons": 48898,
      "Upper Primary Gross Enrolment Ratio in percentage DISE": "NA",
      "Scheduled Caste Persons": 41396,
      "Marginal Workers Cultivators worked for 3 - 6 moths during last year - Persons": 38887,
      "Households with landline phone in percentage": 2.15,
      "Total Households in District  Houselisting and Housing Census Data Tables- District Level , Census of India": 218256,
      "Upper Primary Pupil-Teacher Ratio in percentage DISE": "NA",
      "Primary Student-Classroom Ratio in percentage DISE": "NA",
      "Primary Schools with boys toilet in percentage DISE": "NA",
      "Mean number of children ever born to women aged 40-49years  DLHS-4": "Not available",
      "Households receiving untreated tap water within premises  Houselisting and Housing Census Data Tables- District Level , Census of India__5": 1281,
      "Marginal Workers Household Industry worked for 0 - 3 moths during last year - Persons": 2044,
      "Total Male Population": 550299,
      "Non Workers - Females": 357426,
      "Current use of family planning methods in percentage DLHS-4": 65.5,
      "Households with main source of drinking water within premises  Houselisting and Housing Census Data Tables- District Level , Census of India__3": 136519,
      "Main Workers Agricultural Labourers - Males": 13067,
      "Marginal Workers Other worked for 0 - 3 moths during last year - Persons": 9877,
      "Currently married women married below 18years of age in percentage DLHS-4": 5.2,
      "Person Illiterates": 397032,
      "Main Workers Household Industry - Females": 1527,
      "Female Literates": 300451,
      "Marginal Workers Cultivators worked for 0 - 3 moths during last year - Males": 4495,
      "Male": "NA",
      "Households with improved source of drinking water in percentage DLHS-4": "Not available",
      "Upper Primary Schools with electricity in percentage DISE": "NA",
      "Households with electricity in percentage DLHS-4": "Not available",
      "Villages with Primary Health Centre within 10km in percentage DLHS-4": "Not applicable",
      "Births to women aged 15-19years out of Total births in percentage DLHS-4": "Not available",
      "Prevalence of Anaemia in women aged 15-49years in percentage DLHS-4": "Not available",
      "Marginal Workers Agricultural Labourers worked for 3 - 6 moths during last year - Persons": 31605,
      "Main Workers Household Industry - Males": 3798,
      "Scheduled Tribe Females": 45904,
      "Marginal Workers worked for 0 - 3 moths during last year - Males": 14007,
      "Marginal Workers Other worked for 3 - 6 moths during last year - Males": 27578,
      "Primary Net Enrolment Ratio in percentage DISE": "NA",
      "Total": "NA",
      "Mean age at marriage for boys DLHS-4": 26,
      "Number of District Hospitals  DLHS-4": "Not applicable",
      "0-6 Age Group Females": 68987,
      "Marginal Workers Agricultural Labourers worked for 0 - 3 moths during last year - Persons": 7442,
      "Marginal Workers Household Industry worked for 0 - 3 moths during last year - Males": 742,
      "Total Workers  Females": 174880,
      "Marginal Workers worked for 3 - 6 moths during last year - Females": 65895,
      "Institutional Deliveries in percentage DLHS-4": 79.3,
      "Marginal Workers Other - Males": 33045,
      "Total Workers  Males": 295616,
      "Main Workers - Females": 93618,
      "Primary Gross Enrolment Ratio in percentage DISE": "NA",
      "Main Workers Cultivators - Persons": 85548,
      "Marginal Workers Household Industry worked for 0 - 3 moths during last year - Females": 1302,
      "Upper Primary Net Enrolment Ratio in percentage DISE": "NA",
      "Primary New Government Schools since 2003 in percentage DISE": "NA",
      "Tier": "Rural",
      "Marginal Workers Household Industry - Females": 4402,
      "Primary Schools with electricity in percentage DISE": "NA",
      "Main Workers Other - Persons": 201741,
      "Marginal Workers Household Industry worked for 3 - 6 moths during last year - Females": 3100,
      "Main Workers Cultivators - Males": 65927,
      "Main Workers Household Industry - Persons": 5325,
      "Marginal Workers Cultivators worked for 0 - 3 moths during last year - Persons": 10011,
      "Scheduled Caste Males": 21480,
      "Marginal Workers - Persons": 156734,
      "Deliveries at home conducted by skilled health personnel in percentage DLHS-4": 36.6,
      "Villages with Sub-Health Centres within 3km in percentage DLHS-4": "Not applicable",
      "Upper Primary New Government Schools since 2003 in percentage DISE": "NA",
      "0-6 Age Group Males": 71296,
      "Primary Schools with drinking water facility in percentage DISE": "NA",
      "Non Workers - Persons": 612109,
      "Person Literates": 685573,
      "State": "ASSAM",
      "Total Female Population": 532306,
      "Marginal Workers worked for 0 - 3 moths during last year - Persons": 29374,
      "Marginal Workers Cultivators - Females": 26054,
      "Marginal Workers Other - Persons": 61867,
      "Sex Ratio": 967,
      "Scheduled Tribe Persons": 92593,
      "Marginal Workers Household Industry worked for 3 - 6 moths during last year - Males": 1778,
      "Marginal Workers Agricultural Labourers - Females": 21984,
      "Mean age at marriage for girls DLHS-4": 22.2,
      "Households with solar energy as main source of lighting  Houselisting and Housing Census Data Tables- District Level , Census of India__4": 489,
      "District": "DIBRUGARH",
      "Households receiving treated tap water within premises in percentage Houselisting and Housing Census Data Tables- District Level , Census of India__1": 2.371527014,
      "Total Workers  Persons": 470496,
      "Households receiving treated tap water within premises  Houselisting and Housing Census Data Tables- District Level , Census of India__4": 5176,
      "Primary Female Teachers in percentage DISE": "NA",
      "Number of Households": 222414,
      "Main Workers Agricultural Labourers - Persons": 21148
    }
  ],
  "Urban": [
    {
      "Marginal Workers Agricultural Labourers - Persons": 370,
      "Marginal Workers Other - Females": 3912,
      "Marginal Workers Other worked for 0 - 3 moths during last year - Females": 330,
      "Upper Primary Schools with boys toilet in percentage DISE": "NA",
      "Total Population": 243730,
      "Households with electricity as main source of lighting in percentage Houselisting and Housing Census Data Tables- District Level , Census of India": 91.23708512,
      "Primary Girl's Enrolment in percentage DISE": "NA",
      "Marginal Workers worked for 3 - 6 moths during last year - Males": 6359,
      "Prevalence of Acute illness in percentage DLHS-4": "Not available",
      "Main Workers - Persons": 77835,
      "Main Workers Cultivators - Females": 162,
      "Marginal Workers Agricultural Labourers worked for 3 - 6 moths during last year - Females": 119,
      "Marginal Workers Other worked for 0 - 3 moths during last year - Males": 1079,
      "Upper Primary Schools with drinking water facility in percentage DISE": "NA",
      "Primary Schools with girls toilet in percentage DISE": "NA",
      "Marginal Workers worked for 3 - 6 moths during last year - Persons": 10575,
      "Upper Primary Drop Out Rate in percentage DISE": "NA",
      "Prevalence of Anaemia in pregnant women aged 15-49years in percentage DLHS-4": "Not available",
      "Current use of any modern method of family planning in percentage DLHS-4": 42.5,
      "Marginal Workers Agricultural Labourers - Males": 240,
      "Upper Primary Female Teachers in percentage DISE": "NA",
      "Marginal Workers - Females": 4640,
      "Marginal Workers Other worked for 3 - 6 moths during last year - Persons": 9321,
      "Main Workers Agricultural Labourers - Females": 271,
      "Marginal Workers Cultivators worked for 3 - 6 moths during last year - Females": 93,
      "Households with no lighting  Houselisting and Housing Census Data Tables- District Level , Census of India__5": 173,
      "Prevalence of Severe Anaemia  in percentage DLHS-4": "Not available",
      "Total unmet need for family planning in percentage DLHS-4": 14.6,
      "Main Workers Other - Males": 63182,
      "Children who received full vaccination in percentage DLHS-4": "Not available",
      "Marginal Workers Household Industry - Persons": 912,
      "Primary Pupil-Teacher Ratio in percentage DISE": "NA",
      "Marginal Workers Agricultural Labourers worked for 3 - 6 moths during last year - Males": 213,
      "Scheduled Caste Females": 8443,
      "Marginal Workers Cultivators - Males": 119,
      "Marginal Workers - Males": 7586,
      "Marginal Workers worked for 0 - 3 moths during last year - Females": 424,
      "Households with main source of drinking water within premises in percentage Houselisting and Housing Census Data Tables- District Level , Census of India": 87.68217976,
      "Marginal Workers Household Industry worked for 3 - 6 moths during last year - Persons": 725,
      "Upper Primary Girl's Enrolment in percentage DISE": "NA",
      "Prevalence of Severe Anaemia in women aged 15-49years in percentage DLHS-4": "Not available",
      "Marginal Workers Agricultural Labourers worked for 0 - 3 moths during last year - Males": 27,
      "Households with electricity as main source of lighting  Houselisting and Housing Census Data Tables- District Level , Census of India__3": 49893,
      "Households with computer or laptop with internet connection in percentage": 10.91,
      "PHCs functioning on a 24x7hours basis in percentage DLHS-4": 0,
      "Non Workers - Males": 53738,
      "Total Households in District Houselisting and Housing Census Data Tables- District Level , Census of India": 54685,
      "Upper Primary Schools with girls toilet in percentage DISE": "NA",
      "Households with mobile phone in percentage": 67.38,
      "Households receiving untreated tap water within premises in percentage Houselisting and Housing Census Data Tables- District Level , Census of India__2": 4.034012983,
      "Marginal Workers Cultivators worked for 3 - 6 moths during last year - Males": 104,
      "Prevalence of Anaemia  in percentage DLHS-4": "Not available",
      "Prevalence of Chronic illness in percentage DLHS-4": "Not available",
      "Households with solar energy as main source of lighting in percentage Houselisting and Housing Census Data Tables- District Level , Census of India__1": 0.104233336,
      "Marginal Workers Agricultural Labourers worked for 0 - 3 moths during last year - Females": 11,
      "Main Workers - Males": 64811,
      "Female": "NA",
      "Sno": 126,
      "Marginal Workers Other worked for 3 - 6 moths during last year - Females": 3582,
      "Marginal Workers Cultivators worked for 0 - 3 moths during last year - Females": 2,
      "Scheduled Tribe Males": 5146,
      "Male Illiterates": 19896,
      "Prevalence of Severe Anaemia in pregnant women aged 15-49years in percentage DLHS-4": "Not available",
      "0-6 Age Group Persons": 22927,
      "Upper Primary Student-Classroom Ratio in percentage DISE": "NA",
      "Currently married men married below 21years of age in percentage DLHS-4": 3.7,
      "Male Literates": 106239,
      "Households with no lighting in percentage Houselisting and Housing Census Data Tables- District Level , Census of India__2": 0.316357319,
      "Primary Drop Out Rate in percentage DISE": "NA",
      "Marginal Workers Household Industry - Males": 409,
      "Female Illiterates": 24876,
      "Main Workers Other - Females": 12272,
      "Marginal Workers Cultivators - Persons": 214,
      "Upper Primary Gross Enrolment Ratio in percentage DISE": "NA",
      "Scheduled Caste Persons": 17480,
      "Marginal Workers Cultivators worked for 3 - 6 moths during last year - Persons": 197,
      "Households with landline phone in percentage": 6.07,
      "Total Households in District  Houselisting and Housing Census Data Tables- District Level , Census of India": 54685,
      "Upper Primary Pupil-Teacher Ratio in percentage DISE": "NA",
      "Primary Student-Classroom Ratio in percentage DISE": "NA",
      "Primary Schools with boys toilet in percentage DISE": "NA",
      "Mean number of children ever born to women aged 40-49years  DLHS-4": "Not available",
      "Households receiving untreated tap water within premises  Houselisting and Housing Census Data Tables- District Level , Census of India__5": 2206,
      "Marginal Workers Household Industry worked for 0 - 3 moths during last year - Persons": 187,
      "Total Male Population": 126135,
      "Non Workers - Females": 99931,
      "Current use of family planning methods in percentage DLHS-4": 63.9,
      "Households with main source of drinking water within premises  Houselisting and Housing Census Data Tables- District Level , Census of India__3": 47949,
      "Main Workers Agricultural Labourers - Males": 373,
      "Marginal Workers Other worked for 0 - 3 moths during last year - Persons": 1409,
      "Currently married women married below 18years of age in percentage DLHS-4": 4,
      "Person Illiterates": 44772,
      "Main Workers Household Industry - Females": 319,
      "Female Literates": 92719,
      "Marginal Workers Cultivators worked for 0 - 3 moths during last year - Males": 15,
      "Male": "NA",
      "Households with improved source of drinking water in percentage DLHS-4": "Not available",
      "Upper Primary Schools with electricity in percentage DISE": "NA",
      "Households with electricity in percentage DLHS-4": "Not available",
      "Villages with Primary Health Centre within 10km in percentage DLHS-4": 0,
      "Births to women aged 15-19years out of Total births in percentage DLHS-4": "Not available",
      "Prevalence of Anaemia in women aged 15-49years in percentage DLHS-4": "Not available",
      "Marginal Workers Agricultural Labourers worked for 3 - 6 moths during last year - Persons": 332,
      "Main Workers Household Industry - Males": 884,
      "Scheduled Tribe Females": 5132,
      "Marginal Workers worked for 0 - 3 moths during last year - Males": 1227,
      "Marginal Workers Other worked for 3 - 6 moths during last year - Males": 5739,
      "Primary Net Enrolment Ratio in percentage DISE": "NA",
      "Total": "NA",
      "Mean age at marriage for boys DLHS-4": 29,
      "Number of District Hospitals  DLHS-4": 0,
      "0-6 Age Group Females": 11055,
      "Marginal Workers Agricultural Labourers worked for 0 - 3 moths during last year - Persons": 38,
      "Marginal Workers Household Industry worked for 0 - 3 moths during last year - Males": 106,
      "Total Workers  Females": 17664,
      "Marginal Workers worked for 3 - 6 moths during last year - Females": 4216,
      "Institutional Deliveries in percentage DLHS-4": 89.1,
      "Marginal Workers Other - Males": 6818,
      "Total Workers  Males": 72397,
      "Main Workers - Females": 13024,
      "Primary Gross Enrolment Ratio in percentage DISE": "NA",
      "Main Workers Cultivators - Persons": 534,
      "Marginal Workers Household Industry worked for 0 - 3 moths during last year - Females": 81,
      "Upper Primary Net Enrolment Ratio in percentage DISE": "NA",
      "Primary New Government Schools since 2003 in percentage DISE": "NA",
      "Tier": "Urban",
      "Marginal Workers Household Industry - Females": 503,
      "Primary Schools with electricity in percentage DISE": "NA",
      "Main Workers Other - Persons": 75454,
      "Marginal Workers Household Industry worked for 3 - 6 moths during last year - Females": 422,
      "Main Workers Cultivators - Males": 372,
      "Main Workers Household Industry - Persons": 1203,
      "Marginal Workers Cultivators worked for 0 - 3 moths during last year - Persons": 17,
      "Scheduled Caste Males": 9037,
      "Marginal Workers - Persons": 12226,
      "Deliveries at home conducted by skilled health personnel in percentage DLHS-4": 35.3,
      "Villages with Sub-Health Centres within 3km in percentage DLHS-4": 0,
      "Upper Primary New Government Schools since 2003 in percentage DISE": "NA",
      "0-6 Age Group Males": 11872,
      "Primary Schools with drinking water facility in percentage DISE": "NA",
      "Non Workers - Persons": 153669,
      "Person Literates": 198958,
      "State": "ASSAM",
      "Total Female Population": 117595,
      "Marginal Workers worked for 0 - 3 moths during last year - Persons": 1651,
      "Marginal Workers Cultivators - Females": 95,
      "Marginal Workers Other - Persons": 10730,
      "Sex Ratio": 932,
      "Scheduled Tribe Persons": 10278,
      "Marginal Workers Household Industry worked for 3 - 6 moths during last year - Males": 303,
      "Marginal Workers Agricultural Labourers - Females": 130,
      "Mean age at marriage for girls DLHS-4": 23.8,
      "Households with solar energy as main source of lighting  Houselisting and Housing Census Data Tables- District Level , Census of India__4": 57,
      "District": "DIBRUGARH",
      "Households receiving treated tap water within premises in percentage Houselisting and Housing Census Data Tables- District Level , Census of India__1": 30.4818506,
      "Total Workers  Persons": 90061,
      "Households receiving treated tap water within premises  Houselisting and Housing Census Data Tables- District Level , Census of India__4": 16669,
      "Primary Female Teachers in percentage DISE": "NA",
      "Number of Households": 54453,
      "Main Workers Agricultural Labourers - Persons": 644
    }
  ]
}