{
  "Total": [
    {
      "Marginal Workers Agricultural Labourers - Persons": 38319,
      "Marginal Workers Other - Females": 15465,
      "Marginal Workers Other worked for 0 - 3 moths during last year - Females": 2732,
      "Upper Primary Schools with boys toilet in percentage DISE": 98.5,
      "Total Population": 1008183,
      "Households with electricity as main source of lighting in percentage Houselisting and Housing Census Data Tables- District Level , Census of India": 39.80915741,
      "Primary Girl's Enrolment in percentage DISE": 49.6,
      "Marginal Workers worked for 3 - 6 moths during last year - Males": 37774,
      "Prevalence of Acute illness in percentage DLHS-4": "Not available",
      "Main Workers - Persons": 266376,
      "Main Workers Cultivators - Females": 14044,
      "Marginal Workers Agricultural Labourers worked for 3 - 6 moths during last year - Females": 18718,
      "Marginal Workers Other worked for 0 - 3 moths during last year - Males": 2731,
      "Upper Primary Schools with drinking water facility in percentage DISE": 78.7,
      "Primary Schools with girls toilet in percentage DISE": 95.4,
      "Marginal Workers worked for 3 - 6 moths during last year - Persons": 81563,
      "Upper Primary Drop Out Rate in percentage DISE": 9.94,
      "Prevalence of Anaemia in pregnant women aged 15-49years in percentage DLHS-4": "Not available",
      "Current use of any modern method of family planning in percentage DLHS-4": 45,
      "Marginal Workers Agricultural Labourers - Males": 16414,
      "Upper Primary Female Teachers in percentage DISE": 19.1,
      "Marginal Workers - Females": 51759,
      "Marginal Workers Other worked for 3 - 6 moths during last year - Persons": 28138,
      "Main Workers Agricultural Labourers - Females": 9364,
      "Marginal Workers Cultivators worked for 3 - 6 moths during last year - Females": 8073,
      "Households with no lighting  Houselisting and Housing Census Data Tables- District Level , Census of India__5": 397,
      "Prevalence of Severe Anaemia  in percentage DLHS-4": "Not available",
      "Total unmet need for family planning in percentage DLHS-4": 12.7,
      "Main Workers Other - Males": 94694,
      "Children who received full vaccination in percentage DLHS-4": "Not available",
      "Marginal Workers Household Industry - Persons": 6636,
      "Primary Pupil-Teacher Ratio in percentage DISE": 29,
      "Marginal Workers Agricultural Labourers worked for 3 - 6 moths during last year - Males": 13928,
      "Scheduled Caste Females": 22095,
      "Marginal Workers Cultivators - Males": 8345,
      "Marginal Workers - Males": 44438,
      "Marginal Workers worked for 0 - 3 moths during last year - Females": 7970,
      "Households with main source of drinking water within premises in percentage Houselisting and Housing Census Data Tables- District Level , Census of India": 52.83212865,
      "Marginal Workers Household Industry worked for 3 - 6 moths during last year - Persons": 5528,
      "Upper Primary Girl's Enrolment in percentage DISE": 55.7,
      "Prevalence of Severe Anaemia in women aged 15-49years in percentage DLHS-4": "Not available",
      "Marginal Workers Agricultural Labourers worked for 0 - 3 moths during last year - Males": 2486,
      "Households with electricity as main source of lighting  Houselisting and Housing Census Data Tables- District Level , Census of India__3": 78641,
      "Households with computer or laptop with internet connection in percentage": 0.69,
      "PHCs functioning on a 24x7hours basis in percentage DLHS-4": "Not available",
      "Non Workers - Males": 246174,
      "Total Households in District Houselisting and Housing Census Data Tables- District Level , Census of India": 197545,
      "Upper Primary Schools with girls toilet in percentage DISE": 93.2,
      "Households with mobile phone in percentage": 44.53,
      "Households receiving untreated tap water within premises in percentage Houselisting and Housing Census Data Tables- District Level , Census of India__2": 0.359863869,
      "Marginal Workers Cultivators worked for 3 - 6 moths during last year - Males": 7178,
      "Prevalence of Anaemia  in percentage DLHS-4": "Not available",
      "Prevalence of Chronic illness in percentage DLHS-4": "Not available",
      "Households with solar energy as main source of lighting in percentage Houselisting and Housing Census Data Tables- District Level , Census of India__1": 1.002303273,
      "Marginal Workers Agricultural Labourers worked for 0 - 3 moths during last year - Females": 3187,
      "Main Workers - Males": 222680,
      "Female": 63.13,
      "Sno": 131,
      "Marginal Workers Other worked for 3 - 6 moths during last year - Females": 12733,
      "Marginal Workers Cultivators worked for 0 - 3 moths during last year - Females": 1223,
      "Scheduled Tribe Males": 116013,
      "Male Illiterates": 208990,
      "Prevalence of Severe Anaemia in pregnant women aged 15-49years in percentage DLHS-4": "Not available",
      "0-6 Age Group Persons": 171657,
      "Upper Primary Student-Classroom Ratio in percentage DISE": 34,
      "Currently married men married below 21years of age in percentage DLHS-4": 14.7,
      "Male Literates": 304302,
      "Households with no lighting in percentage Houselisting and Housing Census Data Tables- District Level , Census of India__2": 0.200966868,
      "Primary Drop Out Rate in percentage DISE": 10.6,
      "Marginal Workers Household Industry - Males": 1543,
      "Female Illiterates": 235616,
      "Main Workers Other - Females": 17555,
      "Marginal Workers Cultivators - Persons": 17641,
      "Upper Primary Gross Enrolment Ratio in percentage DISE": 89.1,
      "Scheduled Caste Persons": 45094,
      "Marginal Workers Cultivators worked for 3 - 6 moths during last year - Persons": 15251,
      "Households with landline phone in percentage": 1.39,
      "Total Households in District  Houselisting and Housing Census Data Tables- District Level , Census of India": 197545,
      "Upper Primary Pupil-Teacher Ratio in percentage DISE": 16,
      "Primary Student-Classroom Ratio in percentage DISE": 34,
      "Primary Schools with boys toilet in percentage DISE": 97.8,
      "Mean number of children ever born to women aged 40-49years  DLHS-4": "Not available",
      "Households receiving untreated tap water within premises  Houselisting and Housing Census Data Tables- District Level , Census of India__5": 350,
      "Marginal Workers Household Industry worked for 0 - 3 moths during last year - Persons": 1108,
      "Total Male Population": 513292,
      "Non Workers - Females": 399436,
      "Current use of family planning methods in percentage DLHS-4": 72.4,
      "Households with main source of drinking water within premises  Houselisting and Housing Census Data Tables- District Level , Census of India__3": 51384,
      "Main Workers Agricultural Labourers - Males": 28145,
      "Marginal Workers Other worked for 0 - 3 moths during last year - Persons": 5463,
      "Currently married women married below 18years of age in percentage DLHS-4": 13,
      "Person Illiterates": 444606,
      "Main Workers Household Industry - Females": 2733,
      "Female Literates": 259275,
      "Marginal Workers Cultivators worked for 0 - 3 moths during last year - Males": 1167,
      "Male": 71.46,
      "Households with improved source of drinking water in percentage DLHS-4": "Not available",
      "Upper Primary Schools with electricity in percentage DISE": 26.9,
      "Households with electricity in percentage DLHS-4": "Not available",
      "Villages with Primary Health Centre within 10km in percentage DLHS-4": "Not available",
      "Births to women aged 15-19years out of Total births in percentage DLHS-4": "Not available",
      "Prevalence of Anaemia in women aged 15-49years in percentage DLHS-4": "Not available",
      "Marginal Workers Agricultural Labourers worked for 3 - 6 moths during last year - Persons": 32646,
      "Main Workers Household Industry - Males": 4977,
      "Scheduled Tribe Females": 115557,
      "Marginal Workers worked for 0 - 3 moths during last year - Males": 6664,
      "Marginal Workers Other worked for 3 - 6 moths during last year - Males": 15405,
      "Primary Net Enrolment Ratio in percentage DISE": 100,
      "Total": 67.37,
      "Mean age at marriage for boys DLHS-4": 25.4,
      "Number of District Hospitals  DLHS-4": "Not available",
      "0-6 Age Group Females": 84200,
      "Marginal Workers Agricultural Labourers worked for 0 - 3 moths during last year - Persons": 5673,
      "Marginal Workers Household Industry worked for 0 - 3 moths during last year - Males": 280,
      "Total Workers  Females": 95455,
      "Marginal Workers worked for 3 - 6 moths during last year - Females": 43789,
      "Institutional Deliveries in percentage DLHS-4": 55.6,
      "Marginal Workers Other - Males": 18136,
      "Total Workers  Males": 267118,
      "Main Workers - Females": 43696,
      "Primary Gross Enrolment Ratio in percentage DISE": 124.2,
      "Main Workers Cultivators - Persons": 108908,
      "Marginal Workers Household Industry worked for 0 - 3 moths during last year - Females": 828,
      "Upper Primary Net Enrolment Ratio in percentage DISE": 75.1,
      "Primary New Government Schools since 2003 in percentage DISE": 22.9,
      "Tier": "Total",
      "Marginal Workers Household Industry - Females": 5093,
      "Primary Schools with electricity in percentage DISE": 12.9,
      "Main Workers Other - Persons": 112249,
      "Marginal Workers Household Industry worked for 3 - 6 moths during last year - Females": 4265,
      "Main Workers Cultivators - Males": 94864,
      "Main Workers Household Industry - Persons": 7710,
      "Marginal Workers Cultivators worked for 0 - 3 moths during last year - Persons": 2390,
      "Scheduled Caste Males": 22999,
      "Marginal Workers - Persons": 96197,
      "Deliveries at home conducted by skilled health personnel in percentage DLHS-4": 36,
      "Villages with Sub-Health Centres within 3km in percentage DLHS-4": "Not available",
      "Upper Primary New Government Schools since 2003 in percentage DISE": 0.9,
      "0-6 Age Group Males": 87457,
      "Primary Schools with drinking water facility in percentage DISE": 84.6,
      "Non Workers - Persons": 645610,
      "Person Literates": 563577,
      "State": "ASSAM",
      "Total Female Population": 494891,
      "Marginal Workers worked for 0 - 3 moths during last year - Persons": 14634,
      "Marginal Workers Cultivators - Females": 9296,
      "Marginal Workers Other - Persons": 33601,
      "Sex Ratio": 964,
      "Scheduled Tribe Persons": 231570,
      "Marginal Workers Household Industry worked for 3 - 6 moths during last year - Males": 1263,
      "Marginal Workers Agricultural Labourers - Females": 21905,
      "Mean age at marriage for girls DLHS-4": 20.8,
      "Households with solar energy as main source of lighting  Houselisting and Housing Census Data Tables- District Level , Census of India__4": 1980,
      "District": "GOALPARA",
      "Households receiving treated tap water within premises in percentage Houselisting and Housing Census Data Tables- District Level , Census of India__1": 0.986027,
      "Total Workers  Persons": 362573,
      "Households receiving treated tap water within premises  Houselisting and Housing Census Data Tables- District Level , Census of India__4": 959,
      "Primary Female Teachers in percentage DISE": 31.4,
      "Number of Households": 198454,
      "Main Workers Agricultural Labourers - Persons": 37509
    }
  ],
  "Rural": [
    {
      "Marginal Workers Agricultural Labourers - Persons": 37059,
      "Marginal Workers Other - Females": 12361,
      "Marginal Workers Other worked for 0 - 3 moths during last year - Females": 2286,
      "Upper Primary Schools with boys toilet in percentage DISE": "NA",
      "Total Population": 870121,
      "Households with electricity as main source of lighting in percentage Houselisting and Housing Census Data Tables- District Level , Census of India": 35.57918922,
      "Primary Girl's Enrolment in percentage DISE": "NA",
      "Marginal Workers worked for 3 - 6 moths during last year - Males": 33420,
      "Prevalence of Acute illness in percentage DLHS-4": "Not available",
      "Main Workers - Persons": 227473,
      "Main Workers Cultivators - Females": 13903,
      "Marginal Workers Agricultural Labourers worked for 3 - 6 moths during last year - Females": 18078,
      "Marginal Workers Other worked for 0 - 3 moths during last year - Males": 2181,
      "Upper Primary Schools with drinking water facility in percentage DISE": "NA",
      "Primary Schools with girls toilet in percentage DISE": "NA",
      "Marginal Workers worked for 3 - 6 moths during last year - Persons": 73310,
      "Upper Primary Drop Out Rate in percentage DISE": "NA",
      "Prevalence of Anaemia in pregnant women aged 15-49years in percentage DLHS-4": "Not available",
      "Current use of any modern method of family planning in percentage DLHS-4": 45.3,
      "Marginal Workers Agricultural Labourers - Males": 15862,
      "Upper Primary Female Teachers in percentage DISE": "NA",
      "Marginal Workers - Females": 47263,
      "Marginal Workers Other worked for 3 - 6 moths during last year - Persons": 21959,
      "Main Workers Agricultural Labourers - Females": 9072,
      "Marginal Workers Cultivators worked for 3 - 6 moths during last year - Females": 7912,
      "Households with no lighting  Houselisting and Housing Census Data Tables- District Level , Census of India__5": 295,
      "Prevalence of Severe Anaemia  in percentage DLHS-4": "Not available",
      "Total unmet need for family planning in percentage DLHS-4": 13,
      "Main Workers Other - Males": 65352,
      "Children who received full vaccination in percentage DLHS-4": "Not available",
      "Marginal Workers Household Industry - Persons": 5945,
      "Primary Pupil-Teacher Ratio in percentage DISE": "NA",
      "Marginal Workers Agricultural Labourers worked for 3 - 6 moths during last year - Males": 13460,
      "Scheduled Caste Females": 16053,
      "Marginal Workers Cultivators - Males": 8064,
      "Marginal Workers - Males": 39363,
      "Marginal Workers worked for 0 - 3 moths during last year - Females": 7373,
      "Households with main source of drinking water within premises in percentage Houselisting and Housing Census Data Tables- District Level , Census of India": 50.52477776,
      "Marginal Workers Household Industry worked for 3 - 6 moths during last year - Persons": 4950,
      "Upper Primary Girl's Enrolment in percentage DISE": "NA",
      "Prevalence of Severe Anaemia in women aged 15-49years in percentage DLHS-4": "Not available",
      "Marginal Workers Agricultural Labourers worked for 0 - 3 moths during last year - Males": 2402,
      "Households with electricity as main source of lighting  Houselisting and Housing Census Data Tables- District Level , Census of India__3": 60084,
      "Households with computer or laptop with internet connection in percentage": 0.43,
      "PHCs functioning on a 24x7hours basis in percentage DLHS-4": "Not applicable",
      "Non Workers - Males": 214356,
      "Total Households in District Houselisting and Housing Census Data Tables- District Level , Census of India": 168874,
      "Upper Primary Schools with girls toilet in percentage DISE": "NA",
      "Households with mobile phone in percentage": 41.89,
      "Households receiving untreated tap water within premises in percentage Houselisting and Housing Census Data Tables- District Level , Census of India__2": 0.281071194,
      "Marginal Workers Cultivators worked for 3 - 6 moths during last year - Males": 6951,
      "Prevalence of Anaemia  in percentage DLHS-4": "Not available",
      "Prevalence of Chronic illness in percentage DLHS-4": "Not available",
      "Households with solar energy as main source of lighting in percentage Houselisting and Housing Census Data Tables- District Level , Census of India__1": 1.095491313,
      "Marginal Workers Agricultural Labourers worked for 0 - 3 moths during last year - Females": 3119,
      "Main Workers - Males": 189525,
      "Female": "NA",
      "Sno": 130,
      "Marginal Workers Other worked for 3 - 6 moths during last year - Females": 10075,
      "Marginal Workers Cultivators worked for 0 - 3 moths during last year - Females": 1220,
      "Scheduled Tribe Males": 110337,
      "Male Illiterates": 187159,
      "Prevalence of Severe Anaemia in pregnant women aged 15-49years in percentage DLHS-4": "Not available",
      "0-6 Age Group Persons": 152141,
      "Upper Primary Student-Classroom Ratio in percentage DISE": "NA",
      "Currently married men married below 21years of age in percentage DLHS-4": 15.8,
      "Male Literates": 256085,
      "Households with no lighting in percentage Houselisting and Housing Census Data Tables- District Level , Census of India__2": 0.174686453,
      "Primary Drop Out Rate in percentage DISE": "NA",
      "Marginal Workers Household Industry - Males": 1372,
      "Female Illiterates": 209574,
      "Main Workers Other - Females": 12602,
      "Marginal Workers Cultivators - Persons": 17196,
      "Upper Primary Gross Enrolment Ratio in percentage DISE": "NA",
      "Scheduled Caste Persons": 32886,
      "Marginal Workers Cultivators worked for 3 - 6 moths during last year - Persons": 14863,
      "Households with landline phone in percentage": 1.29,
      "Total Households in District  Houselisting and Housing Census Data Tables- District Level , Census of India": 168874,
      "Upper Primary Pupil-Teacher Ratio in percentage DISE": "NA",
      "Primary Student-Classroom Ratio in percentage DISE": "NA",
      "Primary Schools with boys toilet in percentage DISE": "NA",
      "Mean number of children ever born to women aged 40-49years  DLHS-4": "Not available",
      "Households receiving untreated tap water within premises  Houselisting and Housing Census Data Tables- District Level , Census of India__5": 252,
      "Marginal Workers Household Industry worked for 0 - 3 moths during last year - Persons": 995,
      "Total Male Population": 443244,
      "Non Workers - Females": 341666,
      "Current use of family planning methods in percentage DLHS-4": 72.2,
      "Households with main source of drinking water within premises  Houselisting and Housing Census Data Tables- District Level , Census of India__3": 45299,
      "Main Workers Agricultural Labourers - Males": 26939,
      "Marginal Workers Other worked for 0 - 3 moths during last year - Persons": 4467,
      "Currently married women married below 18years of age in percentage DLHS-4": 13.7,
      "Person Illiterates": 396733,
      "Main Workers Household Industry - Females": 2371,
      "Female Literates": 217303,
      "Marginal Workers Cultivators worked for 0 - 3 moths during last year - Males": 1113,
      "Male": "NA",
      "Households with improved source of drinking water in percentage DLHS-4": "Not available",
      "Upper Primary Schools with electricity in percentage DISE": "NA",
      "Households with electricity in percentage DLHS-4": "Not available",
      "Villages with Primary Health Centre within 10km in percentage DLHS-4": "Not applicable",
      "Births to women aged 15-19years out of Total births in percentage DLHS-4": "Not available",
      "Prevalence of Anaemia in women aged 15-49years in percentage DLHS-4": "Not available",
      "Marginal Workers Agricultural Labourers worked for 3 - 6 moths during last year - Persons": 31538,
      "Main Workers Household Industry - Males": 3917,
      "Scheduled Tribe Females": 109534,
      "Marginal Workers worked for 0 - 3 moths during last year - Males": 5943,
      "Marginal Workers Other worked for 3 - 6 moths during last year - Males": 11884,
      "Primary Net Enrolment Ratio in percentage DISE": "NA",
      "Total": "NA",
      "Mean age at marriage for boys DLHS-4": 25.1,
      "Number of District Hospitals  DLHS-4": "Not applicable",
      "0-6 Age Group Females": 74639,
      "Marginal Workers Agricultural Labourers worked for 0 - 3 moths during last year - Persons": 5521,
      "Marginal Workers Household Industry worked for 0 - 3 moths during last year - Males": 247,
      "Total Workers  Females": 85211,
      "Marginal Workers worked for 3 - 6 moths during last year - Females": 39890,
      "Institutional Deliveries in percentage DLHS-4": 54.7,
      "Marginal Workers Other - Males": 14065,
      "Total Workers  Males": 228888,
      "Main Workers - Females": 37948,
      "Primary Gross Enrolment Ratio in percentage DISE": "NA",
      "Main Workers Cultivators - Persons": 107220,
      "Marginal Workers Household Industry worked for 0 - 3 moths during last year - Females": 748,
      "Upper Primary Net Enrolment Ratio in percentage DISE": "NA",
      "Primary New Government Schools since 2003 in percentage DISE": "NA",
      "Tier": "Rural",
      "Marginal Workers Household Industry - Females": 4573,
      "Primary Schools with electricity in percentage DISE": "NA",
      "Main Workers Other - Persons": 77954,
      "Marginal Workers Household Industry worked for 3 - 6 moths during last year - Females": 3825,
      "Main Workers Cultivators - Males": 93317,
      "Main Workers Household Industry - Persons": 6288,
      "Marginal Workers Cultivators worked for 0 - 3 moths during last year - Persons": 2333,
      "Scheduled Caste Males": 16833,
      "Marginal Workers - Persons": 86626,
      "Deliveries at home conducted by skilled health personnel in percentage DLHS-4": 35.7,
      "Villages with Sub-Health Centres within 3km in percentage DLHS-4": "Not applicable",
      "Upper Primary New Government Schools since 2003 in percentage DISE": "NA",
      "0-6 Age Group Males": 77502,
      "Primary Schools with drinking water facility in percentage DISE": "NA",
      "Non Workers - Persons": 556022,
      "Person Literates": 473388,
      "State": "ASSAM",
      "Total Female Population": 426877,
      "Marginal Workers worked for 0 - 3 moths during last year - Persons": 13316,
      "Marginal Workers Cultivators - Females": 9132,
      "Marginal Workers Other - Persons": 26426,
      "Sex Ratio": 963,
      "Scheduled Tribe Persons": 219871,
      "Marginal Workers Household Industry worked for 3 - 6 moths during last year - Males": 1125,
      "Marginal Workers Agricultural Labourers - Females": 21197,
      "Mean age at marriage for girls DLHS-4": 20.7,
      "Households with solar energy as main source of lighting  Houselisting and Housing Census Data Tables- District Level , Census of India__4": 1850,
      "District": "GOALPARA",
      "Households receiving treated tap water within premises in percentage Houselisting and Housing Census Data Tables- District Level , Census of India__1": 0.836521409,
      "Total Workers  Persons": 314099,
      "Households receiving treated tap water within premises  Houselisting and Housing Census Data Tables- District Level , Census of India__4": 750,
      "Primary Female Teachers in percentage DISE": "NA",
      "Number of Households": 170003,
      "Main Workers Agricultural Labourers - Persons": 36011
    }
  ],
  "Urban": [
    {
      "Marginal Workers Agricultural Labourers - Persons": 1260,
      "Marginal Workers Other - Females": 3104,
      "Marginal Workers Other worked for 0 - 3 moths during last year - Females": 446,
      "Upper Primary Schools with boys toilet in percentage DISE": "NA",
      "Total Population": 138062,
      "Households with electricity as main source of lighting in percentage Houselisting and Housing Census Data Tables- District Level , Census of India": 64.72393708,
      "Primary Girl's Enrolment in percentage DISE": "NA",
      "Marginal Workers worked for 3 - 6 moths during last year - Males": 4354,
      "Prevalence of Acute illness in percentage DLHS-4": "Not available",
      "Main Workers - Persons": 38903,
      "Main Workers Cultivators - Females": 141,
      "Marginal Workers Agricultural Labourers worked for 3 - 6 moths during last year - Females": 640,
      "Marginal Workers Other worked for 0 - 3 moths during last year - Males": 550,
      "Upper Primary Schools with drinking water facility in percentage DISE": "NA",
      "Primary Schools with girls toilet in percentage DISE": "NA",
      "Marginal Workers worked for 3 - 6 moths during last year - Persons": 8253,
      "Upper Primary Drop Out Rate in percentage DISE": "NA",
      "Prevalence of Anaemia in pregnant women aged 15-49years in percentage DLHS-4": "Not available",
      "Current use of any modern method of family planning in percentage DLHS-4": 40.9,
      "Marginal Workers Agricultural Labourers - Males": 552,
      "Upper Primary Female Teachers in percentage DISE": "NA",
      "Marginal Workers - Females": 4496,
      "Marginal Workers Other worked for 3 - 6 moths during last year - Persons": 6179,
      "Main Workers Agricultural Labourers - Females": 292,
      "Marginal Workers Cultivators worked for 3 - 6 moths during last year - Females": 161,
      "Households with no lighting  Houselisting and Housing Census Data Tables- District Level , Census of India__5": 102,
      "Prevalence of Severe Anaemia  in percentage DLHS-4": "Not available",
      "Total unmet need for family planning in percentage DLHS-4": 9.5,
      "Main Workers Other - Males": 29342,
      "Children who received full vaccination in percentage DLHS-4": "Not available",
      "Marginal Workers Household Industry - Persons": 691,
      "Primary Pupil-Teacher Ratio in percentage DISE": "NA",
      "Marginal Workers Agricultural Labourers worked for 3 - 6 moths during last year - Males": 468,
      "Scheduled Caste Females": 6042,
      "Marginal Workers Cultivators - Males": 281,
      "Marginal Workers - Males": 5075,
      "Marginal Workers worked for 0 - 3 moths during last year - Females": 597,
      "Households with main source of drinking water within premises in percentage Houselisting and Housing Census Data Tables- District Level , Census of India": 80.04472507,
      "Marginal Workers Household Industry worked for 3 - 6 moths during last year - Persons": 578,
      "Upper Primary Girl's Enrolment in percentage DISE": "NA",
      "Prevalence of Severe Anaemia in women aged 15-49years in percentage DLHS-4": "Not available",
      "Marginal Workers Agricultural Labourers worked for 0 - 3 moths during last year - Males": 84,
      "Households with electricity as main source of lighting  Houselisting and Housing Census Data Tables- District Level , Census of India__3": 18557,
      "Households with computer or laptop with internet connection in percentage": 2.25,
      "PHCs functioning on a 24x7hours basis in percentage DLHS-4": 0,
      "Non Workers - Males": 31818,
      "Total Households in District Houselisting and Housing Census Data Tables- District Level , Census of India": 28671,
      "Upper Primary Schools with girls toilet in percentage DISE": "NA",
      "Households with mobile phone in percentage": 60.08,
      "Households receiving untreated tap water within premises in percentage Houselisting and Housing Census Data Tables- District Level , Census of India__2": 1.289134438,
      "Marginal Workers Cultivators worked for 3 - 6 moths during last year - Males": 227,
      "Prevalence of Anaemia  in percentage DLHS-4": "Not available",
      "Prevalence of Chronic illness in percentage DLHS-4": "Not available",
      "Households with solar energy as main source of lighting in percentage Houselisting and Housing Census Data Tables- District Level , Census of India__1": 0.453419832,
      "Marginal Workers Agricultural Labourers worked for 0 - 3 moths during last year - Females": 68,
      "Main Workers - Males": 33155,
      "Female": "NA",
      "Sno": 132,
      "Marginal Workers Other worked for 3 - 6 moths during last year - Females": 2658,
      "Marginal Workers Cultivators worked for 0 - 3 moths during last year - Females": 3,
      "Scheduled Tribe Males": 5676,
      "Male Illiterates": 21831,
      "Prevalence of Severe Anaemia in pregnant women aged 15-49years in percentage DLHS-4": "Not available",
      "0-6 Age Group Persons": 19516,
      "Upper Primary Student-Classroom Ratio in percentage DISE": "NA",
      "Currently married men married below 21years of age in percentage DLHS-4": 4.5,
      "Male Literates": 48217,
      "Households with no lighting in percentage Houselisting and Housing Census Data Tables- District Level , Census of India__2": 0.355760176,
      "Primary Drop Out Rate in percentage DISE": "NA",
      "Marginal Workers Household Industry - Males": 171,
      "Female Illiterates": 26042,
      "Main Workers Other - Females": 4953,
      "Marginal Workers Cultivators - Persons": 445,
      "Upper Primary Gross Enrolment Ratio in percentage DISE": "NA",
      "Scheduled Caste Persons": 12208,
      "Marginal Workers Cultivators worked for 3 - 6 moths during last year - Persons": 388,
      "Households with landline phone in percentage": 1.98,
      "Total Households in District  Houselisting and Housing Census Data Tables- District Level , Census of India": 28671,
      "Upper Primary Pupil-Teacher Ratio in percentage DISE": "NA",
      "Primary Student-Classroom Ratio in percentage DISE": "NA",
      "Primary Schools with boys toilet in percentage DISE": "NA",
      "Mean number of children ever born to women aged 40-49years  DLHS-4": "Not available",
      "Households receiving untreated tap water within premises  Houselisting and Housing Census Data Tables- District Level , Census of India__5": 98,
      "Marginal Workers Household Industry worked for 0 - 3 moths during last year - Persons": 113,
      "Total Male Population": 70048,
      "Non Workers - Females": 57770,
      "Current use of family planning methods in percentage DLHS-4": 75.3,
      "Households with main source of drinking water within premises  Houselisting and Housing Census Data Tables- District Level , Census of India__3": 6085,
      "Main Workers Agricultural Labourers - Males": 1206,
      "Marginal Workers Other worked for 0 - 3 moths during last year - Persons": 996,
      "Currently married women married below 18years of age in percentage DLHS-4": 6.7,
      "Person Illiterates": 47873,
      "Main Workers Household Industry - Females": 362,
      "Female Literates": 41972,
      "Marginal Workers Cultivators worked for 0 - 3 moths during last year - Males": 54,
      "Male": "NA",
      "Households with improved source of drinking water in percentage DLHS-4": "Not available",
      "Upper Primary Schools with electricity in percentage DISE": "NA",
      "Households with electricity in percentage DLHS-4": "Not available",
      "Villages with Primary Health Centre within 10km in percentage DLHS-4": 0,
      "Births to women aged 15-19years out of Total births in percentage DLHS-4": "Not available",
      "Prevalence of Anaemia in women aged 15-49years in percentage DLHS-4": "Not available",
      "Marginal Workers Agricultural Labourers worked for 3 - 6 moths during last year - Persons": 1108,
      "Main Workers Household Industry - Males": 1060,
      "Scheduled Tribe Females": 6023,
      "Marginal Workers worked for 0 - 3 moths during last year - Males": 721,
      "Marginal Workers Other worked for 3 - 6 moths during last year - Males": 3521,
      "Primary Net Enrolment Ratio in percentage DISE": "NA",
      "Total": "NA",
      "Mean age at marriage for boys DLHS-4": 27.9,
      "Number of District Hospitals  DLHS-4": 0,
      "0-6 Age Group Females": 9561,
      "Marginal Workers Agricultural Labourers worked for 0 - 3 moths during last year - Persons": 152,
      "Marginal Workers Household Industry worked for 0 - 3 moths during last year - Males": 33,
      "Total Workers  Females": 10244,
      "Marginal Workers worked for 3 - 6 moths during last year - Females": 3899,
      "Institutional Deliveries in percentage DLHS-4": 68,
      "Marginal Workers Other - Males": 4071,
      "Total Workers  Males": 38230,
      "Main Workers - Females": 5748,
      "Primary Gross Enrolment Ratio in percentage DISE": "NA",
      "Main Workers Cultivators - Persons": 1688,
      "Marginal Workers Household Industry worked for 0 - 3 moths during last year - Females": 80,
      "Upper Primary Net Enrolment Ratio in percentage DISE": "NA",
      "Primary New Government Schools since 2003 in percentage DISE": "NA",
      "Tier": "Urban",
      "Marginal Workers Household Industry - Females": 520,
      "Primary Schools with electricity in percentage DISE": "NA",
      "Main Workers Other - Persons": 34295,
      "Marginal Workers Household Industry worked for 3 - 6 moths during last year - Females": 440,
      "Main Workers Cultivators - Males": 1547,
      "Main Workers Household Industry - Persons": 1422,
      "Marginal Workers Cultivators worked for 0 - 3 moths during last year - Persons": 57,
      "Scheduled Caste Males": 6166,
      "Marginal Workers - Persons": 9571,
      "Deliveries at home conducted by skilled health personnel in percentage DLHS-4": 43,
      "Villages with Sub-Health Centres within 3km in percentage DLHS-4": 0,
      "Upper Primary New Government Schools since 2003 in percentage DISE": "NA",
      "0-6 Age Group Males": 9955,
      "Primary Schools with drinking water facility in percentage DISE": "NA",
      "Non Workers - Persons": 89588,
      "Person Literates": 90189,
      "State": "ASSAM",
      "Total Female Population": 68014,
      "Marginal Workers worked for 0 - 3 moths during last year - Persons": 1318,
      "Marginal Workers Cultivators - Females": 164,
      "Marginal Workers Other - Persons": 7175,
      "Sex Ratio": 971,
      "Scheduled Tribe Persons": 11699,
      "Marginal Workers Household Industry worked for 3 - 6 moths during last year - Males": 138,
      "Marginal Workers Agricultural Labourers - Females": 708,
      "Mean age at marriage for girls DLHS-4": 21.7,
      "Households with solar energy as main source of lighting  Houselisting and Housing Census Data Tables- District Level , Census of India__4": 130,
      "District": "GOALPARA",
      "Households receiving treated tap water within premises in percentage Houselisting and Housing Census Data Tables- District Level , Census of India__1": 2.749276506,
      "Total Workers  Persons": 48474,
      "Households receiving treated tap water within premises  Houselisting and Housing Census Data Tables- District Level , Census of India__4": 209,
      "Primary Female Teachers in percentage DISE": "NA",
      "Number of Households": 28451,
      "Main Workers Agricultural Labourers - Persons": 1498
    }
  ]
}