{
  "Total": [
    {
      "Marginal Workers Agricultural Labourers - Persons": 15381,
      "Marginal Workers Other - Females": 16351,
      "Marginal Workers Other worked for 0 - 3 moths during last year - Females": 1745,
      "Upper Primary Schools with boys toilet in percentage DISE": 57.4,
      "Total Population": 771639,
      "Households with electricity as main source of lighting in percentage Houselisting and Housing Census Data Tables- District Level , Census of India": 43.97304187,
      "Primary Girl's Enrolment in percentage DISE": 49.7,
      "Marginal Workers worked for 3 - 6 moths during last year - Males": 31959,
      "Prevalence of Acute illness in percentage DLHS-4": "Not available",
      "Main Workers - Persons": 196773,
      "Main Workers Cultivators - Females": 3317,
      "Marginal Workers Agricultural Labourers worked for 3 - 6 moths during last year - Females": 4450,
      "Marginal Workers Other worked for 0 - 3 moths during last year - Males": 3114,
      "Upper Primary Schools with drinking water facility in percentage DISE": 97.2,
      "Primary Schools with girls toilet in percentage DISE": 81.4,
      "Marginal Workers worked for 3 - 6 moths during last year - Persons": 58981,
      "Upper Primary Drop Out Rate in percentage DISE": 5.17,
      "Prevalence of Anaemia in pregnant women aged 15-49years in percentage DLHS-4": "Not available",
      "Current use of any modern method of family planning in percentage DLHS-4": 44,
      "Marginal Workers Agricultural Labourers - Males": 9555,
      "Upper Primary Female Teachers in percentage DISE": 21.1,
      "Marginal Workers - Females": 32956,
      "Marginal Workers Other worked for 3 - 6 moths during last year - Persons": 33161,
      "Main Workers Agricultural Labourers - Females": 2151,
      "Marginal Workers Cultivators worked for 3 - 6 moths during last year - Females": 1781,
      "Households with no lighting  Houselisting and Housing Census Data Tables- District Level , Census of India__5": 189,
      "Prevalence of Severe Anaemia  in percentage DLHS-4": "Not available",
      "Total unmet need for family planning in percentage DLHS-4": 10.5,
      "Main Workers Other - Males": 101915,
      "Children who received full vaccination in percentage DLHS-4": "Not available",
      "Marginal Workers Household Industry - Persons": 10724,
      "Primary Pupil-Teacher Ratio in percentage DISE": 21,
      "Marginal Workers Agricultural Labourers worked for 3 - 6 moths during last year - Males": 7771,
      "Scheduled Caste Females": 29562,
      "Marginal Workers Cultivators - Males": 4371,
      "Marginal Workers - Males": 37894,
      "Marginal Workers worked for 0 - 3 moths during last year - Females": 5934,
      "Households with main source of drinking water within premises in percentage Houselisting and Housing Census Data Tables- District Level , Census of India": 57.48399243,
      "Marginal Workers Household Industry worked for 3 - 6 moths during last year - Persons": 8030,
      "Upper Primary Girl's Enrolment in percentage DISE": 54.5,
      "Prevalence of Severe Anaemia in women aged 15-49years in percentage DLHS-4": "Not available",
      "Marginal Workers Agricultural Labourers worked for 0 - 3 moths during last year - Males": 1784,
      "Households with electricity as main source of lighting  Houselisting and Housing Census Data Tables- District Level , Census of India__3": 68313,
      "Households with computer or laptop with internet connection in percentage": 1.05,
      "PHCs functioning on a 24x7hours basis in percentage DLHS-4": "Not available",
      "Non Workers - Males": 185804,
      "Total Households in District Houselisting and Housing Census Data Tables- District Level , Census of India": 155352,
      "Upper Primary Schools with girls toilet in percentage DISE": 61.1,
      "Households with mobile phone in percentage": 51.75,
      "Households receiving untreated tap water within premises in percentage Houselisting and Housing Census Data Tables- District Level , Census of India__2": 0.387069545,
      "Marginal Workers Cultivators worked for 3 - 6 moths during last year - Males": 3788,
      "Prevalence of Anaemia  in percentage DLHS-4": "Not available",
      "Prevalence of Chronic illness in percentage DLHS-4": "Not available",
      "Households with solar energy as main source of lighting in percentage Houselisting and Housing Census Data Tables- District Level , Census of India__1": 0.343091817,
      "Marginal Workers Agricultural Labourers worked for 0 - 3 moths during last year - Females": 1376,
      "Main Workers - Males": 172308,
      "Female": 72.57,
      "Sno": 167,
      "Marginal Workers Other worked for 3 - 6 moths during last year - Females": 14606,
      "Marginal Workers Cultivators worked for 0 - 3 moths during last year - Females": 573,
      "Scheduled Tribe Males": 11692,
      "Male Illiterates": 102822,
      "Prevalence of Severe Anaemia in pregnant women aged 15-49years in percentage DLHS-4": "Not available",
      "0-6 Age Group Persons": 95333,
      "Upper Primary Student-Classroom Ratio in percentage DISE": 22,
      "Currently married men married below 21years of age in percentage DLHS-4": 4.4,
      "Male Literates": 293184,
      "Households with no lighting in percentage Houselisting and Housing Census Data Tables- District Level , Census of India__2": 0.1216592,
      "Primary Drop Out Rate in percentage DISE": 10.3,
      "Marginal Workers Household Industry - Males": 2299,
      "Female Illiterates": 137046,
      "Main Workers Other - Females": 15332,
      "Marginal Workers Cultivators - Persons": 6725,
      "Upper Primary Gross Enrolment Ratio in percentage DISE": 86.1,
      "Scheduled Caste Persons": 60216,
      "Marginal Workers Cultivators worked for 3 - 6 moths during last year - Persons": 5569,
      "Households with landline phone in percentage": 2.41,
      "Total Households in District  Houselisting and Housing Census Data Tables- District Level , Census of India": 155352,
      "Upper Primary Pupil-Teacher Ratio in percentage DISE": 12,
      "Primary Student-Classroom Ratio in percentage DISE": 21,
      "Primary Schools with boys toilet in percentage DISE": 62.3,
      "Mean number of children ever born to women aged 40-49years  DLHS-4": "Not available",
      "Households receiving untreated tap water within premises  Houselisting and Housing Census Data Tables- District Level , Census of India__5": 697,
      "Marginal Workers Household Industry worked for 0 - 3 moths during last year - Persons": 2694,
      "Total Male Population": 396006,
      "Non Workers - Females": 318212,
      "Current use of family planning methods in percentage DLHS-4": 71.5,
      "Households with main source of drinking water within premises  Houselisting and Housing Census Data Tables- District Level , Census of India__3": 103512,
      "Main Workers Agricultural Labourers - Males": 17452,
      "Marginal Workers Other worked for 0 - 3 moths during last year - Persons": 4859,
      "Currently married women married below 18years of age in percentage DLHS-4": 3.8,
      "Person Illiterates": 239868,
      "Main Workers Household Industry - Females": 3665,
      "Female Literates": 238587,
      "Marginal Workers Cultivators worked for 0 - 3 moths during last year - Males": 583,
      "Male": 84.36,
      "Households with improved source of drinking water in percentage DLHS-4": "Not available",
      "Upper Primary Schools with electricity in percentage DISE": 31.5,
      "Households with electricity in percentage DLHS-4": "Not available",
      "Villages with Primary Health Centre within 10km in percentage DLHS-4": "Not available",
      "Births to women aged 15-19years out of Total births in percentage DLHS-4": "Not available",
      "Prevalence of Anaemia in women aged 15-49years in percentage DLHS-4": "Not available",
      "Marginal Workers Agricultural Labourers worked for 3 - 6 moths during last year - Persons": 12221,
      "Main Workers Household Industry - Males": 4913,
      "Scheduled Tribe Females": 11672,
      "Marginal Workers worked for 0 - 3 moths during last year - Males": 5935,
      "Marginal Workers Other worked for 3 - 6 moths during last year - Males": 18555,
      "Primary Net Enrolment Ratio in percentage DISE": 100,
      "Total": 78.63,
      "Mean age at marriage for boys DLHS-4": 29.4,
      "Number of District Hospitals  DLHS-4": "Not available",
      "0-6 Age Group Females": 46875,
      "Marginal Workers Agricultural Labourers worked for 0 - 3 moths during last year - Persons": 3160,
      "Marginal Workers Household Industry worked for 0 - 3 moths during last year - Males": 454,
      "Total Workers  Females": 57421,
      "Marginal Workers worked for 3 - 6 moths during last year - Females": 27022,
      "Institutional Deliveries in percentage DLHS-4": 87.4,
      "Marginal Workers Other - Males": 21669,
      "Total Workers  Males": 210202,
      "Main Workers - Females": 24465,
      "Primary Gross Enrolment Ratio in percentage DISE": 104.9,
      "Main Workers Cultivators - Persons": 51345,
      "Marginal Workers Household Industry worked for 0 - 3 moths during last year - Females": 2240,
      "Upper Primary Net Enrolment Ratio in percentage DISE": 78.4,
      "Primary New Government Schools since 2003 in percentage DISE": 5,
      "Tier": "Total",
      "Marginal Workers Household Industry - Females": 8425,
      "Primary Schools with electricity in percentage DISE": 10.9,
      "Main Workers Other - Persons": 117247,
      "Marginal Workers Household Industry worked for 3 - 6 moths during last year - Females": 6185,
      "Main Workers Cultivators - Males": 48028,
      "Main Workers Household Industry - Persons": 8578,
      "Marginal Workers Cultivators worked for 0 - 3 moths during last year - Persons": 1156,
      "Scheduled Caste Males": 30654,
      "Marginal Workers - Persons": 70850,
      "Deliveries at home conducted by skilled health personnel in percentage DLHS-4": 34.9,
      "Villages with Sub-Health Centres within 3km in percentage DLHS-4": "Not available",
      "Upper Primary New Government Schools since 2003 in percentage DISE": 0.5,
      "0-6 Age Group Males": 48458,
      "Primary Schools with drinking water facility in percentage DISE": 95.2,
      "Non Workers - Persons": 504016,
      "Person Literates": 531771,
      "State": "ASSAM",
      "Total Female Population": 375633,
      "Marginal Workers worked for 0 - 3 moths during last year - Persons": 11869,
      "Marginal Workers Cultivators - Females": 2354,
      "Marginal Workers Other - Persons": 38020,
      "Sex Ratio": 949,
      "Scheduled Tribe Persons": 23364,
      "Marginal Workers Household Industry worked for 3 - 6 moths during last year - Males": 1845,
      "Marginal Workers Agricultural Labourers - Females": 5826,
      "Mean age at marriage for girls DLHS-4": 23.2,
      "Households with solar energy as main source of lighting  Houselisting and Housing Census Data Tables- District Level , Census of India__4": 533,
      "District": "NALBARI",
      "Households receiving treated tap water within premises in percentage Houselisting and Housing Census Data Tables- District Level , Census of India__1": 1.120113733,
      "Total Workers  Persons": 267623,
      "Households receiving treated tap water within premises  Houselisting and Housing Census Data Tables- District Level , Census of India__4": 2017,
      "Primary Female Teachers in percentage DISE": 29.1,
      "Number of Households": 155248,
      "Main Workers Agricultural Labourers - Persons": 19603
    }
  ],
  "Rural": [
    {
      "Marginal Workers Agricultural Labourers - Persons": 14845,
      "Marginal Workers Other - Females": 15100,
      "Marginal Workers Other worked for 0 - 3 moths during last year - Females": 1629,
      "Upper Primary Schools with boys toilet in percentage DISE": "NA",
      "Total Population": 688909,
      "Households with electricity as main source of lighting in percentage Houselisting and Housing Census Data Tables- District Level , Census of India": 39.50769767,
      "Primary Girl's Enrolment in percentage DISE": "NA",
      "Marginal Workers worked for 3 - 6 moths during last year - Males": 29517,
      "Prevalence of Acute illness in percentage DLHS-4": "Not available",
      "Main Workers - Persons": 174337,
      "Main Workers Cultivators - Females": 3283,
      "Marginal Workers Agricultural Labourers worked for 3 - 6 moths during last year - Females": 4362,
      "Marginal Workers Other worked for 0 - 3 moths during last year - Males": 2709,
      "Upper Primary Schools with drinking water facility in percentage DISE": "NA",
      "Primary Schools with girls toilet in percentage DISE": "NA",
      "Marginal Workers worked for 3 - 6 moths during last year - Persons": 55154,
      "Upper Primary Drop Out Rate in percentage DISE": "NA",
      "Prevalence of Anaemia in pregnant women aged 15-49years in percentage DLHS-4": "Not available",
      "Current use of any modern method of family planning in percentage DLHS-4": 44.2,
      "Marginal Workers Agricultural Labourers - Males": 9124,
      "Upper Primary Female Teachers in percentage DISE": "NA",
      "Marginal Workers - Females": 31316,
      "Marginal Workers Other worked for 3 - 6 moths during last year - Persons": 30123,
      "Main Workers Agricultural Labourers - Females": 2126,
      "Marginal Workers Cultivators worked for 3 - 6 moths during last year - Females": 1756,
      "Households with no lighting  Houselisting and Housing Census Data Tables- District Level , Census of India__5": 156,
      "Prevalence of Severe Anaemia  in percentage DLHS-4": "Not available",
      "Total unmet need for family planning in percentage DLHS-4": 10.5,
      "Main Workers Other - Males": 84516,
      "Children who received full vaccination in percentage DLHS-4": "Not available",
      "Marginal Workers Household Industry - Persons": 10275,
      "Primary Pupil-Teacher Ratio in percentage DISE": "NA",
      "Marginal Workers Agricultural Labourers worked for 3 - 6 moths during last year - Males": 7479,
      "Scheduled Caste Females": 26557,
      "Marginal Workers Cultivators - Males": 4243,
      "Marginal Workers - Males": 34836,
      "Marginal Workers worked for 0 - 3 moths during last year - Females": 5679,
      "Households with main source of drinking water within premises in percentage Houselisting and Housing Census Data Tables- District Level , Census of India": 55.3156087,
      "Marginal Workers Household Industry worked for 3 - 6 moths during last year - Persons": 7757,
      "Upper Primary Girl's Enrolment in percentage DISE": "NA",
      "Prevalence of Severe Anaemia in women aged 15-49years in percentage DLHS-4": "Not available",
      "Marginal Workers Agricultural Labourers worked for 0 - 3 moths during last year - Males": 1645,
      "Households with electricity as main source of lighting  Houselisting and Housing Census Data Tables- District Level , Census of India__3": 54378,
      "Households with computer or laptop with internet connection in percentage": 0.77,
      "PHCs functioning on a 24x7hours basis in percentage DLHS-4": "Not applicable",
      "Non Workers - Males": 166063,
      "Total Households in District Houselisting and Housing Census Data Tables- District Level , Census of India": 137639,
      "Upper Primary Schools with girls toilet in percentage DISE": "NA",
      "Households with mobile phone in percentage": 50.34,
      "Households receiving untreated tap water within premises in percentage Houselisting and Housing Census Data Tables- District Level , Census of India__2": 0.25552954,
      "Marginal Workers Cultivators worked for 3 - 6 moths during last year - Males": 3677,
      "Prevalence of Anaemia  in percentage DLHS-4": "Not available",
      "Prevalence of Chronic illness in percentage DLHS-4": "Not available",
      "Households with solar energy as main source of lighting in percentage Houselisting and Housing Census Data Tables- District Level , Census of India__1": 0.374893744,
      "Marginal Workers Agricultural Labourers worked for 0 - 3 moths during last year - Females": 1359,
      "Main Workers - Males": 152778,
      "Female": "NA",
      "Sno": 166,
      "Marginal Workers Other worked for 3 - 6 moths during last year - Females": 13471,
      "Marginal Workers Cultivators worked for 0 - 3 moths during last year - Females": 572,
      "Scheduled Tribe Males": 11511,
      "Male Illiterates": 96537,
      "Prevalence of Severe Anaemia in pregnant women aged 15-49years in percentage DLHS-4": "Not available",
      "0-6 Age Group Persons": 87759,
      "Upper Primary Student-Classroom Ratio in percentage DISE": "NA",
      "Currently married men married below 21years of age in percentage DLHS-4": 4.5,
      "Male Literates": 257140,
      "Households with no lighting in percentage Houselisting and Housing Census Data Tables- District Level , Census of India__2": 0.113339969,
      "Primary Drop Out Rate in percentage DISE": "NA",
      "Marginal Workers Household Industry - Males": 2108,
      "Female Illiterates": 128161,
      "Main Workers Other - Females": 12605,
      "Marginal Workers Cultivators - Persons": 6571,
      "Upper Primary Gross Enrolment Ratio in percentage DISE": "NA",
      "Scheduled Caste Persons": 54232,
      "Marginal Workers Cultivators worked for 3 - 6 moths during last year - Persons": 5433,
      "Households with landline phone in percentage": 2.17,
      "Total Households in District  Houselisting and Housing Census Data Tables- District Level , Census of India": 137639,
      "Upper Primary Pupil-Teacher Ratio in percentage DISE": "NA",
      "Primary Student-Classroom Ratio in percentage DISE": "NA",
      "Primary Schools with boys toilet in percentage DISE": "NA",
      "Mean number of children ever born to women aged 40-49years  DLHS-4": "Not available",
      "Households receiving untreated tap water within premises  Houselisting and Housing Census Data Tables- District Level , Census of India__5": 430,
      "Marginal Workers Household Industry worked for 0 - 3 moths during last year - Persons": 2518,
      "Total Male Population": 353677,
      "Non Workers - Females": 282357,
      "Current use of family planning methods in percentage DLHS-4": 71.4,
      "Households with main source of drinking water within premises  Houselisting and Housing Census Data Tables- District Level , Census of India__3": 93084,
      "Main Workers Agricultural Labourers - Males": 16805,
      "Marginal Workers Other worked for 0 - 3 moths during last year - Persons": 4338,
      "Currently married women married below 18years of age in percentage DLHS-4": 3.8,
      "Person Illiterates": 224698,
      "Main Workers Household Industry - Females": 3545,
      "Female Literates": 207071,
      "Marginal Workers Cultivators worked for 0 - 3 moths during last year - Males": 566,
      "Male": "NA",
      "Households with improved source of drinking water in percentage DLHS-4": "Not available",
      "Upper Primary Schools with electricity in percentage DISE": "NA",
      "Households with electricity in percentage DLHS-4": "Not available",
      "Villages with Primary Health Centre within 10km in percentage DLHS-4": "Not applicable",
      "Births to women aged 15-19years out of Total births in percentage DLHS-4": "Not available",
      "Prevalence of Anaemia in women aged 15-49years in percentage DLHS-4": "Not available",
      "Marginal Workers Agricultural Labourers worked for 3 - 6 moths during last year - Persons": 11841,
      "Main Workers Household Industry - Males": 4473,
      "Scheduled Tribe Females": 11492,
      "Marginal Workers worked for 0 - 3 moths during last year - Males": 5319,
      "Marginal Workers Other worked for 3 - 6 moths during last year - Males": 16652,
      "Primary Net Enrolment Ratio in percentage DISE": "NA",
      "Total": "NA",
      "Mean age at marriage for boys DLHS-4": 29.3,
      "Number of District Hospitals  DLHS-4": "Not applicable",
      "0-6 Age Group Females": 43170,
      "Marginal Workers Agricultural Labourers worked for 0 - 3 moths during last year - Persons": 3004,
      "Marginal Workers Household Industry worked for 0 - 3 moths during last year - Males": 399,
      "Total Workers  Females": 52875,
      "Marginal Workers worked for 3 - 6 moths during last year - Females": 25637,
      "Institutional Deliveries in percentage DLHS-4": 87.3,
      "Marginal Workers Other - Males": 19361,
      "Total Workers  Males": 187614,
      "Main Workers - Females": 21559,
      "Primary Gross Enrolment Ratio in percentage DISE": "NA",
      "Main Workers Cultivators - Persons": 50267,
      "Marginal Workers Household Industry worked for 0 - 3 moths during last year - Females": 2119,
      "Upper Primary Net Enrolment Ratio in percentage DISE": "NA",
      "Primary New Government Schools since 2003 in percentage DISE": "NA",
      "Tier": "Rural",
      "Marginal Workers Household Industry - Females": 8167,
      "Primary Schools with electricity in percentage DISE": "NA",
      "Main Workers Other - Persons": 97121,
      "Marginal Workers Household Industry worked for 3 - 6 moths during last year - Females": 6048,
      "Main Workers Cultivators - Males": 46984,
      "Main Workers Household Industry - Persons": 8018,
      "Marginal Workers Cultivators worked for 0 - 3 moths during last year - Persons": 1138,
      "Scheduled Caste Males": 27675,
      "Marginal Workers - Persons": 66152,
      "Deliveries at home conducted by skilled health personnel in percentage DLHS-4": 34.8,
      "Villages with Sub-Health Centres within 3km in percentage DLHS-4": "Not applicable",
      "Upper Primary New Government Schools since 2003 in percentage DISE": "NA",
      "0-6 Age Group Males": 44589,
      "Primary Schools with drinking water facility in percentage DISE": "NA",
      "Non Workers - Persons": 448420,
      "Person Literates": 464211,
      "State": "ASSAM",
      "Total Female Population": 335232,
      "Marginal Workers worked for 0 - 3 moths during last year - Persons": 10998,
      "Marginal Workers Cultivators - Females": 2328,
      "Marginal Workers Other - Persons": 34461,
      "Sex Ratio": 948,
      "Scheduled Tribe Persons": 23003,
      "Marginal Workers Household Industry worked for 3 - 6 moths during last year - Males": 1709,
      "Marginal Workers Agricultural Labourers - Females": 5721,
      "Mean age at marriage for girls DLHS-4": 23.2,
      "Households with solar energy as main source of lighting  Houselisting and Housing Census Data Tables- District Level , Census of India__4": 516,
      "District": "NALBARI",
      "Households receiving treated tap water within premises in percentage Houselisting and Housing Census Data Tables- District Level , Census of India__1": 0.868800437,
      "Total Workers  Persons": 240489,
      "Households receiving treated tap water within premises  Houselisting and Housing Census Data Tables- District Level , Census of India__4": 1462,
      "Primary Female Teachers in percentage DISE": "NA",
      "Number of Households": 137601,
      "Main Workers Agricultural Labourers - Persons": 18931
    }
  ],
  "Urban": [
    {
      "Marginal Workers Agricultural Labourers - Persons": 536,
      "Marginal Workers Other - Females": 1251,
      "Marginal Workers Other worked for 0 - 3 moths during last year - Females": 116,
      "Upper Primary Schools with boys toilet in percentage DISE": "NA",
      "Total Population": 82730,
      "Households with electricity as main source of lighting in percentage Houselisting and Housing Census Data Tables- District Level , Census of India": 78.67103257,
      "Primary Girl's Enrolment in percentage DISE": "NA",
      "Marginal Workers worked for 3 - 6 moths during last year - Males": 2442,
      "Prevalence of Acute illness in percentage DLHS-4": "Not available",
      "Main Workers - Persons": 22436,
      "Main Workers Cultivators - Females": 34,
      "Marginal Workers Agricultural Labourers worked for 3 - 6 moths during last year - Females": 88,
      "Marginal Workers Other worked for 0 - 3 moths during last year - Males": 405,
      "Upper Primary Schools with drinking water facility in percentage DISE": "NA",
      "Primary Schools with girls toilet in percentage DISE": "NA",
      "Marginal Workers worked for 3 - 6 moths during last year - Persons": 3827,
      "Upper Primary Drop Out Rate in percentage DISE": "NA",
      "Prevalence of Anaemia in pregnant women aged 15-49years in percentage DLHS-4": "Not available",
      "Current use of any modern method of family planning in percentage DLHS-4": "-",
      "Marginal Workers Agricultural Labourers - Males": 431,
      "Upper Primary Female Teachers in percentage DISE": "NA",
      "Marginal Workers - Females": 1640,
      "Marginal Workers Other worked for 3 - 6 moths during last year - Persons": 3038,
      "Main Workers Agricultural Labourers - Females": 25,
      "Marginal Workers Cultivators worked for 3 - 6 moths during last year - Females": 25,
      "Households with no lighting  Houselisting and Housing Census Data Tables- District Level , Census of India__5": 33,
      "Prevalence of Severe Anaemia  in percentage DLHS-4": "Not available",
      "Total unmet need for family planning in percentage DLHS-4": "-",
      "Main Workers Other - Males": 17399,
      "Children who received full vaccination in percentage DLHS-4": "Not available",
      "Marginal Workers Household Industry - Persons": 449,
      "Primary Pupil-Teacher Ratio in percentage DISE": "NA",
      "Marginal Workers Agricultural Labourers worked for 3 - 6 moths during last year - Males": 292,
      "Scheduled Caste Females": 3005,
      "Marginal Workers Cultivators - Males": 128,
      "Marginal Workers - Males": 3058,
      "Marginal Workers worked for 0 - 3 moths during last year - Females": 255,
      "Households with main source of drinking water within premises in percentage Houselisting and Housing Census Data Tables- District Level , Census of India": 88.42533706,
      "Marginal Workers Household Industry worked for 3 - 6 moths during last year - Persons": 273,
      "Upper Primary Girl's Enrolment in percentage DISE": "NA",
      "Prevalence of Severe Anaemia in women aged 15-49years in percentage DLHS-4": "Not available",
      "Marginal Workers Agricultural Labourers worked for 0 - 3 moths during last year - Males": 139,
      "Households with electricity as main source of lighting  Houselisting and Housing Census Data Tables- District Level , Census of India__3": 13935,
      "Households with computer or laptop with internet connection in percentage": 3.26,
      "PHCs functioning on a 24x7hours basis in percentage DLHS-4": 0,
      "Non Workers - Males": 19741,
      "Total Households in District Houselisting and Housing Census Data Tables- District Level , Census of India": 17713,
      "Upper Primary Schools with girls toilet in percentage DISE": "NA",
      "Households with mobile phone in percentage": 62.69,
      "Households receiving untreated tap water within premises in percentage Houselisting and Housing Census Data Tables- District Level , Census of India__2": 2.264054948,
      "Marginal Workers Cultivators worked for 3 - 6 moths during last year - Males": 111,
      "Prevalence of Anaemia  in percentage DLHS-4": "Not available",
      "Prevalence of Chronic illness in percentage DLHS-4": "Not available",
      "Households with solar energy as main source of lighting in percentage Houselisting and Housing Census Data Tables- District Level , Census of India__1": 0.096,
      "Marginal Workers Agricultural Labourers worked for 0 - 3 moths during last year - Females": 17,
      "Main Workers - Males": 19530,
      "Female": "NA",
      "Sno": 168,
      "Marginal Workers Other worked for 3 - 6 moths during last year - Females": 1135,
      "Marginal Workers Cultivators worked for 0 - 3 moths during last year - Females": 1,
      "Scheduled Tribe Males": 181,
      "Male Illiterates": 6285,
      "Prevalence of Severe Anaemia in pregnant women aged 15-49years in percentage DLHS-4": "Not available",
      "0-6 Age Group Persons": 7574,
      "Upper Primary Student-Classroom Ratio in percentage DISE": "NA",
      "Currently married men married below 21years of age in percentage DLHS-4": "-",
      "Male Literates": 36044,
      "Households with no lighting in percentage Houselisting and Housing Census Data Tables- District Level , Census of India__2": 0.186303845,
      "Primary Drop Out Rate in percentage DISE": "NA",
      "Marginal Workers Household Industry - Males": 191,
      "Female Illiterates": 8885,
      "Main Workers Other - Females": 2727,
      "Marginal Workers Cultivators - Persons": 154,
      "Upper Primary Gross Enrolment Ratio in percentage DISE": "NA",
      "Scheduled Caste Persons": 5984,
      "Marginal Workers Cultivators worked for 3 - 6 moths during last year - Persons": 136,
      "Households with landline phone in percentage": 4.31,
      "Total Households in District  Houselisting and Housing Census Data Tables- District Level , Census of India": 17713,
      "Upper Primary Pupil-Teacher Ratio in percentage DISE": "NA",
      "Primary Student-Classroom Ratio in percentage DISE": "NA",
      "Primary Schools with boys toilet in percentage DISE": "NA",
      "Mean number of children ever born to women aged 40-49years  DLHS-4": "Not available",
      "Households receiving untreated tap water within premises  Houselisting and Housing Census Data Tables- District Level , Census of India__5": 267,
      "Marginal Workers Household Industry worked for 0 - 3 moths during last year - Persons": 176,
      "Total Male Population": 42329,
      "Non Workers - Females": 35855,
      "Current use of family planning methods in percentage DLHS-4": "-",
      "Households with main source of drinking water within premises  Houselisting and Housing Census Data Tables- District Level , Census of India__3": 10428,
      "Main Workers Agricultural Labourers - Males": 647,
      "Marginal Workers Other worked for 0 - 3 moths during last year - Persons": 521,
      "Currently married women married below 18years of age in percentage DLHS-4": "-",
      "Person Illiterates": 15170,
      "Main Workers Household Industry - Females": 120,
      "Female Literates": 31516,
      "Marginal Workers Cultivators worked for 0 - 3 moths during last year - Males": 17,
      "Male": "NA",
      "Households with improved source of drinking water in percentage DLHS-4": "Not available",
      "Upper Primary Schools with electricity in percentage DISE": "NA",
      "Households with electricity in percentage DLHS-4": "Not available",
      "Villages with Primary Health Centre within 10km in percentage DLHS-4": 0,
      "Births to women aged 15-19years out of Total births in percentage DLHS-4": "Not available",
      "Prevalence of Anaemia in women aged 15-49years in percentage DLHS-4": "Not available",
      "Marginal Workers Agricultural Labourers worked for 3 - 6 moths during last year - Persons": 380,
      "Main Workers Household Industry - Males": 440,
      "Scheduled Tribe Females": 180,
      "Marginal Workers worked for 0 - 3 moths during last year - Males": 616,
      "Marginal Workers Other worked for 3 - 6 moths during last year - Males": 1903,
      "Primary Net Enrolment Ratio in percentage DISE": "NA",
      "Total": "NA",
      "Mean age at marriage for boys DLHS-4": "-",
      "Number of District Hospitals  DLHS-4": 0,
      "0-6 Age Group Females": 3705,
      "Marginal Workers Agricultural Labourers worked for 0 - 3 moths during last year - Persons": 156,
      "Marginal Workers Household Industry worked for 0 - 3 moths during last year - Males": 55,
      "Total Workers  Females": 4546,
      "Marginal Workers worked for 3 - 6 moths during last year - Females": 1385,
      "Institutional Deliveries in percentage DLHS-4": "-",
      "Marginal Workers Other - Males": 2308,
      "Total Workers  Males": 22588,
      "Main Workers - Females": 2906,
      "Primary Gross Enrolment Ratio in percentage DISE": "NA",
      "Main Workers Cultivators - Persons": 1078,
      "Marginal Workers Household Industry worked for 0 - 3 moths during last year - Females": 121,
      "Upper Primary Net Enrolment Ratio in percentage DISE": "NA",
      "Primary New Government Schools since 2003 in percentage DISE": "NA",
      "Tier": "Urban",
      "Marginal Workers Household Industry - Females": 258,
      "Primary Schools with electricity in percentage DISE": "NA",
      "Main Workers Other - Persons": 20126,
      "Marginal Workers Household Industry worked for 3 - 6 moths during last year - Females": 137,
      "Main Workers Cultivators - Males": 1044,
      "Main Workers Household Industry - Persons": 560,
      "Marginal Workers Cultivators worked for 0 - 3 moths during last year - Persons": 18,
      "Scheduled Caste Males": 2979,
      "Marginal Workers - Persons": 4698,
      "Deliveries at home conducted by skilled health personnel in percentage DLHS-4": "-",
      "Villages with Sub-Health Centres within 3km in percentage DLHS-4": 0,
      "Upper Primary New Government Schools since 2003 in percentage DISE": "NA",
      "0-6 Age Group Males": 3869,
      "Primary Schools with drinking water facility in percentage DISE": "NA",
      "Non Workers - Persons": 55596,
      "Person Literates": 67560,
      "State": "ASSAM",
      "Total Female Population": 40401,
      "Marginal Workers worked for 0 - 3 moths during last year - Persons": 871,
      "Marginal Workers Cultivators - Females": 26,
      "Marginal Workers Other - Persons": 3559,
      "Sex Ratio": 954,
      "Scheduled Tribe Persons": 361,
      "Marginal Workers Household Industry worked for 3 - 6 moths during last year - Males": 136,
      "Marginal Workers Agricultural Labourers - Females": 105,
      "Mean age at marriage for girls DLHS-4": "-",
      "Households with solar energy as main source of lighting  Houselisting and Housing Census Data Tables- District Level , Census of India__4": 17,
      "District": "NALBARI",
      "Households receiving treated tap water within premises in percentage Houselisting and Housing Census Data Tables- District Level , Census of India__1": 4.706181633,
      "Total Workers  Persons": 27134,
      "Households receiving treated tap water within premises  Houselisting and Housing Census Data Tables- District Level , Census of India__4": 555,
      "Primary Female Teachers in percentage DISE": "NA",
      "Number of Households": 17647,
      "Main Workers Agricultural Labourers - Persons": 672
    }
  ]
}