{
  "Total": [
    {
      "Marginal Workers Agricultural Labourers - Persons": 204370,
      "Marginal Workers Other - Females": 18900,
      "Marginal Workers Other worked for 0 - 3 moths during last year - Females": 8787,
      "Upper Primary Schools with boys toilet in percentage DISE": 80.6,
      "Total Population": 1413199,
      "Households with electricity as main source of lighting in percentage Houselisting and Housing Census Data Tables- District Level , Census of India": 51.38279114,
      "Primary Girl's Enrolment in percentage DISE": 49.4,
      "Marginal Workers worked for 3 - 6 moths during last year - Males": 93595,
      "Prevalence of Acute illness in percentage DLHS-4": "Not available",
      "Main Workers - Persons": 394824,
      "Main Workers Cultivators - Females": 45764,
      "Marginal Workers Agricultural Labourers worked for 3 - 6 moths during last year - Females": 111327,
      "Marginal Workers Other worked for 0 - 3 moths during last year - Males": 5968,
      "Upper Primary Schools with drinking water facility in percentage DISE": 92.8,
      "Primary Schools with girls toilet in percentage DISE": 89.6,
      "Marginal Workers worked for 3 - 6 moths during last year - Persons": 262839,
      "Upper Primary Drop Out Rate in percentage DISE": 3.4,
      "Prevalence of Anaemia in pregnant women aged 15-49years in percentage DLHS-4": "Not available",
      "Current use of any modern method of family planning in percentage DLHS-4": 48.2,
      "Marginal Workers Agricultural Labourers - Males": 65620,
      "Upper Primary Female Teachers in percentage DISE": 37.65,
      "Marginal Workers - Females": 215326,
      "Marginal Workers Other worked for 3 - 6 moths during last year - Persons": 19734,
      "Main Workers Agricultural Labourers - Females": 33935,
      "Marginal Workers Cultivators worked for 3 - 6 moths during last year - Females": 46006,
      "Households with no lighting  Houselisting and Housing Census Data Tables- District Level , Census of India__5": 748,
      "Prevalence of Severe Anaemia  in percentage DLHS-4": "Not available",
      "Total unmet need for family planning in percentage DLHS-4": 12.3,
      "Main Workers Other - Males": 84060,
      "Children who received full vaccination in percentage DLHS-4": "Not available",
      "Marginal Workers Household Industry - Persons": 3765,
      "Primary Pupil-Teacher Ratio in percentage DISE": 19,
      "Marginal Workers Agricultural Labourers worked for 3 - 6 moths during last year - Males": 55526,
      "Scheduled Caste Females": 19148,
      "Marginal Workers Cultivators - Males": 33666,
      "Marginal Workers - Males": 116381,
      "Marginal Workers worked for 0 - 3 moths during last year - Females": 46082,
      "Households with main source of drinking water within premises in percentage Houselisting and Housing Census Data Tables- District Level , Census of India": 11.55938424,
      "Marginal Workers Household Industry worked for 3 - 6 moths during last year - Persons": 2958,
      "Upper Primary Girl's Enrolment in percentage DISE": 50,
      "Prevalence of Severe Anaemia in women aged 15-49years in percentage DLHS-4": "Not available",
      "Marginal Workers Agricultural Labourers worked for 0 - 3 moths during last year - Males": 10094,
      "Households with electricity as main source of lighting  Houselisting and Housing Census Data Tables- District Level , Census of India__3": 157646,
      "Households with computer or laptop with internet connection in percentage": 0.58,
      "PHCs functioning on a 24x7hours basis in percentage DLHS-4": "Not available",
      "Non Workers - Males": 294123,
      "Total Households in District Houselisting and Housing Census Data Tables- District Level , Census of India": 306807,
      "Upper Primary Schools with girls toilet in percentage DISE": 90.9,
      "Households with mobile phone in percentage": 16.91,
      "Households receiving untreated tap water within premises in percentage Houselisting and Housing Census Data Tables- District Level , Census of India__2": 3.166811709,
      "Marginal Workers Cultivators worked for 3 - 6 moths during last year - Males": 27288,
      "Prevalence of Anaemia  in percentage DLHS-4": "Not available",
      "Prevalence of Chronic illness in percentage DLHS-4": "Not available",
      "Households with solar energy as main source of lighting in percentage Houselisting and Housing Census Data Tables- District Level , Census of India__1": 0.89372146,
      "Marginal Workers Agricultural Labourers worked for 0 - 3 moths during last year - Females": 27423,
      "Main Workers - Males": 287983,
      "Female": 44.26,
      "Sno": 308,
      "Marginal Workers Other worked for 3 - 6 moths during last year - Females": 10113,
      "Marginal Workers Cultivators worked for 0 - 3 moths during last year - Females": 9411,
      "Scheduled Tribe Males": 456841,
      "Male Illiterates": 316152,
      "Prevalence of Severe Anaemia in pregnant women aged 15-49years in percentage DLHS-4": "Not available",
      "0-6 Age Group Persons": 216713,
      "Upper Primary Student-Classroom Ratio in percentage DISE": 20,
      "Currently married men married below 21years of age in percentage DLHS-4": 11.7,
      "Male Literates": 382335,
      "Households with no lighting in percentage Houselisting and Housing Census Data Tables- District Level , Census of India__2": 0.243801478,
      "Primary Drop Out Rate in percentage DISE": 2.3,
      "Marginal Workers Household Industry - Males": 1506,
      "Female Illiterates": 446184,
      "Main Workers Other - Females": 24861,
      "Marginal Workers Cultivators - Persons": 89083,
      "Upper Primary Gross Enrolment Ratio in percentage DISE": 48.4,
      "Scheduled Caste Persons": 37963,
      "Marginal Workers Cultivators worked for 3 - 6 moths during last year - Persons": 73294,
      "Households with landline phone in percentage": 0.84,
      "Total Households in District  Houselisting and Housing Census Data Tables- District Level , Census of India": 306807,
      "Upper Primary Pupil-Teacher Ratio in percentage DISE": 14,
      "Primary Student-Classroom Ratio in percentage DISE": 19,
      "Primary Schools with boys toilet in percentage DISE": 83.6,
      "Mean number of children ever born to women aged 40-49years  DLHS-4": "Not available",
      "Households receiving untreated tap water within premises  Houselisting and Housing Census Data Tables- District Level , Census of India__5": 9716,
      "Marginal Workers Household Industry worked for 0 - 3 moths during last year - Persons": 807,
      "Total Male Population": 698487,
      "Non Workers - Females": 392545,
      "Current use of family planning methods in percentage DLHS-4": 66.4,
      "Households with main source of drinking water within premises  Houselisting and Housing Census Data Tables- District Level , Census of India__3": 35465,
      "Main Workers Agricultural Labourers - Males": 49523,
      "Marginal Workers Other worked for 0 - 3 moths during last year - Persons": 14755,
      "Currently married women married below 18years of age in percentage DLHS-4": 1.4,
      "Person Illiterates": 762336,
      "Main Workers Household Industry - Females": 2281,
      "Female Literates": 268528,
      "Marginal Workers Cultivators worked for 0 - 3 moths during last year - Males": 6378,
      "Male": 64.82,
      "Households with improved source of drinking water in percentage DLHS-4": "Not available",
      "Upper Primary Schools with electricity in percentage DISE": 32.4,
      "Households with electricity in percentage DLHS-4": "Not available",
      "Villages with Primary Health Centre within 10km in percentage DLHS-4": "Not available",
      "Births to women aged 15-19years out of Total births in percentage DLHS-4": "Not available",
      "Prevalence of Anaemia in women aged 15-49years in percentage DLHS-4": "Not available",
      "Marginal Workers Agricultural Labourers worked for 3 - 6 moths during last year - Persons": 166853,
      "Main Workers Household Industry - Males": 4775,
      "Scheduled Tribe Females": 474939,
      "Marginal Workers worked for 0 - 3 moths during last year - Males": 22786,
      "Marginal Workers Other worked for 3 - 6 moths during last year - Males": 9621,
      "Primary Net Enrolment Ratio in percentage DISE": 52.4,
      "Total": 54.4,
      "Mean age at marriage for boys DLHS-4": 24.4,
      "Number of District Hospitals  DLHS-4": "Not available",
      "0-6 Age Group Females": 108051,
      "Marginal Workers Agricultural Labourers worked for 0 - 3 moths during last year - Persons": 37517,
      "Marginal Workers Household Industry worked for 0 - 3 moths during last year - Males": 346,
      "Total Workers  Females": 322167,
      "Marginal Workers worked for 3 - 6 moths during last year - Females": 169244,
      "Institutional Deliveries in percentage DLHS-4": 67.1,
      "Marginal Workers Other - Males": 15589,
      "Total Workers  Males": 404364,
      "Main Workers - Females": 106841,
      "Primary Gross Enrolment Ratio in percentage DISE": 59.9,
      "Main Workers Cultivators - Persons": 195389,
      "Marginal Workers Household Industry worked for 0 - 3 moths during last year - Females": 461,
      "Upper Primary Net Enrolment Ratio in percentage DISE": 35.3,
      "Primary New Government Schools since 2003 in percentage DISE": 26.2,
      "Tier": "Total",
      "Marginal Workers Household Industry - Females": 2259,
      "Primary Schools with electricity in percentage DISE": 19.1,
      "Main Workers Other - Persons": 108921,
      "Marginal Workers Household Industry worked for 3 - 6 moths during last year - Females": 1798,
      "Main Workers Cultivators - Males": 149625,
      "Main Workers Household Industry - Persons": 7056,
      "Marginal Workers Cultivators worked for 0 - 3 moths during last year - Persons": 15789,
      "Scheduled Caste Males": 18815,
      "Marginal Workers - Persons": 331707,
      "Deliveries at home conducted by skilled health personnel in percentage DLHS-4": 51,
      "Villages with Sub-Health Centres within 3km in percentage DLHS-4": "Not available",
      "Upper Primary New Government Schools since 2003 in percentage DISE": 73.2,
      "0-6 Age Group Males": 108662,
      "Primary Schools with drinking water facility in percentage DISE": 93.4,
      "Non Workers - Persons": 686668,
      "Person Literates": 650863,
      "State": "CHHATTISGARH",
      "Total Female Population": 714712,
      "Marginal Workers worked for 0 - 3 moths during last year - Persons": 68868,
      "Marginal Workers Cultivators - Females": 55417,
      "Marginal Workers Other - Persons": 34489,
      "Sex Ratio": 1023,
      "Scheduled Tribe Persons": 931780,
      "Marginal Workers Household Industry worked for 3 - 6 moths during last year - Males": 1160,
      "Marginal Workers Agricultural Labourers - Females": 138750,
      "Mean age at marriage for girls DLHS-4": 21.6,
      "Households with solar energy as main source of lighting  Houselisting and Housing Census Data Tables- District Level , Census of India__4": 2742,
      "District": "BASTAR",
      "Households receiving treated tap water within premises in percentage Houselisting and Housing Census Data Tables- District Level , Census of India__1": 4.838546709,
      "Total Workers  Persons": 726531,
      "Households receiving treated tap water within premises  Houselisting and Housing Census Data Tables- District Level , Census of India__4": 14845,
      "Primary Female Teachers in percentage DISE": 34.93,
      "Number of Households": 311538,
      "Main Workers Agricultural Labourers - Persons": 83458
    }
  ],
  "Rural": [
    {
      "Marginal Workers Agricultural Labourers - Persons": 201188,
      "Marginal Workers Other - Females": 16495,
      "Marginal Workers Other worked for 0 - 3 moths during last year - Females": 8158,
      "Upper Primary Schools with boys toilet in percentage DISE": "NA",
      "Total Population": 1219705,
      "Households with electricity as main source of lighting in percentage Houselisting and Housing Census Data Tables- District Level , Census of India": 45.7599638,
      "Primary Girl's Enrolment in percentage DISE": "NA",
      "Marginal Workers worked for 3 - 6 moths during last year - Males": 89677,
      "Prevalence of Acute illness in percentage DLHS-4": "Not available",
      "Main Workers - Persons": 331587,
      "Main Workers Cultivators - Females": 44822,
      "Marginal Workers Agricultural Labourers worked for 3 - 6 moths during last year - Females": 109592,
      "Marginal Workers Other worked for 0 - 3 moths during last year - Males": 5186,
      "Upper Primary Schools with drinking water facility in percentage DISE": "NA",
      "Primary Schools with girls toilet in percentage DISE": "NA",
      "Marginal Workers worked for 3 - 6 moths during last year - Persons": 254091,
      "Upper Primary Drop Out Rate in percentage DISE": "NA",
      "Prevalence of Anaemia in pregnant women aged 15-49years in percentage DLHS-4": "Not available",
      "Current use of any modern method of family planning in percentage DLHS-4": 47.7,
      "Marginal Workers Agricultural Labourers - Males": 64610,
      "Upper Primary Female Teachers in percentage DISE": "NA",
      "Marginal Workers - Females": 209013,
      "Marginal Workers Other worked for 3 - 6 moths during last year - Persons": 15412,
      "Main Workers Agricultural Labourers - Females": 32773,
      "Marginal Workers Cultivators worked for 3 - 6 moths during last year - Females": 44791,
      "Households with no lighting  Houselisting and Housing Census Data Tables- District Level , Census of India__5": 622,
      "Prevalence of Severe Anaemia  in percentage DLHS-4": "Not available",
      "Total unmet need for family planning in percentage DLHS-4": 11.1,
      "Main Workers Other - Males": 41391,
      "Children who received full vaccination in percentage DLHS-4": "Not available",
      "Marginal Workers Household Industry - Persons": 3544,
      "Primary Pupil-Teacher Ratio in percentage DISE": "NA",
      "Marginal Workers Agricultural Labourers worked for 3 - 6 moths during last year - Males": 54700,
      "Scheduled Caste Females": 13042,
      "Marginal Workers Cultivators - Males": 32908,
      "Marginal Workers - Males": 111190,
      "Marginal Workers worked for 0 - 3 moths during last year - Females": 44599,
      "Households with main source of drinking water within premises in percentage Houselisting and Housing Census Data Tables- District Level , Census of India": 5.316541609,
      "Marginal Workers Household Industry worked for 3 - 6 moths during last year - Persons": 2778,
      "Upper Primary Girl's Enrolment in percentage DISE": "NA",
      "Prevalence of Severe Anaemia in women aged 15-49years in percentage DLHS-4": "Not available",
      "Marginal Workers Agricultural Labourers worked for 0 - 3 moths during last year - Males": 9910,
      "Households with electricity as main source of lighting  Houselisting and Housing Census Data Tables- District Level , Census of India__3": 121360,
      "Households with computer or laptop with internet connection in percentage": 0.17,
      "PHCs functioning on a 24x7hours basis in percentage DLHS-4": "Not applicable",
      "Non Workers - Males": 250013,
      "Total Households in District Houselisting and Housing Census Data Tables- District Level , Census of India": 265210,
      "Upper Primary Schools with girls toilet in percentage DISE": "NA",
      "Households with mobile phone in percentage": 11.4,
      "Households receiving untreated tap water within premises in percentage Houselisting and Housing Census Data Tables- District Level , Census of India__2": 1.071226575,
      "Marginal Workers Cultivators worked for 3 - 6 moths during last year - Males": 26818,
      "Prevalence of Anaemia  in percentage DLHS-4": "Not available",
      "Prevalence of Chronic illness in percentage DLHS-4": "Not available",
      "Households with solar energy as main source of lighting in percentage Houselisting and Housing Census Data Tables- District Level , Census of India__1": 1.022208816,
      "Marginal Workers Agricultural Labourers worked for 0 - 3 moths during last year - Females": 26986,
      "Main Workers - Males": 239449,
      "Female": "NA",
      "Sno": 307,
      "Marginal Workers Other worked for 3 - 6 moths during last year - Females": 8337,
      "Marginal Workers Cultivators worked for 0 - 3 moths during last year - Females": 9016,
      "Scheduled Tribe Males": 431157,
      "Male Illiterates": 294754,
      "Prevalence of Severe Anaemia in pregnant women aged 15-49years in percentage DLHS-4": "Not available",
      "0-6 Age Group Persons": 194321,
      "Upper Primary Student-Classroom Ratio in percentage DISE": "NA",
      "Currently married men married below 21years of age in percentage DLHS-4": 12.6,
      "Male Literates": 305898,
      "Households with no lighting in percentage Houselisting and Housing Census Data Tables- District Level , Census of India__2": 0.234531126,
      "Primary Drop Out Rate in percentage DISE": "NA",
      "Marginal Workers Household Industry - Males": 1411,
      "Female Illiterates": 413894,
      "Main Workers Other - Females": 12576,
      "Marginal Workers Cultivators - Persons": 86715,
      "Upper Primary Gross Enrolment Ratio in percentage DISE": "NA",
      "Scheduled Caste Persons": 25881,
      "Marginal Workers Cultivators worked for 3 - 6 moths during last year - Persons": 71609,
      "Households with landline phone in percentage": 0.57,
      "Total Households in District  Houselisting and Housing Census Data Tables- District Level , Census of India": 265210,
      "Upper Primary Pupil-Teacher Ratio in percentage DISE": "NA",
      "Primary Student-Classroom Ratio in percentage DISE": "NA",
      "Primary Schools with boys toilet in percentage DISE": "NA",
      "Mean number of children ever born to women aged 40-49years  DLHS-4": "Not available",
      "Households receiving untreated tap water within premises  Houselisting and Housing Census Data Tables- District Level , Census of India__5": 2841,
      "Marginal Workers Household Industry worked for 0 - 3 moths during last year - Persons": 766,
      "Total Male Population": 600652,
      "Non Workers - Females": 317902,
      "Current use of family planning methods in percentage DLHS-4": 67.6,
      "Households with main source of drinking water within premises  Houselisting and Housing Census Data Tables- District Level , Census of India__3": 14100,
      "Main Workers Agricultural Labourers - Males": 47856,
      "Marginal Workers Other worked for 0 - 3 moths during last year - Persons": 13344,
      "Currently married women married below 18years of age in percentage DLHS-4": 1.2,
      "Person Illiterates": 708648,
      "Main Workers Household Industry - Females": 1967,
      "Female Literates": 205159,
      "Marginal Workers Cultivators worked for 0 - 3 moths during last year - Males": 6090,
      "Male": "NA",
      "Households with improved source of drinking water in percentage DLHS-4": "Not available",
      "Upper Primary Schools with electricity in percentage DISE": "NA",
      "Households with electricity in percentage DLHS-4": "Not available",
      "Villages with Primary Health Centre within 10km in percentage DLHS-4": "Not applicable",
      "Births to women aged 15-19years out of Total births in percentage DLHS-4": "Not available",
      "Prevalence of Anaemia in women aged 15-49years in percentage DLHS-4": "Not available",
      "Marginal Workers Agricultural Labourers worked for 3 - 6 moths during last year - Persons": 164292,
      "Main Workers Household Industry - Males": 3915,
      "Scheduled Tribe Females": 449064,
      "Marginal Workers worked for 0 - 3 moths during last year - Males": 21513,
      "Marginal Workers Other worked for 3 - 6 moths during last year - Males": 7075,
      "Primary Net Enrolment Ratio in percentage DISE": "NA",
      "Total": "NA",
      "Mean age at marriage for boys DLHS-4": 24.1,
      "Number of District Hospitals  DLHS-4": "Not applicable",
      "0-6 Age Group Females": 97242,
      "Marginal Workers Agricultural Labourers worked for 0 - 3 moths during last year - Persons": 36896,
      "Marginal Workers Household Industry worked for 0 - 3 moths during last year - Males": 327,
      "Total Workers  Females": 301151,
      "Marginal Workers worked for 3 - 6 moths during last year - Females": 164414,
      "Institutional Deliveries in percentage DLHS-4": 66.4,
      "Marginal Workers Other - Males": 12261,
      "Total Workers  Males": 350639,
      "Main Workers - Females": 92138,
      "Primary Gross Enrolment Ratio in percentage DISE": "NA",
      "Main Workers Cultivators - Persons": 191109,
      "Marginal Workers Household Industry worked for 0 - 3 moths during last year - Females": 439,
      "Upper Primary Net Enrolment Ratio in percentage DISE": "NA",
      "Primary New Government Schools since 2003 in percentage DISE": "NA",
      "Tier": "Rural",
      "Marginal Workers Household Industry - Females": 2133,
      "Primary Schools with electricity in percentage DISE": "NA",
      "Main Workers Other - Persons": 53967,
      "Marginal Workers Household Industry worked for 3 - 6 moths during last year - Females": 1694,
      "Main Workers Cultivators - Males": 146287,
      "Main Workers Household Industry - Persons": 5882,
      "Marginal Workers Cultivators worked for 0 - 3 moths during last year - Persons": 15106,
      "Scheduled Caste Males": 12839,
      "Marginal Workers - Persons": 320203,
      "Deliveries at home conducted by skilled health personnel in percentage DLHS-4": 51.6,
      "Villages with Sub-Health Centres within 3km in percentage DLHS-4": "Not applicable",
      "Upper Primary New Government Schools since 2003 in percentage DISE": "NA",
      "0-6 Age Group Males": 97079,
      "Primary Schools with drinking water facility in percentage DISE": "NA",
      "Non Workers - Persons": 567915,
      "Person Literates": 511057,
      "State": "CHHATTISGARH",
      "Total Female Population": 619053,
      "Marginal Workers worked for 0 - 3 moths during last year - Persons": 66112,
      "Marginal Workers Cultivators - Females": 53807,
      "Marginal Workers Other - Persons": 28756,
      "Sex Ratio": 1031,
      "Scheduled Tribe Persons": 880221,
      "Marginal Workers Household Industry worked for 3 - 6 moths during last year - Males": 1084,
      "Marginal Workers Agricultural Labourers - Females": 136578,
      "Mean age at marriage for girls DLHS-4": 21.4,
      "Households with solar energy as main source of lighting  Houselisting and Housing Census Data Tables- District Level , Census of India__4": 2711,
      "District": "BASTAR",
      "Households receiving treated tap water within premises in percentage Houselisting and Housing Census Data Tables- District Level , Census of India__1": 0.933976849,
      "Total Workers  Persons": 651790,
      "Households receiving treated tap water within premises  Houselisting and Housing Census Data Tables- District Level , Census of India__4": 2477,
      "Primary Female Teachers in percentage DISE": "NA",
      "Number of Households": 268258,
      "Main Workers Agricultural Labourers - Persons": 80629
    }
  ],
  "Urban": [
    {
      "Marginal Workers Agricultural Labourers - Persons": 3182,
      "Marginal Workers Other - Females": 2405,
      "Marginal Workers Other worked for 0 - 3 moths during last year - Females": 629,
      "Upper Primary Schools with boys toilet in percentage DISE": "NA",
      "Total Population": 193494,
      "Households with electricity as main source of lighting in percentage Houselisting and Housing Census Data Tables- District Level , Census of India": 87.23225233,
      "Primary Girl's Enrolment in percentage DISE": "NA",
      "Marginal Workers worked for 3 - 6 moths during last year - Males": 3918,
      "Prevalence of Acute illness in percentage DLHS-4": "Not available",
      "Main Workers - Persons": 63237,
      "Main Workers Cultivators - Females": 942,
      "Marginal Workers Agricultural Labourers worked for 3 - 6 moths during last year - Females": 1735,
      "Marginal Workers Other worked for 0 - 3 moths during last year - Males": 782,
      "Upper Primary Schools with drinking water facility in percentage DISE": "NA",
      "Primary Schools with girls toilet in percentage DISE": "NA",
      "Marginal Workers worked for 3 - 6 moths during last year - Persons": 8748,
      "Upper Primary Drop Out Rate in percentage DISE": "NA",
      "Prevalence of Anaemia in pregnant women aged 15-49years in percentage DLHS-4": "Not available",
      "Current use of any modern method of family planning in percentage DLHS-4": 53.5,
      "Marginal Workers Agricultural Labourers - Males": 1010,
      "Upper Primary Female Teachers in percentage DISE": "NA",
      "Marginal Workers - Females": 6313,
      "Marginal Workers Other worked for 3 - 6 moths during last year - Persons": 4322,
      "Main Workers Agricultural Labourers - Females": 1162,
      "Marginal Workers Cultivators worked for 3 - 6 moths during last year - Females": 1215,
      "Households with no lighting  Houselisting and Housing Census Data Tables- District Level , Census of India__5": 126,
      "Prevalence of Severe Anaemia  in percentage DLHS-4": "Not available",
      "Total unmet need for family planning in percentage DLHS-4": 25.3,
      "Main Workers Other - Males": 42669,
      "Children who received full vaccination in percentage DLHS-4": "Not available",
      "Marginal Workers Household Industry - Persons": 221,
      "Primary Pupil-Teacher Ratio in percentage DISE": "NA",
      "Marginal Workers Agricultural Labourers worked for 3 - 6 moths during last year - Males": 826,
      "Scheduled Caste Females": 6106,
      "Marginal Workers Cultivators - Males": 758,
      "Marginal Workers - Males": 5191,
      "Marginal Workers worked for 0 - 3 moths during last year - Females": 1483,
      "Households with main source of drinking water within premises in percentage Houselisting and Housing Census Data Tables- District Level , Census of India": 51.36187706,
      "Marginal Workers Household Industry worked for 3 - 6 moths during last year - Persons": 180,
      "Upper Primary Girl's Enrolment in percentage DISE": "NA",
      "Prevalence of Severe Anaemia in women aged 15-49years in percentage DLHS-4": "Not available",
      "Marginal Workers Agricultural Labourers worked for 0 - 3 moths during last year - Males": 184,
      "Households with electricity as main source of lighting  Houselisting and Housing Census Data Tables- District Level , Census of India__3": 36286,
      "Households with computer or laptop with internet connection in percentage": 3.2,
      "PHCs functioning on a 24x7hours basis in percentage DLHS-4": 0,
      "Non Workers - Males": 44110,
      "Total Households in District Houselisting and Housing Census Data Tables- District Level , Census of India": 41597,
      "Upper Primary Schools with girls toilet in percentage DISE": "NA",
      "Households with mobile phone in percentage": 52.08,
      "Households receiving untreated tap water within premises in percentage Houselisting and Housing Census Data Tables- District Level , Census of India__2": 16.5276342,
      "Marginal Workers Cultivators worked for 3 - 6 moths during last year - Males": 470,
      "Prevalence of Anaemia  in percentage DLHS-4": "Not available",
      "Prevalence of Chronic illness in percentage DLHS-4": "Not available",
      "Households with solar energy as main source of lighting in percentage Houselisting and Housing Census Data Tables- District Level , Census of India__1": 0.0745,
      "Marginal Workers Agricultural Labourers worked for 0 - 3 moths during last year - Females": 437,
      "Main Workers - Males": 48534,
      "Female": "NA",
      "Sno": 309,
      "Marginal Workers Other worked for 3 - 6 moths during last year - Females": 1776,
      "Marginal Workers Cultivators worked for 0 - 3 moths during last year - Females": 395,
      "Scheduled Tribe Males": 25684,
      "Male Illiterates": 21398,
      "Prevalence of Severe Anaemia in pregnant women aged 15-49years in percentage DLHS-4": "Not available",
      "0-6 Age Group Persons": 22392,
      "Upper Primary Student-Classroom Ratio in percentage DISE": "NA",
      "Currently married men married below 21years of age in percentage DLHS-4": 5.3,
      "Male Literates": 76437,
      "Households with no lighting in percentage Houselisting and Housing Census Data Tables- District Level , Census of India__2": 0.30290646,
      "Primary Drop Out Rate in percentage DISE": "NA",
      "Marginal Workers Household Industry - Males": 95,
      "Female Illiterates": 32290,
      "Main Workers Other - Females": 12285,
      "Marginal Workers Cultivators - Persons": 2368,
      "Upper Primary Gross Enrolment Ratio in percentage DISE": "NA",
      "Scheduled Caste Persons": 12082,
      "Marginal Workers Cultivators worked for 3 - 6 moths during last year - Persons": 1685,
      "Households with landline phone in percentage": 2.57,
      "Total Households in District  Houselisting and Housing Census Data Tables- District Level , Census of India": 41597,
      "Upper Primary Pupil-Teacher Ratio in percentage DISE": "NA",
      "Primary Student-Classroom Ratio in percentage DISE": "NA",
      "Primary Schools with boys toilet in percentage DISE": "NA",
      "Mean number of children ever born to women aged 40-49years  DLHS-4": "Not available",
      "Households receiving untreated tap water within premises  Houselisting and Housing Census Data Tables- District Level , Census of India__5": 6875,
      "Marginal Workers Household Industry worked for 0 - 3 moths during last year - Persons": 41,
      "Total Male Population": 97835,
      "Non Workers - Females": 74643,
      "Current use of family planning methods in percentage DLHS-4": 53.5,
      "Households with main source of drinking water within premises  Houselisting and Housing Census Data Tables- District Level , Census of India__3": 21365,
      "Main Workers Agricultural Labourers - Males": 1667,
      "Marginal Workers Other worked for 0 - 3 moths during last year - Persons": 1411,
      "Currently married women married below 18years of age in percentage DLHS-4": 3.6,
      "Person Illiterates": 53688,
      "Main Workers Household Industry - Females": 314,
      "Female Literates": 63369,
      "Marginal Workers Cultivators worked for 0 - 3 moths during last year - Males": 288,
      "Male": "NA",
      "Households with improved source of drinking water in percentage DLHS-4": "Not available",
      "Upper Primary Schools with electricity in percentage DISE": "NA",
      "Households with electricity in percentage DLHS-4": "Not available",
      "Villages with Primary Health Centre within 10km in percentage DLHS-4": 0,
      "Births to women aged 15-19years out of Total births in percentage DLHS-4": "Not available",
      "Prevalence of Anaemia in women aged 15-49years in percentage DLHS-4": "Not available",
      "Marginal Workers Agricultural Labourers worked for 3 - 6 moths during last year - Persons": 2561,
      "Main Workers Household Industry - Males": 860,
      "Scheduled Tribe Females": 25875,
      "Marginal Workers worked for 0 - 3 moths during last year - Males": 1273,
      "Marginal Workers Other worked for 3 - 6 moths during last year - Males": 2546,
      "Primary Net Enrolment Ratio in percentage DISE": "NA",
      "Total": "NA",
      "Mean age at marriage for boys DLHS-4": 26,
      "Number of District Hospitals  DLHS-4": 0,
      "0-6 Age Group Females": 10809,
      "Marginal Workers Agricultural Labourers worked for 0 - 3 moths during last year - Persons": 621,
      "Marginal Workers Household Industry worked for 0 - 3 moths during last year - Males": 19,
      "Total Workers  Females": 21016,
      "Marginal Workers worked for 3 - 6 moths during last year - Females": 4830,
      "Institutional Deliveries in percentage DLHS-4": 74.9,
      "Marginal Workers Other - Males": 3328,
      "Total Workers  Males": 53725,
      "Main Workers - Females": 14703,
      "Primary Gross Enrolment Ratio in percentage DISE": "NA",
      "Main Workers Cultivators - Persons": 4280,
      "Marginal Workers Household Industry worked for 0 - 3 moths during last year - Females": 22,
      "Upper Primary Net Enrolment Ratio in percentage DISE": "NA",
      "Primary New Government Schools since 2003 in percentage DISE": "NA",
      "Tier": "Urban",
      "Marginal Workers Household Industry - Females": 126,
      "Primary Schools with electricity in percentage DISE": "NA",
      "Main Workers Other - Persons": 54954,
      "Marginal Workers Household Industry worked for 3 - 6 moths during last year - Females": 104,
      "Main Workers Cultivators - Males": 3338,
      "Main Workers Household Industry - Persons": 1174,
      "Marginal Workers Cultivators worked for 0 - 3 moths during last year - Persons": 683,
      "Scheduled Caste Males": 5976,
      "Marginal Workers - Persons": 11504,
      "Deliveries at home conducted by skilled health personnel in percentage DLHS-4": 41.5,
      "Villages with Sub-Health Centres within 3km in percentage DLHS-4": 0,
      "Upper Primary New Government Schools since 2003 in percentage DISE": "NA",
      "0-6 Age Group Males": 11583,
      "Primary Schools with drinking water facility in percentage DISE": "NA",
      "Non Workers - Persons": 118753,
      "Person Literates": 139806,
      "State": "CHHATTISGARH",
      "Total Female Population": 95659,
      "Marginal Workers worked for 0 - 3 moths during last year - Persons": 2756,
      "Marginal Workers Cultivators - Females": 1610,
      "Marginal Workers Other - Persons": 5733,
      "Sex Ratio": 978,
      "Scheduled Tribe Persons": 51559,
      "Marginal Workers Household Industry worked for 3 - 6 moths during last year - Males": 76,
      "Marginal Workers Agricultural Labourers - Females": 2172,
      "Mean age at marriage for girls DLHS-4": 23,
      "Households with solar energy as main source of lighting  Houselisting and Housing Census Data Tables- District Level , Census of India__4": 31,
      "District": "BASTAR",
      "Households receiving treated tap water within premises in percentage Houselisting and Housing Census Data Tables- District Level , Census of India__1": 29.73291343,
      "Total Workers  Persons": 74741,
      "Households receiving treated tap water within premises  Houselisting and Housing Census Data Tables- District Level , Census of India__4": 12368,
      "Primary Female Teachers in percentage DISE": "NA",
      "Number of Households": 43280,
      "Main Workers Agricultural Labourers - Persons": 2829
    }
  ]
}