{
  "Total": [
    {
      "Marginal Workers Agricultural Labourers - Persons": 46747,
      "Marginal Workers Other - Females": 2287,
      "Marginal Workers Other worked for 0 - 3 moths during last year - Females": 624,
      "Upper Primary Schools with boys toilet in percentage DISE": 80,
      "Total Population": 799781,
      "Households with electricity as main source of lighting in percentage Houselisting and Housing Census Data Tables- District Level , Census of India": 88.49998217,
      "Primary Girl's Enrolment in percentage DISE": 50.4,
      "Marginal Workers worked for 3 - 6 moths during last year - Males": 19168,
      "Prevalence of Acute illness in percentage DLHS-4": "Not available",
      "Main Workers - Persons": 335368,
      "Main Workers Cultivators - Females": 47889,
      "Marginal Workers Agricultural Labourers worked for 3 - 6 moths during last year - Females": 25176,
      "Marginal Workers Other worked for 0 - 3 moths during last year - Males": 824,
      "Upper Primary Schools with drinking water facility in percentage DISE": 92.2,
      "Primary Schools with girls toilet in percentage DISE": 82.6,
      "Marginal Workers worked for 3 - 6 moths during last year - Persons": 53550,
      "Upper Primary Drop Out Rate in percentage DISE": 2.87,
      "Prevalence of Anaemia in pregnant women aged 15-49years in percentage DLHS-4": "Not available",
      "Current use of any modern method of family planning in percentage DLHS-4": 65.4,
      "Marginal Workers Agricultural Labourers - Males": 15731,
      "Upper Primary Female Teachers in percentage DISE": 29.9,
      "Marginal Workers - Females": 43172,
      "Marginal Workers Other worked for 3 - 6 moths during last year - Persons": 4631,
      "Main Workers Agricultural Labourers - Females": 67289,
      "Marginal Workers Cultivators worked for 3 - 6 moths during last year - Females": 7144,
      "Households with no lighting  Houselisting and Housing Census Data Tables- District Level , Census of India__5": 369,
      "Prevalence of Severe Anaemia  in percentage DLHS-4": "Not available",
      "Total unmet need for family planning in percentage DLHS-4": 21.2,
      "Main Workers Other - Males": 56308,
      "Children who received full vaccination in percentage DLHS-4": "Not available",
      "Marginal Workers Household Industry - Persons": 905,
      "Primary Pupil-Teacher Ratio in percentage DISE": 19,
      "Marginal Workers Agricultural Labourers worked for 3 - 6 moths during last year - Males": 12804,
      "Scheduled Caste Females": 29694,
      "Marginal Workers Cultivators - Males": 4447,
      "Marginal Workers - Males": 24355,
      "Marginal Workers worked for 0 - 3 moths during last year - Females": 8790,
      "Households with main source of drinking water within premises in percentage Houselisting and Housing Census Data Tables- District Level , Census of India": 22.1472801,
      "Marginal Workers Household Industry worked for 3 - 6 moths during last year - Persons": 710,
      "Upper Primary Girl's Enrolment in percentage DISE": 51.4,
      "Prevalence of Severe Anaemia in women aged 15-49years in percentage DLHS-4": "Not available",
      "Marginal Workers Agricultural Labourers worked for 0 - 3 moths during last year - Males": 2927,
      "Households with electricity as main source of lighting  Houselisting and Housing Census Data Tables- District Level , Census of India__3": 148926,
      "Households with computer or laptop with internet connection in percentage": 0.6,
      "PHCs functioning on a 24x7hours basis in percentage DLHS-4": "Not available",
      "Non Workers - Males": 171515,
      "Total Households in District Houselisting and Housing Census Data Tables- District Level , Census of India": 168278,
      "Upper Primary Schools with girls toilet in percentage DISE": 95.3,
      "Households with mobile phone in percentage": 29.72,
      "Households receiving untreated tap water within premises in percentage Houselisting and Housing Census Data Tables- District Level , Census of India__2": 5.117721865,
      "Marginal Workers Cultivators worked for 3 - 6 moths during last year - Males": 3085,
      "Prevalence of Anaemia  in percentage DLHS-4": "Not available",
      "Prevalence of Chronic illness in percentage DLHS-4": "Not available",
      "Households with solar energy as main source of lighting in percentage Houselisting and Housing Census Data Tables- District Level , Census of India__1": 0.832550898,
      "Marginal Workers Agricultural Labourers worked for 0 - 3 moths during last year - Females": 5840,
      "Main Workers - Males": 202027,
      "Female": 69.08,
      "Sno": 323,
      "Marginal Workers Other worked for 3 - 6 moths during last year - Females": 1663,
      "Marginal Workers Cultivators worked for 0 - 3 moths during last year - Females": 2205,
      "Scheduled Tribe Males": 102058,
      "Male Illiterates": 93973,
      "Prevalence of Severe Anaemia in pregnant women aged 15-49years in percentage DLHS-4": "Not available",
      "0-6 Age Group Persons": 101909,
      "Upper Primary Student-Classroom Ratio in percentage DISE": 30,
      "Currently married men married below 21years of age in percentage DLHS-4": 24,
      "Male Literates": 303924,
      "Households with no lighting in percentage Houselisting and Housing Census Data Tables- District Level , Census of India__2": 0.219280001,
      "Primary Drop Out Rate in percentage DISE": 0.3,
      "Marginal Workers Household Industry - Males": 385,
      "Female Illiterates": 158975,
      "Main Workers Other - Females": 15161,
      "Marginal Workers Cultivators - Persons": 13796,
      "Upper Primary Gross Enrolment Ratio in percentage DISE": 107.2,
      "Scheduled Caste Persons": 58581,
      "Marginal Workers Cultivators worked for 3 - 6 moths during last year - Persons": 10229,
      "Households with landline phone in percentage": 1.42,
      "Total Households in District  Houselisting and Housing Census Data Tables- District Level , Census of India": 168278,
      "Upper Primary Pupil-Teacher Ratio in percentage DISE": 22,
      "Primary Student-Classroom Ratio in percentage DISE": 19,
      "Primary Schools with boys toilet in percentage DISE": 69,
      "Mean number of children ever born to women aged 40-49years  DLHS-4": "Not available",
      "Households receiving untreated tap water within premises  Houselisting and Housing Census Data Tables- District Level , Census of India__5": 8612,
      "Marginal Workers Household Industry worked for 0 - 3 moths during last year - Persons": 195,
      "Total Male Population": 397897,
      "Non Workers - Females": 225371,
      "Current use of family planning methods in percentage DLHS-4": 67.3,
      "Households with main source of drinking water within premises  Houselisting and Housing Census Data Tables- District Level , Census of India__3": 37269,
      "Main Workers Agricultural Labourers - Males": 68566,
      "Marginal Workers Other worked for 0 - 3 moths during last year - Persons": 1448,
      "Currently married women married below 18years of age in percentage DLHS-4": 20.8,
      "Person Illiterates": 252948,
      "Main Workers Household Industry - Females": 3002,
      "Female Literates": 242909,
      "Marginal Workers Cultivators worked for 0 - 3 moths during last year - Males": 1362,
      "Male": 87.78,
      "Households with improved source of drinking water in percentage DLHS-4": "Not available",
      "Upper Primary Schools with electricity in percentage DISE": 91.3,
      "Households with electricity in percentage DLHS-4": "Not available",
      "Villages with Primary Health Centre within 10km in percentage DLHS-4": "Not available",
      "Births to women aged 15-19years out of Total births in percentage DLHS-4": "Not available",
      "Prevalence of Anaemia in women aged 15-49years in percentage DLHS-4": "Not available",
      "Marginal Workers Agricultural Labourers worked for 3 - 6 moths during last year - Persons": 37980,
      "Main Workers Household Industry - Males": 3403,
      "Scheduled Tribe Females": 105575,
      "Marginal Workers worked for 0 - 3 moths during last year - Males": 5187,
      "Marginal Workers Other worked for 3 - 6 moths during last year - Males": 2968,
      "Primary Net Enrolment Ratio in percentage DISE": 93.8,
      "Total": 78.36,
      "Mean age at marriage for boys DLHS-4": 7,
      "Number of District Hospitals  DLHS-4": "Not available",
      "0-6 Age Group Females": 50257,
      "Marginal Workers Agricultural Labourers worked for 0 - 3 moths during last year - Persons": 8767,
      "Marginal Workers Household Industry worked for 0 - 3 moths during last year - Males": 74,
      "Total Workers  Females": 176513,
      "Marginal Workers worked for 3 - 6 moths during last year - Females": 34382,
      "Institutional Deliveries in percentage DLHS-4": 52.2,
      "Marginal Workers Other - Males": 3792,
      "Total Workers  Males": 226382,
      "Main Workers - Females": 133341,
      "Primary Gross Enrolment Ratio in percentage DISE": 104.7,
      "Main Workers Cultivators - Persons": 121639,
      "Marginal Workers Household Industry worked for 0 - 3 moths during last year - Females": 121,
      "Upper Primary Net Enrolment Ratio in percentage DISE": 78.1,
      "Primary New Government Schools since 2003 in percentage DISE": 20.6,
      "Tier": "Total",
      "Marginal Workers Household Industry - Females": 520,
      "Primary Schools with electricity in percentage DISE": 87,
      "Main Workers Other - Persons": 71469,
      "Marginal Workers Household Industry worked for 3 - 6 moths during last year - Females": 399,
      "Main Workers Cultivators - Males": 73750,
      "Main Workers Household Industry - Persons": 6405,
      "Marginal Workers Cultivators worked for 0 - 3 moths during last year - Persons": 3567,
      "Scheduled Caste Males": 28887,
      "Marginal Workers - Persons": 67527,
      "Deliveries at home conducted by skilled health personnel in percentage DLHS-4": 64.5,
      "Villages with Sub-Health Centres within 3km in percentage DLHS-4": "Not available",
      "Upper Primary New Government Schools since 2003 in percentage DISE": 48,
      "0-6 Age Group Males": 51652,
      "Primary Schools with drinking water facility in percentage DISE": 93.1,
      "Non Workers - Persons": 396886,
      "Person Literates": 546833,
      "State": "CHHATTISGARH",
      "Total Female Population": 401884,
      "Marginal Workers worked for 0 - 3 moths during last year - Persons": 13977,
      "Marginal Workers Cultivators - Females": 9349,
      "Marginal Workers Other - Persons": 6079,
      "Sex Ratio": 1010,
      "Scheduled Tribe Persons": 207633,
      "Marginal Workers Household Industry worked for 3 - 6 moths during last year - Males": 311,
      "Marginal Workers Agricultural Labourers - Females": 31016,
      "Mean age at marriage for girls DLHS-4": 2.3,
      "Households with solar energy as main source of lighting  Houselisting and Housing Census Data Tables- District Level , Census of India__4": 1401,
      "District": "DHAMTARI",
      "Households receiving treated tap water within premises in percentage Houselisting and Housing Census Data Tables- District Level , Census of India__1": 5.692960458,
      "Total Workers  Persons": 402895,
      "Households receiving treated tap water within premises  Houselisting and Housing Census Data Tables- District Level , Census of India__4": 9580,
      "Primary Female Teachers in percentage DISE": 39.6,
      "Number of Households": 170951,
      "Main Workers Agricultural Labourers - Persons": 135855
    }
  ],
  "Rural": [
    {
      "Marginal Workers Agricultural Labourers - Persons": 42515,
      "Marginal Workers Other - Females": 1143,
      "Marginal Workers Other worked for 0 - 3 moths during last year - Females": 431,
      "Upper Primary Schools with boys toilet in percentage DISE": "NA",
      "Total Population": 650586,
      "Households with electricity as main source of lighting in percentage Houselisting and Housing Census Data Tables- District Level , Census of India": 87.41890606,
      "Primary Girl's Enrolment in percentage DISE": "NA",
      "Marginal Workers worked for 3 - 6 moths during last year - Males": 16284,
      "Prevalence of Acute illness in percentage DLHS-4": "Not available",
      "Main Workers - Persons": 282958,
      "Main Workers Cultivators - Females": 46225,
      "Marginal Workers Agricultural Labourers worked for 3 - 6 moths during last year - Females": 23275,
      "Marginal Workers Other worked for 0 - 3 moths during last year - Males": 505,
      "Upper Primary Schools with drinking water facility in percentage DISE": "NA",
      "Primary Schools with girls toilet in percentage DISE": "NA",
      "Marginal Workers worked for 3 - 6 moths during last year - Persons": 47400,
      "Upper Primary Drop Out Rate in percentage DISE": "NA",
      "Prevalence of Anaemia in pregnant women aged 15-49years in percentage DLHS-4": "Not available",
      "Current use of any modern method of family planning in percentage DLHS-4": 66,
      "Marginal Workers Agricultural Labourers - Males": 14104,
      "Upper Primary Female Teachers in percentage DISE": "NA",
      "Marginal Workers - Females": 38936,
      "Marginal Workers Other worked for 3 - 6 moths during last year - Persons": 2252,
      "Main Workers Agricultural Labourers - Females": 63301,
      "Marginal Workers Cultivators worked for 3 - 6 moths during last year - Females": 6922,
      "Households with no lighting  Houselisting and Housing Census Data Tables- District Level , Census of India__5": 275,
      "Prevalence of Severe Anaemia  in percentage DLHS-4": "Not available",
      "Total unmet need for family planning in percentage DLHS-4": 21.5,
      "Main Workers Other - Males": 27839,
      "Children who received full vaccination in percentage DLHS-4": "Not available",
      "Marginal Workers Household Industry - Persons": 513,
      "Primary Pupil-Teacher Ratio in percentage DISE": "NA",
      "Marginal Workers Agricultural Labourers worked for 3 - 6 moths during last year - Males": 11599,
      "Scheduled Caste Females": 22960,
      "Marginal Workers Cultivators - Males": 4292,
      "Marginal Workers - Males": 20659,
      "Marginal Workers worked for 0 - 3 moths during last year - Females": 7820,
      "Households with main source of drinking water within premises in percentage Houselisting and Housing Census Data Tables- District Level , Census of India": 16.38500403,
      "Marginal Workers Household Industry worked for 3 - 6 moths during last year - Persons": 383,
      "Upper Primary Girl's Enrolment in percentage DISE": "NA",
      "Prevalence of Severe Anaemia in women aged 15-49years in percentage DLHS-4": "Not available",
      "Marginal Workers Agricultural Labourers worked for 0 - 3 moths during last year - Males": 2505,
      "Households with electricity as main source of lighting  Houselisting and Housing Census Data Tables- District Level , Census of India__3": 119388,
      "Households with computer or laptop with internet connection in percentage": 0.2,
      "PHCs functioning on a 24x7hours basis in percentage DLHS-4": "Not applicable",
      "Non Workers - Males": 137979,
      "Total Households in District Houselisting and Housing Census Data Tables- District Level , Census of India": 136570,
      "Upper Primary Schools with girls toilet in percentage DISE": "NA",
      "Households with mobile phone in percentage": 25.74,
      "Households receiving untreated tap water within premises in percentage Houselisting and Housing Census Data Tables- District Level , Census of India__2": 3.829537966,
      "Marginal Workers Cultivators worked for 3 - 6 moths during last year - Males": 2969,
      "Prevalence of Anaemia  in percentage DLHS-4": "Not available",
      "Prevalence of Chronic illness in percentage DLHS-4": "Not available",
      "Households with solar energy as main source of lighting in percentage Houselisting and Housing Census Data Tables- District Level , Census of India__1": 0.992897415,
      "Marginal Workers Agricultural Labourers worked for 0 - 3 moths during last year - Females": 5136,
      "Main Workers - Males": 164782,
      "Female": "NA",
      "Sno": 322,
      "Marginal Workers Other worked for 3 - 6 moths during last year - Females": 712,
      "Marginal Workers Cultivators worked for 0 - 3 moths during last year - Females": 2165,
      "Scheduled Tribe Males": 93682,
      "Male Illiterates": 79370,
      "Prevalence of Severe Anaemia in pregnant women aged 15-49years in percentage DLHS-4": "Not available",
      "0-6 Age Group Persons": 84459,
      "Upper Primary Student-Classroom Ratio in percentage DISE": "NA",
      "Currently married men married below 21years of age in percentage DLHS-4": 23.9,
      "Male Literates": 244050,
      "Households with no lighting in percentage Houselisting and Housing Census Data Tables- District Level , Census of India__2": 0.201361939,
      "Primary Drop Out Rate in percentage DISE": "NA",
      "Marginal Workers Household Industry - Males": 218,
      "Female Illiterates": 135391,
      "Main Workers Other - Females": 7058,
      "Marginal Workers Cultivators - Persons": 13379,
      "Upper Primary Gross Enrolment Ratio in percentage DISE": "NA",
      "Scheduled Caste Persons": 45455,
      "Marginal Workers Cultivators worked for 3 - 6 moths during last year - Persons": 9891,
      "Households with landline phone in percentage": 1.27,
      "Total Households in District  Houselisting and Housing Census Data Tables- District Level , Census of India": 136570,
      "Upper Primary Pupil-Teacher Ratio in percentage DISE": "NA",
      "Primary Student-Classroom Ratio in percentage DISE": "NA",
      "Primary Schools with boys toilet in percentage DISE": "NA",
      "Mean number of children ever born to women aged 40-49years  DLHS-4": "Not available",
      "Households receiving untreated tap water within premises  Houselisting and Housing Census Data Tables- District Level , Census of India__5": 5230,
      "Marginal Workers Household Industry worked for 0 - 3 moths during last year - Persons": 130,
      "Total Male Population": 323420,
      "Non Workers - Females": 170054,
      "Current use of family planning methods in percentage DLHS-4": 68,
      "Households with main source of drinking water within premises  Houselisting and Housing Census Data Tables- District Level , Census of India__3": 22377,
      "Main Workers Agricultural Labourers - Males": 64151,
      "Marginal Workers Other worked for 0 - 3 moths during last year - Persons": 936,
      "Currently married women married below 18years of age in percentage DLHS-4": 20.8,
      "Person Illiterates": 214761,
      "Main Workers Household Industry - Females": 1592,
      "Female Literates": 191775,
      "Marginal Workers Cultivators worked for 0 - 3 moths during last year - Males": 1323,
      "Male": "NA",
      "Households with improved source of drinking water in percentage DLHS-4": "Not available",
      "Upper Primary Schools with electricity in percentage DISE": "NA",
      "Households with electricity in percentage DLHS-4": "Not available",
      "Villages with Primary Health Centre within 10km in percentage DLHS-4": "Not applicable",
      "Births to women aged 15-19years out of Total births in percentage DLHS-4": "Not available",
      "Prevalence of Anaemia in women aged 15-49years in percentage DLHS-4": "Not available",
      "Marginal Workers Agricultural Labourers worked for 3 - 6 moths during last year - Persons": 34874,
      "Main Workers Household Industry - Males": 1933,
      "Scheduled Tribe Females": 96781,
      "Marginal Workers worked for 0 - 3 moths during last year - Males": 4375,
      "Marginal Workers Other worked for 3 - 6 moths during last year - Males": 1540,
      "Primary Net Enrolment Ratio in percentage DISE": "NA",
      "Total": "NA",
      "Mean age at marriage for boys DLHS-4": 7.4,
      "Number of District Hospitals  DLHS-4": "Not applicable",
      "0-6 Age Group Females": 41673,
      "Marginal Workers Agricultural Labourers worked for 0 - 3 moths during last year - Persons": 7641,
      "Marginal Workers Household Industry worked for 0 - 3 moths during last year - Males": 42,
      "Total Workers  Females": 157112,
      "Marginal Workers worked for 3 - 6 moths during last year - Females": 31116,
      "Institutional Deliveries in percentage DLHS-4": 50.4,
      "Marginal Workers Other - Males": 2045,
      "Total Workers  Males": 185441,
      "Main Workers - Females": 118176,
      "Primary Gross Enrolment Ratio in percentage DISE": "NA",
      "Main Workers Cultivators - Persons": 117084,
      "Marginal Workers Household Industry worked for 0 - 3 moths during last year - Females": 88,
      "Upper Primary Net Enrolment Ratio in percentage DISE": "NA",
      "Primary New Government Schools since 2003 in percentage DISE": "NA",
      "Tier": "Rural",
      "Marginal Workers Household Industry - Females": 295,
      "Primary Schools with electricity in percentage DISE": "NA",
      "Main Workers Other - Persons": 34897,
      "Marginal Workers Household Industry worked for 3 - 6 moths during last year - Females": 207,
      "Main Workers Cultivators - Males": 70859,
      "Main Workers Household Industry - Persons": 3525,
      "Marginal Workers Cultivators worked for 0 - 3 moths during last year - Persons": 3488,
      "Scheduled Caste Males": 22495,
      "Marginal Workers - Persons": 59595,
      "Deliveries at home conducted by skilled health personnel in percentage DLHS-4": 66.2,
      "Villages with Sub-Health Centres within 3km in percentage DLHS-4": "Not applicable",
      "Upper Primary New Government Schools since 2003 in percentage DISE": "NA",
      "0-6 Age Group Males": 42786,
      "Primary Schools with drinking water facility in percentage DISE": "NA",
      "Non Workers - Persons": 308033,
      "Person Literates": 435825,
      "State": "CHHATTISGARH",
      "Total Female Population": 327166,
      "Marginal Workers worked for 0 - 3 moths during last year - Persons": 12195,
      "Marginal Workers Cultivators - Females": 9087,
      "Marginal Workers Other - Persons": 3188,
      "Sex Ratio": 1012,
      "Scheduled Tribe Persons": 190463,
      "Marginal Workers Household Industry worked for 3 - 6 moths during last year - Males": 176,
      "Marginal Workers Agricultural Labourers - Females": 28411,
      "Mean age at marriage for girls DLHS-4": 2.3,
      "Households with solar energy as main source of lighting  Houselisting and Housing Census Data Tables- District Level , Census of India__4": 1356,
      "District": "DHAMTARI",
      "Households receiving treated tap water within premises in percentage Houselisting and Housing Census Data Tables- District Level , Census of India__1": 2.284542725,
      "Total Workers  Persons": 342553,
      "Households receiving treated tap water within premises  Houselisting and Housing Census Data Tables- District Level , Census of India__4": 3120,
      "Primary Female Teachers in percentage DISE": "NA",
      "Number of Households": 138455,
      "Main Workers Agricultural Labourers - Persons": 127452
    }
  ],
  "Urban": [
    {
      "Marginal Workers Agricultural Labourers - Persons": 4232,
      "Marginal Workers Other - Females": 1144,
      "Marginal Workers Other worked for 0 - 3 moths during last year - Females": 193,
      "Upper Primary Schools with boys toilet in percentage DISE": "NA",
      "Total Population": 149195,
      "Households with electricity as main source of lighting in percentage Houselisting and Housing Census Data Tables- District Level , Census of India": 93.15630125,
      "Primary Girl's Enrolment in percentage DISE": "NA",
      "Marginal Workers worked for 3 - 6 moths during last year - Males": 2884,
      "Prevalence of Acute illness in percentage DLHS-4": "Not available",
      "Main Workers - Persons": 52410,
      "Main Workers Cultivators - Females": 1664,
      "Marginal Workers Agricultural Labourers worked for 3 - 6 moths during last year - Females": 1901,
      "Marginal Workers Other worked for 0 - 3 moths during last year - Males": 319,
      "Upper Primary Schools with drinking water facility in percentage DISE": "NA",
      "Primary Schools with girls toilet in percentage DISE": "NA",
      "Marginal Workers worked for 3 - 6 moths during last year - Persons": 6150,
      "Upper Primary Drop Out Rate in percentage DISE": "NA",
      "Prevalence of Anaemia in pregnant women aged 15-49years in percentage DLHS-4": "Not available",
      "Current use of any modern method of family planning in percentage DLHS-4": 60.4,
      "Marginal Workers Agricultural Labourers - Males": 1627,
      "Upper Primary Female Teachers in percentage DISE": "NA",
      "Marginal Workers - Females": 4236,
      "Marginal Workers Other worked for 3 - 6 moths during last year - Persons": 2379,
      "Main Workers Agricultural Labourers - Females": 3988,
      "Marginal Workers Cultivators worked for 3 - 6 moths during last year - Females": 222,
      "Households with no lighting  Houselisting and Housing Census Data Tables- District Level , Census of India__5": 94,
      "Prevalence of Severe Anaemia  in percentage DLHS-4": "Not available",
      "Total unmet need for family planning in percentage DLHS-4": 18.4,
      "Main Workers Other - Males": 28469,
      "Children who received full vaccination in percentage DLHS-4": "Not available",
      "Marginal Workers Household Industry - Persons": 392,
      "Primary Pupil-Teacher Ratio in percentage DISE": "NA",
      "Marginal Workers Agricultural Labourers worked for 3 - 6 moths during last year - Males": 1205,
      "Scheduled Caste Females": 6734,
      "Marginal Workers Cultivators - Males": 155,
      "Marginal Workers - Males": 3696,
      "Marginal Workers worked for 0 - 3 moths during last year - Females": 970,
      "Households with main source of drinking water within premises in percentage Houselisting and Housing Census Data Tables- District Level , Census of India": 46.96606535,
      "Marginal Workers Household Industry worked for 3 - 6 moths during last year - Persons": 327,
      "Upper Primary Girl's Enrolment in percentage DISE": "NA",
      "Prevalence of Severe Anaemia in women aged 15-49years in percentage DLHS-4": "Not available",
      "Marginal Workers Agricultural Labourers worked for 0 - 3 moths during last year - Males": 422,
      "Households with electricity as main source of lighting  Houselisting and Housing Census Data Tables- District Level , Census of India__3": 29538,
      "Households with computer or laptop with internet connection in percentage": 2.35,
      "PHCs functioning on a 24x7hours basis in percentage DLHS-4": 0,
      "Non Workers - Males": 33536,
      "Total Households in District Houselisting and Housing Census Data Tables- District Level , Census of India": 31708,
      "Upper Primary Schools with girls toilet in percentage DISE": "NA",
      "Households with mobile phone in percentage": 46.84,
      "Households receiving untreated tap water within premises in percentage Houselisting and Housing Census Data Tables- District Level , Census of India__2": 10.66607796,
      "Marginal Workers Cultivators worked for 3 - 6 moths during last year - Males": 116,
      "Prevalence of Anaemia  in percentage DLHS-4": "Not available",
      "Prevalence of Chronic illness in percentage DLHS-4": "Not available",
      "Households with solar energy as main source of lighting in percentage Houselisting and Housing Census Data Tables- District Level , Census of India__1": 0.14192002,
      "Marginal Workers Agricultural Labourers worked for 0 - 3 moths during last year - Females": 704,
      "Main Workers - Males": 37245,
      "Female": "NA",
      "Sno": 324,
      "Marginal Workers Other worked for 3 - 6 moths during last year - Females": 951,
      "Marginal Workers Cultivators worked for 0 - 3 moths during last year - Females": 40,
      "Scheduled Tribe Males": 8376,
      "Male Illiterates": 14603,
      "Prevalence of Severe Anaemia in pregnant women aged 15-49years in percentage DLHS-4": "Not available",
      "0-6 Age Group Persons": 17450,
      "Upper Primary Student-Classroom Ratio in percentage DISE": "NA",
      "Currently married men married below 21years of age in percentage DLHS-4": 25,
      "Male Literates": 59874,
      "Households with no lighting in percentage Houselisting and Housing Census Data Tables- District Level , Census of India__2": 0.296455153,
      "Primary Drop Out Rate in percentage DISE": "NA",
      "Marginal Workers Household Industry - Males": 167,
      "Female Illiterates": 23584,
      "Main Workers Other - Females": 8103,
      "Marginal Workers Cultivators - Persons": 417,
      "Upper Primary Gross Enrolment Ratio in percentage DISE": "NA",
      "Scheduled Caste Persons": 13126,
      "Marginal Workers Cultivators worked for 3 - 6 moths during last year - Persons": 338,
      "Households with landline phone in percentage": 2.09,
      "Total Households in District  Houselisting and Housing Census Data Tables- District Level , Census of India": 31708,
      "Upper Primary Pupil-Teacher Ratio in percentage DISE": "NA",
      "Primary Student-Classroom Ratio in percentage DISE": "NA",
      "Primary Schools with boys toilet in percentage DISE": "NA",
      "Mean number of children ever born to women aged 40-49years  DLHS-4": "Not available",
      "Households receiving untreated tap water within premises  Houselisting and Housing Census Data Tables- District Level , Census of India__5": 3382,
      "Marginal Workers Household Industry worked for 0 - 3 moths during last year - Persons": 65,
      "Total Male Population": 74477,
      "Non Workers - Females": 55317,
      "Current use of family planning methods in percentage DLHS-4": 62.1,
      "Households with main source of drinking water within premises  Houselisting and Housing Census Data Tables- District Level , Census of India__3": 14892,
      "Main Workers Agricultural Labourers - Males": 4415,
      "Marginal Workers Other worked for 0 - 3 moths during last year - Persons": 512,
      "Currently married women married below 18years of age in percentage DLHS-4": 21.3,
      "Person Illiterates": 38187,
      "Main Workers Household Industry - Females": 1410,
      "Female Literates": 51134,
      "Marginal Workers Cultivators worked for 0 - 3 moths during last year - Males": 39,
      "Male": "NA",
      "Households with improved source of drinking water in percentage DLHS-4": "Not available",
      "Upper Primary Schools with electricity in percentage DISE": "NA",
      "Households with electricity in percentage DLHS-4": "Not available",
      "Villages with Primary Health Centre within 10km in percentage DLHS-4": 0,
      "Births to women aged 15-19years out of Total births in percentage DLHS-4": "Not available",
      "Prevalence of Anaemia in women aged 15-49years in percentage DLHS-4": "Not available",
      "Marginal Workers Agricultural Labourers worked for 3 - 6 moths during last year - Persons": 3106,
      "Main Workers Household Industry - Males": 1470,
      "Scheduled Tribe Females": 8794,
      "Marginal Workers worked for 0 - 3 moths during last year - Males": 812,
      "Marginal Workers Other worked for 3 - 6 moths during last year - Males": 1428,
      "Primary Net Enrolment Ratio in percentage DISE": "NA",
      "Total": "NA",
      "Mean age at marriage for boys DLHS-4": 3.5,
      "Number of District Hospitals  DLHS-4": 0,
      "0-6 Age Group Females": 8584,
      "Marginal Workers Agricultural Labourers worked for 0 - 3 moths during last year - Persons": 1126,
      "Marginal Workers Household Industry worked for 0 - 3 moths during last year - Males": 32,
      "Total Workers  Females": 19401,
      "Marginal Workers worked for 3 - 6 moths during last year - Females": 3266,
      "Institutional Deliveries in percentage DLHS-4": 66.5,
      "Marginal Workers Other - Males": 1747,
      "Total Workers  Males": 40941,
      "Main Workers - Females": 15165,
      "Primary Gross Enrolment Ratio in percentage DISE": "NA",
      "Main Workers Cultivators - Persons": 4555,
      "Marginal Workers Household Industry worked for 0 - 3 moths during last year - Females": 33,
      "Upper Primary Net Enrolment Ratio in percentage DISE": "NA",
      "Primary New Government Schools since 2003 in percentage DISE": "NA",
      "Tier": "Urban",
      "Marginal Workers Household Industry - Females": 225,
      "Primary Schools with electricity in percentage DISE": "NA",
      "Main Workers Other - Persons": 36572,
      "Marginal Workers Household Industry worked for 3 - 6 moths during last year - Females": 192,
      "Main Workers Cultivators - Males": 2891,
      "Main Workers Household Industry - Persons": 2880,
      "Marginal Workers Cultivators worked for 0 - 3 moths during last year - Persons": 79,
      "Scheduled Caste Males": 6392,
      "Marginal Workers - Persons": 7932,
      "Deliveries at home conducted by skilled health personnel in percentage DLHS-4": 43.5,
      "Villages with Sub-Health Centres within 3km in percentage DLHS-4": 0,
      "Upper Primary New Government Schools since 2003 in percentage DISE": "NA",
      "0-6 Age Group Males": 8866,
      "Primary Schools with drinking water facility in percentage DISE": "NA",
      "Non Workers - Persons": 88853,
      "Person Literates": 111008,
      "State": "CHHATTISGARH",
      "Total Female Population": 74718,
      "Marginal Workers worked for 0 - 3 moths during last year - Persons": 1782,
      "Marginal Workers Cultivators - Females": 262,
      "Marginal Workers Other - Persons": 2891,
      "Sex Ratio": 1003,
      "Scheduled Tribe Persons": 17170,
      "Marginal Workers Household Industry worked for 3 - 6 moths during last year - Males": 135,
      "Marginal Workers Agricultural Labourers - Females": 2605,
      "Mean age at marriage for girls DLHS-4": 2.7,
      "Households with solar energy as main source of lighting  Houselisting and Housing Census Data Tables- District Level , Census of India__4": 45,
      "District": "DHAMTARI",
      "Households receiving treated tap water within premises in percentage Houselisting and Housing Census Data Tables- District Level , Census of India__1": 20.37340734,
      "Total Workers  Persons": 60342,
      "Households receiving treated tap water within premises  Houselisting and Housing Census Data Tables- District Level , Census of India__4": 6460,
      "Primary Female Teachers in percentage DISE": "NA",
      "Number of Households": 32496,
      "Main Workers Agricultural Labourers - Persons": 8403
    }
  ]
}