{
  "Total": [
    {
      "Marginal Workers Agricultural Labourers - Persons": 196961,
      "Marginal Workers Other - Females": 12188,
      "Marginal Workers Other worked for 0 - 3 moths during last year - Females": 2886,
      "Upper Primary Schools with boys toilet in percentage DISE": 87.7,
      "Total Population": 3343872,
      "Households with electricity as main source of lighting in percentage Houselisting and Housing Census Data Tables- District Level , Census of India": 88.61588944,
      "Primary Girl's Enrolment in percentage DISE": 50.2,
      "Marginal Workers worked for 3 - 6 moths during last year - Males": 99195,
      "Prevalence of Acute illness in percentage DLHS-4": "Not available",
      "Main Workers - Persons": 1206793,
      "Main Workers Cultivators - Females": 135475,
      "Marginal Workers Agricultural Labourers worked for 3 - 6 moths during last year - Females": 105131,
      "Marginal Workers Other worked for 0 - 3 moths during last year - Males": 4965,
      "Upper Primary Schools with drinking water facility in percentage DISE": 98.8,
      "Primary Schools with girls toilet in percentage DISE": 97.7,
      "Marginal Workers worked for 3 - 6 moths during last year - Persons": 242063,
      "Upper Primary Drop Out Rate in percentage DISE": 9.23,
      "Prevalence of Anaemia in pregnant women aged 15-49years in percentage DLHS-4": "Not available",
      "Current use of any modern method of family planning in percentage DLHS-4": 66,
      "Marginal Workers Agricultural Labourers - Males": 73523,
      "Upper Primary Female Teachers in percentage DISE": 56.6,
      "Marginal Workers - Females": 171401,
      "Marginal Workers Other worked for 3 - 6 moths during last year - Persons": 28094,
      "Main Workers Agricultural Labourers - Females": 174545,
      "Marginal Workers Cultivators worked for 3 - 6 moths during last year - Females": 26739,
      "Households with no lighting  Houselisting and Housing Census Data Tables- District Level , Census of India__5": 1666,
      "Prevalence of Severe Anaemia  in percentage DLHS-4": "Not available",
      "Total unmet need for family planning in percentage DLHS-4": 22,
      "Main Workers Other - Males": 397414,
      "Children who received full vaccination in percentage DLHS-4": "Not available",
      "Marginal Workers Household Industry - Persons": 3895,
      "Primary Pupil-Teacher Ratio in percentage DISE": 26,
      "Marginal Workers Agricultural Labourers worked for 3 - 6 moths during last year - Males": 63780,
      "Scheduled Caste Females": 228973,
      "Marginal Workers Cultivators - Males": 19531,
      "Marginal Workers - Males": 118611,
      "Marginal Workers worked for 0 - 3 moths during last year - Females": 28533,
      "Households with main source of drinking water within premises in percentage Houselisting and Housing Census Data Tables- District Level , Census of India": 25.90198283,
      "Marginal Workers Household Industry worked for 3 - 6 moths during last year - Persons": 3118,
      "Upper Primary Girl's Enrolment in percentage DISE": 51.5,
      "Prevalence of Severe Anaemia in women aged 15-49years in percentage DLHS-4": "Not available",
      "Marginal Workers Agricultural Labourers worked for 0 - 3 moths during last year - Males": 9743,
      "Households with electricity as main source of lighting  Houselisting and Housing Census Data Tables- District Level , Census of India__3": 614109,
      "Households with computer or laptop with internet connection in percentage": 2.33,
      "PHCs functioning on a 24x7hours basis in percentage DLHS-4": "Not available",
      "Non Workers - Males": 760372,
      "Total Households in District Houselisting and Housing Census Data Tables- District Level , Census of India": 693001,
      "Upper Primary Schools with girls toilet in percentage DISE": 99.4,
      "Households with mobile phone in percentage": 39.17,
      "Households receiving untreated tap water within premises in percentage Houselisting and Housing Census Data Tables- District Level , Census of India__2": 3.682534369,
      "Marginal Workers Cultivators worked for 3 - 6 moths during last year - Males": 15201,
      "Prevalence of Anaemia  in percentage DLHS-4": "Not available",
      "Prevalence of Chronic illness in percentage DLHS-4": "Not available",
      "Households with solar energy as main source of lighting in percentage Houselisting and Housing Census Data Tables- District Level , Census of India__1": 0.0576,
      "Marginal Workers Agricultural Labourers worked for 0 - 3 moths during last year - Females": 18307,
      "Main Workers - Males": 803118,
      "Female": 70.23,
      "Sno": 326,
      "Marginal Workers Other worked for 3 - 6 moths during last year - Females": 9302,
      "Marginal Workers Cultivators worked for 0 - 3 moths during last year - Females": 6941,
      "Scheduled Tribe Males": 196008,
      "Male Illiterates": 397489,
      "Prevalence of Severe Anaemia in pregnant women aged 15-49years in percentage DLHS-4": "Not available",
      "0-6 Age Group Persons": 430536,
      "Upper Primary Student-Classroom Ratio in percentage DISE": 37,
      "Currently married men married below 21years of age in percentage DLHS-4": 7.5,
      "Male Literates": 1284612,
      "Households with no lighting in percentage Houselisting and Housing Census Data Tables- District Level , Census of India__2": 0.240403694,
      "Primary Drop Out Rate in percentage DISE": 5.8,
      "Marginal Workers Household Industry - Males": 1800,
      "Female Illiterates": 643005,
      "Main Workers Other - Females": 88125,
      "Marginal Workers Cultivators - Persons": 53211,
      "Upper Primary Gross Enrolment Ratio in percentage DISE": 45.4,
      "Scheduled Caste Persons": 458040,
      "Marginal Workers Cultivators worked for 3 - 6 moths during last year - Persons": 41940,
      "Households with landline phone in percentage": 2.44,
      "Total Households in District  Houselisting and Housing Census Data Tables- District Level , Census of India": 693001,
      "Upper Primary Pupil-Teacher Ratio in percentage DISE": 28,
      "Primary Student-Classroom Ratio in percentage DISE": 24,
      "Primary Schools with boys toilet in percentage DISE": 83.3,
      "Mean number of children ever born to women aged 40-49years  DLHS-4": "Not available",
      "Households receiving untreated tap water within premises  Houselisting and Housing Census Data Tables- District Level , Census of India__5": 25520,
      "Marginal Workers Household Industry worked for 0 - 3 moths during last year - Persons": 777,
      "Total Male Population": 1682101,
      "Non Workers - Females": 1086695,
      "Current use of family planning methods in percentage DLHS-4": 67,
      "Households with main source of drinking water within premises  Houselisting and Housing Census Data Tables- District Level , Census of India__3": 179501,
      "Main Workers Agricultural Labourers - Males": 188909,
      "Marginal Workers Other worked for 0 - 3 moths during last year - Persons": 7851,
      "Currently married women married below 18years of age in percentage DLHS-4": 3.2,
      "Person Illiterates": 1040494,
      "Main Workers Household Industry - Females": 5530,
      "Female Literates": 1018766,
      "Marginal Workers Cultivators worked for 0 - 3 moths during last year - Males": 4330,
      "Male": 87.82,
      "Households with improved source of drinking water in percentage DLHS-4": "Not available",
      "Upper Primary Schools with electricity in percentage DISE": 97.9,
      "Households with electricity in percentage DLHS-4": "Not available",
      "Villages with Primary Health Centre within 10km in percentage DLHS-4": "Not available",
      "Births to women aged 15-19years out of Total births in percentage DLHS-4": "Not available",
      "Prevalence of Anaemia in women aged 15-49years in percentage DLHS-4": "Not available",
      "Marginal Workers Agricultural Labourers worked for 3 - 6 moths during last year - Persons": 168911,
      "Main Workers Household Industry - Males": 13140,
      "Scheduled Tribe Females": 201408,
      "Marginal Workers worked for 0 - 3 moths during last year - Males": 19416,
      "Marginal Workers Other worked for 3 - 6 moths during last year - Males": 18792,
      "Primary Net Enrolment Ratio in percentage DISE": 41.5,
      "Total": 79.06,
      "Mean age at marriage for boys DLHS-4": 24.5,
      "Number of District Hospitals  DLHS-4": "Not available",
      "0-6 Age Group Females": 211195,
      "Marginal Workers Agricultural Labourers worked for 0 - 3 moths during last year - Persons": 28050,
      "Marginal Workers Household Industry worked for 0 - 3 moths during last year - Males": 378,
      "Total Workers  Females": 575076,
      "Marginal Workers worked for 3 - 6 moths during last year - Females": 142868,
      "Institutional Deliveries in percentage DLHS-4": 39.9,
      "Marginal Workers Other - Males": 23757,
      "Total Workers  Males": 921729,
      "Main Workers - Females": 403675,
      "Primary Gross Enrolment Ratio in percentage DISE": 47.4,
      "Main Workers Cultivators - Persons": 339130,
      "Marginal Workers Household Industry worked for 0 - 3 moths during last year - Females": 399,
      "Upper Primary Net Enrolment Ratio in percentage DISE": 34.4,
      "Primary New Government Schools since 2003 in percentage DISE": 7.1,
      "Tier": "Total",
      "Marginal Workers Household Industry - Females": 2095,
      "Primary Schools with electricity in percentage DISE": 92.4,
      "Main Workers Other - Persons": 485539,
      "Marginal Workers Household Industry worked for 3 - 6 moths during last year - Females": 1696,
      "Main Workers Cultivators - Males": 203655,
      "Main Workers Household Industry - Persons": 18670,
      "Marginal Workers Cultivators worked for 0 - 3 moths during last year - Persons": 11271,
      "Scheduled Caste Males": 229067,
      "Marginal Workers - Persons": 290012,
      "Deliveries at home conducted by skilled health personnel in percentage DLHS-4": 57.8,
      "Villages with Sub-Health Centres within 3km in percentage DLHS-4": "Not available",
      "Upper Primary New Government Schools since 2003 in percentage DISE": 32.1,
      "0-6 Age Group Males": 219341,
      "Primary Schools with drinking water facility in percentage DISE": 98.1,
      "Non Workers - Persons": 1847067,
      "Person Literates": 2303378,
      "State": "CHHATTISGARH",
      "Total Female Population": 1661771,
      "Marginal Workers worked for 0 - 3 moths during last year - Persons": 47949,
      "Marginal Workers Cultivators - Females": 33680,
      "Marginal Workers Other - Persons": 35945,
      "Sex Ratio": 988,
      "Scheduled Tribe Persons": 397416,
      "Marginal Workers Household Industry worked for 3 - 6 moths during last year - Males": 1422,
      "Marginal Workers Agricultural Labourers - Females": 123438,
      "Mean age at marriage for girls DLHS-4": 21,
      "Households with solar energy as main source of lighting  Houselisting and Housing Census Data Tables- District Level , Census of India__4": 399,
      "District": "DURG",
      "Households receiving treated tap water within premises in percentage Houselisting and Housing Census Data Tables- District Level , Census of India__1": 12.54125174,
      "Total Workers  Persons": 1496805,
      "Households receiving treated tap water within premises  Houselisting and Housing Census Data Tables- District Level , Census of India__4": 86911,
      "Primary Female Teachers in percentage DISE": 49.7,
      "Number of Households": 701707,
      "Main Workers Agricultural Labourers - Persons": 363454
    }
  ],
  "Rural": [
    {
      "Marginal Workers Agricultural Labourers - Persons": 184569,
      "Marginal Workers Other - Females": 5245,
      "Marginal Workers Other worked for 0 - 3 moths during last year - Females": 1370,
      "Upper Primary Schools with boys toilet in percentage DISE": "NA",
      "Total Population": 2059107,
      "Households with electricity as main source of lighting in percentage Houselisting and Housing Census Data Tables- District Level , Census of India": 85.15321976,
      "Primary Girl's Enrolment in percentage DISE": "NA",
      "Marginal Workers worked for 3 - 6 moths during last year - Males": 82923,
      "Prevalence of Acute illness in percentage DLHS-4": "Not available",
      "Main Workers - Persons": 796644,
      "Main Workers Cultivators - Females": 132037,
      "Marginal Workers Agricultural Labourers worked for 3 - 6 moths during last year - Females": 98898,
      "Marginal Workers Other worked for 0 - 3 moths during last year - Males": 1933,
      "Upper Primary Schools with drinking water facility in percentage DISE": "NA",
      "Primary Schools with girls toilet in percentage DISE": "NA",
      "Marginal Workers worked for 3 - 6 moths during last year - Persons": 212930,
      "Upper Primary Drop Out Rate in percentage DISE": "NA",
      "Prevalence of Anaemia in pregnant women aged 15-49years in percentage DLHS-4": "Not available",
      "Current use of any modern method of family planning in percentage DLHS-4": 68.9,
      "Marginal Workers Agricultural Labourers - Males": 68663,
      "Upper Primary Female Teachers in percentage DISE": "NA",
      "Marginal Workers - Females": 155411,
      "Marginal Workers Other worked for 3 - 6 moths during last year - Persons": 11744,
      "Main Workers Agricultural Labourers - Females": 164769,
      "Marginal Workers Cultivators worked for 3 - 6 moths during last year - Females": 25949,
      "Households with no lighting  Houselisting and Housing Census Data Tables- District Level , Census of India__5": 1092,
      "Prevalence of Severe Anaemia  in percentage DLHS-4": "Not available",
      "Total unmet need for family planning in percentage DLHS-4": 22,
      "Main Workers Other - Males": 96975,
      "Children who received full vaccination in percentage DLHS-4": "Not available",
      "Marginal Workers Household Industry - Persons": 2830,
      "Primary Pupil-Teacher Ratio in percentage DISE": "NA",
      "Marginal Workers Agricultural Labourers worked for 3 - 6 moths during last year - Males": 59575,
      "Scheduled Caste Females": 142601,
      "Marginal Workers Cultivators - Males": 18707,
      "Marginal Workers - Males": 98453,
      "Marginal Workers worked for 0 - 3 moths during last year - Females": 25404,
      "Households with main source of drinking water within premises in percentage Houselisting and Housing Census Data Tables- District Level , Census of India": 11.97075939,
      "Marginal Workers Household Industry worked for 3 - 6 moths during last year - Persons": 2290,
      "Upper Primary Girl's Enrolment in percentage DISE": "NA",
      "Prevalence of Severe Anaemia in women aged 15-49years in percentage DLHS-4": "Not available",
      "Marginal Workers Agricultural Labourers worked for 0 - 3 moths during last year - Males": 9088,
      "Households with electricity as main source of lighting  Houselisting and Housing Census Data Tables- District Level , Census of India__3": 359826,
      "Households with computer or laptop with internet connection in percentage": 0.24,
      "PHCs functioning on a 24x7hours basis in percentage DLHS-4": "Not applicable",
      "Non Workers - Males": 452176,
      "Total Households in District Houselisting and Housing Census Data Tables- District Level , Census of India": 422563,
      "Upper Primary Schools with girls toilet in percentage DISE": "NA",
      "Households with mobile phone in percentage": 28.23,
      "Households receiving untreated tap water within premises in percentage Houselisting and Housing Census Data Tables- District Level , Census of India__2": 2.826797424,
      "Marginal Workers Cultivators worked for 3 - 6 moths during last year - Males": 14474,
      "Prevalence of Anaemia  in percentage DLHS-4": "Not available",
      "Prevalence of Chronic illness in percentage DLHS-4": "Not available",
      "Households with solar energy as main source of lighting in percentage Houselisting and Housing Census Data Tables- District Level , Census of India__1": 0.0634,
      "Marginal Workers Agricultural Labourers worked for 0 - 3 moths during last year - Females": 17008,
      "Main Workers - Males": 475523,
      "Female": "NA",
      "Sno": 325,
      "Marginal Workers Other worked for 3 - 6 moths during last year - Females": 3875,
      "Marginal Workers Cultivators worked for 0 - 3 moths during last year - Females": 6762,
      "Scheduled Tribe Males": 155925,
      "Male Illiterates": 273932,
      "Prevalence of Severe Anaemia in pregnant women aged 15-49years in percentage DLHS-4": "Not available",
      "0-6 Age Group Persons": 282829,
      "Upper Primary Student-Classroom Ratio in percentage DISE": "NA",
      "Currently married men married below 21years of age in percentage DLHS-4": 9.7,
      "Male Literates": 752220,
      "Households with no lighting in percentage Houselisting and Housing Census Data Tables- District Level , Census of India__2": 0.258423004,
      "Primary Drop Out Rate in percentage DISE": "NA",
      "Marginal Workers Household Industry - Males": 1281,
      "Female Illiterates": 455022,
      "Main Workers Other - Females": 21425,
      "Marginal Workers Cultivators - Persons": 51418,
      "Upper Primary Gross Enrolment Ratio in percentage DISE": "NA",
      "Scheduled Caste Persons": 284513,
      "Marginal Workers Cultivators worked for 3 - 6 moths during last year - Persons": 40423,
      "Households with landline phone in percentage": 1.45,
      "Total Households in District  Houselisting and Housing Census Data Tables- District Level , Census of India": 422563,
      "Upper Primary Pupil-Teacher Ratio in percentage DISE": "NA",
      "Primary Student-Classroom Ratio in percentage DISE": "NA",
      "Primary Schools with boys toilet in percentage DISE": "NA",
      "Mean number of children ever born to women aged 40-49years  DLHS-4": "Not available",
      "Households receiving untreated tap water within premises  Houselisting and Housing Census Data Tables- District Level , Census of India__5": 11945,
      "Marginal Workers Household Industry worked for 0 - 3 moths during last year - Persons": 540,
      "Total Male Population": 1026152,
      "Non Workers - Females": 556423,
      "Current use of family planning methods in percentage DLHS-4": 69.4,
      "Households with main source of drinking water within premises  Houselisting and Housing Census Data Tables- District Level , Census of India__3": 50584,
      "Main Workers Agricultural Labourers - Males": 177099,
      "Marginal Workers Other worked for 0 - 3 moths during last year - Persons": 3303,
      "Currently married women married below 18years of age in percentage DLHS-4": 3.6,
      "Person Illiterates": 728954,
      "Main Workers Household Industry - Females": 2890,
      "Female Literates": 577933,
      "Marginal Workers Cultivators worked for 0 - 3 moths during last year - Males": 4233,
      "Male": "NA",
      "Households with improved source of drinking water in percentage DLHS-4": "Not available",
      "Upper Primary Schools with electricity in percentage DISE": "NA",
      "Households with electricity in percentage DLHS-4": "Not available",
      "Villages with Primary Health Centre within 10km in percentage DLHS-4": "Not applicable",
      "Births to women aged 15-19years out of Total births in percentage DLHS-4": "Not available",
      "Prevalence of Anaemia in women aged 15-49years in percentage DLHS-4": "Not available",
      "Marginal Workers Agricultural Labourers worked for 3 - 6 moths during last year - Persons": 158473,
      "Main Workers Household Industry - Males": 5765,
      "Scheduled Tribe Females": 162030,
      "Marginal Workers worked for 0 - 3 moths during last year - Males": 15530,
      "Marginal Workers Other worked for 3 - 6 moths during last year - Males": 7869,
      "Primary Net Enrolment Ratio in percentage DISE": "NA",
      "Total": "NA",
      "Mean age at marriage for boys DLHS-4": 23.6,
      "Number of District Hospitals  DLHS-4": "Not applicable",
      "0-6 Age Group Females": 139444,
      "Marginal Workers Agricultural Labourers worked for 0 - 3 moths during last year - Persons": 26096,
      "Marginal Workers Household Industry worked for 0 - 3 moths during last year - Males": 276,
      "Total Workers  Females": 476532,
      "Marginal Workers worked for 3 - 6 moths during last year - Females": 130007,
      "Institutional Deliveries in percentage DLHS-4": 31.1,
      "Marginal Workers Other - Males": 9802,
      "Total Workers  Males": 573976,
      "Main Workers - Females": 321121,
      "Primary Gross Enrolment Ratio in percentage DISE": "NA",
      "Main Workers Cultivators - Persons": 327721,
      "Marginal Workers Household Industry worked for 0 - 3 moths during last year - Females": 264,
      "Upper Primary Net Enrolment Ratio in percentage DISE": "NA",
      "Primary New Government Schools since 2003 in percentage DISE": "NA",
      "Tier": "Rural",
      "Marginal Workers Household Industry - Females": 1549,
      "Primary Schools with electricity in percentage DISE": "NA",
      "Main Workers Other - Persons": 118400,
      "Marginal Workers Household Industry worked for 3 - 6 moths during last year - Females": 1285,
      "Main Workers Cultivators - Males": 195684,
      "Main Workers Household Industry - Persons": 8655,
      "Marginal Workers Cultivators worked for 0 - 3 moths during last year - Persons": 10995,
      "Scheduled Caste Males": 141912,
      "Marginal Workers - Persons": 253864,
      "Deliveries at home conducted by skilled health personnel in percentage DLHS-4": 54.9,
      "Villages with Sub-Health Centres within 3km in percentage DLHS-4": "Not applicable",
      "Upper Primary New Government Schools since 2003 in percentage DISE": "NA",
      "0-6 Age Group Males": 143385,
      "Primary Schools with drinking water facility in percentage DISE": "NA",
      "Non Workers - Persons": 1008599,
      "Person Literates": 1330153,
      "State": "CHHATTISGARH",
      "Total Female Population": 1032955,
      "Marginal Workers worked for 0 - 3 moths during last year - Persons": 40934,
      "Marginal Workers Cultivators - Females": 32711,
      "Marginal Workers Other - Persons": 15047,
      "Sex Ratio": 1007,
      "Scheduled Tribe Persons": 317955,
      "Marginal Workers Household Industry worked for 3 - 6 moths during last year - Males": 1005,
      "Marginal Workers Agricultural Labourers - Females": 115906,
      "Mean age at marriage for girls DLHS-4": 20.6,
      "Households with solar energy as main source of lighting  Houselisting and Housing Census Data Tables- District Level , Census of India__4": 268,
      "District": "DURG",
      "Households receiving treated tap water within premises in percentage Houselisting and Housing Census Data Tables- District Level , Census of India__1": 1.716667101,
      "Total Workers  Persons": 1050508,
      "Households receiving treated tap water within premises  Houselisting and Housing Census Data Tables- District Level , Census of India__4": 7254,
      "Primary Female Teachers in percentage DISE": "NA",
      "Number of Households": 424294,
      "Main Workers Agricultural Labourers - Persons": 341868
    }
  ],
  "Urban": [
    {
      "Marginal Workers Agricultural Labourers - Persons": 12392,
      "Marginal Workers Other - Females": 6943,
      "Marginal Workers Other worked for 0 - 3 moths during last year - Females": 1516,
      "Upper Primary Schools with boys toilet in percentage DISE": "NA",
      "Total Population": 1284765,
      "Households with electricity as main source of lighting in percentage Houselisting and Housing Census Data Tables- District Level , Census of India": 94.02635724,
      "Primary Girl's Enrolment in percentage DISE": "NA",
      "Marginal Workers worked for 3 - 6 moths during last year - Males": 16272,
      "Prevalence of Acute illness in percentage DLHS-4": "Not available",
      "Main Workers - Persons": 410149,
      "Main Workers Cultivators - Females": 3438,
      "Marginal Workers Agricultural Labourers worked for 3 - 6 moths during last year - Females": 6233,
      "Marginal Workers Other worked for 0 - 3 moths during last year - Males": 3032,
      "Upper Primary Schools with drinking water facility in percentage DISE": "NA",
      "Primary Schools with girls toilet in percentage DISE": "NA",
      "Marginal Workers worked for 3 - 6 moths during last year - Persons": 29133,
      "Upper Primary Drop Out Rate in percentage DISE": "NA",
      "Prevalence of Anaemia in pregnant women aged 15-49years in percentage DLHS-4": "Not available",
      "Current use of any modern method of family planning in percentage DLHS-4": 60.8,
      "Marginal Workers Agricultural Labourers - Males": 4860,
      "Upper Primary Female Teachers in percentage DISE": "NA",
      "Marginal Workers - Females": 15990,
      "Marginal Workers Other worked for 3 - 6 moths during last year - Persons": 16350,
      "Main Workers Agricultural Labourers - Females": 9776,
      "Marginal Workers Cultivators worked for 3 - 6 moths during last year - Females": 790,
      "Households with no lighting  Houselisting and Housing Census Data Tables- District Level , Census of India__5": 574,
      "Prevalence of Severe Anaemia  in percentage DLHS-4": "Not available",
      "Total unmet need for family planning in percentage DLHS-4": 22.2,
      "Main Workers Other - Males": 300439,
      "Children who received full vaccination in percentage DLHS-4": "Not available",
      "Marginal Workers Household Industry - Persons": 1065,
      "Primary Pupil-Teacher Ratio in percentage DISE": "NA",
      "Marginal Workers Agricultural Labourers worked for 3 - 6 moths during last year - Males": 4205,
      "Scheduled Caste Females": 86372,
      "Marginal Workers Cultivators - Males": 824,
      "Marginal Workers - Males": 20158,
      "Marginal Workers worked for 0 - 3 moths during last year - Females": 3129,
      "Households with main source of drinking water within premises in percentage Houselisting and Housing Census Data Tables- District Level , Census of India": 47.66970618,
      "Marginal Workers Household Industry worked for 3 - 6 moths during last year - Persons": 828,
      "Upper Primary Girl's Enrolment in percentage DISE": "NA",
      "Prevalence of Severe Anaemia in women aged 15-49years in percentage DLHS-4": "Not available",
      "Marginal Workers Agricultural Labourers worked for 0 - 3 moths during last year - Males": 655,
      "Households with electricity as main source of lighting  Houselisting and Housing Census Data Tables- District Level , Census of India__3": 254283,
      "Households with computer or laptop with internet connection in percentage": 5.59,
      "PHCs functioning on a 24x7hours basis in percentage DLHS-4": 0,
      "Non Workers - Males": 308196,
      "Total Households in District Houselisting and Housing Census Data Tables- District Level , Census of India": 270438,
      "Upper Primary Schools with girls toilet in percentage DISE": "NA",
      "Households with mobile phone in percentage": 56.26,
      "Households receiving untreated tap water within premises in percentage Houselisting and Housing Census Data Tables- District Level , Census of India__2": 5.019634815,
      "Marginal Workers Cultivators worked for 3 - 6 moths during last year - Males": 727,
      "Prevalence of Anaemia  in percentage DLHS-4": "Not available",
      "Prevalence of Chronic illness in percentage DLHS-4": "Not available",
      "Households with solar energy as main source of lighting in percentage Houselisting and Housing Census Data Tables- District Level , Census of India__1": 0.0484,
      "Marginal Workers Agricultural Labourers worked for 0 - 3 moths during last year - Females": 1299,
      "Main Workers - Males": 327595,
      "Female": "NA",
      "Sno": 327,
      "Marginal Workers Other worked for 3 - 6 moths during last year - Females": 5427,
      "Marginal Workers Cultivators worked for 0 - 3 moths during last year - Females": 179,
      "Scheduled Tribe Males": 40083,
      "Male Illiterates": 123557,
      "Prevalence of Severe Anaemia in pregnant women aged 15-49years in percentage DLHS-4": "Not available",
      "0-6 Age Group Persons": 147707,
      "Upper Primary Student-Classroom Ratio in percentage DISE": "NA",
      "Currently married men married below 21years of age in percentage DLHS-4": 3.6,
      "Male Literates": 532392,
      "Households with no lighting in percentage Houselisting and Housing Census Data Tables- District Level , Census of India__2": 0.212248279,
      "Primary Drop Out Rate in percentage DISE": "NA",
      "Marginal Workers Household Industry - Males": 519,
      "Female Illiterates": 187983,
      "Main Workers Other - Females": 66700,
      "Marginal Workers Cultivators - Persons": 1793,
      "Upper Primary Gross Enrolment Ratio in percentage DISE": "NA",
      "Scheduled Caste Persons": 173527,
      "Marginal Workers Cultivators worked for 3 - 6 moths during last year - Persons": 1517,
      "Households with landline phone in percentage": 4,
      "Total Households in District  Houselisting and Housing Census Data Tables- District Level , Census of India": 270438,
      "Upper Primary Pupil-Teacher Ratio in percentage DISE": "NA",
      "Primary Student-Classroom Ratio in percentage DISE": "NA",
      "Primary Schools with boys toilet in percentage DISE": "NA",
      "Mean number of children ever born to women aged 40-49years  DLHS-4": "Not available",
      "Households receiving untreated tap water within premises  Houselisting and Housing Census Data Tables- District Level , Census of India__5": 13575,
      "Marginal Workers Household Industry worked for 0 - 3 moths during last year - Persons": 237,
      "Total Male Population": 655949,
      "Non Workers - Females": 530272,
      "Current use of family planning methods in percentage DLHS-4": 62.6,
      "Households with main source of drinking water within premises  Houselisting and Housing Census Data Tables- District Level , Census of India__3": 128917,
      "Main Workers Agricultural Labourers - Males": 11810,
      "Marginal Workers Other worked for 0 - 3 moths during last year - Persons": 4548,
      "Currently married women married below 18years of age in percentage DLHS-4": 2.4,
      "Person Illiterates": 311540,
      "Main Workers Household Industry - Females": 2640,
      "Female Literates": 440833,
      "Marginal Workers Cultivators worked for 0 - 3 moths during last year - Males": 97,
      "Male": "NA",
      "Households with improved source of drinking water in percentage DLHS-4": "Not available",
      "Upper Primary Schools with electricity in percentage DISE": "NA",
      "Households with electricity in percentage DLHS-4": "Not available",
      "Villages with Primary Health Centre within 10km in percentage DLHS-4": 0,
      "Births to women aged 15-19years out of Total births in percentage DLHS-4": "Not available",
      "Prevalence of Anaemia in women aged 15-49years in percentage DLHS-4": "Not available",
      "Marginal Workers Agricultural Labourers worked for 3 - 6 moths during last year - Persons": 10438,
      "Main Workers Household Industry - Males": 7375,
      "Scheduled Tribe Females": 39378,
      "Marginal Workers worked for 0 - 3 moths during last year - Males": 3886,
      "Marginal Workers Other worked for 3 - 6 moths during last year - Males": 10923,
      "Primary Net Enrolment Ratio in percentage DISE": "NA",
      "Total": "NA",
      "Mean age at marriage for boys DLHS-4": 26.3,
      "Number of District Hospitals  DLHS-4": 0,
      "0-6 Age Group Females": 71751,
      "Marginal Workers Agricultural Labourers worked for 0 - 3 moths during last year - Persons": 1954,
      "Marginal Workers Household Industry worked for 0 - 3 moths during last year - Males": 102,
      "Total Workers  Females": 98544,
      "Marginal Workers worked for 3 - 6 moths during last year - Females": 12861,
      "Institutional Deliveries in percentage DLHS-4": 57.9,
      "Marginal Workers Other - Males": 13955,
      "Total Workers  Males": 347753,
      "Main Workers - Females": 82554,
      "Primary Gross Enrolment Ratio in percentage DISE": "NA",
      "Main Workers Cultivators - Persons": 11409,
      "Marginal Workers Household Industry worked for 0 - 3 moths during last year - Females": 135,
      "Upper Primary Net Enrolment Ratio in percentage DISE": "NA",
      "Primary New Government Schools since 2003 in percentage DISE": "NA",
      "Tier": "Urban",
      "Marginal Workers Household Industry - Females": 546,
      "Primary Schools with electricity in percentage DISE": "NA",
      "Main Workers Other - Persons": 367139,
      "Marginal Workers Household Industry worked for 3 - 6 moths during last year - Females": 411,
      "Main Workers Cultivators - Males": 7971,
      "Main Workers Household Industry - Persons": 10015,
      "Marginal Workers Cultivators worked for 0 - 3 moths during last year - Persons": 276,
      "Scheduled Caste Males": 87155,
      "Marginal Workers - Persons": 36148,
      "Deliveries at home conducted by skilled health personnel in percentage DLHS-4": 66.7,
      "Villages with Sub-Health Centres within 3km in percentage DLHS-4": 0,
      "Upper Primary New Government Schools since 2003 in percentage DISE": "NA",
      "0-6 Age Group Males": 75956,
      "Primary Schools with drinking water facility in percentage DISE": "NA",
      "Non Workers - Persons": 838468,
      "Person Literates": 973225,
      "State": "CHHATTISGARH",
      "Total Female Population": 628816,
      "Marginal Workers worked for 0 - 3 moths during last year - Persons": 7015,
      "Marginal Workers Cultivators - Females": 969,
      "Marginal Workers Other - Persons": 20898,
      "Sex Ratio": 959,
      "Scheduled Tribe Persons": 79461,
      "Marginal Workers Household Industry worked for 3 - 6 moths during last year - Males": 417,
      "Marginal Workers Agricultural Labourers - Females": 7532,
      "Mean age at marriage for girls DLHS-4": 21.9,
      "Households with solar energy as main source of lighting  Houselisting and Housing Census Data Tables- District Level , Census of India__4": 131,
      "District": "DURG",
      "Households receiving treated tap water within premises in percentage Houselisting and Housing Census Data Tables- District Level , Census of India__1": 29.45481034,
      "Total Workers  Persons": 446297,
      "Households receiving treated tap water within premises  Houselisting and Housing Census Data Tables- District Level , Census of India__4": 79657,
      "Primary Female Teachers in percentage DISE": "NA",
      "Number of Households": 277413,
      "Main Workers Agricultural Labourers - Persons": 21586
    }
  ]
}