{
  "Total": [
    {
      "Marginal Workers Agricultural Labourers - Persons": 104407,
      "Marginal Workers Other - Females": 4583,
      "Marginal Workers Other worked for 0 - 3 moths during last year - Females": 1420,
      "Upper Primary Schools with boys toilet in percentage DISE": 97.9,
      "Total Population": 851669,
      "Households with electricity as main source of lighting in percentage Houselisting and Housing Census Data Tables- District Level , Census of India": 40.30032489,
      "Primary Girl's Enrolment in percentage DISE": 49.8,
      "Marginal Workers worked for 3 - 6 moths during last year - Males": 44505,
      "Prevalence of Acute illness in percentage DLHS-4": "Not available",
      "Main Workers - Persons": 291349,
      "Main Workers Cultivators - Females": 40634,
      "Marginal Workers Agricultural Labourers worked for 3 - 6 moths during last year - Females": 54905,
      "Marginal Workers Other worked for 0 - 3 moths during last year - Males": 1400,
      "Upper Primary Schools with drinking water facility in percentage DISE": 96.8,
      "Primary Schools with girls toilet in percentage DISE": 93.8,
      "Marginal Workers worked for 3 - 6 moths during last year - Persons": 142890,
      "Upper Primary Drop Out Rate in percentage DISE": 0.64,
      "Prevalence of Anaemia in pregnant women aged 15-49years in percentage DLHS-4": "Not available",
      "Current use of any modern method of family planning in percentage DLHS-4": 53.3,
      "Marginal Workers Agricultural Labourers - Males": 32754,
      "Upper Primary Female Teachers in percentage DISE": 33.8,
      "Marginal Workers - Females": 131401,
      "Marginal Workers Other worked for 3 - 6 moths during last year - Persons": 7491,
      "Main Workers Agricultural Labourers - Females": 38051,
      "Marginal Workers Cultivators worked for 3 - 6 moths during last year - Females": 39194,
      "Households with no lighting  Houselisting and Housing Census Data Tables- District Level , Census of India__5": 228,
      "Prevalence of Severe Anaemia  in percentage DLHS-4": "Not available",
      "Total unmet need for family planning in percentage DLHS-4": 31.4,
      "Main Workers Other - Males": 33221,
      "Children who received full vaccination in percentage DLHS-4": "Not available",
      "Marginal Workers Household Industry - Persons": 2518,
      "Primary Pupil-Teacher Ratio in percentage DISE": 16,
      "Marginal Workers Agricultural Labourers worked for 3 - 6 moths during last year - Males": 24723,
      "Scheduled Caste Females": 24527,
      "Marginal Workers Cultivators - Males": 25070,
      "Marginal Workers - Males": 64610,
      "Marginal Workers worked for 0 - 3 moths during last year - Females": 33016,
      "Households with main source of drinking water within premises in percentage Houselisting and Housing Census Data Tables- District Level , Census of India": 9.357728826,
      "Marginal Workers Household Industry worked for 3 - 6 moths during last year - Persons": 1899,
      "Upper Primary Girl's Enrolment in percentage DISE": 50.5,
      "Prevalence of Severe Anaemia in women aged 15-49years in percentage DLHS-4": "Not available",
      "Marginal Workers Agricultural Labourers worked for 0 - 3 moths during last year - Males": 8031,
      "Households with electricity as main source of lighting  Houselisting and Housing Census Data Tables- District Level , Census of India__3": 76783,
      "Households with computer or laptop with internet connection in percentage": 0.3,
      "PHCs functioning on a 24x7hours basis in percentage DLHS-4": "Not available",
      "Non Workers - Males": 161102,
      "Total Households in District Houselisting and Housing Census Data Tables- District Level , Census of India": 190527,
      "Upper Primary Schools with girls toilet in percentage DISE": 99.6,
      "Households with mobile phone in percentage": 17.18,
      "Households receiving untreated tap water within premises in percentage Houselisting and Housing Census Data Tables- District Level , Census of India__2": 1.011405208,
      "Marginal Workers Cultivators worked for 3 - 6 moths during last year - Males": 14678,
      "Prevalence of Anaemia  in percentage DLHS-4": "Not available",
      "Prevalence of Chronic illness in percentage DLHS-4": "Not available",
      "Households with solar energy as main source of lighting in percentage Houselisting and Housing Census Data Tables- District Level , Census of India__1": 3.750124654,
      "Marginal Workers Agricultural Labourers worked for 0 - 3 moths during last year - Females": 16748,
      "Main Workers - Males": 199035,
      "Female": 58.61,
      "Sno": 335,
      "Marginal Workers Other worked for 3 - 6 moths during last year - Females": 3163,
      "Marginal Workers Cultivators worked for 0 - 3 moths during last year - Females": 14511,
      "Scheduled Tribe Males": 262731,
      "Male Illiterates": 144091,
      "Prevalence of Severe Anaemia in pregnant women aged 15-49years in percentage DLHS-4": "Not available",
      "0-6 Age Group Persons": 122266,
      "Upper Primary Student-Classroom Ratio in percentage DISE": 25,
      "Currently married men married below 21years of age in percentage DLHS-4": 16,
      "Male Literates": 280656,
      "Households with no lighting in percentage Houselisting and Housing Census Data Tables- District Level , Census of India__2": 0.119668079,
      "Primary Drop Out Rate in percentage DISE": 0,
      "Marginal Workers Household Industry - Males": 1058,
      "Female Illiterates": 212163,
      "Main Workers Other - Females": 11851,
      "Marginal Workers Cultivators - Persons": 78775,
      "Upper Primary Gross Enrolment Ratio in percentage DISE": 98.4,
      "Scheduled Caste Persons": 48844,
      "Marginal Workers Cultivators worked for 3 - 6 moths during last year - Persons": 53872,
      "Households with landline phone in percentage": 0.86,
      "Total Households in District  Houselisting and Housing Census Data Tables- District Level , Census of India": 190527,
      "Upper Primary Pupil-Teacher Ratio in percentage DISE": 19,
      "Primary Student-Classroom Ratio in percentage DISE": 16,
      "Primary Schools with boys toilet in percentage DISE": 97.1,
      "Mean number of children ever born to women aged 40-49years  DLHS-4": "Not available",
      "Households receiving untreated tap water within premises  Houselisting and Housing Census Data Tables- District Level , Census of India__5": 1927,
      "Marginal Workers Household Industry worked for 0 - 3 moths during last year - Persons": 619,
      "Total Male Population": 424747,
      "Non Workers - Females": 203207,
      "Current use of family planning methods in percentage DLHS-4": 55.1,
      "Households with main source of drinking water within premises  Houselisting and Housing Census Data Tables- District Level , Census of India__3": 17829,
      "Main Workers Agricultural Labourers - Males": 55100,
      "Marginal Workers Other worked for 0 - 3 moths during last year - Persons": 2820,
      "Currently married women married below 18years of age in percentage DLHS-4": 8.8,
      "Person Illiterates": 356254,
      "Main Workers Household Industry - Females": 1778,
      "Female Literates": 214759,
      "Marginal Workers Cultivators worked for 0 - 3 moths during last year - Males": 10392,
      "Male": 77.32,
      "Households with improved source of drinking water in percentage DLHS-4": "Not available",
      "Upper Primary Schools with electricity in percentage DISE": 25.3,
      "Households with electricity in percentage DLHS-4": "Not available",
      "Villages with Primary Health Centre within 10km in percentage DLHS-4": "Not available",
      "Births to women aged 15-19years out of Total births in percentage DLHS-4": "Not available",
      "Prevalence of Anaemia in women aged 15-49years in percentage DLHS-4": "Not available",
      "Marginal Workers Agricultural Labourers worked for 3 - 6 moths during last year - Persons": 79628,
      "Main Workers Household Industry - Males": 3257,
      "Scheduled Tribe Females": 267647,
      "Marginal Workers worked for 0 - 3 moths during last year - Males": 20105,
      "Marginal Workers Other worked for 3 - 6 moths during last year - Males": 4328,
      "Primary Net Enrolment Ratio in percentage DISE": 97.6,
      "Total": 67.92,
      "Mean age at marriage for boys DLHS-4": 23.7,
      "Number of District Hospitals  DLHS-4": "Not available",
      "0-6 Age Group Females": 60522,
      "Marginal Workers Agricultural Labourers worked for 0 - 3 moths during last year - Persons": 24779,
      "Marginal Workers Household Industry worked for 0 - 3 moths during last year - Males": 282,
      "Total Workers  Females": 223715,
      "Marginal Workers worked for 3 - 6 moths during last year - Females": 98385,
      "Institutional Deliveries in percentage DLHS-4": 37.8,
      "Marginal Workers Other - Males": 5728,
      "Total Workers  Males": 263645,
      "Main Workers - Females": 92314,
      "Primary Gross Enrolment Ratio in percentage DISE": 105.5,
      "Main Workers Cultivators - Persons": 148091,
      "Marginal Workers Household Industry worked for 0 - 3 moths during last year - Females": 337,
      "Upper Primary Net Enrolment Ratio in percentage DISE": 73.3,
      "Primary New Government Schools since 2003 in percentage DISE": 24.6,
      "Tier": "Total",
      "Marginal Workers Household Industry - Females": 1460,
      "Primary Schools with electricity in percentage DISE": 9.4,
      "Main Workers Other - Persons": 45072,
      "Marginal Workers Household Industry worked for 3 - 6 moths during last year - Females": 1123,
      "Main Workers Cultivators - Males": 107457,
      "Main Workers Household Industry - Persons": 5035,
      "Marginal Workers Cultivators worked for 0 - 3 moths during last year - Persons": 24903,
      "Scheduled Caste Males": 24317,
      "Marginal Workers - Persons": 196011,
      "Deliveries at home conducted by skilled health personnel in percentage DLHS-4": 36.5,
      "Villages with Sub-Health Centres within 3km in percentage DLHS-4": "Not available",
      "Upper Primary New Government Schools since 2003 in percentage DISE": 53.9,
      "0-6 Age Group Males": 61744,
      "Primary Schools with drinking water facility in percentage DISE": 96.9,
      "Non Workers - Persons": 364309,
      "Person Literates": 495415,
      "State": "CHHATTISGARH",
      "Total Female Population": 426922,
      "Marginal Workers worked for 0 - 3 moths during last year - Persons": 53121,
      "Marginal Workers Cultivators - Females": 53705,
      "Marginal Workers Other - Persons": 10311,
      "Sex Ratio": 1005,
      "Scheduled Tribe Persons": 530378,
      "Marginal Workers Household Industry worked for 3 - 6 moths during last year - Males": 776,
      "Marginal Workers Agricultural Labourers - Females": 71653,
      "Mean age at marriage for girls DLHS-4": 21.1,
      "Households with solar energy as main source of lighting  Houselisting and Housing Census Data Tables- District Level , Census of India__4": 7145,
      "District": "JASHPUR",
      "Households receiving treated tap water within premises in percentage Houselisting and Housing Census Data Tables- District Level , Census of India__1": 1.485353782,
      "Total Workers  Persons": 487360,
      "Households receiving treated tap water within premises  Houselisting and Housing Census Data Tables- District Level , Census of India__4": 2830,
      "Primary Female Teachers in percentage DISE": 42.9,
      "Number of Households": 192570,
      "Main Workers Agricultural Labourers - Persons": 93151
    }
  ],
  "Rural": [
    {
      "Marginal Workers Agricultural Labourers - Persons": 102013,
      "Marginal Workers Other - Females": 3917,
      "Marginal Workers Other worked for 0 - 3 moths during last year - Females": 1235,
      "Upper Primary Schools with boys toilet in percentage DISE": "NA",
      "Total Population": 775677,
      "Households with electricity as main source of lighting in percentage Houselisting and Housing Census Data Tables- District Level , Census of India": 36.3349104,
      "Primary Girl's Enrolment in percentage DISE": "NA",
      "Marginal Workers worked for 3 - 6 moths during last year - Males": 42374,
      "Prevalence of Acute illness in percentage DLHS-4": "Not available",
      "Main Workers - Persons": 270280,
      "Main Workers Cultivators - Females": 40369,
      "Marginal Workers Agricultural Labourers worked for 3 - 6 moths during last year - Females": 53857,
      "Marginal Workers Other worked for 0 - 3 moths during last year - Males": 1154,
      "Upper Primary Schools with drinking water facility in percentage DISE": "NA",
      "Primary Schools with girls toilet in percentage DISE": "NA",
      "Marginal Workers worked for 3 - 6 moths during last year - Persons": 138835,
      "Upper Primary Drop Out Rate in percentage DISE": "NA",
      "Prevalence of Anaemia in pregnant women aged 15-49years in percentage DLHS-4": "Not available",
      "Current use of any modern method of family planning in percentage DLHS-4": 53,
      "Marginal Workers Agricultural Labourers - Males": 31841,
      "Upper Primary Female Teachers in percentage DISE": "NA",
      "Marginal Workers - Females": 128107,
      "Marginal Workers Other worked for 3 - 6 moths during last year - Persons": 6020,
      "Main Workers Agricultural Labourers - Females": 37460,
      "Marginal Workers Cultivators worked for 3 - 6 moths during last year - Females": 38819,
      "Households with no lighting  Houselisting and Housing Census Data Tables- District Level , Census of India__5": 205,
      "Prevalence of Severe Anaemia  in percentage DLHS-4": "Not available",
      "Total unmet need for family planning in percentage DLHS-4": 31.7,
      "Main Workers Other - Males": 19965,
      "Children who received full vaccination in percentage DLHS-4": "Not available",
      "Marginal Workers Household Industry - Persons": 2410,
      "Primary Pupil-Teacher Ratio in percentage DISE": "NA",
      "Marginal Workers Agricultural Labourers worked for 3 - 6 moths during last year - Males": 23941,
      "Scheduled Caste Females": 21104,
      "Marginal Workers Cultivators - Males": 24440,
      "Marginal Workers - Males": 61756,
      "Marginal Workers worked for 0 - 3 moths during last year - Females": 31646,
      "Households with main source of drinking water within premises in percentage Houselisting and Housing Census Data Tables- District Level , Census of India": 6.572270982,
      "Marginal Workers Household Industry worked for 3 - 6 moths during last year - Persons": 1818,
      "Upper Primary Girl's Enrolment in percentage DISE": "NA",
      "Prevalence of Severe Anaemia in women aged 15-49years in percentage DLHS-4": "Not available",
      "Marginal Workers Agricultural Labourers worked for 0 - 3 moths during last year - Males": 7900,
      "Households with electricity as main source of lighting  Houselisting and Housing Census Data Tables- District Level , Census of India__3": 63589,
      "Households with computer or laptop with internet connection in percentage": 0.15,
      "PHCs functioning on a 24x7hours basis in percentage DLHS-4": "Not applicable",
      "Non Workers - Males": 142509,
      "Total Households in District Houselisting and Housing Census Data Tables- District Level , Census of India": 175008,
      "Upper Primary Schools with girls toilet in percentage DISE": "NA",
      "Households with mobile phone in percentage": 14.07,
      "Households receiving untreated tap water within premises in percentage Houselisting and Housing Census Data Tables- District Level , Census of India__2": 0.335984641,
      "Marginal Workers Cultivators worked for 3 - 6 moths during last year - Males": 14380,
      "Prevalence of Anaemia  in percentage DLHS-4": "Not available",
      "Prevalence of Chronic illness in percentage DLHS-4": "Not available",
      "Households with solar energy as main source of lighting in percentage Houselisting and Housing Census Data Tables- District Level , Census of India__1": 4.076956482,
      "Marginal Workers Agricultural Labourers worked for 0 - 3 moths during last year - Females": 16315,
      "Main Workers - Males": 182042,
      "Female": "NA",
      "Sno": 334,
      "Marginal Workers Other worked for 3 - 6 moths during last year - Females": 2682,
      "Marginal Workers Cultivators worked for 0 - 3 moths during last year - Females": 13772,
      "Scheduled Tribe Males": 248560,
      "Male Illiterates": 135690,
      "Prevalence of Severe Anaemia in pregnant women aged 15-49years in percentage DLHS-4": "Not available",
      "0-6 Age Group Persons": 112599,
      "Upper Primary Student-Classroom Ratio in percentage DISE": "NA",
      "Currently married men married below 21years of age in percentage DLHS-4": 16.4,
      "Male Literates": 250617,
      "Households with no lighting in percentage Houselisting and Housing Census Data Tables- District Level , Census of India__2": 0.117137502,
      "Primary Drop Out Rate in percentage DISE": "NA",
      "Marginal Workers Household Industry - Males": 983,
      "Female Illiterates": 200169,
      "Main Workers Other - Females": 8710,
      "Marginal Workers Cultivators - Persons": 77031,
      "Upper Primary Gross Enrolment Ratio in percentage DISE": "NA",
      "Scheduled Caste Persons": 42138,
      "Marginal Workers Cultivators worked for 3 - 6 moths during last year - Persons": 53199,
      "Households with landline phone in percentage": 0.77,
      "Total Households in District  Houselisting and Housing Census Data Tables- District Level , Census of India": 175008,
      "Upper Primary Pupil-Teacher Ratio in percentage DISE": "NA",
      "Primary Student-Classroom Ratio in percentage DISE": "NA",
      "Primary Schools with boys toilet in percentage DISE": "NA",
      "Mean number of children ever born to women aged 40-49years  DLHS-4": "Not available",
      "Households receiving untreated tap water within premises  Houselisting and Housing Census Data Tables- District Level , Census of India__5": 588,
      "Marginal Workers Household Industry worked for 0 - 3 moths during last year - Persons": 592,
      "Total Male Population": 386307,
      "Non Workers - Females": 173025,
      "Current use of family planning methods in percentage DLHS-4": 54.8,
      "Households with main source of drinking water within premises  Houselisting and Housing Census Data Tables- District Level , Census of India__3": 11502,
      "Main Workers Agricultural Labourers - Males": 53613,
      "Marginal Workers Other worked for 0 - 3 moths during last year - Persons": 2389,
      "Currently married women married below 18years of age in percentage DLHS-4": 8.9,
      "Person Illiterates": 335859,
      "Main Workers Household Industry - Females": 1699,
      "Female Literates": 189201,
      "Marginal Workers Cultivators worked for 0 - 3 moths during last year - Males": 10060,
      "Male": "NA",
      "Households with improved source of drinking water in percentage DLHS-4": "Not available",
      "Upper Primary Schools with electricity in percentage DISE": "NA",
      "Households with electricity in percentage DLHS-4": "Not available",
      "Villages with Primary Health Centre within 10km in percentage DLHS-4": "Not applicable",
      "Births to women aged 15-19years out of Total births in percentage DLHS-4": "Not available",
      "Prevalence of Anaemia in women aged 15-49years in percentage DLHS-4": "Not available",
      "Marginal Workers Agricultural Labourers worked for 3 - 6 moths during last year - Persons": 77798,
      "Main Workers Household Industry - Males": 3038,
      "Scheduled Tribe Females": 252570,
      "Marginal Workers worked for 0 - 3 moths during last year - Males": 19382,
      "Marginal Workers Other worked for 3 - 6 moths during last year - Males": 3338,
      "Primary Net Enrolment Ratio in percentage DISE": "NA",
      "Total": "NA",
      "Mean age at marriage for boys DLHS-4": 23.6,
      "Number of District Hospitals  DLHS-4": "Not applicable",
      "0-6 Age Group Females": 55791,
      "Marginal Workers Agricultural Labourers worked for 0 - 3 moths during last year - Persons": 24215,
      "Marginal Workers Household Industry worked for 0 - 3 moths during last year - Males": 268,
      "Total Workers  Females": 216345,
      "Marginal Workers worked for 3 - 6 moths during last year - Females": 96461,
      "Institutional Deliveries in percentage DLHS-4": 37,
      "Marginal Workers Other - Males": 4492,
      "Total Workers  Males": 243798,
      "Main Workers - Females": 88238,
      "Primary Gross Enrolment Ratio in percentage DISE": "NA",
      "Main Workers Cultivators - Persons": 145795,
      "Marginal Workers Household Industry worked for 0 - 3 moths during last year - Females": 324,
      "Upper Primary Net Enrolment Ratio in percentage DISE": "NA",
      "Primary New Government Schools since 2003 in percentage DISE": "NA",
      "Tier": "Rural",
      "Marginal Workers Household Industry - Females": 1427,
      "Primary Schools with electricity in percentage DISE": "NA",
      "Main Workers Other - Persons": 28675,
      "Marginal Workers Household Industry worked for 3 - 6 moths during last year - Females": 1103,
      "Main Workers Cultivators - Males": 105426,
      "Main Workers Household Industry - Persons": 4737,
      "Marginal Workers Cultivators worked for 0 - 3 moths during last year - Persons": 23832,
      "Scheduled Caste Males": 21034,
      "Marginal Workers - Persons": 189863,
      "Deliveries at home conducted by skilled health personnel in percentage DLHS-4": 36.1,
      "Villages with Sub-Health Centres within 3km in percentage DLHS-4": "Not applicable",
      "Upper Primary New Government Schools since 2003 in percentage DISE": "NA",
      "0-6 Age Group Males": 56808,
      "Primary Schools with drinking water facility in percentage DISE": "NA",
      "Non Workers - Persons": 315534,
      "Person Literates": 439818,
      "State": "CHHATTISGARH",
      "Total Female Population": 389370,
      "Marginal Workers worked for 0 - 3 moths during last year - Persons": 51028,
      "Marginal Workers Cultivators - Females": 52591,
      "Marginal Workers Other - Persons": 8409,
      "Sex Ratio": 1008,
      "Scheduled Tribe Persons": 501130,
      "Marginal Workers Household Industry worked for 3 - 6 moths during last year - Males": 715,
      "Marginal Workers Agricultural Labourers - Females": 70172,
      "Mean age at marriage for girls DLHS-4": 21,
      "Households with solar energy as main source of lighting  Houselisting and Housing Census Data Tables- District Level , Census of India__4": 7135,
      "District": "JASHPUR",
      "Households receiving treated tap water within premises in percentage Houselisting and Housing Census Data Tables- District Level , Census of India__1": 0.17256354,
      "Total Workers  Persons": 460143,
      "Households receiving treated tap water within premises  Houselisting and Housing Census Data Tables- District Level , Census of India__4": 302,
      "Primary Female Teachers in percentage DISE": "NA",
      "Number of Households": 176032,
      "Main Workers Agricultural Labourers - Persons": 91073
    }
  ],
  "Urban": [
    {
      "Marginal Workers Agricultural Labourers - Persons": 2394,
      "Marginal Workers Other - Females": 666,
      "Marginal Workers Other worked for 0 - 3 moths during last year - Females": 185,
      "Upper Primary Schools with boys toilet in percentage DISE": "NA",
      "Total Population": 75992,
      "Households with electricity as main source of lighting in percentage Houselisting and Housing Census Data Tables- District Level , Census of India": 85.01836459,
      "Primary Girl's Enrolment in percentage DISE": "NA",
      "Marginal Workers worked for 3 - 6 moths during last year - Males": 2131,
      "Prevalence of Acute illness in percentage DLHS-4": "Not available",
      "Main Workers - Persons": 21069,
      "Main Workers Cultivators - Females": 265,
      "Marginal Workers Agricultural Labourers worked for 3 - 6 moths during last year - Females": 1048,
      "Marginal Workers Other worked for 0 - 3 moths during last year - Males": 246,
      "Upper Primary Schools with drinking water facility in percentage DISE": "NA",
      "Primary Schools with girls toilet in percentage DISE": "NA",
      "Marginal Workers worked for 3 - 6 moths during last year - Persons": 4055,
      "Upper Primary Drop Out Rate in percentage DISE": "NA",
      "Prevalence of Anaemia in pregnant women aged 15-49years in percentage DLHS-4": "Not available",
      "Current use of any modern method of family planning in percentage DLHS-4": "-",
      "Marginal Workers Agricultural Labourers - Males": 913,
      "Upper Primary Female Teachers in percentage DISE": "NA",
      "Marginal Workers - Females": 3294,
      "Marginal Workers Other worked for 3 - 6 moths during last year - Persons": 1471,
      "Main Workers Agricultural Labourers - Females": 591,
      "Marginal Workers Cultivators worked for 3 - 6 moths during last year - Females": 375,
      "Households with no lighting  Houselisting and Housing Census Data Tables- District Level , Census of India__5": 23,
      "Prevalence of Severe Anaemia  in percentage DLHS-4": "Not available",
      "Total unmet need for family planning in percentage DLHS-4": "-",
      "Main Workers Other - Males": 13256,
      "Children who received full vaccination in percentage DLHS-4": "Not available",
      "Marginal Workers Household Industry - Persons": 108,
      "Primary Pupil-Teacher Ratio in percentage DISE": "NA",
      "Marginal Workers Agricultural Labourers worked for 3 - 6 moths during last year - Males": 782,
      "Scheduled Caste Females": 3423,
      "Marginal Workers Cultivators - Males": 630,
      "Marginal Workers - Males": 2854,
      "Marginal Workers worked for 0 - 3 moths during last year - Females": 1370,
      "Households with main source of drinking water within premises in percentage Houselisting and Housing Census Data Tables- District Level , Census of India": 40.76937947,
      "Marginal Workers Household Industry worked for 3 - 6 moths during last year - Persons": 81,
      "Upper Primary Girl's Enrolment in percentage DISE": "NA",
      "Prevalence of Severe Anaemia in women aged 15-49years in percentage DLHS-4": "Not available",
      "Marginal Workers Agricultural Labourers worked for 0 - 3 moths during last year - Males": 131,
      "Households with electricity as main source of lighting  Houselisting and Housing Census Data Tables- District Level , Census of India__3": 13194,
      "Households with computer or laptop with internet connection in percentage": 1.93,
      "PHCs functioning on a 24x7hours basis in percentage DLHS-4": 0,
      "Non Workers - Males": 18593,
      "Total Households in District Houselisting and Housing Census Data Tables- District Level , Census of India": 15519,
      "Upper Primary Schools with girls toilet in percentage DISE": "NA",
      "Households with mobile phone in percentage": 52.21,
      "Households receiving untreated tap water within premises in percentage Houselisting and Housing Census Data Tables- District Level , Census of India__2": 8.628133256,
      "Marginal Workers Cultivators worked for 3 - 6 moths during last year - Males": 298,
      "Prevalence of Anaemia  in percentage DLHS-4": "Not available",
      "Prevalence of Chronic illness in percentage DLHS-4": "Not available",
      "Households with solar energy as main source of lighting in percentage Houselisting and Housing Census Data Tables- District Level , Census of India__1": 0.0644,
      "Marginal Workers Agricultural Labourers worked for 0 - 3 moths during last year - Females": 433,
      "Main Workers - Males": 16993,
      "Female": "NA",
      "Sno": 336,
      "Marginal Workers Other worked for 3 - 6 moths during last year - Females": 481,
      "Marginal Workers Cultivators worked for 0 - 3 moths during last year - Females": 739,
      "Scheduled Tribe Males": 14171,
      "Male Illiterates": 8401,
      "Prevalence of Severe Anaemia in pregnant women aged 15-49years in percentage DLHS-4": "Not available",
      "0-6 Age Group Persons": 9667,
      "Upper Primary Student-Classroom Ratio in percentage DISE": "NA",
      "Currently married men married below 21years of age in percentage DLHS-4": "-",
      "Male Literates": 30039,
      "Households with no lighting in percentage Houselisting and Housing Census Data Tables- District Level , Census of India__2": 0.148205426,
      "Primary Drop Out Rate in percentage DISE": "NA",
      "Marginal Workers Household Industry - Males": 75,
      "Female Illiterates": 11994,
      "Main Workers Other - Females": 3141,
      "Marginal Workers Cultivators - Persons": 1744,
      "Upper Primary Gross Enrolment Ratio in percentage DISE": "NA",
      "Scheduled Caste Persons": 6706,
      "Marginal Workers Cultivators worked for 3 - 6 moths during last year - Persons": 673,
      "Households with landline phone in percentage": 1.83,
      "Total Households in District  Houselisting and Housing Census Data Tables- District Level , Census of India": 15519,
      "Upper Primary Pupil-Teacher Ratio in percentage DISE": "NA",
      "Primary Student-Classroom Ratio in percentage DISE": "NA",
      "Primary Schools with boys toilet in percentage DISE": "NA",
      "Mean number of children ever born to women aged 40-49years  DLHS-4": "Not available",
      "Households receiving untreated tap water within premises  Houselisting and Housing Census Data Tables- District Level , Census of India__5": 1339,
      "Marginal Workers Household Industry worked for 0 - 3 moths during last year - Persons": 27,
      "Total Male Population": 38440,
      "Non Workers - Females": 30182,
      "Current use of family planning methods in percentage DLHS-4": "-",
      "Households with main source of drinking water within premises  Houselisting and Housing Census Data Tables- District Level , Census of India__3": 6327,
      "Main Workers Agricultural Labourers - Males": 1487,
      "Marginal Workers Other worked for 0 - 3 moths during last year - Persons": 431,
      "Currently married women married below 18years of age in percentage DLHS-4": "-",
      "Person Illiterates": 20395,
      "Main Workers Household Industry - Females": 79,
      "Female Literates": 25558,
      "Marginal Workers Cultivators worked for 0 - 3 moths during last year - Males": 332,
      "Male": "NA",
      "Households with improved source of drinking water in percentage DLHS-4": "Not available",
      "Upper Primary Schools with electricity in percentage DISE": "NA",
      "Households with electricity in percentage DLHS-4": "Not available",
      "Villages with Primary Health Centre within 10km in percentage DLHS-4": 0,
      "Births to women aged 15-19years out of Total births in percentage DLHS-4": "Not available",
      "Prevalence of Anaemia in women aged 15-49years in percentage DLHS-4": "Not available",
      "Marginal Workers Agricultural Labourers worked for 3 - 6 moths during last year - Persons": 1830,
      "Main Workers Household Industry - Males": 219,
      "Scheduled Tribe Females": 15077,
      "Marginal Workers worked for 0 - 3 moths during last year - Males": 723,
      "Marginal Workers Other worked for 3 - 6 moths during last year - Males": 990,
      "Primary Net Enrolment Ratio in percentage DISE": "NA",
      "Total": "NA",
      "Mean age at marriage for boys DLHS-4": "-",
      "Number of District Hospitals  DLHS-4": 0,
      "0-6 Age Group Females": 4731,
      "Marginal Workers Agricultural Labourers worked for 0 - 3 moths during last year - Persons": 564,
      "Marginal Workers Household Industry worked for 0 - 3 moths during last year - Males": 14,
      "Total Workers  Females": 7370,
      "Marginal Workers worked for 3 - 6 moths during last year - Females": 1924,
      "Institutional Deliveries in percentage DLHS-4": "-",
      "Marginal Workers Other - Males": 1236,
      "Total Workers  Males": 19847,
      "Main Workers - Females": 4076,
      "Primary Gross Enrolment Ratio in percentage DISE": "NA",
      "Main Workers Cultivators - Persons": 2296,
      "Marginal Workers Household Industry worked for 0 - 3 moths during last year - Females": 13,
      "Upper Primary Net Enrolment Ratio in percentage DISE": "NA",
      "Primary New Government Schools since 2003 in percentage DISE": "NA",
      "Tier": "Urban",
      "Marginal Workers Household Industry - Females": 33,
      "Primary Schools with electricity in percentage DISE": "NA",
      "Main Workers Other - Persons": 16397,
      "Marginal Workers Household Industry worked for 3 - 6 moths during last year - Females": 20,
      "Main Workers Cultivators - Males": 2031,
      "Main Workers Household Industry - Persons": 298,
      "Marginal Workers Cultivators worked for 0 - 3 moths during last year - Persons": 1071,
      "Scheduled Caste Males": 3283,
      "Marginal Workers - Persons": 6148,
      "Deliveries at home conducted by skilled health personnel in percentage DLHS-4": "-",
      "Villages with Sub-Health Centres within 3km in percentage DLHS-4": 0,
      "Upper Primary New Government Schools since 2003 in percentage DISE": "NA",
      "0-6 Age Group Males": 4936,
      "Primary Schools with drinking water facility in percentage DISE": "NA",
      "Non Workers - Persons": 48775,
      "Person Literates": 55597,
      "State": "CHHATTISGARH",
      "Total Female Population": 37552,
      "Marginal Workers worked for 0 - 3 moths during last year - Persons": 2093,
      "Marginal Workers Cultivators - Females": 1114,
      "Marginal Workers Other - Persons": 1902,
      "Sex Ratio": 977,
      "Scheduled Tribe Persons": 29248,
      "Marginal Workers Household Industry worked for 3 - 6 moths during last year - Males": 61,
      "Marginal Workers Agricultural Labourers - Females": 1481,
      "Mean age at marriage for girls DLHS-4": "-",
      "Households with solar energy as main source of lighting  Houselisting and Housing Census Data Tables- District Level , Census of India__4": 10,
      "District": "JASHPUR",
      "Households receiving treated tap water within premises in percentage Houselisting and Housing Census Data Tables- District Level , Census of India__1": 16.28970939,
      "Total Workers  Persons": 27217,
      "Households receiving treated tap water within premises  Houselisting and Housing Census Data Tables- District Level , Census of India__4": 2528,
      "Primary Female Teachers in percentage DISE": "NA",
      "Number of Households": 16538,
      "Main Workers Agricultural Labourers - Persons": 2078
    }
  ]
}