{
  "Total": [
    {
      "Marginal Workers Agricultural Labourers - Persons": 142507,
      "Marginal Workers Other - Females": 6357,
      "Marginal Workers Other worked for 0 - 3 moths during last year - Females": 2335,
      "Upper Primary Schools with boys toilet in percentage DISE": 68.5,
      "Total Population": 1493984,
      "Households with electricity as main source of lighting in percentage Houselisting and Housing Census Data Tables- District Level , Census of India": 82.20558308,
      "Primary Girl's Enrolment in percentage DISE": 50.5,
      "Marginal Workers worked for 3 - 6 moths during last year - Males": 62616,
      "Prevalence of Acute illness in percentage DLHS-4": "Not available",
      "Main Workers - Persons": 484875,
      "Main Workers Cultivators - Females": 38437,
      "Marginal Workers Agricultural Labourers worked for 3 - 6 moths during last year - Females": 75302,
      "Marginal Workers Other worked for 0 - 3 moths during last year - Males": 2093,
      "Upper Primary Schools with drinking water facility in percentage DISE": 92.2,
      "Primary Schools with girls toilet in percentage DISE": 99.1,
      "Marginal Workers worked for 3 - 6 moths during last year - Persons": 167270,
      "Upper Primary Drop Out Rate in percentage DISE": 8.03,
      "Prevalence of Anaemia in pregnant women aged 15-49years in percentage DLHS-4": "Not available",
      "Current use of any modern method of family planning in percentage DLHS-4": 60.1,
      "Marginal Workers Agricultural Labourers - Males": 51788,
      "Upper Primary Female Teachers in percentage DISE": 26,
      "Marginal Workers - Females": 130113,
      "Marginal Workers Other worked for 3 - 6 moths during last year - Persons": 11201,
      "Main Workers Agricultural Labourers - Females": 66634,
      "Marginal Workers Cultivators worked for 3 - 6 moths during last year - Females": 24004,
      "Households with no lighting  Houselisting and Housing Census Data Tables- District Level , Census of India__5": 511,
      "Prevalence of Severe Anaemia  in percentage DLHS-4": "Not available",
      "Total unmet need for family planning in percentage DLHS-4": 22.4,
      "Main Workers Other - Males": 109077,
      "Children who received full vaccination in percentage DLHS-4": "Not available",
      "Marginal Workers Household Industry - Persons": 2760,
      "Primary Pupil-Teacher Ratio in percentage DISE": 17,
      "Marginal Workers Agricultural Labourers worked for 3 - 6 moths during last year - Males": 44844,
      "Scheduled Caste Females": 112831,
      "Marginal Workers Cultivators - Males": 13002,
      "Marginal Workers - Males": 75179,
      "Marginal Workers worked for 0 - 3 moths during last year - Females": 25459,
      "Households with main source of drinking water within premises in percentage Houselisting and Housing Census Data Tables- District Level , Census of India": 15.93219121,
      "Marginal Workers Household Industry worked for 3 - 6 moths during last year - Persons": 2230,
      "Upper Primary Girl's Enrolment in percentage DISE": 50.5,
      "Prevalence of Severe Anaemia in women aged 15-49years in percentage DLHS-4": "Not available",
      "Marginal Workers Agricultural Labourers worked for 0 - 3 moths during last year - Males": 6944,
      "Households with electricity as main source of lighting  Houselisting and Housing Census Data Tables- District Level , Census of India__3": 297308,
      "Households with computer or laptop with internet connection in percentage": 0.92,
      "PHCs functioning on a 24x7hours basis in percentage DLHS-4": "Not available",
      "Non Workers - Males": 321067,
      "Total Households in District Houselisting and Housing Census Data Tables- District Level , Census of India": 361664,
      "Upper Primary Schools with girls toilet in percentage DISE": 99.5,
      "Households with mobile phone in percentage": 23.82,
      "Households receiving untreated tap water within premises in percentage Houselisting and Housing Census Data Tables- District Level , Census of India__2": 4.512752168,
      "Marginal Workers Cultivators worked for 3 - 6 moths during last year - Males": 9689,
      "Prevalence of Anaemia  in percentage DLHS-4": "Not available",
      "Prevalence of Chronic illness in percentage DLHS-4": "Not available",
      "Households with solar energy as main source of lighting in percentage Houselisting and Housing Census Data Tables- District Level , Census of India__1": 0.116682888,
      "Marginal Workers Agricultural Labourers worked for 0 - 3 moths during last year - Females": 15417,
      "Main Workers - Males": 354032,
      "Female": 63.02,
      "Sno": 362,
      "Marginal Workers Other worked for 3 - 6 moths during last year - Females": 4022,
      "Marginal Workers Cultivators worked for 0 - 3 moths during last year - Females": 7390,
      "Scheduled Tribe Males": 250473,
      "Male Illiterates": 207522,
      "Prevalence of Severe Anaemia in pregnant women aged 15-49years in percentage DLHS-4": "Not available",
      "0-6 Age Group Persons": 195069,
      "Upper Primary Student-Classroom Ratio in percentage DISE": 24,
      "Currently married men married below 21years of age in percentage DLHS-4": 24,
      "Male Literates": 542756,
      "Households with no lighting in percentage Houselisting and Housing Census Data Tables- District Level , Census of India__2": 0.141291364,
      "Primary Drop Out Rate in percentage DISE": 6.1,
      "Marginal Workers Household Industry - Males": 1117,
      "Female Illiterates": 334823,
      "Main Workers Other - Females": 23401,
      "Marginal Workers Cultivators - Persons": 44396,
      "Upper Primary Gross Enrolment Ratio in percentage DISE": 96.8,
      "Scheduled Caste Persons": 224942,
      "Marginal Workers Cultivators worked for 3 - 6 moths during last year - Persons": 33693,
      "Households with landline phone in percentage": 1.46,
      "Total Households in District  Houselisting and Housing Census Data Tables- District Level , Census of India": 361664,
      "Upper Primary Pupil-Teacher Ratio in percentage DISE": 20,
      "Primary Student-Classroom Ratio in percentage DISE": 20,
      "Primary Schools with boys toilet in percentage DISE": 53.4,
      "Mean number of children ever born to women aged 40-49years  DLHS-4": "Not available",
      "Households receiving untreated tap water within premises  Houselisting and Housing Census Data Tables- District Level , Census of India__5": 16321,
      "Marginal Workers Household Industry worked for 0 - 3 moths during last year - Persons": 530,
      "Total Male Population": 750278,
      "Non Workers - Females": 482750,
      "Current use of family planning methods in percentage DLHS-4": 61.2,
      "Households with main source of drinking water within premises  Houselisting and Housing Census Data Tables- District Level , Census of India__3": 57621,
      "Main Workers Agricultural Labourers - Males": 114647,
      "Marginal Workers Other worked for 0 - 3 moths during last year - Persons": 4428,
      "Currently married women married below 18years of age in percentage DLHS-4": 21.2,
      "Person Illiterates": 542345,
      "Main Workers Household Industry - Females": 2371,
      "Female Literates": 408883,
      "Marginal Workers Cultivators worked for 0 - 3 moths during last year - Males": 3313,
      "Male": 83.49,
      "Households with improved source of drinking water in percentage DLHS-4": "Not available",
      "Upper Primary Schools with electricity in percentage DISE": 60.8,
      "Households with electricity in percentage DLHS-4": "Not available",
      "Villages with Primary Health Centre within 10km in percentage DLHS-4": "Not available",
      "Births to women aged 15-19years out of Total births in percentage DLHS-4": "Not available",
      "Prevalence of Anaemia in women aged 15-49years in percentage DLHS-4": "Not available",
      "Marginal Workers Agricultural Labourers worked for 3 - 6 moths during last year - Persons": 120146,
      "Main Workers Household Industry - Males": 4828,
      "Scheduled Tribe Females": 255136,
      "Marginal Workers worked for 0 - 3 moths during last year - Males": 12563,
      "Marginal Workers Other worked for 3 - 6 moths during last year - Males": 7179,
      "Primary Net Enrolment Ratio in percentage DISE": 90.5,
      "Total": 73.26,
      "Mean age at marriage for boys DLHS-4": 10.7,
      "Number of District Hospitals  DLHS-4": "Not available",
      "0-6 Age Group Females": 94865,
      "Marginal Workers Agricultural Labourers worked for 0 - 3 moths during last year - Persons": 22361,
      "Marginal Workers Household Industry worked for 0 - 3 moths during last year - Males": 213,
      "Total Workers  Females": 260956,
      "Marginal Workers worked for 3 - 6 moths during last year - Females": 104654,
      "Institutional Deliveries in percentage DLHS-4": 42.2,
      "Marginal Workers Other - Males": 9272,
      "Total Workers  Males": 429211,
      "Main Workers - Females": 130843,
      "Primary Gross Enrolment Ratio in percentage DISE": 100.4,
      "Main Workers Cultivators - Persons": 163917,
      "Marginal Workers Household Industry worked for 0 - 3 moths during last year - Females": 317,
      "Upper Primary Net Enrolment Ratio in percentage DISE": 73.4,
      "Primary New Government Schools since 2003 in percentage DISE": 22.8,
      "Tier": "Total",
      "Marginal Workers Household Industry - Females": 1643,
      "Primary Schools with electricity in percentage DISE": 54.5,
      "Main Workers Other - Persons": 132478,
      "Marginal Workers Household Industry worked for 3 - 6 moths during last year - Females": 1326,
      "Main Workers Cultivators - Males": 125480,
      "Main Workers Household Industry - Persons": 7199,
      "Marginal Workers Cultivators worked for 0 - 3 moths during last year - Persons": 10703,
      "Scheduled Caste Males": 112111,
      "Marginal Workers - Persons": 205292,
      "Deliveries at home conducted by skilled health personnel in percentage DLHS-4": 46.6,
      "Villages with Sub-Health Centres within 3km in percentage DLHS-4": "Not available",
      "Upper Primary New Government Schools since 2003 in percentage DISE": 51.3,
      "0-6 Age Group Males": 100204,
      "Primary Schools with drinking water facility in percentage DISE": 95.5,
      "Non Workers - Persons": 803817,
      "Person Literates": 951639,
      "State": "CHHATTISGARH",
      "Total Female Population": 743706,
      "Marginal Workers worked for 0 - 3 moths during last year - Persons": 38022,
      "Marginal Workers Cultivators - Females": 31394,
      "Marginal Workers Other - Persons": 15629,
      "Sex Ratio": 991,
      "Scheduled Tribe Persons": 505609,
      "Marginal Workers Household Industry worked for 3 - 6 moths during last year - Males": 904,
      "Marginal Workers Agricultural Labourers - Females": 90719,
      "Mean age at marriage for girls DLHS-4": 1.4,
      "Households with solar energy as main source of lighting  Houselisting and Housing Census Data Tables- District Level , Census of India__4": 422,
      "District": "RAIGARH",
      "Households receiving treated tap water within premises in percentage Houselisting and Housing Census Data Tables- District Level , Census of India__1": 3.80159485,
      "Total Workers  Persons": 690167,
      "Households receiving treated tap water within premises  Houselisting and Housing Census Data Tables- District Level , Census of India__4": 13749,
      "Primary Female Teachers in percentage DISE": 35.3,
      "Number of Households": 367962,
      "Main Workers Agricultural Labourers - Persons": 181281
    }
  ],
  "Rural": [
    {
      "Marginal Workers Agricultural Labourers - Persons": 139512,
      "Marginal Workers Other - Females": 4642,
      "Marginal Workers Other worked for 0 - 3 moths during last year - Females": 1872,
      "Upper Primary Schools with boys toilet in percentage DISE": "NA",
      "Total Population": 1247682,
      "Households with electricity as main source of lighting in percentage Houselisting and Housing Census Data Tables- District Level , Census of India": 79.9638995,
      "Primary Girl's Enrolment in percentage DISE": "NA",
      "Marginal Workers worked for 3 - 6 moths during last year - Males": 58301,
      "Prevalence of Acute illness in percentage DLHS-4": "Not available",
      "Main Workers - Persons": 408594,
      "Main Workers Cultivators - Females": 37877,
      "Marginal Workers Agricultural Labourers worked for 3 - 6 moths during last year - Females": 73703,
      "Marginal Workers Other worked for 0 - 3 moths during last year - Males": 1502,
      "Upper Primary Schools with drinking water facility in percentage DISE": "NA",
      "Primary Schools with girls toilet in percentage DISE": "NA",
      "Marginal Workers worked for 3 - 6 moths during last year - Persons": 159755,
      "Upper Primary Drop Out Rate in percentage DISE": "NA",
      "Prevalence of Anaemia in pregnant women aged 15-49years in percentage DLHS-4": "Not available",
      "Current use of any modern method of family planning in percentage DLHS-4": 60.4,
      "Marginal Workers Agricultural Labourers - Males": 50575,
      "Upper Primary Female Teachers in percentage DISE": "NA",
      "Marginal Workers - Females": 126204,
      "Marginal Workers Other worked for 3 - 6 moths during last year - Persons": 7019,
      "Main Workers Agricultural Labourers - Females": 65278,
      "Marginal Workers Cultivators worked for 3 - 6 moths during last year - Females": 23751,
      "Households with no lighting  Houselisting and Housing Census Data Tables- District Level , Census of India__5": 445,
      "Prevalence of Severe Anaemia  in percentage DLHS-4": "Not available",
      "Total unmet need for family planning in percentage DLHS-4": 21.8,
      "Main Workers Other - Males": 52826,
      "Children who received full vaccination in percentage DLHS-4": "Not available",
      "Marginal Workers Household Industry - Persons": 2519,
      "Primary Pupil-Teacher Ratio in percentage DISE": "NA",
      "Marginal Workers Agricultural Labourers worked for 3 - 6 moths during last year - Males": 43713,
      "Scheduled Caste Females": 94417,
      "Marginal Workers Cultivators - Males": 12821,
      "Marginal Workers - Males": 70144,
      "Marginal Workers worked for 0 - 3 moths during last year - Females": 24750,
      "Households with main source of drinking water within premises in percentage Houselisting and Housing Census Data Tables- District Level , Census of India": 9.88921215,
      "Marginal Workers Household Industry worked for 3 - 6 moths during last year - Persons": 2045,
      "Upper Primary Girl's Enrolment in percentage DISE": "NA",
      "Prevalence of Severe Anaemia in women aged 15-49years in percentage DLHS-4": "Not available",
      "Marginal Workers Agricultural Labourers worked for 0 - 3 moths during last year - Males": 6862,
      "Households with electricity as main source of lighting  Houselisting and Housing Census Data Tables- District Level , Census of India__3": 247641,
      "Households with computer or laptop with internet connection in percentage": 0.47,
      "PHCs functioning on a 24x7hours basis in percentage DLHS-4": "Not applicable",
      "Non Workers - Males": 262951,
      "Total Households in District Houselisting and Housing Census Data Tables- District Level , Census of India": 309691,
      "Upper Primary Schools with girls toilet in percentage DISE": "NA",
      "Households with mobile phone in percentage": 18.82,
      "Households receiving untreated tap water within premises in percentage Houselisting and Housing Census Data Tables- District Level , Census of India__2": 1.9842359,
      "Marginal Workers Cultivators worked for 3 - 6 moths during last year - Males": 9524,
      "Prevalence of Anaemia  in percentage DLHS-4": "Not available",
      "Prevalence of Chronic illness in percentage DLHS-4": "Not available",
      "Households with solar energy as main source of lighting in percentage Houselisting and Housing Census Data Tables- District Level , Census of India__1": 0.118828122,
      "Marginal Workers Agricultural Labourers worked for 0 - 3 moths during last year - Females": 15234,
      "Main Workers - Males": 290722,
      "Female": "NA",
      "Sno": 361,
      "Marginal Workers Other worked for 3 - 6 moths during last year - Females": 2770,
      "Marginal Workers Cultivators worked for 0 - 3 moths during last year - Females": 7352,
      "Scheduled Tribe Males": 235465,
      "Male Illiterates": 182486,
      "Prevalence of Severe Anaemia in pregnant women aged 15-49years in percentage DLHS-4": "Not available",
      "0-6 Age Group Persons": 164083,
      "Upper Primary Student-Classroom Ratio in percentage DISE": "NA",
      "Currently married men married below 21years of age in percentage DLHS-4": 23.6,
      "Male Literates": 441331,
      "Households with no lighting in percentage Houselisting and Housing Census Data Tables- District Level , Census of India__2": 0.143691615,
      "Primary Drop Out Rate in percentage DISE": "NA",
      "Marginal Workers Household Industry - Males": 997,
      "Female Illiterates": 297045,
      "Main Workers Other - Females": 12789,
      "Marginal Workers Cultivators - Persons": 43924,
      "Upper Primary Gross Enrolment Ratio in percentage DISE": "NA",
      "Scheduled Caste Persons": 188059,
      "Marginal Workers Cultivators worked for 3 - 6 moths during last year - Persons": 33275,
      "Households with landline phone in percentage": 1.11,
      "Total Households in District  Houselisting and Housing Census Data Tables- District Level , Census of India": 309691,
      "Upper Primary Pupil-Teacher Ratio in percentage DISE": "NA",
      "Primary Student-Classroom Ratio in percentage DISE": "NA",
      "Primary Schools with boys toilet in percentage DISE": "NA",
      "Mean number of children ever born to women aged 40-49years  DLHS-4": "Not available",
      "Households receiving untreated tap water within premises  Houselisting and Housing Census Data Tables- District Level , Census of India__5": 6145,
      "Marginal Workers Household Industry worked for 0 - 3 moths during last year - Persons": 474,
      "Total Male Population": 623817,
      "Non Workers - Females": 379789,
      "Current use of family planning methods in percentage DLHS-4": 61.5,
      "Households with main source of drinking water within premises  Houselisting and Housing Census Data Tables- District Level , Census of India__3": 30626,
      "Main Workers Agricultural Labourers - Males": 111343,
      "Marginal Workers Other worked for 0 - 3 moths during last year - Persons": 3374,
      "Currently married women married below 18years of age in percentage DLHS-4": 21,
      "Person Illiterates": 479531,
      "Main Workers Household Industry - Females": 1928,
      "Female Literates": 326820,
      "Marginal Workers Cultivators worked for 0 - 3 moths during last year - Males": 3297,
      "Male": "NA",
      "Households with improved source of drinking water in percentage DLHS-4": "Not available",
      "Upper Primary Schools with electricity in percentage DISE": "NA",
      "Households with electricity in percentage DLHS-4": "Not available",
      "Villages with Primary Health Centre within 10km in percentage DLHS-4": "Not applicable",
      "Births to women aged 15-19years out of Total births in percentage DLHS-4": "Not available",
      "Prevalence of Anaemia in women aged 15-49years in percentage DLHS-4": "Not available",
      "Marginal Workers Agricultural Labourers worked for 3 - 6 moths during last year - Persons": 117416,
      "Main Workers Household Industry - Males": 3557,
      "Scheduled Tribe Females": 240129,
      "Marginal Workers worked for 0 - 3 moths during last year - Males": 11843,
      "Marginal Workers Other worked for 3 - 6 moths during last year - Males": 4249,
      "Primary Net Enrolment Ratio in percentage DISE": "NA",
      "Total": "NA",
      "Mean age at marriage for boys DLHS-4": 11.7,
      "Number of District Hospitals  DLHS-4": "Not applicable",
      "0-6 Age Group Females": 80112,
      "Marginal Workers Agricultural Labourers worked for 0 - 3 moths during last year - Persons": 22096,
      "Marginal Workers Household Industry worked for 0 - 3 moths during last year - Males": 182,
      "Total Workers  Females": 244076,
      "Marginal Workers worked for 3 - 6 moths during last year - Females": 101454,
      "Institutional Deliveries in percentage DLHS-4": 37.3,
      "Marginal Workers Other - Males": 5751,
      "Total Workers  Males": 360866,
      "Main Workers - Females": 117872,
      "Primary Gross Enrolment Ratio in percentage DISE": "NA",
      "Main Workers Cultivators - Persons": 160873,
      "Marginal Workers Household Industry worked for 0 - 3 moths during last year - Females": 292,
      "Upper Primary Net Enrolment Ratio in percentage DISE": "NA",
      "Primary New Government Schools since 2003 in percentage DISE": "NA",
      "Tier": "Rural",
      "Marginal Workers Household Industry - Females": 1522,
      "Primary Schools with electricity in percentage DISE": "NA",
      "Main Workers Other - Persons": 65615,
      "Marginal Workers Household Industry worked for 3 - 6 moths during last year - Females": 1230,
      "Main Workers Cultivators - Males": 122996,
      "Main Workers Household Industry - Persons": 5485,
      "Marginal Workers Cultivators worked for 0 - 3 moths during last year - Persons": 10649,
      "Scheduled Caste Males": 93642,
      "Marginal Workers - Persons": 196348,
      "Deliveries at home conducted by skilled health personnel in percentage DLHS-4": 45.7,
      "Villages with Sub-Health Centres within 3km in percentage DLHS-4": "Not applicable",
      "Upper Primary New Government Schools since 2003 in percentage DISE": "NA",
      "0-6 Age Group Males": 83971,
      "Primary Schools with drinking water facility in percentage DISE": "NA",
      "Non Workers - Persons": 642740,
      "Person Literates": 768151,
      "State": "CHHATTISGARH",
      "Total Female Population": 623865,
      "Marginal Workers worked for 0 - 3 moths during last year - Persons": 36593,
      "Marginal Workers Cultivators - Females": 31103,
      "Marginal Workers Other - Persons": 10393,
      "Sex Ratio": 1000,
      "Scheduled Tribe Persons": 475594,
      "Marginal Workers Household Industry worked for 3 - 6 moths during last year - Males": 815,
      "Marginal Workers Agricultural Labourers - Females": 88937,
      "Mean age at marriage for girls DLHS-4": 1.3,
      "Households with solar energy as main source of lighting  Houselisting and Housing Census Data Tables- District Level , Census of India__4": 368,
      "District": "RAIGARH",
      "Households receiving treated tap water within premises in percentage Houselisting and Housing Census Data Tables- District Level , Census of India__1": 1.025215457,
      "Total Workers  Persons": 604942,
      "Households receiving treated tap water within premises  Houselisting and Housing Census Data Tables- District Level , Census of India__4": 3175,
      "Primary Female Teachers in percentage DISE": "NA",
      "Number of Households": 312800,
      "Main Workers Agricultural Labourers - Persons": 176621
    }
  ],
  "Urban": [
    {
      "Marginal Workers Agricultural Labourers - Persons": 2995,
      "Marginal Workers Other - Females": 1715,
      "Marginal Workers Other worked for 0 - 3 moths during last year - Females": 463,
      "Upper Primary Schools with boys toilet in percentage DISE": "NA",
      "Total Population": 246302,
      "Households with electricity as main source of lighting in percentage Houselisting and Housing Census Data Tables- District Level , Census of India": 95.56308083,
      "Primary Girl's Enrolment in percentage DISE": "NA",
      "Marginal Workers worked for 3 - 6 moths during last year - Males": 4315,
      "Prevalence of Acute illness in percentage DLHS-4": "Not available",
      "Main Workers - Persons": 76281,
      "Main Workers Cultivators - Females": 560,
      "Marginal Workers Agricultural Labourers worked for 3 - 6 moths during last year - Females": 1599,
      "Marginal Workers Other worked for 0 - 3 moths during last year - Males": 591,
      "Upper Primary Schools with drinking water facility in percentage DISE": "NA",
      "Primary Schools with girls toilet in percentage DISE": "NA",
      "Marginal Workers worked for 3 - 6 moths during last year - Persons": 7515,
      "Upper Primary Drop Out Rate in percentage DISE": "NA",
      "Prevalence of Anaemia in pregnant women aged 15-49years in percentage DLHS-4": "Not available",
      "Current use of any modern method of family planning in percentage DLHS-4": 57.7,
      "Marginal Workers Agricultural Labourers - Males": 1213,
      "Upper Primary Female Teachers in percentage DISE": "NA",
      "Marginal Workers - Females": 3909,
      "Marginal Workers Other worked for 3 - 6 moths during last year - Persons": 4182,
      "Main Workers Agricultural Labourers - Females": 1356,
      "Marginal Workers Cultivators worked for 3 - 6 moths during last year - Females": 253,
      "Households with no lighting  Houselisting and Housing Census Data Tables- District Level , Census of India__5": 66,
      "Prevalence of Severe Anaemia  in percentage DLHS-4": "Not available",
      "Total unmet need for family planning in percentage DLHS-4": 27,
      "Main Workers Other - Males": 56251,
      "Children who received full vaccination in percentage DLHS-4": "Not available",
      "Marginal Workers Household Industry - Persons": 241,
      "Primary Pupil-Teacher Ratio in percentage DISE": "NA",
      "Marginal Workers Agricultural Labourers worked for 3 - 6 moths during last year - Males": 1131,
      "Scheduled Caste Females": 18414,
      "Marginal Workers Cultivators - Males": 181,
      "Marginal Workers - Males": 5035,
      "Marginal Workers worked for 0 - 3 moths during last year - Females": 709,
      "Households with main source of drinking water within premises in percentage Houselisting and Housing Census Data Tables- District Level , Census of India": 51.94043061,
      "Marginal Workers Household Industry worked for 3 - 6 moths during last year - Persons": 185,
      "Upper Primary Girl's Enrolment in percentage DISE": "NA",
      "Prevalence of Severe Anaemia in women aged 15-49years in percentage DLHS-4": "Not available",
      "Marginal Workers Agricultural Labourers worked for 0 - 3 moths during last year - Males": 82,
      "Households with electricity as main source of lighting  Houselisting and Housing Census Data Tables- District Level , Census of India__3": 49667,
      "Households with computer or laptop with internet connection in percentage": 3.65,
      "PHCs functioning on a 24x7hours basis in percentage DLHS-4": 0,
      "Non Workers - Males": 58116,
      "Total Households in District Houselisting and Housing Census Data Tables- District Level , Census of India": 51973,
      "Upper Primary Schools with girls toilet in percentage DISE": "NA",
      "Households with mobile phone in percentage": 53.59,
      "Households receiving untreated tap water within premises in percentage Houselisting and Housing Census Data Tables- District Level , Census of India__2": 19.57939699,
      "Marginal Workers Cultivators worked for 3 - 6 moths during last year - Males": 165,
      "Prevalence of Anaemia  in percentage DLHS-4": "Not available",
      "Prevalence of Chronic illness in percentage DLHS-4": "Not available",
      "Households with solar energy as main source of lighting in percentage Houselisting and Housing Census Data Tables- District Level , Census of India__1": 0.103900102,
      "Marginal Workers Agricultural Labourers worked for 0 - 3 moths during last year - Females": 183,
      "Main Workers - Males": 63310,
      "Female": "NA",
      "Sno": 363,
      "Marginal Workers Other worked for 3 - 6 moths during last year - Females": 1252,
      "Marginal Workers Cultivators worked for 0 - 3 moths during last year - Females": 38,
      "Scheduled Tribe Males": 15008,
      "Male Illiterates": 25036,
      "Prevalence of Severe Anaemia in pregnant women aged 15-49years in percentage DLHS-4": "Not available",
      "0-6 Age Group Persons": 30986,
      "Upper Primary Student-Classroom Ratio in percentage DISE": "NA",
      "Currently married men married below 21years of age in percentage DLHS-4": 25.8,
      "Male Literates": 101425,
      "Households with no lighting in percentage Houselisting and Housing Census Data Tables- District Level , Census of India__2": 0.126989014,
      "Primary Drop Out Rate in percentage DISE": "NA",
      "Marginal Workers Household Industry - Males": 120,
      "Female Illiterates": 37778,
      "Main Workers Other - Females": 10612,
      "Marginal Workers Cultivators - Persons": 472,
      "Upper Primary Gross Enrolment Ratio in percentage DISE": "NA",
      "Scheduled Caste Persons": 36883,
      "Marginal Workers Cultivators worked for 3 - 6 moths during last year - Persons": 418,
      "Households with landline phone in percentage": 3.5,
      "Total Households in District  Houselisting and Housing Census Data Tables- District Level , Census of India": 51973,
      "Upper Primary Pupil-Teacher Ratio in percentage DISE": "NA",
      "Primary Student-Classroom Ratio in percentage DISE": "NA",
      "Primary Schools with boys toilet in percentage DISE": "NA",
      "Mean number of children ever born to women aged 40-49years  DLHS-4": "Not available",
      "Households receiving untreated tap water within premises  Houselisting and Housing Census Data Tables- District Level , Census of India__5": 10176,
      "Marginal Workers Household Industry worked for 0 - 3 moths during last year - Persons": 56,
      "Total Male Population": 126461,
      "Non Workers - Females": 102961,
      "Current use of family planning methods in percentage DLHS-4": 59.4,
      "Households with main source of drinking water within premises  Houselisting and Housing Census Data Tables- District Level , Census of India__3": 26995,
      "Main Workers Agricultural Labourers - Males": 3304,
      "Marginal Workers Other worked for 0 - 3 moths during last year - Persons": 1054,
      "Currently married women married below 18years of age in percentage DLHS-4": 22.4,
      "Person Illiterates": 62814,
      "Main Workers Household Industry - Females": 443,
      "Female Literates": 82063,
      "Marginal Workers Cultivators worked for 0 - 3 moths during last year - Males": 16,
      "Male": "NA",
      "Households with improved source of drinking water in percentage DLHS-4": "Not available",
      "Upper Primary Schools with electricity in percentage DISE": "NA",
      "Households with electricity in percentage DLHS-4": "Not available",
      "Villages with Primary Health Centre within 10km in percentage DLHS-4": 0,
      "Births to women aged 15-19years out of Total births in percentage DLHS-4": "Not available",
      "Prevalence of Anaemia in women aged 15-49years in percentage DLHS-4": "Not available",
      "Marginal Workers Agricultural Labourers worked for 3 - 6 moths during last year - Persons": 2730,
      "Main Workers Household Industry - Males": 1271,
      "Scheduled Tribe Females": 15007,
      "Marginal Workers worked for 0 - 3 moths during last year - Males": 720,
      "Marginal Workers Other worked for 3 - 6 moths during last year - Males": 2930,
      "Primary Net Enrolment Ratio in percentage DISE": "NA",
      "Total": "NA",
      "Mean age at marriage for boys DLHS-4": 5.6,
      "Number of District Hospitals  DLHS-4": 0,
      "0-6 Age Group Females": 14753,
      "Marginal Workers Agricultural Labourers worked for 0 - 3 moths during last year - Persons": 265,
      "Marginal Workers Household Industry worked for 0 - 3 moths during last year - Males": 31,
      "Total Workers  Females": 16880,
      "Marginal Workers worked for 3 - 6 moths during last year - Females": 3200,
      "Institutional Deliveries in percentage DLHS-4": 77.2,
      "Marginal Workers Other - Males": 3521,
      "Total Workers  Males": 68345,
      "Main Workers - Females": 12971,
      "Primary Gross Enrolment Ratio in percentage DISE": "NA",
      "Main Workers Cultivators - Persons": 3044,
      "Marginal Workers Household Industry worked for 0 - 3 moths during last year - Females": 25,
      "Upper Primary Net Enrolment Ratio in percentage DISE": "NA",
      "Primary New Government Schools since 2003 in percentage DISE": "NA",
      "Tier": "Urban",
      "Marginal Workers Household Industry - Females": 121,
      "Primary Schools with electricity in percentage DISE": "NA",
      "Main Workers Other - Persons": 66863,
      "Marginal Workers Household Industry worked for 3 - 6 moths during last year - Females": 96,
      "Main Workers Cultivators - Males": 2484,
      "Main Workers Household Industry - Persons": 1714,
      "Marginal Workers Cultivators worked for 0 - 3 moths during last year - Persons": 54,
      "Scheduled Caste Males": 18469,
      "Marginal Workers - Persons": 8944,
      "Deliveries at home conducted by skilled health personnel in percentage DLHS-4": 64.9,
      "Villages with Sub-Health Centres within 3km in percentage DLHS-4": 0,
      "Upper Primary New Government Schools since 2003 in percentage DISE": "NA",
      "0-6 Age Group Males": 16233,
      "Primary Schools with drinking water facility in percentage DISE": "NA",
      "Non Workers - Persons": 161077,
      "Person Literates": 183488,
      "State": "CHHATTISGARH",
      "Total Female Population": 119841,
      "Marginal Workers worked for 0 - 3 moths during last year - Persons": 1429,
      "Marginal Workers Cultivators - Females": 291,
      "Marginal Workers Other - Persons": 5236,
      "Sex Ratio": 948,
      "Scheduled Tribe Persons": 30015,
      "Marginal Workers Household Industry worked for 3 - 6 moths during last year - Males": 89,
      "Marginal Workers Agricultural Labourers - Females": 1782,
      "Mean age at marriage for girls DLHS-4": 2.4,
      "Households with solar energy as main source of lighting  Houselisting and Housing Census Data Tables- District Level , Census of India__4": 54,
      "District": "RAIGARH",
      "Households receiving treated tap water within premises in percentage Houselisting and Housing Census Data Tables- District Level , Census of India__1": 20.34517923,
      "Total Workers  Persons": 85225,
      "Households receiving treated tap water within premises  Houselisting and Housing Census Data Tables- District Level , Census of India__4": 10574,
      "Primary Female Teachers in percentage DISE": "NA",
      "Number of Households": 55162,
      "Main Workers Agricultural Labourers - Persons": 4660
    }
  ]
}