{
  "Total": [
    {
      "Marginal Workers Agricultural Labourers - Persons": 340591,
      "Marginal Workers Other - Females": 20580,
      "Marginal Workers Other worked for 0 - 3 moths during last year - Females": 4203,
      "Upper Primary Schools with boys toilet in percentage DISE": 85.7,
      "Total Population": 3937385,
      "Households with electricity as main source of lighting in percentage Houselisting and Housing Census Data Tables- District Level , Census of India": 15.81586178,
      "Primary Girl's Enrolment in percentage DISE": 49.8,
      "Marginal Workers worked for 3 - 6 moths during last year - Males": 282579,
      "Prevalence of Acute illness in percentage DLHS-4": "Not available",
      "Main Workers - Persons": 731347,
      "Main Workers Cultivators - Females": 21807,
      "Marginal Workers Agricultural Labourers worked for 3 - 6 moths during last year - Females": 88726,
      "Marginal Workers Other worked for 0 - 3 moths during last year - Males": 7195,
      "Upper Primary Schools with drinking water facility in percentage DISE": 100,
      "Primary Schools with girls toilet in percentage DISE": 42,
      "Marginal Workers worked for 3 - 6 moths during last year - Persons": 407472,
      "Upper Primary Drop Out Rate in percentage DISE": "Not available",
      "Prevalence of Anaemia in pregnant women aged 15-49years in percentage DLHS-4": "Not available",
      "Current use of any modern method of family planning in percentage DLHS-4": 43.7,
      "Marginal Workers Agricultural Labourers - Males": 224202,
      "Upper Primary Female Teachers in percentage DISE": 35.1,
      "Marginal Workers - Females": 163635,
      "Marginal Workers Other worked for 3 - 6 moths during last year - Persons": 62208,
      "Main Workers Agricultural Labourers - Females": 53690,
      "Marginal Workers Cultivators worked for 3 - 6 moths during last year - Females": 12617,
      "Households with no lighting  Houselisting and Housing Census Data Tables- District Level , Census of India__5": 731,
      "Prevalence of Severe Anaemia  in percentage DLHS-4": "Not available",
      "Total unmet need for family planning in percentage DLHS-4": 31.2,
      "Main Workers Other - Males": 197366,
      "Children who received full vaccination in percentage DLHS-4": "Not available",
      "Marginal Workers Household Industry - Persons": 20831,
      "Primary Pupil-Teacher Ratio in percentage DISE": 48,
      "Marginal Workers Agricultural Labourers worked for 3 - 6 moths during last year - Males": 192870,
      "Scheduled Caste Females": 293361,
      "Marginal Workers Cultivators - Males": 41117,
      "Marginal Workers - Males": 328658,
      "Marginal Workers worked for 0 - 3 moths during last year - Females": 38742,
      "Households with main source of drinking water within premises in percentage Houselisting and Housing Census Data Tables- District Level , Census of India": 42.87875441,
      "Marginal Workers Household Industry worked for 3 - 6 moths during last year - Persons": 15435,
      "Upper Primary Girl's Enrolment in percentage DISE": 43.7,
      "Prevalence of Severe Anaemia in women aged 15-49years in percentage DLHS-4": "Not available",
      "Marginal Workers Agricultural Labourers worked for 0 - 3 moths during last year - Males": 31332,
      "Households with electricity as main source of lighting  Houselisting and Housing Census Data Tables- District Level , Census of India__3": 127442,
      "Households with computer or laptop with internet connection in percentage": 0.78,
      "PHCs functioning on a 24x7hours basis in percentage DLHS-4": "Not available",
      "Non Workers - Males": 1112022,
      "Total Households in District Houselisting and Housing Census Data Tables- District Level , Census of India": 805786,
      "Upper Primary Schools with girls toilet in percentage DISE": 85.7,
      "Households with mobile phone in percentage": 50.58,
      "Households receiving untreated tap water within premises in percentage Houselisting and Housing Census Data Tables- District Level , Census of India__2": 0.249073575,
      "Marginal Workers Cultivators worked for 3 - 6 moths during last year - Males": 35616,
      "Prevalence of Anaemia  in percentage DLHS-4": "Not available",
      "Prevalence of Chronic illness in percentage DLHS-4": "Not available",
      "Households with solar energy as main source of lighting in percentage Houselisting and Housing Census Data Tables- District Level , Census of India__1": 0.414750318,
      "Marginal Workers Agricultural Labourers worked for 0 - 3 moths during last year - Females": 27663,
      "Main Workers - Males": 619269,
      "Female": 45.24,
      "Sno": 206,
      "Marginal Workers Other worked for 3 - 6 moths during last year - Females": 16377,
      "Marginal Workers Cultivators worked for 0 - 3 moths during last year - Females": 3531,
      "Scheduled Tribe Males": 1361,
      "Male Illiterates": 934383,
      "Prevalence of Severe Anaemia in pregnant women aged 15-49years in percentage DLHS-4": "Not available",
      "0-6 Age Group Persons": 725482,
      "Upper Primary Student-Classroom Ratio in percentage DISE": 40,
      "Currently married men married below 21years of age in percentage DLHS-4": 16.9,
      "Male Literates": 1125566,
      "Households with no lighting in percentage Houselisting and Housing Census Data Tables- District Level , Census of India__2": 0.0907,
      "Primary Drop Out Rate in percentage DISE": "Not available",
      "Marginal Workers Household Industry - Males": 10313,
      "Female Illiterates": 1186368,
      "Main Workers Other - Females": 29034,
      "Marginal Workers Cultivators - Persons": 57265,
      "Upper Primary Gross Enrolment Ratio in percentage DISE": 68.9,
      "Scheduled Caste Persons": 615688,
      "Marginal Workers Cultivators worked for 3 - 6 moths during last year - Persons": 48233,
      "Households with landline phone in percentage": 2.13,
      "Total Households in District  Houselisting and Housing Census Data Tables- District Level , Census of India": 805786,
      "Upper Primary Pupil-Teacher Ratio in percentage DISE": 53,
      "Primary Student-Classroom Ratio in percentage DISE": 60,
      "Primary Schools with boys toilet in percentage DISE": 41.3,
      "Mean number of children ever born to women aged 40-49years  DLHS-4": "Not available",
      "Households receiving untreated tap water within premises  Houselisting and Housing Census Data Tables- District Level , Census of India__5": 2007,
      "Marginal Workers Household Industry worked for 0 - 3 moths during last year - Persons": 5396,
      "Total Male Population": 2059949,
      "Non Workers - Females": 1601723,
      "Current use of family planning methods in percentage DLHS-4": 48.4,
      "Households with main source of drinking water within premises  Houselisting and Housing Census Data Tables- District Level , Census of India__3": 345511,
      "Main Workers Agricultural Labourers - Males": 247834,
      "Marginal Workers Other worked for 0 - 3 moths during last year - Persons": 11398,
      "Currently married women married below 18years of age in percentage DLHS-4": 7.5,
      "Person Illiterates": 2120751,
      "Main Workers Household Industry - Females": 7547,
      "Female Literates": 691068,
      "Marginal Workers Cultivators worked for 0 - 3 moths during last year - Males": 5501,
      "Male": 66.83,
      "Households with improved source of drinking water in percentage DLHS-4": "Not available",
      "Upper Primary Schools with electricity in percentage DISE": 14.3,
      "Households with electricity in percentage DLHS-4": "Not available",
      "Villages with Primary Health Centre within 10km in percentage DLHS-4": "Not available",
      "Births to women aged 15-19years out of Total births in percentage DLHS-4": "Not available",
      "Prevalence of Anaemia in women aged 15-49years in percentage DLHS-4": "Not available",
      "Marginal Workers Agricultural Labourers worked for 3 - 6 moths during last year - Persons": 281596,
      "Main Workers Household Industry - Males": 16468,
      "Scheduled Tribe Females": 1411,
      "Marginal Workers worked for 0 - 3 moths during last year - Males": 46079,
      "Marginal Workers Other worked for 3 - 6 moths during last year - Males": 45831,
      "Primary Net Enrolment Ratio in percentage DISE": 89,
      "Total": 56.56,
      "Mean age at marriage for boys DLHS-4": 23.6,
      "Number of District Hospitals  DLHS-4": "Not available",
      "0-6 Age Group Females": 349800,
      "Marginal Workers Agricultural Labourers worked for 0 - 3 moths during last year - Persons": 58995,
      "Marginal Workers Household Industry worked for 0 - 3 moths during last year - Males": 2051,
      "Total Workers  Females": 275713,
      "Marginal Workers worked for 3 - 6 moths during last year - Females": 124893,
      "Institutional Deliveries in percentage DLHS-4": 32.9,
      "Marginal Workers Other - Males": 53026,
      "Total Workers  Males": 947927,
      "Main Workers - Females": 112078,
      "Primary Gross Enrolment Ratio in percentage DISE": 95.8,
      "Main Workers Cultivators - Persons": 179408,
      "Marginal Workers Household Industry worked for 0 - 3 moths during last year - Females": 3345,
      "Upper Primary Net Enrolment Ratio in percentage DISE": 61.8,
      "Primary New Government Schools since 2003 in percentage DISE": 56.9,
      "Tier": "Total",
      "Marginal Workers Household Industry - Females": 10518,
      "Primary Schools with electricity in percentage DISE": 4.3,
      "Main Workers Other - Persons": 226400,
      "Marginal Workers Household Industry worked for 3 - 6 moths during last year - Females": 7173,
      "Main Workers Cultivators - Males": 157601,
      "Main Workers Household Industry - Persons": 24015,
      "Marginal Workers Cultivators worked for 0 - 3 moths during last year - Persons": 9032,
      "Scheduled Caste Males": 322327,
      "Marginal Workers - Persons": 492293,
      "Deliveries at home conducted by skilled health personnel in percentage DLHS-4": 24.9,
      "Villages with Sub-Health Centres within 3km in percentage DLHS-4": "Not available",
      "Upper Primary New Government Schools since 2003 in percentage DISE": 0,
      "0-6 Age Group Males": 375682,
      "Primary Schools with drinking water facility in percentage DISE": 86.3,
      "Non Workers - Persons": 2713745,
      "Person Literates": 1816634,
      "State": "BIHAR",
      "Total Female Population": 1877436,
      "Marginal Workers worked for 0 - 3 moths during last year - Persons": 84821,
      "Marginal Workers Cultivators - Females": 16148,
      "Marginal Workers Other - Persons": 73606,
      "Sex Ratio": 911,
      "Scheduled Tribe Persons": 2772,
      "Marginal Workers Household Industry worked for 3 - 6 moths during last year - Males": 8262,
      "Marginal Workers Agricultural Labourers - Females": 116389,
      "Mean age at marriage for girls DLHS-4": 20.3,
      "Households with solar energy as main source of lighting  Houselisting and Housing Census Data Tables- District Level , Census of India__4": 3342,
      "District": "DARBHANGA",
      "Households receiving treated tap water within premises in percentage Houselisting and Housing Census Data Tables- District Level , Census of India__1": 0.882368271,
      "Total Workers  Persons": 1223640,
      "Households receiving treated tap water within premises  Houselisting and Housing Census Data Tables- District Level , Census of India__4": 7110,
      "Primary Female Teachers in percentage DISE": 44.5,
      "Number of Households": 803012,
      "Main Workers Agricultural Labourers - Persons": 301524
    }
  ],
  "Rural": [
    {
      "Marginal Workers Agricultural Labourers - Persons": 333673,
      "Marginal Workers Other - Females": 17766,
      "Marginal Workers Other worked for 0 - 3 moths during last year - Females": 3820,
      "Upper Primary Schools with boys toilet in percentage DISE": "NA",
      "Total Population": 3554057,
      "Households with electricity as main source of lighting in percentage Houselisting and Housing Census Data Tables- District Level , Census of India": 10.99621724,
      "Primary Girl's Enrolment in percentage DISE": "NA",
      "Marginal Workers worked for 3 - 6 moths during last year - Males": 268494,
      "Prevalence of Acute illness in percentage DLHS-4": "Not available",
      "Main Workers - Persons": 647936,
      "Main Workers Cultivators - Females": 21255,
      "Marginal Workers Agricultural Labourers worked for 3 - 6 moths during last year - Females": 87084,
      "Marginal Workers Other worked for 0 - 3 moths during last year - Males": 5745,
      "Upper Primary Schools with drinking water facility in percentage DISE": "NA",
      "Primary Schools with girls toilet in percentage DISE": "NA",
      "Marginal Workers worked for 3 - 6 moths during last year - Persons": 388701,
      "Upper Primary Drop Out Rate in percentage DISE": "NA",
      "Prevalence of Anaemia in pregnant women aged 15-49years in percentage DLHS-4": "Not available",
      "Current use of any modern method of family planning in percentage DLHS-4": 43.7,
      "Marginal Workers Agricultural Labourers - Males": 219793,
      "Upper Primary Female Teachers in percentage DISE": "NA",
      "Marginal Workers - Females": 157298,
      "Marginal Workers Other worked for 3 - 6 moths during last year - Persons": 51231,
      "Main Workers Agricultural Labourers - Females": 52761,
      "Marginal Workers Cultivators worked for 3 - 6 moths during last year - Females": 12424,
      "Households with no lighting  Houselisting and Housing Census Data Tables- District Level , Census of India__5": 479,
      "Prevalence of Severe Anaemia  in percentage DLHS-4": "Not available",
      "Total unmet need for family planning in percentage DLHS-4": 31.6,
      "Main Workers Other - Males": 136059,
      "Children who received full vaccination in percentage DLHS-4": "Not available",
      "Marginal Workers Household Industry - Persons": 19029,
      "Primary Pupil-Teacher Ratio in percentage DISE": "NA",
      "Marginal Workers Agricultural Labourers worked for 3 - 6 moths during last year - Males": 189169,
      "Scheduled Caste Females": 272078,
      "Marginal Workers Cultivators - Males": 40119,
      "Marginal Workers - Males": 312134,
      "Marginal Workers worked for 0 - 3 moths during last year - Females": 37091,
      "Households with main source of drinking water within premises in percentage Houselisting and Housing Census Data Tables- District Level , Census of India": 40.26588553,
      "Marginal Workers Household Industry worked for 3 - 6 moths during last year - Persons": 14061,
      "Upper Primary Girl's Enrolment in percentage DISE": "NA",
      "Prevalence of Severe Anaemia in women aged 15-49years in percentage DLHS-4": "Not available",
      "Marginal Workers Agricultural Labourers worked for 0 - 3 moths during last year - Males": 30624,
      "Households with electricity as main source of lighting  Houselisting and Housing Census Data Tables- District Level , Census of India__3": 80522,
      "Households with computer or laptop with internet connection in percentage": 0.54,
      "PHCs functioning on a 24x7hours basis in percentage DLHS-4": "Not applicable",
      "Non Workers - Males": 1000830,
      "Total Households in District Houselisting and Housing Census Data Tables- District Level , Census of India": 732270,
      "Upper Primary Schools with girls toilet in percentage DISE": "NA",
      "Households with mobile phone in percentage": 49.7,
      "Households receiving untreated tap water within premises in percentage Houselisting and Housing Census Data Tables- District Level , Census of India__2": 0.161825556,
      "Marginal Workers Cultivators worked for 3 - 6 moths during last year - Males": 34732,
      "Prevalence of Anaemia  in percentage DLHS-4": "Not available",
      "Prevalence of Chronic illness in percentage DLHS-4": "Not available",
      "Households with solar energy as main source of lighting in percentage Houselisting and Housing Census Data Tables- District Level , Census of India__1": 0.432081063,
      "Marginal Workers Agricultural Labourers worked for 0 - 3 moths during last year - Females": 26796,
      "Main Workers - Males": 545581,
      "Female": "NA",
      "Sno": 205,
      "Marginal Workers Other worked for 3 - 6 moths during last year - Females": 13946,
      "Marginal Workers Cultivators worked for 0 - 3 moths during last year - Females": 3391,
      "Scheduled Tribe Males": 1088,
      "Male Illiterates": 874203,
      "Prevalence of Severe Anaemia in pregnant women aged 15-49years in percentage DLHS-4": "Not available",
      "0-6 Age Group Persons": 668296,
      "Upper Primary Student-Classroom Ratio in percentage DISE": "NA",
      "Currently married men married below 21years of age in percentage DLHS-4": 17.7,
      "Male Literates": 984342,
      "Households with no lighting in percentage Houselisting and Housing Census Data Tables- District Level , Census of India__2": 0.0654,
      "Primary Drop Out Rate in percentage DISE": "NA",
      "Marginal Workers Household Industry - Males": 9192,
      "Female Illiterates": 1109961,
      "Main Workers Other - Females": 21538,
      "Marginal Workers Cultivators - Persons": 55934,
      "Upper Primary Gross Enrolment Ratio in percentage DISE": "NA",
      "Scheduled Caste Persons": 570735,
      "Marginal Workers Cultivators worked for 3 - 6 moths during last year - Persons": 47156,
      "Households with landline phone in percentage": 1.99,
      "Total Households in District  Houselisting and Housing Census Data Tables- District Level , Census of India": 732270,
      "Upper Primary Pupil-Teacher Ratio in percentage DISE": "NA",
      "Primary Student-Classroom Ratio in percentage DISE": "NA",
      "Primary Schools with boys toilet in percentage DISE": "NA",
      "Mean number of children ever born to women aged 40-49years  DLHS-4": "Not available",
      "Households receiving untreated tap water within premises  Houselisting and Housing Census Data Tables- District Level , Census of India__5": 1185,
      "Marginal Workers Household Industry worked for 0 - 3 moths during last year - Persons": 4968,
      "Total Male Population": 1858545,
      "Non Workers - Females": 1435859,
      "Current use of family planning methods in percentage DLHS-4": 48,
      "Households with main source of drinking water within premises  Houselisting and Housing Census Data Tables- District Level , Census of India__3": 294855,
      "Main Workers Agricultural Labourers - Males": 242141,
      "Marginal Workers Other worked for 0 - 3 moths during last year - Persons": 9565,
      "Currently married women married below 18years of age in percentage DLHS-4": 7.7,
      "Person Illiterates": 1984164,
      "Main Workers Household Industry - Females": 6801,
      "Female Literates": 585551,
      "Marginal Workers Cultivators worked for 0 - 3 moths during last year - Males": 5387,
      "Male": "NA",
      "Households with improved source of drinking water in percentage DLHS-4": "Not available",
      "Upper Primary Schools with electricity in percentage DISE": "NA",
      "Households with electricity in percentage DLHS-4": "Not available",
      "Villages with Primary Health Centre within 10km in percentage DLHS-4": "Not applicable",
      "Births to women aged 15-19years out of Total births in percentage DLHS-4": "Not available",
      "Prevalence of Anaemia in women aged 15-49years in percentage DLHS-4": "Not available",
      "Marginal Workers Agricultural Labourers worked for 3 - 6 moths during last year - Persons": 276253,
      "Main Workers Household Industry - Males": 13456,
      "Scheduled Tribe Females": 1117,
      "Marginal Workers worked for 0 - 3 moths during last year - Males": 43640,
      "Marginal Workers Other worked for 3 - 6 moths during last year - Males": 37285,
      "Primary Net Enrolment Ratio in percentage DISE": "NA",
      "Total": "NA",
      "Mean age at marriage for boys DLHS-4": 23.3,
      "Number of District Hospitals  DLHS-4": "Not applicable",
      "0-6 Age Group Females": 322425,
      "Marginal Workers Agricultural Labourers worked for 0 - 3 moths during last year - Persons": 57420,
      "Marginal Workers Household Industry worked for 0 - 3 moths during last year - Males": 1884,
      "Total Workers  Females": 259653,
      "Marginal Workers worked for 3 - 6 moths during last year - Females": 120207,
      "Institutional Deliveries in percentage DLHS-4": 30.8,
      "Marginal Workers Other - Males": 43030,
      "Total Workers  Males": 857715,
      "Main Workers - Females": 102355,
      "Primary Gross Enrolment Ratio in percentage DISE": "NA",
      "Main Workers Cultivators - Persons": 175180,
      "Marginal Workers Household Industry worked for 0 - 3 moths during last year - Females": 3084,
      "Upper Primary Net Enrolment Ratio in percentage DISE": "NA",
      "Primary New Government Schools since 2003 in percentage DISE": "NA",
      "Tier": "Rural",
      "Marginal Workers Household Industry - Females": 9837,
      "Primary Schools with electricity in percentage DISE": "NA",
      "Main Workers Other - Persons": 157597,
      "Marginal Workers Household Industry worked for 3 - 6 moths during last year - Females": 6753,
      "Main Workers Cultivators - Males": 153925,
      "Main Workers Household Industry - Persons": 20257,
      "Marginal Workers Cultivators worked for 0 - 3 moths during last year - Persons": 8778,
      "Scheduled Caste Males": 298657,
      "Marginal Workers - Persons": 469432,
      "Deliveries at home conducted by skilled health personnel in percentage DLHS-4": 25.2,
      "Villages with Sub-Health Centres within 3km in percentage DLHS-4": "Not applicable",
      "Upper Primary New Government Schools since 2003 in percentage DISE": "NA",
      "0-6 Age Group Males": 345871,
      "Primary Schools with drinking water facility in percentage DISE": "NA",
      "Non Workers - Persons": 2436689,
      "Person Literates": 1569893,
      "State": "BIHAR",
      "Total Female Population": 1695512,
      "Marginal Workers worked for 0 - 3 moths during last year - Persons": 80731,
      "Marginal Workers Cultivators - Females": 15815,
      "Marginal Workers Other - Persons": 60796,
      "Sex Ratio": 912,
      "Scheduled Tribe Persons": 2205,
      "Marginal Workers Household Industry worked for 3 - 6 moths during last year - Males": 7308,
      "Marginal Workers Agricultural Labourers - Females": 113880,
      "Mean age at marriage for girls DLHS-4": 20.2,
      "Households with solar energy as main source of lighting  Houselisting and Housing Census Data Tables- District Level , Census of India__4": 3164,
      "District": "DARBHANGA",
      "Households receiving treated tap water within premises in percentage Houselisting and Housing Census Data Tables- District Level , Census of India__1": 0.613571497,
      "Total Workers  Persons": 1117368,
      "Households receiving treated tap water within premises  Houselisting and Housing Census Data Tables- District Level , Census of India__4": 4493,
      "Primary Female Teachers in percentage DISE": "NA",
      "Number of Households": 729100,
      "Main Workers Agricultural Labourers - Persons": 294902
    }
  ],
  "Urban": [
    {
      "Marginal Workers Agricultural Labourers - Persons": 6918,
      "Marginal Workers Other - Females": 2814,
      "Marginal Workers Other worked for 0 - 3 moths during last year - Females": 383,
      "Upper Primary Schools with boys toilet in percentage DISE": "NA",
      "Total Population": 383328,
      "Households with electricity as main source of lighting in percentage Houselisting and Housing Census Data Tables- District Level , Census of India": 63.82284129,
      "Primary Girl's Enrolment in percentage DISE": "NA",
      "Marginal Workers worked for 3 - 6 moths during last year - Males": 14085,
      "Prevalence of Acute illness in percentage DLHS-4": "Not available",
      "Main Workers - Persons": 83411,
      "Main Workers Cultivators - Females": 552,
      "Marginal Workers Agricultural Labourers worked for 3 - 6 moths during last year - Females": 1642,
      "Marginal Workers Other worked for 0 - 3 moths during last year - Males": 1450,
      "Upper Primary Schools with drinking water facility in percentage DISE": "NA",
      "Primary Schools with girls toilet in percentage DISE": "NA",
      "Marginal Workers worked for 3 - 6 moths during last year - Persons": 18771,
      "Upper Primary Drop Out Rate in percentage DISE": "NA",
      "Prevalence of Anaemia in pregnant women aged 15-49years in percentage DLHS-4": "Not available",
      "Current use of any modern method of family planning in percentage DLHS-4": 43.6,
      "Marginal Workers Agricultural Labourers - Males": 4409,
      "Upper Primary Female Teachers in percentage DISE": "NA",
      "Marginal Workers - Females": 6337,
      "Marginal Workers Other worked for 3 - 6 moths during last year - Persons": 10977,
      "Main Workers Agricultural Labourers - Females": 929,
      "Marginal Workers Cultivators worked for 3 - 6 moths during last year - Females": 193,
      "Households with no lighting  Houselisting and Housing Census Data Tables- District Level , Census of India__5": 252,
      "Prevalence of Severe Anaemia  in percentage DLHS-4": "Not available",
      "Total unmet need for family planning in percentage DLHS-4": 25.5,
      "Main Workers Other - Males": 61307,
      "Children who received full vaccination in percentage DLHS-4": "Not available",
      "Marginal Workers Household Industry - Persons": 1802,
      "Primary Pupil-Teacher Ratio in percentage DISE": "NA",
      "Marginal Workers Agricultural Labourers worked for 3 - 6 moths during last year - Males": 3701,
      "Scheduled Caste Females": 21283,
      "Marginal Workers Cultivators - Males": 998,
      "Marginal Workers - Males": 16524,
      "Marginal Workers worked for 0 - 3 moths during last year - Females": 1651,
      "Households with main source of drinking water within premises in percentage Houselisting and Housing Census Data Tables- District Level , Census of India": 68.90472822,
      "Marginal Workers Household Industry worked for 3 - 6 moths during last year - Persons": 1374,
      "Upper Primary Girl's Enrolment in percentage DISE": "NA",
      "Prevalence of Severe Anaemia in women aged 15-49years in percentage DLHS-4": "Not available",
      "Marginal Workers Agricultural Labourers worked for 0 - 3 moths during last year - Males": 708,
      "Households with electricity as main source of lighting  Houselisting and Housing Census Data Tables- District Level , Census of India__3": 46920,
      "Households with computer or laptop with internet connection in percentage": 3.18,
      "PHCs functioning on a 24x7hours basis in percentage DLHS-4": 0,
      "Non Workers - Males": 111192,
      "Total Households in District Houselisting and Housing Census Data Tables- District Level , Census of India": 73516,
      "Upper Primary Schools with girls toilet in percentage DISE": "NA",
      "Households with mobile phone in percentage": 59.36,
      "Households receiving untreated tap water within premises in percentage Houselisting and Housing Census Data Tables- District Level , Census of India__2": 1.118123946,
      "Marginal Workers Cultivators worked for 3 - 6 moths during last year - Males": 884,
      "Prevalence of Anaemia  in percentage DLHS-4": "Not available",
      "Prevalence of Chronic illness in percentage DLHS-4": "Not available",
      "Households with solar energy as main source of lighting in percentage Houselisting and Housing Census Data Tables- District Level , Census of India__1": 0.242124163,
      "Marginal Workers Agricultural Labourers worked for 0 - 3 moths during last year - Females": 867,
      "Main Workers - Males": 73688,
      "Female": "NA",
      "Sno": 207,
      "Marginal Workers Other worked for 3 - 6 moths during last year - Females": 2431,
      "Marginal Workers Cultivators worked for 0 - 3 moths during last year - Females": 140,
      "Scheduled Tribe Males": 273,
      "Male Illiterates": 60180,
      "Prevalence of Severe Anaemia in pregnant women aged 15-49years in percentage DLHS-4": "Not available",
      "0-6 Age Group Persons": 57186,
      "Upper Primary Student-Classroom Ratio in percentage DISE": "NA",
      "Currently married men married below 21years of age in percentage DLHS-4": 9.4,
      "Male Literates": 141224,
      "Households with no lighting in percentage Houselisting and Housing Census Data Tables- District Level , Census of India__2": 0.342782524,
      "Primary Drop Out Rate in percentage DISE": "NA",
      "Marginal Workers Household Industry - Males": 1121,
      "Female Illiterates": 76407,
      "Main Workers Other - Females": 7496,
      "Marginal Workers Cultivators - Persons": 1331,
      "Upper Primary Gross Enrolment Ratio in percentage DISE": "NA",
      "Scheduled Caste Persons": 44953,
      "Marginal Workers Cultivators worked for 3 - 6 moths during last year - Persons": 1077,
      "Households with landline phone in percentage": 3.55,
      "Total Households in District  Houselisting and Housing Census Data Tables- District Level , Census of India": 73516,
      "Upper Primary Pupil-Teacher Ratio in percentage DISE": "NA",
      "Primary Student-Classroom Ratio in percentage DISE": "NA",
      "Primary Schools with boys toilet in percentage DISE": "NA",
      "Mean number of children ever born to women aged 40-49years  DLHS-4": "Not available",
      "Households receiving untreated tap water within premises  Houselisting and Housing Census Data Tables- District Level , Census of India__5": 822,
      "Marginal Workers Household Industry worked for 0 - 3 moths during last year - Persons": 428,
      "Total Male Population": 201404,
      "Non Workers - Females": 165864,
      "Current use of family planning methods in percentage DLHS-4": 53.1,
      "Households with main source of drinking water within premises  Houselisting and Housing Census Data Tables- District Level , Census of India__3": 50656,
      "Main Workers Agricultural Labourers - Males": 5693,
      "Marginal Workers Other worked for 0 - 3 moths during last year - Persons": 1833,
      "Currently married women married below 18years of age in percentage DLHS-4": 4,
      "Person Illiterates": 136587,
      "Main Workers Household Industry - Females": 746,
      "Female Literates": 105517,
      "Marginal Workers Cultivators worked for 0 - 3 moths during last year - Males": 114,
      "Male": "NA",
      "Households with improved source of drinking water in percentage DLHS-4": "Not available",
      "Upper Primary Schools with electricity in percentage DISE": "NA",
      "Households with electricity in percentage DLHS-4": "Not available",
      "Villages with Primary Health Centre within 10km in percentage DLHS-4": 0,
      "Births to women aged 15-19years out of Total births in percentage DLHS-4": "Not available",
      "Prevalence of Anaemia in women aged 15-49years in percentage DLHS-4": "Not available",
      "Marginal Workers Agricultural Labourers worked for 3 - 6 moths during last year - Persons": 5343,
      "Main Workers Household Industry - Males": 3012,
      "Scheduled Tribe Females": 294,
      "Marginal Workers worked for 0 - 3 moths during last year - Males": 2439,
      "Marginal Workers Other worked for 3 - 6 moths during last year - Males": 8546,
      "Primary Net Enrolment Ratio in percentage DISE": "NA",
      "Total": "NA",
      "Mean age at marriage for boys DLHS-4": 25.7,
      "Number of District Hospitals  DLHS-4": 0,
      "0-6 Age Group Females": 27375,
      "Marginal Workers Agricultural Labourers worked for 0 - 3 moths during last year - Persons": 1575,
      "Marginal Workers Household Industry worked for 0 - 3 moths during last year - Males": 167,
      "Total Workers  Females": 16060,
      "Marginal Workers worked for 3 - 6 moths during last year - Females": 4686,
      "Institutional Deliveries in percentage DLHS-4": 63,
      "Marginal Workers Other - Males": 9996,
      "Total Workers  Males": 90212,
      "Main Workers - Females": 9723,
      "Primary Gross Enrolment Ratio in percentage DISE": "NA",
      "Main Workers Cultivators - Persons": 4228,
      "Marginal Workers Household Industry worked for 0 - 3 moths during last year - Females": 261,
      "Upper Primary Net Enrolment Ratio in percentage DISE": "NA",
      "Primary New Government Schools since 2003 in percentage DISE": "NA",
      "Tier": "Urban",
      "Marginal Workers Household Industry - Females": 681,
      "Primary Schools with electricity in percentage DISE": "NA",
      "Main Workers Other - Persons": 68803,
      "Marginal Workers Household Industry worked for 3 - 6 moths during last year - Females": 420,
      "Main Workers Cultivators - Males": 3676,
      "Main Workers Household Industry - Persons": 3758,
      "Marginal Workers Cultivators worked for 0 - 3 moths during last year - Persons": 254,
      "Scheduled Caste Males": 23670,
      "Marginal Workers - Persons": 22861,
      "Deliveries at home conducted by skilled health personnel in percentage DLHS-4": 13.6,
      "Villages with Sub-Health Centres within 3km in percentage DLHS-4": 0,
      "Upper Primary New Government Schools since 2003 in percentage DISE": "NA",
      "0-6 Age Group Males": 29811,
      "Primary Schools with drinking water facility in percentage DISE": "NA",
      "Non Workers - Persons": 277056,
      "Person Literates": 246741,
      "State": "BIHAR",
      "Total Female Population": 181924,
      "Marginal Workers worked for 0 - 3 moths during last year - Persons": 4090,
      "Marginal Workers Cultivators - Females": 333,
      "Marginal Workers Other - Persons": 12810,
      "Sex Ratio": 903,
      "Scheduled Tribe Persons": 567,
      "Marginal Workers Household Industry worked for 3 - 6 moths during last year - Males": 954,
      "Marginal Workers Agricultural Labourers - Females": 2509,
      "Mean age at marriage for girls DLHS-4": 21,
      "Households with solar energy as main source of lighting  Houselisting and Housing Census Data Tables- District Level , Census of India__4": 178,
      "District": "DARBHANGA",
      "Households receiving treated tap water within premises in percentage Houselisting and Housing Census Data Tables- District Level , Census of India__1": 3.559769302,
      "Total Workers  Persons": 106272,
      "Households receiving treated tap water within premises  Houselisting and Housing Census Data Tables- District Level , Census of India__4": 2617,
      "Primary Female Teachers in percentage DISE": "NA",
      "Number of Households": 73912,
      "Main Workers Agricultural Labourers - Persons": 6622
    }
  ]
}