{
  "Total": [
    {
      "Marginal Workers Agricultural Labourers - Persons": 371563,
      "Marginal Workers Other - Females": 64185,
      "Marginal Workers Other worked for 0 - 3 moths during last year - Females": 11076,
      "Upper Primary Schools with boys toilet in percentage DISE": 88.9,
      "Total Population": 4391418,
      "Households with electricity as main source of lighting in percentage Houselisting and Housing Census Data Tables- District Level , Census of India": 16.30936778,
      "Primary Girl's Enrolment in percentage DISE": 50.5,
      "Marginal Workers worked for 3 - 6 moths during last year - Males": 291328,
      "Prevalence of Acute illness in percentage DLHS-4": "Not available",
      "Main Workers - Persons": 1007057,
      "Main Workers Cultivators - Females": 63137,
      "Marginal Workers Agricultural Labourers worked for 3 - 6 moths during last year - Females": 143679,
      "Marginal Workers Other worked for 0 - 3 moths during last year - Males": 10630,
      "Upper Primary Schools with drinking water facility in percentage DISE": 100,
      "Primary Schools with girls toilet in percentage DISE": 59,
      "Marginal Workers worked for 3 - 6 moths during last year - Persons": 545877,
      "Upper Primary Drop Out Rate in percentage DISE": "Not available",
      "Prevalence of Anaemia in pregnant women aged 15-49years in percentage DLHS-4": "Not available",
      "Current use of any modern method of family planning in percentage DLHS-4": 31.4,
      "Marginal Workers Agricultural Labourers - Males": 194141,
      "Upper Primary Female Teachers in percentage DISE": 28.8,
      "Marginal Workers - Females": 315300,
      "Marginal Workers Other worked for 3 - 6 moths during last year - Persons": 125556,
      "Main Workers Agricultural Labourers - Females": 134681,
      "Marginal Workers Cultivators worked for 3 - 6 moths during last year - Females": 41418,
      "Households with no lighting  Houselisting and Housing Census Data Tables- District Level , Census of India__5": 1083,
      "Prevalence of Severe Anaemia  in percentage DLHS-4": "Not available",
      "Total unmet need for family planning in percentage DLHS-4": 29,
      "Main Workers Other - Males": 218439,
      "Children who received full vaccination in percentage DLHS-4": "Not available",
      "Marginal Workers Household Industry - Persons": 38123,
      "Primary Pupil-Teacher Ratio in percentage DISE": 60,
      "Marginal Workers Agricultural Labourers worked for 3 - 6 moths during last year - Males": 165379,
      "Scheduled Caste Females": 650408,
      "Marginal Workers Cultivators - Males": 48904,
      "Marginal Workers - Males": 341705,
      "Marginal Workers worked for 0 - 3 moths during last year - Females": 60751,
      "Households with main source of drinking water within premises in percentage Houselisting and Housing Census Data Tables- District Level , Census of India": 45.22747844,
      "Marginal Workers Household Industry worked for 3 - 6 moths during last year - Persons": 28532,
      "Upper Primary Girl's Enrolment in percentage DISE": 48.9,
      "Prevalence of Severe Anaemia in women aged 15-49years in percentage DLHS-4": "Not available",
      "Marginal Workers Agricultural Labourers worked for 0 - 3 moths during last year - Males": 28762,
      "Households with electricity as main source of lighting  Houselisting and Housing Census Data Tables- District Level , Census of India__3": 112617,
      "Households with computer or laptop with internet connection in percentage": 0.99,
      "PHCs functioning on a 24x7hours basis in percentage DLHS-4": "Not available",
      "Non Workers - Males": 1190396,
      "Total Households in District Houselisting and Housing Census Data Tables- District Level , Census of India": 690505,
      "Upper Primary Schools with girls toilet in percentage DISE": 100,
      "Households with mobile phone in percentage": 51.6,
      "Households receiving untreated tap water within premises in percentage Houselisting and Housing Census Data Tables- District Level , Census of India__2": 0.658793202,
      "Marginal Workers Cultivators worked for 3 - 6 moths during last year - Males": 41313,
      "Prevalence of Anaemia  in percentage DLHS-4": "Not available",
      "Prevalence of Chronic illness in percentage DLHS-4": "Not available",
      "Households with solar energy as main source of lighting in percentage Houselisting and Housing Census Data Tables- District Level , Census of India__1": 0.943512357,
      "Marginal Workers Agricultural Labourers worked for 0 - 3 moths during last year - Females": 33743,
      "Main Workers - Males": 734465,
      "Female": 53.34,
      "Sno": 209,
      "Marginal Workers Other worked for 3 - 6 moths during last year - Females": 53109,
      "Marginal Workers Cultivators worked for 0 - 3 moths during last year - Females": 9735,
      "Scheduled Tribe Males": 1635,
      "Male Illiterates": 897763,
      "Prevalence of Severe Anaemia in pregnant women aged 15-49years in percentage DLHS-4": "Not available",
      "0-6 Age Group Persons": 783059,
      "Upper Primary Student-Classroom Ratio in percentage DISE": 46,
      "Currently married men married below 21years of age in percentage DLHS-4": 35.9,
      "Male Literates": 1368803,
      "Households with no lighting in percentage Houselisting and Housing Census Data Tables- District Level , Census of India__2": 0.156841732,
      "Primary Drop Out Rate in percentage DISE": 0.1,
      "Marginal Workers Household Industry - Males": 15583,
      "Female Illiterates": 1196042,
      "Main Workers Other - Females": 56919,
      "Marginal Workers Cultivators - Persons": 100057,
      "Upper Primary Gross Enrolment Ratio in percentage DISE": 64.4,
      "Scheduled Caste Persons": 1334351,
      "Marginal Workers Cultivators worked for 3 - 6 moths during last year - Persons": 82731,
      "Households with landline phone in percentage": 2.42,
      "Total Households in District  Houselisting and Housing Census Data Tables- District Level , Census of India": 690505,
      "Upper Primary Pupil-Teacher Ratio in percentage DISE": 50,
      "Primary Student-Classroom Ratio in percentage DISE": 59,
      "Primary Schools with boys toilet in percentage DISE": 53.7,
      "Mean number of children ever born to women aged 40-49years  DLHS-4": "Not available",
      "Households receiving untreated tap water within premises  Houselisting and Housing Census Data Tables- District Level , Census of India__5": 4549,
      "Marginal Workers Household Industry worked for 0 - 3 moths during last year - Persons": 9591,
      "Total Male Population": 2266566,
      "Non Workers - Females": 1536960,
      "Current use of family planning methods in percentage DLHS-4": 39.3,
      "Households with main source of drinking water within premises  Houselisting and Housing Census Data Tables- District Level , Census of India__3": 312298,
      "Main Workers Agricultural Labourers - Males": 277261,
      "Marginal Workers Other worked for 0 - 3 moths during last year - Persons": 21706,
      "Currently married women married below 18years of age in percentage DLHS-4": 27.5,
      "Person Illiterates": 2093805,
      "Main Workers Household Industry - Females": 17855,
      "Female Literates": 928810,
      "Marginal Workers Cultivators worked for 0 - 3 moths during last year - Males": 7591,
      "Male": 73.31,
      "Households with improved source of drinking water in percentage DLHS-4": "Not available",
      "Upper Primary Schools with electricity in percentage DISE": 0,
      "Households with electricity in percentage DLHS-4": "Not available",
      "Villages with Primary Health Centre within 10km in percentage DLHS-4": "Not available",
      "Births to women aged 15-19years out of Total births in percentage DLHS-4": "Not available",
      "Prevalence of Anaemia in women aged 15-49years in percentage DLHS-4": "Not available",
      "Marginal Workers Agricultural Labourers worked for 3 - 6 moths during last year - Persons": 309058,
      "Main Workers Household Industry - Males": 31200,
      "Scheduled Tribe Females": 1463,
      "Marginal Workers worked for 0 - 3 moths during last year - Males": 50377,
      "Marginal Workers Other worked for 3 - 6 moths during last year - Males": 72447,
      "Primary Net Enrolment Ratio in percentage DISE": 93.7,
      "Total": 63.67,
      "Mean age at marriage for boys DLHS-4": 22.3,
      "Number of District Hospitals  DLHS-4": "Not available",
      "0-6 Age Group Females": 383633,
      "Marginal Workers Agricultural Labourers worked for 0 - 3 moths during last year - Persons": 62505,
      "Marginal Workers Household Industry worked for 0 - 3 moths during last year - Males": 3394,
      "Total Workers  Females": 587892,
      "Marginal Workers worked for 3 - 6 moths during last year - Females": 254549,
      "Institutional Deliveries in percentage DLHS-4": 48.5,
      "Marginal Workers Other - Males": 83077,
      "Total Workers  Males": 1076170,
      "Main Workers - Females": 272592,
      "Primary Gross Enrolment Ratio in percentage DISE": 97.3,
      "Main Workers Cultivators - Persons": 270702,
      "Marginal Workers Household Industry worked for 0 - 3 moths during last year - Females": 6197,
      "Upper Primary Net Enrolment Ratio in percentage DISE": 61,
      "Primary New Government Schools since 2003 in percentage DISE": 33.9,
      "Tier": "Total",
      "Marginal Workers Household Industry - Females": 22540,
      "Primary Schools with electricity in percentage DISE": 3.8,
      "Main Workers Other - Persons": 275358,
      "Marginal Workers Household Industry worked for 3 - 6 moths during last year - Females": 16343,
      "Main Workers Cultivators - Males": 207565,
      "Main Workers Household Industry - Persons": 49055,
      "Marginal Workers Cultivators worked for 0 - 3 moths during last year - Persons": 17326,
      "Scheduled Caste Males": 683943,
      "Marginal Workers - Persons": 657005,
      "Deliveries at home conducted by skilled health personnel in percentage DLHS-4": 35.4,
      "Villages with Sub-Health Centres within 3km in percentage DLHS-4": "Not available",
      "Upper Primary New Government Schools since 2003 in percentage DISE": 0,
      "0-6 Age Group Males": 399426,
      "Primary Schools with drinking water facility in percentage DISE": 88.4,
      "Non Workers - Persons": 2727356,
      "Person Literates": 2297613,
      "State": "BIHAR",
      "Total Female Population": 2124852,
      "Marginal Workers worked for 0 - 3 moths during last year - Persons": 111128,
      "Marginal Workers Cultivators - Females": 51153,
      "Marginal Workers Other - Persons": 147262,
      "Sex Ratio": 937,
      "Scheduled Tribe Persons": 3098,
      "Marginal Workers Household Industry worked for 3 - 6 moths during last year - Males": 12189,
      "Marginal Workers Agricultural Labourers - Females": 177422,
      "Mean age at marriage for girls DLHS-4": 19.4,
      "Households with solar energy as main source of lighting  Houselisting and Housing Census Data Tables- District Level , Census of India__4": 6515,
      "District": "GAYA",
      "Households receiving treated tap water within premises in percentage Houselisting and Housing Census Data Tables- District Level , Census of India__1": 2.282242706,
      "Total Workers  Persons": 1664062,
      "Households receiving treated tap water within premises  Houselisting and Housing Census Data Tables- District Level , Census of India__4": 15759,
      "Primary Female Teachers in percentage DISE": 45.4,
      "Number of Households": 688425,
      "Main Workers Agricultural Labourers - Persons": 411942
    }
  ],
  "Rural": [
    {
      "Marginal Workers Agricultural Labourers - Persons": 364900,
      "Marginal Workers Other - Females": 50409,
      "Marginal Workers Other worked for 0 - 3 moths during last year - Females": 9829,
      "Upper Primary Schools with boys toilet in percentage DISE": "NA",
      "Total Population": 3809817,
      "Households with electricity as main source of lighting in percentage Houselisting and Housing Census Data Tables- District Level , Census of India": 6.879047205,
      "Primary Girl's Enrolment in percentage DISE": "NA",
      "Marginal Workers worked for 3 - 6 moths during last year - Males": 264917,
      "Prevalence of Acute illness in percentage DLHS-4": "Not available",
      "Main Workers - Persons": 876059,
      "Main Workers Cultivators - Females": 62175,
      "Marginal Workers Agricultural Labourers worked for 3 - 6 moths during last year - Females": 141506,
      "Marginal Workers Other worked for 0 - 3 moths during last year - Males": 8631,
      "Upper Primary Schools with drinking water facility in percentage DISE": "NA",
      "Primary Schools with girls toilet in percentage DISE": "NA",
      "Marginal Workers worked for 3 - 6 moths during last year - Persons": 501951,
      "Upper Primary Drop Out Rate in percentage DISE": "NA",
      "Prevalence of Anaemia in pregnant women aged 15-49years in percentage DLHS-4": "Not available",
      "Current use of any modern method of family planning in percentage DLHS-4": 28.1,
      "Marginal Workers Agricultural Labourers - Males": 190184,
      "Upper Primary Female Teachers in percentage DISE": "NA",
      "Marginal Workers - Females": 295421,
      "Marginal Workers Other worked for 3 - 6 moths during last year - Persons": 92905,
      "Main Workers Agricultural Labourers - Females": 132715,
      "Marginal Workers Cultivators worked for 3 - 6 moths during last year - Females": 40861,
      "Households with no lighting  Houselisting and Housing Census Data Tables- District Level , Census of India__5": 482,
      "Prevalence of Severe Anaemia  in percentage DLHS-4": "Not available",
      "Total unmet need for family planning in percentage DLHS-4": 31.9,
      "Main Workers Other - Males": 130697,
      "Children who received full vaccination in percentage DLHS-4": "Not available",
      "Marginal Workers Household Industry - Persons": 33138,
      "Primary Pupil-Teacher Ratio in percentage DISE": "NA",
      "Marginal Workers Agricultural Labourers worked for 3 - 6 moths during last year - Males": 161953,
      "Scheduled Caste Females": 616933,
      "Marginal Workers Cultivators - Males": 47842,
      "Marginal Workers - Males": 312305,
      "Marginal Workers worked for 0 - 3 moths during last year - Females": 58387,
      "Households with main source of drinking water within premises in percentage Houselisting and Housing Census Data Tables- District Level , Census of India": 40.29549366,
      "Marginal Workers Household Industry worked for 3 - 6 moths during last year - Persons": 24354,
      "Upper Primary Girl's Enrolment in percentage DISE": "NA",
      "Prevalence of Severe Anaemia in women aged 15-49years in percentage DLHS-4": "Not available",
      "Marginal Workers Agricultural Labourers worked for 0 - 3 moths during last year - Males": 28231,
      "Households with electricity as main source of lighting  Houselisting and Housing Census Data Tables- District Level , Census of India__3": 41494,
      "Households with computer or laptop with internet connection in percentage": 0.52,
      "PHCs functioning on a 24x7hours basis in percentage DLHS-4": "Not applicable",
      "Non Workers - Males": 1022909,
      "Total Households in District Houselisting and Housing Census Data Tables- District Level , Census of India": 603194,
      "Upper Primary Schools with girls toilet in percentage DISE": "NA",
      "Households with mobile phone in percentage": 48.62,
      "Households receiving untreated tap water within premises in percentage Houselisting and Housing Census Data Tables- District Level , Census of India__2": 0.286309214,
      "Marginal Workers Cultivators worked for 3 - 6 moths during last year - Males": 40372,
      "Prevalence of Anaemia  in percentage DLHS-4": "Not available",
      "Prevalence of Chronic illness in percentage DLHS-4": "Not available",
      "Households with solar energy as main source of lighting in percentage Houselisting and Housing Census Data Tables- District Level , Census of India__1": 1.04012971,
      "Marginal Workers Agricultural Labourers worked for 0 - 3 moths during last year - Females": 33210,
      "Main Workers - Males": 625378,
      "Female": "NA",
      "Sno": 208,
      "Marginal Workers Other worked for 3 - 6 moths during last year - Females": 40580,
      "Marginal Workers Cultivators worked for 0 - 3 moths during last year - Females": 9620,
      "Scheduled Tribe Males": 1245,
      "Male Illiterates": 817175,
      "Prevalence of Severe Anaemia in pregnant women aged 15-49years in percentage DLHS-4": "Not available",
      "0-6 Age Group Persons": 702181,
      "Upper Primary Student-Classroom Ratio in percentage DISE": "NA",
      "Currently married men married below 21years of age in percentage DLHS-4": 40.8,
      "Male Literates": 1143417,
      "Households with no lighting in percentage Houselisting and Housing Census Data Tables- District Level , Census of India__2": 0.0799,
      "Primary Drop Out Rate in percentage DISE": "NA",
      "Marginal Workers Household Industry - Males": 13323,
      "Female Illiterates": 1096734,
      "Main Workers Other - Females": 40911,
      "Marginal Workers Cultivators - Persons": 98323,
      "Upper Primary Gross Enrolment Ratio in percentage DISE": "NA",
      "Scheduled Caste Persons": 1264597,
      "Marginal Workers Cultivators worked for 3 - 6 moths during last year - Persons": 81233,
      "Households with landline phone in percentage": 2,
      "Total Households in District  Houselisting and Housing Census Data Tables- District Level , Census of India": 603194,
      "Upper Primary Pupil-Teacher Ratio in percentage DISE": "NA",
      "Primary Student-Classroom Ratio in percentage DISE": "NA",
      "Primary Schools with boys toilet in percentage DISE": "NA",
      "Mean number of children ever born to women aged 40-49years  DLHS-4": "Not available",
      "Households receiving untreated tap water within premises  Houselisting and Housing Census Data Tables- District Level , Census of India__5": 1727,
      "Marginal Workers Household Industry worked for 0 - 3 moths during last year - Persons": 8784,
      "Total Male Population": 1960592,
      "Non Workers - Females": 1303123,
      "Current use of family planning methods in percentage DLHS-4": 36.1,
      "Households with main source of drinking water within premises  Houselisting and Housing Census Data Tables- District Level , Census of India__3": 243060,
      "Main Workers Agricultural Labourers - Males": 269460,
      "Marginal Workers Other worked for 0 - 3 moths during last year - Persons": 18460,
      "Currently married women married below 18years of age in percentage DLHS-4": 30.1,
      "Person Illiterates": 1913909,
      "Main Workers Household Industry - Females": 14880,
      "Female Literates": 752491,
      "Marginal Workers Cultivators worked for 0 - 3 moths during last year - Males": 7470,
      "Male": "NA",
      "Households with improved source of drinking water in percentage DLHS-4": "Not available",
      "Upper Primary Schools with electricity in percentage DISE": "NA",
      "Households with electricity in percentage DLHS-4": "Not available",
      "Villages with Primary Health Centre within 10km in percentage DLHS-4": "Not applicable",
      "Births to women aged 15-19years out of Total births in percentage DLHS-4": "Not available",
      "Prevalence of Anaemia in women aged 15-49years in percentage DLHS-4": "Not available",
      "Marginal Workers Agricultural Labourers worked for 3 - 6 moths during last year - Persons": 303459,
      "Main Workers Household Industry - Males": 22468,
      "Scheduled Tribe Females": 1189,
      "Marginal Workers worked for 0 - 3 moths during last year - Males": 47388,
      "Marginal Workers Other worked for 3 - 6 moths during last year - Males": 52325,
      "Primary Net Enrolment Ratio in percentage DISE": "NA",
      "Total": "NA",
      "Mean age at marriage for boys DLHS-4": 21.7,
      "Number of District Hospitals  DLHS-4": "Not applicable",
      "0-6 Age Group Females": 344839,
      "Marginal Workers Agricultural Labourers worked for 0 - 3 moths during last year - Persons": 61441,
      "Marginal Workers Household Industry worked for 0 - 3 moths during last year - Males": 3056,
      "Total Workers  Females": 546102,
      "Marginal Workers worked for 3 - 6 moths during last year - Females": 237034,
      "Institutional Deliveries in percentage DLHS-4": 45.5,
      "Marginal Workers Other - Males": 60956,
      "Total Workers  Males": 937683,
      "Main Workers - Females": 250681,
      "Primary Gross Enrolment Ratio in percentage DISE": "NA",
      "Main Workers Cultivators - Persons": 264928,
      "Marginal Workers Household Industry worked for 0 - 3 moths during last year - Females": 5728,
      "Upper Primary Net Enrolment Ratio in percentage DISE": "NA",
      "Primary New Government Schools since 2003 in percentage DISE": "NA",
      "Tier": "Rural",
      "Marginal Workers Household Industry - Females": 19815,
      "Primary Schools with electricity in percentage DISE": "NA",
      "Main Workers Other - Persons": 171608,
      "Marginal Workers Household Industry worked for 3 - 6 moths during last year - Females": 14087,
      "Main Workers Cultivators - Males": 202753,
      "Main Workers Household Industry - Persons": 37348,
      "Marginal Workers Cultivators worked for 0 - 3 moths during last year - Persons": 17090,
      "Scheduled Caste Males": 647664,
      "Marginal Workers - Persons": 607726,
      "Deliveries at home conducted by skilled health personnel in percentage DLHS-4": 34.9,
      "Villages with Sub-Health Centres within 3km in percentage DLHS-4": "Not applicable",
      "Upper Primary New Government Schools since 2003 in percentage DISE": "NA",
      "0-6 Age Group Males": 357342,
      "Primary Schools with drinking water facility in percentage DISE": "NA",
      "Non Workers - Persons": 2326032,
      "Person Literates": 1895908,
      "State": "BIHAR",
      "Total Female Population": 1849225,
      "Marginal Workers worked for 0 - 3 moths during last year - Persons": 105775,
      "Marginal Workers Cultivators - Females": 50481,
      "Marginal Workers Other - Persons": 111365,
      "Sex Ratio": 943,
      "Scheduled Tribe Persons": 2434,
      "Marginal Workers Household Industry worked for 3 - 6 moths during last year - Males": 10267,
      "Marginal Workers Agricultural Labourers - Females": 174716,
      "Mean age at marriage for girls DLHS-4": 19.1,
      "Households with solar energy as main source of lighting  Houselisting and Housing Census Data Tables- District Level , Census of India__4": 6274,
      "District": "GAYA",
      "Households receiving treated tap water within premises in percentage Houselisting and Housing Census Data Tables- District Level , Census of India__1": 0.767249011,
      "Total Workers  Persons": 1483785,
      "Households receiving treated tap water within premises  Houselisting and Housing Census Data Tables- District Level , Census of India__4": 4628,
      "Primary Female Teachers in percentage DISE": "NA",
      "Number of Households": 598783,
      "Main Workers Agricultural Labourers - Persons": 402175
    }
  ],
  "Urban": [
    {
      "Marginal Workers Agricultural Labourers - Persons": 6663,
      "Marginal Workers Other - Females": 13776,
      "Marginal Workers Other worked for 0 - 3 moths during last year - Females": 1247,
      "Upper Primary Schools with boys toilet in percentage DISE": "NA",
      "Total Population": 581601,
      "Households with electricity as main source of lighting in percentage Houselisting and Housing Census Data Tables- District Level , Census of India": 81.45938083,
      "Primary Girl's Enrolment in percentage DISE": "NA",
      "Marginal Workers worked for 3 - 6 moths during last year - Males": 26411,
      "Prevalence of Acute illness in percentage DLHS-4": "Not available",
      "Main Workers - Persons": 130998,
      "Main Workers Cultivators - Females": 962,
      "Marginal Workers Agricultural Labourers worked for 3 - 6 moths during last year - Females": 2173,
      "Marginal Workers Other worked for 0 - 3 moths during last year - Males": 1999,
      "Upper Primary Schools with drinking water facility in percentage DISE": "NA",
      "Primary Schools with girls toilet in percentage DISE": "NA",
      "Marginal Workers worked for 3 - 6 moths during last year - Persons": 43926,
      "Upper Primary Drop Out Rate in percentage DISE": "NA",
      "Prevalence of Anaemia in pregnant women aged 15-49years in percentage DLHS-4": "Not available",
      "Current use of any modern method of family planning in percentage DLHS-4": 42.1,
      "Marginal Workers Agricultural Labourers - Males": 3957,
      "Upper Primary Female Teachers in percentage DISE": "NA",
      "Marginal Workers - Females": 19879,
      "Marginal Workers Other worked for 3 - 6 moths during last year - Persons": 32651,
      "Main Workers Agricultural Labourers - Females": 1966,
      "Marginal Workers Cultivators worked for 3 - 6 moths during last year - Females": 557,
      "Households with no lighting  Houselisting and Housing Census Data Tables- District Level , Census of India__5": 601,
      "Prevalence of Severe Anaemia  in percentage DLHS-4": "Not available",
      "Total unmet need for family planning in percentage DLHS-4": 19.7,
      "Main Workers Other - Males": 87742,
      "Children who received full vaccination in percentage DLHS-4": "Not available",
      "Marginal Workers Household Industry - Persons": 4985,
      "Primary Pupil-Teacher Ratio in percentage DISE": "NA",
      "Marginal Workers Agricultural Labourers worked for 3 - 6 moths during last year - Males": 3426,
      "Scheduled Caste Females": 33475,
      "Marginal Workers Cultivators - Males": 1062,
      "Marginal Workers - Males": 29400,
      "Marginal Workers worked for 0 - 3 moths during last year - Females": 2364,
      "Households with main source of drinking water within premises in percentage Houselisting and Housing Census Data Tables- District Level , Census of India": 79.30043179,
      "Marginal Workers Household Industry worked for 3 - 6 moths during last year - Persons": 4178,
      "Upper Primary Girl's Enrolment in percentage DISE": "NA",
      "Prevalence of Severe Anaemia in women aged 15-49years in percentage DLHS-4": "Not available",
      "Marginal Workers Agricultural Labourers worked for 0 - 3 moths during last year - Males": 531,
      "Households with electricity as main source of lighting  Houselisting and Housing Census Data Tables- District Level , Census of India__3": 71123,
      "Households with computer or laptop with internet connection in percentage": 4.27,
      "PHCs functioning on a 24x7hours basis in percentage DLHS-4": 0,
      "Non Workers - Males": 167487,
      "Total Households in District Houselisting and Housing Census Data Tables- District Level , Census of India": 87311,
      "Upper Primary Schools with girls toilet in percentage DISE": "NA",
      "Households with mobile phone in percentage": 72.19,
      "Households receiving untreated tap water within premises in percentage Houselisting and Housing Census Data Tables- District Level , Census of India__2": 3.232124246,
      "Marginal Workers Cultivators worked for 3 - 6 moths during last year - Males": 941,
      "Prevalence of Anaemia  in percentage DLHS-4": "Not available",
      "Prevalence of Chronic illness in percentage DLHS-4": "Not available",
      "Households with solar energy as main source of lighting in percentage Houselisting and Housing Census Data Tables- District Level , Census of India__1": 0.276024785,
      "Marginal Workers Agricultural Labourers worked for 0 - 3 moths during last year - Females": 533,
      "Main Workers - Males": 109087,
      "Female": "NA",
      "Sno": 210,
      "Marginal Workers Other worked for 3 - 6 moths during last year - Females": 12529,
      "Marginal Workers Cultivators worked for 0 - 3 moths during last year - Females": 115,
      "Scheduled Tribe Males": 390,
      "Male Illiterates": 80588,
      "Prevalence of Severe Anaemia in pregnant women aged 15-49years in percentage DLHS-4": "Not available",
      "0-6 Age Group Persons": 80878,
      "Upper Primary Student-Classroom Ratio in percentage DISE": "NA",
      "Currently married men married below 21years of age in percentage DLHS-4": 24.1,
      "Male Literates": 225386,
      "Households with no lighting in percentage Houselisting and Housing Census Data Tables- District Level , Census of India__2": 0.688343966,
      "Primary Drop Out Rate in percentage DISE": "NA",
      "Marginal Workers Household Industry - Males": 2260,
      "Female Illiterates": 99308,
      "Main Workers Other - Females": 16008,
      "Marginal Workers Cultivators - Persons": 1734,
      "Upper Primary Gross Enrolment Ratio in percentage DISE": "NA",
      "Scheduled Caste Persons": 69754,
      "Marginal Workers Cultivators worked for 3 - 6 moths during last year - Persons": 1498,
      "Households with landline phone in percentage": 5.34,
      "Total Households in District  Houselisting and Housing Census Data Tables- District Level , Census of India": 87311,
      "Upper Primary Pupil-Teacher Ratio in percentage DISE": "NA",
      "Primary Student-Classroom Ratio in percentage DISE": "NA",
      "Primary Schools with boys toilet in percentage DISE": "NA",
      "Mean number of children ever born to women aged 40-49years  DLHS-4": "Not available",
      "Households receiving untreated tap water within premises  Houselisting and Housing Census Data Tables- District Level , Census of India__5": 2822,
      "Marginal Workers Household Industry worked for 0 - 3 moths during last year - Persons": 807,
      "Total Male Population": 305974,
      "Non Workers - Females": 233837,
      "Current use of family planning methods in percentage DLHS-4": 50,
      "Households with main source of drinking water within premises  Houselisting and Housing Census Data Tables- District Level , Census of India__3": 69238,
      "Main Workers Agricultural Labourers - Males": 7801,
      "Marginal Workers Other worked for 0 - 3 moths during last year - Persons": 3246,
      "Currently married women married below 18years of age in percentage DLHS-4": 18.8,
      "Person Illiterates": 179896,
      "Main Workers Household Industry - Females": 2975,
      "Female Literates": 176319,
      "Marginal Workers Cultivators worked for 0 - 3 moths during last year - Males": 121,
      "Male": "NA",
      "Households with improved source of drinking water in percentage DLHS-4": "Not available",
      "Upper Primary Schools with electricity in percentage DISE": "NA",
      "Households with electricity in percentage DLHS-4": "Not available",
      "Villages with Primary Health Centre within 10km in percentage DLHS-4": 0,
      "Births to women aged 15-19years out of Total births in percentage DLHS-4": "Not available",
      "Prevalence of Anaemia in women aged 15-49years in percentage DLHS-4": "Not available",
      "Marginal Workers Agricultural Labourers worked for 3 - 6 moths during last year - Persons": 5599,
      "Main Workers Household Industry - Males": 8732,
      "Scheduled Tribe Females": 274,
      "Marginal Workers worked for 0 - 3 moths during last year - Males": 2989,
      "Marginal Workers Other worked for 3 - 6 moths during last year - Males": 20122,
      "Primary Net Enrolment Ratio in percentage DISE": "NA",
      "Total": "NA",
      "Mean age at marriage for boys DLHS-4": 23.9,
      "Number of District Hospitals  DLHS-4": 0,
      "0-6 Age Group Females": 38794,
      "Marginal Workers Agricultural Labourers worked for 0 - 3 moths during last year - Persons": 1064,
      "Marginal Workers Household Industry worked for 0 - 3 moths during last year - Males": 338,
      "Total Workers  Females": 41790,
      "Marginal Workers worked for 3 - 6 moths during last year - Females": 17515,
      "Institutional Deliveries in percentage DLHS-4": 61,
      "Marginal Workers Other - Males": 22121,
      "Total Workers  Males": 138487,
      "Main Workers - Females": 21911,
      "Primary Gross Enrolment Ratio in percentage DISE": "NA",
      "Main Workers Cultivators - Persons": 5774,
      "Marginal Workers Household Industry worked for 0 - 3 moths during last year - Females": 469,
      "Upper Primary Net Enrolment Ratio in percentage DISE": "NA",
      "Primary New Government Schools since 2003 in percentage DISE": "NA",
      "Tier": "Urban",
      "Marginal Workers Household Industry - Females": 2725,
      "Primary Schools with electricity in percentage DISE": "NA",
      "Main Workers Other - Persons": 103750,
      "Marginal Workers Household Industry worked for 3 - 6 moths during last year - Females": 2256,
      "Main Workers Cultivators - Males": 4812,
      "Main Workers Household Industry - Persons": 11707,
      "Marginal Workers Cultivators worked for 0 - 3 moths during last year - Persons": 236,
      "Scheduled Caste Males": 36279,
      "Marginal Workers - Persons": 49279,
      "Deliveries at home conducted by skilled health personnel in percentage DLHS-4": 38,
      "Villages with Sub-Health Centres within 3km in percentage DLHS-4": 0,
      "Upper Primary New Government Schools since 2003 in percentage DISE": "NA",
      "0-6 Age Group Males": 42084,
      "Primary Schools with drinking water facility in percentage DISE": "NA",
      "Non Workers - Persons": 401324,
      "Person Literates": 401705,
      "State": "BIHAR",
      "Total Female Population": 275627,
      "Marginal Workers worked for 0 - 3 moths during last year - Persons": 5353,
      "Marginal Workers Cultivators - Females": 672,
      "Marginal Workers Other - Persons": 35897,
      "Sex Ratio": 901,
      "Scheduled Tribe Persons": 664,
      "Marginal Workers Household Industry worked for 3 - 6 moths during last year - Males": 1922,
      "Marginal Workers Agricultural Labourers - Females": 2706,
      "Mean age at marriage for girls DLHS-4": 20.4,
      "Households with solar energy as main source of lighting  Houselisting and Housing Census Data Tables- District Level , Census of India__4": 241,
      "District": "GAYA",
      "Households receiving treated tap water within premises in percentage Houselisting and Housing Census Data Tables- District Level , Census of India__1": 12.74868001,
      "Total Workers  Persons": 180277,
      "Households receiving treated tap water within premises  Houselisting and Housing Census Data Tables- District Level , Census of India__4": 11131,
      "Primary Female Teachers in percentage DISE": "NA",
      "Number of Households": 89642,
      "Main Workers Agricultural Labourers - Persons": 9767
    }
  ]
}