{
  "Total": [
    {
      "Marginal Workers Agricultural Labourers - Persons": 230090,
      "Marginal Workers Other - Females": 13137,
      "Marginal Workers Other worked for 0 - 3 moths during last year - Females": 2678,
      "Upper Primary Schools with boys toilet in percentage DISE": 50,
      "Total Population": 2562012,
      "Households with electricity as main source of lighting in percentage Houselisting and Housing Census Data Tables- District Level , Census of India": 16.45021542,
      "Primary Girl's Enrolment in percentage DISE": 51.7,
      "Marginal Workers worked for 3 - 6 moths during last year - Males": 192706,
      "Prevalence of Acute illness in percentage DLHS-4": "Not available",
      "Main Workers - Persons": 363111,
      "Main Workers Cultivators - Females": 18772,
      "Marginal Workers Agricultural Labourers worked for 3 - 6 moths during last year - Females": 60968,
      "Marginal Workers Other worked for 0 - 3 moths during last year - Males": 5878,
      "Upper Primary Schools with drinking water facility in percentage DISE": 100,
      "Primary Schools with girls toilet in percentage DISE": 58.1,
      "Marginal Workers worked for 3 - 6 moths during last year - Persons": 284214,
      "Upper Primary Drop Out Rate in percentage DISE": "Not available",
      "Prevalence of Anaemia in pregnant women aged 15-49years in percentage DLHS-4": "Not available",
      "Current use of any modern method of family planning in percentage DLHS-4": 27.3,
      "Marginal Workers Agricultural Labourers - Males": 145901,
      "Upper Primary Female Teachers in percentage DISE": 38.5,
      "Marginal Workers - Females": 125840,
      "Marginal Workers Other worked for 3 - 6 moths during last year - Persons": 42860,
      "Main Workers Agricultural Labourers - Females": 24463,
      "Marginal Workers Cultivators worked for 3 - 6 moths during last year - Females": 16512,
      "Households with no lighting  Houselisting and Housing Census Data Tables- District Level , Census of India__5": 369,
      "Prevalence of Severe Anaemia  in percentage DLHS-4": "Not available",
      "Total unmet need for family planning in percentage DLHS-4": 53.7,
      "Main Workers Other - Males": 86840,
      "Children who received full vaccination in percentage DLHS-4": "Not available",
      "Marginal Workers Household Industry - Persons": 13594,
      "Primary Pupil-Teacher Ratio in percentage DISE": 37,
      "Marginal Workers Agricultural Labourers worked for 3 - 6 moths during last year - Males": 117620,
      "Scheduled Caste Females": 160799,
      "Marginal Workers Cultivators - Males": 46553,
      "Marginal Workers - Males": 239250,
      "Marginal Workers worked for 0 - 3 moths during last year - Females": 34332,
      "Households with main source of drinking water within premises in percentage Houselisting and Housing Census Data Tables- District Level , Census of India": 60.54366925,
      "Marginal Workers Household Industry worked for 3 - 6 moths during last year - Persons": 10101,
      "Upper Primary Girl's Enrolment in percentage DISE": 50.9,
      "Prevalence of Severe Anaemia in women aged 15-49years in percentage DLHS-4": "Not available",
      "Marginal Workers Agricultural Labourers worked for 0 - 3 moths during last year - Males": 28281,
      "Households with electricity as main source of lighting  Houselisting and Housing Census Data Tables- District Level , Census of India__3": 69375,
      "Households with computer or laptop with internet connection in percentage": 0.88,
      "PHCs functioning on a 24x7hours basis in percentage DLHS-4": "Not available",
      "Non Workers - Males": 728080,
      "Total Households in District Houselisting and Housing Census Data Tables- District Level , Census of India": 421727,
      "Upper Primary Schools with girls toilet in percentage DISE": 100,
      "Households with mobile phone in percentage": 70.3,
      "Households receiving untreated tap water within premises in percentage Houselisting and Housing Census Data Tables- District Level , Census of India__2": 0.569325654,
      "Marginal Workers Cultivators worked for 3 - 6 moths during last year - Males": 36153,
      "Prevalence of Anaemia  in percentage DLHS-4": "Not available",
      "Prevalence of Chronic illness in percentage DLHS-4": "Not available",
      "Households with solar energy as main source of lighting in percentage Houselisting and Housing Census Data Tables- District Level , Census of India__1": 0.508385757,
      "Marginal Workers Agricultural Labourers worked for 0 - 3 moths during last year - Females": 23221,
      "Main Workers - Males": 300336,
      "Female": 54.81,
      "Sno": 212,
      "Marginal Workers Other worked for 3 - 6 moths during last year - Females": 10459,
      "Marginal Workers Cultivators worked for 0 - 3 moths during last year - Females": 6925,
      "Scheduled Tribe Males": 29833,
      "Male Illiterates": 473761,
      "Prevalence of Severe Anaemia in pregnant women aged 15-49years in percentage DLHS-4": "Not available",
      "0-6 Age Group Persons": 449530,
      "Upper Primary Student-Classroom Ratio in percentage DISE": 84,
      "Currently married men married below 21years of age in percentage DLHS-4": 14.9,
      "Male Literates": 793905,
      "Households with no lighting in percentage Houselisting and Housing Census Data Tables- District Level , Census of India__2": 0.0875,
      "Primary Drop Out Rate in percentage DISE": "Not available",
      "Marginal Workers Household Industry - Males": 8517,
      "Female Illiterates": 705253,
      "Main Workers Other - Females": 16271,
      "Marginal Workers Cultivators - Persons": 69990,
      "Upper Primary Gross Enrolment Ratio in percentage DISE": 73.3,
      "Scheduled Caste Persons": 320064,
      "Marginal Workers Cultivators worked for 3 - 6 moths during last year - Persons": 52665,
      "Households with landline phone in percentage": 3.22,
      "Total Households in District  Houselisting and Housing Census Data Tables- District Level , Census of India": 421727,
      "Upper Primary Pupil-Teacher Ratio in percentage DISE": 69,
      "Primary Student-Classroom Ratio in percentage DISE": 47,
      "Primary Schools with boys toilet in percentage DISE": 33.1,
      "Mean number of children ever born to women aged 40-49years  DLHS-4": "Not available",
      "Households receiving untreated tap water within premises  Houselisting and Housing Census Data Tables- District Level , Census of India__5": 2401,
      "Marginal Workers Household Industry worked for 0 - 3 moths during last year - Persons": 3493,
      "Total Male Population": 1267666,
      "Non Workers - Females": 1105731,
      "Current use of family planning methods in percentage DLHS-4": 32.4,
      "Households with main source of drinking water within premises  Houselisting and Housing Census Data Tables- District Level , Census of India__3": 255329,
      "Main Workers Agricultural Labourers - Males": 84113,
      "Marginal Workers Other worked for 0 - 3 moths during last year - Persons": 8556,
      "Currently married women married below 18years of age in percentage DLHS-4": 3.8,
      "Person Illiterates": 1179014,
      "Main Workers Household Industry - Females": 3269,
      "Female Literates": 589093,
      "Marginal Workers Cultivators worked for 0 - 3 moths during last year - Males": 10400,
      "Male": 76.51,
      "Households with improved source of drinking water in percentage DLHS-4": "Not available",
      "Upper Primary Schools with electricity in percentage DISE": 16.7,
      "Households with electricity in percentage DLHS-4": "Not available",
      "Villages with Primary Health Centre within 10km in percentage DLHS-4": "Not available",
      "Births to women aged 15-19years out of Total births in percentage DLHS-4": "Not available",
      "Prevalence of Anaemia in women aged 15-49years in percentage DLHS-4": "Not available",
      "Marginal Workers Agricultural Labourers worked for 3 - 6 moths during last year - Persons": 178588,
      "Main Workers Household Industry - Males": 9186,
      "Scheduled Tribe Females": 30974,
      "Marginal Workers worked for 0 - 3 moths during last year - Males": 46544,
      "Marginal Workers Other worked for 3 - 6 moths during last year - Males": 32401,
      "Primary Net Enrolment Ratio in percentage DISE": 87.9,
      "Total": 65.47,
      "Mean age at marriage for boys DLHS-4": 23.8,
      "Number of District Hospitals  DLHS-4": "Not available",
      "0-6 Age Group Females": 219516,
      "Marginal Workers Agricultural Labourers worked for 0 - 3 moths during last year - Persons": 51502,
      "Marginal Workers Household Industry worked for 0 - 3 moths during last year - Males": 1985,
      "Total Workers  Females": 188615,
      "Marginal Workers worked for 3 - 6 moths during last year - Females": 91508,
      "Institutional Deliveries in percentage DLHS-4": 61.8,
      "Marginal Workers Other - Males": 38279,
      "Total Workers  Males": 539586,
      "Main Workers - Females": 62775,
      "Primary Gross Enrolment Ratio in percentage DISE": 96.3,
      "Main Workers Cultivators - Persons": 138969,
      "Marginal Workers Household Industry worked for 0 - 3 moths during last year - Females": 1508,
      "Upper Primary Net Enrolment Ratio in percentage DISE": 65,
      "Primary New Government Schools since 2003 in percentage DISE": 54.1,
      "Tier": "Total",
      "Marginal Workers Household Industry - Females": 5077,
      "Primary Schools with electricity in percentage DISE": 5.7,
      "Main Workers Other - Persons": 103111,
      "Marginal Workers Household Industry worked for 3 - 6 moths during last year - Females": 3569,
      "Main Workers Cultivators - Males": 120197,
      "Main Workers Household Industry - Persons": 12455,
      "Marginal Workers Cultivators worked for 0 - 3 moths during last year - Persons": 17325,
      "Scheduled Caste Males": 159265,
      "Marginal Workers - Persons": 365090,
      "Deliveries at home conducted by skilled health personnel in percentage DLHS-4": 35.5,
      "Villages with Sub-Health Centres within 3km in percentage DLHS-4": "Not available",
      "Upper Primary New Government Schools since 2003 in percentage DISE": 0,
      "0-6 Age Group Males": 230014,
      "Primary Schools with drinking water facility in percentage DISE": 87,
      "Non Workers - Persons": 1833811,
      "Person Literates": 1382998,
      "State": "BIHAR",
      "Total Female Population": 1294346,
      "Marginal Workers worked for 0 - 3 moths during last year - Persons": 80876,
      "Marginal Workers Cultivators - Females": 23437,
      "Marginal Workers Other - Persons": 51416,
      "Sex Ratio": 1021,
      "Scheduled Tribe Persons": 60807,
      "Marginal Workers Household Industry worked for 3 - 6 moths during last year - Males": 6532,
      "Marginal Workers Agricultural Labourers - Females": 84189,
      "Mean age at marriage for girls DLHS-4": 21.2,
      "Households with solar energy as main source of lighting  Houselisting and Housing Census Data Tables- District Level , Census of India__4": 2144,
      "District": "GOPALGANJ",
      "Households receiving treated tap water within premises in percentage Houselisting and Housing Census Data Tables- District Level , Census of India__1": 1.640397698,
      "Total Workers  Persons": 728201,
      "Households receiving treated tap water within premises  Houselisting and Housing Census Data Tables- District Level , Census of India__4": 6918,
      "Primary Female Teachers in percentage DISE": 46.8,
      "Number of Households": 413044,
      "Main Workers Agricultural Labourers - Persons": 108576
    }
  ],
  "Rural": [
    {
      "Marginal Workers Agricultural Labourers - Persons": 225298,
      "Marginal Workers Other - Females": 12160,
      "Marginal Workers Other worked for 0 - 3 moths during last year - Females": 2588,
      "Upper Primary Schools with boys toilet in percentage DISE": "NA",
      "Total Population": 2399207,
      "Households with electricity as main source of lighting in percentage Houselisting and Housing Census Data Tables- District Level , Census of India": 14.46097414,
      "Primary Girl's Enrolment in percentage DISE": "NA",
      "Marginal Workers worked for 3 - 6 moths during last year - Males": 185508,
      "Prevalence of Acute illness in percentage DLHS-4": "Not available",
      "Main Workers - Persons": 331700,
      "Main Workers Cultivators - Females": 18456,
      "Marginal Workers Agricultural Labourers worked for 3 - 6 moths during last year - Females": 60037,
      "Marginal Workers Other worked for 0 - 3 moths during last year - Males": 5476,
      "Upper Primary Schools with drinking water facility in percentage DISE": "NA",
      "Primary Schools with girls toilet in percentage DISE": "NA",
      "Marginal Workers worked for 3 - 6 moths during last year - Persons": 274835,
      "Upper Primary Drop Out Rate in percentage DISE": "NA",
      "Prevalence of Anaemia in pregnant women aged 15-49years in percentage DLHS-4": "Not available",
      "Current use of any modern method of family planning in percentage DLHS-4": 26,
      "Marginal Workers Agricultural Labourers - Males": 142486,
      "Upper Primary Female Teachers in percentage DISE": "NA",
      "Marginal Workers - Females": 123049,
      "Marginal Workers Other worked for 3 - 6 moths during last year - Persons": 38642,
      "Main Workers Agricultural Labourers - Females": 23304,
      "Marginal Workers Cultivators worked for 3 - 6 moths during last year - Females": 16431,
      "Households with no lighting  Houselisting and Housing Census Data Tables- District Level , Census of India__5": 324,
      "Prevalence of Severe Anaemia  in percentage DLHS-4": "Not available",
      "Total unmet need for family planning in percentage DLHS-4": 55.4,
      "Main Workers Other - Males": 68904,
      "Children who received full vaccination in percentage DLHS-4": "Not available",
      "Marginal Workers Household Industry - Persons": 12606,
      "Primary Pupil-Teacher Ratio in percentage DISE": "NA",
      "Marginal Workers Agricultural Labourers worked for 3 - 6 moths during last year - Males": 114826,
      "Scheduled Caste Females": 153043,
      "Marginal Workers Cultivators - Males": 45968,
      "Marginal Workers - Males": 230870,
      "Marginal Workers worked for 0 - 3 moths during last year - Females": 33722,
      "Households with main source of drinking water within premises in percentage Houselisting and Housing Census Data Tables- District Level , Census of India": 59.28868213,
      "Marginal Workers Household Industry worked for 3 - 6 moths during last year - Persons": 9257,
      "Upper Primary Girl's Enrolment in percentage DISE": "NA",
      "Prevalence of Severe Anaemia in women aged 15-49years in percentage DLHS-4": "Not available",
      "Marginal Workers Agricultural Labourers worked for 0 - 3 moths during last year - Males": 27660,
      "Households with electricity as main source of lighting  Houselisting and Housing Census Data Tables- District Level , Census of India__3": 57322,
      "Households with computer or laptop with internet connection in percentage": 0.77,
      "PHCs functioning on a 24x7hours basis in percentage DLHS-4": "Not applicable",
      "Non Workers - Males": 680702,
      "Total Households in District Houselisting and Housing Census Data Tables- District Level , Census of India": 396391,
      "Upper Primary Schools with girls toilet in percentage DISE": "NA",
      "Households with mobile phone in percentage": 70.28,
      "Households receiving untreated tap water within premises in percentage Houselisting and Housing Census Data Tables- District Level , Census of India__2": 0.456872129,
      "Marginal Workers Cultivators worked for 3 - 6 moths during last year - Males": 35642,
      "Prevalence of Anaemia  in percentage DLHS-4": "Not available",
      "Prevalence of Chronic illness in percentage DLHS-4": "Not available",
      "Households with solar energy as main source of lighting in percentage Houselisting and Housing Census Data Tables- District Level , Census of India__1": 0.532050425,
      "Marginal Workers Agricultural Labourers worked for 0 - 3 moths during last year - Females": 22775,
      "Main Workers - Males": 273395,
      "Female": "NA",
      "Sno": 211,
      "Marginal Workers Other worked for 3 - 6 moths during last year - Females": 9572,
      "Marginal Workers Cultivators worked for 0 - 3 moths during last year - Females": 6910,
      "Scheduled Tribe Males": 29146,
      "Male Illiterates": 448688,
      "Prevalence of Severe Anaemia in pregnant women aged 15-49years in percentage DLHS-4": "Not available",
      "0-6 Age Group Persons": 423789,
      "Upper Primary Student-Classroom Ratio in percentage DISE": "NA",
      "Currently married men married below 21years of age in percentage DLHS-4": 15.7,
      "Male Literates": 736279,
      "Households with no lighting in percentage Houselisting and Housing Census Data Tables- District Level , Census of India__2": 0.0817,
      "Primary Drop Out Rate in percentage DISE": "NA",
      "Marginal Workers Household Industry - Males": 7870,
      "Female Illiterates": 670455,
      "Main Workers Other - Females": 13738,
      "Marginal Workers Cultivators - Persons": 69309,
      "Upper Primary Gross Enrolment Ratio in percentage DISE": "NA",
      "Scheduled Caste Persons": 304316,
      "Marginal Workers Cultivators worked for 3 - 6 moths during last year - Persons": 52073,
      "Households with landline phone in percentage": 3.17,
      "Total Households in District  Houselisting and Housing Census Data Tables- District Level , Census of India": 396391,
      "Upper Primary Pupil-Teacher Ratio in percentage DISE": "NA",
      "Primary Student-Classroom Ratio in percentage DISE": "NA",
      "Primary Schools with boys toilet in percentage DISE": "NA",
      "Mean number of children ever born to women aged 40-49years  DLHS-4": "Not available",
      "Households receiving untreated tap water within premises  Houselisting and Housing Census Data Tables- District Level , Census of India__5": 1811,
      "Marginal Workers Household Industry worked for 0 - 3 moths during last year - Persons": 3349,
      "Total Male Population": 1184967,
      "Non Workers - Females": 1032886,
      "Current use of family planning methods in percentage DLHS-4": 30.9,
      "Households with main source of drinking water within premises  Houselisting and Housing Census Data Tables- District Level , Census of India__3": 235015,
      "Main Workers Agricultural Labourers - Males": 80359,
      "Marginal Workers Other worked for 0 - 3 moths during last year - Persons": 8064,
      "Currently married women married below 18years of age in percentage DLHS-4": 3.9,
      "Person Illiterates": 1119143,
      "Main Workers Household Industry - Females": 2807,
      "Female Literates": 543785,
      "Marginal Workers Cultivators worked for 0 - 3 moths during last year - Males": 10326,
      "Male": "NA",
      "Households with improved source of drinking water in percentage DLHS-4": "Not available",
      "Upper Primary Schools with electricity in percentage DISE": "NA",
      "Households with electricity in percentage DLHS-4": "Not available",
      "Villages with Primary Health Centre within 10km in percentage DLHS-4": "Not applicable",
      "Births to women aged 15-19years out of Total births in percentage DLHS-4": "Not available",
      "Prevalence of Anaemia in women aged 15-49years in percentage DLHS-4": "Not available",
      "Marginal Workers Agricultural Labourers worked for 3 - 6 moths during last year - Persons": 174863,
      "Main Workers Household Industry - Males": 7687,
      "Scheduled Tribe Females": 30301,
      "Marginal Workers worked for 0 - 3 moths during last year - Males": 45362,
      "Marginal Workers Other worked for 3 - 6 moths during last year - Males": 29070,
      "Primary Net Enrolment Ratio in percentage DISE": "NA",
      "Total": "NA",
      "Mean age at marriage for boys DLHS-4": 23.8,
      "Number of District Hospitals  DLHS-4": "Not applicable",
      "0-6 Age Group Females": 207022,
      "Marginal Workers Agricultural Labourers worked for 0 - 3 moths during last year - Persons": 50435,
      "Marginal Workers Household Industry worked for 0 - 3 moths during last year - Males": 1900,
      "Total Workers  Females": 181354,
      "Marginal Workers worked for 3 - 6 moths during last year - Females": 89327,
      "Institutional Deliveries in percentage DLHS-4": 61.4,
      "Marginal Workers Other - Males": 34546,
      "Total Workers  Males": 504265,
      "Main Workers - Females": 58305,
      "Primary Gross Enrolment Ratio in percentage DISE": "NA",
      "Main Workers Cultivators - Persons": 134901,
      "Marginal Workers Household Industry worked for 0 - 3 moths during last year - Females": 1449,
      "Upper Primary Net Enrolment Ratio in percentage DISE": "NA",
      "Primary New Government Schools since 2003 in percentage DISE": "NA",
      "Tier": "Rural",
      "Marginal Workers Household Industry - Females": 4736,
      "Primary Schools with electricity in percentage DISE": "NA",
      "Main Workers Other - Persons": 82642,
      "Marginal Workers Household Industry worked for 3 - 6 moths during last year - Females": 3287,
      "Main Workers Cultivators - Males": 116445,
      "Main Workers Household Industry - Persons": 10494,
      "Marginal Workers Cultivators worked for 0 - 3 moths during last year - Persons": 17236,
      "Scheduled Caste Males": 151273,
      "Marginal Workers - Persons": 353919,
      "Deliveries at home conducted by skilled health personnel in percentage DLHS-4": 34.4,
      "Villages with Sub-Health Centres within 3km in percentage DLHS-4": "Not applicable",
      "Upper Primary New Government Schools since 2003 in percentage DISE": "NA",
      "0-6 Age Group Males": 216767,
      "Primary Schools with drinking water facility in percentage DISE": "NA",
      "Non Workers - Persons": 1713588,
      "Person Literates": 1280064,
      "State": "BIHAR",
      "Total Female Population": 1214240,
      "Marginal Workers worked for 0 - 3 moths during last year - Persons": 79084,
      "Marginal Workers Cultivators - Females": 23341,
      "Marginal Workers Other - Persons": 46706,
      "Sex Ratio": 1025,
      "Scheduled Tribe Persons": 59447,
      "Marginal Workers Household Industry worked for 3 - 6 moths during last year - Males": 5970,
      "Marginal Workers Agricultural Labourers - Females": 82812,
      "Mean age at marriage for girls DLHS-4": 21.2,
      "Households with solar energy as main source of lighting  Houselisting and Housing Census Data Tables- District Level , Census of India__4": 2109,
      "District": "GOPALGANJ",
      "Households receiving treated tap water within premises in percentage Houselisting and Housing Census Data Tables- District Level , Census of India__1": 1.434946808,
      "Total Workers  Persons": 685619,
      "Households receiving treated tap water within premises  Houselisting and Housing Census Data Tables- District Level , Census of India__4": 5688,
      "Primary Female Teachers in percentage DISE": "NA",
      "Number of Households": 387421,
      "Main Workers Agricultural Labourers - Persons": 103663
    }
  ],
  "Urban": [
    {
      "Marginal Workers Agricultural Labourers - Persons": 4792,
      "Marginal Workers Other - Females": 977,
      "Marginal Workers Other worked for 0 - 3 moths during last year - Females": 90,
      "Upper Primary Schools with boys toilet in percentage DISE": "NA",
      "Total Population": 162805,
      "Households with electricity as main source of lighting in percentage Houselisting and Housing Census Data Tables- District Level , Census of India": 47.57262393,
      "Primary Girl's Enrolment in percentage DISE": "NA",
      "Marginal Workers worked for 3 - 6 moths during last year - Males": 7198,
      "Prevalence of Acute illness in percentage DLHS-4": "Not available",
      "Main Workers - Persons": 31411,
      "Main Workers Cultivators - Females": 316,
      "Marginal Workers Agricultural Labourers worked for 3 - 6 moths during last year - Females": 931,
      "Marginal Workers Other worked for 0 - 3 moths during last year - Males": 402,
      "Upper Primary Schools with drinking water facility in percentage DISE": "NA",
      "Primary Schools with girls toilet in percentage DISE": "NA",
      "Marginal Workers worked for 3 - 6 moths during last year - Persons": 9379,
      "Upper Primary Drop Out Rate in percentage DISE": "NA",
      "Prevalence of Anaemia in pregnant women aged 15-49years in percentage DLHS-4": "Not available",
      "Current use of any modern method of family planning in percentage DLHS-4": 43.6,
      "Marginal Workers Agricultural Labourers - Males": 3415,
      "Upper Primary Female Teachers in percentage DISE": "NA",
      "Marginal Workers - Females": 2791,
      "Marginal Workers Other worked for 3 - 6 moths during last year - Persons": 4218,
      "Main Workers Agricultural Labourers - Females": 1159,
      "Marginal Workers Cultivators worked for 3 - 6 moths during last year - Females": 81,
      "Households with no lighting  Houselisting and Housing Census Data Tables- District Level , Census of India__5": 45,
      "Prevalence of Severe Anaemia  in percentage DLHS-4": "Not available",
      "Total unmet need for family planning in percentage DLHS-4": 32.3,
      "Main Workers Other - Males": 17936,
      "Children who received full vaccination in percentage DLHS-4": "Not available",
      "Marginal Workers Household Industry - Persons": 988,
      "Primary Pupil-Teacher Ratio in percentage DISE": "NA",
      "Marginal Workers Agricultural Labourers worked for 3 - 6 moths during last year - Males": 2794,
      "Scheduled Caste Females": 7756,
      "Marginal Workers Cultivators - Males": 585,
      "Marginal Workers - Males": 8380,
      "Marginal Workers worked for 0 - 3 moths during last year - Females": 610,
      "Households with main source of drinking water within premises in percentage Houselisting and Housing Census Data Tables- District Level , Census of India": 80.17840227,
      "Marginal Workers Household Industry worked for 3 - 6 moths during last year - Persons": 844,
      "Upper Primary Girl's Enrolment in percentage DISE": "NA",
      "Prevalence of Severe Anaemia in women aged 15-49years in percentage DLHS-4": "Not available",
      "Marginal Workers Agricultural Labourers worked for 0 - 3 moths during last year - Males": 621,
      "Households with electricity as main source of lighting  Houselisting and Housing Census Data Tables- District Level , Census of India__3": 12053,
      "Households with computer or laptop with internet connection in percentage": 2.59,
      "PHCs functioning on a 24x7hours basis in percentage DLHS-4": 0,
      "Non Workers - Males": 47378,
      "Total Households in District Houselisting and Housing Census Data Tables- District Level , Census of India": 25336,
      "Upper Primary Schools with girls toilet in percentage DISE": "NA",
      "Households with mobile phone in percentage": 70.64,
      "Households receiving untreated tap water within premises in percentage Houselisting and Housing Census Data Tables- District Level , Census of India__2": 2.328702242,
      "Marginal Workers Cultivators worked for 3 - 6 moths during last year - Males": 511,
      "Prevalence of Anaemia  in percentage DLHS-4": "Not available",
      "Prevalence of Chronic illness in percentage DLHS-4": "Not available",
      "Households with solar energy as main source of lighting in percentage Houselisting and Housing Census Data Tables- District Level , Census of India__1": 0.138143353,
      "Marginal Workers Agricultural Labourers worked for 0 - 3 moths during last year - Females": 446,
      "Main Workers - Males": 26941,
      "Female": "NA",
      "Sno": 213,
      "Marginal Workers Other worked for 3 - 6 moths during last year - Females": 887,
      "Marginal Workers Cultivators worked for 0 - 3 moths during last year - Females": 15,
      "Scheduled Tribe Males": 687,
      "Male Illiterates": 25073,
      "Prevalence of Severe Anaemia in pregnant women aged 15-49years in percentage DLHS-4": "Not available",
      "0-6 Age Group Persons": 25741,
      "Upper Primary Student-Classroom Ratio in percentage DISE": "NA",
      "Currently married men married below 21years of age in percentage DLHS-4": 5.9,
      "Male Literates": 57626,
      "Households with no lighting in percentage Houselisting and Housing Census Data Tables- District Level , Census of India__2": 0.177612883,
      "Primary Drop Out Rate in percentage DISE": "NA",
      "Marginal Workers Household Industry - Males": 647,
      "Female Illiterates": 34798,
      "Main Workers Other - Females": 2533,
      "Marginal Workers Cultivators - Persons": 681,
      "Upper Primary Gross Enrolment Ratio in percentage DISE": "NA",
      "Scheduled Caste Persons": 15748,
      "Marginal Workers Cultivators worked for 3 - 6 moths during last year - Persons": 592,
      "Households with landline phone in percentage": 3.94,
      "Total Households in District  Houselisting and Housing Census Data Tables- District Level , Census of India": 25336,
      "Upper Primary Pupil-Teacher Ratio in percentage DISE": "NA",
      "Primary Student-Classroom Ratio in percentage DISE": "NA",
      "Primary Schools with boys toilet in percentage DISE": "NA",
      "Mean number of children ever born to women aged 40-49years  DLHS-4": "Not available",
      "Households receiving untreated tap water within premises  Houselisting and Housing Census Data Tables- District Level , Census of India__5": 590,
      "Marginal Workers Household Industry worked for 0 - 3 moths during last year - Persons": 144,
      "Total Male Population": 82699,
      "Non Workers - Females": 72845,
      "Current use of family planning methods in percentage DLHS-4": 50.3,
      "Households with main source of drinking water within premises  Houselisting and Housing Census Data Tables- District Level , Census of India__3": 20314,
      "Main Workers Agricultural Labourers - Males": 3754,
      "Marginal Workers Other worked for 0 - 3 moths during last year - Persons": 492,
      "Currently married women married below 18years of age in percentage DLHS-4": 2.4,
      "Person Illiterates": 59871,
      "Main Workers Household Industry - Females": 462,
      "Female Literates": 45308,
      "Marginal Workers Cultivators worked for 0 - 3 moths during last year - Males": 74,
      "Male": "NA",
      "Households with improved source of drinking water in percentage DLHS-4": "Not available",
      "Upper Primary Schools with electricity in percentage DISE": "NA",
      "Households with electricity in percentage DLHS-4": "Not available",
      "Villages with Primary Health Centre within 10km in percentage DLHS-4": 0,
      "Births to women aged 15-19years out of Total births in percentage DLHS-4": "Not available",
      "Prevalence of Anaemia in women aged 15-49years in percentage DLHS-4": "Not available",
      "Marginal Workers Agricultural Labourers worked for 3 - 6 moths during last year - Persons": 3725,
      "Main Workers Household Industry - Males": 1499,
      "Scheduled Tribe Females": 673,
      "Marginal Workers worked for 0 - 3 moths during last year - Males": 1182,
      "Marginal Workers Other worked for 3 - 6 moths during last year - Males": 3331,
      "Primary Net Enrolment Ratio in percentage DISE": "NA",
      "Total": "NA",
      "Mean age at marriage for boys DLHS-4": 23.8,
      "Number of District Hospitals  DLHS-4": 0,
      "0-6 Age Group Females": 12494,
      "Marginal Workers Agricultural Labourers worked for 0 - 3 moths during last year - Persons": 1067,
      "Marginal Workers Household Industry worked for 0 - 3 moths during last year - Males": 85,
      "Total Workers  Females": 7261,
      "Marginal Workers worked for 3 - 6 moths during last year - Females": 2181,
      "Institutional Deliveries in percentage DLHS-4": 67.4,
      "Marginal Workers Other - Males": 3733,
      "Total Workers  Males": 35321,
      "Main Workers - Females": 4470,
      "Primary Gross Enrolment Ratio in percentage DISE": "NA",
      "Main Workers Cultivators - Persons": 4068,
      "Marginal Workers Household Industry worked for 0 - 3 moths during last year - Females": 59,
      "Upper Primary Net Enrolment Ratio in percentage DISE": "NA",
      "Primary New Government Schools since 2003 in percentage DISE": "NA",
      "Tier": "Urban",
      "Marginal Workers Household Industry - Females": 341,
      "Primary Schools with electricity in percentage DISE": "NA",
      "Main Workers Other - Persons": 20469,
      "Marginal Workers Household Industry worked for 3 - 6 moths during last year - Females": 282,
      "Main Workers Cultivators - Males": 3752,
      "Main Workers Household Industry - Persons": 1961,
      "Marginal Workers Cultivators worked for 0 - 3 moths during last year - Persons": 89,
      "Scheduled Caste Males": 7992,
      "Marginal Workers - Persons": 11171,
      "Deliveries at home conducted by skilled health personnel in percentage DLHS-4": 54.8,
      "Villages with Sub-Health Centres within 3km in percentage DLHS-4": 0,
      "Upper Primary New Government Schools since 2003 in percentage DISE": "NA",
      "0-6 Age Group Males": 13247,
      "Primary Schools with drinking water facility in percentage DISE": "NA",
      "Non Workers - Persons": 120223,
      "Person Literates": 102934,
      "State": "BIHAR",
      "Total Female Population": 80106,
      "Marginal Workers worked for 0 - 3 moths during last year - Persons": 1792,
      "Marginal Workers Cultivators - Females": 96,
      "Marginal Workers Other - Persons": 4710,
      "Sex Ratio": 969,
      "Scheduled Tribe Persons": 1360,
      "Marginal Workers Household Industry worked for 3 - 6 moths during last year - Males": 562,
      "Marginal Workers Agricultural Labourers - Females": 1377,
      "Mean age at marriage for girls DLHS-4": 21.6,
      "Households with solar energy as main source of lighting  Houselisting and Housing Census Data Tables- District Level , Census of India__4": 35,
      "District": "GOPALGANJ",
      "Households receiving treated tap water within premises in percentage Houselisting and Housing Census Data Tables- District Level , Census of India__1": 4.854752131,
      "Total Workers  Persons": 42582,
      "Households receiving treated tap water within premises  Houselisting and Housing Census Data Tables- District Level , Census of India__4": 1230,
      "Primary Female Teachers in percentage DISE": "NA",
      "Number of Households": 25623,
      "Main Workers Agricultural Labourers - Persons": 4913
    }
  ]
}