{
  "Total": [
    {
      "Marginal Workers Agricultural Labourers - Persons": 70373,
      "Marginal Workers Other - Females": 7258,
      "Marginal Workers Other worked for 0 - 3 moths during last year - Females": 1368,
      "Upper Primary Schools with boys toilet in percentage DISE": 100,
      "Total Population": 1125313,
      "Households with electricity as main source of lighting in percentage Houselisting and Housing Census Data Tables- District Level , Census of India": 15.21696046,
      "Primary Girl's Enrolment in percentage DISE": 49.7,
      "Marginal Workers worked for 3 - 6 moths during last year - Males": 56954,
      "Prevalence of Acute illness in percentage DLHS-4": "Not available",
      "Main Workers - Persons": 251690,
      "Main Workers Cultivators - Females": 10036,
      "Marginal Workers Agricultural Labourers worked for 3 - 6 moths during last year - Females": 25059,
      "Marginal Workers Other worked for 0 - 3 moths during last year - Males": 1975,
      "Upper Primary Schools with drinking water facility in percentage DISE": 100,
      "Primary Schools with girls toilet in percentage DISE": 84.5,
      "Marginal Workers worked for 3 - 6 moths during last year - Persons": 95334,
      "Upper Primary Drop Out Rate in percentage DISE": "Not available",
      "Prevalence of Anaemia in pregnant women aged 15-49years in percentage DLHS-4": "Not available",
      "Current use of any modern method of family planning in percentage DLHS-4": 37,
      "Marginal Workers Agricultural Labourers - Males": 39597,
      "Upper Primary Female Teachers in percentage DISE": 47.1,
      "Marginal Workers - Females": 48143,
      "Marginal Workers Other worked for 3 - 6 moths during last year - Persons": 17689,
      "Main Workers Agricultural Labourers - Females": 27787,
      "Marginal Workers Cultivators worked for 3 - 6 moths during last year - Females": 5436,
      "Households with no lighting  Houselisting and Housing Census Data Tables- District Level , Census of India__5": 119,
      "Prevalence of Severe Anaemia  in percentage DLHS-4": "Not available",
      "Total unmet need for family planning in percentage DLHS-4": 26,
      "Main Workers Other - Males": 53403,
      "Children who received full vaccination in percentage DLHS-4": "Not available",
      "Marginal Workers Household Industry - Persons": 6201,
      "Primary Pupil-Teacher Ratio in percentage DISE": 45,
      "Marginal Workers Agricultural Labourers worked for 3 - 6 moths during last year - Males": 35179,
      "Scheduled Caste Females": 107940,
      "Marginal Workers Cultivators - Males": 8952,
      "Marginal Workers - Males": 65545,
      "Marginal Workers worked for 0 - 3 moths during last year - Females": 9763,
      "Households with main source of drinking water within premises in percentage Houselisting and Housing Census Data Tables- District Level , Census of India": 54.71136166,
      "Marginal Workers Household Industry worked for 3 - 6 moths during last year - Persons": 4464,
      "Upper Primary Girl's Enrolment in percentage DISE": 51.7,
      "Prevalence of Severe Anaemia in women aged 15-49years in percentage DLHS-4": "Not available",
      "Marginal Workers Agricultural Labourers worked for 0 - 3 moths during last year - Males": 4418,
      "Households with electricity as main source of lighting  Houselisting and Housing Census Data Tables- District Level , Census of India__3": 27641,
      "Households with computer or laptop with internet connection in percentage": 0.61,
      "PHCs functioning on a 24x7hours basis in percentage DLHS-4": "Not available",
      "Non Workers - Males": 319159,
      "Total Households in District Houselisting and Housing Census Data Tables- District Level , Census of India": 181646,
      "Upper Primary Schools with girls toilet in percentage DISE": 100,
      "Households with mobile phone in percentage": 51.94,
      "Households receiving untreated tap water within premises in percentage Houselisting and Housing Census Data Tables- District Level , Census of India__2": 0.607775563,
      "Marginal Workers Cultivators worked for 3 - 6 moths during last year - Males": 7507,
      "Prevalence of Anaemia  in percentage DLHS-4": "Not available",
      "Prevalence of Chronic illness in percentage DLHS-4": "Not available",
      "Households with solar energy as main source of lighting in percentage Houselisting and Housing Census Data Tables- District Level , Census of India__1": 1.068011407,
      "Marginal Workers Agricultural Labourers worked for 0 - 3 moths during last year - Females": 5717,
      "Main Workers - Males": 200878,
      "Female": 55.01,
      "Sno": 218,
      "Marginal Workers Other worked for 3 - 6 moths during last year - Females": 5890,
      "Marginal Workers Cultivators worked for 0 - 3 moths during last year - Females": 1694,
      "Scheduled Tribe Males": 667,
      "Male Illiterates": 211170,
      "Prevalence of Severe Anaemia in pregnant women aged 15-49years in percentage DLHS-4": "Not available",
      "0-6 Age Group Persons": 198785,
      "Upper Primary Student-Classroom Ratio in percentage DISE": 55,
      "Currently married men married below 21years of age in percentage DLHS-4": 31,
      "Male Literates": 374412,
      "Households with no lighting in percentage Houselisting and Housing Census Data Tables- District Level , Census of India__2": 0.0655,
      "Primary Drop Out Rate in percentage DISE": "Not available",
      "Marginal Workers Household Industry - Males": 3222,
      "Female Illiterates": 295262,
      "Main Workers Other - Females": 10241,
      "Marginal Workers Cultivators - Persons": 16082,
      "Upper Primary Gross Enrolment Ratio in percentage DISE": 81.4,
      "Scheduled Caste Persons": 222974,
      "Marginal Workers Cultivators worked for 3 - 6 moths during last year - Persons": 12943,
      "Households with landline phone in percentage": 1.8,
      "Total Households in District  Houselisting and Housing Census Data Tables- District Level , Census of India": 181646,
      "Upper Primary Pupil-Teacher Ratio in percentage DISE": 47,
      "Primary Student-Classroom Ratio in percentage DISE": 45,
      "Primary Schools with boys toilet in percentage DISE": 83,
      "Mean number of children ever born to women aged 40-49years  DLHS-4": "Not available",
      "Households receiving untreated tap water within premises  Houselisting and Housing Census Data Tables- District Level , Census of India__5": 1104,
      "Marginal Workers Household Industry worked for 0 - 3 moths during last year - Persons": 1737,
      "Total Male Population": 585582,
      "Non Workers - Females": 440776,
      "Current use of family planning methods in percentage DLHS-4": 41.3,
      "Households with main source of drinking water within premises  Houselisting and Housing Census Data Tables- District Level , Census of India__3": 99381,
      "Main Workers Agricultural Labourers - Males": 81359,
      "Marginal Workers Other worked for 0 - 3 moths during last year - Persons": 3343,
      "Currently married women married below 18years of age in percentage DLHS-4": 16.6,
      "Person Illiterates": 506432,
      "Main Workers Household Industry - Females": 2748,
      "Female Literates": 244469,
      "Marginal Workers Cultivators worked for 0 - 3 moths during last year - Males": 1445,
      "Male": 77.66,
      "Households with improved source of drinking water in percentage DLHS-4": "Not available",
      "Upper Primary Schools with electricity in percentage DISE": 16.7,
      "Households with electricity in percentage DLHS-4": "Not available",
      "Villages with Primary Health Centre within 10km in percentage DLHS-4": "Not available",
      "Births to women aged 15-19years out of Total births in percentage DLHS-4": "Not available",
      "Prevalence of Anaemia in women aged 15-49years in percentage DLHS-4": "Not available",
      "Marginal Workers Agricultural Labourers worked for 3 - 6 moths during last year - Persons": 60238,
      "Main Workers Household Industry - Males": 6126,
      "Scheduled Tribe Females": 618,
      "Marginal Workers worked for 0 - 3 moths during last year - Males": 8591,
      "Marginal Workers Other worked for 3 - 6 moths during last year - Males": 11799,
      "Primary Net Enrolment Ratio in percentage DISE": 92.9,
      "Total": 66.8,
      "Mean age at marriage for boys DLHS-4": 22.3,
      "Number of District Hospitals  DLHS-4": "Not available",
      "0-6 Age Group Females": 95333,
      "Marginal Workers Agricultural Labourers worked for 0 - 3 moths during last year - Persons": 10135,
      "Marginal Workers Household Industry worked for 0 - 3 moths during last year - Males": 753,
      "Total Workers  Females": 98955,
      "Marginal Workers worked for 3 - 6 moths during last year - Females": 38380,
      "Institutional Deliveries in percentage DLHS-4": 72.8,
      "Marginal Workers Other - Males": 13774,
      "Total Workers  Males": 266423,
      "Main Workers - Females": 50812,
      "Primary Gross Enrolment Ratio in percentage DISE": 98.9,
      "Main Workers Cultivators - Persons": 70026,
      "Marginal Workers Household Industry worked for 0 - 3 moths during last year - Females": 984,
      "Upper Primary Net Enrolment Ratio in percentage DISE": 74.5,
      "Primary New Government Schools since 2003 in percentage DISE": 38.1,
      "Tier": "Total",
      "Marginal Workers Household Industry - Females": 2979,
      "Primary Schools with electricity in percentage DISE": 3.5,
      "Main Workers Other - Persons": 63644,
      "Marginal Workers Household Industry worked for 3 - 6 moths during last year - Females": 1995,
      "Main Workers Cultivators - Males": 59990,
      "Main Workers Household Industry - Persons": 8874,
      "Marginal Workers Cultivators worked for 0 - 3 moths during last year - Persons": 3139,
      "Scheduled Caste Males": 115034,
      "Marginal Workers - Persons": 113688,
      "Deliveries at home conducted by skilled health personnel in percentage DLHS-4": 40.2,
      "Villages with Sub-Health Centres within 3km in percentage DLHS-4": "Not available",
      "Upper Primary New Government Schools since 2003 in percentage DISE": 0,
      "0-6 Age Group Males": 103452,
      "Primary Schools with drinking water facility in percentage DISE": 92.2,
      "Non Workers - Persons": 759935,
      "Person Literates": 618881,
      "State": "BIHAR",
      "Total Female Population": 539731,
      "Marginal Workers worked for 0 - 3 moths during last year - Persons": 18354,
      "Marginal Workers Cultivators - Females": 7130,
      "Marginal Workers Other - Persons": 21032,
      "Sex Ratio": 922,
      "Scheduled Tribe Persons": 1285,
      "Marginal Workers Household Industry worked for 3 - 6 moths during last year - Males": 2469,
      "Marginal Workers Agricultural Labourers - Females": 30776,
      "Mean age at marriage for girls DLHS-4": 20.1,
      "Households with solar energy as main source of lighting  Houselisting and Housing Census Data Tables- District Level , Census of India__4": 1940,
      "District": "JEHANABAD",
      "Households receiving treated tap water within premises in percentage Houselisting and Housing Census Data Tables- District Level , Census of India__1": 1.420345067,
      "Total Workers  Persons": 365378,
      "Households receiving treated tap water within premises  Houselisting and Housing Census Data Tables- District Level , Census of India__4": 2580,
      "Primary Female Teachers in percentage DISE": 47,
      "Number of Households": 181740,
      "Main Workers Agricultural Labourers - Persons": 109146
    }
  ],
  "Rural": [
    {
      "Marginal Workers Agricultural Labourers - Persons": 66669,
      "Marginal Workers Other - Females": 5898,
      "Marginal Workers Other worked for 0 - 3 moths during last year - Females": 1169,
      "Upper Primary Schools with boys toilet in percentage DISE": "NA",
      "Total Population": 990117,
      "Households with electricity as main source of lighting in percentage Houselisting and Housing Census Data Tables- District Level , Census of India": 8.046632254,
      "Primary Girl's Enrolment in percentage DISE": "NA",
      "Marginal Workers worked for 3 - 6 moths during last year - Males": 52365,
      "Prevalence of Acute illness in percentage DLHS-4": "Not available",
      "Main Workers - Persons": 223517,
      "Main Workers Cultivators - Females": 9846,
      "Marginal Workers Agricultural Labourers worked for 3 - 6 moths during last year - Females": 23953,
      "Marginal Workers Other worked for 0 - 3 moths during last year - Males": 1528,
      "Upper Primary Schools with drinking water facility in percentage DISE": "NA",
      "Primary Schools with girls toilet in percentage DISE": "NA",
      "Marginal Workers worked for 3 - 6 moths during last year - Persons": 88262,
      "Upper Primary Drop Out Rate in percentage DISE": "NA",
      "Prevalence of Anaemia in pregnant women aged 15-49years in percentage DLHS-4": "Not available",
      "Current use of any modern method of family planning in percentage DLHS-4": 37.3,
      "Marginal Workers Agricultural Labourers - Males": 37486,
      "Upper Primary Female Teachers in percentage DISE": "NA",
      "Marginal Workers - Females": 44925,
      "Marginal Workers Other worked for 3 - 6 moths during last year - Persons": 14056,
      "Main Workers Agricultural Labourers - Females": 26941,
      "Marginal Workers Cultivators worked for 3 - 6 moths during last year - Females": 5351,
      "Households with no lighting  Houselisting and Housing Census Data Tables- District Level , Census of India__5": 111,
      "Prevalence of Severe Anaemia  in percentage DLHS-4": "Not available",
      "Total unmet need for family planning in percentage DLHS-4": 25.3,
      "Main Workers Other - Males": 35842,
      "Children who received full vaccination in percentage DLHS-4": "Not available",
      "Marginal Workers Household Industry - Persons": 5785,
      "Primary Pupil-Teacher Ratio in percentage DISE": "NA",
      "Marginal Workers Agricultural Labourers worked for 3 - 6 moths during last year - Males": 33494,
      "Scheduled Caste Females": 98662,
      "Marginal Workers Cultivators - Males": 8665,
      "Marginal Workers - Males": 59970,
      "Marginal Workers worked for 0 - 3 moths during last year - Females": 9028,
      "Households with main source of drinking water within premises in percentage Houselisting and Housing Census Data Tables- District Level , Census of India": 51.64127493,
      "Marginal Workers Household Industry worked for 3 - 6 moths during last year - Persons": 4144,
      "Upper Primary Girl's Enrolment in percentage DISE": "NA",
      "Prevalence of Severe Anaemia in women aged 15-49years in percentage DLHS-4": "Not available",
      "Marginal Workers Agricultural Labourers worked for 0 - 3 moths during last year - Males": 3992,
      "Households with electricity as main source of lighting  Houselisting and Housing Census Data Tables- District Level , Census of India__3": 12845,
      "Households with computer or laptop with internet connection in percentage": 0.43,
      "PHCs functioning on a 24x7hours basis in percentage DLHS-4": "Not applicable",
      "Non Workers - Males": 277949,
      "Total Households in District Houselisting and Housing Census Data Tables- District Level , Census of India": 159632,
      "Upper Primary Schools with girls toilet in percentage DISE": "NA",
      "Households with mobile phone in percentage": 49.66,
      "Households receiving untreated tap water within premises in percentage Houselisting and Housing Census Data Tables- District Level , Census of India__2": 0.390272627,
      "Marginal Workers Cultivators worked for 3 - 6 moths during last year - Males": 7264,
      "Prevalence of Anaemia  in percentage DLHS-4": "Not available",
      "Prevalence of Chronic illness in percentage DLHS-4": "Not available",
      "Households with solar energy as main source of lighting in percentage Houselisting and Housing Census Data Tables- District Level , Census of India__1": 1.156409742,
      "Marginal Workers Agricultural Labourers worked for 0 - 3 moths during last year - Females": 5230,
      "Main Workers - Males": 176235,
      "Female": "NA",
      "Sno": 217,
      "Marginal Workers Other worked for 3 - 6 moths during last year - Females": 4729,
      "Marginal Workers Cultivators worked for 0 - 3 moths during last year - Females": 1672,
      "Scheduled Tribe Males": 579,
      "Male Illiterates": 190014,
      "Prevalence of Severe Anaemia in pregnant women aged 15-49years in percentage DLHS-4": "Not available",
      "0-6 Age Group Persons": 178151,
      "Upper Primary Student-Classroom Ratio in percentage DISE": "NA",
      "Currently married men married below 21years of age in percentage DLHS-4": 32.7,
      "Male Literates": 324140,
      "Households with no lighting in percentage Houselisting and Housing Census Data Tables- District Level , Census of India__2": 0.0695,
      "Primary Drop Out Rate in percentage DISE": "NA",
      "Marginal Workers Household Industry - Males": 2964,
      "Female Illiterates": 268662,
      "Main Workers Other - Females": 7932,
      "Marginal Workers Cultivators - Persons": 15688,
      "Upper Primary Gross Enrolment Ratio in percentage DISE": "NA",
      "Scheduled Caste Persons": 203509,
      "Marginal Workers Cultivators worked for 3 - 6 moths during last year - Persons": 12615,
      "Households with landline phone in percentage": 1.64,
      "Total Households in District  Houselisting and Housing Census Data Tables- District Level , Census of India": 159632,
      "Upper Primary Pupil-Teacher Ratio in percentage DISE": "NA",
      "Primary Student-Classroom Ratio in percentage DISE": "NA",
      "Primary Schools with boys toilet in percentage DISE": "NA",
      "Mean number of children ever born to women aged 40-49years  DLHS-4": "Not available",
      "Households receiving untreated tap water within premises  Houselisting and Housing Census Data Tables- District Level , Census of India__5": 623,
      "Marginal Workers Household Industry worked for 0 - 3 moths during last year - Persons": 1641,
      "Total Male Population": 514154,
      "Non Workers - Females": 383756,
      "Current use of family planning methods in percentage DLHS-4": 41.7,
      "Households with main source of drinking water within premises  Houselisting and Housing Census Data Tables- District Level , Census of India__3": 82436,
      "Main Workers Agricultural Labourers - Males": 77819,
      "Marginal Workers Other worked for 0 - 3 moths during last year - Persons": 2697,
      "Currently married women married below 18years of age in percentage DLHS-4": 16.6,
      "Person Illiterates": 458676,
      "Main Workers Household Industry - Females": 2563,
      "Female Literates": 207301,
      "Marginal Workers Cultivators worked for 0 - 3 moths during last year - Males": 1401,
      "Male": "NA",
      "Households with improved source of drinking water in percentage DLHS-4": "Not available",
      "Upper Primary Schools with electricity in percentage DISE": "NA",
      "Households with electricity in percentage DLHS-4": "Not available",
      "Villages with Primary Health Centre within 10km in percentage DLHS-4": "Not applicable",
      "Births to women aged 15-19years out of Total births in percentage DLHS-4": "Not available",
      "Prevalence of Anaemia in women aged 15-49years in percentage DLHS-4": "Not available",
      "Marginal Workers Agricultural Labourers worked for 3 - 6 moths during last year - Persons": 57447,
      "Main Workers Household Industry - Males": 5271,
      "Scheduled Tribe Females": 532,
      "Marginal Workers worked for 0 - 3 moths during last year - Males": 7605,
      "Marginal Workers Other worked for 3 - 6 moths during last year - Males": 9327,
      "Primary Net Enrolment Ratio in percentage DISE": "NA",
      "Total": "NA",
      "Mean age at marriage for boys DLHS-4": 22,
      "Number of District Hospitals  DLHS-4": "Not applicable",
      "0-6 Age Group Females": 85556,
      "Marginal Workers Agricultural Labourers worked for 0 - 3 moths during last year - Persons": 9222,
      "Marginal Workers Household Industry worked for 0 - 3 moths during last year - Males": 684,
      "Total Workers  Females": 92207,
      "Marginal Workers worked for 3 - 6 moths during last year - Females": 35897,
      "Institutional Deliveries in percentage DLHS-4": 73,
      "Marginal Workers Other - Males": 10855,
      "Total Workers  Males": 236205,
      "Main Workers - Females": 47282,
      "Primary Gross Enrolment Ratio in percentage DISE": "NA",
      "Main Workers Cultivators - Persons": 67149,
      "Marginal Workers Household Industry worked for 0 - 3 moths during last year - Females": 957,
      "Upper Primary Net Enrolment Ratio in percentage DISE": "NA",
      "Primary New Government Schools since 2003 in percentage DISE": "NA",
      "Tier": "Rural",
      "Marginal Workers Household Industry - Females": 2821,
      "Primary Schools with electricity in percentage DISE": "NA",
      "Main Workers Other - Persons": 43774,
      "Marginal Workers Household Industry worked for 3 - 6 moths during last year - Females": 1864,
      "Main Workers Cultivators - Males": 57303,
      "Main Workers Household Industry - Persons": 7834,
      "Marginal Workers Cultivators worked for 0 - 3 moths during last year - Persons": 3073,
      "Scheduled Caste Males": 104847,
      "Marginal Workers - Persons": 104895,
      "Deliveries at home conducted by skilled health personnel in percentage DLHS-4": 38.6,
      "Villages with Sub-Health Centres within 3km in percentage DLHS-4": "Not applicable",
      "Upper Primary New Government Schools since 2003 in percentage DISE": "NA",
      "0-6 Age Group Males": 92595,
      "Primary Schools with drinking water facility in percentage DISE": "NA",
      "Non Workers - Persons": 661705,
      "Person Literates": 531441,
      "State": "BIHAR",
      "Total Female Population": 475963,
      "Marginal Workers worked for 0 - 3 moths during last year - Persons": 16633,
      "Marginal Workers Cultivators - Females": 7023,
      "Marginal Workers Other - Persons": 16753,
      "Sex Ratio": 926,
      "Scheduled Tribe Persons": 1111,
      "Marginal Workers Household Industry worked for 3 - 6 moths during last year - Males": 2280,
      "Marginal Workers Agricultural Labourers - Females": 29183,
      "Mean age at marriage for girls DLHS-4": 20,
      "Households with solar energy as main source of lighting  Houselisting and Housing Census Data Tables- District Level , Census of India__4": 1846,
      "District": "JEHANABAD",
      "Households receiving treated tap water within premises in percentage Houselisting and Housing Census Data Tables- District Level , Census of India__1": 0.727924226,
      "Total Workers  Persons": 328412,
      "Households receiving treated tap water within premises  Houselisting and Housing Census Data Tables- District Level , Census of India__4": 1162,
      "Primary Female Teachers in percentage DISE": "NA",
      "Number of Households": 159920,
      "Main Workers Agricultural Labourers - Persons": 104760
    }
  ],
  "Urban": [
    {
      "Marginal Workers Agricultural Labourers - Persons": 3704,
      "Marginal Workers Other - Females": 1360,
      "Marginal Workers Other worked for 0 - 3 moths during last year - Females": 199,
      "Upper Primary Schools with boys toilet in percentage DISE": "NA",
      "Total Population": 135196,
      "Households with electricity as main source of lighting in percentage Houselisting and Housing Census Data Tables- District Level , Census of India": 67.21177433,
      "Primary Girl's Enrolment in percentage DISE": "NA",
      "Marginal Workers worked for 3 - 6 moths during last year - Males": 4589,
      "Prevalence of Acute illness in percentage DLHS-4": "Not available",
      "Main Workers - Persons": 28173,
      "Main Workers Cultivators - Females": 190,
      "Marginal Workers Agricultural Labourers worked for 3 - 6 moths during last year - Females": 1106,
      "Marginal Workers Other worked for 0 - 3 moths during last year - Males": 447,
      "Upper Primary Schools with drinking water facility in percentage DISE": "NA",
      "Primary Schools with girls toilet in percentage DISE": "NA",
      "Marginal Workers worked for 3 - 6 moths during last year - Persons": 7072,
      "Upper Primary Drop Out Rate in percentage DISE": "NA",
      "Prevalence of Anaemia in pregnant women aged 15-49years in percentage DLHS-4": "Not available",
      "Current use of any modern method of family planning in percentage DLHS-4": 34.4,
      "Marginal Workers Agricultural Labourers - Males": 2111,
      "Upper Primary Female Teachers in percentage DISE": "NA",
      "Marginal Workers - Females": 3218,
      "Marginal Workers Other worked for 3 - 6 moths during last year - Persons": 3633,
      "Main Workers Agricultural Labourers - Females": 846,
      "Marginal Workers Cultivators worked for 3 - 6 moths during last year - Females": 85,
      "Households with no lighting  Houselisting and Housing Census Data Tables- District Level , Census of India__5": 8,
      "Prevalence of Severe Anaemia  in percentage DLHS-4": "Not available",
      "Total unmet need for family planning in percentage DLHS-4": 31.6,
      "Main Workers Other - Males": 17561,
      "Children who received full vaccination in percentage DLHS-4": "Not available",
      "Marginal Workers Household Industry - Persons": 416,
      "Primary Pupil-Teacher Ratio in percentage DISE": "NA",
      "Marginal Workers Agricultural Labourers worked for 3 - 6 moths during last year - Males": 1685,
      "Scheduled Caste Females": 9278,
      "Marginal Workers Cultivators - Males": 287,
      "Marginal Workers - Males": 5575,
      "Marginal Workers worked for 0 - 3 moths during last year - Females": 735,
      "Households with main source of drinking water within premises in percentage Houselisting and Housing Census Data Tables- District Level , Census of India": 76.97374398,
      "Marginal Workers Household Industry worked for 3 - 6 moths during last year - Persons": 320,
      "Upper Primary Girl's Enrolment in percentage DISE": "NA",
      "Prevalence of Severe Anaemia in women aged 15-49years in percentage DLHS-4": "Not available",
      "Marginal Workers Agricultural Labourers worked for 0 - 3 moths during last year - Males": 426,
      "Households with electricity as main source of lighting  Houselisting and Housing Census Data Tables- District Level , Census of India__3": 14796,
      "Households with computer or laptop with internet connection in percentage": 1.88,
      "PHCs functioning on a 24x7hours basis in percentage DLHS-4": 0,
      "Non Workers - Males": 41210,
      "Total Households in District Houselisting and Housing Census Data Tables- District Level , Census of India": 22014,
      "Upper Primary Schools with girls toilet in percentage DISE": "NA",
      "Households with mobile phone in percentage": 68.42,
      "Households receiving untreated tap water within premises in percentage Houselisting and Housing Census Data Tables- District Level , Census of India__2": 2.184973199,
      "Marginal Workers Cultivators worked for 3 - 6 moths during last year - Males": 243,
      "Prevalence of Anaemia  in percentage DLHS-4": "Not available",
      "Prevalence of Chronic illness in percentage DLHS-4": "Not available",
      "Households with solar energy as main source of lighting in percentage Houselisting and Housing Census Data Tables- District Level , Census of India__1": 0.427000999,
      "Marginal Workers Agricultural Labourers worked for 0 - 3 moths during last year - Females": 487,
      "Main Workers - Males": 24643,
      "Female": "NA",
      "Sno": 219,
      "Marginal Workers Other worked for 3 - 6 moths during last year - Females": 1161,
      "Marginal Workers Cultivators worked for 0 - 3 moths during last year - Females": 22,
      "Scheduled Tribe Males": 88,
      "Male Illiterates": 21156,
      "Prevalence of Severe Anaemia in pregnant women aged 15-49years in percentage DLHS-4": "Not available",
      "0-6 Age Group Persons": 20634,
      "Upper Primary Student-Classroom Ratio in percentage DISE": "NA",
      "Currently married men married below 21years of age in percentage DLHS-4": 19.2,
      "Male Literates": 50272,
      "Households with no lighting in percentage Houselisting and Housing Census Data Tables- District Level , Census of India__2": 0.0363,
      "Primary Drop Out Rate in percentage DISE": "NA",
      "Marginal Workers Household Industry - Males": 258,
      "Female Illiterates": 26600,
      "Main Workers Other - Females": 2309,
      "Marginal Workers Cultivators - Persons": 394,
      "Upper Primary Gross Enrolment Ratio in percentage DISE": "NA",
      "Scheduled Caste Persons": 19465,
      "Marginal Workers Cultivators worked for 3 - 6 moths during last year - Persons": 328,
      "Households with landline phone in percentage": 2.9,
      "Total Households in District  Houselisting and Housing Census Data Tables- District Level , Census of India": 22014,
      "Upper Primary Pupil-Teacher Ratio in percentage DISE": "NA",
      "Primary Student-Classroom Ratio in percentage DISE": "NA",
      "Primary Schools with boys toilet in percentage DISE": "NA",
      "Mean number of children ever born to women aged 40-49years  DLHS-4": "Not available",
      "Households receiving untreated tap water within premises  Houselisting and Housing Census Data Tables- District Level , Census of India__5": 481,
      "Marginal Workers Household Industry worked for 0 - 3 moths during last year - Persons": 96,
      "Total Male Population": 71428,
      "Non Workers - Females": 57020,
      "Current use of family planning methods in percentage DLHS-4": 37.3,
      "Households with main source of drinking water within premises  Houselisting and Housing Census Data Tables- District Level , Census of India__3": 16945,
      "Main Workers Agricultural Labourers - Males": 3540,
      "Marginal Workers Other worked for 0 - 3 moths during last year - Persons": 646,
      "Currently married women married below 18years of age in percentage DLHS-4": 17,
      "Person Illiterates": 47756,
      "Main Workers Household Industry - Females": 185,
      "Female Literates": 37168,
      "Marginal Workers Cultivators worked for 0 - 3 moths during last year - Males": 44,
      "Male": "NA",
      "Households with improved source of drinking water in percentage DLHS-4": "Not available",
      "Upper Primary Schools with electricity in percentage DISE": "NA",
      "Households with electricity in percentage DLHS-4": "Not available",
      "Villages with Primary Health Centre within 10km in percentage DLHS-4": 0,
      "Births to women aged 15-19years out of Total births in percentage DLHS-4": "Not available",
      "Prevalence of Anaemia in women aged 15-49years in percentage DLHS-4": "Not available",
      "Marginal Workers Agricultural Labourers worked for 3 - 6 moths during last year - Persons": 2791,
      "Main Workers Household Industry - Males": 855,
      "Scheduled Tribe Females": 86,
      "Marginal Workers worked for 0 - 3 moths during last year - Males": 986,
      "Marginal Workers Other worked for 3 - 6 moths during last year - Males": 2472,
      "Primary Net Enrolment Ratio in percentage DISE": "NA",
      "Total": "NA",
      "Mean age at marriage for boys DLHS-4": 24.5,
      "Number of District Hospitals  DLHS-4": 0,
      "0-6 Age Group Females": 9777,
      "Marginal Workers Agricultural Labourers worked for 0 - 3 moths during last year - Persons": 913,
      "Marginal Workers Household Industry worked for 0 - 3 moths during last year - Males": 69,
      "Total Workers  Females": 6748,
      "Marginal Workers worked for 3 - 6 moths during last year - Females": 2483,
      "Institutional Deliveries in percentage DLHS-4": 70,
      "Marginal Workers Other - Males": 2919,
      "Total Workers  Males": 30218,
      "Main Workers - Females": 3530,
      "Primary Gross Enrolment Ratio in percentage DISE": "NA",
      "Main Workers Cultivators - Persons": 2877,
      "Marginal Workers Household Industry worked for 0 - 3 moths during last year - Females": 27,
      "Upper Primary Net Enrolment Ratio in percentage DISE": "NA",
      "Primary New Government Schools since 2003 in percentage DISE": "NA",
      "Tier": "Urban",
      "Marginal Workers Household Industry - Females": 158,
      "Primary Schools with electricity in percentage DISE": "NA",
      "Main Workers Other - Persons": 19870,
      "Marginal Workers Household Industry worked for 3 - 6 moths during last year - Females": 131,
      "Main Workers Cultivators - Males": 2687,
      "Main Workers Household Industry - Persons": 1040,
      "Marginal Workers Cultivators worked for 0 - 3 moths during last year - Persons": 66,
      "Scheduled Caste Males": 10187,
      "Marginal Workers - Persons": 8793,
      "Deliveries at home conducted by skilled health personnel in percentage DLHS-4": 54.8,
      "Villages with Sub-Health Centres within 3km in percentage DLHS-4": 0,
      "Upper Primary New Government Schools since 2003 in percentage DISE": "NA",
      "0-6 Age Group Males": 10857,
      "Primary Schools with drinking water facility in percentage DISE": "NA",
      "Non Workers - Persons": 98230,
      "Person Literates": 87440,
      "State": "BIHAR",
      "Total Female Population": 63768,
      "Marginal Workers worked for 0 - 3 moths during last year - Persons": 1721,
      "Marginal Workers Cultivators - Females": 107,
      "Marginal Workers Other - Persons": 4279,
      "Sex Ratio": 893,
      "Scheduled Tribe Persons": 174,
      "Marginal Workers Household Industry worked for 3 - 6 moths during last year - Males": 189,
      "Marginal Workers Agricultural Labourers - Females": 1593,
      "Mean age at marriage for girls DLHS-4": 21.1,
      "Households with solar energy as main source of lighting  Houselisting and Housing Census Data Tables- District Level , Census of India__4": 94,
      "District": "JEHANABAD",
      "Households receiving treated tap water within premises in percentage Houselisting and Housing Census Data Tables- District Level , Census of India__1": 6.441355501,
      "Total Workers  Persons": 36966,
      "Households receiving treated tap water within premises  Houselisting and Housing Census Data Tables- District Level , Census of India__4": 1418,
      "Primary Female Teachers in percentage DISE": "NA",
      "Number of Households": 21820,
      "Main Workers Agricultural Labourers - Persons": 4386
    }
  ]
}