{
  "Total": [
    {
      "Marginal Workers Agricultural Labourers - Persons": 101566,
      "Marginal Workers Other - Females": 9009,
      "Marginal Workers Other worked for 0 - 3 moths during last year - Females": 2275,
      "Upper Primary Schools with boys toilet in percentage DISE": 100,
      "Total Population": 1690400,
      "Households with electricity as main source of lighting in percentage Houselisting and Housing Census Data Tables- District Level , Census of India": 17.49063927,
      "Primary Girl's Enrolment in percentage DISE": 51.1,
      "Marginal Workers worked for 3 - 6 moths during last year - Males": 75612,
      "Prevalence of Acute illness in percentage DLHS-4": "Not available",
      "Main Workers - Persons": 384416,
      "Main Workers Cultivators - Females": 6086,
      "Marginal Workers Agricultural Labourers worked for 3 - 6 moths during last year - Females": 28917,
      "Marginal Workers Other worked for 0 - 3 moths during last year - Males": 1290,
      "Upper Primary Schools with drinking water facility in percentage DISE": 100,
      "Primary Schools with girls toilet in percentage DISE": 52,
      "Marginal Workers worked for 3 - 6 moths during last year - Persons": 118593,
      "Upper Primary Drop Out Rate in percentage DISE": 14.93,
      "Prevalence of Anaemia in pregnant women aged 15-49years in percentage DLHS-4": "Not available",
      "Current use of any modern method of family planning in percentage DLHS-4": 38.3,
      "Marginal Workers Agricultural Labourers - Males": 63678,
      "Upper Primary Female Teachers in percentage DISE": 0,
      "Marginal Workers - Females": 57956,
      "Marginal Workers Other worked for 3 - 6 moths during last year - Persons": 16201,
      "Main Workers Agricultural Labourers - Females": 29166,
      "Marginal Workers Cultivators worked for 3 - 6 moths during last year - Females": 4834,
      "Households with no lighting  Houselisting and Housing Census Data Tables- District Level , Census of India__5": 100,
      "Prevalence of Severe Anaemia  in percentage DLHS-4": "Not available",
      "Total unmet need for family planning in percentage DLHS-4": 38.7,
      "Main Workers Other - Males": 55379,
      "Children who received full vaccination in percentage DLHS-4": "Not available",
      "Marginal Workers Household Industry - Persons": 5801,
      "Primary Pupil-Teacher Ratio in percentage DISE": 56,
      "Marginal Workers Agricultural Labourers worked for 3 - 6 moths during last year - Males": 55988,
      "Scheduled Caste Females": 55154,
      "Marginal Workers Cultivators - Males": 10549,
      "Marginal Workers - Males": 86692,
      "Marginal Workers worked for 0 - 3 moths during last year - Females": 14975,
      "Households with main source of drinking water within premises in percentage Houselisting and Housing Census Data Tables- District Level , Census of India": 42.43173444,
      "Marginal Workers Household Industry worked for 3 - 6 moths during last year - Persons": 3676,
      "Upper Primary Girl's Enrolment in percentage DISE": 51.8,
      "Prevalence of Severe Anaemia in women aged 15-49years in percentage DLHS-4": "Not available",
      "Marginal Workers Agricultural Labourers worked for 0 - 3 moths during last year - Males": 7690,
      "Households with electricity as main source of lighting  Houselisting and Housing Census Data Tables- District Level , Census of India__3": 58718,
      "Households with computer or laptop with internet connection in percentage": 0.33,
      "PHCs functioning on a 24x7hours basis in percentage DLHS-4": "Not available",
      "Non Workers - Males": 445778,
      "Total Households in District Houselisting and Housing Census Data Tables- District Level , Census of India": 335711,
      "Upper Primary Schools with girls toilet in percentage DISE": 100,
      "Households with mobile phone in percentage": 36.45,
      "Households receiving untreated tap water within premises in percentage Houselisting and Housing Census Data Tables- District Level , Census of India__2": 0.187363536,
      "Marginal Workers Cultivators worked for 3 - 6 moths during last year - Males": 8977,
      "Prevalence of Anaemia  in percentage DLHS-4": "Not available",
      "Prevalence of Chronic illness in percentage DLHS-4": "Not available",
      "Households with solar energy as main source of lighting in percentage Houselisting and Housing Census Data Tables- District Level , Census of India__1": 0.210597806,
      "Marginal Workers Agricultural Labourers worked for 0 - 3 moths during last year - Females": 8971,
      "Main Workers - Males": 334500,
      "Female": 46.76,
      "Sno": 230,
      "Marginal Workers Other worked for 3 - 6 moths during last year - Females": 6734,
      "Marginal Workers Cultivators worked for 0 - 3 moths during last year - Females": 2132,
      "Scheduled Tribe Males": 32506,
      "Male Illiterates": 427049,
      "Prevalence of Severe Anaemia in pregnant women aged 15-49years in percentage DLHS-4": "Not available",
      "0-6 Age Group Persons": 346904,
      "Upper Primary Student-Classroom Ratio in percentage DISE": 75,
      "Currently married men married below 21years of age in percentage DLHS-4": 11.2,
      "Male Literates": 439921,
      "Households with no lighting in percentage Houselisting and Housing Census Data Tables- District Level , Census of India__2": 0.0298,
      "Primary Drop Out Rate in percentage DISE": 3.4,
      "Marginal Workers Household Industry - Males": 1708,
      "Female Illiterates": 518295,
      "Main Workers Other - Females": 12557,
      "Marginal Workers Cultivators - Persons": 17515,
      "Upper Primary Gross Enrolment Ratio in percentage DISE": 69.9,
      "Scheduled Caste Persons": 113118,
      "Marginal Workers Cultivators worked for 3 - 6 moths during last year - Persons": 13811,
      "Households with landline phone in percentage": 1.25,
      "Total Households in District  Houselisting and Housing Census Data Tables- District Level , Census of India": 335711,
      "Upper Primary Pupil-Teacher Ratio in percentage DISE": 32,
      "Primary Student-Classroom Ratio in percentage DISE": 59,
      "Primary Schools with boys toilet in percentage DISE": 52.5,
      "Mean number of children ever born to women aged 40-49years  DLHS-4": "Not available",
      "Households receiving untreated tap water within premises  Houselisting and Housing Census Data Tables- District Level , Census of India__5": 629,
      "Marginal Workers Household Industry worked for 0 - 3 moths during last year - Persons": 2125,
      "Total Male Population": 866970,
      "Non Workers - Females": 715558,
      "Current use of family planning methods in percentage DLHS-4": 39.5,
      "Households with main source of drinking water within premises  Houselisting and Housing Census Data Tables- District Level , Census of India__3": 142448,
      "Main Workers Agricultural Labourers - Males": 191135,
      "Marginal Workers Other worked for 0 - 3 moths during last year - Persons": 3565,
      "Currently married women married below 18years of age in percentage DLHS-4": 4.7,
      "Person Illiterates": 945344,
      "Main Workers Household Industry - Females": 2107,
      "Female Literates": 305135,
      "Marginal Workers Cultivators worked for 0 - 3 moths during last year - Males": 1572,
      "Male": 63.66,
      "Households with improved source of drinking water in percentage DLHS-4": "Not available",
      "Upper Primary Schools with electricity in percentage DISE": 0,
      "Households with electricity in percentage DLHS-4": "Not available",
      "Villages with Primary Health Centre within 10km in percentage DLHS-4": "Not available",
      "Births to women aged 15-19years out of Total births in percentage DLHS-4": "Not available",
      "Prevalence of Anaemia in women aged 15-49years in percentage DLHS-4": "Not available",
      "Marginal Workers Agricultural Labourers worked for 3 - 6 moths during last year - Persons": 84905,
      "Main Workers Household Industry - Males": 3725,
      "Scheduled Tribe Females": 31718,
      "Marginal Workers worked for 0 - 3 moths during last year - Males": 11080,
      "Marginal Workers Other worked for 3 - 6 moths during last year - Males": 9467,
      "Primary Net Enrolment Ratio in percentage DISE": 100,
      "Total": 55.46,
      "Mean age at marriage for boys DLHS-4": 24.5,
      "Number of District Hospitals  DLHS-4": "Not available",
      "0-6 Age Group Females": 170942,
      "Marginal Workers Agricultural Labourers worked for 0 - 3 moths during last year - Persons": 16661,
      "Marginal Workers Household Industry worked for 0 - 3 moths during last year - Males": 528,
      "Total Workers  Females": 107872,
      "Marginal Workers worked for 3 - 6 moths during last year - Females": 42981,
      "Institutional Deliveries in percentage DLHS-4": 38.4,
      "Marginal Workers Other - Males": 10757,
      "Total Workers  Males": 421192,
      "Main Workers - Females": 49916,
      "Primary Gross Enrolment Ratio in percentage DISE": 115.1,
      "Main Workers Cultivators - Persons": 90347,
      "Marginal Workers Household Industry worked for 0 - 3 moths during last year - Females": 1597,
      "Upper Primary Net Enrolment Ratio in percentage DISE": 61,
      "Primary New Government Schools since 2003 in percentage DISE": 77,
      "Tier": "Total",
      "Marginal Workers Household Industry - Females": 4093,
      "Primary Schools with electricity in percentage DISE": 3.3,
      "Main Workers Other - Persons": 67936,
      "Marginal Workers Household Industry worked for 3 - 6 moths during last year - Females": 2496,
      "Main Workers Cultivators - Males": 84261,
      "Main Workers Household Industry - Persons": 5832,
      "Marginal Workers Cultivators worked for 0 - 3 moths during last year - Persons": 3704,
      "Scheduled Caste Males": 57964,
      "Marginal Workers - Persons": 144648,
      "Deliveries at home conducted by skilled health personnel in percentage DLHS-4": 32.2,
      "Villages with Sub-Health Centres within 3km in percentage DLHS-4": "Not available",
      "Upper Primary New Government Schools since 2003 in percentage DISE": 0,
      "0-6 Age Group Males": 175962,
      "Primary Schools with drinking water facility in percentage DISE": 80.4,
      "Non Workers - Persons": 1161336,
      "Person Literates": 745056,
      "State": "BIHAR",
      "Total Female Population": 823430,
      "Marginal Workers worked for 0 - 3 moths during last year - Persons": 26055,
      "Marginal Workers Cultivators - Females": 6966,
      "Marginal Workers Other - Persons": 19766,
      "Sex Ratio": 950,
      "Scheduled Tribe Persons": 64224,
      "Marginal Workers Household Industry worked for 3 - 6 moths during last year - Males": 1180,
      "Marginal Workers Agricultural Labourers - Females": 37888,
      "Mean age at marriage for girls DLHS-4": 20.8,
      "Households with solar energy as main source of lighting  Houselisting and Housing Census Data Tables- District Level , Census of India__4": 707,
      "District": "KISHANGANJ",
      "Households receiving treated tap water within premises in percentage Houselisting and Housing Census Data Tables- District Level , Census of India__1": 0.542728716,
      "Total Workers  Persons": 529064,
      "Households receiving treated tap water within premises  Houselisting and Housing Census Data Tables- District Level , Census of India__4": 1822,
      "Primary Female Teachers in percentage DISE": 42.5,
      "Number of Households": 338445,
      "Main Workers Agricultural Labourers - Persons": 220301
    }
  ],
  "Rural": [
    {
      "Marginal Workers Agricultural Labourers - Persons": 98550,
      "Marginal Workers Other - Females": 7056,
      "Marginal Workers Other worked for 0 - 3 moths during last year - Females": 1923,
      "Upper Primary Schools with boys toilet in percentage DISE": "NA",
      "Total Population": 1529277,
      "Households with electricity as main source of lighting in percentage Houselisting and Housing Census Data Tables- District Level , Census of India": 13.96150249,
      "Primary Girl's Enrolment in percentage DISE": "NA",
      "Marginal Workers worked for 3 - 6 moths during last year - Males": 70959,
      "Prevalence of Acute illness in percentage DLHS-4": "Not available",
      "Main Workers - Persons": 342315,
      "Main Workers Cultivators - Females": 5855,
      "Marginal Workers Agricultural Labourers worked for 3 - 6 moths during last year - Females": 28092,
      "Marginal Workers Other worked for 0 - 3 moths during last year - Males": 1035,
      "Upper Primary Schools with drinking water facility in percentage DISE": "NA",
      "Primary Schools with girls toilet in percentage DISE": "NA",
      "Marginal Workers worked for 3 - 6 moths during last year - Persons": 111183,
      "Upper Primary Drop Out Rate in percentage DISE": "NA",
      "Prevalence of Anaemia in pregnant women aged 15-49years in percentage DLHS-4": "Not available",
      "Current use of any modern method of family planning in percentage DLHS-4": 35.4,
      "Marginal Workers Agricultural Labourers - Males": 61900,
      "Upper Primary Female Teachers in percentage DISE": "NA",
      "Marginal Workers - Females": 54314,
      "Marginal Workers Other worked for 3 - 6 moths during last year - Persons": 11569,
      "Main Workers Agricultural Labourers - Females": 28088,
      "Marginal Workers Cultivators worked for 3 - 6 moths during last year - Females": 4768,
      "Households with no lighting  Houselisting and Housing Census Data Tables- District Level , Census of India__5": 48,
      "Prevalence of Severe Anaemia  in percentage DLHS-4": "Not available",
      "Total unmet need for family planning in percentage DLHS-4": 40.1,
      "Main Workers Other - Males": 29211,
      "Children who received full vaccination in percentage DLHS-4": "Not available",
      "Marginal Workers Household Industry - Persons": 5305,
      "Primary Pupil-Teacher Ratio in percentage DISE": "NA",
      "Marginal Workers Agricultural Labourers worked for 3 - 6 moths during last year - Males": 54620,
      "Scheduled Caste Females": 46691,
      "Marginal Workers Cultivators - Males": 10360,
      "Marginal Workers - Males": 81281,
      "Marginal Workers worked for 0 - 3 moths during last year - Females": 14090,
      "Households with main source of drinking water within premises in percentage Houselisting and Housing Census Data Tables- District Level , Census of India": 39.22250119,
      "Marginal Workers Household Industry worked for 3 - 6 moths during last year - Persons": 3294,
      "Upper Primary Girl's Enrolment in percentage DISE": "NA",
      "Prevalence of Severe Anaemia in women aged 15-49years in percentage DLHS-4": "Not available",
      "Marginal Workers Agricultural Labourers worked for 0 - 3 moths during last year - Males": 7280,
      "Households with electricity as main source of lighting  Houselisting and Housing Census Data Tables- District Level , Census of India__3": 42540,
      "Households with computer or laptop with internet connection in percentage": 0.21,
      "PHCs functioning on a 24x7hours basis in percentage DLHS-4": "Not applicable",
      "Non Workers - Males": 403387,
      "Total Households in District Houselisting and Housing Census Data Tables- District Level , Census of India": 304695,
      "Upper Primary Schools with girls toilet in percentage DISE": "NA",
      "Households with mobile phone in percentage": 35.13,
      "Households receiving untreated tap water within premises in percentage Houselisting and Housing Census Data Tables- District Level , Census of India__2": 0.0798,
      "Marginal Workers Cultivators worked for 3 - 6 moths during last year - Males": 8840,
      "Prevalence of Anaemia  in percentage DLHS-4": "Not available",
      "Prevalence of Chronic illness in percentage DLHS-4": "Not available",
      "Households with solar energy as main source of lighting in percentage Houselisting and Housing Census Data Tables- District Level , Census of India__1": 0.225471373,
      "Marginal Workers Agricultural Labourers worked for 0 - 3 moths during last year - Females": 8558,
      "Main Workers - Males": 298650,
      "Female": "NA",
      "Sno": 229,
      "Marginal Workers Other worked for 3 - 6 moths during last year - Females": 5133,
      "Marginal Workers Cultivators worked for 0 - 3 moths during last year - Females": 2085,
      "Scheduled Tribe Males": 30877,
      "Male Illiterates": 397008,
      "Prevalence of Severe Anaemia in pregnant women aged 15-49years in percentage DLHS-4": "Not available",
      "0-6 Age Group Persons": 320066,
      "Upper Primary Student-Classroom Ratio in percentage DISE": "NA",
      "Currently married men married below 21years of age in percentage DLHS-4": 11.1,
      "Male Literates": 386310,
      "Households with no lighting in percentage Houselisting and Housing Census Data Tables- District Level , Census of India__2": 0.0158,
      "Primary Drop Out Rate in percentage DISE": "NA",
      "Marginal Workers Household Industry - Males": 1550,
      "Female Illiterates": 482803,
      "Main Workers Other - Females": 8109,
      "Marginal Workers Cultivators - Persons": 17213,
      "Upper Primary Gross Enrolment Ratio in percentage DISE": "NA",
      "Scheduled Caste Persons": 95770,
      "Marginal Workers Cultivators worked for 3 - 6 moths during last year - Persons": 13608,
      "Households with landline phone in percentage": 1.14,
      "Total Households in District  Houselisting and Housing Census Data Tables- District Level , Census of India": 304695,
      "Upper Primary Pupil-Teacher Ratio in percentage DISE": "NA",
      "Primary Student-Classroom Ratio in percentage DISE": "NA",
      "Primary Schools with boys toilet in percentage DISE": "NA",
      "Mean number of children ever born to women aged 40-49years  DLHS-4": "Not available",
      "Households receiving untreated tap water within premises  Houselisting and Housing Census Data Tables- District Level , Census of India__5": 243,
      "Marginal Workers Household Industry worked for 0 - 3 moths during last year - Persons": 2011,
      "Total Male Population": 783318,
      "Non Workers - Females": 647980,
      "Current use of family planning methods in percentage DLHS-4": 36.8,
      "Households with main source of drinking water within premises  Houselisting and Housing Census Data Tables- District Level , Census of India__3": 119509,
      "Main Workers Agricultural Labourers - Males": 184880,
      "Marginal Workers Other worked for 0 - 3 moths during last year - Persons": 2958,
      "Currently married women married below 18years of age in percentage DLHS-4": 5.1,
      "Person Illiterates": 879811,
      "Main Workers Household Industry - Females": 1613,
      "Female Literates": 263156,
      "Marginal Workers Cultivators worked for 0 - 3 moths during last year - Males": 1520,
      "Male": "NA",
      "Households with improved source of drinking water in percentage DLHS-4": "Not available",
      "Upper Primary Schools with electricity in percentage DISE": "NA",
      "Households with electricity in percentage DLHS-4": "Not available",
      "Villages with Primary Health Centre within 10km in percentage DLHS-4": "Not applicable",
      "Births to women aged 15-19years out of Total births in percentage DLHS-4": "Not available",
      "Prevalence of Anaemia in women aged 15-49years in percentage DLHS-4": "Not available",
      "Marginal Workers Agricultural Labourers worked for 3 - 6 moths during last year - Persons": 82712,
      "Main Workers Household Industry - Males": 2961,
      "Scheduled Tribe Females": 30091,
      "Marginal Workers worked for 0 - 3 moths during last year - Males": 10322,
      "Marginal Workers Other worked for 3 - 6 moths during last year - Males": 6436,
      "Primary Net Enrolment Ratio in percentage DISE": "NA",
      "Total": "NA",
      "Mean age at marriage for boys DLHS-4": 24.4,
      "Number of District Hospitals  DLHS-4": "Not applicable",
      "0-6 Age Group Females": 157747,
      "Marginal Workers Agricultural Labourers worked for 0 - 3 moths during last year - Persons": 15838,
      "Marginal Workers Household Industry worked for 0 - 3 moths during last year - Males": 487,
      "Total Workers  Females": 97979,
      "Marginal Workers worked for 3 - 6 moths during last year - Females": 40224,
      "Institutional Deliveries in percentage DLHS-4": 34.8,
      "Marginal Workers Other - Males": 7471,
      "Total Workers  Males": 379931,
      "Main Workers - Females": 43665,
      "Primary Gross Enrolment Ratio in percentage DISE": "NA",
      "Main Workers Cultivators - Persons": 87453,
      "Marginal Workers Household Industry worked for 0 - 3 moths during last year - Females": 1524,
      "Upper Primary Net Enrolment Ratio in percentage DISE": "NA",
      "Primary New Government Schools since 2003 in percentage DISE": "NA",
      "Tier": "Rural",
      "Marginal Workers Household Industry - Females": 3755,
      "Primary Schools with electricity in percentage DISE": "NA",
      "Main Workers Other - Persons": 37320,
      "Marginal Workers Household Industry worked for 3 - 6 moths during last year - Females": 2231,
      "Main Workers Cultivators - Males": 81598,
      "Main Workers Household Industry - Persons": 4574,
      "Marginal Workers Cultivators worked for 0 - 3 moths during last year - Persons": 3605,
      "Scheduled Caste Males": 49079,
      "Marginal Workers - Persons": 135595,
      "Deliveries at home conducted by skilled health personnel in percentage DLHS-4": 31.1,
      "Villages with Sub-Health Centres within 3km in percentage DLHS-4": "Not applicable",
      "Upper Primary New Government Schools since 2003 in percentage DISE": "NA",
      "0-6 Age Group Males": 162319,
      "Primary Schools with drinking water facility in percentage DISE": "NA",
      "Non Workers - Persons": 1051367,
      "Person Literates": 649466,
      "State": "BIHAR",
      "Total Female Population": 745959,
      "Marginal Workers worked for 0 - 3 moths during last year - Persons": 24412,
      "Marginal Workers Cultivators - Females": 6853,
      "Marginal Workers Other - Persons": 14527,
      "Sex Ratio": 952,
      "Scheduled Tribe Persons": 60968,
      "Marginal Workers Household Industry worked for 3 - 6 moths during last year - Males": 1063,
      "Marginal Workers Agricultural Labourers - Females": 36650,
      "Mean age at marriage for girls DLHS-4": 20.6,
      "Households with solar energy as main source of lighting  Houselisting and Housing Census Data Tables- District Level , Census of India__4": 687,
      "District": "KISHANGANJ",
      "Households receiving treated tap water within premises in percentage Houselisting and Housing Census Data Tables- District Level , Census of India__1": 0.287172418,
      "Total Workers  Persons": 477910,
      "Households receiving treated tap water within premises  Houselisting and Housing Census Data Tables- District Level , Census of India__4": 875,
      "Primary Female Teachers in percentage DISE": "NA",
      "Number of Households": 306497,
      "Main Workers Agricultural Labourers - Persons": 212968
    }
  ],
  "Urban": [
    {
      "Marginal Workers Agricultural Labourers - Persons": 3016,
      "Marginal Workers Other - Females": 1953,
      "Marginal Workers Other worked for 0 - 3 moths during last year - Females": 352,
      "Upper Primary Schools with boys toilet in percentage DISE": "NA",
      "Total Population": 161123,
      "Households with electricity as main source of lighting in percentage Houselisting and Housing Census Data Tables- District Level , Census of India": 52.16017539,
      "Primary Girl's Enrolment in percentage DISE": "NA",
      "Marginal Workers worked for 3 - 6 moths during last year - Males": 4653,
      "Prevalence of Acute illness in percentage DLHS-4": "Not available",
      "Main Workers - Persons": 42101,
      "Main Workers Cultivators - Females": 231,
      "Marginal Workers Agricultural Labourers worked for 3 - 6 moths during last year - Females": 825,
      "Marginal Workers Other worked for 0 - 3 moths during last year - Males": 255,
      "Upper Primary Schools with drinking water facility in percentage DISE": "NA",
      "Primary Schools with girls toilet in percentage DISE": "NA",
      "Marginal Workers worked for 3 - 6 moths during last year - Persons": 7410,
      "Upper Primary Drop Out Rate in percentage DISE": "NA",
      "Prevalence of Anaemia in pregnant women aged 15-49years in percentage DLHS-4": "Not available",
      "Current use of any modern method of family planning in percentage DLHS-4": 59.2,
      "Marginal Workers Agricultural Labourers - Males": 1778,
      "Upper Primary Female Teachers in percentage DISE": "NA",
      "Marginal Workers - Females": 3642,
      "Marginal Workers Other worked for 3 - 6 moths during last year - Persons": 4632,
      "Main Workers Agricultural Labourers - Females": 1078,
      "Marginal Workers Cultivators worked for 3 - 6 moths during last year - Females": 66,
      "Households with no lighting  Houselisting and Housing Census Data Tables- District Level , Census of India__5": 52,
      "Prevalence of Severe Anaemia  in percentage DLHS-4": "Not available",
      "Total unmet need for family planning in percentage DLHS-4": 28.3,
      "Main Workers Other - Males": 26168,
      "Children who received full vaccination in percentage DLHS-4": "Not available",
      "Marginal Workers Household Industry - Persons": 496,
      "Primary Pupil-Teacher Ratio in percentage DISE": "NA",
      "Marginal Workers Agricultural Labourers worked for 3 - 6 moths during last year - Males": 1368,
      "Scheduled Caste Females": 8463,
      "Marginal Workers Cultivators - Males": 189,
      "Marginal Workers - Males": 5411,
      "Marginal Workers worked for 0 - 3 moths during last year - Females": 885,
      "Households with main source of drinking water within premises in percentage Houselisting and Housing Census Data Tables- District Level , Census of India": 73.95860201,
      "Marginal Workers Household Industry worked for 3 - 6 moths during last year - Persons": 382,
      "Upper Primary Girl's Enrolment in percentage DISE": "NA",
      "Prevalence of Severe Anaemia in women aged 15-49years in percentage DLHS-4": "Not available",
      "Marginal Workers Agricultural Labourers worked for 0 - 3 moths during last year - Males": 410,
      "Households with electricity as main source of lighting  Houselisting and Housing Census Data Tables- District Level , Census of India__3": 16178,
      "Households with computer or laptop with internet connection in percentage": 1.49,
      "PHCs functioning on a 24x7hours basis in percentage DLHS-4": 0,
      "Non Workers - Males": 42391,
      "Total Households in District Houselisting and Housing Census Data Tables- District Level , Census of India": 31016,
      "Upper Primary Schools with girls toilet in percentage DISE": "NA",
      "Households with mobile phone in percentage": 49.34,
      "Households receiving untreated tap water within premises in percentage Houselisting and Housing Census Data Tables- District Level , Census of India__2": 1.244518958,
      "Marginal Workers Cultivators worked for 3 - 6 moths during last year - Males": 137,
      "Prevalence of Anaemia  in percentage DLHS-4": "Not available",
      "Prevalence of Chronic illness in percentage DLHS-4": "Not available",
      "Households with solar energy as main source of lighting in percentage Houselisting and Housing Census Data Tables- District Level , Census of India__1": 0.0645,
      "Marginal Workers Agricultural Labourers worked for 0 - 3 moths during last year - Females": 413,
      "Main Workers - Males": 35850,
      "Female": "NA",
      "Sno": 231,
      "Marginal Workers Other worked for 3 - 6 moths during last year - Females": 1601,
      "Marginal Workers Cultivators worked for 0 - 3 moths during last year - Females": 47,
      "Scheduled Tribe Males": 1629,
      "Male Illiterates": 30041,
      "Prevalence of Severe Anaemia in pregnant women aged 15-49years in percentage DLHS-4": "Not available",
      "0-6 Age Group Persons": 26838,
      "Upper Primary Student-Classroom Ratio in percentage DISE": "NA",
      "Currently married men married below 21years of age in percentage DLHS-4": 11.9,
      "Male Literates": 53611,
      "Households with no lighting in percentage Houselisting and Housing Census Data Tables- District Level , Census of India__2": 0.167655404,
      "Primary Drop Out Rate in percentage DISE": "NA",
      "Marginal Workers Household Industry - Males": 158,
      "Female Illiterates": 35492,
      "Main Workers Other - Females": 4448,
      "Marginal Workers Cultivators - Persons": 302,
      "Upper Primary Gross Enrolment Ratio in percentage DISE": "NA",
      "Scheduled Caste Persons": 17348,
      "Marginal Workers Cultivators worked for 3 - 6 moths during last year - Persons": 203,
      "Households with landline phone in percentage": 2.35,
      "Total Households in District  Houselisting and Housing Census Data Tables- District Level , Census of India": 31016,
      "Upper Primary Pupil-Teacher Ratio in percentage DISE": "NA",
      "Primary Student-Classroom Ratio in percentage DISE": "NA",
      "Primary Schools with boys toilet in percentage DISE": "NA",
      "Mean number of children ever born to women aged 40-49years  DLHS-4": "Not available",
      "Households receiving untreated tap water within premises  Houselisting and Housing Census Data Tables- District Level , Census of India__5": 386,
      "Marginal Workers Household Industry worked for 0 - 3 moths during last year - Persons": 114,
      "Total Male Population": 83652,
      "Non Workers - Females": 67578,
      "Current use of family planning methods in percentage DLHS-4": 59.4,
      "Households with main source of drinking water within premises  Houselisting and Housing Census Data Tables- District Level , Census of India__3": 22939,
      "Main Workers Agricultural Labourers - Males": 6255,
      "Marginal Workers Other worked for 0 - 3 moths during last year - Persons": 607,
      "Currently married women married below 18years of age in percentage DLHS-4": 2.2,
      "Person Illiterates": 65533,
      "Main Workers Household Industry - Females": 494,
      "Female Literates": 41979,
      "Marginal Workers Cultivators worked for 0 - 3 moths during last year - Males": 52,
      "Male": "NA",
      "Households with improved source of drinking water in percentage DLHS-4": "Not available",
      "Upper Primary Schools with electricity in percentage DISE": "NA",
      "Households with electricity in percentage DLHS-4": "Not available",
      "Villages with Primary Health Centre within 10km in percentage DLHS-4": 0,
      "Births to women aged 15-19years out of Total births in percentage DLHS-4": "Not available",
      "Prevalence of Anaemia in women aged 15-49years in percentage DLHS-4": "Not available",
      "Marginal Workers Agricultural Labourers worked for 3 - 6 moths during last year - Persons": 2193,
      "Main Workers Household Industry - Males": 764,
      "Scheduled Tribe Females": 1627,
      "Marginal Workers worked for 0 - 3 moths during last year - Males": 758,
      "Marginal Workers Other worked for 3 - 6 moths during last year - Males": 3031,
      "Primary Net Enrolment Ratio in percentage DISE": "NA",
      "Total": "NA",
      "Mean age at marriage for boys DLHS-4": 25.9,
      "Number of District Hospitals  DLHS-4": 0,
      "0-6 Age Group Females": 13195,
      "Marginal Workers Agricultural Labourers worked for 0 - 3 moths during last year - Persons": 823,
      "Marginal Workers Household Industry worked for 0 - 3 moths during last year - Males": 41,
      "Total Workers  Females": 9893,
      "Marginal Workers worked for 3 - 6 moths during last year - Females": 2757,
      "Institutional Deliveries in percentage DLHS-4": 76.7,
      "Marginal Workers Other - Males": 3286,
      "Total Workers  Males": 41261,
      "Main Workers - Females": 6251,
      "Primary Gross Enrolment Ratio in percentage DISE": "NA",
      "Main Workers Cultivators - Persons": 2894,
      "Marginal Workers Household Industry worked for 0 - 3 moths during last year - Females": 73,
      "Upper Primary Net Enrolment Ratio in percentage DISE": "NA",
      "Primary New Government Schools since 2003 in percentage DISE": "NA",
      "Tier": "Urban",
      "Marginal Workers Household Industry - Females": 338,
      "Primary Schools with electricity in percentage DISE": "NA",
      "Main Workers Other - Persons": 30616,
      "Marginal Workers Household Industry worked for 3 - 6 moths during last year - Females": 265,
      "Main Workers Cultivators - Males": 2663,
      "Main Workers Household Industry - Persons": 1258,
      "Marginal Workers Cultivators worked for 0 - 3 moths during last year - Persons": 99,
      "Scheduled Caste Males": 8885,
      "Marginal Workers - Persons": 9053,
      "Deliveries at home conducted by skilled health personnel in percentage DLHS-4": 62.2,
      "Villages with Sub-Health Centres within 3km in percentage DLHS-4": 0,
      "Upper Primary New Government Schools since 2003 in percentage DISE": "NA",
      "0-6 Age Group Males": 13643,
      "Primary Schools with drinking water facility in percentage DISE": "NA",
      "Non Workers - Persons": 109969,
      "Person Literates": 95590,
      "State": "BIHAR",
      "Total Female Population": 77471,
      "Marginal Workers worked for 0 - 3 moths during last year - Persons": 1643,
      "Marginal Workers Cultivators - Females": 113,
      "Marginal Workers Other - Persons": 5239,
      "Sex Ratio": 926,
      "Scheduled Tribe Persons": 3256,
      "Marginal Workers Household Industry worked for 3 - 6 moths during last year - Males": 117,
      "Marginal Workers Agricultural Labourers - Females": 1238,
      "Mean age at marriage for girls DLHS-4": 21.8,
      "Households with solar energy as main source of lighting  Houselisting and Housing Census Data Tables- District Level , Census of India__4": 20,
      "District": "KISHANGANJ",
      "Households receiving treated tap water within premises in percentage Houselisting and Housing Census Data Tables- District Level , Census of India__1": 3.053262832,
      "Total Workers  Persons": 51154,
      "Households receiving treated tap water within premises  Houselisting and Housing Census Data Tables- District Level , Census of India__4": 947,
      "Primary Female Teachers in percentage DISE": "NA",
      "Number of Households": 31948,
      "Main Workers Agricultural Labourers - Persons": 7333
    }
  ]
}