{
  "Total": [
    {
      "Marginal Workers Agricultural Labourers - Persons": 217003,
      "Marginal Workers Other - Females": 18681,
      "Marginal Workers Other worked for 0 - 3 moths during last year - Females": 2232,
      "Upper Primary Schools with boys toilet in percentage DISE": 100,
      "Total Population": 3495021,
      "Households with electricity as main source of lighting in percentage Houselisting and Housing Census Data Tables- District Level , Census of India": 11.0651475,
      "Primary Girl's Enrolment in percentage DISE": 49.6,
      "Marginal Workers worked for 3 - 6 moths during last year - Males": 203557,
      "Prevalence of Acute illness in percentage DLHS-4": "Not available",
      "Main Workers - Persons": 716006,
      "Main Workers Cultivators - Females": 18441,
      "Marginal Workers Agricultural Labourers worked for 3 - 6 moths during last year - Females": 53268,
      "Marginal Workers Other worked for 0 - 3 moths during last year - Males": 6091,
      "Upper Primary Schools with drinking water facility in percentage DISE": 100,
      "Primary Schools with girls toilet in percentage DISE": 75.8,
      "Marginal Workers worked for 3 - 6 moths during last year - Persons": 291210,
      "Upper Primary Drop Out Rate in percentage DISE": 0.2,
      "Prevalence of Anaemia in pregnant women aged 15-49years in percentage DLHS-4": "Not available",
      "Current use of any modern method of family planning in percentage DLHS-4": 49.9,
      "Marginal Workers Agricultural Labourers - Males": 150888,
      "Upper Primary Female Teachers in percentage DISE": 53.8,
      "Marginal Workers - Females": 108623,
      "Marginal Workers Other worked for 3 - 6 moths during last year - Persons": 56287,
      "Main Workers Agricultural Labourers - Females": 41741,
      "Marginal Workers Cultivators worked for 3 - 6 moths during last year - Females": 12815,
      "Households with no lighting  Houselisting and Housing Census Data Tables- District Level , Census of India__5": 732,
      "Prevalence of Severe Anaemia  in percentage DLHS-4": "Not available",
      "Total unmet need for family planning in percentage DLHS-4": 34.8,
      "Main Workers Other - Males": 175158,
      "Children who received full vaccination in percentage DLHS-4": "Not available",
      "Marginal Workers Household Industry - Persons": 14301,
      "Primary Pupil-Teacher Ratio in percentage DISE": 42,
      "Marginal Workers Agricultural Labourers worked for 3 - 6 moths during last year - Males": 130718,
      "Scheduled Caste Females": 350204,
      "Marginal Workers Cultivators - Males": 31388,
      "Marginal Workers - Males": 235715,
      "Marginal Workers worked for 0 - 3 moths during last year - Females": 20970,
      "Households with main source of drinking water within premises in percentage Houselisting and Housing Census Data Tables- District Level , Census of India": 41.01949651,
      "Marginal Workers Household Industry worked for 3 - 6 moths during last year - Persons": 11196,
      "Upper Primary Girl's Enrolment in percentage DISE": 52.6,
      "Prevalence of Severe Anaemia in women aged 15-49years in percentage DLHS-4": "Not available",
      "Marginal Workers Agricultural Labourers worked for 0 - 3 moths during last year - Males": 20170,
      "Households with electricity as main source of lighting  Houselisting and Housing Census Data Tables- District Level , Census of India__3": 70001,
      "Households with computer or laptop with internet connection in percentage": 0.76,
      "PHCs functioning on a 24x7hours basis in percentage DLHS-4": "Not available",
      "Non Workers - Males": 985887,
      "Total Households in District Houselisting and Housing Census Data Tables- District Level , Census of India": 632626,
      "Upper Primary Schools with girls toilet in percentage DISE": 100,
      "Households with mobile phone in percentage": 57.73,
      "Households receiving untreated tap water within premises in percentage Houselisting and Housing Census Data Tables- District Level , Census of India__2": 0.33906289,
      "Marginal Workers Cultivators worked for 3 - 6 moths during last year - Males": 26926,
      "Prevalence of Anaemia  in percentage DLHS-4": "Not available",
      "Prevalence of Chronic illness in percentage DLHS-4": "Not available",
      "Households with solar energy as main source of lighting in percentage Houselisting and Housing Census Data Tables- District Level , Census of India__1": 0.41572746,
      "Marginal Workers Agricultural Labourers worked for 0 - 3 moths during last year - Females": 12847,
      "Main Workers - Males": 622933,
      "Female": 56.73,
      "Sno": 293,
      "Marginal Workers Other worked for 3 - 6 moths during last year - Females": 16449,
      "Marginal Workers Cultivators worked for 0 - 3 moths during last year - Females": 4221,
      "Scheduled Tribe Males": 1232,
      "Male Illiterates": 691959,
      "Prevalence of Severe Anaemia in pregnant women aged 15-49years in percentage DLHS-4": "Not available",
      "0-6 Age Group Persons": 601893,
      "Upper Primary Student-Classroom Ratio in percentage DISE": 79,
      "Currently married men married below 21years of age in percentage DLHS-4": 13.8,
      "Male Literates": 1152576,
      "Households with no lighting in percentage Houselisting and Housing Census Data Tables- District Level , Census of India__2": 0.115708175,
      "Primary Drop Out Rate in percentage DISE": "Not available",
      "Marginal Workers Household Industry - Males": 7510,
      "Female Illiterates": 876322,
      "Main Workers Other - Females": 25964,
      "Marginal Workers Cultivators - Persons": 48424,
      "Upper Primary Gross Enrolment Ratio in percentage DISE": 79.3,
      "Scheduled Caste Persons": 738031,
      "Marginal Workers Cultivators worked for 3 - 6 moths during last year - Persons": 39741,
      "Households with landline phone in percentage": 2.41,
      "Total Households in District  Houselisting and Housing Census Data Tables- District Level , Census of India": 632626,
      "Upper Primary Pupil-Teacher Ratio in percentage DISE": 49,
      "Primary Student-Classroom Ratio in percentage DISE": 47,
      "Primary Schools with boys toilet in percentage DISE": 75.1,
      "Mean number of children ever born to women aged 40-49years  DLHS-4": "Not available",
      "Households receiving untreated tap water within premises  Houselisting and Housing Census Data Tables- District Level , Census of India__5": 2145,
      "Marginal Workers Household Industry worked for 0 - 3 moths during last year - Persons": 3105,
      "Total Male Population": 1844535,
      "Non Workers - Females": 1448790,
      "Current use of family planning methods in percentage DLHS-4": 56.1,
      "Households with main source of drinking water within premises  Houselisting and Housing Census Data Tables- District Level , Census of India__3": 259500,
      "Main Workers Agricultural Labourers - Males": 243893,
      "Marginal Workers Other worked for 0 - 3 moths during last year - Persons": 8323,
      "Currently married women married below 18years of age in percentage DLHS-4": 8.7,
      "Person Illiterates": 1568281,
      "Main Workers Household Industry - Females": 6927,
      "Female Literates": 774164,
      "Marginal Workers Cultivators worked for 0 - 3 moths during last year - Males": 4462,
      "Male": 75.41,
      "Households with improved source of drinking water in percentage DLHS-4": "Not available",
      "Upper Primary Schools with electricity in percentage DISE": 0,
      "Households with electricity in percentage DLHS-4": "Not available",
      "Villages with Primary Health Centre within 10km in percentage DLHS-4": "Not available",
      "Births to women aged 15-19years out of Total births in percentage DLHS-4": "Not available",
      "Prevalence of Anaemia in women aged 15-49years in percentage DLHS-4": "Not available",
      "Marginal Workers Agricultural Labourers worked for 3 - 6 moths during last year - Persons": 183986,
      "Main Workers Household Industry - Males": 15730,
      "Scheduled Tribe Females": 1042,
      "Marginal Workers worked for 0 - 3 moths during last year - Males": 32158,
      "Marginal Workers Other worked for 3 - 6 moths during last year - Males": 39838,
      "Primary Net Enrolment Ratio in percentage DISE": 90.1,
      "Total": 66.6,
      "Mean age at marriage for boys DLHS-4": 23.5,
      "Number of District Hospitals  DLHS-4": "Not available",
      "0-6 Age Group Females": 285764,
      "Marginal Workers Agricultural Labourers worked for 0 - 3 moths during last year - Persons": 33017,
      "Marginal Workers Household Industry worked for 0 - 3 moths during last year - Males": 1435,
      "Total Workers  Females": 201696,
      "Marginal Workers worked for 3 - 6 moths during last year - Females": 87653,
      "Institutional Deliveries in percentage DLHS-4": 65.1,
      "Marginal Workers Other - Males": 45929,
      "Total Workers  Males": 858648,
      "Main Workers - Females": 93073,
      "Primary Gross Enrolment Ratio in percentage DISE": 94.6,
      "Main Workers Cultivators - Persons": 206593,
      "Marginal Workers Household Industry worked for 0 - 3 moths during last year - Females": 1670,
      "Upper Primary Net Enrolment Ratio in percentage DISE": 74.3,
      "Primary New Government Schools since 2003 in percentage DISE": 42,
      "Tier": "Total",
      "Marginal Workers Household Industry - Females": 6791,
      "Primary Schools with electricity in percentage DISE": 3.9,
      "Main Workers Other - Persons": 201122,
      "Marginal Workers Household Industry worked for 3 - 6 moths during last year - Females": 5121,
      "Main Workers Cultivators - Males": 188152,
      "Main Workers Household Industry - Persons": 22657,
      "Marginal Workers Cultivators worked for 0 - 3 moths during last year - Persons": 8683,
      "Scheduled Caste Males": 387827,
      "Marginal Workers - Persons": 344338,
      "Deliveries at home conducted by skilled health personnel in percentage DLHS-4": 26,
      "Villages with Sub-Health Centres within 3km in percentage DLHS-4": "Not available",
      "Upper Primary New Government Schools since 2003 in percentage DISE": 0,
      "0-6 Age Group Males": 316129,
      "Primary Schools with drinking water facility in percentage DISE": 80.5,
      "Non Workers - Persons": 2434677,
      "Person Literates": 1926740,
      "State": "BIHAR",
      "Total Female Population": 1650486,
      "Marginal Workers worked for 0 - 3 moths during last year - Persons": 53128,
      "Marginal Workers Cultivators - Females": 17036,
      "Marginal Workers Other - Persons": 64610,
      "Sex Ratio": 895,
      "Scheduled Tribe Persons": 2274,
      "Marginal Workers Household Industry worked for 3 - 6 moths during last year - Males": 6075,
      "Marginal Workers Agricultural Labourers - Females": 66115,
      "Mean age at marriage for girls DLHS-4": 20.5,
      "Households with solar energy as main source of lighting  Houselisting and Housing Census Data Tables- District Level , Census of India__4": 2630,
      "District": "VAISHALI",
      "Households receiving treated tap water within premises in percentage Houselisting and Housing Census Data Tables- District Level , Census of India__1": 0.998062046,
      "Total Workers  Persons": 1060344,
      "Households receiving treated tap water within premises  Houselisting and Housing Census Data Tables- District Level , Census of India__4": 6314,
      "Primary Female Teachers in percentage DISE": 45.3,
      "Number of Households": 626087,
      "Main Workers Agricultural Labourers - Persons": 285634
    }
  ],
  "Rural": [
    {
      "Marginal Workers Agricultural Labourers - Persons": 213366,
      "Marginal Workers Other - Females": 17423,
      "Marginal Workers Other worked for 0 - 3 moths during last year - Females": 2142,
      "Upper Primary Schools with boys toilet in percentage DISE": "NA",
      "Total Population": 3261942,
      "Households with electricity as main source of lighting in percentage Houselisting and Housing Census Data Tables- District Level , Census of India": 8.542168978,
      "Primary Girl's Enrolment in percentage DISE": "NA",
      "Marginal Workers worked for 3 - 6 moths during last year - Males": 196561,
      "Prevalence of Acute illness in percentage DLHS-4": "Not available",
      "Main Workers - Persons": 663313,
      "Main Workers Cultivators - Females": 18208,
      "Marginal Workers Agricultural Labourers worked for 3 - 6 moths during last year - Females": 52427,
      "Marginal Workers Other worked for 0 - 3 moths during last year - Males": 5444,
      "Upper Primary Schools with drinking water facility in percentage DISE": "NA",
      "Primary Schools with girls toilet in percentage DISE": "NA",
      "Marginal Workers worked for 3 - 6 moths during last year - Persons": 281779,
      "Upper Primary Drop Out Rate in percentage DISE": "NA",
      "Prevalence of Anaemia in pregnant women aged 15-49years in percentage DLHS-4": "Not available",
      "Current use of any modern method of family planning in percentage DLHS-4": 49.4,
      "Marginal Workers Agricultural Labourers - Males": 148361,
      "Upper Primary Female Teachers in percentage DISE": "NA",
      "Marginal Workers - Females": 105786,
      "Marginal Workers Other worked for 3 - 6 moths during last year - Persons": 51074,
      "Main Workers Agricultural Labourers - Females": 41099,
      "Marginal Workers Cultivators worked for 3 - 6 moths during last year - Females": 12591,
      "Households with no lighting  Houselisting and Housing Census Data Tables- District Level , Census of India__5": 493,
      "Prevalence of Severe Anaemia  in percentage DLHS-4": "Not available",
      "Total unmet need for family planning in percentage DLHS-4": 35.1,
      "Main Workers Other - Males": 140664,
      "Children who received full vaccination in percentage DLHS-4": "Not available",
      "Marginal Workers Household Industry - Persons": 13687,
      "Primary Pupil-Teacher Ratio in percentage DISE": "NA",
      "Marginal Workers Agricultural Labourers worked for 3 - 6 moths during last year - Males": 128471,
      "Scheduled Caste Females": 331159,
      "Marginal Workers Cultivators - Males": 30987,
      "Marginal Workers - Males": 227715,
      "Marginal Workers worked for 0 - 3 moths during last year - Females": 20568,
      "Households with main source of drinking water within premises in percentage Houselisting and Housing Census Data Tables- District Level , Census of India": 40.01797821,
      "Marginal Workers Household Industry worked for 3 - 6 moths during last year - Persons": 10659,
      "Upper Primary Girl's Enrolment in percentage DISE": "NA",
      "Prevalence of Severe Anaemia in women aged 15-49years in percentage DLHS-4": "Not available",
      "Marginal Workers Agricultural Labourers worked for 0 - 3 moths during last year - Males": 19890,
      "Households with electricity as main source of lighting  Houselisting and Housing Census Data Tables- District Level , Census of India__3": 50840,
      "Households with computer or laptop with internet connection in percentage": 0.65,
      "PHCs functioning on a 24x7hours basis in percentage DLHS-4": "Not applicable",
      "Non Workers - Males": 918202,
      "Total Households in District Houselisting and Housing Census Data Tables- District Level , Census of India": 595165,
      "Upper Primary Schools with girls toilet in percentage DISE": "NA",
      "Households with mobile phone in percentage": 57.36,
      "Households receiving untreated tap water within premises in percentage Houselisting and Housing Census Data Tables- District Level , Census of India__2": 0.25740761,
      "Marginal Workers Cultivators worked for 3 - 6 moths during last year - Males": 26557,
      "Prevalence of Anaemia  in percentage DLHS-4": "Not available",
      "Prevalence of Chronic illness in percentage DLHS-4": "Not available",
      "Households with solar energy as main source of lighting in percentage Houselisting and Housing Census Data Tables- District Level , Census of India__1": 0.42206783,
      "Marginal Workers Agricultural Labourers worked for 0 - 3 moths during last year - Females": 12578,
      "Main Workers - Males": 575304,
      "Female": "NA",
      "Sno": 292,
      "Marginal Workers Other worked for 3 - 6 moths during last year - Females": 15281,
      "Marginal Workers Cultivators worked for 0 - 3 moths during last year - Females": 4210,
      "Scheduled Tribe Males": 1113,
      "Male Illiterates": 652718,
      "Prevalence of Severe Anaemia in pregnant women aged 15-49years in percentage DLHS-4": "Not available",
      "0-6 Age Group Persons": 566520,
      "Upper Primary Student-Classroom Ratio in percentage DISE": "NA",
      "Currently married men married below 21years of age in percentage DLHS-4": 13.8,
      "Male Literates": 1068503,
      "Households with no lighting in percentage Houselisting and Housing Census Data Tables- District Level , Census of India__2": 0.0828,
      "Primary Drop Out Rate in percentage DISE": "NA",
      "Marginal Workers Household Industry - Males": 7130,
      "Female Illiterates": 829237,
      "Main Workers Other - Females": 22233,
      "Marginal Workers Cultivators - Persons": 47788,
      "Upper Primary Gross Enrolment Ratio in percentage DISE": "NA",
      "Scheduled Caste Persons": 697630,
      "Marginal Workers Cultivators worked for 3 - 6 moths during last year - Persons": 39148,
      "Households with landline phone in percentage": 2.38,
      "Total Households in District  Houselisting and Housing Census Data Tables- District Level , Census of India": 595165,
      "Upper Primary Pupil-Teacher Ratio in percentage DISE": "NA",
      "Primary Student-Classroom Ratio in percentage DISE": "NA",
      "Primary Schools with boys toilet in percentage DISE": "NA",
      "Mean number of children ever born to women aged 40-49years  DLHS-4": "Not available",
      "Households receiving untreated tap water within premises  Houselisting and Housing Census Data Tables- District Level , Census of India__5": 1532,
      "Marginal Workers Household Industry worked for 0 - 3 moths during last year - Persons": 3028,
      "Total Male Population": 1721221,
      "Non Workers - Females": 1346926,
      "Current use of family planning methods in percentage DLHS-4": 55.6,
      "Households with main source of drinking water within premises  Houselisting and Housing Census Data Tables- District Level , Census of India__3": 238173,
      "Main Workers Agricultural Labourers - Males": 236351,
      "Marginal Workers Other worked for 0 - 3 moths during last year - Persons": 7586,
      "Currently married women married below 18years of age in percentage DLHS-4": 9.1,
      "Person Illiterates": 1481955,
      "Main Workers Household Industry - Females": 6469,
      "Female Literates": 711484,
      "Marginal Workers Cultivators worked for 0 - 3 moths during last year - Males": 4430,
      "Male": "NA",
      "Households with improved source of drinking water in percentage DLHS-4": "Not available",
      "Upper Primary Schools with electricity in percentage DISE": "NA",
      "Households with electricity in percentage DLHS-4": "Not available",
      "Villages with Primary Health Centre within 10km in percentage DLHS-4": "Not applicable",
      "Births to women aged 15-19years out of Total births in percentage DLHS-4": "Not available",
      "Prevalence of Anaemia in women aged 15-49years in percentage DLHS-4": "Not available",
      "Marginal Workers Agricultural Labourers worked for 3 - 6 moths during last year - Persons": 180898,
      "Main Workers Household Industry - Males": 13897,
      "Scheduled Tribe Females": 955,
      "Marginal Workers worked for 0 - 3 moths during last year - Males": 31154,
      "Marginal Workers Other worked for 3 - 6 moths during last year - Males": 35793,
      "Primary Net Enrolment Ratio in percentage DISE": "NA",
      "Total": "NA",
      "Mean age at marriage for boys DLHS-4": 23.4,
      "Number of District Hospitals  DLHS-4": "Not applicable",
      "0-6 Age Group Females": 269017,
      "Marginal Workers Agricultural Labourers worked for 0 - 3 moths during last year - Persons": 32468,
      "Marginal Workers Household Industry worked for 0 - 3 moths during last year - Males": 1390,
      "Total Workers  Females": 193795,
      "Marginal Workers worked for 3 - 6 moths during last year - Females": 85218,
      "Institutional Deliveries in percentage DLHS-4": 64.6,
      "Marginal Workers Other - Males": 41237,
      "Total Workers  Males": 803019,
      "Main Workers - Females": 88009,
      "Primary Gross Enrolment Ratio in percentage DISE": "NA",
      "Main Workers Cultivators - Persons": 202600,
      "Marginal Workers Household Industry worked for 0 - 3 moths during last year - Females": 1638,
      "Upper Primary Net Enrolment Ratio in percentage DISE": "NA",
      "Primary New Government Schools since 2003 in percentage DISE": "NA",
      "Tier": "Rural",
      "Marginal Workers Household Industry - Females": 6557,
      "Primary Schools with electricity in percentage DISE": "NA",
      "Main Workers Other - Persons": 162897,
      "Marginal Workers Household Industry worked for 3 - 6 moths during last year - Females": 4919,
      "Main Workers Cultivators - Males": 184392,
      "Main Workers Household Industry - Persons": 20366,
      "Marginal Workers Cultivators worked for 0 - 3 moths during last year - Persons": 8640,
      "Scheduled Caste Males": 366471,
      "Marginal Workers - Persons": 333501,
      "Deliveries at home conducted by skilled health personnel in percentage DLHS-4": 26.1,
      "Villages with Sub-Health Centres within 3km in percentage DLHS-4": "Not applicable",
      "Upper Primary New Government Schools since 2003 in percentage DISE": "NA",
      "0-6 Age Group Males": 297503,
      "Primary Schools with drinking water facility in percentage DISE": "NA",
      "Non Workers - Persons": 2265128,
      "Person Literates": 1779987,
      "State": "BIHAR",
      "Total Female Population": 1540721,
      "Marginal Workers worked for 0 - 3 moths during last year - Persons": 51722,
      "Marginal Workers Cultivators - Females": 16801,
      "Marginal Workers Other - Persons": 58660,
      "Sex Ratio": 895,
      "Scheduled Tribe Persons": 2068,
      "Marginal Workers Household Industry worked for 3 - 6 moths during last year - Males": 5740,
      "Marginal Workers Agricultural Labourers - Females": 65005,
      "Mean age at marriage for girls DLHS-4": 20.4,
      "Households with solar energy as main source of lighting  Houselisting and Housing Census Data Tables- District Level , Census of India__4": 2512,
      "District": "VAISHALI",
      "Households receiving treated tap water within premises in percentage Houselisting and Housing Census Data Tables- District Level , Census of India__1": 0.658976922,
      "Total Workers  Persons": 996814,
      "Households receiving treated tap water within premises  Houselisting and Housing Census Data Tables- District Level , Census of India__4": 3922,
      "Primary Female Teachers in percentage DISE": "NA",
      "Number of Households": 587807,
      "Main Workers Agricultural Labourers - Persons": 277450
    }
  ],
  "Urban": [
    {
      "Marginal Workers Agricultural Labourers - Persons": 3637,
      "Marginal Workers Other - Females": 1258,
      "Marginal Workers Other worked for 0 - 3 moths during last year - Females": 90,
      "Upper Primary Schools with boys toilet in percentage DISE": "NA",
      "Total Population": 233079,
      "Households with electricity as main source of lighting in percentage Houselisting and Housing Census Data Tables- District Level , Census of India": 51.14919516,
      "Primary Girl's Enrolment in percentage DISE": "NA",
      "Marginal Workers worked for 3 - 6 moths during last year - Males": 6996,
      "Prevalence of Acute illness in percentage DLHS-4": "Not available",
      "Main Workers - Persons": 52693,
      "Main Workers Cultivators - Females": 233,
      "Marginal Workers Agricultural Labourers worked for 3 - 6 moths during last year - Females": 841,
      "Marginal Workers Other worked for 0 - 3 moths during last year - Males": 647,
      "Upper Primary Schools with drinking water facility in percentage DISE": "NA",
      "Primary Schools with girls toilet in percentage DISE": "NA",
      "Marginal Workers worked for 3 - 6 moths during last year - Persons": 9431,
      "Upper Primary Drop Out Rate in percentage DISE": "NA",
      "Prevalence of Anaemia in pregnant women aged 15-49years in percentage DLHS-4": "Not available",
      "Current use of any modern method of family planning in percentage DLHS-4": 57.7,
      "Marginal Workers Agricultural Labourers - Males": 2527,
      "Upper Primary Female Teachers in percentage DISE": "NA",
      "Marginal Workers - Females": 2837,
      "Marginal Workers Other worked for 3 - 6 moths during last year - Persons": 5213,
      "Main Workers Agricultural Labourers - Females": 642,
      "Marginal Workers Cultivators worked for 3 - 6 moths during last year - Females": 224,
      "Households with no lighting  Houselisting and Housing Census Data Tables- District Level , Census of India__5": 239,
      "Prevalence of Severe Anaemia  in percentage DLHS-4": "Not available",
      "Total unmet need for family planning in percentage DLHS-4": 29.5,
      "Main Workers Other - Males": 34494,
      "Children who received full vaccination in percentage DLHS-4": "Not available",
      "Marginal Workers Household Industry - Persons": 614,
      "Primary Pupil-Teacher Ratio in percentage DISE": "NA",
      "Marginal Workers Agricultural Labourers worked for 3 - 6 moths during last year - Males": 2247,
      "Scheduled Caste Females": 19045,
      "Marginal Workers Cultivators - Males": 401,
      "Marginal Workers - Males": 8000,
      "Marginal Workers worked for 0 - 3 moths during last year - Females": 402,
      "Households with main source of drinking water within premises in percentage Houselisting and Housing Census Data Tables- District Level , Census of India": 56.93120846,
      "Marginal Workers Household Industry worked for 3 - 6 moths during last year - Persons": 537,
      "Upper Primary Girl's Enrolment in percentage DISE": "NA",
      "Prevalence of Severe Anaemia in women aged 15-49years in percentage DLHS-4": "Not available",
      "Marginal Workers Agricultural Labourers worked for 0 - 3 moths during last year - Males": 280,
      "Households with electricity as main source of lighting  Houselisting and Housing Census Data Tables- District Level , Census of India__3": 19161,
      "Households with computer or laptop with internet connection in percentage": 2.55,
      "PHCs functioning on a 24x7hours basis in percentage DLHS-4": 0,
      "Non Workers - Males": 67685,
      "Total Households in District Houselisting and Housing Census Data Tables- District Level , Census of India": 37461,
      "Upper Primary Schools with girls toilet in percentage DISE": "NA",
      "Households with mobile phone in percentage": 63.54,
      "Households receiving untreated tap water within premises in percentage Houselisting and Housing Census Data Tables- District Level , Census of India__2": 1.63636849,
      "Marginal Workers Cultivators worked for 3 - 6 moths during last year - Males": 369,
      "Prevalence of Anaemia  in percentage DLHS-4": "Not available",
      "Prevalence of Chronic illness in percentage DLHS-4": "Not available",
      "Households with solar energy as main source of lighting in percentage Houselisting and Housing Census Data Tables- District Level , Census of India__1": 0.314994261,
      "Marginal Workers Agricultural Labourers worked for 0 - 3 moths during last year - Females": 269,
      "Main Workers - Males": 47629,
      "Female": "NA",
      "Sno": 294,
      "Marginal Workers Other worked for 3 - 6 moths during last year - Females": 1168,
      "Marginal Workers Cultivators worked for 0 - 3 moths during last year - Females": 11,
      "Scheduled Tribe Males": 119,
      "Male Illiterates": 39241,
      "Prevalence of Severe Anaemia in pregnant women aged 15-49years in percentage DLHS-4": "Not available",
      "0-6 Age Group Persons": 35373,
      "Upper Primary Student-Classroom Ratio in percentage DISE": "NA",
      "Currently married men married below 21years of age in percentage DLHS-4": 14.3,
      "Male Literates": 84073,
      "Households with no lighting in percentage Houselisting and Housing Census Data Tables- District Level , Census of India__2": 0.63799685,
      "Primary Drop Out Rate in percentage DISE": "NA",
      "Marginal Workers Household Industry - Males": 380,
      "Female Illiterates": 47085,
      "Main Workers Other - Females": 3731,
      "Marginal Workers Cultivators - Persons": 636,
      "Upper Primary Gross Enrolment Ratio in percentage DISE": "NA",
      "Scheduled Caste Persons": 40401,
      "Marginal Workers Cultivators worked for 3 - 6 moths during last year - Persons": 593,
      "Households with landline phone in percentage": 2.95,
      "Total Households in District  Houselisting and Housing Census Data Tables- District Level , Census of India": 37461,
      "Upper Primary Pupil-Teacher Ratio in percentage DISE": "NA",
      "Primary Student-Classroom Ratio in percentage DISE": "NA",
      "Primary Schools with boys toilet in percentage DISE": "NA",
      "Mean number of children ever born to women aged 40-49years  DLHS-4": "Not available",
      "Households receiving untreated tap water within premises  Houselisting and Housing Census Data Tables- District Level , Census of India__5": 613,
      "Marginal Workers Household Industry worked for 0 - 3 moths during last year - Persons": 77,
      "Total Male Population": 123314,
      "Non Workers - Females": 101864,
      "Current use of family planning methods in percentage DLHS-4": 63.4,
      "Households with main source of drinking water within premises  Houselisting and Housing Census Data Tables- District Level , Census of India__3": 21327,
      "Main Workers Agricultural Labourers - Males": 7542,
      "Marginal Workers Other worked for 0 - 3 moths during last year - Persons": 737,
      "Currently married women married below 18years of age in percentage DLHS-4": 2.4,
      "Person Illiterates": 86326,
      "Main Workers Household Industry - Females": 458,
      "Female Literates": 62680,
      "Marginal Workers Cultivators worked for 0 - 3 moths during last year - Males": 32,
      "Male": "NA",
      "Households with improved source of drinking water in percentage DLHS-4": "Not available",
      "Upper Primary Schools with electricity in percentage DISE": "NA",
      "Households with electricity in percentage DLHS-4": "Not available",
      "Villages with Primary Health Centre within 10km in percentage DLHS-4": 0,
      "Births to women aged 15-19years out of Total births in percentage DLHS-4": "Not available",
      "Prevalence of Anaemia in women aged 15-49years in percentage DLHS-4": "Not available",
      "Marginal Workers Agricultural Labourers worked for 3 - 6 moths during last year - Persons": 3088,
      "Main Workers Household Industry - Males": 1833,
      "Scheduled Tribe Females": 87,
      "Marginal Workers worked for 0 - 3 moths during last year - Males": 1004,
      "Marginal Workers Other worked for 3 - 6 moths during last year - Males": 4045,
      "Primary Net Enrolment Ratio in percentage DISE": "NA",
      "Total": "NA",
      "Mean age at marriage for boys DLHS-4": 25.7,
      "Number of District Hospitals  DLHS-4": 0,
      "0-6 Age Group Females": 16747,
      "Marginal Workers Agricultural Labourers worked for 0 - 3 moths during last year - Persons": 549,
      "Marginal Workers Household Industry worked for 0 - 3 moths during last year - Males": 45,
      "Total Workers  Females": 7901,
      "Marginal Workers worked for 3 - 6 moths during last year - Females": 2435,
      "Institutional Deliveries in percentage DLHS-4": 76,
      "Marginal Workers Other - Males": 4692,
      "Total Workers  Males": 55629,
      "Main Workers - Females": 5064,
      "Primary Gross Enrolment Ratio in percentage DISE": "NA",
      "Main Workers Cultivators - Persons": 3993,
      "Marginal Workers Household Industry worked for 0 - 3 moths during last year - Females": 32,
      "Upper Primary Net Enrolment Ratio in percentage DISE": "NA",
      "Primary New Government Schools since 2003 in percentage DISE": "NA",
      "Tier": "Urban",
      "Marginal Workers Household Industry - Females": 234,
      "Primary Schools with electricity in percentage DISE": "NA",
      "Main Workers Other - Persons": 38225,
      "Marginal Workers Household Industry worked for 3 - 6 moths during last year - Females": 202,
      "Main Workers Cultivators - Males": 3760,
      "Main Workers Household Industry - Persons": 2291,
      "Marginal Workers Cultivators worked for 0 - 3 moths during last year - Persons": 43,
      "Scheduled Caste Males": 21356,
      "Marginal Workers - Persons": 10837,
      "Deliveries at home conducted by skilled health personnel in percentage DLHS-4": 18.8,
      "Villages with Sub-Health Centres within 3km in percentage DLHS-4": 0,
      "Upper Primary New Government Schools since 2003 in percentage DISE": "NA",
      "0-6 Age Group Males": 18626,
      "Primary Schools with drinking water facility in percentage DISE": "NA",
      "Non Workers - Persons": 169549,
      "Person Literates": 146753,
      "State": "BIHAR",
      "Total Female Population": 109765,
      "Marginal Workers worked for 0 - 3 moths during last year - Persons": 1406,
      "Marginal Workers Cultivators - Females": 235,
      "Marginal Workers Other - Persons": 5950,
      "Sex Ratio": 890,
      "Scheduled Tribe Persons": 206,
      "Marginal Workers Household Industry worked for 3 - 6 moths during last year - Males": 335,
      "Marginal Workers Agricultural Labourers - Females": 1110,
      "Mean age at marriage for girls DLHS-4": 22.2,
      "Households with solar energy as main source of lighting  Houselisting and Housing Census Data Tables- District Level , Census of India__4": 118,
      "District": "VAISHALI",
      "Households receiving treated tap water within premises in percentage Houselisting and Housing Census Data Tables- District Level , Census of India__1": 6.385307386,
      "Total Workers  Persons": 63530,
      "Households receiving treated tap water within premises  Houselisting and Housing Census Data Tables- District Level , Census of India__4": 2392,
      "Primary Female Teachers in percentage DISE": "NA",
      "Number of Households": 38280,
      "Main Workers Agricultural Labourers - Persons": 8184
    }
  ]
}