{
  "Total": [
    {
      "Marginal Workers Agricultural Labourers - Persons": 5533,
      "Marginal Workers Other - Females": 2234,
      "Marginal Workers Other worked for 0 - 3 moths during last year - Females": 530,
      "Upper Primary Schools with boys toilet in percentage DISE": 100,
      "Total Population": 144182,
      "Households with electricity as main source of lighting in percentage Houselisting and Housing Census Data Tables- District Level , Census of India": 64.48774788,
      "Primary Girl's Enrolment in percentage DISE": 50.3,
      "Marginal Workers worked for 3 - 6 moths during last year - Males": 6229,
      "Prevalence of Acute illness in percentage DLHS-4": 19.8,
      "Main Workers - Persons": 53753,
      "Main Workers Cultivators - Females": 13993,
      "Marginal Workers Agricultural Labourers worked for 3 - 6 moths during last year - Females": 2299,
      "Marginal Workers Other worked for 0 - 3 moths during last year - Males": 430,
      "Upper Primary Schools with drinking water facility in percentage DISE": 100,
      "Primary Schools with girls toilet in percentage DISE": 100,
      "Marginal Workers worked for 3 - 6 moths during last year - Persons": 15845,
      "Upper Primary Drop Out Rate in percentage DISE": 7.84,
      "Prevalence of Anaemia in pregnant women aged 15-49years in percentage DLHS-4": 64.2,
      "Current use of any modern method of family planning in percentage DLHS-4": 5.4,
      "Marginal Workers Agricultural Labourers - Males": 1884,
      "Upper Primary Female Teachers in percentage DISE": 47.5,
      "Marginal Workers - Females": 13732,
      "Marginal Workers Other worked for 3 - 6 moths during last year - Persons": 3051,
      "Main Workers Agricultural Labourers - Females": 1452,
      "Marginal Workers Cultivators worked for 3 - 6 moths during last year - Females": 4497,
      "Households with no lighting  Houselisting and Housing Census Data Tables- District Level , Census of India__5": 291,
      "Prevalence of Severe Anaemia  in percentage DLHS-4": 5.4,
      "Total unmet need for family planning in percentage DLHS-4": 66,
      "Main Workers Other - Males": 13854,
      "Children who received full vaccination in percentage DLHS-4": 52.3,
      "Marginal Workers Household Industry - Persons": 1910,
      "Primary Pupil-Teacher Ratio in percentage DISE": 11,
      "Marginal Workers Agricultural Labourers worked for 3 - 6 moths during last year - Males": 1155,
      "Scheduled Caste Females": 219,
      "Marginal Workers Cultivators - Males": 4729,
      "Marginal Workers - Males": 8753,
      "Marginal Workers worked for 0 - 3 moths during last year - Females": 4116,
      "Households with main source of drinking water within premises in percentage Houselisting and Housing Census Data Tables- District Level , Census of India": 9.214008317,
      "Marginal Workers Household Industry worked for 3 - 6 moths during last year - Persons": 1369,
      "Upper Primary Girl's Enrolment in percentage DISE": 83.1,
      "Prevalence of Severe Anaemia in women aged 15-49years in percentage DLHS-4": 0.7,
      "Marginal Workers Agricultural Labourers worked for 0 - 3 moths during last year - Males": 729,
      "Households with electricity as main source of lighting  Houselisting and Housing Census Data Tables- District Level , Census of India__3": 18764,
      "Households with computer or laptop with internet connection in percentage": 0.63,
      "PHCs functioning on a 24x7hours basis in percentage DLHS-4": 40,
      "Non Workers - Males": 31964,
      "Total Households in District Houselisting and Housing Census Data Tables- District Level , Census of India": 29097,
      "Upper Primary Schools with girls toilet in percentage DISE": 100,
      "Households with mobile phone in percentage": 38.51,
      "Households receiving untreated tap water within premises in percentage Houselisting and Housing Census Data Tables- District Level , Census of India__2": 2.220160154,
      "Marginal Workers Cultivators worked for 3 - 6 moths during last year - Males": 3474,
      "Prevalence of Anaemia  in percentage DLHS-4": 64.9,
      "Prevalence of Chronic illness in percentage DLHS-4": 10.4,
      "Households with solar energy as main source of lighting in percentage Houselisting and Housing Census Data Tables- District Level , Census of India__1": 1.237240953,
      "Marginal Workers Agricultural Labourers worked for 0 - 3 moths during last year - Females": 1350,
      "Main Workers - Males": 33862,
      "Female": 63.96,
      "Sno": 1160,
      "Marginal Workers Other worked for 3 - 6 moths during last year - Females": 1704,
      "Marginal Workers Cultivators worked for 0 - 3 moths during last year - Females": 1805,
      "Scheduled Tribe Males": 63622,
      "Male Illiterates": 23526,
      "Prevalence of Severe Anaemia in pregnant women aged 15-49years in percentage DLHS-4": 1.6,
      "0-6 Age Group Persons": 17187,
      "Upper Primary Student-Classroom Ratio in percentage DISE": 22,
      "Currently married men married below 21years of age in percentage DLHS-4": 11.5,
      "Male Literates": 51053,
      "Households with no lighting in percentage Houselisting and Housing Census Data Tables- District Level , Census of India__2": 1.000103103,
      "Primary Drop Out Rate in percentage DISE": 6.5,
      "Marginal Workers Household Industry - Males": 363,
      "Female Illiterates": 30354,
      "Main Workers Other - Females": 3763,
      "Marginal Workers Cultivators - Persons": 11031,
      "Upper Primary Gross Enrolment Ratio in percentage DISE": 78.1,
      "Scheduled Caste Persons": 540,
      "Marginal Workers Cultivators worked for 3 - 6 moths during last year - Persons": 7971,
      "Households with landline phone in percentage": 2.3,
      "Total Households in District  Houselisting and Housing Census Data Tables- District Level , Census of India": 29097,
      "Upper Primary Pupil-Teacher Ratio in percentage DISE": 11,
      "Primary Student-Classroom Ratio in percentage DISE": 11,
      "Primary Schools with boys toilet in percentage DISE": 100,
      "Mean number of children ever born to women aged 40-49years  DLHS-4": 3.8,
      "Households receiving untreated tap water within premises  Houselisting and Housing Census Data Tables- District Level , Census of India__5": 646,
      "Marginal Workers Household Industry worked for 0 - 3 moths during last year - Persons": 541,
      "Total Male Population": 74579,
      "Non Workers - Females": 35980,
      "Current use of family planning methods in percentage DLHS-4": 8.3,
      "Households with main source of drinking water within premises  Houselisting and Housing Census Data Tables- District Level , Census of India__3": 2681,
      "Main Workers Agricultural Labourers - Males": 1330,
      "Marginal Workers Other worked for 0 - 3 moths during last year - Persons": 960,
      "Currently married women married below 18years of age in percentage DLHS-4": 15.6,
      "Person Illiterates": 53880,
      "Main Workers Household Industry - Females": 683,
      "Female Literates": 39249,
      "Marginal Workers Cultivators worked for 0 - 3 moths during last year - Males": 1255,
      "Male": 77.78,
      "Households with improved source of drinking water in percentage DLHS-4": 54.2,
      "Upper Primary Schools with electricity in percentage DISE": 80,
      "Households with electricity in percentage DLHS-4": 69.3,
      "Villages with Primary Health Centre within 10km in percentage DLHS-4": 46.2,
      "Births to women aged 15-19years out of Total births in percentage DLHS-4": 4.5,
      "Prevalence of Anaemia in women aged 15-49years in percentage DLHS-4": 56.3,
      "Marginal Workers Agricultural Labourers worked for 3 - 6 moths during last year - Persons": 3454,
      "Main Workers Household Industry - Males": 447,
      "Scheduled Tribe Females": 64658,
      "Marginal Workers worked for 0 - 3 moths during last year - Males": 2524,
      "Marginal Workers Other worked for 3 - 6 moths during last year - Males": 1347,
      "Primary Net Enrolment Ratio in percentage DISE": 87.5,
      "Total": 71.11,
      "Mean age at marriage for boys DLHS-4": 25.9,
      "Number of District Hospitals  DLHS-4": 1,
      "0-6 Age Group Females": 8242,
      "Marginal Workers Agricultural Labourers worked for 0 - 3 moths during last year - Persons": 2079,
      "Marginal Workers Household Industry worked for 0 - 3 moths during last year - Males": 110,
      "Total Workers  Females": 33623,
      "Marginal Workers worked for 3 - 6 moths during last year - Females": 9616,
      "Institutional Deliveries in percentage DLHS-4": 36.2,
      "Marginal Workers Other - Males": 1777,
      "Total Workers  Males": 42615,
      "Main Workers - Females": 19891,
      "Primary Gross Enrolment Ratio in percentage DISE": 161.3,
      "Main Workers Cultivators - Persons": 32224,
      "Marginal Workers Household Industry worked for 0 - 3 moths during last year - Females": 431,
      "Upper Primary Net Enrolment Ratio in percentage DISE": 72.1,
      "Primary New Government Schools since 2003 in percentage DISE": 30.2,
      "Tier": "Total",
      "Marginal Workers Household Industry - Females": 1547,
      "Primary Schools with electricity in percentage DISE": 5.7,
      "Main Workers Other - Persons": 17617,
      "Marginal Workers Household Industry worked for 3 - 6 moths during last year - Females": 1116,
      "Main Workers Cultivators - Males": 18231,
      "Main Workers Household Industry - Persons": 1130,
      "Marginal Workers Cultivators worked for 0 - 3 moths during last year - Persons": 3060,
      "Scheduled Caste Males": 321,
      "Marginal Workers - Persons": 22485,
      "Deliveries at home conducted by skilled health personnel in percentage DLHS-4": 14.9,
      "Villages with Sub-Health Centres within 3km in percentage DLHS-4": 57.7,
      "Upper Primary New Government Schools since 2003 in percentage DISE": 100,
      "0-6 Age Group Males": 8945,
      "Primary Schools with drinking water facility in percentage DISE": 95.4,
      "Non Workers - Persons": 67944,
      "Person Literates": 90302,
      "State": "MANIPUR",
      "Total Female Population": 69603,
      "Marginal Workers worked for 0 - 3 moths during last year - Persons": 6640,
      "Marginal Workers Cultivators - Females": 6302,
      "Marginal Workers Other - Persons": 4011,
      "Sex Ratio": 933,
      "Scheduled Tribe Persons": 128280,
      "Marginal Workers Household Industry worked for 3 - 6 moths during last year - Males": 253,
      "Marginal Workers Agricultural Labourers - Females": 3649,
      "Mean age at marriage for girls DLHS-4": 21.3,
      "Households with solar energy as main source of lighting  Houselisting and Housing Census Data Tables- District Level , Census of India__4": 360,
      "District": "CHANDEL",
      "Households receiving treated tap water within premises in percentage Houselisting and Housing Census Data Tables- District Level , Census of India__1": 1.687459188,
      "Total Workers  Persons": 76238,
      "Households receiving treated tap water within premises  Houselisting and Housing Census Data Tables- District Level , Census of India__4": 491,
      "Primary Female Teachers in percentage DISE": 54.9,
      "Number of Households": 28801,
      "Main Workers Agricultural Labourers - Persons": 2782
    }
  ],
  "Rural": [
    {
      "Marginal Workers Agricultural Labourers - Persons": 5435,
      "Marginal Workers Other - Females": 1679,
      "Marginal Workers Other worked for 0 - 3 moths during last year - Females": 433,
      "Upper Primary Schools with boys toilet in percentage DISE": "NA",
      "Total Population": 127335,
      "Households with electricity as main source of lighting in percentage Houselisting and Housing Census Data Tables- District Level , Census of India": 60.52977572,
      "Primary Girl's Enrolment in percentage DISE": "NA",
      "Marginal Workers worked for 3 - 6 moths during last year - Males": 5815,
      "Prevalence of Acute illness in percentage DLHS-4": 19.5,
      "Main Workers - Persons": 48327,
      "Main Workers Cultivators - Females": 13802,
      "Marginal Workers Agricultural Labourers worked for 3 - 6 moths during last year - Females": 2232,
      "Marginal Workers Other worked for 0 - 3 moths during last year - Males": 336,
      "Upper Primary Schools with drinking water facility in percentage DISE": "NA",
      "Primary Schools with girls toilet in percentage DISE": "NA",
      "Marginal Workers worked for 3 - 6 moths during last year - Persons": 14766,
      "Upper Primary Drop Out Rate in percentage DISE": "NA",
      "Prevalence of Anaemia in pregnant women aged 15-49years in percentage DLHS-4": 66,
      "Current use of any modern method of family planning in percentage DLHS-4": 3.8,
      "Marginal Workers Agricultural Labourers - Males": 1858,
      "Upper Primary Female Teachers in percentage DISE": "NA",
      "Marginal Workers - Females": 12903,
      "Marginal Workers Other worked for 3 - 6 moths during last year - Persons": 2264,
      "Main Workers Agricultural Labourers - Females": 1413,
      "Marginal Workers Cultivators worked for 3 - 6 moths during last year - Females": 4469,
      "Households with no lighting  Houselisting and Housing Census Data Tables- District Level , Census of India__5": 288,
      "Prevalence of Severe Anaemia  in percentage DLHS-4": 3.8,
      "Total unmet need for family planning in percentage DLHS-4": 69.7,
      "Main Workers Other - Males": 10480,
      "Children who received full vaccination in percentage DLHS-4": 57.6,
      "Marginal Workers Household Industry - Persons": 1682,
      "Primary Pupil-Teacher Ratio in percentage DISE": "NA",
      "Marginal Workers Agricultural Labourers worked for 3 - 6 moths during last year - Males": 1137,
      "Scheduled Caste Females": 197,
      "Marginal Workers Cultivators - Males": 4699,
      "Marginal Workers - Males": 8219,
      "Marginal Workers worked for 0 - 3 moths during last year - Females": 3952,
      "Households with main source of drinking water within premises in percentage Houselisting and Housing Census Data Tables- District Level , Census of India": 4.439288476,
      "Marginal Workers Household Industry worked for 3 - 6 moths during last year - Persons": 1219,
      "Upper Primary Girl's Enrolment in percentage DISE": "NA",
      "Prevalence of Severe Anaemia in women aged 15-49years in percentage DLHS-4": 0.8,
      "Marginal Workers Agricultural Labourers worked for 0 - 3 moths during last year - Males": 721,
      "Households with electricity as main source of lighting  Houselisting and Housing Census Data Tables- District Level , Census of India__3": 15653,
      "Households with computer or laptop with internet connection in percentage": 0.52,
      "PHCs functioning on a 24x7hours basis in percentage DLHS-4": "Not applicable",
      "Non Workers - Males": 27706,
      "Total Households in District Houselisting and Housing Census Data Tables- District Level , Census of India": 25860,
      "Upper Primary Schools with girls toilet in percentage DISE": "NA",
      "Households with mobile phone in percentage": 39.25,
      "Households receiving untreated tap water within premises in percentage Houselisting and Housing Census Data Tables- District Level , Census of India__2": 2.277648879,
      "Marginal Workers Cultivators worked for 3 - 6 moths during last year - Males": 3445,
      "Prevalence of Anaemia  in percentage DLHS-4": 63,
      "Prevalence of Chronic illness in percentage DLHS-4": 9.3,
      "Households with solar energy as main source of lighting in percentage Houselisting and Housing Census Data Tables- District Level , Census of India__1": 1.384377417,
      "Marginal Workers Agricultural Labourers worked for 0 - 3 moths during last year - Females": 1345,
      "Main Workers - Males": 29984,
      "Female": "NA",
      "Sno": 1159,
      "Marginal Workers Other worked for 3 - 6 moths during last year - Females": 1246,
      "Marginal Workers Cultivators worked for 0 - 3 moths during last year - Females": 1804,
      "Scheduled Tribe Males": 59000,
      "Male Illiterates": 20766,
      "Prevalence of Severe Anaemia in pregnant women aged 15-49years in percentage DLHS-4": 1.9,
      "0-6 Age Group Persons": 14730,
      "Upper Primary Student-Classroom Ratio in percentage DISE": "NA",
      "Currently married men married below 21years of age in percentage DLHS-4": 11,
      "Male Literates": 45143,
      "Households with no lighting in percentage Houselisting and Housing Census Data Tables- District Level , Census of India__2": 1.113689095,
      "Primary Drop Out Rate in percentage DISE": "NA",
      "Marginal Workers Household Industry - Males": 308,
      "Female Illiterates": 26552,
      "Main Workers Other - Females": 2614,
      "Marginal Workers Cultivators - Persons": 10972,
      "Upper Primary Gross Enrolment Ratio in percentage DISE": "NA",
      "Scheduled Caste Persons": 499,
      "Marginal Workers Cultivators worked for 3 - 6 moths during last year - Persons": 7914,
      "Households with landline phone in percentage": 1.56,
      "Total Households in District  Houselisting and Housing Census Data Tables- District Level , Census of India": 25860,
      "Upper Primary Pupil-Teacher Ratio in percentage DISE": "NA",
      "Primary Student-Classroom Ratio in percentage DISE": "NA",
      "Primary Schools with boys toilet in percentage DISE": "NA",
      "Mean number of children ever born to women aged 40-49years  DLHS-4": 3.7,
      "Households receiving untreated tap water within premises  Houselisting and Housing Census Data Tables- District Level , Census of India__5": 589,
      "Marginal Workers Household Industry worked for 0 - 3 moths during last year - Persons": 463,
      "Total Male Population": 65909,
      "Non Workers - Females": 30180,
      "Current use of family planning methods in percentage DLHS-4": 6.1,
      "Households with main source of drinking water within premises  Houselisting and Housing Census Data Tables- District Level , Census of India__3": 1148,
      "Main Workers Agricultural Labourers - Males": 1186,
      "Marginal Workers Other worked for 0 - 3 moths during last year - Persons": 769,
      "Currently married women married below 18years of age in percentage DLHS-4": 18,
      "Person Illiterates": 47318,
      "Main Workers Household Industry - Females": 514,
      "Female Literates": 34874,
      "Marginal Workers Cultivators worked for 0 - 3 moths during last year - Males": 1254,
      "Male": "NA",
      "Households with improved source of drinking water in percentage DLHS-4": 56.1,
      "Upper Primary Schools with electricity in percentage DISE": "NA",
      "Households with electricity in percentage DLHS-4": 63.9,
      "Villages with Primary Health Centre within 10km in percentage DLHS-4": "Not applicable",
      "Births to women aged 15-19years out of Total births in percentage DLHS-4": 4.6,
      "Prevalence of Anaemia in women aged 15-49years in percentage DLHS-4": 55.7,
      "Marginal Workers Agricultural Labourers worked for 3 - 6 moths during last year - Persons": 3369,
      "Main Workers Household Industry - Males": 353,
      "Scheduled Tribe Females": 59805,
      "Marginal Workers worked for 0 - 3 moths during last year - Males": 2404,
      "Marginal Workers Other worked for 3 - 6 moths during last year - Males": 1018,
      "Primary Net Enrolment Ratio in percentage DISE": "NA",
      "Total": "NA",
      "Mean age at marriage for boys DLHS-4": 26.1,
      "Number of District Hospitals  DLHS-4": "Not applicable",
      "0-6 Age Group Females": 7023,
      "Marginal Workers Agricultural Labourers worked for 0 - 3 moths during last year - Persons": 2066,
      "Marginal Workers Household Industry worked for 0 - 3 moths during last year - Males": 93,
      "Total Workers  Females": 31246,
      "Marginal Workers worked for 3 - 6 moths during last year - Females": 8951,
      "Institutional Deliveries in percentage DLHS-4": 37.8,
      "Marginal Workers Other - Males": 1354,
      "Total Workers  Males": 38203,
      "Main Workers - Females": 18343,
      "Primary Gross Enrolment Ratio in percentage DISE": "NA",
      "Main Workers Cultivators - Persons": 31767,
      "Marginal Workers Household Industry worked for 0 - 3 moths during last year - Females": 370,
      "Upper Primary Net Enrolment Ratio in percentage DISE": "NA",
      "Primary New Government Schools since 2003 in percentage DISE": "NA",
      "Tier": "Rural",
      "Marginal Workers Household Industry - Females": 1374,
      "Primary Schools with electricity in percentage DISE": "NA",
      "Main Workers Other - Persons": 13094,
      "Marginal Workers Household Industry worked for 3 - 6 moths during last year - Females": 1004,
      "Main Workers Cultivators - Males": 17965,
      "Main Workers Household Industry - Persons": 867,
      "Marginal Workers Cultivators worked for 0 - 3 moths during last year - Persons": 3058,
      "Scheduled Caste Males": 302,
      "Marginal Workers - Persons": 21122,
      "Deliveries at home conducted by skilled health personnel in percentage DLHS-4": 8.1,
      "Villages with Sub-Health Centres within 3km in percentage DLHS-4": "Not applicable",
      "Upper Primary New Government Schools since 2003 in percentage DISE": "NA",
      "0-6 Age Group Males": 7707,
      "Primary Schools with drinking water facility in percentage DISE": "NA",
      "Non Workers - Persons": 57886,
      "Person Literates": 80017,
      "State": "MANIPUR",
      "Total Female Population": 61426,
      "Marginal Workers worked for 0 - 3 moths during last year - Persons": 6356,
      "Marginal Workers Cultivators - Females": 6273,
      "Marginal Workers Other - Persons": 3033,
      "Sex Ratio": 932,
      "Scheduled Tribe Persons": 118805,
      "Marginal Workers Household Industry worked for 3 - 6 moths during last year - Males": 215,
      "Marginal Workers Agricultural Labourers - Females": 3577,
      "Mean age at marriage for girls DLHS-4": 21.1,
      "Households with solar energy as main source of lighting  Houselisting and Housing Census Data Tables- District Level , Census of India__4": 358,
      "District": "CHANDEL",
      "Households receiving treated tap water within premises in percentage Houselisting and Housing Census Data Tables- District Level , Census of India__1": 1.098221191,
      "Total Workers  Persons": 69449,
      "Households receiving treated tap water within premises  Houselisting and Housing Census Data Tables- District Level , Census of India__4": 284,
      "Primary Female Teachers in percentage DISE": "NA",
      "Number of Households": 25570,
      "Main Workers Agricultural Labourers - Persons": 2599
    }
  ],
  "Urban": [
    {
      "Marginal Workers Agricultural Labourers - Persons": 98,
      "Marginal Workers Other - Females": 555,
      "Marginal Workers Other worked for 0 - 3 moths during last year - Females": 97,
      "Upper Primary Schools with boys toilet in percentage DISE": "NA",
      "Total Population": 16847,
      "Households with electricity as main source of lighting in percentage Houselisting and Housing Census Data Tables- District Level , Census of India": 96.10750695,
      "Primary Girl's Enrolment in percentage DISE": "NA",
      "Marginal Workers worked for 3 - 6 moths during last year - Males": 414,
      "Prevalence of Acute illness in percentage DLHS-4": "Not available",
      "Main Workers - Persons": 5426,
      "Main Workers Cultivators - Females": 191,
      "Marginal Workers Agricultural Labourers worked for 3 - 6 moths during last year - Females": 67,
      "Marginal Workers Other worked for 0 - 3 moths during last year - Males": 94,
      "Upper Primary Schools with drinking water facility in percentage DISE": "NA",
      "Primary Schools with girls toilet in percentage DISE": "NA",
      "Marginal Workers worked for 3 - 6 moths during last year - Persons": 1079,
      "Upper Primary Drop Out Rate in percentage DISE": "NA",
      "Prevalence of Anaemia in pregnant women aged 15-49years in percentage DLHS-4": "Not available",
      "Current use of any modern method of family planning in percentage DLHS-4": "Not available",
      "Marginal Workers Agricultural Labourers - Males": 26,
      "Upper Primary Female Teachers in percentage DISE": "NA",
      "Marginal Workers - Females": 829,
      "Marginal Workers Other worked for 3 - 6 moths during last year - Persons": 787,
      "Main Workers Agricultural Labourers - Females": 39,
      "Marginal Workers Cultivators worked for 3 - 6 moths during last year - Females": 28,
      "Households with no lighting  Houselisting and Housing Census Data Tables- District Level , Census of India__5": 3,
      "Prevalence of Severe Anaemia  in percentage DLHS-4": "Not available",
      "Total unmet need for family planning in percentage DLHS-4": "Not available",
      "Main Workers Other - Males": 3374,
      "Children who received full vaccination in percentage DLHS-4": "Not available",
      "Marginal Workers Household Industry - Persons": 228,
      "Primary Pupil-Teacher Ratio in percentage DISE": "NA",
      "Marginal Workers Agricultural Labourers worked for 3 - 6 moths during last year - Males": 18,
      "Scheduled Caste Females": 22,
      "Marginal Workers Cultivators - Males": 30,
      "Marginal Workers - Males": 534,
      "Marginal Workers worked for 0 - 3 moths during last year - Females": 164,
      "Households with main source of drinking water within premises in percentage Houselisting and Housing Census Data Tables- District Level , Census of India": 47.35866543,
      "Marginal Workers Household Industry worked for 3 - 6 moths during last year - Persons": 150,
      "Upper Primary Girl's Enrolment in percentage DISE": "NA",
      "Prevalence of Severe Anaemia in women aged 15-49years in percentage DLHS-4": "Not available",
      "Marginal Workers Agricultural Labourers worked for 0 - 3 moths during last year - Males": 8,
      "Households with electricity as main source of lighting  Houselisting and Housing Census Data Tables- District Level , Census of India__3": 3111,
      "Households with computer or laptop with internet connection in percentage": 1.54,
      "PHCs functioning on a 24x7hours basis in percentage DLHS-4": 0,
      "Non Workers - Males": 4258,
      "Total Households in District Houselisting and Housing Census Data Tables- District Level , Census of India": 3237,
      "Upper Primary Schools with girls toilet in percentage DISE": "NA",
      "Households with mobile phone in percentage": 32.59,
      "Households receiving untreated tap water within premises in percentage Houselisting and Housing Census Data Tables- District Level , Census of India__2": 1.760889713,
      "Marginal Workers Cultivators worked for 3 - 6 moths during last year - Males": 29,
      "Prevalence of Anaemia  in percentage DLHS-4": "Not available",
      "Prevalence of Chronic illness in percentage DLHS-4": "Not available",
      "Households with solar energy as main source of lighting in percentage Houselisting and Housing Census Data Tables- District Level , Census of India__1": 0.0618,
      "Marginal Workers Agricultural Labourers worked for 0 - 3 moths during last year - Females": 5,
      "Main Workers - Males": 3878,
      "Female": "NA",
      "Sno": 1161,
      "Marginal Workers Other worked for 3 - 6 moths during last year - Females": 458,
      "Marginal Workers Cultivators worked for 0 - 3 moths during last year - Females": 1,
      "Scheduled Tribe Males": 4622,
      "Male Illiterates": 2760,
      "Prevalence of Severe Anaemia in pregnant women aged 15-49years in percentage DLHS-4": "Not available",
      "0-6 Age Group Persons": 2457,
      "Upper Primary Student-Classroom Ratio in percentage DISE": "NA",
      "Currently married men married below 21years of age in percentage DLHS-4": "Not available",
      "Male Literates": 5910,
      "Households with no lighting in percentage Houselisting and Housing Census Data Tables- District Level , Census of India__2": 0.0927,
      "Primary Drop Out Rate in percentage DISE": "NA",
      "Marginal Workers Household Industry - Males": 55,
      "Female Illiterates": 3802,
      "Main Workers Other - Females": 1149,
      "Marginal Workers Cultivators - Persons": 59,
      "Upper Primary Gross Enrolment Ratio in percentage DISE": "NA",
      "Scheduled Caste Persons": 41,
      "Marginal Workers Cultivators worked for 3 - 6 moths during last year - Persons": 57,
      "Households with landline phone in percentage": 8.25,
      "Total Households in District  Houselisting and Housing Census Data Tables- District Level , Census of India": 3237,
      "Upper Primary Pupil-Teacher Ratio in percentage DISE": "NA",
      "Primary Student-Classroom Ratio in percentage DISE": "NA",
      "Primary Schools with boys toilet in percentage DISE": "NA",
      "Mean number of children ever born to women aged 40-49years  DLHS-4": "Not available",
      "Households receiving untreated tap water within premises  Houselisting and Housing Census Data Tables- District Level , Census of India__5": 57,
      "Marginal Workers Household Industry worked for 0 - 3 moths during last year - Persons": 78,
      "Total Male Population": 8670,
      "Non Workers - Females": 5800,
      "Current use of family planning methods in percentage DLHS-4": "Not available",
      "Households with main source of drinking water within premises  Houselisting and Housing Census Data Tables- District Level , Census of India__3": 1533,
      "Main Workers Agricultural Labourers - Males": 144,
      "Marginal Workers Other worked for 0 - 3 moths during last year - Persons": 191,
      "Currently married women married below 18years of age in percentage DLHS-4": "Not available",
      "Person Illiterates": 6562,
      "Main Workers Household Industry - Females": 169,
      "Female Literates": 4375,
      "Marginal Workers Cultivators worked for 0 - 3 moths during last year - Males": 1,
      "Male": "NA",
      "Households with improved source of drinking water in percentage DLHS-4": "Not available",
      "Upper Primary Schools with electricity in percentage DISE": "NA",
      "Households with electricity in percentage DLHS-4": "Not available",
      "Villages with Primary Health Centre within 10km in percentage DLHS-4": 0,
      "Births to women aged 15-19years out of Total births in percentage DLHS-4": "Not available",
      "Prevalence of Anaemia in women aged 15-49years in percentage DLHS-4": "Not available",
      "Marginal Workers Agricultural Labourers worked for 3 - 6 moths during last year - Persons": 85,
      "Main Workers Household Industry - Males": 94,
      "Scheduled Tribe Females": 4853,
      "Marginal Workers worked for 0 - 3 moths during last year - Males": 120,
      "Marginal Workers Other worked for 3 - 6 moths during last year - Males": 329,
      "Primary Net Enrolment Ratio in percentage DISE": "NA",
      "Total": "NA",
      "Mean age at marriage for boys DLHS-4": "Not available",
      "Number of District Hospitals  DLHS-4": 0,
      "0-6 Age Group Females": 1219,
      "Marginal Workers Agricultural Labourers worked for 0 - 3 moths during last year - Persons": 13,
      "Marginal Workers Household Industry worked for 0 - 3 moths during last year - Males": 17,
      "Total Workers  Females": 2377,
      "Marginal Workers worked for 3 - 6 moths during last year - Females": 665,
      "Institutional Deliveries in percentage DLHS-4": "Not available",
      "Marginal Workers Other - Males": 423,
      "Total Workers  Males": 4412,
      "Main Workers - Females": 1548,
      "Primary Gross Enrolment Ratio in percentage DISE": "NA",
      "Main Workers Cultivators - Persons": 457,
      "Marginal Workers Household Industry worked for 0 - 3 moths during last year - Females": 61,
      "Upper Primary Net Enrolment Ratio in percentage DISE": "NA",
      "Primary New Government Schools since 2003 in percentage DISE": "NA",
      "Tier": "Urban",
      "Marginal Workers Household Industry - Females": 173,
      "Primary Schools with electricity in percentage DISE": "NA",
      "Main Workers Other - Persons": 4523,
      "Marginal Workers Household Industry worked for 3 - 6 moths during last year - Females": 112,
      "Main Workers Cultivators - Males": 266,
      "Main Workers Household Industry - Persons": 263,
      "Marginal Workers Cultivators worked for 0 - 3 moths during last year - Persons": 2,
      "Scheduled Caste Males": 19,
      "Marginal Workers - Persons": 1363,
      "Deliveries at home conducted by skilled health personnel in percentage DLHS-4": "Not available",
      "Villages with Sub-Health Centres within 3km in percentage DLHS-4": 0,
      "Upper Primary New Government Schools since 2003 in percentage DISE": "NA",
      "0-6 Age Group Males": 1238,
      "Primary Schools with drinking water facility in percentage DISE": "NA",
      "Non Workers - Persons": 10058,
      "Person Literates": 10285,
      "State": "MANIPUR",
      "Total Female Population": 8177,
      "Marginal Workers worked for 0 - 3 moths during last year - Persons": 284,
      "Marginal Workers Cultivators - Females": 29,
      "Marginal Workers Other - Persons": 978,
      "Sex Ratio": 943,
      "Scheduled Tribe Persons": 9475,
      "Marginal Workers Household Industry worked for 3 - 6 moths during last year - Males": 38,
      "Marginal Workers Agricultural Labourers - Females": 72,
      "Mean age at marriage for girls DLHS-4": "Not available",
      "Households with solar energy as main source of lighting  Houselisting and Housing Census Data Tables- District Level , Census of India__4": 2,
      "District": "CHANDEL",
      "Households receiving treated tap water within premises in percentage Houselisting and Housing Census Data Tables- District Level , Census of India__1": 6.394810009,
      "Total Workers  Persons": 6789,
      "Households receiving treated tap water within premises  Houselisting and Housing Census Data Tables- District Level , Census of India__4": 207,
      "Primary Female Teachers in percentage DISE": "NA",
      "Number of Households": 3231,
      "Main Workers Agricultural Labourers - Persons": 183
    }
  ]
}