{
  "Total": [
    {
      "Marginal Workers Agricultural Labourers - Persons": 10852,
      "Marginal Workers Other - Females": 10582,
      "Marginal Workers Other worked for 0 - 3 moths during last year - Females": 1813,
      "Upper Primary Schools with boys toilet in percentage DISE": 100,
      "Total Population": 456113,
      "Households with electricity as main source of lighting in percentage Houselisting and Housing Census Data Tables- District Level , Census of India": 85.68394223,
      "Primary Girl's Enrolment in percentage DISE": 52.6,
      "Marginal Workers worked for 3 - 6 moths during last year - Males": 14768,
      "Prevalence of Acute illness in percentage DLHS-4": 19,
      "Main Workers - Persons": 145343,
      "Main Workers Cultivators - Females": 4545,
      "Marginal Workers Agricultural Labourers worked for 3 - 6 moths during last year - Females": 5814,
      "Marginal Workers Other worked for 0 - 3 moths during last year - Males": 1361,
      "Upper Primary Schools with drinking water facility in percentage DISE": 100,
      "Primary Schools with girls toilet in percentage DISE": 100,
      "Marginal Workers worked for 3 - 6 moths during last year - Persons": 40405,
      "Upper Primary Drop Out Rate in percentage DISE": 7.02,
      "Prevalence of Anaemia in pregnant women aged 15-49years in percentage DLHS-4": 80.5,
      "Current use of any modern method of family planning in percentage DLHS-4": 12.6,
      "Marginal Workers Agricultural Labourers - Males": 3333,
      "Upper Primary Female Teachers in percentage DISE": 51.9,
      "Marginal Workers - Females": 31957,
      "Marginal Workers Other worked for 3 - 6 moths during last year - Persons": 17101,
      "Main Workers Agricultural Labourers - Females": 3918,
      "Marginal Workers Cultivators worked for 3 - 6 moths during last year - Females": 4265,
      "Households with no lighting  Houselisting and Housing Census Data Tables- District Level , Census of India__5": 154,
      "Prevalence of Severe Anaemia  in percentage DLHS-4": 9.9,
      "Total unmet need for family planning in percentage DLHS-4": 50.6,
      "Main Workers Other - Males": 68355,
      "Children who received full vaccination in percentage DLHS-4": 55.9,
      "Marginal Workers Household Industry - Persons": 9918,
      "Primary Pupil-Teacher Ratio in percentage DISE": 15,
      "Marginal Workers Agricultural Labourers worked for 3 - 6 moths during last year - Males": 2696,
      "Scheduled Caste Females": 7784,
      "Marginal Workers Cultivators - Males": 3409,
      "Marginal Workers - Males": 17548,
      "Marginal Workers worked for 0 - 3 moths during last year - Females": 6320,
      "Households with main source of drinking water within premises in percentage Houselisting and Housing Census Data Tables- District Level , Census of India": 17.79513322,
      "Marginal Workers Household Industry worked for 3 - 6 moths during last year - Persons": 7631,
      "Upper Primary Girl's Enrolment in percentage DISE": 54.7,
      "Prevalence of Severe Anaemia in women aged 15-49years in percentage DLHS-4": 3.8,
      "Marginal Workers Agricultural Labourers worked for 0 - 3 moths during last year - Males": 637,
      "Households with electricity as main source of lighting  Houselisting and Housing Census Data Tables- District Level , Census of India__3": 78663,
      "Households with computer or laptop with internet connection in percentage": 2.98,
      "PHCs functioning on a 24x7hours basis in percentage DLHS-4": 37.5,
      "Non Workers - Males": 108532,
      "Total Households in District Houselisting and Housing Census Data Tables- District Level , Census of India": 91806,
      "Upper Primary Schools with girls toilet in percentage DISE": 100,
      "Households with mobile phone in percentage": 63.24,
      "Households receiving untreated tap water within premises in percentage Houselisting and Housing Census Data Tables- District Level , Census of India__2": 0.450950918,
      "Marginal Workers Cultivators worked for 3 - 6 moths during last year - Males": 2898,
      "Prevalence of Anaemia  in percentage DLHS-4": 73.1,
      "Prevalence of Chronic illness in percentage DLHS-4": 13.3,
      "Households with solar energy as main source of lighting in percentage Houselisting and Housing Census Data Tables- District Level , Census of India__1": 0.289741411,
      "Marginal Workers Agricultural Labourers worked for 0 - 3 moths during last year - Females": 1705,
      "Main Workers - Males": 100014,
      "Female": 75.32,
      "Sno": 1166,
      "Marginal Workers Other worked for 3 - 6 moths during last year - Females": 8769,
      "Marginal Workers Cultivators worked for 0 - 3 moths during last year - Females": 786,
      "Scheduled Tribe Males": 13500,
      "Male Illiterates": 52780,
      "Prevalence of Severe Anaemia in pregnant women aged 15-49years in percentage DLHS-4": 4.7,
      "0-6 Age Group Persons": 59936,
      "Upper Primary Student-Classroom Ratio in percentage DISE": 16,
      "Currently married men married below 21years of age in percentage DLHS-4": 9.7,
      "Male Literates": 173314,
      "Households with no lighting in percentage Houselisting and Housing Census Data Tables- District Level , Census of India__2": 0.167745028,
      "Primary Drop Out Rate in percentage DISE": 5.3,
      "Marginal Workers Household Industry - Males": 1113,
      "Female Illiterates": 78669,
      "Main Workers Other - Females": 27787,
      "Marginal Workers Cultivators - Persons": 8460,
      "Upper Primary Gross Enrolment Ratio in percentage DISE": 100.2,
      "Scheduled Caste Persons": 15839,
      "Marginal Workers Cultivators worked for 3 - 6 moths during last year - Persons": 7163,
      "Households with landline phone in percentage": 3.66,
      "Total Households in District  Houselisting and Housing Census Data Tables- District Level , Census of India": 91806,
      "Upper Primary Pupil-Teacher Ratio in percentage DISE": 10,
      "Primary Student-Classroom Ratio in percentage DISE": 15,
      "Primary Schools with boys toilet in percentage DISE": 99.7,
      "Mean number of children ever born to women aged 40-49years  DLHS-4": 2.9,
      "Households receiving untreated tap water within premises  Houselisting and Housing Census Data Tables- District Level , Census of India__5": 414,
      "Marginal Workers Household Industry worked for 0 - 3 moths during last year - Persons": 2287,
      "Total Male Population": 226094,
      "Non Workers - Females": 152733,
      "Current use of family planning methods in percentage DLHS-4": 22.4,
      "Households with main source of drinking water within premises  Houselisting and Housing Census Data Tables- District Level , Census of India__3": 16337,
      "Main Workers Agricultural Labourers - Males": 5480,
      "Marginal Workers Other worked for 0 - 3 moths during last year - Persons": 3174,
      "Currently married women married below 18years of age in percentage DLHS-4": 4.5,
      "Person Illiterates": 131449,
      "Main Workers Household Industry - Females": 9079,
      "Female Literates": 151350,
      "Marginal Workers Cultivators worked for 0 - 3 moths during last year - Males": 511,
      "Male": 88.77,
      "Households with improved source of drinking water in percentage DLHS-4": 60.4,
      "Upper Primary Schools with electricity in percentage DISE": 35.7,
      "Households with electricity in percentage DLHS-4": 75.1,
      "Villages with Primary Health Centre within 10km in percentage DLHS-4": 91.7,
      "Births to women aged 15-19years out of Total births in percentage DLHS-4": 1.9,
      "Prevalence of Anaemia in women aged 15-49years in percentage DLHS-4": 79.9,
      "Marginal Workers Agricultural Labourers worked for 3 - 6 moths during last year - Persons": 8510,
      "Main Workers Household Industry - Males": 2829,
      "Scheduled Tribe Females": 14157,
      "Marginal Workers worked for 0 - 3 moths during last year - Males": 2780,
      "Marginal Workers Other worked for 3 - 6 moths during last year - Males": 8332,
      "Primary Net Enrolment Ratio in percentage DISE": 96.1,
      "Total": 81.95,
      "Mean age at marriage for boys DLHS-4": 27.8,
      "Number of District Hospitals  DLHS-4": "Not available",
      "0-6 Age Group Females": 29085,
      "Marginal Workers Agricultural Labourers worked for 0 - 3 moths during last year - Persons": 2342,
      "Marginal Workers Household Industry worked for 0 - 3 moths during last year - Males": 271,
      "Total Workers  Females": 77286,
      "Marginal Workers worked for 3 - 6 moths during last year - Females": 25637,
      "Institutional Deliveries in percentage DLHS-4": 75.6,
      "Marginal Workers Other - Males": 9693,
      "Total Workers  Males": 117562,
      "Main Workers - Females": 45329,
      "Primary Gross Enrolment Ratio in percentage DISE": 134,
      "Main Workers Cultivators - Persons": 27895,
      "Marginal Workers Household Industry worked for 0 - 3 moths during last year - Females": 2016,
      "Upper Primary Net Enrolment Ratio in percentage DISE": 98.9,
      "Primary New Government Schools since 2003 in percentage DISE": 25.2,
      "Tier": "Total",
      "Marginal Workers Household Industry - Females": 8805,
      "Primary Schools with electricity in percentage DISE": 17.1,
      "Main Workers Other - Persons": 96142,
      "Marginal Workers Household Industry worked for 3 - 6 moths during last year - Females": 6789,
      "Main Workers Cultivators - Males": 23350,
      "Main Workers Household Industry - Persons": 11908,
      "Marginal Workers Cultivators worked for 0 - 3 moths during last year - Persons": 1297,
      "Scheduled Caste Males": 8055,
      "Marginal Workers - Persons": 49505,
      "Deliveries at home conducted by skilled health personnel in percentage DLHS-4": 12.6,
      "Villages with Sub-Health Centres within 3km in percentage DLHS-4": 83.3,
      "Upper Primary New Government Schools since 2003 in percentage DISE": 66.7,
      "0-6 Age Group Males": 30851,
      "Primary Schools with drinking water facility in percentage DISE": 98.6,
      "Non Workers - Persons": 261265,
      "Person Literates": 324664,
      "State": "MANIPUR",
      "Total Female Population": 230019,
      "Marginal Workers worked for 0 - 3 moths during last year - Persons": 9100,
      "Marginal Workers Cultivators - Females": 5051,
      "Marginal Workers Other - Persons": 20275,
      "Sex Ratio": 1017,
      "Scheduled Tribe Persons": 27657,
      "Marginal Workers Household Industry worked for 3 - 6 moths during last year - Males": 842,
      "Marginal Workers Agricultural Labourers - Females": 7519,
      "Mean age at marriage for girls DLHS-4": 25.4,
      "Households with solar energy as main source of lighting  Houselisting and Housing Census Data Tables- District Level , Census of India__4": 266,
      "District": "IMPHAL EAST",
      "Households receiving treated tap water within premises in percentage Houselisting and Housing Census Data Tables- District Level , Census of India__1": 15.34431301,
      "Total Workers  Persons": 194848,
      "Households receiving treated tap water within premises  Houselisting and Housing Census Data Tables- District Level , Census of India__4": 14087,
      "Primary Female Teachers in percentage DISE": 54.9,
      "Number of Households": 92124,
      "Main Workers Agricultural Labourers - Persons": 9398
    }
  ],
  "Rural": [
    {
      "Marginal Workers Agricultural Labourers - Persons": 9224,
      "Marginal Workers Other - Females": 5564,
      "Marginal Workers Other worked for 0 - 3 moths during last year - Females": 1202,
      "Upper Primary Schools with boys toilet in percentage DISE": "NA",
      "Total Population": 272906,
      "Households with electricity as main source of lighting in percentage Houselisting and Housing Census Data Tables- District Level , Census of India": 80.32917392,
      "Primary Girl's Enrolment in percentage DISE": "NA",
      "Marginal Workers worked for 3 - 6 moths during last year - Males": 8476,
      "Prevalence of Acute illness in percentage DLHS-4": 15.6,
      "Main Workers - Persons": 87766,
      "Main Workers Cultivators - Females": 3876,
      "Marginal Workers Agricultural Labourers worked for 3 - 6 moths during last year - Females": 5109,
      "Marginal Workers Other worked for 0 - 3 moths during last year - Males": 697,
      "Upper Primary Schools with drinking water facility in percentage DISE": "NA",
      "Primary Schools with girls toilet in percentage DISE": "NA",
      "Marginal Workers worked for 3 - 6 moths during last year - Persons": 26129,
      "Upper Primary Drop Out Rate in percentage DISE": "NA",
      "Prevalence of Anaemia in pregnant women aged 15-49years in percentage DLHS-4": 71.2,
      "Current use of any modern method of family planning in percentage DLHS-4": 12.2,
      "Marginal Workers Agricultural Labourers - Males": 2748,
      "Upper Primary Female Teachers in percentage DISE": "NA",
      "Marginal Workers - Females": 22257,
      "Marginal Workers Other worked for 3 - 6 moths during last year - Persons": 7854,
      "Main Workers Agricultural Labourers - Females": 3342,
      "Marginal Workers Cultivators worked for 3 - 6 moths during last year - Females": 3594,
      "Households with no lighting  Houselisting and Housing Census Data Tables- District Level , Census of India__5": 81,
      "Prevalence of Severe Anaemia  in percentage DLHS-4": 5.9,
      "Total unmet need for family planning in percentage DLHS-4": 54.8,
      "Main Workers Other - Males": 35664,
      "Children who received full vaccination in percentage DLHS-4": 43.6,
      "Marginal Workers Household Industry - Persons": 6540,
      "Primary Pupil-Teacher Ratio in percentage DISE": "NA",
      "Marginal Workers Agricultural Labourers worked for 3 - 6 moths during last year - Males": 2239,
      "Scheduled Caste Females": 3734,
      "Marginal Workers Cultivators - Males": 2653,
      "Marginal Workers - Males": 10170,
      "Marginal Workers worked for 0 - 3 moths during last year - Females": 4604,
      "Households with main source of drinking water within premises in percentage Houselisting and Housing Census Data Tables- District Level , Census of India": 5.630021846,
      "Marginal Workers Household Industry worked for 3 - 6 moths during last year - Persons": 5028,
      "Upper Primary Girl's Enrolment in percentage DISE": "NA",
      "Prevalence of Severe Anaemia in women aged 15-49years in percentage DLHS-4": 2.3,
      "Marginal Workers Agricultural Labourers worked for 0 - 3 moths during last year - Males": 509,
      "Households with electricity as main source of lighting  Houselisting and Housing Census Data Tables- District Level , Census of India__3": 43389,
      "Households with computer or laptop with internet connection in percentage": 1.46,
      "PHCs functioning on a 24x7hours basis in percentage DLHS-4": "Not available",
      "Non Workers - Males": 64342,
      "Total Households in District Houselisting and Housing Census Data Tables- District Level , Census of India": 54014,
      "Upper Primary Schools with girls toilet in percentage DISE": "NA",
      "Households with mobile phone in percentage": 56.65,
      "Households receiving untreated tap water within premises in percentage Houselisting and Housing Census Data Tables- District Level , Census of India__2": 0.24808383,
      "Marginal Workers Cultivators worked for 3 - 6 moths during last year - Males": 2305,
      "Prevalence of Anaemia  in percentage DLHS-4": 64.7,
      "Prevalence of Chronic illness in percentage DLHS-4": 11.2,
      "Households with solar energy as main source of lighting in percentage Houselisting and Housing Census Data Tables- District Level , Census of India__1": 0.314733217,
      "Marginal Workers Agricultural Labourers worked for 0 - 3 moths during last year - Females": 1367,
      "Main Workers - Males": 62277,
      "Female": "NA",
      "Sno": 1165,
      "Marginal Workers Other worked for 3 - 6 moths during last year - Females": 4362,
      "Marginal Workers Cultivators worked for 0 - 3 moths during last year - Females": 663,
      "Scheduled Tribe Males": 5356,
      "Male Illiterates": 35852,
      "Prevalence of Severe Anaemia in pregnant women aged 15-49years in percentage DLHS-4": 4,
      "0-6 Age Group Persons": 38324,
      "Upper Primary Student-Classroom Ratio in percentage DISE": "NA",
      "Currently married men married below 21years of age in percentage DLHS-4": 9.5,
      "Male Literates": 100937,
      "Households with no lighting in percentage Houselisting and Housing Census Data Tables- District Level , Census of India__2": 0.149961121,
      "Primary Drop Out Rate in percentage DISE": "NA",
      "Marginal Workers Household Industry - Males": 580,
      "Female Illiterates": 53173,
      "Main Workers Other - Females": 12327,
      "Marginal Workers Cultivators - Persons": 6910,
      "Upper Primary Gross Enrolment Ratio in percentage DISE": "NA",
      "Scheduled Caste Persons": 7815,
      "Marginal Workers Cultivators worked for 3 - 6 moths during last year - Persons": 5899,
      "Households with landline phone in percentage": 3.26,
      "Total Households in District  Houselisting and Housing Census Data Tables- District Level , Census of India": 54014,
      "Upper Primary Pupil-Teacher Ratio in percentage DISE": "NA",
      "Primary Student-Classroom Ratio in percentage DISE": "NA",
      "Primary Schools with boys toilet in percentage DISE": "NA",
      "Mean number of children ever born to women aged 40-49years  DLHS-4": 2.9,
      "Households receiving untreated tap water within premises  Houselisting and Housing Census Data Tables- District Level , Census of India__5": 134,
      "Marginal Workers Household Industry worked for 0 - 3 moths during last year - Persons": 1512,
      "Total Male Population": 136789,
      "Non Workers - Females": 88371,
      "Current use of family planning methods in percentage DLHS-4": 22.1,
      "Households with main source of drinking water within premises  Houselisting and Housing Census Data Tables- District Level , Census of India__3": 3041,
      "Main Workers Agricultural Labourers - Males": 4501,
      "Marginal Workers Other worked for 0 - 3 moths during last year - Persons": 1899,
      "Currently married women married below 18years of age in percentage DLHS-4": 6.9,
      "Person Illiterates": 89025,
      "Main Workers Household Industry - Females": 5944,
      "Female Literates": 82944,
      "Marginal Workers Cultivators worked for 0 - 3 moths during last year - Males": 348,
      "Male": "NA",
      "Households with improved source of drinking water in percentage DLHS-4": 54.1,
      "Upper Primary Schools with electricity in percentage DISE": "NA",
      "Households with electricity in percentage DLHS-4": 67,
      "Villages with Primary Health Centre within 10km in percentage DLHS-4": "Not available",
      "Births to women aged 15-19years out of Total births in percentage DLHS-4": 2,
      "Prevalence of Anaemia in women aged 15-49years in percentage DLHS-4": 74.3,
      "Marginal Workers Agricultural Labourers worked for 3 - 6 moths during last year - Persons": 7348,
      "Main Workers Household Industry - Males": 1589,
      "Scheduled Tribe Females": 5245,
      "Marginal Workers worked for 0 - 3 moths during last year - Males": 1694,
      "Marginal Workers Other worked for 3 - 6 moths during last year - Males": 3492,
      "Primary Net Enrolment Ratio in percentage DISE": "NA",
      "Total": "NA",
      "Mean age at marriage for boys DLHS-4": 27.6,
      "Number of District Hospitals  DLHS-4": "Not available",
      "0-6 Age Group Females": 18540,
      "Marginal Workers Agricultural Labourers worked for 0 - 3 moths during last year - Persons": 1876,
      "Marginal Workers Household Industry worked for 0 - 3 moths during last year - Males": 140,
      "Total Workers  Females": 47746,
      "Marginal Workers worked for 3 - 6 moths during last year - Females": 17653,
      "Institutional Deliveries in percentage DLHS-4": 82.7,
      "Marginal Workers Other - Males": 4189,
      "Total Workers  Males": 72447,
      "Main Workers - Females": 25489,
      "Primary Gross Enrolment Ratio in percentage DISE": "NA",
      "Main Workers Cultivators - Persons": 24399,
      "Marginal Workers Household Industry worked for 0 - 3 moths during last year - Females": 1372,
      "Upper Primary Net Enrolment Ratio in percentage DISE": "NA",
      "Primary New Government Schools since 2003 in percentage DISE": "NA",
      "Tier": "Rural",
      "Marginal Workers Household Industry - Females": 5960,
      "Primary Schools with electricity in percentage DISE": "NA",
      "Main Workers Other - Persons": 47991,
      "Marginal Workers Household Industry worked for 3 - 6 moths during last year - Females": 4588,
      "Main Workers Cultivators - Males": 20523,
      "Main Workers Household Industry - Persons": 7533,
      "Marginal Workers Cultivators worked for 0 - 3 moths during last year - Persons": 1011,
      "Scheduled Caste Males": 4081,
      "Marginal Workers - Persons": 32427,
      "Deliveries at home conducted by skilled health personnel in percentage DLHS-4": 6.1,
      "Villages with Sub-Health Centres within 3km in percentage DLHS-4": "Not available",
      "Upper Primary New Government Schools since 2003 in percentage DISE": "NA",
      "0-6 Age Group Males": 19784,
      "Primary Schools with drinking water facility in percentage DISE": "NA",
      "Non Workers - Persons": 152713,
      "Person Literates": 183881,
      "State": "MANIPUR",
      "Total Female Population": 136117,
      "Marginal Workers worked for 0 - 3 moths during last year - Persons": 6298,
      "Marginal Workers Cultivators - Females": 4257,
      "Marginal Workers Other - Persons": 9753,
      "Sex Ratio": 995,
      "Scheduled Tribe Persons": 10601,
      "Marginal Workers Household Industry worked for 3 - 6 moths during last year - Males": 440,
      "Marginal Workers Agricultural Labourers - Females": 6476,
      "Mean age at marriage for girls DLHS-4": 24.8,
      "Households with solar energy as main source of lighting  Houselisting and Housing Census Data Tables- District Level , Census of India__4": 170,
      "District": "IMPHAL EAST",
      "Households receiving treated tap water within premises in percentage Houselisting and Housing Census Data Tables- District Level , Census of India__1": 3.432443441,
      "Total Workers  Persons": 120193,
      "Households receiving treated tap water within premises  Houselisting and Housing Census Data Tables- District Level , Census of India__4": 1854,
      "Primary Female Teachers in percentage DISE": "NA",
      "Number of Households": 54443,
      "Main Workers Agricultural Labourers - Persons": 7843
    }
  ],
  "Urban": [
    {
      "Marginal Workers Agricultural Labourers - Persons": 1628,
      "Marginal Workers Other - Females": 5018,
      "Marginal Workers Other worked for 0 - 3 moths during last year - Females": 611,
      "Upper Primary Schools with boys toilet in percentage DISE": "NA",
      "Total Population": 183207,
      "Households with electricity as main source of lighting in percentage Houselisting and Housing Census Data Tables- District Level , Census of India": 93.33721423,
      "Primary Girl's Enrolment in percentage DISE": "NA",
      "Marginal Workers worked for 3 - 6 moths during last year - Males": 6292,
      "Prevalence of Acute illness in percentage DLHS-4": "Not available",
      "Main Workers - Persons": 57577,
      "Main Workers Cultivators - Females": 669,
      "Marginal Workers Agricultural Labourers worked for 3 - 6 moths during last year - Females": 705,
      "Marginal Workers Other worked for 0 - 3 moths during last year - Males": 664,
      "Upper Primary Schools with drinking water facility in percentage DISE": "NA",
      "Primary Schools with girls toilet in percentage DISE": "NA",
      "Marginal Workers worked for 3 - 6 moths during last year - Persons": 14276,
      "Upper Primary Drop Out Rate in percentage DISE": "NA",
      "Prevalence of Anaemia in pregnant women aged 15-49years in percentage DLHS-4": "Not available",
      "Current use of any modern method of family planning in percentage DLHS-4": "Not available",
      "Marginal Workers Agricultural Labourers - Males": 585,
      "Upper Primary Female Teachers in percentage DISE": "NA",
      "Marginal Workers - Females": 9700,
      "Marginal Workers Other worked for 3 - 6 moths during last year - Persons": 9247,
      "Main Workers Agricultural Labourers - Females": 576,
      "Marginal Workers Cultivators worked for 3 - 6 moths during last year - Females": 671,
      "Households with no lighting  Houselisting and Housing Census Data Tables- District Level , Census of India__5": 73,
      "Prevalence of Severe Anaemia  in percentage DLHS-4": "Not available",
      "Total unmet need for family planning in percentage DLHS-4": "Not available",
      "Main Workers Other - Males": 32691,
      "Children who received full vaccination in percentage DLHS-4": "Not available",
      "Marginal Workers Household Industry - Persons": 3378,
      "Primary Pupil-Teacher Ratio in percentage DISE": "NA",
      "Marginal Workers Agricultural Labourers worked for 3 - 6 moths during last year - Males": 457,
      "Scheduled Caste Females": 4050,
      "Marginal Workers Cultivators - Males": 756,
      "Marginal Workers - Males": 7378,
      "Marginal Workers worked for 0 - 3 moths during last year - Females": 1716,
      "Households with main source of drinking water within premises in percentage Houselisting and Housing Census Data Tables- District Level , Census of India": 35.18204911,
      "Marginal Workers Household Industry worked for 3 - 6 moths during last year - Persons": 2603,
      "Upper Primary Girl's Enrolment in percentage DISE": "NA",
      "Prevalence of Severe Anaemia in women aged 15-49years in percentage DLHS-4": "Not available",
      "Marginal Workers Agricultural Labourers worked for 0 - 3 moths during last year - Males": 128,
      "Households with electricity as main source of lighting  Houselisting and Housing Census Data Tables- District Level , Census of India__3": 35274,
      "Households with computer or laptop with internet connection in percentage": 5.15,
      "PHCs functioning on a 24x7hours basis in percentage DLHS-4": 0,
      "Non Workers - Males": 44190,
      "Total Households in District Houselisting and Housing Census Data Tables- District Level , Census of India": 37792,
      "Upper Primary Schools with girls toilet in percentage DISE": "NA",
      "Households with mobile phone in percentage": 72.67,
      "Households receiving untreated tap water within premises in percentage Houselisting and Housing Census Data Tables- District Level , Census of India__2": 0.740897544,
      "Marginal Workers Cultivators worked for 3 - 6 moths during last year - Males": 593,
      "Prevalence of Anaemia  in percentage DLHS-4": "Not available",
      "Prevalence of Chronic illness in percentage DLHS-4": "Not available",
      "Households with solar energy as main source of lighting in percentage Houselisting and Housing Census Data Tables- District Level , Census of India__1": 0.254022015,
      "Marginal Workers Agricultural Labourers worked for 0 - 3 moths during last year - Females": 338,
      "Main Workers - Males": 37737,
      "Female": "NA",
      "Sno": 1167,
      "Marginal Workers Other worked for 3 - 6 moths during last year - Females": 4407,
      "Marginal Workers Cultivators worked for 0 - 3 moths during last year - Females": 123,
      "Scheduled Tribe Males": 8144,
      "Male Illiterates": 16928,
      "Prevalence of Severe Anaemia in pregnant women aged 15-49years in percentage DLHS-4": "Not available",
      "0-6 Age Group Persons": 21612,
      "Upper Primary Student-Classroom Ratio in percentage DISE": "NA",
      "Currently married men married below 21years of age in percentage DLHS-4": "Not available",
      "Male Literates": 72377,
      "Households with no lighting in percentage Houselisting and Housing Census Data Tables- District Level , Census of India__2": 0.193162574,
      "Primary Drop Out Rate in percentage DISE": "NA",
      "Marginal Workers Household Industry - Males": 533,
      "Female Illiterates": 25496,
      "Main Workers Other - Females": 15460,
      "Marginal Workers Cultivators - Persons": 1550,
      "Upper Primary Gross Enrolment Ratio in percentage DISE": "NA",
      "Scheduled Caste Persons": 8024,
      "Marginal Workers Cultivators worked for 3 - 6 moths during last year - Persons": 1264,
      "Households with landline phone in percentage": 4.23,
      "Total Households in District  Houselisting and Housing Census Data Tables- District Level , Census of India": 37792,
      "Upper Primary Pupil-Teacher Ratio in percentage DISE": "NA",
      "Primary Student-Classroom Ratio in percentage DISE": "NA",
      "Primary Schools with boys toilet in percentage DISE": "NA",
      "Mean number of children ever born to women aged 40-49years  DLHS-4": "Not available",
      "Households receiving untreated tap water within premises  Houselisting and Housing Census Data Tables- District Level , Census of India__5": 280,
      "Marginal Workers Household Industry worked for 0 - 3 moths during last year - Persons": 775,
      "Total Male Population": 89305,
      "Non Workers - Females": 64362,
      "Current use of family planning methods in percentage DLHS-4": "Not available",
      "Households with main source of drinking water within premises  Houselisting and Housing Census Data Tables- District Level , Census of India__3": 13296,
      "Main Workers Agricultural Labourers - Males": 979,
      "Marginal Workers Other worked for 0 - 3 moths during last year - Persons": 1275,
      "Currently married women married below 18years of age in percentage DLHS-4": "Not available",
      "Person Illiterates": 42424,
      "Main Workers Household Industry - Females": 3135,
      "Female Literates": 68406,
      "Marginal Workers Cultivators worked for 0 - 3 moths during last year - Males": 163,
      "Male": "NA",
      "Households with improved source of drinking water in percentage DLHS-4": "Not available",
      "Upper Primary Schools with electricity in percentage DISE": "NA",
      "Households with electricity in percentage DLHS-4": "Not available",
      "Villages with Primary Health Centre within 10km in percentage DLHS-4": 0,
      "Births to women aged 15-19years out of Total births in percentage DLHS-4": "Not available",
      "Prevalence of Anaemia in women aged 15-49years in percentage DLHS-4": "Not available",
      "Marginal Workers Agricultural Labourers worked for 3 - 6 moths during last year - Persons": 1162,
      "Main Workers Household Industry - Males": 1240,
      "Scheduled Tribe Females": 8912,
      "Marginal Workers worked for 0 - 3 moths during last year - Males": 1086,
      "Marginal Workers Other worked for 3 - 6 moths during last year - Males": 4840,
      "Primary Net Enrolment Ratio in percentage DISE": "NA",
      "Total": "NA",
      "Mean age at marriage for boys DLHS-4": "Not available",
      "Number of District Hospitals  DLHS-4": 0,
      "0-6 Age Group Females": 10545,
      "Marginal Workers Agricultural Labourers worked for 0 - 3 moths during last year - Persons": 466,
      "Marginal Workers Household Industry worked for 0 - 3 moths during last year - Males": 131,
      "Total Workers  Females": 29540,
      "Marginal Workers worked for 3 - 6 moths during last year - Females": 7984,
      "Institutional Deliveries in percentage DLHS-4": "Not available",
      "Marginal Workers Other - Males": 5504,
      "Total Workers  Males": 45115,
      "Main Workers - Females": 19840,
      "Primary Gross Enrolment Ratio in percentage DISE": "NA",
      "Main Workers Cultivators - Persons": 3496,
      "Marginal Workers Household Industry worked for 0 - 3 moths during last year - Females": 644,
      "Upper Primary Net Enrolment Ratio in percentage DISE": "NA",
      "Primary New Government Schools since 2003 in percentage DISE": "NA",
      "Tier": "Urban",
      "Marginal Workers Household Industry - Females": 2845,
      "Primary Schools with electricity in percentage DISE": "NA",
      "Main Workers Other - Persons": 48151,
      "Marginal Workers Household Industry worked for 3 - 6 moths during last year - Females": 2201,
      "Main Workers Cultivators - Males": 2827,
      "Main Workers Household Industry - Persons": 4375,
      "Marginal Workers Cultivators worked for 0 - 3 moths during last year - Persons": 286,
      "Scheduled Caste Males": 3974,
      "Marginal Workers - Persons": 17078,
      "Deliveries at home conducted by skilled health personnel in percentage DLHS-4": "Not available",
      "Villages with Sub-Health Centres within 3km in percentage DLHS-4": 0,
      "Upper Primary New Government Schools since 2003 in percentage DISE": "NA",
      "0-6 Age Group Males": 11067,
      "Primary Schools with drinking water facility in percentage DISE": "NA",
      "Non Workers - Persons": 108552,
      "Person Literates": 140783,
      "State": "MANIPUR",
      "Total Female Population": 93902,
      "Marginal Workers worked for 0 - 3 moths during last year - Persons": 2802,
      "Marginal Workers Cultivators - Females": 794,
      "Marginal Workers Other - Persons": 10522,
      "Sex Ratio": 1051,
      "Scheduled Tribe Persons": 17056,
      "Marginal Workers Household Industry worked for 3 - 6 moths during last year - Males": 402,
      "Marginal Workers Agricultural Labourers - Females": 1043,
      "Mean age at marriage for girls DLHS-4": "Not available",
      "Households with solar energy as main source of lighting  Houselisting and Housing Census Data Tables- District Level , Census of India__4": 96,
      "District": "IMPHAL EAST",
      "Households receiving treated tap water within premises in percentage Houselisting and Housing Census Data Tables- District Level , Census of India__1": 32.3692845,
      "Total Workers  Persons": 74655,
      "Households receiving treated tap water within premises  Houselisting and Housing Census Data Tables- District Level , Census of India__4": 12233,
      "Primary Female Teachers in percentage DISE": "NA",
      "Number of Households": 37681,
      "Main Workers Agricultural Labourers - Persons": 1555
    }
  ]
}