{
  "Total": [
    {
      "Marginal Workers Agricultural Labourers - Persons": 6171,
      "Marginal Workers Other - Females": 6492,
      "Marginal Workers Other worked for 0 - 3 moths during last year - Females": 1075,
      "Upper Primary Schools with boys toilet in percentage DISE": 100,
      "Total Population": 479148,
      "Households with electricity as main source of lighting in percentage Houselisting and Housing Census Data Tables- District Level , Census of India": 66.10606895,
      "Primary Girl's Enrolment in percentage DISE": 49.2,
      "Marginal Workers worked for 3 - 6 moths during last year - Males": 17425,
      "Prevalence of Acute illness in percentage DLHS-4": 24.1,
      "Main Workers - Persons": 185725,
      "Main Workers Cultivators - Females": 71810,
      "Marginal Workers Agricultural Labourers worked for 3 - 6 moths during last year - Females": 3267,
      "Marginal Workers Other worked for 0 - 3 moths during last year - Males": 991,
      "Upper Primary Schools with drinking water facility in percentage DISE": 86.7,
      "Primary Schools with girls toilet in percentage DISE": 100,
      "Marginal Workers worked for 3 - 6 moths during last year - Persons": 37672,
      "Upper Primary Drop Out Rate in percentage DISE": 2.18,
      "Prevalence of Anaemia in pregnant women aged 15-49years in percentage DLHS-4": 78.8,
      "Current use of any modern method of family planning in percentage DLHS-4": 9.8,
      "Marginal Workers Agricultural Labourers - Males": 2379,
      "Upper Primary Female Teachers in percentage DISE": 32,
      "Marginal Workers - Females": 25678,
      "Marginal Workers Other worked for 3 - 6 moths during last year - Persons": 11537,
      "Main Workers Agricultural Labourers - Females": 2724,
      "Marginal Workers Cultivators worked for 3 - 6 moths during last year - Females": 10119,
      "Households with no lighting  Houselisting and Housing Census Data Tables- District Level , Census of India__5": 254,
      "Prevalence of Severe Anaemia  in percentage DLHS-4": 4.9,
      "Total unmet need for family planning in percentage DLHS-4": 50.3,
      "Main Workers Other - Males": 20562,
      "Children who received full vaccination in percentage DLHS-4": 47.7,
      "Marginal Workers Household Industry - Persons": 2793,
      "Primary Pupil-Teacher Ratio in percentage DISE": 12,
      "Marginal Workers Agricultural Labourers worked for 3 - 6 moths during last year - Males": 1925,
      "Scheduled Caste Females": 464,
      "Marginal Workers Cultivators - Males": 11807,
      "Marginal Workers - Males": 22219,
      "Marginal Workers worked for 0 - 3 moths during last year - Females": 5431,
      "Households with main source of drinking water within premises in percentage Houselisting and Housing Census Data Tables- District Level , Census of India": 16.56856207,
      "Marginal Workers Household Industry worked for 3 - 6 moths during last year - Persons": 2173,
      "Upper Primary Girl's Enrolment in percentage DISE": 55.5,
      "Prevalence of Severe Anaemia in women aged 15-49years in percentage DLHS-4": 3.9,
      "Marginal Workers Agricultural Labourers worked for 0 - 3 moths during last year - Males": 454,
      "Households with electricity as main source of lighting  Houselisting and Housing Census Data Tables- District Level , Census of India__3": 22798,
      "Households with computer or laptop with internet connection in percentage": 0.76,
      "PHCs functioning on a 24x7hours basis in percentage DLHS-4": 0,
      "Non Workers - Males": 123180,
      "Total Households in District Houselisting and Housing Census Data Tables- District Level , Census of India": 34487,
      "Upper Primary Schools with girls toilet in percentage DISE": 100,
      "Households with mobile phone in percentage": 32.5,
      "Households receiving untreated tap water within premises in percentage Houselisting and Housing Census Data Tables- District Level , Census of India__2": 14.12126308,
      "Marginal Workers Cultivators worked for 3 - 6 moths during last year - Males": 8651,
      "Prevalence of Anaemia  in percentage DLHS-4": 85.2,
      "Prevalence of Chronic illness in percentage DLHS-4": 11.2,
      "Households with solar energy as main source of lighting in percentage Houselisting and Housing Census Data Tables- District Level , Census of India__1": 1.974657117,
      "Marginal Workers Agricultural Labourers worked for 0 - 3 moths during last year - Females": 525,
      "Main Workers - Males": 101924,
      "Female": 57.67,
      "Sno": 1172,
      "Marginal Workers Other worked for 3 - 6 moths during last year - Females": 5417,
      "Marginal Workers Cultivators worked for 0 - 3 moths during last year - Females": 3404,
      "Scheduled Tribe Males": 214519,
      "Male Illiterates": 99311,
      "Prevalence of Severe Anaemia in pregnant women aged 15-49years in percentage DLHS-4": 5.6,
      "0-6 Age Group Persons": 63335,
      "Upper Primary Student-Classroom Ratio in percentage DISE": 21,
      "Currently married men married below 21years of age in percentage DLHS-4": 13,
      "Male Literates": 148012,
      "Households with no lighting in percentage Houselisting and Housing Census Data Tables- District Level , Census of India__2": 0.736509409,
      "Primary Drop Out Rate in percentage DISE": 13.3,
      "Marginal Workers Household Industry - Males": 922,
      "Female Illiterates": 115360,
      "Main Workers Other - Females": 8142,
      "Marginal Workers Cultivators - Persons": 25330,
      "Upper Primary Gross Enrolment Ratio in percentage DISE": 151.3,
      "Scheduled Caste Persons": 1000,
      "Marginal Workers Cultivators worked for 3 - 6 moths during last year - Persons": 18770,
      "Households with landline phone in percentage": 1.51,
      "Total Households in District  Houselisting and Housing Census Data Tables- District Level , Census of India": 34487,
      "Upper Primary Pupil-Teacher Ratio in percentage DISE": 12,
      "Primary Student-Classroom Ratio in percentage DISE": 15,
      "Primary Schools with boys toilet in percentage DISE": 100,
      "Mean number of children ever born to women aged 40-49years  DLHS-4": 4,
      "Households receiving untreated tap water within premises  Houselisting and Housing Census Data Tables- District Level , Census of India__5": 4870,
      "Marginal Workers Household Industry worked for 0 - 3 moths during last year - Persons": 620,
      "Total Male Population": 247323,
      "Non Workers - Females": 122346,
      "Current use of family planning methods in percentage DLHS-4": 24.9,
      "Households with main source of drinking water within premises  Houselisting and Housing Census Data Tables- District Level , Census of India__3": 5714,
      "Main Workers Agricultural Labourers - Males": 2315,
      "Marginal Workers Other worked for 0 - 3 moths during last year - Persons": 2066,
      "Currently married women married below 18years of age in percentage DLHS-4": 5.5,
      "Person Illiterates": 214671,
      "Main Workers Household Industry - Females": 1125,
      "Female Literates": 116465,
      "Marginal Workers Cultivators worked for 0 - 3 moths during last year - Males": 3156,
      "Male": 69.21,
      "Households with improved source of drinking water in percentage DLHS-4": 33.8,
      "Upper Primary Schools with electricity in percentage DISE": 20,
      "Households with electricity in percentage DLHS-4": 73.3,
      "Villages with Primary Health Centre within 10km in percentage DLHS-4": 79.5,
      "Births to women aged 15-19years out of Total births in percentage DLHS-4": 3.2,
      "Prevalence of Anaemia in women aged 15-49years in percentage DLHS-4": 71.7,
      "Marginal Workers Agricultural Labourers worked for 3 - 6 moths during last year - Persons": 5192,
      "Main Workers Household Industry - Males": 1060,
      "Scheduled Tribe Females": 204691,
      "Marginal Workers worked for 0 - 3 moths during last year - Males": 4794,
      "Marginal Workers Other worked for 3 - 6 moths during last year - Males": 6120,
      "Primary Net Enrolment Ratio in percentage DISE": 100,
      "Total": 63.6,
      "Mean age at marriage for boys DLHS-4": 25.3,
      "Number of District Hospitals  DLHS-4": 1,
      "0-6 Age Group Females": 29872,
      "Marginal Workers Agricultural Labourers worked for 0 - 3 moths during last year - Persons": 979,
      "Marginal Workers Household Industry worked for 0 - 3 moths during last year - Males": 193,
      "Total Workers  Females": 109479,
      "Marginal Workers worked for 3 - 6 moths during last year - Females": 20247,
      "Institutional Deliveries in percentage DLHS-4": 32.6,
      "Marginal Workers Other - Males": 7111,
      "Total Workers  Males": 124143,
      "Main Workers - Females": 83801,
      "Primary Gross Enrolment Ratio in percentage DISE": 175,
      "Main Workers Cultivators - Persons": 149797,
      "Marginal Workers Household Industry worked for 0 - 3 moths during last year - Females": 427,
      "Upper Primary Net Enrolment Ratio in percentage DISE": 100,
      "Primary New Government Schools since 2003 in percentage DISE": 43.7,
      "Tier": "Total",
      "Marginal Workers Household Industry - Females": 1871,
      "Primary Schools with electricity in percentage DISE": 5.5,
      "Main Workers Other - Persons": 28704,
      "Marginal Workers Household Industry worked for 3 - 6 moths during last year - Females": 1444,
      "Main Workers Cultivators - Males": 77987,
      "Main Workers Household Industry - Persons": 2185,
      "Marginal Workers Cultivators worked for 0 - 3 moths during last year - Persons": 6560,
      "Scheduled Caste Males": 536,
      "Marginal Workers - Persons": 47897,
      "Deliveries at home conducted by skilled health personnel in percentage DLHS-4": 23.1,
      "Villages with Sub-Health Centres within 3km in percentage DLHS-4": 64.1,
      "Upper Primary New Government Schools since 2003 in percentage DISE": 100,
      "0-6 Age Group Males": 33463,
      "Primary Schools with drinking water facility in percentage DISE": 77,
      "Non Workers - Persons": 245526,
      "Person Literates": 264477,
      "State": "MANIPUR",
      "Total Female Population": 231825,
      "Marginal Workers worked for 0 - 3 moths during last year - Persons": 10225,
      "Marginal Workers Cultivators - Females": 13523,
      "Marginal Workers Other - Persons": 13603,
      "Sex Ratio": 937,
      "Scheduled Tribe Persons": 419210,
      "Marginal Workers Household Industry worked for 3 - 6 moths during last year - Males": 729,
      "Marginal Workers Agricultural Labourers - Females": 3792,
      "Mean age at marriage for girls DLHS-4": 22.9,
      "Households with solar energy as main source of lighting  Houselisting and Housing Census Data Tables- District Level , Census of India__4": 681,
      "District": "SENAPATI",
      "Households receiving treated tap water within premises in percentage Houselisting and Housing Census Data Tables- District Level , Census of India__1": 3.125815525,
      "Total Workers  Persons": 233622,
      "Households receiving treated tap water within premises  Houselisting and Housing Census Data Tables- District Level , Census of India__4": 1078,
      "Primary Female Teachers in percentage DISE": 47.8,
      "Number of Households": 83411,
      "Main Workers Agricultural Labourers - Persons": 5039
    }
  ],
  "Rural": [
    {
      "Marginal Workers Agricultural Labourers - Persons": 6159,
      "Marginal Workers Other - Females": 6260,
      "Marginal Workers Other worked for 0 - 3 moths during last year - Females": 930,
      "Upper Primary Schools with boys toilet in percentage DISE": "NA",
      "Total Population": 471672,
      "Households with electricity as main source of lighting in percentage Houselisting and Housing Census Data Tables- District Level , Census of India": 64.57777239,
      "Primary Girl's Enrolment in percentage DISE": "NA",
      "Marginal Workers worked for 3 - 6 moths during last year - Males": 17140,
      "Prevalence of Acute illness in percentage DLHS-4": 24.3,
      "Main Workers - Persons": 183792,
      "Main Workers Cultivators - Females": 71424,
      "Marginal Workers Agricultural Labourers worked for 3 - 6 moths during last year - Females": 3266,
      "Marginal Workers Other worked for 0 - 3 moths during last year - Males": 980,
      "Upper Primary Schools with drinking water facility in percentage DISE": "NA",
      "Primary Schools with girls toilet in percentage DISE": "NA",
      "Marginal Workers worked for 3 - 6 moths during last year - Persons": 37197,
      "Upper Primary Drop Out Rate in percentage DISE": "NA",
      "Prevalence of Anaemia in pregnant women aged 15-49years in percentage DLHS-4": 78.4,
      "Current use of any modern method of family planning in percentage DLHS-4": 9.4,
      "Marginal Workers Agricultural Labourers - Males": 2369,
      "Upper Primary Female Teachers in percentage DISE": "NA",
      "Marginal Workers - Females": 25324,
      "Marginal Workers Other worked for 3 - 6 moths during last year - Persons": 11332,
      "Main Workers Agricultural Labourers - Females": 2720,
      "Marginal Workers Cultivators worked for 3 - 6 moths during last year - Females": 10021,
      "Households with no lighting  Houselisting and Housing Census Data Tables- District Level , Census of India__5": 254,
      "Prevalence of Severe Anaemia  in percentage DLHS-4": 5.2,
      "Total unmet need for family planning in percentage DLHS-4": 51.5,
      "Main Workers Other - Males": 19875,
      "Children who received full vaccination in percentage DLHS-4": 46,
      "Marginal Workers Household Industry - Persons": 2780,
      "Primary Pupil-Teacher Ratio in percentage DISE": "NA",
      "Marginal Workers Agricultural Labourers worked for 3 - 6 moths during last year - Males": 1917,
      "Scheduled Caste Females": 462,
      "Marginal Workers Cultivators - Males": 11642,
      "Marginal Workers - Males": 21907,
      "Marginal Workers worked for 0 - 3 moths during last year - Females": 5267,
      "Households with main source of drinking water within premises in percentage Houselisting and Housing Census Data Tables- District Level , Census of India": 16.10652754,
      "Marginal Workers Household Industry worked for 3 - 6 moths during last year - Persons": 2163,
      "Upper Primary Girl's Enrolment in percentage DISE": "NA",
      "Prevalence of Severe Anaemia in women aged 15-49years in percentage DLHS-4": 4,
      "Marginal Workers Agricultural Labourers worked for 0 - 3 moths during last year - Males": 452,
      "Households with electricity as main source of lighting  Houselisting and Housing Census Data Tables- District Level , Census of India__3": 21290,
      "Households with computer or laptop with internet connection in percentage": 0.73,
      "PHCs functioning on a 24x7hours basis in percentage DLHS-4": "Not available",
      "Non Workers - Males": 121016,
      "Total Households in District Houselisting and Housing Census Data Tables- District Level , Census of India": 32968,
      "Upper Primary Schools with girls toilet in percentage DISE": "NA",
      "Households with mobile phone in percentage": 31.83,
      "Households receiving untreated tap water within premises in percentage Houselisting and Housing Census Data Tables- District Level , Census of India__2": 8.426352827,
      "Marginal Workers Cultivators worked for 3 - 6 moths during last year - Males": 8498,
      "Prevalence of Anaemia  in percentage DLHS-4": 84.3,
      "Prevalence of Chronic illness in percentage DLHS-4": 11,
      "Households with solar energy as main source of lighting in percentage Houselisting and Housing Census Data Tables- District Level , Census of India__1": 2.062606164,
      "Marginal Workers Agricultural Labourers worked for 0 - 3 moths during last year - Females": 524,
      "Main Workers - Males": 100680,
      "Female": "NA",
      "Sno": 1171,
      "Marginal Workers Other worked for 3 - 6 moths during last year - Females": 5330,
      "Marginal Workers Cultivators worked for 0 - 3 moths during last year - Females": 3387,
      "Scheduled Tribe Males": 211741,
      "Male Illiterates": 98474,
      "Prevalence of Severe Anaemia in pregnant women aged 15-49years in percentage DLHS-4": 5.7,
      "0-6 Age Group Persons": 62319,
      "Upper Primary Student-Classroom Ratio in percentage DISE": "NA",
      "Currently married men married below 21years of age in percentage DLHS-4": 12.6,
      "Male Literates": 145129,
      "Households with no lighting in percentage Houselisting and Housing Census Data Tables- District Level , Census of India__2": 0.770444067,
      "Primary Drop Out Rate in percentage DISE": "NA",
      "Marginal Workers Household Industry - Males": 914,
      "Female Illiterates": 114220,
      "Main Workers Other - Females": 7847,
      "Marginal Workers Cultivators - Persons": 25050,
      "Upper Primary Gross Enrolment Ratio in percentage DISE": "NA",
      "Scheduled Caste Persons": 997,
      "Marginal Workers Cultivators worked for 3 - 6 moths during last year - Persons": 18519,
      "Households with landline phone in percentage": 1.49,
      "Total Households in District  Houselisting and Housing Census Data Tables- District Level , Census of India": 32968,
      "Upper Primary Pupil-Teacher Ratio in percentage DISE": "NA",
      "Primary Student-Classroom Ratio in percentage DISE": "NA",
      "Primary Schools with boys toilet in percentage DISE": "NA",
      "Mean number of children ever born to women aged 40-49years  DLHS-4": 4,
      "Households receiving untreated tap water within premises  Houselisting and Housing Census Data Tables- District Level , Census of India__5": 2778,
      "Marginal Workers Household Industry worked for 0 - 3 moths during last year - Persons": 617,
      "Total Male Population": 243603,
      "Non Workers - Females": 119633,
      "Current use of family planning methods in percentage DLHS-4": 24.6,
      "Households with main source of drinking water within premises  Houselisting and Housing Census Data Tables- District Level , Census of India__3": 5310,
      "Main Workers Agricultural Labourers - Males": 2308,
      "Marginal Workers Other worked for 0 - 3 moths during last year - Persons": 1910,
      "Currently married women married below 18years of age in percentage DLHS-4": 4.8,
      "Person Illiterates": 212694,
      "Main Workers Household Industry - Females": 1121,
      "Female Literates": 113849,
      "Marginal Workers Cultivators worked for 0 - 3 moths during last year - Males": 3144,
      "Male": "NA",
      "Households with improved source of drinking water in percentage DLHS-4": 34.6,
      "Upper Primary Schools with electricity in percentage DISE": "NA",
      "Households with electricity in percentage DLHS-4": 72.6,
      "Villages with Primary Health Centre within 10km in percentage DLHS-4": "Not available",
      "Births to women aged 15-19years out of Total births in percentage DLHS-4": 2.9,
      "Prevalence of Anaemia in women aged 15-49years in percentage DLHS-4": 71.6,
      "Marginal Workers Agricultural Labourers worked for 3 - 6 moths during last year - Persons": 5183,
      "Main Workers Household Industry - Males": 1054,
      "Scheduled Tribe Females": 201814,
      "Marginal Workers worked for 0 - 3 moths during last year - Males": 4767,
      "Marginal Workers Other worked for 3 - 6 moths during last year - Males": 6002,
      "Primary Net Enrolment Ratio in percentage DISE": "NA",
      "Total": "NA",
      "Mean age at marriage for boys DLHS-4": 25,
      "Number of District Hospitals  DLHS-4": "Not available",
      "0-6 Age Group Females": 29372,
      "Marginal Workers Agricultural Labourers worked for 0 - 3 moths during last year - Persons": 976,
      "Marginal Workers Household Industry worked for 0 - 3 moths during last year - Males": 191,
      "Total Workers  Females": 108436,
      "Marginal Workers worked for 3 - 6 moths during last year - Females": 20057,
      "Institutional Deliveries in percentage DLHS-4": 30.9,
      "Marginal Workers Other - Males": 6982,
      "Total Workers  Males": 122587,
      "Main Workers - Females": 83112,
      "Primary Gross Enrolment Ratio in percentage DISE": "NA",
      "Main Workers Cultivators - Persons": 148867,
      "Marginal Workers Household Industry worked for 0 - 3 moths during last year - Females": 426,
      "Upper Primary Net Enrolment Ratio in percentage DISE": "NA",
      "Primary New Government Schools since 2003 in percentage DISE": "NA",
      "Tier": "Rural",
      "Marginal Workers Household Industry - Females": 1866,
      "Primary Schools with electricity in percentage DISE": "NA",
      "Main Workers Other - Persons": 27722,
      "Marginal Workers Household Industry worked for 3 - 6 moths during last year - Females": 1440,
      "Main Workers Cultivators - Males": 77443,
      "Main Workers Household Industry - Persons": 2175,
      "Marginal Workers Cultivators worked for 0 - 3 moths during last year - Persons": 6531,
      "Scheduled Caste Males": 535,
      "Marginal Workers - Persons": 47231,
      "Deliveries at home conducted by skilled health personnel in percentage DLHS-4": 23.5,
      "Villages with Sub-Health Centres within 3km in percentage DLHS-4": "Not available",
      "Upper Primary New Government Schools since 2003 in percentage DISE": "NA",
      "0-6 Age Group Males": 32947,
      "Primary Schools with drinking water facility in percentage DISE": "NA",
      "Non Workers - Persons": 240649,
      "Person Literates": 258978,
      "State": "MANIPUR",
      "Total Female Population": 228069,
      "Marginal Workers worked for 0 - 3 moths during last year - Persons": 10034,
      "Marginal Workers Cultivators - Females": 13408,
      "Marginal Workers Other - Persons": 13242,
      "Sex Ratio": 936,
      "Scheduled Tribe Persons": 413555,
      "Marginal Workers Household Industry worked for 3 - 6 moths during last year - Males": 723,
      "Marginal Workers Agricultural Labourers - Females": 3790,
      "Mean age at marriage for girls DLHS-4": 22.9,
      "Households with solar energy as main source of lighting  Houselisting and Housing Census Data Tables- District Level , Census of India__4": 680,
      "District": "SENAPATI",
      "Households receiving treated tap water within premises in percentage Houselisting and Housing Census Data Tables- District Level , Census of India__1": 2.751152633,
      "Total Workers  Persons": 231023,
      "Households receiving treated tap water within premises  Houselisting and Housing Census Data Tables- District Level , Census of India__4": 907,
      "Primary Female Teachers in percentage DISE": "NA",
      "Number of Households": 81974,
      "Main Workers Agricultural Labourers - Persons": 5028
    }
  ],
  "Urban": [
    {
      "Marginal Workers Agricultural Labourers - Persons": 12,
      "Marginal Workers Other - Females": 232,
      "Marginal Workers Other worked for 0 - 3 moths during last year - Females": 145,
      "Upper Primary Schools with boys toilet in percentage DISE": "NA",
      "Total Population": 7476,
      "Households with electricity as main source of lighting in percentage Houselisting and Housing Census Data Tables- District Level , Census of India": 99.27583937,
      "Primary Girl's Enrolment in percentage DISE": "NA",
      "Marginal Workers worked for 3 - 6 moths during last year - Males": 285,
      "Prevalence of Acute illness in percentage DLHS-4": "Not available",
      "Main Workers - Persons": 1933,
      "Main Workers Cultivators - Females": 386,
      "Marginal Workers Agricultural Labourers worked for 3 - 6 moths during last year - Females": 1,
      "Marginal Workers Other worked for 0 - 3 moths during last year - Males": 11,
      "Upper Primary Schools with drinking water facility in percentage DISE": "NA",
      "Primary Schools with girls toilet in percentage DISE": "NA",
      "Marginal Workers worked for 3 - 6 moths during last year - Persons": 475,
      "Upper Primary Drop Out Rate in percentage DISE": "NA",
      "Prevalence of Anaemia in pregnant women aged 15-49years in percentage DLHS-4": "Not available",
      "Current use of any modern method of family planning in percentage DLHS-4": "Not available",
      "Marginal Workers Agricultural Labourers - Males": 10,
      "Upper Primary Female Teachers in percentage DISE": "NA",
      "Marginal Workers - Females": 354,
      "Marginal Workers Other worked for 3 - 6 moths during last year - Persons": 205,
      "Main Workers Agricultural Labourers - Females": 4,
      "Marginal Workers Cultivators worked for 3 - 6 moths during last year - Females": 98,
      "Households with no lighting  Houselisting and Housing Census Data Tables- District Level , Census of India__5": 0,
      "Prevalence of Severe Anaemia  in percentage DLHS-4": "Not available",
      "Total unmet need for family planning in percentage DLHS-4": "Not available",
      "Main Workers Other - Males": 687,
      "Children who received full vaccination in percentage DLHS-4": "Not available",
      "Marginal Workers Household Industry - Persons": 13,
      "Primary Pupil-Teacher Ratio in percentage DISE": "NA",
      "Marginal Workers Agricultural Labourers worked for 3 - 6 moths during last year - Males": 8,
      "Scheduled Caste Females": 2,
      "Marginal Workers Cultivators - Males": 165,
      "Marginal Workers - Males": 312,
      "Marginal Workers worked for 0 - 3 moths during last year - Females": 164,
      "Households with main source of drinking water within premises in percentage Houselisting and Housing Census Data Tables- District Level , Census of India": 26.59644503,
      "Marginal Workers Household Industry worked for 3 - 6 moths during last year - Persons": 10,
      "Upper Primary Girl's Enrolment in percentage DISE": "NA",
      "Prevalence of Severe Anaemia in women aged 15-49years in percentage DLHS-4": "Not available",
      "Marginal Workers Agricultural Labourers worked for 0 - 3 moths during last year - Males": 2,
      "Households with electricity as main source of lighting  Houselisting and Housing Census Data Tables- District Level , Census of India__3": 1508,
      "Households with computer or laptop with internet connection in percentage": 2.5,
      "PHCs functioning on a 24x7hours basis in percentage DLHS-4": 0,
      "Non Workers - Males": 2164,
      "Total Households in District Houselisting and Housing Census Data Tables- District Level , Census of India": 1519,
      "Upper Primary Schools with girls toilet in percentage DISE": "NA",
      "Households with mobile phone in percentage": 67.54,
      "Households receiving untreated tap water within premises in percentage Houselisting and Housing Census Data Tables- District Level , Census of India__2": 11.58657011,
      "Marginal Workers Cultivators worked for 3 - 6 moths during last year - Males": 153,
      "Prevalence of Anaemia  in percentage DLHS-4": "Not available",
      "Prevalence of Chronic illness in percentage DLHS-4": "Not available",
      "Households with solar energy as main source of lighting in percentage Houselisting and Housing Census Data Tables- District Level , Census of India__1": 0.0658,
      "Marginal Workers Agricultural Labourers worked for 0 - 3 moths during last year - Females": 1,
      "Main Workers - Males": 1244,
      "Female": "NA",
      "Sno": 1173,
      "Marginal Workers Other worked for 3 - 6 moths during last year - Females": 87,
      "Marginal Workers Cultivators worked for 0 - 3 moths during last year - Females": 17,
      "Scheduled Tribe Males": 2778,
      "Male Illiterates": 837,
      "Prevalence of Severe Anaemia in pregnant women aged 15-49years in percentage DLHS-4": "Not available",
      "0-6 Age Group Persons": 1016,
      "Upper Primary Student-Classroom Ratio in percentage DISE": "NA",
      "Currently married men married below 21years of age in percentage DLHS-4": "Not available",
      "Male Literates": 2883,
      "Households with no lighting in percentage Houselisting and Housing Census Data Tables- District Level , Census of India__2": 0,
      "Primary Drop Out Rate in percentage DISE": "NA",
      "Marginal Workers Household Industry - Males": 8,
      "Female Illiterates": 1140,
      "Main Workers Other - Females": 295,
      "Marginal Workers Cultivators - Persons": 280,
      "Upper Primary Gross Enrolment Ratio in percentage DISE": "NA",
      "Scheduled Caste Persons": 3,
      "Marginal Workers Cultivators worked for 3 - 6 moths during last year - Persons": 251,
      "Households with landline phone in percentage": 2.24,
      "Total Households in District  Houselisting and Housing Census Data Tables- District Level , Census of India": 1519,
      "Upper Primary Pupil-Teacher Ratio in percentage DISE": "NA",
      "Primary Student-Classroom Ratio in percentage DISE": "NA",
      "Primary Schools with boys toilet in percentage DISE": "NA",
      "Mean number of children ever born to women aged 40-49years  DLHS-4": "Not available",
      "Households receiving untreated tap water within premises  Houselisting and Housing Census Data Tables- District Level , Census of India__5": 176,
      "Marginal Workers Household Industry worked for 0 - 3 moths during last year - Persons": 3,
      "Total Male Population": 3720,
      "Non Workers - Females": 2713,
      "Current use of family planning methods in percentage DLHS-4": "Not available",
      "Households with main source of drinking water within premises  Houselisting and Housing Census Data Tables- District Level , Census of India__3": 404,
      "Main Workers Agricultural Labourers - Males": 7,
      "Marginal Workers Other worked for 0 - 3 moths during last year - Persons": 156,
      "Currently married women married below 18years of age in percentage DLHS-4": "Not available",
      "Person Illiterates": 1977,
      "Main Workers Household Industry - Females": 4,
      "Female Literates": 2616,
      "Marginal Workers Cultivators worked for 0 - 3 moths during last year - Males": 12,
      "Male": "NA",
      "Households with improved source of drinking water in percentage DLHS-4": "Not available",
      "Upper Primary Schools with electricity in percentage DISE": "NA",
      "Households with electricity in percentage DLHS-4": "Not available",
      "Villages with Primary Health Centre within 10km in percentage DLHS-4": 0,
      "Births to women aged 15-19years out of Total births in percentage DLHS-4": "Not available",
      "Prevalence of Anaemia in women aged 15-49years in percentage DLHS-4": "Not available",
      "Marginal Workers Agricultural Labourers worked for 3 - 6 moths during last year - Persons": 9,
      "Main Workers Household Industry - Males": 6,
      "Scheduled Tribe Females": 2877,
      "Marginal Workers worked for 0 - 3 moths during last year - Males": 27,
      "Marginal Workers Other worked for 3 - 6 moths during last year - Males": 118,
      "Primary Net Enrolment Ratio in percentage DISE": "NA",
      "Total": "NA",
      "Mean age at marriage for boys DLHS-4": "Not available",
      "Number of District Hospitals  DLHS-4": 0,
      "0-6 Age Group Females": 500,
      "Marginal Workers Agricultural Labourers worked for 0 - 3 moths during last year - Persons": 3,
      "Marginal Workers Household Industry worked for 0 - 3 moths during last year - Males": 2,
      "Total Workers  Females": 1043,
      "Marginal Workers worked for 3 - 6 moths during last year - Females": 190,
      "Institutional Deliveries in percentage DLHS-4": "Not available",
      "Marginal Workers Other - Males": 129,
      "Total Workers  Males": 1556,
      "Main Workers - Females": 689,
      "Primary Gross Enrolment Ratio in percentage DISE": "NA",
      "Main Workers Cultivators - Persons": 930,
      "Marginal Workers Household Industry worked for 0 - 3 moths during last year - Females": 1,
      "Upper Primary Net Enrolment Ratio in percentage DISE": "NA",
      "Primary New Government Schools since 2003 in percentage DISE": "NA",
      "Tier": "Urban",
      "Marginal Workers Household Industry - Females": 5,
      "Primary Schools with electricity in percentage DISE": "NA",
      "Main Workers Other - Persons": 982,
      "Marginal Workers Household Industry worked for 3 - 6 moths during last year - Females": 4,
      "Main Workers Cultivators - Males": 544,
      "Main Workers Household Industry - Persons": 10,
      "Marginal Workers Cultivators worked for 0 - 3 moths during last year - Persons": 29,
      "Scheduled Caste Males": 1,
      "Marginal Workers - Persons": 666,
      "Deliveries at home conducted by skilled health personnel in percentage DLHS-4": "Not available",
      "Villages with Sub-Health Centres within 3km in percentage DLHS-4": 0,
      "Upper Primary New Government Schools since 2003 in percentage DISE": "NA",
      "0-6 Age Group Males": 516,
      "Primary Schools with drinking water facility in percentage DISE": "NA",
      "Non Workers - Persons": 4877,
      "Person Literates": 5499,
      "State": "MANIPUR",
      "Total Female Population": 3756,
      "Marginal Workers worked for 0 - 3 moths during last year - Persons": 191,
      "Marginal Workers Cultivators - Females": 115,
      "Marginal Workers Other - Persons": 361,
      "Sex Ratio": 1010,
      "Scheduled Tribe Persons": 5655,
      "Marginal Workers Household Industry worked for 3 - 6 moths during last year - Males": 6,
      "Marginal Workers Agricultural Labourers - Females": 2,
      "Mean age at marriage for girls DLHS-4": "Not available",
      "Households with solar energy as main source of lighting  Houselisting and Housing Census Data Tables- District Level , Census of India__4": 1,
      "District": "SENAPATI",
      "Households receiving treated tap water within premises in percentage Houselisting and Housing Census Data Tables- District Level , Census of India__1": 11.25740619,
      "Total Workers  Persons": 2599,
      "Households receiving treated tap water within premises  Houselisting and Housing Census Data Tables- District Level , Census of India__4": 171,
      "Primary Female Teachers in percentage DISE": "NA",
      "Number of Households": 1437,
      "Main Workers Agricultural Labourers - Persons": 11
    }
  ]
}