{
  "Total": [
    {
      "Marginal Workers Agricultural Labourers - Persons": 2310,
      "Marginal Workers Other - Females": 3003,
      "Marginal Workers Other worked for 0 - 3 moths during last year - Females": 590,
      "Upper Primary Schools with boys toilet in percentage DISE": 100,
      "Total Population": 183998,
      "Households with electricity as main source of lighting in percentage Houselisting and Housing Census Data Tables- District Level , Census of India": 39.1897178,
      "Primary Girl's Enrolment in percentage DISE": 49,
      "Marginal Workers worked for 3 - 6 moths during last year - Males": 6466,
      "Prevalence of Acute illness in percentage DLHS-4": 13,
      "Main Workers - Persons": 67724,
      "Main Workers Cultivators - Females": 23515,
      "Marginal Workers Agricultural Labourers worked for 3 - 6 moths during last year - Females": 775,
      "Marginal Workers Other worked for 0 - 3 moths during last year - Males": 566,
      "Upper Primary Schools with drinking water facility in percentage DISE": 100,
      "Primary Schools with girls toilet in percentage DISE": 100,
      "Marginal Workers worked for 3 - 6 moths during last year - Persons": 14494,
      "Upper Primary Drop Out Rate in percentage DISE": 15.76,
      "Prevalence of Anaemia in pregnant women aged 15-49years in percentage DLHS-4": 70.1,
      "Current use of any modern method of family planning in percentage DLHS-4": 7.2,
      "Marginal Workers Agricultural Labourers - Males": 1038,
      "Upper Primary Female Teachers in percentage DISE": 36.4,
      "Marginal Workers - Females": 11008,
      "Marginal Workers Other worked for 3 - 6 moths during last year - Persons": 4959,
      "Main Workers Agricultural Labourers - Females": 744,
      "Marginal Workers Cultivators worked for 3 - 6 moths during last year - Females": 4308,
      "Households with no lighting  Houselisting and Housing Census Data Tables- District Level , Census of India__5": 659,
      "Prevalence of Severe Anaemia  in percentage DLHS-4": 1.7,
      "Total unmet need for family planning in percentage DLHS-4": 60.5,
      "Main Workers Other - Males": 13436,
      "Children who received full vaccination in percentage DLHS-4": 33.8,
      "Marginal Workers Household Industry - Persons": 1054,
      "Primary Pupil-Teacher Ratio in percentage DISE": 11,
      "Marginal Workers Agricultural Labourers worked for 3 - 6 moths during last year - Males": 599,
      "Scheduled Caste Females": 88,
      "Marginal Workers Cultivators - Males": 4703,
      "Marginal Workers - Males": 9197,
      "Marginal Workers worked for 0 - 3 moths during last year - Females": 2980,
      "Households with main source of drinking water within premises in percentage Houselisting and Housing Census Data Tables- District Level , Census of India": 10.47499301,
      "Marginal Workers Household Industry worked for 3 - 6 moths during last year - Persons": 740,
      "Upper Primary Girl's Enrolment in percentage DISE": 60.3,
      "Prevalence of Severe Anaemia in women aged 15-49years in percentage DLHS-4": 2.4,
      "Marginal Workers Agricultural Labourers worked for 0 - 3 moths during last year - Males": 439,
      "Households with electricity as main source of lighting  Houselisting and Housing Census Data Tables- District Level , Census of India__3": 14026,
      "Households with computer or laptop with internet connection in percentage": 0.77,
      "PHCs functioning on a 24x7hours basis in percentage DLHS-4": 50,
      "Non Workers - Males": 48185,
      "Total Households in District Houselisting and Housing Census Data Tables- District Level , Census of India": 35790,
      "Upper Primary Schools with girls toilet in percentage DISE": 100,
      "Households with mobile phone in percentage": 31.4,
      "Households receiving untreated tap water within premises in percentage Houselisting and Housing Census Data Tables- District Level , Census of India__2": 4.654931545,
      "Marginal Workers Cultivators worked for 3 - 6 moths during last year - Males": 3113,
      "Prevalence of Anaemia  in percentage DLHS-4": 79.3,
      "Prevalence of Chronic illness in percentage DLHS-4": 8.7,
      "Households with solar energy as main source of lighting in percentage Houselisting and Housing Census Data Tables- District Level , Census of India__1": 2.99525007,
      "Marginal Workers Agricultural Labourers worked for 0 - 3 moths during last year - Females": 497,
      "Main Workers - Males": 37336,
      "Female": 76.95,
      "Sno": 1181,
      "Marginal Workers Other worked for 3 - 6 moths during last year - Females": 2413,
      "Marginal Workers Cultivators worked for 0 - 3 moths during last year - Females": 1715,
      "Scheduled Tribe Males": 87970,
      "Male Illiterates": 24570,
      "Prevalence of Severe Anaemia in pregnant women aged 15-49years in percentage DLHS-4": 2.4,
      "0-6 Age Group Persons": 24413,
      "Upper Primary Student-Classroom Ratio in percentage DISE": 18,
      "Currently married men married below 21years of age in percentage DLHS-4": 5.7,
      "Male Literates": 70148,
      "Households with no lighting in percentage Houselisting and Housing Census Data Tables- District Level , Census of India__2": 1.841296452,
      "Primary Drop Out Rate in percentage DISE": 22.2,
      "Marginal Workers Household Industry - Males": 344,
      "Female Illiterates": 29599,
      "Main Workers Other - Females": 5478,
      "Marginal Workers Cultivators - Persons": 10726,
      "Upper Primary Gross Enrolment Ratio in percentage DISE": 78.9,
      "Scheduled Caste Persons": 248,
      "Marginal Workers Cultivators worked for 3 - 6 moths during last year - Persons": 7421,
      "Households with landline phone in percentage": 1.15,
      "Total Households in District  Houselisting and Housing Census Data Tables- District Level , Census of India": 35790,
      "Upper Primary Pupil-Teacher Ratio in percentage DISE": 17,
      "Primary Student-Classroom Ratio in percentage DISE": 13,
      "Primary Schools with boys toilet in percentage DISE": 100,
      "Mean number of children ever born to women aged 40-49years  DLHS-4": 3.8,
      "Households receiving untreated tap water within premises  Houselisting and Housing Census Data Tables- District Level , Census of India__5": 1666,
      "Marginal Workers Household Industry worked for 0 - 3 moths during last year - Persons": 314,
      "Total Male Population": 94718,
      "Non Workers - Females": 47884,
      "Current use of family planning methods in percentage DLHS-4": 15.7,
      "Households with main source of drinking water within premises  Houselisting and Housing Census Data Tables- District Level , Census of India__3": 3749,
      "Main Workers Agricultural Labourers - Males": 798,
      "Marginal Workers Other worked for 0 - 3 moths during last year - Persons": 1156,
      "Currently married women married below 18years of age in percentage DLHS-4": 6.5,
      "Person Illiterates": 54169,
      "Main Workers Household Industry - Females": 651,
      "Female Literates": 59681,
      "Marginal Workers Cultivators worked for 0 - 3 moths during last year - Males": 1590,
      "Male": 85.52,
      "Households with improved source of drinking water in percentage DLHS-4": 51,
      "Upper Primary Schools with electricity in percentage DISE": 0,
      "Households with electricity in percentage DLHS-4": 41.2,
      "Villages with Primary Health Centre within 10km in percentage DLHS-4": 61.8,
      "Births to women aged 15-19years out of Total births in percentage DLHS-4": 0.8,
      "Prevalence of Anaemia in women aged 15-49years in percentage DLHS-4": 58.2,
      "Marginal Workers Agricultural Labourers worked for 3 - 6 moths during last year - Persons": 1374,
      "Main Workers Household Industry - Males": 528,
      "Scheduled Tribe Females": 85636,
      "Marginal Workers worked for 0 - 3 moths during last year - Males": 2731,
      "Marginal Workers Other worked for 3 - 6 moths during last year - Males": 2546,
      "Primary Net Enrolment Ratio in percentage DISE": 82.1,
      "Total": 81.35,
      "Mean age at marriage for boys DLHS-4": 27.9,
      "Number of District Hospitals  DLHS-4": 1,
      "0-6 Age Group Females": 11720,
      "Marginal Workers Agricultural Labourers worked for 0 - 3 moths during last year - Persons": 936,
      "Marginal Workers Household Industry worked for 0 - 3 moths during last year - Males": 136,
      "Total Workers  Females": 41396,
      "Marginal Workers worked for 3 - 6 moths during last year - Females": 8028,
      "Institutional Deliveries in percentage DLHS-4": 32.7,
      "Marginal Workers Other - Males": 3112,
      "Total Workers  Males": 46533,
      "Main Workers - Females": 30388,
      "Primary Gross Enrolment Ratio in percentage DISE": 162.7,
      "Main Workers Cultivators - Persons": 46089,
      "Marginal Workers Household Industry worked for 0 - 3 moths during last year - Females": 178,
      "Upper Primary Net Enrolment Ratio in percentage DISE": 73.1,
      "Primary New Government Schools since 2003 in percentage DISE": 25.2,
      "Tier": "Total",
      "Marginal Workers Household Industry - Females": 710,
      "Primary Schools with electricity in percentage DISE": 2.6,
      "Main Workers Other - Persons": 18914,
      "Marginal Workers Household Industry worked for 3 - 6 moths during last year - Females": 532,
      "Main Workers Cultivators - Males": 22574,
      "Main Workers Household Industry - Persons": 1179,
      "Marginal Workers Cultivators worked for 0 - 3 moths during last year - Persons": 3305,
      "Scheduled Caste Males": 160,
      "Marginal Workers - Persons": 20205,
      "Deliveries at home conducted by skilled health personnel in percentage DLHS-4": 12.4,
      "Villages with Sub-Health Centres within 3km in percentage DLHS-4": 64.7,
      "Upper Primary New Government Schools since 2003 in percentage DISE": 50,
      "0-6 Age Group Males": 12693,
      "Primary Schools with drinking water facility in percentage DISE": 53.5,
      "Non Workers - Persons": 96069,
      "Person Literates": 129829,
      "State": "MANIPUR",
      "Total Female Population": 89280,
      "Marginal Workers worked for 0 - 3 moths during last year - Persons": 5711,
      "Marginal Workers Cultivators - Females": 6023,
      "Marginal Workers Other - Persons": 6115,
      "Sex Ratio": 943,
      "Scheduled Tribe Persons": 173606,
      "Marginal Workers Household Industry worked for 3 - 6 moths during last year - Males": 208,
      "Marginal Workers Agricultural Labourers - Females": 1272,
      "Mean age at marriage for girls DLHS-4": 23.3,
      "Households with solar energy as main source of lighting  Houselisting and Housing Census Data Tables- District Level , Census of India__4": 1072,
      "District": "UKHRUL",
      "Households receiving treated tap water within premises in percentage Houselisting and Housing Census Data Tables- District Level , Census of India__1": 5.258452082,
      "Total Workers  Persons": 87929,
      "Households receiving treated tap water within premises  Houselisting and Housing Census Data Tables- District Level , Census of India__4": 1882,
      "Primary Female Teachers in percentage DISE": 44.2,
      "Number of Households": 35694,
      "Main Workers Agricultural Labourers - Persons": 1542
    }
  ],
  "Rural": [
    {
      "Marginal Workers Agricultural Labourers - Persons": 2121,
      "Marginal Workers Other - Females": 2200,
      "Marginal Workers Other worked for 0 - 3 moths during last year - Females": 371,
      "Upper Primary Schools with boys toilet in percentage DISE": "NA",
      "Total Population": 156811,
      "Households with electricity as main source of lighting in percentage Houselisting and Housing Census Data Tables- District Level , Census of India": 35.08840101,
      "Primary Girl's Enrolment in percentage DISE": "NA",
      "Marginal Workers worked for 3 - 6 moths during last year - Males": 5471,
      "Prevalence of Acute illness in percentage DLHS-4": 14.1,
      "Main Workers - Persons": 59645,
      "Main Workers Cultivators - Females": 22536,
      "Marginal Workers Agricultural Labourers worked for 3 - 6 moths during last year - Females": 702,
      "Marginal Workers Other worked for 0 - 3 moths during last year - Males": 431,
      "Upper Primary Schools with drinking water facility in percentage DISE": "NA",
      "Primary Schools with girls toilet in percentage DISE": "NA",
      "Marginal Workers worked for 3 - 6 moths during last year - Persons": 12321,
      "Upper Primary Drop Out Rate in percentage DISE": "NA",
      "Prevalence of Anaemia in pregnant women aged 15-49years in percentage DLHS-4": 73.6,
      "Current use of any modern method of family planning in percentage DLHS-4": 6.2,
      "Marginal Workers Agricultural Labourers - Males": 959,
      "Upper Primary Female Teachers in percentage DISE": "NA",
      "Marginal Workers - Females": 9395,
      "Marginal Workers Other worked for 3 - 6 moths during last year - Persons": 3821,
      "Main Workers Agricultural Labourers - Females": 646,
      "Marginal Workers Cultivators worked for 3 - 6 moths during last year - Females": 3848,
      "Households with no lighting  Houselisting and Housing Census Data Tables- District Level , Census of India__5": 565,
      "Prevalence of Severe Anaemia  in percentage DLHS-4": 1.7,
      "Total unmet need for family planning in percentage DLHS-4": 50.1,
      "Main Workers Other - Males": 9590,
      "Children who received full vaccination in percentage DLHS-4": 33.9,
      "Marginal Workers Household Industry - Persons": 808,
      "Primary Pupil-Teacher Ratio in percentage DISE": "NA",
      "Marginal Workers Agricultural Labourers worked for 3 - 6 moths during last year - Males": 535,
      "Scheduled Caste Females": 54,
      "Marginal Workers Cultivators - Males": 4260,
      "Marginal Workers - Males": 7884,
      "Marginal Workers worked for 0 - 3 moths during last year - Females": 2545,
      "Households with main source of drinking water within premises in percentage Houselisting and Housing Census Data Tables- District Level , Census of India": 6.732076938,
      "Marginal Workers Household Industry worked for 3 - 6 moths during last year - Persons": 646,
      "Upper Primary Girl's Enrolment in percentage DISE": "NA",
      "Prevalence of Severe Anaemia in women aged 15-49years in percentage DLHS-4": 2.8,
      "Marginal Workers Agricultural Labourers worked for 0 - 3 moths during last year - Males": 424,
      "Households with electricity as main source of lighting  Houselisting and Housing Census Data Tables- District Level , Census of India__3": 10836,
      "Households with computer or laptop with internet connection in percentage": 0.62,
      "PHCs functioning on a 24x7hours basis in percentage DLHS-4": "Not applicable",
      "Non Workers - Males": 40418,
      "Total Households in District Houselisting and Housing Census Data Tables- District Level , Census of India": 30882,
      "Upper Primary Schools with girls toilet in percentage DISE": "NA",
      "Households with mobile phone in percentage": 27.58,
      "Households receiving untreated tap water within premises in percentage Houselisting and Housing Census Data Tables- District Level , Census of India__2": 4.403859854,
      "Marginal Workers Cultivators worked for 3 - 6 moths during last year - Males": 2769,
      "Prevalence of Anaemia  in percentage DLHS-4": 80.9,
      "Prevalence of Chronic illness in percentage DLHS-4": 9,
      "Households with solar energy as main source of lighting in percentage Houselisting and Housing Census Data Tables- District Level , Census of India__1": 3.030891782,
      "Marginal Workers Agricultural Labourers worked for 0 - 3 moths during last year - Females": 460,
      "Main Workers - Males": 32499,
      "Female": "NA",
      "Sno": 1180,
      "Marginal Workers Other worked for 3 - 6 moths during last year - Females": 1829,
      "Marginal Workers Cultivators worked for 0 - 3 moths during last year - Females": 1619,
      "Scheduled Tribe Males": 75970,
      "Male Illiterates": 21823,
      "Prevalence of Severe Anaemia in pregnant women aged 15-49years in percentage DLHS-4": 2.7,
      "0-6 Age Group Persons": 21050,
      "Upper Primary Student-Classroom Ratio in percentage DISE": "NA",
      "Currently married men married below 21years of age in percentage DLHS-4": 5.3,
      "Male Literates": 58978,
      "Households with no lighting in percentage Houselisting and Housing Census Data Tables- District Level , Census of India__2": 1.829544719,
      "Primary Drop Out Rate in percentage DISE": "NA",
      "Marginal Workers Household Industry - Males": 242,
      "Female Illiterates": 26344,
      "Main Workers Other - Females": 3496,
      "Marginal Workers Cultivators - Persons": 9727,
      "Upper Primary Gross Enrolment Ratio in percentage DISE": "NA",
      "Scheduled Caste Persons": 154,
      "Marginal Workers Cultivators worked for 3 - 6 moths during last year - Persons": 6617,
      "Households with landline phone in percentage": 1.09,
      "Total Households in District  Houselisting and Housing Census Data Tables- District Level , Census of India": 30882,
      "Upper Primary Pupil-Teacher Ratio in percentage DISE": "NA",
      "Primary Student-Classroom Ratio in percentage DISE": "NA",
      "Primary Schools with boys toilet in percentage DISE": "NA",
      "Mean number of children ever born to women aged 40-49years  DLHS-4": 3.7,
      "Households receiving untreated tap water within premises  Houselisting and Housing Census Data Tables- District Level , Census of India__5": 1360,
      "Marginal Workers Household Industry worked for 0 - 3 moths during last year - Persons": 162,
      "Total Male Population": 80801,
      "Non Workers - Females": 39469,
      "Current use of family planning methods in percentage DLHS-4": 14.1,
      "Households with main source of drinking water within premises  Houselisting and Housing Census Data Tables- District Level , Census of India__3": 2079,
      "Main Workers Agricultural Labourers - Males": 725,
      "Marginal Workers Other worked for 0 - 3 moths during last year - Persons": 802,
      "Currently married women married below 18years of age in percentage DLHS-4": 6.9,
      "Person Illiterates": 48167,
      "Main Workers Household Industry - Females": 468,
      "Female Literates": 49666,
      "Marginal Workers Cultivators worked for 0 - 3 moths during last year - Males": 1491,
      "Male": "NA",
      "Households with improved source of drinking water in percentage DLHS-4": 49,
      "Upper Primary Schools with electricity in percentage DISE": "NA",
      "Households with electricity in percentage DLHS-4": 41.9,
      "Villages with Primary Health Centre within 10km in percentage DLHS-4": "Not applicable",
      "Births to women aged 15-19years out of Total births in percentage DLHS-4": 0.9,
      "Prevalence of Anaemia in women aged 15-49years in percentage DLHS-4": 65.2,
      "Marginal Workers Agricultural Labourers worked for 3 - 6 moths during last year - Persons": 1237,
      "Main Workers Household Industry - Males": 423,
      "Scheduled Tribe Females": 73531,
      "Marginal Workers worked for 0 - 3 moths during last year - Males": 2413,
      "Marginal Workers Other worked for 3 - 6 moths during last year - Males": 1992,
      "Primary Net Enrolment Ratio in percentage DISE": "NA",
      "Total": "NA",
      "Mean age at marriage for boys DLHS-4": 28,
      "Number of District Hospitals  DLHS-4": "Not applicable",
      "0-6 Age Group Females": 10090,
      "Marginal Workers Agricultural Labourers worked for 0 - 3 moths during last year - Persons": 884,
      "Marginal Workers Household Industry worked for 0 - 3 moths during last year - Males": 67,
      "Total Workers  Females": 36541,
      "Marginal Workers worked for 3 - 6 moths during last year - Females": 6850,
      "Institutional Deliveries in percentage DLHS-4": 26.9,
      "Marginal Workers Other - Males": 2423,
      "Total Workers  Males": 40383,
      "Main Workers - Females": 27146,
      "Primary Gross Enrolment Ratio in percentage DISE": "NA",
      "Main Workers Cultivators - Persons": 44297,
      "Marginal Workers Household Industry worked for 0 - 3 moths during last year - Females": 95,
      "Upper Primary Net Enrolment Ratio in percentage DISE": "NA",
      "Primary New Government Schools since 2003 in percentage DISE": "NA",
      "Tier": "Rural",
      "Marginal Workers Household Industry - Females": 566,
      "Primary Schools with electricity in percentage DISE": "NA",
      "Main Workers Other - Persons": 13086,
      "Marginal Workers Household Industry worked for 3 - 6 moths during last year - Females": 471,
      "Main Workers Cultivators - Males": 21761,
      "Main Workers Household Industry - Persons": 891,
      "Marginal Workers Cultivators worked for 0 - 3 moths during last year - Persons": 3110,
      "Scheduled Caste Males": 100,
      "Marginal Workers - Persons": 17279,
      "Deliveries at home conducted by skilled health personnel in percentage DLHS-4": 13.2,
      "Villages with Sub-Health Centres within 3km in percentage DLHS-4": "Not applicable",
      "Upper Primary New Government Schools since 2003 in percentage DISE": "NA",
      "0-6 Age Group Males": 10960,
      "Primary Schools with drinking water facility in percentage DISE": "NA",
      "Non Workers - Persons": 79887,
      "Person Literates": 108644,
      "State": "MANIPUR",
      "Total Female Population": 76010,
      "Marginal Workers worked for 0 - 3 moths during last year - Persons": 4958,
      "Marginal Workers Cultivators - Females": 5467,
      "Marginal Workers Other - Persons": 4623,
      "Sex Ratio": 941,
      "Scheduled Tribe Persons": 149501,
      "Marginal Workers Household Industry worked for 3 - 6 moths during last year - Males": 175,
      "Marginal Workers Agricultural Labourers - Females": 1162,
      "Mean age at marriage for girls DLHS-4": 23.3,
      "Households with solar energy as main source of lighting  Houselisting and Housing Census Data Tables- District Level , Census of India__4": 936,
      "District": "UKHRUL",
      "Households receiving treated tap water within premises in percentage Houselisting and Housing Census Data Tables- District Level , Census of India__1": 1.978498802,
      "Total Workers  Persons": 76924,
      "Households receiving treated tap water within premises  Houselisting and Housing Census Data Tables- District Level , Census of India__4": 611,
      "Primary Female Teachers in percentage DISE": "NA",
      "Number of Households": 30468,
      "Main Workers Agricultural Labourers - Persons": 1371
    }
  ],
  "Urban": [
    {
      "Marginal Workers Agricultural Labourers - Persons": 189,
      "Marginal Workers Other - Females": 803,
      "Marginal Workers Other worked for 0 - 3 moths during last year - Females": 219,
      "Upper Primary Schools with boys toilet in percentage DISE": "NA",
      "Total Population": 27187,
      "Households with electricity as main source of lighting in percentage Houselisting and Housing Census Data Tables- District Level , Census of India": 64.99592502,
      "Primary Girl's Enrolment in percentage DISE": "NA",
      "Marginal Workers worked for 3 - 6 moths during last year - Males": 995,
      "Prevalence of Acute illness in percentage DLHS-4": "Not available",
      "Main Workers - Persons": 8079,
      "Main Workers Cultivators - Females": 979,
      "Marginal Workers Agricultural Labourers worked for 3 - 6 moths during last year - Females": 73,
      "Marginal Workers Other worked for 0 - 3 moths during last year - Males": 135,
      "Upper Primary Schools with drinking water facility in percentage DISE": "NA",
      "Primary Schools with girls toilet in percentage DISE": "NA",
      "Marginal Workers worked for 3 - 6 moths during last year - Persons": 2173,
      "Upper Primary Drop Out Rate in percentage DISE": "NA",
      "Prevalence of Anaemia in pregnant women aged 15-49years in percentage DLHS-4": "Not available",
      "Current use of any modern method of family planning in percentage DLHS-4": "Not available",
      "Marginal Workers Agricultural Labourers - Males": 79,
      "Upper Primary Female Teachers in percentage DISE": "NA",
      "Marginal Workers - Females": 1613,
      "Marginal Workers Other worked for 3 - 6 moths during last year - Persons": 1138,
      "Main Workers Agricultural Labourers - Females": 98,
      "Marginal Workers Cultivators worked for 3 - 6 moths during last year - Females": 460,
      "Households with no lighting  Houselisting and Housing Census Data Tables- District Level , Census of India__5": 94,
      "Prevalence of Severe Anaemia  in percentage DLHS-4": "Not available",
      "Total unmet need for family planning in percentage DLHS-4": "Not available",
      "Main Workers Other - Males": 3846,
      "Children who received full vaccination in percentage DLHS-4": "Not available",
      "Marginal Workers Household Industry - Persons": 246,
      "Primary Pupil-Teacher Ratio in percentage DISE": "NA",
      "Marginal Workers Agricultural Labourers worked for 3 - 6 moths during last year - Males": 64,
      "Scheduled Caste Females": 34,
      "Marginal Workers Cultivators - Males": 443,
      "Marginal Workers - Males": 1313,
      "Marginal Workers worked for 0 - 3 moths during last year - Females": 435,
      "Households with main source of drinking water within premises in percentage Houselisting and Housing Census Data Tables- District Level , Census of India": 34.02607987,
      "Marginal Workers Household Industry worked for 3 - 6 moths during last year - Persons": 94,
      "Upper Primary Girl's Enrolment in percentage DISE": "NA",
      "Prevalence of Severe Anaemia in women aged 15-49years in percentage DLHS-4": "Not available",
      "Marginal Workers Agricultural Labourers worked for 0 - 3 moths during last year - Males": 15,
      "Households with electricity as main source of lighting  Houselisting and Housing Census Data Tables- District Level , Census of India__3": 3190,
      "Households with computer or laptop with internet connection in percentage": 1.73,
      "PHCs functioning on a 24x7hours basis in percentage DLHS-4": 0,
      "Non Workers - Males": 7767,
      "Total Households in District Houselisting and Housing Census Data Tables- District Level , Census of India": 4908,
      "Upper Primary Schools with girls toilet in percentage DISE": "NA",
      "Households with mobile phone in percentage": 55.46,
      "Households receiving untreated tap water within premises in percentage Houselisting and Housing Census Data Tables- District Level , Census of India__2": 6.234718826,
      "Marginal Workers Cultivators worked for 3 - 6 moths during last year - Males": 344,
      "Prevalence of Anaemia  in percentage DLHS-4": "Not available",
      "Prevalence of Chronic illness in percentage DLHS-4": "Not available",
      "Households with solar energy as main source of lighting in percentage Houselisting and Housing Census Data Tables- District Level , Census of India__1": 2.770986145,
      "Marginal Workers Agricultural Labourers worked for 0 - 3 moths during last year - Females": 37,
      "Main Workers - Males": 4837,
      "Female": "NA",
      "Sno": 1182,
      "Marginal Workers Other worked for 3 - 6 moths during last year - Females": 584,
      "Marginal Workers Cultivators worked for 0 - 3 moths during last year - Females": 96,
      "Scheduled Tribe Males": 12000,
      "Male Illiterates": 2747,
      "Prevalence of Severe Anaemia in pregnant women aged 15-49years in percentage DLHS-4": "Not available",
      "0-6 Age Group Persons": 3363,
      "Upper Primary Student-Classroom Ratio in percentage DISE": "NA",
      "Currently married men married below 21years of age in percentage DLHS-4": "Not available",
      "Male Literates": 11170,
      "Households with no lighting in percentage Houselisting and Housing Census Data Tables- District Level , Census of India__2": 1.915240424,
      "Primary Drop Out Rate in percentage DISE": "NA",
      "Marginal Workers Household Industry - Males": 102,
      "Female Illiterates": 3255,
      "Main Workers Other - Females": 1982,
      "Marginal Workers Cultivators - Persons": 999,
      "Upper Primary Gross Enrolment Ratio in percentage DISE": "NA",
      "Scheduled Caste Persons": 94,
      "Marginal Workers Cultivators worked for 3 - 6 moths during last year - Persons": 804,
      "Households with landline phone in percentage": 1.55,
      "Total Households in District  Houselisting and Housing Census Data Tables- District Level , Census of India": 4908,
      "Upper Primary Pupil-Teacher Ratio in percentage DISE": "NA",
      "Primary Student-Classroom Ratio in percentage DISE": "NA",
      "Primary Schools with boys toilet in percentage DISE": "NA",
      "Mean number of children ever born to women aged 40-49years  DLHS-4": "Not available",
      "Households receiving untreated tap water within premises  Houselisting and Housing Census Data Tables- District Level , Census of India__5": 306,
      "Marginal Workers Household Industry worked for 0 - 3 moths during last year - Persons": 152,
      "Total Male Population": 13917,
      "Non Workers - Females": 8415,
      "Current use of family planning methods in percentage DLHS-4": "Not available",
      "Households with main source of drinking water within premises  Houselisting and Housing Census Data Tables- District Level , Census of India__3": 1670,
      "Main Workers Agricultural Labourers - Males": 73,
      "Marginal Workers Other worked for 0 - 3 moths during last year - Persons": 354,
      "Currently married women married below 18years of age in percentage DLHS-4": "Not available",
      "Person Illiterates": 6002,
      "Main Workers Household Industry - Females": 183,
      "Female Literates": 10015,
      "Marginal Workers Cultivators worked for 0 - 3 moths during last year - Males": 99,
      "Male": "NA",
      "Households with improved source of drinking water in percentage DLHS-4": "Not available",
      "Upper Primary Schools with electricity in percentage DISE": "NA",
      "Households with electricity in percentage DLHS-4": "Not available",
      "Villages with Primary Health Centre within 10km in percentage DLHS-4": 0,
      "Births to women aged 15-19years out of Total births in percentage DLHS-4": "Not available",
      "Prevalence of Anaemia in women aged 15-49years in percentage DLHS-4": "Not available",
      "Marginal Workers Agricultural Labourers worked for 3 - 6 moths during last year - Persons": 137,
      "Main Workers Household Industry - Males": 105,
      "Scheduled Tribe Females": 12105,
      "Marginal Workers worked for 0 - 3 moths during last year - Males": 318,
      "Marginal Workers Other worked for 3 - 6 moths during last year - Males": 554,
      "Primary Net Enrolment Ratio in percentage DISE": "NA",
      "Total": "NA",
      "Mean age at marriage for boys DLHS-4": "Not available",
      "Number of District Hospitals  DLHS-4": 0,
      "0-6 Age Group Females": 1630,
      "Marginal Workers Agricultural Labourers worked for 0 - 3 moths during last year - Persons": 52,
      "Marginal Workers Household Industry worked for 0 - 3 moths during last year - Males": 69,
      "Total Workers  Females": 4855,
      "Marginal Workers worked for 3 - 6 moths during last year - Females": 1178,
      "Institutional Deliveries in percentage DLHS-4": "Not available",
      "Marginal Workers Other - Males": 689,
      "Total Workers  Males": 6150,
      "Main Workers - Females": 3242,
      "Primary Gross Enrolment Ratio in percentage DISE": "NA",
      "Main Workers Cultivators - Persons": 1792,
      "Marginal Workers Household Industry worked for 0 - 3 moths during last year - Females": 83,
      "Upper Primary Net Enrolment Ratio in percentage DISE": "NA",
      "Primary New Government Schools since 2003 in percentage DISE": "NA",
      "Tier": "Urban",
      "Marginal Workers Household Industry - Females": 144,
      "Primary Schools with electricity in percentage DISE": "NA",
      "Main Workers Other - Persons": 5828,
      "Marginal Workers Household Industry worked for 3 - 6 moths during last year - Females": 61,
      "Main Workers Cultivators - Males": 813,
      "Main Workers Household Industry - Persons": 288,
      "Marginal Workers Cultivators worked for 0 - 3 moths during last year - Persons": 195,
      "Scheduled Caste Males": 60,
      "Marginal Workers - Persons": 2926,
      "Deliveries at home conducted by skilled health personnel in percentage DLHS-4": "Not available",
      "Villages with Sub-Health Centres within 3km in percentage DLHS-4": 0,
      "Upper Primary New Government Schools since 2003 in percentage DISE": "NA",
      "0-6 Age Group Males": 1733,
      "Primary Schools with drinking water facility in percentage DISE": "NA",
      "Non Workers - Persons": 16182,
      "Person Literates": 21185,
      "State": "MANIPUR",
      "Total Female Population": 13270,
      "Marginal Workers worked for 0 - 3 moths during last year - Persons": 753,
      "Marginal Workers Cultivators - Females": 556,
      "Marginal Workers Other - Persons": 1492,
      "Sex Ratio": 954,
      "Scheduled Tribe Persons": 24105,
      "Marginal Workers Household Industry worked for 3 - 6 moths during last year - Males": 33,
      "Marginal Workers Agricultural Labourers - Females": 110,
      "Mean age at marriage for girls DLHS-4": "Not available",
      "Households with solar energy as main source of lighting  Houselisting and Housing Census Data Tables- District Level , Census of India__4": 136,
      "District": "UKHRUL",
      "Households receiving treated tap water within premises in percentage Houselisting and Housing Census Data Tables- District Level , Census of India__1": 25.89649552,
      "Total Workers  Persons": 11005,
      "Households receiving treated tap water within premises  Houselisting and Housing Census Data Tables- District Level , Census of India__4": 1271,
      "Primary Female Teachers in percentage DISE": "NA",
      "Number of Households": 5226,
      "Main Workers Agricultural Labourers - Persons": 171
    }
  ]
}