{
  "Total": [
    {
      "Marginal Workers Agricultural Labourers - Persons": 17526,
      "Marginal Workers Other - Females": 16216,
      "Marginal Workers Other worked for 0 - 3 moths during last year - Females": 4280,
      "Upper Primary Schools with boys toilet in percentage DISE": 0,
      "Total Population": 693947,
      "Households with electricity as main source of lighting in percentage Houselisting and Housing Census Data Tables- District Level , Census of India": 54.0651026,
      "Primary Girl's Enrolment in percentage DISE": 49.4,
      "Marginal Workers worked for 3 - 6 moths during last year - Males": 25543,
      "Prevalence of Acute illness in percentage DLHS-4": 14.8,
      "Main Workers - Persons": 186105,
      "Main Workers Cultivators - Females": 6223,
      "Marginal Workers Agricultural Labourers worked for 3 - 6 moths during last year - Females": 7398,
      "Marginal Workers Other worked for 0 - 3 moths during last year - Males": 3398,
      "Upper Primary Schools with drinking water facility in percentage DISE": 0,
      "Primary Schools with girls toilet in percentage DISE": 88.1,
      "Marginal Workers worked for 3 - 6 moths during last year - Persons": 50295,
      "Upper Primary Drop Out Rate in percentage DISE": 5.66,
      "Prevalence of Anaemia in pregnant women aged 15-49years in percentage DLHS-4": 33,
      "Current use of any modern method of family planning in percentage DLHS-4": 41.7,
      "Marginal Workers Agricultural Labourers - Males": 8736,
      "Upper Primary Female Teachers in percentage DISE": 0,
      "Marginal Workers - Females": 31739,
      "Marginal Workers Other worked for 3 - 6 moths during last year - Persons": 27002,
      "Main Workers Agricultural Labourers - Females": 4160,
      "Marginal Workers Cultivators worked for 3 - 6 moths during last year - Females": 3125,
      "Households with no lighting  Houselisting and Housing Census Data Tables- District Level , Census of India__5": 347,
      "Prevalence of Severe Anaemia  in percentage DLHS-4": 0,
      "Total unmet need for family planning in percentage DLHS-4": 22.6,
      "Main Workers Other - Males": 94272,
      "Children who received full vaccination in percentage DLHS-4": 42.1,
      "Marginal Workers Household Industry - Persons": 3854,
      "Primary Pupil-Teacher Ratio in percentage DISE": 20,
      "Marginal Workers Agricultural Labourers worked for 3 - 6 moths during last year - Males": 7421,
      "Scheduled Caste Females": 56593,
      "Marginal Workers Cultivators - Males": 2809,
      "Marginal Workers - Males": 30823,
      "Marginal Workers worked for 0 - 3 moths during last year - Females": 6987,
      "Households with main source of drinking water within premises in percentage Houselisting and Housing Census Data Tables- District Level , Census of India": 20.6392325,
      "Marginal Workers Household Industry worked for 3 - 6 moths during last year - Persons": 2907,
      "Upper Primary Girl's Enrolment in percentage DISE": 0,
      "Prevalence of Severe Anaemia in women aged 15-49years in percentage DLHS-4": 0.2,
      "Marginal Workers Agricultural Labourers worked for 0 - 3 moths during last year - Males": 1315,
      "Households with electricity as main source of lighting  Houselisting and Housing Census Data Tables- District Level , Census of India__3": 81601,
      "Households with computer or laptop with internet connection in percentage": 0.66,
      "PHCs functioning on a 24x7hours basis in percentage DLHS-4": 76.9,
      "Non Workers - Males": 166826,
      "Total Households in District Houselisting and Housing Census Data Tables- District Level , Census of India": 150931,
      "Upper Primary Schools with girls toilet in percentage DISE": 0,
      "Households with mobile phone in percentage": 36.98,
      "Households receiving untreated tap water within premises in percentage Houselisting and Housing Census Data Tables- District Level , Census of India__2": 1.685538425,
      "Marginal Workers Cultivators worked for 3 - 6 moths during last year - Males": 2442,
      "Prevalence of Anaemia  in percentage DLHS-4": 47.4,
      "Prevalence of Chronic illness in percentage DLHS-4": 4.2,
      "Households with solar energy as main source of lighting in percentage Houselisting and Housing Census Data Tables- District Level , Census of India__1": 1.637834507,
      "Marginal Workers Agricultural Labourers worked for 0 - 3 moths during last year - Females": 1392,
      "Main Workers - Males": 155211,
      "Female": 83.75,
      "Sno": 1688,
      "Marginal Workers Other worked for 3 - 6 moths during last year - Females": 11936,
      "Marginal Workers Cultivators worked for 0 - 3 moths during last year - Females": 568,
      "Scheduled Tribe Males": 91116,
      "Male Illiterates": 77214,
      "Prevalence of Severe Anaemia in pregnant women aged 15-49years in percentage DLHS-4": 0,
      "0-6 Age Group Persons": 99204,
      "Upper Primary Student-Classroom Ratio in percentage DISE": 0,
      "Currently married men married below 21years of age in percentage DLHS-4": 12.4,
      "Male Literates": 275646,
      "Households with no lighting in percentage Houselisting and Housing Census Data Tables- District Level , Census of India__2": 0.229906381,
      "Primary Drop Out Rate in percentage DISE": 5,
      "Marginal Workers Household Industry - Males": 814,
      "Female Illiterates": 96331,
      "Main Workers Other - Females": 19364,
      "Marginal Workers Cultivators - Persons": 6502,
      "Upper Primary Gross Enrolment Ratio in percentage DISE": 53.1,
      "Scheduled Caste Persons": 114968,
      "Marginal Workers Cultivators worked for 3 - 6 moths during last year - Persons": 5567,
      "Households with landline phone in percentage": 1.67,
      "Total Households in District  Houselisting and Housing Census Data Tables- District Level , Census of India": 150931,
      "Upper Primary Pupil-Teacher Ratio in percentage DISE": 0,
      "Primary Student-Classroom Ratio in percentage DISE": 17,
      "Primary Schools with boys toilet in percentage DISE": 91.8,
      "Mean number of children ever born to women aged 40-49years  DLHS-4": 3.1,
      "Households receiving untreated tap water within premises  Houselisting and Housing Census Data Tables- District Level , Census of India__5": 2544,
      "Marginal Workers Household Industry worked for 0 - 3 moths during last year - Persons": 947,
      "Total Male Population": 352860,
      "Non Workers - Females": 278454,
      "Current use of family planning methods in percentage DLHS-4": 65.2,
      "Households with main source of drinking water within premises  Houselisting and Housing Census Data Tables- District Level , Census of India__3": 31151,
      "Main Workers Agricultural Labourers - Males": 22291,
      "Marginal Workers Other worked for 0 - 3 moths during last year - Persons": 7678,
      "Currently married women married below 18years of age in percentage DLHS-4": 17.1,
      "Person Illiterates": 173545,
      "Main Workers Household Industry - Females": 1147,
      "Female Literates": 244756,
      "Marginal Workers Cultivators worked for 0 - 3 moths during last year - Males": 367,
      "Male": 91.13,
      "Households with improved source of drinking water in percentage DLHS-4": 65,
      "Upper Primary Schools with electricity in percentage DISE": 0,
      "Households with electricity in percentage DLHS-4": 84.4,
      "Villages with Primary Health Centre within 10km in percentage DLHS-4": 72.7,
      "Births to women aged 15-19years out of Total births in percentage DLHS-4": 8.7,
      "Prevalence of Anaemia in women aged 15-49years in percentage DLHS-4": 41.7,
      "Marginal Workers Agricultural Labourers worked for 3 - 6 moths during last year - Persons": 14819,
      "Main Workers Household Industry - Males": 2087,
      "Scheduled Tribe Females": 88310,
      "Marginal Workers worked for 0 - 3 moths during last year - Males": 5280,
      "Marginal Workers Other worked for 3 - 6 moths during last year - Males": 15066,
      "Primary Net Enrolment Ratio in percentage DISE": 54.3,
      "Total": 87.5,
      "Mean age at marriage for boys DLHS-4": 26.2,
      "Number of District Hospitals  DLHS-4": 1,
      "0-6 Age Group Females": 48825,
      "Marginal Workers Agricultural Labourers worked for 0 - 3 moths during last year - Persons": 2707,
      "Marginal Workers Household Industry worked for 0 - 3 moths during last year - Males": 200,
      "Total Workers  Females": 62633,
      "Marginal Workers worked for 3 - 6 moths during last year - Females": 24752,
      "Institutional Deliveries in percentage DLHS-4": 62.6,
      "Marginal Workers Other - Males": 18464,
      "Total Workers  Males": 186034,
      "Main Workers - Females": 30894,
      "Primary Gross Enrolment Ratio in percentage DISE": 65.8,
      "Main Workers Cultivators - Persons": 42784,
      "Marginal Workers Household Industry worked for 0 - 3 moths during last year - Females": 747,
      "Upper Primary Net Enrolment Ratio in percentage DISE": 49.2,
      "Primary New Government Schools since 2003 in percentage DISE": 51,
      "Tier": "Total",
      "Marginal Workers Household Industry - Females": 3040,
      "Primary Schools with electricity in percentage DISE": 19.7,
      "Main Workers Other - Persons": 113636,
      "Marginal Workers Household Industry worked for 3 - 6 moths during last year - Females": 2293,
      "Main Workers Cultivators - Males": 36561,
      "Main Workers Household Industry - Persons": 3234,
      "Marginal Workers Cultivators worked for 0 - 3 moths during last year - Persons": 935,
      "Scheduled Caste Males": 58375,
      "Marginal Workers - Persons": 62562,
      "Deliveries at home conducted by skilled health personnel in percentage DLHS-4": 4.9,
      "Villages with Sub-Health Centres within 3km in percentage DLHS-4": 90.9,
      "Upper Primary New Government Schools since 2003 in percentage DISE": 0,
      "0-6 Age Group Males": 50379,
      "Primary Schools with drinking water facility in percentage DISE": 83.2,
      "Non Workers - Persons": 445280,
      "Person Literates": 520402,
      "State": "TRIPURA",
      "Total Female Population": 341087,
      "Marginal Workers worked for 0 - 3 moths during last year - Persons": 12267,
      "Marginal Workers Cultivators - Females": 3693,
      "Marginal Workers Other - Persons": 34680,
      "Sex Ratio": 967,
      "Scheduled Tribe Persons": 179426,
      "Marginal Workers Household Industry worked for 3 - 6 moths during last year - Males": 614,
      "Marginal Workers Agricultural Labourers - Females": 8790,
      "Mean age at marriage for girls DLHS-4": 20.9,
      "Households with solar energy as main source of lighting  Houselisting and Housing Census Data Tables- District Level , Census of India__4": 2472,
      "District": "NORTH TRIPURA",
      "Households receiving treated tap water within premises in percentage Houselisting and Housing Census Data Tables- District Level , Census of India__1": 8.688738563,
      "Total Workers  Persons": 248667,
      "Households receiving treated tap water within premises  Houselisting and Housing Census Data Tables- District Level , Census of India__4": 13114,
      "Primary Female Teachers in percentage DISE": 26.4,
      "Number of Households": 152355,
      "Main Workers Agricultural Labourers - Persons": 26451
    }
  ],
  "Rural": [
    {
      "Marginal Workers Agricultural Labourers - Persons": 16956,
      "Marginal Workers Other - Females": 14148,
      "Marginal Workers Other worked for 0 - 3 moths during last year - Females": 3745,
      "Upper Primary Schools with boys toilet in percentage DISE": "NA",
      "Total Population": 573662,
      "Households with electricity as main source of lighting in percentage Houselisting and Housing Census Data Tables- District Level , Census of India": 46.48186938,
      "Primary Girl's Enrolment in percentage DISE": "NA",
      "Marginal Workers worked for 3 - 6 moths during last year - Males": 22180,
      "Prevalence of Acute illness in percentage DLHS-4": 15.1,
      "Main Workers - Persons": 151351,
      "Main Workers Cultivators - Females": 6071,
      "Marginal Workers Agricultural Labourers worked for 3 - 6 moths during last year - Females": 7284,
      "Marginal Workers Other worked for 0 - 3 moths during last year - Males": 2750,
      "Upper Primary Schools with drinking water facility in percentage DISE": "NA",
      "Primary Schools with girls toilet in percentage DISE": "NA",
      "Marginal Workers worked for 3 - 6 moths during last year - Persons": 45019,
      "Upper Primary Drop Out Rate in percentage DISE": "NA",
      "Prevalence of Anaemia in pregnant women aged 15-49years in percentage DLHS-4": 28.6,
      "Current use of any modern method of family planning in percentage DLHS-4": 42.6,
      "Marginal Workers Agricultural Labourers - Males": 8358,
      "Upper Primary Female Teachers in percentage DISE": "NA",
      "Marginal Workers - Females": 29127,
      "Marginal Workers Other worked for 3 - 6 moths during last year - Persons": 22678,
      "Main Workers Agricultural Labourers - Females": 4007,
      "Marginal Workers Cultivators worked for 3 - 6 moths during last year - Females": 3035,
      "Households with no lighting  Houselisting and Housing Census Data Tables- District Level , Census of India__5": 319,
      "Prevalence of Severe Anaemia  in percentage DLHS-4": 0,
      "Total unmet need for family planning in percentage DLHS-4": 23.2,
      "Main Workers Other - Males": 67501,
      "Children who received full vaccination in percentage DLHS-4": 40.2,
      "Marginal Workers Household Industry - Persons": 3487,
      "Primary Pupil-Teacher Ratio in percentage DISE": "NA",
      "Marginal Workers Agricultural Labourers worked for 3 - 6 moths during last year - Males": 7163,
      "Scheduled Caste Females": 44002,
      "Marginal Workers Cultivators - Males": 2581,
      "Marginal Workers - Males": 26647,
      "Marginal Workers worked for 0 - 3 moths during last year - Females": 6288,
      "Households with main source of drinking water within premises in percentage Houselisting and Housing Census Data Tables- District Level , Census of India": 14.54524708,
      "Marginal Workers Household Industry worked for 3 - 6 moths during last year - Persons": 2620,
      "Upper Primary Girl's Enrolment in percentage DISE": "NA",
      "Prevalence of Severe Anaemia in women aged 15-49years in percentage DLHS-4": 0.2,
      "Marginal Workers Agricultural Labourers worked for 0 - 3 moths during last year - Males": 1195,
      "Households with electricity as main source of lighting  Houselisting and Housing Census Data Tables- District Level , Census of India__3": 57030,
      "Households with computer or laptop with internet connection in percentage": 0.44,
      "PHCs functioning on a 24x7hours basis in percentage DLHS-4": "Not applicable",
      "Non Workers - Males": 139370,
      "Total Households in District Houselisting and Housing Census Data Tables- District Level , Census of India": 122693,
      "Upper Primary Schools with girls toilet in percentage DISE": "NA",
      "Households with mobile phone in percentage": 32.5,
      "Households receiving untreated tap water within premises in percentage Houselisting and Housing Census Data Tables- District Level , Census of India__2": 0.980496035,
      "Marginal Workers Cultivators worked for 3 - 6 moths during last year - Males": 2239,
      "Prevalence of Anaemia  in percentage DLHS-4": 46.2,
      "Prevalence of Chronic illness in percentage DLHS-4": 3.8,
      "Households with solar energy as main source of lighting in percentage Houselisting and Housing Census Data Tables- District Level , Census of India__1": 1.913719609,
      "Marginal Workers Agricultural Labourers worked for 0 - 3 moths during last year - Females": 1314,
      "Main Workers - Males": 125876,
      "Female": "NA",
      "Sno": 1687,
      "Marginal Workers Other worked for 3 - 6 moths during last year - Females": 10403,
      "Marginal Workers Cultivators worked for 0 - 3 moths during last year - Females": 542,
      "Scheduled Tribe Males": 86357,
      "Male Illiterates": 68431,
      "Prevalence of Severe Anaemia in pregnant women aged 15-49years in percentage DLHS-4": 0,
      "0-6 Age Group Persons": 86485,
      "Upper Primary Student-Classroom Ratio in percentage DISE": "NA",
      "Currently married men married below 21years of age in percentage DLHS-4": 13.6,
      "Male Literates": 223462,
      "Households with no lighting in percentage Houselisting and Housing Census Data Tables- District Level , Census of India__2": 0.259998533,
      "Primary Drop Out Rate in percentage DISE": "NA",
      "Marginal Workers Household Industry - Males": 683,
      "Female Illiterates": 86164,
      "Main Workers Other - Females": 14391,
      "Marginal Workers Cultivators - Persons": 6158,
      "Upper Primary Gross Enrolment Ratio in percentage DISE": "NA",
      "Scheduled Caste Persons": 89527,
      "Marginal Workers Cultivators worked for 3 - 6 moths during last year - Persons": 5274,
      "Households with landline phone in percentage": 1.25,
      "Total Households in District  Houselisting and Housing Census Data Tables- District Level , Census of India": 122693,
      "Upper Primary Pupil-Teacher Ratio in percentage DISE": "NA",
      "Primary Student-Classroom Ratio in percentage DISE": "NA",
      "Primary Schools with boys toilet in percentage DISE": "NA",
      "Mean number of children ever born to women aged 40-49years  DLHS-4": 3.3,
      "Households receiving untreated tap water within premises  Houselisting and Housing Census Data Tables- District Level , Census of India__5": 1203,
      "Marginal Workers Household Industry worked for 0 - 3 moths during last year - Persons": 867,
      "Total Male Population": 291893,
      "Non Workers - Females": 227167,
      "Current use of family planning methods in percentage DLHS-4": 64.1,
      "Households with main source of drinking water within premises  Houselisting and Housing Census Data Tables- District Level , Census of India__3": 17846,
      "Main Workers Agricultural Labourers - Males": 21388,
      "Marginal Workers Other worked for 0 - 3 moths during last year - Persons": 6495,
      "Currently married women married below 18years of age in percentage DLHS-4": 20.2,
      "Person Illiterates": 154595,
      "Main Workers Household Industry - Females": 1006,
      "Female Literates": 195605,
      "Marginal Workers Cultivators worked for 0 - 3 moths during last year - Males": 342,
      "Male": "NA",
      "Households with improved source of drinking water in percentage DLHS-4": 58.2,
      "Upper Primary Schools with electricity in percentage DISE": "NA",
      "Households with electricity in percentage DLHS-4": 81.1,
      "Villages with Primary Health Centre within 10km in percentage DLHS-4": "Not applicable",
      "Births to women aged 15-19years out of Total births in percentage DLHS-4": 9.3,
      "Prevalence of Anaemia in women aged 15-49years in percentage DLHS-4": 40.9,
      "Marginal Workers Agricultural Labourers worked for 3 - 6 moths during last year - Persons": 14447,
      "Main Workers Household Industry - Males": 1826,
      "Scheduled Tribe Females": 83900,
      "Marginal Workers worked for 0 - 3 moths during last year - Males": 4467,
      "Marginal Workers Other worked for 3 - 6 moths during last year - Males": 12275,
      "Primary Net Enrolment Ratio in percentage DISE": "NA",
      "Total": "NA",
      "Mean age at marriage for boys DLHS-4": 25.8,
      "Number of District Hospitals  DLHS-4": "Not applicable",
      "0-6 Age Group Females": 42543,
      "Marginal Workers Agricultural Labourers worked for 0 - 3 moths during last year - Persons": 2509,
      "Marginal Workers Household Industry worked for 0 - 3 moths during last year - Males": 180,
      "Total Workers  Females": 54602,
      "Marginal Workers worked for 3 - 6 moths during last year - Females": 22839,
      "Institutional Deliveries in percentage DLHS-4": 57.3,
      "Marginal Workers Other - Males": 15025,
      "Total Workers  Males": 152523,
      "Main Workers - Females": 25475,
      "Primary Gross Enrolment Ratio in percentage DISE": "NA",
      "Main Workers Cultivators - Persons": 41232,
      "Marginal Workers Household Industry worked for 0 - 3 moths during last year - Females": 687,
      "Upper Primary Net Enrolment Ratio in percentage DISE": "NA",
      "Primary New Government Schools since 2003 in percentage DISE": "NA",
      "Tier": "Rural",
      "Marginal Workers Household Industry - Females": 2804,
      "Primary Schools with electricity in percentage DISE": "NA",
      "Main Workers Other - Persons": 81892,
      "Marginal Workers Household Industry worked for 3 - 6 moths during last year - Females": 2117,
      "Main Workers Cultivators - Males": 35161,
      "Main Workers Household Industry - Persons": 2832,
      "Marginal Workers Cultivators worked for 0 - 3 moths during last year - Persons": 884,
      "Scheduled Caste Males": 45525,
      "Marginal Workers - Persons": 55774,
      "Deliveries at home conducted by skilled health personnel in percentage DLHS-4": 5.3,
      "Villages with Sub-Health Centres within 3km in percentage DLHS-4": "Not applicable",
      "Upper Primary New Government Schools since 2003 in percentage DISE": "NA",
      "0-6 Age Group Males": 43942,
      "Primary Schools with drinking water facility in percentage DISE": "NA",
      "Non Workers - Persons": 366537,
      "Person Literates": 419067,
      "State": "TRIPURA",
      "Total Female Population": 281769,
      "Marginal Workers worked for 0 - 3 moths during last year - Persons": 10755,
      "Marginal Workers Cultivators - Females": 3577,
      "Marginal Workers Other - Persons": 29173,
      "Sex Ratio": 965,
      "Scheduled Tribe Persons": 170257,
      "Marginal Workers Household Industry worked for 3 - 6 moths during last year - Males": 503,
      "Marginal Workers Agricultural Labourers - Females": 8598,
      "Mean age at marriage for girls DLHS-4": 20.3,
      "Households with solar energy as main source of lighting  Houselisting and Housing Census Data Tables- District Level , Census of India__4": 2348,
      "District": "NORTH TRIPURA",
      "Households receiving treated tap water within premises in percentage Houselisting and Housing Census Data Tables- District Level , Census of India__1": 3.115907183,
      "Total Workers  Persons": 207125,
      "Households receiving treated tap water within premises  Houselisting and Housing Census Data Tables- District Level , Census of India__4": 3823,
      "Primary Female Teachers in percentage DISE": "NA",
      "Number of Households": 123624,
      "Main Workers Agricultural Labourers - Persons": 25395
    }
  ],
  "Urban": [
    {
      "Marginal Workers Agricultural Labourers - Persons": 570,
      "Marginal Workers Other - Females": 2068,
      "Marginal Workers Other worked for 0 - 3 moths during last year - Females": 535,
      "Upper Primary Schools with boys toilet in percentage DISE": "NA",
      "Total Population": 120285,
      "Households with electricity as main source of lighting in percentage Houselisting and Housing Census Data Tables- District Level , Census of India": 87.01395283,
      "Primary Girl's Enrolment in percentage DISE": "NA",
      "Marginal Workers worked for 3 - 6 moths during last year - Males": 3363,
      "Prevalence of Acute illness in percentage DLHS-4": "Not available",
      "Main Workers - Persons": 34754,
      "Main Workers Cultivators - Females": 152,
      "Marginal Workers Agricultural Labourers worked for 3 - 6 moths during last year - Females": 114,
      "Marginal Workers Other worked for 0 - 3 moths during last year - Males": 648,
      "Upper Primary Schools with drinking water facility in percentage DISE": "NA",
      "Primary Schools with girls toilet in percentage DISE": "NA",
      "Marginal Workers worked for 3 - 6 moths during last year - Persons": 5276,
      "Upper Primary Drop Out Rate in percentage DISE": "NA",
      "Prevalence of Anaemia in pregnant women aged 15-49years in percentage DLHS-4": "Not available",
      "Current use of any modern method of family planning in percentage DLHS-4": "Not available",
      "Marginal Workers Agricultural Labourers - Males": 378,
      "Upper Primary Female Teachers in percentage DISE": "NA",
      "Marginal Workers - Females": 2612,
      "Marginal Workers Other worked for 3 - 6 moths during last year - Persons": 4324,
      "Main Workers Agricultural Labourers - Females": 153,
      "Marginal Workers Cultivators worked for 3 - 6 moths during last year - Females": 90,
      "Households with no lighting  Houselisting and Housing Census Data Tables- District Level , Census of India__5": 28,
      "Prevalence of Severe Anaemia  in percentage DLHS-4": "Not available",
      "Total unmet need for family planning in percentage DLHS-4": "Not available",
      "Main Workers Other - Males": 26771,
      "Children who received full vaccination in percentage DLHS-4": "Not available",
      "Marginal Workers Household Industry - Persons": 367,
      "Primary Pupil-Teacher Ratio in percentage DISE": "NA",
      "Marginal Workers Agricultural Labourers worked for 3 - 6 moths during last year - Males": 258,
      "Scheduled Caste Females": 12591,
      "Marginal Workers Cultivators - Males": 228,
      "Marginal Workers - Males": 4176,
      "Marginal Workers worked for 0 - 3 moths during last year - Females": 699,
      "Households with main source of drinking water within premises in percentage Houselisting and Housing Census Data Tables- District Level , Census of India": 47.11735959,
      "Marginal Workers Household Industry worked for 3 - 6 moths during last year - Persons": 287,
      "Upper Primary Girl's Enrolment in percentage DISE": "NA",
      "Prevalence of Severe Anaemia in women aged 15-49years in percentage DLHS-4": "Not available",
      "Marginal Workers Agricultural Labourers worked for 0 - 3 moths during last year - Males": 120,
      "Households with electricity as main source of lighting  Houselisting and Housing Census Data Tables- District Level , Census of India__3": 24571,
      "Households with computer or laptop with internet connection in percentage": 1.63,
      "PHCs functioning on a 24x7hours basis in percentage DLHS-4": 0,
      "Non Workers - Males": 27456,
      "Total Households in District Houselisting and Housing Census Data Tables- District Level , Census of India": 28238,
      "Upper Primary Schools with girls toilet in percentage DISE": "NA",
      "Households with mobile phone in percentage": 56.45,
      "Households receiving untreated tap water within premises in percentage Houselisting and Housing Census Data Tables- District Level , Census of India__2": 4.748919895,
      "Marginal Workers Cultivators worked for 3 - 6 moths during last year - Males": 203,
      "Prevalence of Anaemia  in percentage DLHS-4": "Not available",
      "Prevalence of Chronic illness in percentage DLHS-4": "Not available",
      "Households with solar energy as main source of lighting in percentage Houselisting and Housing Census Data Tables- District Level , Census of India__1": 0.439124584,
      "Marginal Workers Agricultural Labourers worked for 0 - 3 moths during last year - Females": 78,
      "Main Workers - Males": 29335,
      "Female": "NA",
      "Sno": 1689,
      "Marginal Workers Other worked for 3 - 6 moths during last year - Females": 1533,
      "Marginal Workers Cultivators worked for 0 - 3 moths during last year - Females": 26,
      "Scheduled Tribe Males": 4759,
      "Male Illiterates": 8783,
      "Prevalence of Severe Anaemia in pregnant women aged 15-49years in percentage DLHS-4": "Not available",
      "0-6 Age Group Persons": 12719,
      "Upper Primary Student-Classroom Ratio in percentage DISE": "NA",
      "Currently married men married below 21years of age in percentage DLHS-4": "Not available",
      "Male Literates": 52184,
      "Households with no lighting in percentage Houselisting and Housing Census Data Tables- District Level , Census of India__2": 0.0992,
      "Primary Drop Out Rate in percentage DISE": "NA",
      "Marginal Workers Household Industry - Males": 131,
      "Female Illiterates": 10167,
      "Main Workers Other - Females": 4973,
      "Marginal Workers Cultivators - Persons": 344,
      "Upper Primary Gross Enrolment Ratio in percentage DISE": "NA",
      "Scheduled Caste Persons": 25441,
      "Marginal Workers Cultivators worked for 3 - 6 moths during last year - Persons": 293,
      "Households with landline phone in percentage": 3.47,
      "Total Households in District  Houselisting and Housing Census Data Tables- District Level , Census of India": 28238,
      "Upper Primary Pupil-Teacher Ratio in percentage DISE": "NA",
      "Primary Student-Classroom Ratio in percentage DISE": "NA",
      "Primary Schools with boys toilet in percentage DISE": "NA",
      "Mean number of children ever born to women aged 40-49years  DLHS-4": "Not available",
      "Households receiving untreated tap water within premises  Houselisting and Housing Census Data Tables- District Level , Census of India__5": 1341,
      "Marginal Workers Household Industry worked for 0 - 3 moths during last year - Persons": 80,
      "Total Male Population": 60967,
      "Non Workers - Females": 51287,
      "Current use of family planning methods in percentage DLHS-4": "Not available",
      "Households with main source of drinking water within premises  Houselisting and Housing Census Data Tables- District Level , Census of India__3": 13305,
      "Main Workers Agricultural Labourers - Males": 903,
      "Marginal Workers Other worked for 0 - 3 moths during last year - Persons": 1183,
      "Currently married women married below 18years of age in percentage DLHS-4": "Not available",
      "Person Illiterates": 18950,
      "Main Workers Household Industry - Females": 141,
      "Female Literates": 49151,
      "Marginal Workers Cultivators worked for 0 - 3 moths during last year - Males": 25,
      "Male": "NA",
      "Households with improved source of drinking water in percentage DLHS-4": "Not available",
      "Upper Primary Schools with electricity in percentage DISE": "NA",
      "Households with electricity in percentage DLHS-4": "Not available",
      "Villages with Primary Health Centre within 10km in percentage DLHS-4": 0,
      "Births to women aged 15-19years out of Total births in percentage DLHS-4": "Not available",
      "Prevalence of Anaemia in women aged 15-49years in percentage DLHS-4": "Not available",
      "Marginal Workers Agricultural Labourers worked for 3 - 6 moths during last year - Persons": 372,
      "Main Workers Household Industry - Males": 261,
      "Scheduled Tribe Females": 4410,
      "Marginal Workers worked for 0 - 3 moths during last year - Males": 813,
      "Marginal Workers Other worked for 3 - 6 moths during last year - Males": 2791,
      "Primary Net Enrolment Ratio in percentage DISE": "NA",
      "Total": "NA",
      "Mean age at marriage for boys DLHS-4": "Not available",
      "Number of District Hospitals  DLHS-4": 0,
      "0-6 Age Group Females": 6282,
      "Marginal Workers Agricultural Labourers worked for 0 - 3 moths during last year - Persons": 198,
      "Marginal Workers Household Industry worked for 0 - 3 moths during last year - Males": 20,
      "Total Workers  Females": 8031,
      "Marginal Workers worked for 3 - 6 moths during last year - Females": 1913,
      "Institutional Deliveries in percentage DLHS-4": "Not available",
      "Marginal Workers Other - Males": 3439,
      "Total Workers  Males": 33511,
      "Main Workers - Females": 5419,
      "Primary Gross Enrolment Ratio in percentage DISE": "NA",
      "Main Workers Cultivators - Persons": 1552,
      "Marginal Workers Household Industry worked for 0 - 3 moths during last year - Females": 60,
      "Upper Primary Net Enrolment Ratio in percentage DISE": "NA",
      "Primary New Government Schools since 2003 in percentage DISE": "NA",
      "Tier": "Urban",
      "Marginal Workers Household Industry - Females": 236,
      "Primary Schools with electricity in percentage DISE": "NA",
      "Main Workers Other - Persons": 31744,
      "Marginal Workers Household Industry worked for 3 - 6 moths during last year - Females": 176,
      "Main Workers Cultivators - Males": 1400,
      "Main Workers Household Industry - Persons": 402,
      "Marginal Workers Cultivators worked for 0 - 3 moths during last year - Persons": 51,
      "Scheduled Caste Males": 12850,
      "Marginal Workers - Persons": 6788,
      "Deliveries at home conducted by skilled health personnel in percentage DLHS-4": "Not available",
      "Villages with Sub-Health Centres within 3km in percentage DLHS-4": 0,
      "Upper Primary New Government Schools since 2003 in percentage DISE": "NA",
      "0-6 Age Group Males": 6437,
      "Primary Schools with drinking water facility in percentage DISE": "NA",
      "Non Workers - Persons": 78743,
      "Person Literates": 101335,
      "State": "TRIPURA",
      "Total Female Population": 59318,
      "Marginal Workers worked for 0 - 3 moths during last year - Persons": 1512,
      "Marginal Workers Cultivators - Females": 116,
      "Marginal Workers Other - Persons": 5507,
      "Sex Ratio": 973,
      "Scheduled Tribe Persons": 9169,
      "Marginal Workers Household Industry worked for 3 - 6 moths during last year - Males": 111,
      "Marginal Workers Agricultural Labourers - Females": 192,
      "Mean age at marriage for girls DLHS-4": "Not available",
      "Households with solar energy as main source of lighting  Houselisting and Housing Census Data Tables- District Level , Census of India__4": 124,
      "District": "NORTH TRIPURA",
      "Households receiving treated tap water within premises in percentage Houselisting and Housing Census Data Tables- District Level , Census of India__1": 32.90247185,
      "Total Workers  Persons": 41542,
      "Households receiving treated tap water within premises  Houselisting and Housing Census Data Tables- District Level , Census of India__4": 9291,
      "Primary Female Teachers in percentage DISE": "NA",
      "Number of Households": 28731,
      "Main Workers Agricultural Labourers - Persons": 1056
    }
  ]
}