{
  "Total": [
    {
      "Marginal Workers Agricultural Labourers - Persons": 44872,
      "Marginal Workers Other - Females": 27572,
      "Marginal Workers Other worked for 0 - 3 moths during last year - Females": 13936,
      "Upper Primary Schools with boys toilet in percentage DISE": 0,
      "Total Population": 876001,
      "Households with electricity as main source of lighting in percentage Houselisting and Housing Census Data Tables- District Level , Census of India": 65.1510354,
      "Primary Girl's Enrolment in percentage DISE": 49.7,
      "Marginal Workers worked for 3 - 6 moths during last year - Males": 31477,
      "Prevalence of Acute illness in percentage DLHS-4": 9.4,
      "Main Workers - Persons": 258457,
      "Main Workers Cultivators - Females": 11747,
      "Marginal Workers Agricultural Labourers worked for 3 - 6 moths during last year - Females": 22982,
      "Marginal Workers Other worked for 0 - 3 moths during last year - Males": 5985,
      "Upper Primary Schools with drinking water facility in percentage DISE": 0,
      "Primary Schools with girls toilet in percentage DISE": 100,
      "Marginal Workers worked for 3 - 6 moths during last year - Persons": 77151,
      "Upper Primary Drop Out Rate in percentage DISE": 4.03,
      "Prevalence of Anaemia in pregnant women aged 15-49years in percentage DLHS-4": 30,
      "Current use of any modern method of family planning in percentage DLHS-4": 42.6,
      "Marginal Workers Agricultural Labourers - Males": 16766,
      "Upper Primary Female Teachers in percentage DISE": 40,
      "Marginal Workers - Females": 67209,
      "Marginal Workers Other worked for 3 - 6 moths during last year - Persons": 27114,
      "Main Workers Agricultural Labourers - Females": 16059,
      "Marginal Workers Cultivators worked for 3 - 6 moths during last year - Females": 7458,
      "Households with no lighting  Houselisting and Housing Census Data Tables- District Level , Census of India__5": 719,
      "Prevalence of Severe Anaemia  in percentage DLHS-4": 0.8,
      "Total unmet need for family planning in percentage DLHS-4": 31.6,
      "Main Workers Other - Males": 98759,
      "Children who received full vaccination in percentage DLHS-4": 55.9,
      "Marginal Workers Household Industry - Persons": 3428,
      "Primary Pupil-Teacher Ratio in percentage DISE": 14,
      "Marginal Workers Agricultural Labourers worked for 3 - 6 moths during last year - Males": 14072,
      "Scheduled Caste Females": 68156,
      "Marginal Workers Cultivators - Males": 4117,
      "Marginal Workers - Males": 41179,
      "Marginal Workers worked for 0 - 3 moths during last year - Females": 21535,
      "Households with main source of drinking water within premises in percentage Houselisting and Housing Census Data Tables- District Level , Census of India": 26.49172118,
      "Marginal Workers Household Industry worked for 3 - 6 moths during last year - Persons": 2146,
      "Upper Primary Girl's Enrolment in percentage DISE": 50.6,
      "Prevalence of Severe Anaemia in women aged 15-49years in percentage DLHS-4": 0.2,
      "Marginal Workers Agricultural Labourers worked for 0 - 3 moths during last year - Males": 2694,
      "Households with electricity as main source of lighting  Houselisting and Housing Census Data Tables- District Level , Census of India__3": 133744,
      "Households with computer or laptop with internet connection in percentage": 0.46,
      "PHCs functioning on a 24x7hours basis in percentage DLHS-4": 84.6,
      "Non Workers - Males": 194315,
      "Total Households in District Houselisting and Housing Census Data Tables- District Level , Census of India": 205283,
      "Upper Primary Schools with girls toilet in percentage DISE": 0,
      "Households with mobile phone in percentage": 38.1,
      "Households receiving untreated tap water within premises in percentage Houselisting and Housing Census Data Tables- District Level , Census of India__2": 4.229283477,
      "Marginal Workers Cultivators worked for 3 - 6 moths during last year - Males": 3379,
      "Prevalence of Anaemia  in percentage DLHS-4": 41.1,
      "Prevalence of Chronic illness in percentage DLHS-4": 4.5,
      "Households with solar energy as main source of lighting in percentage Houselisting and Housing Census Data Tables- District Level , Census of India__1": 1.551516687,
      "Marginal Workers Agricultural Labourers worked for 0 - 3 moths during last year - Females": 5124,
      "Main Workers - Males": 212050,
      "Female": 79.09,
      "Sno": 1694,
      "Marginal Workers Other worked for 3 - 6 moths during last year - Females": 13636,
      "Marginal Workers Cultivators worked for 0 - 3 moths during last year - Females": 1478,
      "Scheduled Tribe Males": 173174,
      "Male Illiterates": 96462,
      "Prevalence of Severe Anaemia in pregnant women aged 15-49years in percentage DLHS-4": 0,
      "0-6 Age Group Persons": 111949,
      "Upper Primary Student-Classroom Ratio in percentage DISE": 0,
      "Currently married men married below 21years of age in percentage DLHS-4": 14.7,
      "Male Literates": 351082,
      "Households with no lighting in percentage Houselisting and Housing Census Data Tables- District Level , Census of India__2": 0.350248194,
      "Primary Drop Out Rate in percentage DISE": 2.1,
      "Marginal Workers Household Industry - Males": 833,
      "Female Illiterates": 132729,
      "Main Workers Other - Females": 17814,
      "Marginal Workers Cultivators - Persons": 13053,
      "Upper Primary Gross Enrolment Ratio in percentage DISE": 48.2,
      "Scheduled Caste Persons": 140168,
      "Marginal Workers Cultivators worked for 3 - 6 moths during last year - Persons": 10837,
      "Households with landline phone in percentage": 2.02,
      "Total Households in District  Houselisting and Housing Census Data Tables- District Level , Census of India": 205283,
      "Upper Primary Pupil-Teacher Ratio in percentage DISE": 17,
      "Primary Student-Classroom Ratio in percentage DISE": 12,
      "Primary Schools with boys toilet in percentage DISE": 100,
      "Mean number of children ever born to women aged 40-49years  DLHS-4": 2.8,
      "Households receiving untreated tap water within premises  Houselisting and Housing Census Data Tables- District Level , Census of India__5": 8682,
      "Marginal Workers Household Industry worked for 0 - 3 moths during last year - Persons": 1282,
      "Total Male Population": 447544,
      "Non Workers - Females": 314841,
      "Current use of family planning methods in percentage DLHS-4": 59.9,
      "Households with main source of drinking water within premises  Houselisting and Housing Census Data Tables- District Level , Census of India__3": 54383,
      "Main Workers Agricultural Labourers - Males": 50401,
      "Marginal Workers Other worked for 0 - 3 moths during last year - Persons": 19921,
      "Currently married women married below 18years of age in percentage DLHS-4": 24.8,
      "Person Illiterates": 229191,
      "Main Workers Household Industry - Females": 787,
      "Female Literates": 295728,
      "Marginal Workers Cultivators worked for 0 - 3 moths during last year - Males": 738,
      "Male": 89.98,
      "Households with improved source of drinking water in percentage DLHS-4": 87.9,
      "Upper Primary Schools with electricity in percentage DISE": 0,
      "Households with electricity in percentage DLHS-4": 91.3,
      "Villages with Primary Health Centre within 10km in percentage DLHS-4": 78.1,
      "Births to women aged 15-19years out of Total births in percentage DLHS-4": 14.8,
      "Prevalence of Anaemia in women aged 15-49years in percentage DLHS-4": 39.5,
      "Marginal Workers Agricultural Labourers worked for 3 - 6 moths during last year - Persons": 37054,
      "Main Workers Household Industry - Males": 2160,
      "Scheduled Tribe Females": 171661,
      "Marginal Workers worked for 0 - 3 moths during last year - Males": 9702,
      "Marginal Workers Other worked for 3 - 6 moths during last year - Males": 13478,
      "Primary Net Enrolment Ratio in percentage DISE": 51.7,
      "Total": 84.66,
      "Mean age at marriage for boys DLHS-4": 25.8,
      "Number of District Hospitals  DLHS-4": 1,
      "0-6 Age Group Females": 54567,
      "Marginal Workers Agricultural Labourers worked for 0 - 3 moths during last year - Persons": 7818,
      "Marginal Workers Household Industry worked for 0 - 3 moths during last year - Males": 285,
      "Total Workers  Females": 113616,
      "Marginal Workers worked for 3 - 6 moths during last year - Females": 45674,
      "Institutional Deliveries in percentage DLHS-4": 69.1,
      "Marginal Workers Other - Males": 19463,
      "Total Workers  Males": 253229,
      "Main Workers - Females": 46407,
      "Primary Gross Enrolment Ratio in percentage DISE": 53.9,
      "Main Workers Cultivators - Persons": 72477,
      "Marginal Workers Household Industry worked for 0 - 3 moths during last year - Females": 997,
      "Upper Primary Net Enrolment Ratio in percentage DISE": 42.7,
      "Primary New Government Schools since 2003 in percentage DISE": 40.2,
      "Tier": "Total",
      "Marginal Workers Household Industry - Females": 2595,
      "Primary Schools with electricity in percentage DISE": 8,
      "Main Workers Other - Persons": 116573,
      "Marginal Workers Household Industry worked for 3 - 6 moths during last year - Females": 1598,
      "Main Workers Cultivators - Males": 60730,
      "Main Workers Household Industry - Persons": 2947,
      "Marginal Workers Cultivators worked for 0 - 3 moths during last year - Persons": 2216,
      "Scheduled Caste Males": 72012,
      "Marginal Workers - Persons": 108388,
      "Deliveries at home conducted by skilled health personnel in percentage DLHS-4": 5,
      "Villages with Sub-Health Centres within 3km in percentage DLHS-4": 96.9,
      "Upper Primary New Government Schools since 2003 in percentage DISE": 100,
      "0-6 Age Group Males": 57382,
      "Primary Schools with drinking water facility in percentage DISE": 88.3,
      "Non Workers - Persons": 509156,
      "Person Literates": 646810,
      "State": "TRIPURA",
      "Total Female Population": 428457,
      "Marginal Workers worked for 0 - 3 moths during last year - Persons": 31237,
      "Marginal Workers Cultivators - Females": 8936,
      "Marginal Workers Other - Persons": 47035,
      "Sex Ratio": 957,
      "Scheduled Tribe Persons": 344835,
      "Marginal Workers Household Industry worked for 3 - 6 moths during last year - Males": 548,
      "Marginal Workers Agricultural Labourers - Females": 28106,
      "Mean age at marriage for girls DLHS-4": 21.1,
      "Households with solar energy as main source of lighting  Houselisting and Housing Census Data Tables- District Level , Census of India__4": 3185,
      "District": "SOUTH TRIPURA",
      "Households receiving treated tap water within premises in percentage Houselisting and Housing Census Data Tables- District Level , Census of India__1": 7.521811353,
      "Total Workers  Persons": 366845,
      "Households receiving treated tap water within premises  Houselisting and Housing Census Data Tables- District Level , Census of India__4": 15441,
      "Primary Female Teachers in percentage DISE": 20.5,
      "Number of Households": 208127,
      "Main Workers Agricultural Labourers - Persons": 66460
    }
  ],
  "Rural": [
    {
      "Marginal Workers Agricultural Labourers - Persons": 43836,
      "Marginal Workers Other - Females": 24849,
      "Marginal Workers Other worked for 0 - 3 moths during last year - Females": 13213,
      "Upper Primary Schools with boys toilet in percentage DISE": "NA",
      "Total Population": 752970,
      "Households with electricity as main source of lighting in percentage Houselisting and Housing Census Data Tables- District Level , Census of India": 60.44798894,
      "Primary Girl's Enrolment in percentage DISE": "NA",
      "Marginal Workers worked for 3 - 6 moths during last year - Males": 28259,
      "Prevalence of Acute illness in percentage DLHS-4": 9.8,
      "Main Workers - Persons": 220671,
      "Main Workers Cultivators - Females": 11654,
      "Marginal Workers Agricultural Labourers worked for 3 - 6 moths during last year - Females": 22534,
      "Marginal Workers Other worked for 0 - 3 moths during last year - Males": 5585,
      "Upper Primary Schools with drinking water facility in percentage DISE": "NA",
      "Primary Schools with girls toilet in percentage DISE": "NA",
      "Marginal Workers worked for 3 - 6 moths during last year - Persons": 71291,
      "Upper Primary Drop Out Rate in percentage DISE": "NA",
      "Prevalence of Anaemia in pregnant women aged 15-49years in percentage DLHS-4": 31,
      "Current use of any modern method of family planning in percentage DLHS-4": 43.1,
      "Marginal Workers Agricultural Labourers - Males": 16264,
      "Upper Primary Female Teachers in percentage DISE": "NA",
      "Marginal Workers - Females": 63676,
      "Marginal Workers Other worked for 3 - 6 moths during last year - Persons": 22490,
      "Main Workers Agricultural Labourers - Females": 15647,
      "Marginal Workers Cultivators worked for 3 - 6 moths during last year - Females": 7397,
      "Households with no lighting  Houselisting and Housing Census Data Tables- District Level , Census of India__5": 667,
      "Prevalence of Severe Anaemia  in percentage DLHS-4": 0.4,
      "Total unmet need for family planning in percentage DLHS-4": 31.3,
      "Main Workers Other - Males": 69710,
      "Children who received full vaccination in percentage DLHS-4": 53.6,
      "Marginal Workers Household Industry - Persons": 3102,
      "Primary Pupil-Teacher Ratio in percentage DISE": "NA",
      "Marginal Workers Agricultural Labourers worked for 3 - 6 moths during last year - Males": 13639,
      "Scheduled Caste Females": 54128,
      "Marginal Workers Cultivators - Males": 4004,
      "Marginal Workers - Males": 37416,
      "Marginal Workers worked for 0 - 3 moths during last year - Females": 20644,
      "Households with main source of drinking water within premises in percentage Houselisting and Housing Census Data Tables- District Level , Census of India": 20.41516713,
      "Marginal Workers Household Industry worked for 3 - 6 moths during last year - Persons": 1937,
      "Upper Primary Girl's Enrolment in percentage DISE": "NA",
      "Prevalence of Severe Anaemia in women aged 15-49years in percentage DLHS-4": 0.3,
      "Marginal Workers Agricultural Labourers worked for 0 - 3 moths during last year - Males": 2625,
      "Households with electricity as main source of lighting  Houselisting and Housing Census Data Tables- District Level , Census of India__3": 104977,
      "Households with computer or laptop with internet connection in percentage": 0.28,
      "PHCs functioning on a 24x7hours basis in percentage DLHS-4": "Not applicable",
      "Non Workers - Males": 167823,
      "Total Households in District Houselisting and Housing Census Data Tables- District Level , Census of India": 173665,
      "Upper Primary Schools with girls toilet in percentage DISE": "NA",
      "Households with mobile phone in percentage": 33.99,
      "Households receiving untreated tap water within premises in percentage Houselisting and Housing Census Data Tables- District Level , Census of India__2": 3.83727291,
      "Marginal Workers Cultivators worked for 3 - 6 moths during last year - Males": 3294,
      "Prevalence of Anaemia  in percentage DLHS-4": 41.6,
      "Prevalence of Chronic illness in percentage DLHS-4": 4.5,
      "Households with solar energy as main source of lighting in percentage Houselisting and Housing Census Data Tables- District Level , Census of India__1": 1.73437365,
      "Marginal Workers Agricultural Labourers worked for 0 - 3 moths during last year - Females": 5038,
      "Main Workers - Males": 179548,
      "Female": "NA",
      "Sno": 1693,
      "Marginal Workers Other worked for 3 - 6 moths during last year - Females": 11636,
      "Marginal Workers Cultivators worked for 0 - 3 moths during last year - Females": 1465,
      "Scheduled Tribe Males": 170241,
      "Male Illiterates": 87967,
      "Prevalence of Severe Anaemia in pregnant women aged 15-49years in percentage DLHS-4": 0,
      "0-6 Age Group Persons": 100135,
      "Upper Primary Student-Classroom Ratio in percentage DISE": "NA",
      "Currently married men married below 21years of age in percentage DLHS-4": 16,
      "Male Literates": 296820,
      "Households with no lighting in percentage Houselisting and Housing Census Data Tables- District Level , Census of India__2": 0.384072784,
      "Primary Drop Out Rate in percentage DISE": "NA",
      "Marginal Workers Household Industry - Males": 709,
      "Female Illiterates": 122117,
      "Main Workers Other - Females": 13109,
      "Marginal Workers Cultivators - Persons": 12866,
      "Upper Primary Gross Enrolment Ratio in percentage DISE": "NA",
      "Scheduled Caste Persons": 111464,
      "Marginal Workers Cultivators worked for 3 - 6 moths during last year - Persons": 10691,
      "Households with landline phone in percentage": 1.74,
      "Total Households in District  Houselisting and Housing Census Data Tables- District Level , Census of India": 173665,
      "Upper Primary Pupil-Teacher Ratio in percentage DISE": "NA",
      "Primary Student-Classroom Ratio in percentage DISE": "NA",
      "Primary Schools with boys toilet in percentage DISE": "NA",
      "Mean number of children ever born to women aged 40-49years  DLHS-4": 3,
      "Households receiving untreated tap water within premises  Houselisting and Housing Census Data Tables- District Level , Census of India__5": 6664,
      "Marginal Workers Household Industry worked for 0 - 3 moths during last year - Persons": 1165,
      "Total Male Population": 384787,
      "Non Workers - Females": 263384,
      "Current use of family planning methods in percentage DLHS-4": 60.2,
      "Households with main source of drinking water within premises  Houselisting and Housing Census Data Tables- District Level , Census of India__3": 35454,
      "Main Workers Agricultural Labourers - Males": 48635,
      "Marginal Workers Other worked for 0 - 3 moths during last year - Persons": 18798,
      "Currently married women married below 18years of age in percentage DLHS-4": 25.3,
      "Person Illiterates": 210084,
      "Main Workers Household Industry - Females": 713,
      "Female Literates": 246066,
      "Marginal Workers Cultivators worked for 0 - 3 moths during last year - Males": 710,
      "Male": "NA",
      "Households with improved source of drinking water in percentage DLHS-4": 85.7,
      "Upper Primary Schools with electricity in percentage DISE": "NA",
      "Households with electricity in percentage DLHS-4": 90,
      "Villages with Primary Health Centre within 10km in percentage DLHS-4": "Not applicable",
      "Births to women aged 15-19years out of Total births in percentage DLHS-4": 15.4,
      "Prevalence of Anaemia in women aged 15-49years in percentage DLHS-4": 39.7,
      "Marginal Workers Agricultural Labourers worked for 3 - 6 moths during last year - Persons": 36173,
      "Main Workers Household Industry - Males": 1845,
      "Scheduled Tribe Females": 168685,
      "Marginal Workers worked for 0 - 3 moths during last year - Males": 9157,
      "Marginal Workers Other worked for 3 - 6 moths during last year - Males": 10854,
      "Primary Net Enrolment Ratio in percentage DISE": "NA",
      "Total": "NA",
      "Mean age at marriage for boys DLHS-4": 24.9,
      "Number of District Hospitals  DLHS-4": "Not applicable",
      "0-6 Age Group Females": 48895,
      "Marginal Workers Agricultural Labourers worked for 0 - 3 moths during last year - Persons": 7663,
      "Marginal Workers Household Industry worked for 0 - 3 moths during last year - Males": 237,
      "Total Workers  Females": 104799,
      "Marginal Workers worked for 3 - 6 moths during last year - Females": 43032,
      "Institutional Deliveries in percentage DLHS-4": 67.3,
      "Marginal Workers Other - Males": 16439,
      "Total Workers  Males": 216964,
      "Main Workers - Females": 41123,
      "Primary Gross Enrolment Ratio in percentage DISE": "NA",
      "Main Workers Cultivators - Persons": 71012,
      "Marginal Workers Household Industry worked for 0 - 3 moths during last year - Females": 928,
      "Upper Primary Net Enrolment Ratio in percentage DISE": "NA",
      "Primary New Government Schools since 2003 in percentage DISE": "NA",
      "Tier": "Rural",
      "Marginal Workers Household Industry - Females": 2393,
      "Primary Schools with electricity in percentage DISE": "NA",
      "Main Workers Other - Persons": 82819,
      "Marginal Workers Household Industry worked for 3 - 6 moths during last year - Females": 1465,
      "Main Workers Cultivators - Males": 59358,
      "Main Workers Household Industry - Persons": 2558,
      "Marginal Workers Cultivators worked for 0 - 3 moths during last year - Persons": 2175,
      "Scheduled Caste Males": 57336,
      "Marginal Workers - Persons": 101092,
      "Deliveries at home conducted by skilled health personnel in percentage DLHS-4": 5.3,
      "Villages with Sub-Health Centres within 3km in percentage DLHS-4": "Not applicable",
      "Upper Primary New Government Schools since 2003 in percentage DISE": "NA",
      "0-6 Age Group Males": 51240,
      "Primary Schools with drinking water facility in percentage DISE": "NA",
      "Non Workers - Persons": 431207,
      "Person Literates": 542886,
      "State": "TRIPURA",
      "Total Female Population": 368183,
      "Marginal Workers worked for 0 - 3 moths during last year - Persons": 29801,
      "Marginal Workers Cultivators - Females": 8862,
      "Marginal Workers Other - Persons": 41288,
      "Sex Ratio": 957,
      "Scheduled Tribe Persons": 338926,
      "Marginal Workers Household Industry worked for 3 - 6 moths during last year - Males": 472,
      "Marginal Workers Agricultural Labourers - Females": 27572,
      "Mean age at marriage for girls DLHS-4": 21.7,
      "Households with solar energy as main source of lighting  Houselisting and Housing Census Data Tables- District Level , Census of India__4": 3012,
      "District": "SOUTH TRIPURA",
      "Households receiving treated tap water within premises in percentage Houselisting and Housing Census Data Tables- District Level , Census of India__1": 2.025739211,
      "Total Workers  Persons": 321763,
      "Households receiving treated tap water within premises  Houselisting and Housing Census Data Tables- District Level , Census of India__4": 3518,
      "Primary Female Teachers in percentage DISE": "NA",
      "Number of Households": 176230,
      "Main Workers Agricultural Labourers - Persons": 64282
    }
  ],
  "Urban": [
    {
      "Marginal Workers Agricultural Labourers - Persons": 1036,
      "Marginal Workers Other - Females": 2723,
      "Marginal Workers Other worked for 0 - 3 moths during last year - Females": 723,
      "Upper Primary Schools with boys toilet in percentage DISE": "NA",
      "Total Population": 123031,
      "Households with electricity as main source of lighting in percentage Houselisting and Housing Census Data Tables- District Level , Census of India": 90.98298438,
      "Primary Girl's Enrolment in percentage DISE": "NA",
      "Marginal Workers worked for 3 - 6 moths during last year - Males": 3218,
      "Prevalence of Acute illness in percentage DLHS-4": "Not available",
      "Main Workers - Persons": 37786,
      "Main Workers Cultivators - Females": 93,
      "Marginal Workers Agricultural Labourers worked for 3 - 6 moths during last year - Females": 448,
      "Marginal Workers Other worked for 0 - 3 moths during last year - Males": 400,
      "Upper Primary Schools with drinking water facility in percentage DISE": "NA",
      "Primary Schools with girls toilet in percentage DISE": "NA",
      "Marginal Workers worked for 3 - 6 moths during last year - Persons": 5860,
      "Upper Primary Drop Out Rate in percentage DISE": "NA",
      "Prevalence of Anaemia in pregnant women aged 15-49years in percentage DLHS-4": "Not available",
      "Current use of any modern method of family planning in percentage DLHS-4": "Not available",
      "Marginal Workers Agricultural Labourers - Males": 502,
      "Upper Primary Female Teachers in percentage DISE": "NA",
      "Marginal Workers - Females": 3533,
      "Marginal Workers Other worked for 3 - 6 moths during last year - Persons": 4624,
      "Main Workers Agricultural Labourers - Females": 412,
      "Marginal Workers Cultivators worked for 3 - 6 moths during last year - Females": 61,
      "Households with no lighting  Houselisting and Housing Census Data Tables- District Level , Census of India__5": 52,
      "Prevalence of Severe Anaemia  in percentage DLHS-4": "Not available",
      "Total unmet need for family planning in percentage DLHS-4": "Not available",
      "Main Workers Other - Males": 29049,
      "Children who received full vaccination in percentage DLHS-4": "Not available",
      "Marginal Workers Household Industry - Persons": 326,
      "Primary Pupil-Teacher Ratio in percentage DISE": "NA",
      "Marginal Workers Agricultural Labourers worked for 3 - 6 moths during last year - Males": 433,
      "Scheduled Caste Females": 14028,
      "Marginal Workers Cultivators - Males": 113,
      "Marginal Workers - Males": 3763,
      "Marginal Workers worked for 0 - 3 moths during last year - Females": 891,
      "Households with main source of drinking water within premises in percentage Houselisting and Housing Census Data Tables- District Level , Census of India": 59.86779682,
      "Marginal Workers Household Industry worked for 3 - 6 moths during last year - Persons": 209,
      "Upper Primary Girl's Enrolment in percentage DISE": "NA",
      "Prevalence of Severe Anaemia in women aged 15-49years in percentage DLHS-4": "Not available",
      "Marginal Workers Agricultural Labourers worked for 0 - 3 moths during last year - Males": 69,
      "Households with electricity as main source of lighting  Houselisting and Housing Census Data Tables- District Level , Census of India__3": 28767,
      "Households with computer or laptop with internet connection in percentage": 1.44,
      "PHCs functioning on a 24x7hours basis in percentage DLHS-4": 0,
      "Non Workers - Males": 26492,
      "Total Households in District Houselisting and Housing Census Data Tables- District Level , Census of India": 31618,
      "Upper Primary Schools with girls toilet in percentage DISE": "NA",
      "Households with mobile phone in percentage": 60.72,
      "Households receiving untreated tap water within premises in percentage Houselisting and Housing Census Data Tables- District Level , Census of India__2": 6.382440382,
      "Marginal Workers Cultivators worked for 3 - 6 moths during last year - Males": 85,
      "Prevalence of Anaemia  in percentage DLHS-4": "Not available",
      "Prevalence of Chronic illness in percentage DLHS-4": "Not available",
      "Households with solar energy as main source of lighting in percentage Houselisting and Housing Census Data Tables- District Level , Census of India__1": 0.547156683,
      "Marginal Workers Agricultural Labourers worked for 0 - 3 moths during last year - Females": 86,
      "Main Workers - Males": 32502,
      "Female": "NA",
      "Sno": 1695,
      "Marginal Workers Other worked for 3 - 6 moths during last year - Females": 2000,
      "Marginal Workers Cultivators worked for 0 - 3 moths during last year - Females": 13,
      "Scheduled Tribe Males": 2933,
      "Male Illiterates": 8495,
      "Prevalence of Severe Anaemia in pregnant women aged 15-49years in percentage DLHS-4": "Not available",
      "0-6 Age Group Persons": 11814,
      "Upper Primary Student-Classroom Ratio in percentage DISE": "NA",
      "Currently married men married below 21years of age in percentage DLHS-4": "Not available",
      "Male Literates": 54262,
      "Households with no lighting in percentage Houselisting and Housing Census Data Tables- District Level , Census of India__2": 0.16446328,
      "Primary Drop Out Rate in percentage DISE": "NA",
      "Marginal Workers Household Industry - Males": 124,
      "Female Illiterates": 10612,
      "Main Workers Other - Females": 4705,
      "Marginal Workers Cultivators - Persons": 187,
      "Upper Primary Gross Enrolment Ratio in percentage DISE": "NA",
      "Scheduled Caste Persons": 28704,
      "Marginal Workers Cultivators worked for 3 - 6 moths during last year - Persons": 146,
      "Households with landline phone in percentage": 3.59,
      "Total Households in District  Houselisting and Housing Census Data Tables- District Level , Census of India": 31618,
      "Upper Primary Pupil-Teacher Ratio in percentage DISE": "NA",
      "Primary Student-Classroom Ratio in percentage DISE": "NA",
      "Primary Schools with boys toilet in percentage DISE": "NA",
      "Mean number of children ever born to women aged 40-49years  DLHS-4": "Not available",
      "Households receiving untreated tap water within premises  Houselisting and Housing Census Data Tables- District Level , Census of India__5": 2018,
      "Marginal Workers Household Industry worked for 0 - 3 moths during last year - Persons": 117,
      "Total Male Population": 62757,
      "Non Workers - Females": 51457,
      "Current use of family planning methods in percentage DLHS-4": "Not available",
      "Households with main source of drinking water within premises  Houselisting and Housing Census Data Tables- District Level , Census of India__3": 18929,
      "Main Workers Agricultural Labourers - Males": 1766,
      "Marginal Workers Other worked for 0 - 3 moths during last year - Persons": 1123,
      "Currently married women married below 18years of age in percentage DLHS-4": "Not available",
      "Person Illiterates": 19107,
      "Main Workers Household Industry - Females": 74,
      "Female Literates": 49662,
      "Marginal Workers Cultivators worked for 0 - 3 moths during last year - Males": 28,
      "Male": "NA",
      "Households with improved source of drinking water in percentage DLHS-4": "Not available",
      "Upper Primary Schools with electricity in percentage DISE": "NA",
      "Households with electricity in percentage DLHS-4": "Not available",
      "Villages with Primary Health Centre within 10km in percentage DLHS-4": 0,
      "Births to women aged 15-19years out of Total births in percentage DLHS-4": "Not available",
      "Prevalence of Anaemia in women aged 15-49years in percentage DLHS-4": "Not available",
      "Marginal Workers Agricultural Labourers worked for 3 - 6 moths during last year - Persons": 881,
      "Main Workers Household Industry - Males": 315,
      "Scheduled Tribe Females": 2976,
      "Marginal Workers worked for 0 - 3 moths during last year - Males": 545,
      "Marginal Workers Other worked for 3 - 6 moths during last year - Males": 2624,
      "Primary Net Enrolment Ratio in percentage DISE": "NA",
      "Total": "NA",
      "Mean age at marriage for boys DLHS-4": "Not available",
      "Number of District Hospitals  DLHS-4": 0,
      "0-6 Age Group Females": 5672,
      "Marginal Workers Agricultural Labourers worked for 0 - 3 moths during last year - Persons": 155,
      "Marginal Workers Household Industry worked for 0 - 3 moths during last year - Males": 48,
      "Total Workers  Females": 8817,
      "Marginal Workers worked for 3 - 6 moths during last year - Females": 2642,
      "Institutional Deliveries in percentage DLHS-4": "Not available",
      "Marginal Workers Other - Males": 3024,
      "Total Workers  Males": 36265,
      "Main Workers - Females": 5284,
      "Primary Gross Enrolment Ratio in percentage DISE": "NA",
      "Main Workers Cultivators - Persons": 1465,
      "Marginal Workers Household Industry worked for 0 - 3 moths during last year - Females": 69,
      "Upper Primary Net Enrolment Ratio in percentage DISE": "NA",
      "Primary New Government Schools since 2003 in percentage DISE": "NA",
      "Tier": "Urban",
      "Marginal Workers Household Industry - Females": 202,
      "Primary Schools with electricity in percentage DISE": "NA",
      "Main Workers Other - Persons": 33754,
      "Marginal Workers Household Industry worked for 3 - 6 moths during last year - Females": 133,
      "Main Workers Cultivators - Males": 1372,
      "Main Workers Household Industry - Persons": 389,
      "Marginal Workers Cultivators worked for 0 - 3 moths during last year - Persons": 41,
      "Scheduled Caste Males": 14676,
      "Marginal Workers - Persons": 7296,
      "Deliveries at home conducted by skilled health personnel in percentage DLHS-4": "Not available",
      "Villages with Sub-Health Centres within 3km in percentage DLHS-4": 0,
      "Upper Primary New Government Schools since 2003 in percentage DISE": "NA",
      "0-6 Age Group Males": 6142,
      "Primary Schools with drinking water facility in percentage DISE": "NA",
      "Non Workers - Persons": 77949,
      "Person Literates": 103924,
      "State": "TRIPURA",
      "Total Female Population": 60274,
      "Marginal Workers worked for 0 - 3 moths during last year - Persons": 1436,
      "Marginal Workers Cultivators - Females": 74,
      "Marginal Workers Other - Persons": 5747,
      "Sex Ratio": 960,
      "Scheduled Tribe Persons": 5909,
      "Marginal Workers Household Industry worked for 3 - 6 moths during last year - Males": 76,
      "Marginal Workers Agricultural Labourers - Females": 534,
      "Mean age at marriage for girls DLHS-4": "Not available",
      "Households with solar energy as main source of lighting  Houselisting and Housing Census Data Tables- District Level , Census of India__4": 173,
      "District": "SOUTH TRIPURA",
      "Households receiving treated tap water within premises in percentage Houselisting and Housing Census Data Tables- District Level , Census of India__1": 37.70953254,
      "Total Workers  Persons": 45082,
      "Households receiving treated tap water within premises  Houselisting and Housing Census Data Tables- District Level , Census of India__4": 11923,
      "Primary Female Teachers in percentage DISE": "NA",
      "Number of Households": 31897,
      "Main Workers Agricultural Labourers - Persons": 2178
    }
  ]
}