{
  "Total": [
    {
      "Marginal Workers Agricultural Labourers - Persons": 26643,
      "Marginal Workers Other - Females": 64631,
      "Marginal Workers Other worked for 0 - 3 moths during last year - Females": 23193,
      "Upper Primary Schools with boys toilet in percentage DISE": 100,
      "Total Population": 3086293,
      "Households with electricity as main source of lighting in percentage Houselisting and Housing Census Data Tables- District Level , Census of India": 93.83394874,
      "Primary Girl's Enrolment in percentage DISE": 49.9,
      "Marginal Workers worked for 3 - 6 moths during last year - Males": 93404,
      "Prevalence of Acute illness in percentage DLHS-4": 9.7,
      "Main Workers - Persons": 754187,
      "Main Workers Cultivators - Females": 2517,
      "Marginal Workers Agricultural Labourers worked for 3 - 6 moths during last year - Females": 6158,
      "Marginal Workers Other worked for 0 - 3 moths during last year - Males": 16852,
      "Upper Primary Schools with drinking water facility in percentage DISE": 100,
      "Primary Schools with girls toilet in percentage DISE": 90.6,
      "Marginal Workers worked for 3 - 6 moths during last year - Persons": 144000,
      "Upper Primary Drop Out Rate in percentage DISE": "Not available",
      "Prevalence of Anaemia in pregnant women aged 15-49years in percentage DLHS-4": 46.8,
      "Current use of any modern method of family planning in percentage DLHS-4": 59.4,
      "Marginal Workers Agricultural Labourers - Males": 15925,
      "Upper Primary Female Teachers in percentage DISE": 58.8,
      "Marginal Workers - Females": 79560,
      "Marginal Workers Other worked for 3 - 6 moths during last year - Persons": 117384,
      "Main Workers Agricultural Labourers - Females": 6212,
      "Marginal Workers Cultivators worked for 3 - 6 moths during last year - Females": 1701,
      "Households with no lighting  Houselisting and Housing Census Data Tables- District Level , Census of India__5": 122,
      "Prevalence of Severe Anaemia  in percentage DLHS-4": 3.9,
      "Total unmet need for family planning in percentage DLHS-4": 19.5,
      "Main Workers Other - Males": 580972,
      "Children who received full vaccination in percentage DLHS-4": 87.2,
      "Marginal Workers Household Industry - Persons": 4084,
      "Primary Pupil-Teacher Ratio in percentage DISE": 16,
      "Marginal Workers Agricultural Labourers worked for 3 - 6 moths during last year - Males": 12406,
      "Scheduled Caste Females": 101912,
      "Marginal Workers Cultivators - Males": 4401,
      "Marginal Workers - Males": 115234,
      "Marginal Workers worked for 0 - 3 moths during last year - Females": 28964,
      "Households with main source of drinking water within premises in percentage Houselisting and Housing Census Data Tables- District Level , Census of India": 79.29908968,
      "Marginal Workers Household Industry worked for 3 - 6 moths during last year - Persons": 2898,
      "Upper Primary Girl's Enrolment in percentage DISE": 46.6,
      "Prevalence of Severe Anaemia in women aged 15-49years in percentage DLHS-4": 2.7,
      "Marginal Workers Agricultural Labourers worked for 0 - 3 moths during last year - Males": 3519,
      "Households with electricity as main source of lighting  Houselisting and Housing Census Data Tables- District Level , Census of India__3": 641660,
      "Households with computer or laptop with internet connection in percentage": 5.38,
      "PHCs functioning on a 24x7hours basis in percentage DLHS-4": 9,
      "Non Workers - Males": 718609,
      "Total Households in District Houselisting and Housing Census Data Tables- District Level , Census of India": 683825,
      "Upper Primary Schools with girls toilet in percentage DISE": 95.4,
      "Households with mobile phone in percentage": 43.05,
      "Households receiving untreated tap water within premises in percentage Houselisting and Housing Census Data Tables- District Level , Census of India__2": 2.676708222,
      "Marginal Workers Cultivators worked for 3 - 6 moths during last year - Males": 3453,
      "Prevalence of Anaemia  in percentage DLHS-4": 57.9,
      "Prevalence of Chronic illness in percentage DLHS-4": 6,
      "Households with solar energy as main source of lighting in percentage Houselisting and Housing Census Data Tables- District Level , Census of India__1": 0.104558915,
      "Marginal Workers Agricultural Labourers worked for 0 - 3 moths during last year - Females": 4560,
      "Main Workers - Males": 637099,
      "Female": 92.99,
      "Sno": 875,
      "Marginal Workers Other worked for 3 - 6 moths during last year - Females": 41438,
      "Marginal Workers Cultivators worked for 0 - 3 moths during last year - Females": 536,
      "Scheduled Tribe Males": 7429,
      "Male Illiterates": 204003,
      "Prevalence of Severe Anaemia in pregnant women aged 15-49years in percentage DLHS-4": 0,
      "0-6 Age Group Persons": 335645,
      "Upper Primary Student-Classroom Ratio in percentage DISE": 27,
      "Currently married men married below 21years of age in percentage DLHS-4": 0,
      "Male Literates": 1266939,
      "Households with no lighting in percentage Houselisting and Housing Census Data Tables- District Level , Census of India__2": 0.0178,
      "Primary Drop Out Rate in percentage DISE": "Not available",
      "Marginal Workers Household Industry - Males": 2110,
      "Female Illiterates": 266847,
      "Main Workers Other - Females": 106527,
      "Marginal Workers Cultivators - Persons": 6638,
      "Upper Primary Gross Enrolment Ratio in percentage DISE": 96.9,
      "Scheduled Caste Persons": 199191,
      "Marginal Workers Cultivators worked for 3 - 6 moths during last year - Persons": 5154,
      "Households with landline phone in percentage": 14.48,
      "Total Households in District  Houselisting and Housing Census Data Tables- District Level , Census of India": 683825,
      "Upper Primary Pupil-Teacher Ratio in percentage DISE": 20,
      "Primary Student-Classroom Ratio in percentage DISE": 17,
      "Primary Schools with boys toilet in percentage DISE": 88.1,
      "Mean number of children ever born to women aged 40-49years  DLHS-4": 2.5,
      "Households receiving untreated tap water within premises  Houselisting and Housing Census Data Tables- District Level , Census of India__5": 18304,
      "Marginal Workers Household Industry worked for 0 - 3 moths during last year - Persons": 1186,
      "Total Male Population": 1470942,
      "Non Workers - Females": 1418703,
      "Current use of family planning methods in percentage DLHS-4": 63.7,
      "Households with main source of drinking water within premises  Houselisting and Housing Census Data Tables- District Level , Census of India__3": 542267,
      "Main Workers Agricultural Labourers - Males": 31343,
      "Marginal Workers Other worked for 0 - 3 moths during last year - Persons": 40045,
      "Currently married women married below 18years of age in percentage DLHS-4": 2.3,
      "Person Illiterates": 470850,
      "Main Workers Household Industry - Females": 1832,
      "Female Literates": 1348504,
      "Marginal Workers Cultivators worked for 0 - 3 moths during last year - Males": 948,
      "Male": 97.42,
      "Households with improved source of drinking water in percentage DLHS-4": 97.2,
      "Upper Primary Schools with electricity in percentage DISE": 95.3,
      "Households with electricity in percentage DLHS-4": 99.3,
      "Villages with Primary Health Centre within 10km in percentage DLHS-4": 100,
      "Births to women aged 15-19years out of Total births in percentage DLHS-4": 2.2,
      "Prevalence of Anaemia in women aged 15-49years in percentage DLHS-4": 46.4,
      "Marginal Workers Agricultural Labourers worked for 3 - 6 moths during last year - Persons": 18564,
      "Main Workers Household Industry - Males": 7396,
      "Scheduled Tribe Females": 7799,
      "Marginal Workers worked for 0 - 3 moths during last year - Males": 21830,
      "Marginal Workers Other worked for 3 - 6 moths during last year - Males": 75946,
      "Primary Net Enrolment Ratio in percentage DISE": 87.9,
      "Total": 95.08,
      "Mean age at marriage for boys DLHS-4": 28.6,
      "Number of District Hospitals  DLHS-4": 1,
      "0-6 Age Group Females": 165216,
      "Marginal Workers Agricultural Labourers worked for 0 - 3 moths during last year - Persons": 8079,
      "Marginal Workers Household Industry worked for 0 - 3 moths during last year - Males": 511,
      "Total Workers  Females": 196648,
      "Marginal Workers worked for 3 - 6 moths during last year - Females": 50596,
      "Institutional Deliveries in percentage DLHS-4": 100,
      "Marginal Workers Other - Males": 92798,
      "Total Workers  Males": 752333,
      "Main Workers - Females": 117088,
      "Primary Gross Enrolment Ratio in percentage DISE": 97.7,
      "Main Workers Cultivators - Persons": 19905,
      "Marginal Workers Household Industry worked for 0 - 3 moths during last year - Females": 675,
      "Upper Primary Net Enrolment Ratio in percentage DISE": 81.1,
      "Primary New Government Schools since 2003 in percentage DISE": 7.1,
      "Tier": "Total",
      "Marginal Workers Household Industry - Females": 1974,
      "Primary Schools with electricity in percentage DISE": 92.3,
      "Main Workers Other - Persons": 687499,
      "Marginal Workers Household Industry worked for 3 - 6 moths during last year - Females": 1299,
      "Main Workers Cultivators - Males": 17388,
      "Main Workers Household Industry - Persons": 9228,
      "Marginal Workers Cultivators worked for 0 - 3 moths during last year - Persons": 1484,
      "Scheduled Caste Males": 97279,
      "Marginal Workers - Persons": 194794,
      "Deliveries at home conducted by skilled health personnel in percentage DLHS-4": "0.0                                        (no deliveries at home)",
      "Villages with Sub-Health Centres within 3km in percentage DLHS-4": 92.3,
      "Upper Primary New Government Schools since 2003 in percentage DISE": 0,
      "0-6 Age Group Males": 170429,
      "Primary Schools with drinking water facility in percentage DISE": 98.6,
      "Non Workers - Persons": 2137312,
      "Person Literates": 2615443,
      "State": "KERALA",
      "Total Female Population": 1615351,
      "Marginal Workers worked for 0 - 3 moths during last year - Persons": 50794,
      "Marginal Workers Cultivators - Females": 2237,
      "Marginal Workers Other - Persons": 157429,
      "Sex Ratio": 1098,
      "Scheduled Tribe Persons": 15228,
      "Marginal Workers Household Industry worked for 3 - 6 moths during last year - Males": 1599,
      "Marginal Workers Agricultural Labourers - Females": 10718,
      "Mean age at marriage for girls DLHS-4": 22.2,
      "Households with solar energy as main source of lighting  Houselisting and Housing Census Data Tables- District Level , Census of India__4": 715,
      "District": "KOZHIKODE",
      "Households receiving treated tap water within premises in percentage Houselisting and Housing Census Data Tables- District Level , Census of India__1": 12.44558184,
      "Total Workers  Persons": 948981,
      "Households receiving treated tap water within premises  Houselisting and Housing Census Data Tables- District Level , Census of India__4": 85106,
      "Primary Female Teachers in percentage DISE": 69.7,
      "Number of Households": 697710,
      "Main Workers Agricultural Labourers - Persons": 37555
    }
  ],
  "Rural": [
    {
      "Marginal Workers Agricultural Labourers - Persons": 14749,
      "Marginal Workers Other - Females": 26501,
      "Marginal Workers Other worked for 0 - 3 moths during last year - Females": 10647,
      "Upper Primary Schools with boys toilet in percentage DISE": "NA",
      "Total Population": 1013721,
      "Households with electricity as main source of lighting in percentage Houselisting and Housing Census Data Tables- District Level , Census of India": 90.46411285,
      "Primary Girl's Enrolment in percentage DISE": "NA",
      "Marginal Workers worked for 3 - 6 moths during last year - Males": 36983,
      "Prevalence of Acute illness in percentage DLHS-4": 9.6,
      "Main Workers - Persons": 235073,
      "Main Workers Cultivators - Females": 1957,
      "Marginal Workers Agricultural Labourers worked for 3 - 6 moths during last year - Females": 3552,
      "Marginal Workers Other worked for 0 - 3 moths during last year - Males": 6669,
      "Upper Primary Schools with drinking water facility in percentage DISE": "NA",
      "Primary Schools with girls toilet in percentage DISE": "NA",
      "Marginal Workers worked for 3 - 6 moths during last year - Persons": 57958,
      "Upper Primary Drop Out Rate in percentage DISE": "NA",
      "Prevalence of Anaemia in pregnant women aged 15-49years in percentage DLHS-4": 40.6,
      "Current use of any modern method of family planning in percentage DLHS-4": 60.7,
      "Marginal Workers Agricultural Labourers - Males": 8809,
      "Upper Primary Female Teachers in percentage DISE": "NA",
      "Marginal Workers - Females": 34709,
      "Marginal Workers Other worked for 3 - 6 moths during last year - Persons": 42961,
      "Main Workers Agricultural Labourers - Females": 3821,
      "Marginal Workers Cultivators worked for 3 - 6 moths during last year - Females": 1094,
      "Households with no lighting  Houselisting and Housing Census Data Tables- District Level , Census of India__5": 35,
      "Prevalence of Severe Anaemia  in percentage DLHS-4": 3.2,
      "Total unmet need for family planning in percentage DLHS-4": 19.3,
      "Main Workers Other - Males": 164367,
      "Children who received full vaccination in percentage DLHS-4": 85,
      "Marginal Workers Household Industry - Persons": 1748,
      "Primary Pupil-Teacher Ratio in percentage DISE": "NA",
      "Marginal Workers Agricultural Labourers worked for 3 - 6 moths during last year - Males": 6894,
      "Scheduled Caste Females": 38473,
      "Marginal Workers Cultivators - Males": 2907,
      "Marginal Workers - Males": 46464,
      "Marginal Workers worked for 0 - 3 moths during last year - Females": 13734,
      "Households with main source of drinking water within premises in percentage Houselisting and Housing Census Data Tables- District Level , Census of India": 73.98031245,
      "Marginal Workers Household Industry worked for 3 - 6 moths during last year - Persons": 1188,
      "Upper Primary Girl's Enrolment in percentage DISE": "NA",
      "Prevalence of Severe Anaemia in women aged 15-49years in percentage DLHS-4": 4.5,
      "Marginal Workers Agricultural Labourers worked for 0 - 3 moths during last year - Males": 1915,
      "Households with electricity as main source of lighting  Houselisting and Housing Census Data Tables- District Level , Census of India__3": 210083,
      "Households with computer or laptop with internet connection in percentage": 3.24,
      "PHCs functioning on a 24x7hours basis in percentage DLHS-4": "Not applicable",
      "Non Workers - Males": 240231,
      "Total Households in District Houselisting and Housing Census Data Tables- District Level , Census of India": 232228,
      "Upper Primary Schools with girls toilet in percentage DISE": "NA",
      "Households with mobile phone in percentage": 37.52,
      "Households receiving untreated tap water within premises in percentage Houselisting and Housing Census Data Tables- District Level , Census of India__2": 3.292884579,
      "Marginal Workers Cultivators worked for 3 - 6 moths during last year - Males": 2269,
      "Prevalence of Anaemia  in percentage DLHS-4": 56.5,
      "Prevalence of Chronic illness in percentage DLHS-4": 7.1,
      "Households with solar energy as main source of lighting in percentage Houselisting and Housing Census Data Tables- District Level , Census of India__1": 0.131767057,
      "Marginal Workers Agricultural Labourers worked for 0 - 3 moths during last year - Females": 2388,
      "Main Workers - Males": 198089,
      "Female": "NA",
      "Sno": 874,
      "Marginal Workers Other worked for 3 - 6 moths during last year - Females": 15854,
      "Marginal Workers Cultivators worked for 0 - 3 moths during last year - Females": 398,
      "Scheduled Tribe Males": 4700,
      "Male Illiterates": 70388,
      "Prevalence of Severe Anaemia in pregnant women aged 15-49years in percentage DLHS-4": 0,
      "0-6 Age Group Persons": 114602,
      "Upper Primary Student-Classroom Ratio in percentage DISE": "NA",
      "Currently married men married below 21years of age in percentage DLHS-4": 0,
      "Male Literates": 414396,
      "Households with no lighting in percentage Houselisting and Housing Census Data Tables- District Level , Census of India__2": 0.0151,
      "Primary Drop Out Rate in percentage DISE": "NA",
      "Marginal Workers Household Industry - Males": 972,
      "Female Illiterates": 93955,
      "Main Workers Other - Females": 30625,
      "Marginal Workers Cultivators - Persons": 4399,
      "Upper Primary Gross Enrolment Ratio in percentage DISE": "NA",
      "Scheduled Caste Persons": 75490,
      "Marginal Workers Cultivators worked for 3 - 6 moths during last year - Persons": 3363,
      "Households with landline phone in percentage": 17.32,
      "Total Households in District  Houselisting and Housing Census Data Tables- District Level , Census of India": 232228,
      "Upper Primary Pupil-Teacher Ratio in percentage DISE": "NA",
      "Primary Student-Classroom Ratio in percentage DISE": "NA",
      "Primary Schools with boys toilet in percentage DISE": "NA",
      "Mean number of children ever born to women aged 40-49years  DLHS-4": 2.5,
      "Households receiving untreated tap water within premises  Houselisting and Housing Census Data Tables- District Level , Census of India__5": 7647,
      "Marginal Workers Household Industry worked for 0 - 3 moths during last year - Persons": 560,
      "Total Male Population": 484784,
      "Non Workers - Females": 457244,
      "Current use of family planning methods in percentage DLHS-4": 65.1,
      "Households with main source of drinking water within premises  Houselisting and Housing Census Data Tables- District Level , Census of India__3": 171803,
      "Main Workers Agricultural Labourers - Males": 18060,
      "Marginal Workers Other worked for 0 - 3 moths during last year - Persons": 17316,
      "Currently married women married below 18years of age in percentage DLHS-4": 3,
      "Person Illiterates": 164343,
      "Main Workers Household Industry - Females": 581,
      "Female Literates": 434982,
      "Marginal Workers Cultivators worked for 0 - 3 moths during last year - Males": 638,
      "Male": "NA",
      "Households with improved source of drinking water in percentage DLHS-4": 96.7,
      "Upper Primary Schools with electricity in percentage DISE": "NA",
      "Households with electricity in percentage DLHS-4": 98.9,
      "Villages with Primary Health Centre within 10km in percentage DLHS-4": "Not applicable",
      "Births to women aged 15-19years out of Total births in percentage DLHS-4": 0,
      "Prevalence of Anaemia in women aged 15-49years in percentage DLHS-4": 49.6,
      "Marginal Workers Agricultural Labourers worked for 3 - 6 moths during last year - Persons": 10446,
      "Main Workers Household Industry - Males": 2518,
      "Scheduled Tribe Females": 4855,
      "Marginal Workers worked for 0 - 3 moths during last year - Males": 9481,
      "Marginal Workers Other worked for 3 - 6 moths during last year - Males": 27107,
      "Primary Net Enrolment Ratio in percentage DISE": "NA",
      "Total": "NA",
      "Mean age at marriage for boys DLHS-4": 28,
      "Number of District Hospitals  DLHS-4": "Not applicable",
      "0-6 Age Group Females": 56348,
      "Marginal Workers Agricultural Labourers worked for 0 - 3 moths during last year - Persons": 4303,
      "Marginal Workers Household Industry worked for 0 - 3 moths during last year - Males": 259,
      "Total Workers  Females": 71693,
      "Marginal Workers worked for 3 - 6 moths during last year - Females": 20975,
      "Institutional Deliveries in percentage DLHS-4": 100,
      "Marginal Workers Other - Males": 33776,
      "Total Workers  Males": 244553,
      "Main Workers - Females": 36984,
      "Primary Gross Enrolment Ratio in percentage DISE": "NA",
      "Main Workers Cultivators - Persons": 15101,
      "Marginal Workers Household Industry worked for 0 - 3 moths during last year - Females": 301,
      "Upper Primary Net Enrolment Ratio in percentage DISE": "NA",
      "Primary New Government Schools since 2003 in percentage DISE": "NA",
      "Tier": "Rural",
      "Marginal Workers Household Industry - Females": 776,
      "Primary Schools with electricity in percentage DISE": "NA",
      "Main Workers Other - Persons": 194992,
      "Marginal Workers Household Industry worked for 3 - 6 moths during last year - Females": 475,
      "Main Workers Cultivators - Males": 13144,
      "Main Workers Household Industry - Persons": 3099,
      "Marginal Workers Cultivators worked for 0 - 3 moths during last year - Persons": 1036,
      "Scheduled Caste Males": 37017,
      "Marginal Workers - Persons": 81173,
      "Deliveries at home conducted by skilled health personnel in percentage DLHS-4": "0.0                                        (no deliveries at home)",
      "Villages with Sub-Health Centres within 3km in percentage DLHS-4": "Not applicable",
      "Upper Primary New Government Schools since 2003 in percentage DISE": "NA",
      "0-6 Age Group Males": 58254,
      "Primary Schools with drinking water facility in percentage DISE": "NA",
      "Non Workers - Persons": 697475,
      "Person Literates": 849378,
      "State": "KERALA",
      "Total Female Population": 528937,
      "Marginal Workers worked for 0 - 3 moths during last year - Persons": 23215,
      "Marginal Workers Cultivators - Females": 1492,
      "Marginal Workers Other - Persons": 60277,
      "Sex Ratio": 1091,
      "Scheduled Tribe Persons": 9555,
      "Marginal Workers Household Industry worked for 3 - 6 moths during last year - Males": 713,
      "Marginal Workers Agricultural Labourers - Females": 5940,
      "Mean age at marriage for girls DLHS-4": 21.7,
      "Households with solar energy as main source of lighting  Houselisting and Housing Census Data Tables- District Level , Census of India__4": 306,
      "District": "KOZHIKODE",
      "Households receiving treated tap water within premises in percentage Houselisting and Housing Census Data Tables- District Level , Census of India__1": 8.32457757,
      "Total Workers  Persons": 316246,
      "Households receiving treated tap water within premises  Houselisting and Housing Census Data Tables- District Level , Census of India__4": 19332,
      "Primary Female Teachers in percentage DISE": "NA",
      "Number of Households": 235703,
      "Main Workers Agricultural Labourers - Persons": 21881
    }
  ],
  "Urban": [
    {
      "Marginal Workers Agricultural Labourers - Persons": 11894,
      "Marginal Workers Other - Females": 38130,
      "Marginal Workers Other worked for 0 - 3 moths during last year - Females": 12546,
      "Upper Primary Schools with boys toilet in percentage DISE": "NA",
      "Total Population": 2072572,
      "Households with electricity as main source of lighting in percentage Houselisting and Housing Census Data Tables- District Level , Census of India": 95.56684389,
      "Primary Girl's Enrolment in percentage DISE": "NA",
      "Marginal Workers worked for 3 - 6 moths during last year - Males": 56421,
      "Prevalence of Acute illness in percentage DLHS-4": "Not available",
      "Main Workers - Persons": 519114,
      "Main Workers Cultivators - Females": 560,
      "Marginal Workers Agricultural Labourers worked for 3 - 6 moths during last year - Females": 2606,
      "Marginal Workers Other worked for 0 - 3 moths during last year - Males": 10183,
      "Upper Primary Schools with drinking water facility in percentage DISE": "NA",
      "Primary Schools with girls toilet in percentage DISE": "NA",
      "Marginal Workers worked for 3 - 6 moths during last year - Persons": 86042,
      "Upper Primary Drop Out Rate in percentage DISE": "NA",
      "Prevalence of Anaemia in pregnant women aged 15-49years in percentage DLHS-4": "Not available",
      "Current use of any modern method of family planning in percentage DLHS-4": "Not available",
      "Marginal Workers Agricultural Labourers - Males": 7116,
      "Upper Primary Female Teachers in percentage DISE": "NA",
      "Marginal Workers - Females": 44851,
      "Marginal Workers Other worked for 3 - 6 moths during last year - Persons": 74423,
      "Main Workers Agricultural Labourers - Females": 2391,
      "Marginal Workers Cultivators worked for 3 - 6 moths during last year - Females": 607,
      "Households with no lighting  Houselisting and Housing Census Data Tables- District Level , Census of India__5": 87,
      "Prevalence of Severe Anaemia  in percentage DLHS-4": "Not available",
      "Total unmet need for family planning in percentage DLHS-4": "Not available",
      "Main Workers Other - Males": 416605,
      "Children who received full vaccination in percentage DLHS-4": "Not available",
      "Marginal Workers Household Industry - Persons": 2336,
      "Primary Pupil-Teacher Ratio in percentage DISE": "NA",
      "Marginal Workers Agricultural Labourers worked for 3 - 6 moths during last year - Males": 5512,
      "Scheduled Caste Females": 63439,
      "Marginal Workers Cultivators - Males": 1494,
      "Marginal Workers - Males": 68770,
      "Marginal Workers worked for 0 - 3 moths during last year - Females": 15230,
      "Households with main source of drinking water within premises in percentage Houselisting and Housing Census Data Tables- District Level , Census of India": 82.03420306,
      "Marginal Workers Household Industry worked for 3 - 6 moths during last year - Persons": 1710,
      "Upper Primary Girl's Enrolment in percentage DISE": "NA",
      "Prevalence of Severe Anaemia in women aged 15-49years in percentage DLHS-4": "Not available",
      "Marginal Workers Agricultural Labourers worked for 0 - 3 moths during last year - Males": 1604,
      "Households with electricity as main source of lighting  Houselisting and Housing Census Data Tables- District Level , Census of India__3": 431577,
      "Households with computer or laptop with internet connection in percentage": 6.48,
      "PHCs functioning on a 24x7hours basis in percentage DLHS-4": 0,
      "Non Workers - Males": 478378,
      "Total Households in District Houselisting and Housing Census Data Tables- District Level , Census of India": 451597,
      "Upper Primary Schools with girls toilet in percentage DISE": "NA",
      "Households with mobile phone in percentage": 45.9,
      "Households receiving untreated tap water within premises in percentage Houselisting and Housing Census Data Tables- District Level , Census of India__2": 2.359847386,
      "Marginal Workers Cultivators worked for 3 - 6 moths during last year - Males": 1184,
      "Prevalence of Anaemia  in percentage DLHS-4": "Not available",
      "Prevalence of Chronic illness in percentage DLHS-4": "Not available",
      "Households with solar energy as main source of lighting in percentage Houselisting and Housing Census Data Tables- District Level , Census of India__1": 0.0906,
      "Marginal Workers Agricultural Labourers worked for 0 - 3 moths during last year - Females": 2172,
      "Main Workers - Males": 439010,
      "Female": "NA",
      "Sno": 876,
      "Marginal Workers Other worked for 3 - 6 moths during last year - Females": 25584,
      "Marginal Workers Cultivators worked for 0 - 3 moths during last year - Females": 138,
      "Scheduled Tribe Males": 2729,
      "Male Illiterates": 133615,
      "Prevalence of Severe Anaemia in pregnant women aged 15-49years in percentage DLHS-4": "Not available",
      "0-6 Age Group Persons": 221043,
      "Upper Primary Student-Classroom Ratio in percentage DISE": "NA",
      "Currently married men married below 21years of age in percentage DLHS-4": "Not available",
      "Male Literates": 852543,
      "Households with no lighting in percentage Houselisting and Housing Census Data Tables- District Level , Census of India__2": 0.0193,
      "Primary Drop Out Rate in percentage DISE": "NA",
      "Marginal Workers Household Industry - Males": 1138,
      "Female Illiterates": 172892,
      "Main Workers Other - Females": 75902,
      "Marginal Workers Cultivators - Persons": 2239,
      "Upper Primary Gross Enrolment Ratio in percentage DISE": "NA",
      "Scheduled Caste Persons": 123701,
      "Marginal Workers Cultivators worked for 3 - 6 moths during last year - Persons": 1791,
      "Households with landline phone in percentage": 13.03,
      "Total Households in District  Houselisting and Housing Census Data Tables- District Level , Census of India": 451597,
      "Upper Primary Pupil-Teacher Ratio in percentage DISE": "NA",
      "Primary Student-Classroom Ratio in percentage DISE": "NA",
      "Primary Schools with boys toilet in percentage DISE": "NA",
      "Mean number of children ever born to women aged 40-49years  DLHS-4": "Not available",
      "Households receiving untreated tap water within premises  Houselisting and Housing Census Data Tables- District Level , Census of India__5": 10657,
      "Marginal Workers Household Industry worked for 0 - 3 moths during last year - Persons": 626,
      "Total Male Population": 986158,
      "Non Workers - Females": 961459,
      "Current use of family planning methods in percentage DLHS-4": "Not available",
      "Households with main source of drinking water within premises  Houselisting and Housing Census Data Tables- District Level , Census of India__3": 370464,
      "Main Workers Agricultural Labourers - Males": 13283,
      "Marginal Workers Other worked for 0 - 3 moths during last year - Persons": 22729,
      "Currently married women married below 18years of age in percentage DLHS-4": "Not available",
      "Person Illiterates": 306507,
      "Main Workers Household Industry - Females": 1251,
      "Female Literates": 913522,
      "Marginal Workers Cultivators worked for 0 - 3 moths during last year - Males": 310,
      "Male": "NA",
      "Households with improved source of drinking water in percentage DLHS-4": "Not available",
      "Upper Primary Schools with electricity in percentage DISE": "NA",
      "Households with electricity in percentage DLHS-4": "Not available",
      "Villages with Primary Health Centre within 10km in percentage DLHS-4": 0,
      "Births to women aged 15-19years out of Total births in percentage DLHS-4": "Not available",
      "Prevalence of Anaemia in women aged 15-49years in percentage DLHS-4": "Not available",
      "Marginal Workers Agricultural Labourers worked for 3 - 6 moths during last year - Persons": 8118,
      "Main Workers Household Industry - Males": 4878,
      "Scheduled Tribe Females": 2944,
      "Marginal Workers worked for 0 - 3 moths during last year - Males": 12349,
      "Marginal Workers Other worked for 3 - 6 moths during last year - Males": 48839,
      "Primary Net Enrolment Ratio in percentage DISE": "NA",
      "Total": "NA",
      "Mean age at marriage for boys DLHS-4": "Not available",
      "Number of District Hospitals  DLHS-4": 0,
      "0-6 Age Group Females": 108868,
      "Marginal Workers Agricultural Labourers worked for 0 - 3 moths during last year - Persons": 3776,
      "Marginal Workers Household Industry worked for 0 - 3 moths during last year - Males": 252,
      "Total Workers  Females": 124955,
      "Marginal Workers worked for 3 - 6 moths during last year - Females": 29621,
      "Institutional Deliveries in percentage DLHS-4": "Not available",
      "Marginal Workers Other - Males": 59022,
      "Total Workers  Males": 507780,
      "Main Workers - Females": 80104,
      "Primary Gross Enrolment Ratio in percentage DISE": "NA",
      "Main Workers Cultivators - Persons": 4804,
      "Marginal Workers Household Industry worked for 0 - 3 moths during last year - Females": 374,
      "Upper Primary Net Enrolment Ratio in percentage DISE": "NA",
      "Primary New Government Schools since 2003 in percentage DISE": "NA",
      "Tier": "Urban",
      "Marginal Workers Household Industry - Females": 1198,
      "Primary Schools with electricity in percentage DISE": "NA",
      "Main Workers Other - Persons": 492507,
      "Marginal Workers Household Industry worked for 3 - 6 moths during last year - Females": 824,
      "Main Workers Cultivators - Males": 4244,
      "Main Workers Household Industry - Persons": 6129,
      "Marginal Workers Cultivators worked for 0 - 3 moths during last year - Persons": 448,
      "Scheduled Caste Males": 60262,
      "Marginal Workers - Persons": 113621,
      "Deliveries at home conducted by skilled health personnel in percentage DLHS-4": "Not available",
      "Villages with Sub-Health Centres within 3km in percentage DLHS-4": 0,
      "Upper Primary New Government Schools since 2003 in percentage DISE": "NA",
      "0-6 Age Group Males": 112175,
      "Primary Schools with drinking water facility in percentage DISE": "NA",
      "Non Workers - Persons": 1439837,
      "Person Literates": 1766065,
      "State": "KERALA",
      "Total Female Population": 1086414,
      "Marginal Workers worked for 0 - 3 moths during last year - Persons": 27579,
      "Marginal Workers Cultivators - Females": 745,
      "Marginal Workers Other - Persons": 97152,
      "Sex Ratio": 1102,
      "Scheduled Tribe Persons": 5673,
      "Marginal Workers Household Industry worked for 3 - 6 moths during last year - Males": 886,
      "Marginal Workers Agricultural Labourers - Females": 4778,
      "Mean age at marriage for girls DLHS-4": "Not available",
      "Households with solar energy as main source of lighting  Houselisting and Housing Census Data Tables- District Level , Census of India__4": 409,
      "District": "KOZHIKODE",
      "Households receiving treated tap water within premises in percentage Houselisting and Housing Census Data Tables- District Level , Census of India__1": 14.56475574,
      "Total Workers  Persons": 632735,
      "Households receiving treated tap water within premises  Houselisting and Housing Census Data Tables- District Level , Census of India__4": 65774,
      "Primary Female Teachers in percentage DISE": "NA",
      "Number of Households": 462007,
      "Main Workers Agricultural Labourers - Persons": 15674
    }
  ]
}