{
  "Total": [
    {
      "Marginal Workers Agricultural Labourers - Persons": 32497,
      "Marginal Workers Other - Females": 18819,
      "Marginal Workers Other worked for 0 - 3 moths during last year - Females": 5068,
      "Upper Primary Schools with boys toilet in percentage DISE": 100,
      "Total Population": 817420,
      "Households with electricity as main source of lighting in percentage Houselisting and Housing Census Data Tables- District Level , Census of India": 80.83148601,
      "Primary Girl's Enrolment in percentage DISE": 48.2,
      "Marginal Workers worked for 3 - 6 moths during last year - Males": 29634,
      "Prevalence of Acute illness in percentage DLHS-4": 3.6,
      "Main Workers - Persons": 263445,
      "Main Workers Cultivators - Females": 7549,
      "Marginal Workers Agricultural Labourers worked for 3 - 6 moths during last year - Females": 12296,
      "Marginal Workers Other worked for 0 - 3 moths during last year - Males": 3553,
      "Upper Primary Schools with drinking water facility in percentage DISE": 100,
      "Primary Schools with girls toilet in percentage DISE": 95.8,
      "Marginal Workers worked for 3 - 6 moths during last year - Persons": 58545,
      "Upper Primary Drop Out Rate in percentage DISE": 2,
      "Prevalence of Anaemia in pregnant women aged 15-49years in percentage DLHS-4": 25.6,
      "Current use of any modern method of family planning in percentage DLHS-4": 63.6,
      "Marginal Workers Agricultural Labourers - Males": 15760,
      "Upper Primary Female Teachers in percentage DISE": 58.6,
      "Marginal Workers - Females": 39404,
      "Marginal Workers Other worked for 3 - 6 moths during last year - Persons": 27508,
      "Main Workers Agricultural Labourers - Females": 24300,
      "Marginal Workers Cultivators worked for 3 - 6 moths during last year - Females": 2173,
      "Households with no lighting  Houselisting and Housing Census Data Tables- District Level , Census of India__5": 27,
      "Prevalence of Severe Anaemia  in percentage DLHS-4": "--",
      "Total unmet need for family planning in percentage DLHS-4": 19.7,
      "Main Workers Other - Males": 105653,
      "Children who received full vaccination in percentage DLHS-4": 84.4,
      "Marginal Workers Household Industry - Persons": 1657,
      "Primary Pupil-Teacher Ratio in percentage DISE": 19,
      "Marginal Workers Agricultural Labourers worked for 3 - 6 moths during last year - Males": 12468,
      "Scheduled Caste Females": 16172,
      "Marginal Workers Cultivators - Males": 3471,
      "Marginal Workers - Males": 37228,
      "Marginal Workers worked for 0 - 3 moths during last year - Females": 10493,
      "Households with main source of drinking water within premises in percentage Houselisting and Housing Census Data Tables- District Level , Census of India": 60.21909031,
      "Marginal Workers Household Industry worked for 3 - 6 moths during last year - Persons": 1200,
      "Upper Primary Girl's Enrolment in percentage DISE": 48.6,
      "Prevalence of Severe Anaemia in women aged 15-49years in percentage DLHS-4": 0.2,
      "Marginal Workers Agricultural Labourers worked for 0 - 3 moths during last year - Males": 3292,
      "Households with electricity as main source of lighting  Houselisting and Housing Census Data Tables- District Level , Census of India__3": 149864,
      "Households with computer or laptop with internet connection in percentage": 2.54,
      "PHCs functioning on a 24x7hours basis in percentage DLHS-4": 50,
      "Non Workers - Males": 173045,
      "Total Households in District Houselisting and Housing Census Data Tables- District Level , Census of India": 185403,
      "Upper Primary Schools with girls toilet in percentage DISE": 100,
      "Households with mobile phone in percentage": 49.41,
      "Households receiving untreated tap water within premises in percentage Houselisting and Housing Census Data Tables- District Level , Census of India__2": 5.159571312,
      "Marginal Workers Cultivators worked for 3 - 6 moths during last year - Males": 2900,
      "Prevalence of Anaemia  in percentage DLHS-4": "% not given due to less number of cases",
      "Prevalence of Chronic illness in percentage DLHS-4": 3.3,
      "Households with solar energy as main source of lighting in percentage Houselisting and Housing Census Data Tables- District Level , Census of India__1": 0.293954251,
      "Marginal Workers Agricultural Labourers worked for 0 - 3 moths during last year - Females": 4441,
      "Main Workers - Males": 191411,
      "Female": 85.7,
      "Sno": 893,
      "Marginal Workers Other worked for 3 - 6 moths during last year - Females": 13751,
      "Marginal Workers Cultivators worked for 0 - 3 moths during last year - Females": 705,
      "Scheduled Tribe Males": 74476,
      "Male Illiterates": 73548,
      "Prevalence of Severe Anaemia in pregnant women aged 15-49years in percentage DLHS-4": 0,
      "0-6 Age Group Persons": 92324,
      "Upper Primary Student-Classroom Ratio in percentage DISE": 35,
      "Currently married men married below 21years of age in percentage DLHS-4": 0.9,
      "Male Literates": 328136,
      "Households with no lighting in percentage Houselisting and Housing Census Data Tables- District Level , Census of India__2": 0.0146,
      "Primary Drop Out Rate in percentage DISE": 0.4,
      "Marginal Workers Household Industry - Males": 687,
      "Female Illiterates": 98287,
      "Main Workers Other - Females": 39332,
      "Marginal Workers Cultivators - Persons": 6349,
      "Upper Primary Gross Enrolment Ratio in percentage DISE": 97.4,
      "Scheduled Caste Persons": 32578,
      "Marginal Workers Cultivators worked for 3 - 6 moths during last year - Persons": 5073,
      "Households with landline phone in percentage": 8.93,
      "Total Households in District  Houselisting and Housing Census Data Tables- District Level , Census of India": 185403,
      "Upper Primary Pupil-Teacher Ratio in percentage DISE": 24,
      "Primary Student-Classroom Ratio in percentage DISE": 20,
      "Primary Schools with boys toilet in percentage DISE": 94.9,
      "Mean number of children ever born to women aged 40-49years  DLHS-4": 2.3,
      "Households receiving untreated tap water within premises  Houselisting and Housing Census Data Tables- District Level , Census of India__5": 9566,
      "Marginal Workers Household Industry worked for 0 - 3 moths during last year - Persons": 457,
      "Total Male Population": 401684,
      "Non Workers - Females": 304298,
      "Current use of family planning methods in percentage DLHS-4": 66.1,
      "Households with main source of drinking water within premises  Houselisting and Housing Census Data Tables- District Level , Census of India__3": 111648,
      "Main Workers Agricultural Labourers - Males": 44833,
      "Marginal Workers Other worked for 0 - 3 moths during last year - Persons": 8621,
      "Currently married women married below 18years of age in percentage DLHS-4": 2.4,
      "Person Illiterates": 171835,
      "Main Workers Household Industry - Females": 853,
      "Female Literates": 317449,
      "Marginal Workers Cultivators worked for 0 - 3 moths during last year - Males": 571,
      "Male": 92.51,
      "Households with improved source of drinking water in percentage DLHS-4": 96.5,
      "Upper Primary Schools with electricity in percentage DISE": 60,
      "Households with electricity in percentage DLHS-4": 98.1,
      "Villages with Primary Health Centre within 10km in percentage DLHS-4": 100,
      "Births to women aged 15-19years out of Total births in percentage DLHS-4": 3.8,
      "Prevalence of Anaemia in women aged 15-49years in percentage DLHS-4": 14.7,
      "Marginal Workers Agricultural Labourers worked for 3 - 6 moths during last year - Persons": 24764,
      "Main Workers Household Industry - Males": 2064,
      "Scheduled Tribe Females": 76967,
      "Marginal Workers worked for 0 - 3 moths during last year - Males": 7594,
      "Marginal Workers Other worked for 3 - 6 moths during last year - Males": 13757,
      "Primary Net Enrolment Ratio in percentage DISE": 89.6,
      "Total": 89.03,
      "Mean age at marriage for boys DLHS-4": 27.6,
      "Number of District Hospitals  DLHS-4": 1,
      "0-6 Age Group Females": 45330,
      "Marginal Workers Agricultural Labourers worked for 0 - 3 moths during last year - Persons": 7733,
      "Marginal Workers Household Industry worked for 0 - 3 moths during last year - Males": 178,
      "Total Workers  Females": 111438,
      "Marginal Workers worked for 3 - 6 moths during last year - Females": 28911,
      "Institutional Deliveries in percentage DLHS-4": 100,
      "Marginal Workers Other - Males": 17310,
      "Total Workers  Males": 228639,
      "Main Workers - Females": 72034,
      "Primary Gross Enrolment Ratio in percentage DISE": 100.8,
      "Main Workers Cultivators - Persons": 46410,
      "Marginal Workers Household Industry worked for 0 - 3 moths during last year - Females": 279,
      "Upper Primary Net Enrolment Ratio in percentage DISE": 78.4,
      "Primary New Government Schools since 2003 in percentage DISE": 4.7,
      "Tier": "Total",
      "Marginal Workers Household Industry - Females": 970,
      "Primary Schools with electricity in percentage DISE": 61.9,
      "Main Workers Other - Persons": 144985,
      "Marginal Workers Household Industry worked for 3 - 6 moths during last year - Females": 691,
      "Main Workers Cultivators - Males": 38861,
      "Main Workers Household Industry - Persons": 2917,
      "Marginal Workers Cultivators worked for 0 - 3 moths during last year - Persons": 1276,
      "Scheduled Caste Males": 16406,
      "Marginal Workers - Persons": 76632,
      "Deliveries at home conducted by skilled health personnel in percentage DLHS-4": "0.0                                        (no deliveries at home)",
      "Villages with Sub-Health Centres within 3km in percentage DLHS-4": 92,
      "Upper Primary New Government Schools since 2003 in percentage DISE": 0,
      "0-6 Age Group Males": 46994,
      "Primary Schools with drinking water facility in percentage DISE": 98.1,
      "Non Workers - Persons": 477343,
      "Person Literates": 645585,
      "State": "KERALA",
      "Total Female Population": 415736,
      "Marginal Workers worked for 0 - 3 moths during last year - Persons": 18087,
      "Marginal Workers Cultivators - Females": 2878,
      "Marginal Workers Other - Persons": 36129,
      "Sex Ratio": 1035,
      "Scheduled Tribe Persons": 151443,
      "Marginal Workers Household Industry worked for 3 - 6 moths during last year - Males": 509,
      "Marginal Workers Agricultural Labourers - Females": 16737,
      "Mean age at marriage for girls DLHS-4": 22.3,
      "Households with solar energy as main source of lighting  Houselisting and Housing Census Data Tables- District Level , Census of India__4": 545,
      "District": "WAYANAD",
      "Households receiving treated tap water within premises in percentage Houselisting and Housing Census Data Tables- District Level , Census of India__1": 10.75872559,
      "Total Workers  Persons": 340077,
      "Households receiving treated tap water within premises  Houselisting and Housing Census Data Tables- District Level , Census of India__4": 19947,
      "Primary Female Teachers in percentage DISE": 75.8,
      "Number of Households": 190894,
      "Main Workers Agricultural Labourers - Persons": 69133
    }
  ],
  "Rural": [
    {
      "Marginal Workers Agricultural Labourers - Persons": 32225,
      "Marginal Workers Other - Females": 18138,
      "Marginal Workers Other worked for 0 - 3 moths during last year - Females": 4905,
      "Upper Primary Schools with boys toilet in percentage DISE": "NA",
      "Total Population": 785840,
      "Households with electricity as main source of lighting in percentage Houselisting and Housing Census Data Tables- District Level , Census of India": 80.53344974,
      "Primary Girl's Enrolment in percentage DISE": "NA",
      "Marginal Workers worked for 3 - 6 moths during last year - Males": 28745,
      "Prevalence of Acute illness in percentage DLHS-4": 4.6,
      "Main Workers - Persons": 253300,
      "Main Workers Cultivators - Females": 7540,
      "Marginal Workers Agricultural Labourers worked for 3 - 6 moths during last year - Females": 12211,
      "Marginal Workers Other worked for 0 - 3 moths during last year - Males": 3378,
      "Upper Primary Schools with drinking water facility in percentage DISE": "NA",
      "Primary Schools with girls toilet in percentage DISE": "NA",
      "Marginal Workers worked for 3 - 6 moths during last year - Persons": 57037,
      "Upper Primary Drop Out Rate in percentage DISE": "NA",
      "Prevalence of Anaemia in pregnant women aged 15-49years in percentage DLHS-4": 25.8,
      "Current use of any modern method of family planning in percentage DLHS-4": 69.3,
      "Marginal Workers Agricultural Labourers - Males": 15602,
      "Upper Primary Female Teachers in percentage DISE": "NA",
      "Marginal Workers - Females": 38584,
      "Marginal Workers Other worked for 3 - 6 moths during last year - Persons": 26263,
      "Main Workers Agricultural Labourers - Females": 24020,
      "Marginal Workers Cultivators worked for 3 - 6 moths during last year - Females": 2167,
      "Households with no lighting  Houselisting and Housing Census Data Tables- District Level , Census of India__5": 27,
      "Prevalence of Severe Anaemia  in percentage DLHS-4": "--",
      "Total unmet need for family planning in percentage DLHS-4": 18.7,
      "Main Workers Other - Males": 99073,
      "Children who received full vaccination in percentage DLHS-4": 75,
      "Marginal Workers Household Industry - Persons": 1636,
      "Primary Pupil-Teacher Ratio in percentage DISE": "NA",
      "Marginal Workers Agricultural Labourers worked for 3 - 6 moths during last year - Males": 12321,
      "Scheduled Caste Females": 15097,
      "Marginal Workers Cultivators - Males": 3460,
      "Marginal Workers - Males": 36150,
      "Marginal Workers worked for 0 - 3 moths during last year - Females": 10292,
      "Households with main source of drinking water within premises in percentage Houselisting and Housing Census Data Tables- District Level , Census of India": 59.69857739,
      "Marginal Workers Household Industry worked for 3 - 6 moths during last year - Persons": 1186,
      "Upper Primary Girl's Enrolment in percentage DISE": "NA",
      "Prevalence of Severe Anaemia in women aged 15-49years in percentage DLHS-4": 0.3,
      "Marginal Workers Agricultural Labourers worked for 0 - 3 moths during last year - Males": 3281,
      "Households with electricity as main source of lighting  Houselisting and Housing Census Data Tables- District Level , Census of India__3": 143902,
      "Households with computer or laptop with internet connection in percentage": 2.35,
      "PHCs functioning on a 24x7hours basis in percentage DLHS-4": "Not applicable",
      "Non Workers - Males": 166172,
      "Total Households in District Houselisting and Housing Census Data Tables- District Level , Census of India": 178686,
      "Upper Primary Schools with girls toilet in percentage DISE": "NA",
      "Households with mobile phone in percentage": 49.15,
      "Households receiving untreated tap water within premises in percentage Houselisting and Housing Census Data Tables- District Level , Census of India__2": 5.255028374,
      "Marginal Workers Cultivators worked for 3 - 6 moths during last year - Males": 2889,
      "Prevalence of Anaemia  in percentage DLHS-4": "% not given due to less number of cases",
      "Prevalence of Chronic illness in percentage DLHS-4": 4.3,
      "Households with solar energy as main source of lighting in percentage Houselisting and Housing Census Data Tables- District Level , Census of India__1": 0.301646464,
      "Marginal Workers Agricultural Labourers worked for 0 - 3 moths during last year - Females": 4412,
      "Main Workers - Males": 183961,
      "Female": "NA",
      "Sno": 892,
      "Marginal Workers Other worked for 3 - 6 moths during last year - Females": 13233,
      "Marginal Workers Cultivators worked for 0 - 3 moths during last year - Females": 700,
      "Scheduled Tribe Males": 73011,
      "Male Illiterates": 70916,
      "Prevalence of Severe Anaemia in pregnant women aged 15-49years in percentage DLHS-4": 0,
      "0-6 Age Group Persons": 88727,
      "Upper Primary Student-Classroom Ratio in percentage DISE": "NA",
      "Currently married men married below 21years of age in percentage DLHS-4": 1.7,
      "Male Literates": 315367,
      "Households with no lighting in percentage Houselisting and Housing Census Data Tables- District Level , Census of India__2": 0.0151,
      "Primary Drop Out Rate in percentage DISE": "NA",
      "Marginal Workers Household Industry - Males": 680,
      "Female Illiterates": 94854,
      "Main Workers Other - Females": 36967,
      "Marginal Workers Cultivators - Persons": 6327,
      "Upper Primary Gross Enrolment Ratio in percentage DISE": "NA",
      "Scheduled Caste Persons": 30378,
      "Marginal Workers Cultivators worked for 3 - 6 moths during last year - Persons": 5056,
      "Households with landline phone in percentage": 9.09,
      "Total Households in District  Houselisting and Housing Census Data Tables- District Level , Census of India": 178686,
      "Upper Primary Pupil-Teacher Ratio in percentage DISE": "NA",
      "Primary Student-Classroom Ratio in percentage DISE": "NA",
      "Primary Schools with boys toilet in percentage DISE": "NA",
      "Mean number of children ever born to women aged 40-49years  DLHS-4": 2.4,
      "Households receiving untreated tap water within premises  Houselisting and Housing Census Data Tables- District Level , Census of India__5": 9390,
      "Marginal Workers Household Industry worked for 0 - 3 moths during last year - Persons": 450,
      "Total Male Population": 386283,
      "Non Workers - Females": 291634,
      "Current use of family planning methods in percentage DLHS-4": 72.2,
      "Households with main source of drinking water within premises  Houselisting and Housing Census Data Tables- District Level , Census of India__3": 106673,
      "Main Workers Agricultural Labourers - Males": 44242,
      "Marginal Workers Other worked for 0 - 3 moths during last year - Persons": 8283,
      "Currently married women married below 18years of age in percentage DLHS-4": 0,
      "Person Illiterates": 165770,
      "Main Workers Household Industry - Females": 812,
      "Female Literates": 304703,
      "Marginal Workers Cultivators worked for 0 - 3 moths during last year - Males": 571,
      "Male": "NA",
      "Households with improved source of drinking water in percentage DLHS-4": 97.6,
      "Upper Primary Schools with electricity in percentage DISE": "NA",
      "Households with electricity in percentage DLHS-4": 97.1,
      "Villages with Primary Health Centre within 10km in percentage DLHS-4": "Not applicable",
      "Births to women aged 15-19years out of Total births in percentage DLHS-4": 4.8,
      "Prevalence of Anaemia in women aged 15-49years in percentage DLHS-4": 13.6,
      "Marginal Workers Agricultural Labourers worked for 3 - 6 moths during last year - Persons": 24532,
      "Main Workers Household Industry - Males": 1962,
      "Scheduled Tribe Females": 75204,
      "Marginal Workers worked for 0 - 3 moths during last year - Males": 7405,
      "Marginal Workers Other worked for 3 - 6 moths during last year - Males": 13030,
      "Primary Net Enrolment Ratio in percentage DISE": "NA",
      "Total": "NA",
      "Mean age at marriage for boys DLHS-4": 27.1,
      "Number of District Hospitals  DLHS-4": "Not applicable",
      "0-6 Age Group Females": 43569,
      "Marginal Workers Agricultural Labourers worked for 0 - 3 moths during last year - Persons": 7693,
      "Marginal Workers Household Industry worked for 0 - 3 moths during last year - Males": 175,
      "Total Workers  Females": 107923,
      "Marginal Workers worked for 3 - 6 moths during last year - Females": 28292,
      "Institutional Deliveries in percentage DLHS-4": 100,
      "Marginal Workers Other - Males": 16408,
      "Total Workers  Males": 220111,
      "Main Workers - Females": 69339,
      "Primary Gross Enrolment Ratio in percentage DISE": "NA",
      "Main Workers Cultivators - Persons": 46224,
      "Marginal Workers Household Industry worked for 0 - 3 moths during last year - Females": 275,
      "Upper Primary Net Enrolment Ratio in percentage DISE": "NA",
      "Primary New Government Schools since 2003 in percentage DISE": "NA",
      "Tier": "Rural",
      "Marginal Workers Household Industry - Females": 956,
      "Primary Schools with electricity in percentage DISE": "NA",
      "Main Workers Other - Persons": 136040,
      "Marginal Workers Household Industry worked for 3 - 6 moths during last year - Females": 681,
      "Main Workers Cultivators - Males": 38684,
      "Main Workers Household Industry - Persons": 2774,
      "Marginal Workers Cultivators worked for 0 - 3 moths during last year - Persons": 1271,
      "Scheduled Caste Males": 15281,
      "Marginal Workers - Persons": 74734,
      "Deliveries at home conducted by skilled health personnel in percentage DLHS-4": "0.0                                        (no deliveries at home)",
      "Villages with Sub-Health Centres within 3km in percentage DLHS-4": "Not applicable",
      "Upper Primary New Government Schools since 2003 in percentage DISE": "NA",
      "0-6 Age Group Males": 45158,
      "Primary Schools with drinking water facility in percentage DISE": "NA",
      "Non Workers - Persons": 457806,
      "Person Literates": 620070,
      "State": "KERALA",
      "Total Female Population": 399557,
      "Marginal Workers worked for 0 - 3 moths during last year - Persons": 17697,
      "Marginal Workers Cultivators - Females": 2867,
      "Marginal Workers Other - Persons": 34546,
      "Sex Ratio": 1034,
      "Scheduled Tribe Persons": 148215,
      "Marginal Workers Household Industry worked for 3 - 6 moths during last year - Males": 505,
      "Marginal Workers Agricultural Labourers - Females": 16623,
      "Mean age at marriage for girls DLHS-4": 22,
      "Households with solar energy as main source of lighting  Houselisting and Housing Census Data Tables- District Level , Census of India__4": 539,
      "District": "WAYANAD",
      "Households receiving treated tap water within premises in percentage Houselisting and Housing Census Data Tables- District Level , Census of India__1": 10.40932138,
      "Total Workers  Persons": 328034,
      "Households receiving treated tap water within premises  Houselisting and Housing Census Data Tables- District Level , Census of India__4": 18600,
      "Primary Female Teachers in percentage DISE": "NA",
      "Number of Households": 183375,
      "Main Workers Agricultural Labourers - Persons": 68262
    }
  ],
  "Urban": [
    {
      "Marginal Workers Agricultural Labourers - Persons": 272,
      "Marginal Workers Other - Females": 681,
      "Marginal Workers Other worked for 0 - 3 moths during last year - Females": 163,
      "Upper Primary Schools with boys toilet in percentage DISE": "NA",
      "Total Population": 31580,
      "Households with electricity as main source of lighting in percentage Houselisting and Housing Census Data Tables- District Level , Census of India": 88.75986303,
      "Primary Girl's Enrolment in percentage DISE": "NA",
      "Marginal Workers worked for 3 - 6 moths during last year - Males": 889,
      "Prevalence of Acute illness in percentage DLHS-4": "Not available",
      "Main Workers - Persons": 10145,
      "Main Workers Cultivators - Females": 9,
      "Marginal Workers Agricultural Labourers worked for 3 - 6 moths during last year - Females": 85,
      "Marginal Workers Other worked for 0 - 3 moths during last year - Males": 175,
      "Upper Primary Schools with drinking water facility in percentage DISE": "NA",
      "Primary Schools with girls toilet in percentage DISE": "NA",
      "Marginal Workers worked for 3 - 6 moths during last year - Persons": 1508,
      "Upper Primary Drop Out Rate in percentage DISE": "NA",
      "Prevalence of Anaemia in pregnant women aged 15-49years in percentage DLHS-4": "Not available",
      "Current use of any modern method of family planning in percentage DLHS-4": "Not available",
      "Marginal Workers Agricultural Labourers - Males": 158,
      "Upper Primary Female Teachers in percentage DISE": "NA",
      "Marginal Workers - Females": 820,
      "Marginal Workers Other worked for 3 - 6 moths during last year - Persons": 1245,
      "Main Workers Agricultural Labourers - Females": 280,
      "Marginal Workers Cultivators worked for 3 - 6 moths during last year - Females": 6,
      "Households with no lighting  Houselisting and Housing Census Data Tables- District Level , Census of India__5": 0,
      "Prevalence of Severe Anaemia  in percentage DLHS-4": "Not available",
      "Total unmet need for family planning in percentage DLHS-4": "Not available",
      "Main Workers Other - Males": 6580,
      "Children who received full vaccination in percentage DLHS-4": "Not available",
      "Marginal Workers Household Industry - Persons": 21,
      "Primary Pupil-Teacher Ratio in percentage DISE": "NA",
      "Marginal Workers Agricultural Labourers worked for 3 - 6 moths during last year - Males": 147,
      "Scheduled Caste Females": 1075,
      "Marginal Workers Cultivators - Males": 11,
      "Marginal Workers - Males": 1078,
      "Marginal Workers worked for 0 - 3 moths during last year - Females": 201,
      "Households with main source of drinking water within premises in percentage Houselisting and Housing Census Data Tables- District Level , Census of India": 74.06580319,
      "Marginal Workers Household Industry worked for 3 - 6 moths during last year - Persons": 14,
      "Upper Primary Girl's Enrolment in percentage DISE": "NA",
      "Prevalence of Severe Anaemia in women aged 15-49years in percentage DLHS-4": "Not available",
      "Marginal Workers Agricultural Labourers worked for 0 - 3 moths during last year - Males": 11,
      "Households with electricity as main source of lighting  Houselisting and Housing Census Data Tables- District Level , Census of India__3": 5962,
      "Households with computer or laptop with internet connection in percentage": 7.59,
      "PHCs functioning on a 24x7hours basis in percentage DLHS-4": 0,
      "Non Workers - Males": 6873,
      "Total Households in District Houselisting and Housing Census Data Tables- District Level , Census of India": 6717,
      "Upper Primary Schools with girls toilet in percentage DISE": "NA",
      "Households with mobile phone in percentage": 56.26,
      "Households receiving untreated tap water within premises in percentage Houselisting and Housing Census Data Tables- District Level , Census of India__2": 2.620217359,
      "Marginal Workers Cultivators worked for 3 - 6 moths during last year - Males": 11,
      "Prevalence of Anaemia  in percentage DLHS-4": "Not available",
      "Prevalence of Chronic illness in percentage DLHS-4": "Not available",
      "Households with solar energy as main source of lighting in percentage Houselisting and Housing Census Data Tables- District Level , Census of India__1": 0.0893,
      "Marginal Workers Agricultural Labourers worked for 0 - 3 moths during last year - Females": 29,
      "Main Workers - Males": 7450,
      "Female": "NA",
      "Sno": 894,
      "Marginal Workers Other worked for 3 - 6 moths during last year - Females": 518,
      "Marginal Workers Cultivators worked for 0 - 3 moths during last year - Females": 5,
      "Scheduled Tribe Males": 1465,
      "Male Illiterates": 2632,
      "Prevalence of Severe Anaemia in pregnant women aged 15-49years in percentage DLHS-4": "Not available",
      "0-6 Age Group Persons": 3597,
      "Upper Primary Student-Classroom Ratio in percentage DISE": "NA",
      "Currently married men married below 21years of age in percentage DLHS-4": "Not available",
      "Male Literates": 12769,
      "Households with no lighting in percentage Houselisting and Housing Census Data Tables- District Level , Census of India__2": 0,
      "Primary Drop Out Rate in percentage DISE": "NA",
      "Marginal Workers Household Industry - Males": 7,
      "Female Illiterates": 3433,
      "Main Workers Other - Females": 2365,
      "Marginal Workers Cultivators - Persons": 22,
      "Upper Primary Gross Enrolment Ratio in percentage DISE": "NA",
      "Scheduled Caste Persons": 2200,
      "Marginal Workers Cultivators worked for 3 - 6 moths during last year - Persons": 17,
      "Households with landline phone in percentage": 4.75,
      "Total Households in District  Houselisting and Housing Census Data Tables- District Level , Census of India": 6717,
      "Upper Primary Pupil-Teacher Ratio in percentage DISE": "NA",
      "Primary Student-Classroom Ratio in percentage DISE": "NA",
      "Primary Schools with boys toilet in percentage DISE": "NA",
      "Mean number of children ever born to women aged 40-49years  DLHS-4": "Not available",
      "Households receiving untreated tap water within premises  Houselisting and Housing Census Data Tables- District Level , Census of India__5": 176,
      "Marginal Workers Household Industry worked for 0 - 3 moths during last year - Persons": 7,
      "Total Male Population": 15401,
      "Non Workers - Females": 12664,
      "Current use of family planning methods in percentage DLHS-4": "Not available",
      "Households with main source of drinking water within premises  Houselisting and Housing Census Data Tables- District Level , Census of India__3": 4975,
      "Main Workers Agricultural Labourers - Males": 591,
      "Marginal Workers Other worked for 0 - 3 moths during last year - Persons": 338,
      "Currently married women married below 18years of age in percentage DLHS-4": "Not available",
      "Person Illiterates": 6065,
      "Main Workers Household Industry - Females": 41,
      "Female Literates": 12746,
      "Marginal Workers Cultivators worked for 0 - 3 moths during last year - Males": 0,
      "Male": "NA",
      "Households with improved source of drinking water in percentage DLHS-4": "Not available",
      "Upper Primary Schools with electricity in percentage DISE": "NA",
      "Households with electricity in percentage DLHS-4": "Not available",
      "Villages with Primary Health Centre within 10km in percentage DLHS-4": 0,
      "Births to women aged 15-19years out of Total births in percentage DLHS-4": "Not available",
      "Prevalence of Anaemia in women aged 15-49years in percentage DLHS-4": "Not available",
      "Marginal Workers Agricultural Labourers worked for 3 - 6 moths during last year - Persons": 232,
      "Main Workers Household Industry - Males": 102,
      "Scheduled Tribe Females": 1763,
      "Marginal Workers worked for 0 - 3 moths during last year - Males": 189,
      "Marginal Workers Other worked for 3 - 6 moths during last year - Males": 727,
      "Primary Net Enrolment Ratio in percentage DISE": "NA",
      "Total": "NA",
      "Mean age at marriage for boys DLHS-4": "Not available",
      "Number of District Hospitals  DLHS-4": 0,
      "0-6 Age Group Females": 1761,
      "Marginal Workers Agricultural Labourers worked for 0 - 3 moths during last year - Persons": 40,
      "Marginal Workers Household Industry worked for 0 - 3 moths during last year - Males": 3,
      "Total Workers  Females": 3515,
      "Marginal Workers worked for 3 - 6 moths during last year - Females": 619,
      "Institutional Deliveries in percentage DLHS-4": "Not available",
      "Marginal Workers Other - Males": 902,
      "Total Workers  Males": 8528,
      "Main Workers - Females": 2695,
      "Primary Gross Enrolment Ratio in percentage DISE": "NA",
      "Main Workers Cultivators - Persons": 186,
      "Marginal Workers Household Industry worked for 0 - 3 moths during last year - Females": 4,
      "Upper Primary Net Enrolment Ratio in percentage DISE": "NA",
      "Primary New Government Schools since 2003 in percentage DISE": "NA",
      "Tier": "Urban",
      "Marginal Workers Household Industry - Females": 14,
      "Primary Schools with electricity in percentage DISE": "NA",
      "Main Workers Other - Persons": 8945,
      "Marginal Workers Household Industry worked for 3 - 6 moths during last year - Females": 10,
      "Main Workers Cultivators - Males": 177,
      "Main Workers Household Industry - Persons": 143,
      "Marginal Workers Cultivators worked for 0 - 3 moths during last year - Persons": 5,
      "Scheduled Caste Males": 1125,
      "Marginal Workers - Persons": 1898,
      "Deliveries at home conducted by skilled health personnel in percentage DLHS-4": "Not available",
      "Villages with Sub-Health Centres within 3km in percentage DLHS-4": 0,
      "Upper Primary New Government Schools since 2003 in percentage DISE": "NA",
      "0-6 Age Group Males": 1836,
      "Primary Schools with drinking water facility in percentage DISE": "NA",
      "Non Workers - Persons": 19537,
      "Person Literates": 25515,
      "State": "KERALA",
      "Total Female Population": 16179,
      "Marginal Workers worked for 0 - 3 moths during last year - Persons": 390,
      "Marginal Workers Cultivators - Females": 11,
      "Marginal Workers Other - Persons": 1583,
      "Sex Ratio": 1051,
      "Scheduled Tribe Persons": 3228,
      "Marginal Workers Household Industry worked for 3 - 6 moths during last year - Males": 4,
      "Marginal Workers Agricultural Labourers - Females": 114,
      "Mean age at marriage for girls DLHS-4": "Not available",
      "Households with solar energy as main source of lighting  Houselisting and Housing Census Data Tables- District Level , Census of India__4": 6,
      "District": "WAYANAD",
      "Households receiving treated tap water within premises in percentage Houselisting and Housing Census Data Tables- District Level , Census of India__1": 20.05359536,
      "Total Workers  Persons": 12043,
      "Households receiving treated tap water within premises  Houselisting and Housing Census Data Tables- District Level , Census of India__4": 1347,
      "Primary Female Teachers in percentage DISE": "NA",
      "Number of Households": 7519,
      "Main Workers Agricultural Labourers - Persons": 871
    }
  ]
}