{
  "Total": [
    {
      "Marginal Workers Agricultural Labourers - Persons": 5349,
      "Marginal Workers Other - Females": 5168,
      "Marginal Workers Other worked for 0 - 3 moths during last year - Females": 1586,
      "Upper Primary Schools with boys toilet in percentage DISE": 100,
      "Total Population": 454768,
      "Households with electricity as main source of lighting in percentage Houselisting and Housing Census Data Tables- District Level , Census of India": 99.09772719,
      "Primary Girl's Enrolment in percentage DISE": 49.2,
      "Marginal Workers worked for 3 - 6 moths during last year - Males": 29639,
      "Prevalence of Acute illness in percentage DLHS-4": 4,
      "Main Workers - Persons": 126153,
      "Main Workers Cultivators - Females": 36542,
      "Marginal Workers Agricultural Labourers worked for 3 - 6 moths during last year - Females": 2142,
      "Marginal Workers Other worked for 0 - 3 moths during last year - Males": 1931,
      "Upper Primary Schools with drinking water facility in percentage DISE": 100,
      "Primary Schools with girls toilet in percentage DISE": 100,
      "Marginal Workers worked for 3 - 6 moths during last year - Persons": 78724,
      "Upper Primary Drop Out Rate in percentage DISE": "Not available",
      "Prevalence of Anaemia in pregnant women aged 15-49years in percentage DLHS-4": 79.4,
      "Current use of any modern method of family planning in percentage DLHS-4": 68.4,
      "Marginal Workers Agricultural Labourers - Males": 2371,
      "Upper Primary Female Teachers in percentage DISE": 23.3,
      "Marginal Workers - Females": 72444,
      "Marginal Workers Other worked for 3 - 6 moths during last year - Persons": 12211,
      "Main Workers Agricultural Labourers - Females": 1845,
      "Marginal Workers Cultivators worked for 3 - 6 moths during last year - Females": 42669,
      "Households with no lighting  Houselisting and Housing Census Data Tables- District Level , Census of India__5": 60,
      "Prevalence of Severe Anaemia  in percentage DLHS-4": 29.3,
      "Total unmet need for family planning in percentage DLHS-4": 11.9,
      "Main Workers Other - Males": 54987,
      "Children who received full vaccination in percentage DLHS-4": 65.6,
      "Marginal Workers Household Industry - Persons": 1572,
      "Primary Pupil-Teacher Ratio in percentage DISE": 13,
      "Marginal Workers Agricultural Labourers worked for 3 - 6 moths during last year - Males": 1784,
      "Scheduled Caste Females": 55529,
      "Marginal Workers Cultivators - Males": 29618,
      "Marginal Workers - Males": 43334,
      "Marginal Workers worked for 0 - 3 moths during last year - Females": 23359,
      "Households with main source of drinking water within premises in percentage Houselisting and Housing Census Data Tables- District Level , Census of India": 66.33418358,
      "Marginal Workers Household Industry worked for 3 - 6 moths during last year - Persons": 1345,
      "Upper Primary Girl's Enrolment in percentage DISE": 48.8,
      "Prevalence of Severe Anaemia in women aged 15-49years in percentage DLHS-4": 22.8,
      "Marginal Workers Agricultural Labourers worked for 0 - 3 moths during last year - Males": 587,
      "Households with electricity as main source of lighting  Houselisting and Housing Census Data Tables- District Level , Census of India__3": 104120,
      "Households with computer or laptop with internet connection in percentage": 2.4,
      "PHCs functioning on a 24x7hours basis in percentage DLHS-4": 7.7,
      "Non Workers - Males": 98346,
      "Total Households in District Houselisting and Housing Census Data Tables- District Level , Census of India": 105068,
      "Upper Primary Schools with girls toilet in percentage DISE": 100,
      "Households with mobile phone in percentage": 51.32,
      "Households receiving untreated tap water within premises in percentage Houselisting and Housing Census Data Tables- District Level , Census of India__2": 1.15544219,
      "Marginal Workers Cultivators worked for 3 - 6 moths during last year - Males": 18573,
      "Prevalence of Anaemia  in percentage DLHS-4": 80,
      "Prevalence of Chronic illness in percentage DLHS-4": 5,
      "Households with solar energy as main source of lighting in percentage Houselisting and Housing Census Data Tables- District Level , Census of India__1": 0.0419,
      "Marginal Workers Agricultural Labourers worked for 0 - 3 moths during last year - Females": 836,
      "Main Workers - Males": 75390,
      "Female": 82.62,
      "Sno": 596,
      "Marginal Workers Other worked for 3 - 6 moths during last year - Females": 3582,
      "Marginal Workers Cultivators worked for 0 - 3 moths during last year - Females": 20842,
      "Scheduled Tribe Males": 1531,
      "Male Illiterates": 36515,
      "Prevalence of Severe Anaemia in pregnant women aged 15-49years in percentage DLHS-4": 17.6,
      "0-6 Age Group Persons": 48548,
      "Upper Primary Student-Classroom Ratio in percentage DISE": 9,
      "Currently married men married below 21years of age in percentage DLHS-4": 0.8,
      "Male Literates": 180555,
      "Households with no lighting in percentage Houselisting and Housing Census Data Tables- District Level , Census of India__2": 0.0571,
      "Primary Drop Out Rate in percentage DISE": "Not available",
      "Marginal Workers Household Industry - Males": 785,
      "Female Illiterates": 60162,
      "Main Workers Other - Females": 11942,
      "Marginal Workers Cultivators - Persons": 93129,
      "Upper Primary Gross Enrolment Ratio in percentage DISE": 96.2,
      "Scheduled Caste Persons": 109256,
      "Marginal Workers Cultivators worked for 3 - 6 moths during last year - Persons": 61242,
      "Households with landline phone in percentage": 16.03,
      "Total Households in District  Houselisting and Housing Census Data Tables- District Level , Census of India": 105068,
      "Upper Primary Pupil-Teacher Ratio in percentage DISE": 8,
      "Primary Student-Classroom Ratio in percentage DISE": 9,
      "Primary Schools with boys toilet in percentage DISE": 99.4,
      "Mean number of children ever born to women aged 40-49years  DLHS-4": 2.16,
      "Households receiving untreated tap water within premises  Houselisting and Housing Census Data Tables- District Level , Census of India__5": 1214,
      "Marginal Workers Household Industry worked for 0 - 3 moths during last year - Persons": 227,
      "Total Male Population": 217070,
      "Non Workers - Females": 114491,
      "Current use of family planning methods in percentage DLHS-4": 69.8,
      "Households with main source of drinking water within premises  Houselisting and Housing Census Data Tables- District Level , Census of India__3": 69696,
      "Main Workers Agricultural Labourers - Males": 1630,
      "Marginal Workers Other worked for 0 - 3 moths during last year - Persons": 3517,
      "Currently married women married below 18years of age in percentage DLHS-4": 0,
      "Person Illiterates": 96677,
      "Main Workers Household Industry - Females": 434,
      "Female Literates": 177536,
      "Marginal Workers Cultivators worked for 0 - 3 moths during last year - Males": 11045,
      "Male": 94.36,
      "Households with improved source of drinking water in percentage DLHS-4": 98.8,
      "Upper Primary Schools with electricity in percentage DISE": 100,
      "Households with electricity in percentage DLHS-4": 99.7,
      "Villages with Primary Health Centre within 10km in percentage DLHS-4": 86.5,
      "Births to women aged 15-19years out of Total births in percentage DLHS-4": 1.9,
      "Prevalence of Anaemia in women aged 15-49years in percentage DLHS-4": 73.8,
      "Marginal Workers Agricultural Labourers worked for 3 - 6 moths during last year - Persons": 3926,
      "Main Workers Household Industry - Males": 1341,
      "Scheduled Tribe Females": 1513,
      "Marginal Workers worked for 0 - 3 moths during last year - Males": 13695,
      "Marginal Workers Other worked for 3 - 6 moths during last year - Males": 8629,
      "Primary Net Enrolment Ratio in percentage DISE": 80.6,
      "Total": 88.15,
      "Mean age at marriage for boys DLHS-4": 27.3,
      "Number of District Hospitals  DLHS-4": 1,
      "0-6 Age Group Females": 22826,
      "Marginal Workers Agricultural Labourers worked for 0 - 3 moths during last year - Persons": 1423,
      "Marginal Workers Household Industry worked for 0 - 3 moths during last year - Males": 132,
      "Total Workers  Females": 123207,
      "Marginal Workers worked for 3 - 6 moths during last year - Females": 49085,
      "Institutional Deliveries in percentage DLHS-4": 92.5,
      "Marginal Workers Other - Males": 10560,
      "Total Workers  Males": 118724,
      "Main Workers - Females": 50763,
      "Primary Gross Enrolment Ratio in percentage DISE": 98.3,
      "Main Workers Cultivators - Persons": 53974,
      "Marginal Workers Household Industry worked for 0 - 3 moths during last year - Females": 95,
      "Upper Primary Net Enrolment Ratio in percentage DISE": 73.5,
      "Primary New Government Schools since 2003 in percentage DISE": 0.2,
      "Tier": "Total",
      "Marginal Workers Household Industry - Females": 787,
      "Primary Schools with electricity in percentage DISE": 99,
      "Main Workers Other - Persons": 66929,
      "Marginal Workers Household Industry worked for 3 - 6 moths during last year - Females": 692,
      "Main Workers Cultivators - Males": 17432,
      "Main Workers Household Industry - Persons": 1775,
      "Marginal Workers Cultivators worked for 0 - 3 moths during last year - Persons": 31887,
      "Scheduled Caste Males": 53727,
      "Marginal Workers - Persons": 115778,
      "Deliveries at home conducted by skilled health personnel in percentage DLHS-4": 6.2,
      "Villages with Sub-Health Centres within 3km in percentage DLHS-4": 94.6,
      "Upper Primary New Government Schools since 2003 in percentage DISE": 35,
      "0-6 Age Group Males": 25722,
      "Primary Schools with drinking water facility in percentage DISE": 100,
      "Non Workers - Persons": 212837,
      "Person Literates": 358091,
      "State": "HIMACHAL PRADESH",
      "Total Female Population": 237698,
      "Marginal Workers worked for 0 - 3 moths during last year - Persons": 37054,
      "Marginal Workers Cultivators - Females": 63511,
      "Marginal Workers Other - Persons": 15728,
      "Sex Ratio": 1095,
      "Scheduled Tribe Persons": 3044,
      "Marginal Workers Household Industry worked for 3 - 6 moths during last year - Males": 653,
      "Marginal Workers Agricultural Labourers - Females": 2978,
      "Mean age at marriage for girls DLHS-4": 21.3,
      "Households with solar energy as main source of lighting  Houselisting and Housing Census Data Tables- District Level , Census of India__4": 44,
      "District": "HAMIRPUR",
      "Households receiving treated tap water within premises in percentage Houselisting and Housing Census Data Tables- District Level , Census of India__1": 63.75490159,
      "Total Workers  Persons": 241931,
      "Households receiving treated tap water within premises  Houselisting and Housing Census Data Tables- District Level , Census of India__4": 66986,
      "Primary Female Teachers in percentage DISE": 56.6,
      "Number of Households": 105519,
      "Main Workers Agricultural Labourers - Persons": 3475
    }
  ],
  "Rural": [
    {
      "Marginal Workers Agricultural Labourers - Persons": 5165,
      "Marginal Workers Other - Females": 4864,
      "Marginal Workers Other worked for 0 - 3 moths during last year - Females": 1567,
      "Upper Primary Schools with boys toilet in percentage DISE": "NA",
      "Total Population": 423338,
      "Households with electricity as main source of lighting in percentage Houselisting and Housing Census Data Tables- District Level , Census of India": 99.12251131,
      "Primary Girl's Enrolment in percentage DISE": "NA",
      "Marginal Workers worked for 3 - 6 moths during last year - Males": 28635,
      "Prevalence of Acute illness in percentage DLHS-4": 4.2,
      "Main Workers - Persons": 117528,
      "Main Workers Cultivators - Females": 36500,
      "Marginal Workers Agricultural Labourers worked for 3 - 6 moths during last year - Females": 2096,
      "Marginal Workers Other worked for 0 - 3 moths during last year - Males": 1868,
      "Upper Primary Schools with drinking water facility in percentage DISE": "NA",
      "Primary Schools with girls toilet in percentage DISE": "NA",
      "Marginal Workers worked for 3 - 6 moths during last year - Persons": 76623,
      "Upper Primary Drop Out Rate in percentage DISE": "NA",
      "Prevalence of Anaemia in pregnant women aged 15-49years in percentage DLHS-4": 78.1,
      "Current use of any modern method of family planning in percentage DLHS-4": 68,
      "Marginal Workers Agricultural Labourers - Males": 2239,
      "Upper Primary Female Teachers in percentage DISE": "NA",
      "Marginal Workers - Females": 71227,
      "Marginal Workers Other worked for 3 - 6 moths during last year - Persons": 11194,
      "Main Workers Agricultural Labourers - Females": 1836,
      "Marginal Workers Cultivators worked for 3 - 6 moths during last year - Females": 42089,
      "Households with no lighting  Houselisting and Housing Census Data Tables- District Level , Census of India__5": 59,
      "Prevalence of Severe Anaemia  in percentage DLHS-4": 31.6,
      "Total unmet need for family planning in percentage DLHS-4": 11.9,
      "Main Workers Other - Males": 48460,
      "Children who received full vaccination in percentage DLHS-4": 60.7,
      "Marginal Workers Household Industry - Persons": 1360,
      "Primary Pupil-Teacher Ratio in percentage DISE": "NA",
      "Marginal Workers Agricultural Labourers worked for 3 - 6 moths during last year - Males": 1675,
      "Scheduled Caste Females": 52735,
      "Marginal Workers Cultivators - Males": 29463,
      "Marginal Workers - Males": 42228,
      "Marginal Workers worked for 0 - 3 moths during last year - Females": 23239,
      "Households with main source of drinking water within premises in percentage Houselisting and Housing Census Data Tables- District Level , Census of India": 64.89330187,
      "Marginal Workers Household Industry worked for 3 - 6 moths during last year - Persons": 1136,
      "Upper Primary Girl's Enrolment in percentage DISE": "NA",
      "Prevalence of Severe Anaemia in women aged 15-49years in percentage DLHS-4": 25.2,
      "Marginal Workers Agricultural Labourers worked for 0 - 3 moths during last year - Males": 564,
      "Households with electricity as main source of lighting  Houselisting and Housing Census Data Tables- District Level , Census of India__3": 97034,
      "Households with computer or laptop with internet connection in percentage": 1.82,
      "PHCs functioning on a 24x7hours basis in percentage DLHS-4": "Not applicable",
      "Non Workers - Males": 89902,
      "Total Households in District Houselisting and Housing Census Data Tables- District Level , Census of India": 97893,
      "Upper Primary Schools with girls toilet in percentage DISE": "NA",
      "Households with mobile phone in percentage": 50.71,
      "Households receiving untreated tap water within premises in percentage Houselisting and Housing Census Data Tables- District Level , Census of India__2": 1.196204019,
      "Marginal Workers Cultivators worked for 3 - 6 moths during last year - Males": 18433,
      "Prevalence of Anaemia  in percentage DLHS-4": 81.1,
      "Prevalence of Chronic illness in percentage DLHS-4": 4.8,
      "Households with solar energy as main source of lighting in percentage Houselisting and Housing Census Data Tables- District Level , Census of India__1": 0.0449,
      "Marginal Workers Agricultural Labourers worked for 0 - 3 moths during last year - Females": 830,
      "Main Workers - Males": 68618,
      "Female": "NA",
      "Sno": 595,
      "Marginal Workers Other worked for 3 - 6 moths during last year - Females": 3297,
      "Marginal Workers Cultivators worked for 0 - 3 moths during last year - Females": 20749,
      "Scheduled Tribe Males": 1396,
      "Male Illiterates": 34265,
      "Prevalence of Severe Anaemia in pregnant women aged 15-49years in percentage DLHS-4": 18.8,
      "0-6 Age Group Persons": 45625,
      "Upper Primary Student-Classroom Ratio in percentage DISE": "NA",
      "Currently married men married below 21years of age in percentage DLHS-4": 0.8,
      "Male Literates": 166483,
      "Households with no lighting in percentage Houselisting and Housing Census Data Tables- District Level , Census of India__2": 0.0603,
      "Primary Drop Out Rate in percentage DISE": "NA",
      "Marginal Workers Household Industry - Males": 761,
      "Female Illiterates": 57354,
      "Main Workers Other - Females": 10156,
      "Marginal Workers Cultivators - Persons": 92301,
      "Upper Primary Gross Enrolment Ratio in percentage DISE": "NA",
      "Scheduled Caste Persons": 103541,
      "Marginal Workers Cultivators worked for 3 - 6 moths during last year - Persons": 60522,
      "Households with landline phone in percentage": 16.62,
      "Total Households in District  Houselisting and Housing Census Data Tables- District Level , Census of India": 97893,
      "Upper Primary Pupil-Teacher Ratio in percentage DISE": "NA",
      "Primary Student-Classroom Ratio in percentage DISE": "NA",
      "Primary Schools with boys toilet in percentage DISE": "NA",
      "Mean number of children ever born to women aged 40-49years  DLHS-4": 2.17,
      "Households receiving untreated tap water within premises  Houselisting and Housing Census Data Tables- District Level , Census of India__5": 1171,
      "Marginal Workers Household Industry worked for 0 - 3 moths during last year - Persons": 224,
      "Total Male Population": 200748,
      "Non Workers - Females": 102453,
      "Current use of family planning methods in percentage DLHS-4": 69.5,
      "Households with main source of drinking water within premises  Houselisting and Housing Census Data Tables- District Level , Census of India__3": 63526,
      "Main Workers Agricultural Labourers - Males": 1593,
      "Marginal Workers Other worked for 0 - 3 moths during last year - Persons": 3435,
      "Currently married women married below 18years of age in percentage DLHS-4": 0,
      "Person Illiterates": 91619,
      "Main Workers Household Industry - Females": 418,
      "Female Literates": 165236,
      "Marginal Workers Cultivators worked for 0 - 3 moths during last year - Males": 11030,
      "Male": "NA",
      "Households with improved source of drinking water in percentage DLHS-4": 98.7,
      "Upper Primary Schools with electricity in percentage DISE": "NA",
      "Households with electricity in percentage DLHS-4": 99.7,
      "Villages with Primary Health Centre within 10km in percentage DLHS-4": "Not applicable",
      "Births to women aged 15-19years out of Total births in percentage DLHS-4": 2,
      "Prevalence of Anaemia in women aged 15-49years in percentage DLHS-4": 77.3,
      "Marginal Workers Agricultural Labourers worked for 3 - 6 moths during last year - Persons": 3771,
      "Main Workers Household Industry - Males": 1251,
      "Scheduled Tribe Females": 1405,
      "Marginal Workers worked for 0 - 3 moths during last year - Males": 13593,
      "Marginal Workers Other worked for 3 - 6 moths during last year - Males": 7897,
      "Primary Net Enrolment Ratio in percentage DISE": "NA",
      "Total": "NA",
      "Mean age at marriage for boys DLHS-4": 27.3,
      "Number of District Hospitals  DLHS-4": "Not applicable",
      "0-6 Age Group Females": 21436,
      "Marginal Workers Agricultural Labourers worked for 0 - 3 moths during last year - Persons": 1394,
      "Marginal Workers Household Industry worked for 0 - 3 moths during last year - Males": 131,
      "Total Workers  Females": 120137,
      "Marginal Workers worked for 3 - 6 moths during last year - Females": 47988,
      "Institutional Deliveries in percentage DLHS-4": 91.9,
      "Marginal Workers Other - Males": 9765,
      "Total Workers  Males": 110846,
      "Main Workers - Females": 48910,
      "Primary Gross Enrolment Ratio in percentage DISE": "NA",
      "Main Workers Cultivators - Persons": 53814,
      "Marginal Workers Household Industry worked for 0 - 3 moths during last year - Females": 93,
      "Upper Primary Net Enrolment Ratio in percentage DISE": "NA",
      "Primary New Government Schools since 2003 in percentage DISE": "NA",
      "Tier": "Rural",
      "Marginal Workers Household Industry - Females": 599,
      "Primary Schools with electricity in percentage DISE": "NA",
      "Main Workers Other - Persons": 58616,
      "Marginal Workers Household Industry worked for 3 - 6 moths during last year - Females": 506,
      "Main Workers Cultivators - Males": 17314,
      "Main Workers Household Industry - Persons": 1669,
      "Marginal Workers Cultivators worked for 0 - 3 moths during last year - Persons": 31779,
      "Scheduled Caste Males": 50806,
      "Marginal Workers - Persons": 113455,
      "Deliveries at home conducted by skilled health personnel in percentage DLHS-4": 6.7,
      "Villages with Sub-Health Centres within 3km in percentage DLHS-4": "Not applicable",
      "Upper Primary New Government Schools since 2003 in percentage DISE": "NA",
      "0-6 Age Group Males": 24189,
      "Primary Schools with drinking water facility in percentage DISE": "NA",
      "Non Workers - Persons": 192355,
      "Person Literates": 331719,
      "State": "HIMACHAL PRADESH",
      "Total Female Population": 222590,
      "Marginal Workers worked for 0 - 3 moths during last year - Persons": 36832,
      "Marginal Workers Cultivators - Females": 62838,
      "Marginal Workers Other - Persons": 14629,
      "Sex Ratio": 1109,
      "Scheduled Tribe Persons": 2801,
      "Marginal Workers Household Industry worked for 3 - 6 moths during last year - Males": 630,
      "Marginal Workers Agricultural Labourers - Females": 2926,
      "Mean age at marriage for girls DLHS-4": 21,
      "Households with solar energy as main source of lighting  Houselisting and Housing Census Data Tables- District Level , Census of India__4": 44,
      "District": "HAMIRPUR",
      "Households receiving treated tap water within premises in percentage Houselisting and Housing Census Data Tables- District Level , Census of India__1": 62.32314874,
      "Total Workers  Persons": 230983,
      "Households receiving treated tap water within premises  Houselisting and Housing Census Data Tables- District Level , Census of India__4": 61010,
      "Primary Female Teachers in percentage DISE": "NA",
      "Number of Households": 98115,
      "Main Workers Agricultural Labourers - Persons": 3429
    }
  ],
  "Urban": [
    {
      "Marginal Workers Agricultural Labourers - Persons": 184,
      "Marginal Workers Other - Females": 304,
      "Marginal Workers Other worked for 0 - 3 moths during last year - Females": 19,
      "Upper Primary Schools with boys toilet in percentage DISE": "NA",
      "Total Population": 31430,
      "Households with electricity as main source of lighting in percentage Houselisting and Housing Census Data Tables- District Level , Census of India": 98.75958188,
      "Primary Girl's Enrolment in percentage DISE": "NA",
      "Marginal Workers worked for 3 - 6 moths during last year - Males": 1004,
      "Prevalence of Acute illness in percentage DLHS-4": "Not available",
      "Main Workers - Persons": 8625,
      "Main Workers Cultivators - Females": 42,
      "Marginal Workers Agricultural Labourers worked for 3 - 6 moths during last year - Females": 46,
      "Marginal Workers Other worked for 0 - 3 moths during last year - Males": 63,
      "Upper Primary Schools with drinking water facility in percentage DISE": "NA",
      "Primary Schools with girls toilet in percentage DISE": "NA",
      "Marginal Workers worked for 3 - 6 moths during last year - Persons": 2101,
      "Upper Primary Drop Out Rate in percentage DISE": "NA",
      "Prevalence of Anaemia in pregnant women aged 15-49years in percentage DLHS-4": "Not available",
      "Current use of any modern method of family planning in percentage DLHS-4": "Not available",
      "Marginal Workers Agricultural Labourers - Males": 132,
      "Upper Primary Female Teachers in percentage DISE": "NA",
      "Marginal Workers - Females": 1217,
      "Marginal Workers Other worked for 3 - 6 moths during last year - Persons": 1017,
      "Main Workers Agricultural Labourers - Females": 9,
      "Marginal Workers Cultivators worked for 3 - 6 moths during last year - Females": 580,
      "Households with no lighting  Houselisting and Housing Census Data Tables- District Level , Census of India__5": 1,
      "Prevalence of Severe Anaemia  in percentage DLHS-4": "Not available",
      "Total unmet need for family planning in percentage DLHS-4": "Not available",
      "Main Workers Other - Males": 6527,
      "Children who received full vaccination in percentage DLHS-4": "Not available",
      "Marginal Workers Household Industry - Persons": 212,
      "Primary Pupil-Teacher Ratio in percentage DISE": "NA",
      "Marginal Workers Agricultural Labourers worked for 3 - 6 moths during last year - Males": 109,
      "Scheduled Caste Females": 2794,
      "Marginal Workers Cultivators - Males": 155,
      "Marginal Workers - Males": 1106,
      "Marginal Workers worked for 0 - 3 moths during last year - Females": 120,
      "Households with main source of drinking water within premises in percentage Houselisting and Housing Census Data Tables- District Level , Census of India": 85.99303136,
      "Marginal Workers Household Industry worked for 3 - 6 moths during last year - Persons": 209,
      "Upper Primary Girl's Enrolment in percentage DISE": "NA",
      "Prevalence of Severe Anaemia in women aged 15-49years in percentage DLHS-4": "Not available",
      "Marginal Workers Agricultural Labourers worked for 0 - 3 moths during last year - Males": 23,
      "Households with electricity as main source of lighting  Houselisting and Housing Census Data Tables- District Level , Census of India__3": 7086,
      "Households with computer or laptop with internet connection in percentage": 10.27,
      "PHCs functioning on a 24x7hours basis in percentage DLHS-4": 0,
      "Non Workers - Males": 8444,
      "Total Households in District Houselisting and Housing Census Data Tables- District Level , Census of India": 7175,
      "Upper Primary Schools with girls toilet in percentage DISE": "NA",
      "Households with mobile phone in percentage": 59.55,
      "Households receiving untreated tap water within premises in percentage Houselisting and Housing Census Data Tables- District Level , Census of India__2": 0.599303136,
      "Marginal Workers Cultivators worked for 3 - 6 moths during last year - Males": 140,
      "Prevalence of Anaemia  in percentage DLHS-4": "Not available",
      "Prevalence of Chronic illness in percentage DLHS-4": "Not available",
      "Households with solar energy as main source of lighting in percentage Houselisting and Housing Census Data Tables- District Level , Census of India__1": "NA",
      "Marginal Workers Agricultural Labourers worked for 0 - 3 moths during last year - Females": 6,
      "Main Workers - Males": 6772,
      "Female": "NA",
      "Sno": 597,
      "Marginal Workers Other worked for 3 - 6 moths during last year - Females": 285,
      "Marginal Workers Cultivators worked for 0 - 3 moths during last year - Females": 93,
      "Scheduled Tribe Males": 135,
      "Male Illiterates": 2250,
      "Prevalence of Severe Anaemia in pregnant women aged 15-49years in percentage DLHS-4": "Not available",
      "0-6 Age Group Persons": 2923,
      "Upper Primary Student-Classroom Ratio in percentage DISE": "NA",
      "Currently married men married below 21years of age in percentage DLHS-4": "Not available",
      "Male Literates": 14072,
      "Households with no lighting in percentage Houselisting and Housing Census Data Tables- District Level , Census of India__2": 0.0139,
      "Primary Drop Out Rate in percentage DISE": "NA",
      "Marginal Workers Household Industry - Males": 24,
      "Female Illiterates": 2808,
      "Main Workers Other - Females": 1786,
      "Marginal Workers Cultivators - Persons": 828,
      "Upper Primary Gross Enrolment Ratio in percentage DISE": "NA",
      "Scheduled Caste Persons": 5715,
      "Marginal Workers Cultivators worked for 3 - 6 moths during last year - Persons": 720,
      "Households with landline phone in percentage": 7.96,
      "Total Households in District  Houselisting and Housing Census Data Tables- District Level , Census of India": 7175,
      "Upper Primary Pupil-Teacher Ratio in percentage DISE": "NA",
      "Primary Student-Classroom Ratio in percentage DISE": "NA",
      "Primary Schools with boys toilet in percentage DISE": "NA",
      "Mean number of children ever born to women aged 40-49years  DLHS-4": "Not available",
      "Households receiving untreated tap water within premises  Houselisting and Housing Census Data Tables- District Level , Census of India__5": 43,
      "Marginal Workers Household Industry worked for 0 - 3 moths during last year - Persons": 3,
      "Total Male Population": 16322,
      "Non Workers - Females": 12038,
      "Current use of family planning methods in percentage DLHS-4": "Not available",
      "Households with main source of drinking water within premises  Houselisting and Housing Census Data Tables- District Level , Census of India__3": 6170,
      "Main Workers Agricultural Labourers - Males": 37,
      "Marginal Workers Other worked for 0 - 3 moths during last year - Persons": 82,
      "Currently married women married below 18years of age in percentage DLHS-4": "Not available",
      "Person Illiterates": 5058,
      "Main Workers Household Industry - Females": 16,
      "Female Literates": 12300,
      "Marginal Workers Cultivators worked for 0 - 3 moths during last year - Males": 15,
      "Male": "NA",
      "Households with improved source of drinking water in percentage DLHS-4": "Not available",
      "Upper Primary Schools with electricity in percentage DISE": "NA",
      "Households with electricity in percentage DLHS-4": "Not available",
      "Villages with Primary Health Centre within 10km in percentage DLHS-4": 0,
      "Births to women aged 15-19years out of Total births in percentage DLHS-4": "Not available",
      "Prevalence of Anaemia in women aged 15-49years in percentage DLHS-4": "Not available",
      "Marginal Workers Agricultural Labourers worked for 3 - 6 moths during last year - Persons": 155,
      "Main Workers Household Industry - Males": 90,
      "Scheduled Tribe Females": 108,
      "Marginal Workers worked for 0 - 3 moths during last year - Males": 102,
      "Marginal Workers Other worked for 3 - 6 moths during last year - Males": 732,
      "Primary Net Enrolment Ratio in percentage DISE": "NA",
      "Total": "NA",
      "Mean age at marriage for boys DLHS-4": "Not available",
      "Number of District Hospitals  DLHS-4": 0,
      "0-6 Age Group Females": 1390,
      "Marginal Workers Agricultural Labourers worked for 0 - 3 moths during last year - Persons": 29,
      "Marginal Workers Household Industry worked for 0 - 3 moths during last year - Males": 1,
      "Total Workers  Females": 3070,
      "Marginal Workers worked for 3 - 6 moths during last year - Females": 1097,
      "Institutional Deliveries in percentage DLHS-4": "Not available",
      "Marginal Workers Other - Males": 795,
      "Total Workers  Males": 7878,
      "Main Workers - Females": 1853,
      "Primary Gross Enrolment Ratio in percentage DISE": "NA",
      "Main Workers Cultivators - Persons": 160,
      "Marginal Workers Household Industry worked for 0 - 3 moths during last year - Females": 2,
      "Upper Primary Net Enrolment Ratio in percentage DISE": "NA",
      "Primary New Government Schools since 2003 in percentage DISE": "NA",
      "Tier": "Urban",
      "Marginal Workers Household Industry - Females": 188,
      "Primary Schools with electricity in percentage DISE": "NA",
      "Main Workers Other - Persons": 8313,
      "Marginal Workers Household Industry worked for 3 - 6 moths during last year - Females": 186,
      "Main Workers Cultivators - Males": 118,
      "Main Workers Household Industry - Persons": 106,
      "Marginal Workers Cultivators worked for 0 - 3 moths during last year - Persons": 108,
      "Scheduled Caste Males": 2921,
      "Marginal Workers - Persons": 2323,
      "Deliveries at home conducted by skilled health personnel in percentage DLHS-4": "Not available",
      "Villages with Sub-Health Centres within 3km in percentage DLHS-4": 0,
      "Upper Primary New Government Schools since 2003 in percentage DISE": "NA",
      "0-6 Age Group Males": 1533,
      "Primary Schools with drinking water facility in percentage DISE": "NA",
      "Non Workers - Persons": 20482,
      "Person Literates": 26372,
      "State": "HIMACHAL PRADESH",
      "Total Female Population": 15108,
      "Marginal Workers worked for 0 - 3 moths during last year - Persons": 222,
      "Marginal Workers Cultivators - Females": 673,
      "Marginal Workers Other - Persons": 1099,
      "Sex Ratio": 926,
      "Scheduled Tribe Persons": 243,
      "Marginal Workers Household Industry worked for 3 - 6 moths during last year - Males": 23,
      "Marginal Workers Agricultural Labourers - Females": 52,
      "Mean age at marriage for girls DLHS-4": "Not available",
      "Households with solar energy as main source of lighting  Houselisting and Housing Census Data Tables- District Level , Census of India__4": "-",
      "District": "HAMIRPUR",
      "Households receiving treated tap water within premises in percentage Houselisting and Housing Census Data Tables- District Level , Census of India__1": 83.28919861,
      "Total Workers  Persons": 10948,
      "Households receiving treated tap water within premises  Houselisting and Housing Census Data Tables- District Level , Census of India__4": 5976,
      "Primary Female Teachers in percentage DISE": "NA",
      "Number of Households": 7404,
      "Main Workers Agricultural Labourers - Persons": 46
    }
  ]
}