{
  "Total": [
    {
      "Marginal Workers Agricultural Labourers - Persons": 43727,
      "Marginal Workers Other - Females": 24252,
      "Marginal Workers Other worked for 0 - 3 moths during last year - Females": 9683,
      "Upper Primary Schools with boys toilet in percentage DISE": 97.9,
      "Total Population": 1510075,
      "Households with electricity as main source of lighting in percentage Houselisting and Housing Census Data Tables- District Level , Census of India": 98.11953972,
      "Primary Girl's Enrolment in percentage DISE": 50.8,
      "Marginal Workers worked for 3 - 6 moths during last year - Males": 112044,
      "Prevalence of Acute illness in percentage DLHS-4": 1.9,
      "Main Workers - Persons": 313915,
      "Main Workers Cultivators - Females": 25796,
      "Marginal Workers Agricultural Labourers worked for 3 - 6 moths during last year - Females": 13529,
      "Marginal Workers Other worked for 0 - 3 moths during last year - Males": 11310,
      "Upper Primary Schools with drinking water facility in percentage DISE": 100,
      "Primary Schools with girls toilet in percentage DISE": 99,
      "Marginal Workers worked for 3 - 6 moths during last year - Persons": 238777,
      "Upper Primary Drop Out Rate in percentage DISE": 1.4,
      "Prevalence of Anaemia in pregnant women aged 15-49years in percentage DLHS-4": 84.4,
      "Current use of any modern method of family planning in percentage DLHS-4": 56.6,
      "Marginal Workers Agricultural Labourers - Males": 24543,
      "Upper Primary Female Teachers in percentage DISE": 30.8,
      "Marginal Workers - Females": 203210,
      "Marginal Workers Other worked for 3 - 6 moths during last year - Persons": 54948,
      "Main Workers Agricultural Labourers - Females": 2719,
      "Marginal Workers Cultivators worked for 3 - 6 moths during last year - Females": 96305,
      "Households with no lighting  Houselisting and Housing Census Data Tables- District Level , Census of India__5": 326,
      "Prevalence of Severe Anaemia  in percentage DLHS-4": 31.3,
      "Total unmet need for family planning in percentage DLHS-4": 27.6,
      "Main Workers Other - Males": 187543,
      "Children who received full vaccination in percentage DLHS-4": 40.4,
      "Marginal Workers Household Industry - Persons": 8004,
      "Primary Pupil-Teacher Ratio in percentage DISE": 12,
      "Marginal Workers Agricultural Labourers worked for 3 - 6 moths during last year - Males": 19470,
      "Scheduled Caste Females": 159688,
      "Marginal Workers Cultivators - Males": 77515,
      "Marginal Workers - Males": 158045,
      "Marginal Workers worked for 0 - 3 moths during last year - Females": 76477,
      "Households with main source of drinking water within premises in percentage Houselisting and Housing Census Data Tables- District Level , Census of India": 59.63133942,
      "Marginal Workers Household Industry worked for 3 - 6 moths during last year - Persons": 5775,
      "Upper Primary Girl's Enrolment in percentage DISE": 49.5,
      "Prevalence of Severe Anaemia in women aged 15-49years in percentage DLHS-4": 24.7,
      "Marginal Workers Agricultural Labourers worked for 0 - 3 moths during last year - Males": 5073,
      "Households with electricity as main source of lighting  Houselisting and Housing Census Data Tables- District Level , Census of India__3": 330081,
      "Households with computer or laptop with internet connection in percentage": 2.39,
      "PHCs functioning on a 24x7hours basis in percentage DLHS-4": 16.7,
      "Non Workers - Males": 346835,
      "Total Households in District Houselisting and Housing Census Data Tables- District Level , Census of India": 336407,
      "Upper Primary Schools with girls toilet in percentage DISE": 98.2,
      "Households with mobile phone in percentage": 60.41,
      "Households receiving untreated tap water within premises in percentage Houselisting and Housing Census Data Tables- District Level , Census of India__2": 1.145338831,
      "Marginal Workers Cultivators worked for 3 - 6 moths during last year - Males": 48750,
      "Prevalence of Anaemia  in percentage DLHS-4": 84.4,
      "Prevalence of Chronic illness in percentage DLHS-4": 2.1,
      "Households with solar energy as main source of lighting in percentage Houselisting and Housing Census Data Tables- District Level , Census of India__1": 0.0657,
      "Marginal Workers Agricultural Labourers worked for 0 - 3 moths during last year - Females": 5655,
      "Main Workers - Males": 245711,
      "Female": 80.02,
      "Sno": 599,
      "Marginal Workers Other worked for 3 - 6 moths during last year - Females": 14569,
      "Marginal Workers Cultivators worked for 0 - 3 moths during last year - Females": 59763,
      "Scheduled Tribe Males": 41745,
      "Male Illiterates": 144148,
      "Prevalence of Severe Anaemia in pregnant women aged 15-49years in percentage DLHS-4": 22.2,
      "0-6 Age Group Persons": 164607,
      "Upper Primary Student-Classroom Ratio in percentage DISE": 13,
      "Currently married men married below 21years of age in percentage DLHS-4": 0,
      "Male Literates": 606443,
      "Households with no lighting in percentage Houselisting and Housing Census Data Tables- District Level , Census of India__2": 0.0969,
      "Primary Drop Out Rate in percentage DISE": 1.8,
      "Marginal Workers Household Industry - Males": 4298,
      "Female Illiterates": 213287,
      "Main Workers Other - Females": 38168,
      "Marginal Workers Cultivators - Persons": 233583,
      "Upper Primary Gross Enrolment Ratio in percentage DISE": 92.1,
      "Scheduled Caste Persons": 319385,
      "Marginal Workers Cultivators worked for 3 - 6 moths during last year - Persons": 145055,
      "Households with landline phone in percentage": 8.26,
      "Total Households in District  Houselisting and Housing Census Data Tables- District Level , Census of India": 336407,
      "Upper Primary Pupil-Teacher Ratio in percentage DISE": 9,
      "Primary Student-Classroom Ratio in percentage DISE": 9,
      "Primary Schools with boys toilet in percentage DISE": 98.3,
      "Mean number of children ever born to women aged 40-49years  DLHS-4": 2.3,
      "Households receiving untreated tap water within premises  Houselisting and Housing Census Data Tables- District Level , Census of India__5": 3853,
      "Marginal Workers Household Industry worked for 0 - 3 moths during last year - Persons": 2229,
      "Total Male Population": 750591,
      "Non Workers - Females": 488070,
      "Current use of family planning methods in percentage DLHS-4": 57.6,
      "Households with main source of drinking water within premises  Houselisting and Housing Census Data Tables- District Level , Census of India__3": 200604,
      "Main Workers Agricultural Labourers - Males": 8403,
      "Marginal Workers Other worked for 0 - 3 moths during last year - Persons": 20993,
      "Currently married women married below 18years of age in percentage DLHS-4": 0,
      "Person Illiterates": 357435,
      "Main Workers Household Industry - Females": 1521,
      "Female Literates": 546197,
      "Marginal Workers Cultivators worked for 0 - 3 moths during last year - Males": 28765,
      "Male": 91.49,
      "Households with improved source of drinking water in percentage DLHS-4": 98.5,
      "Upper Primary Schools with electricity in percentage DISE": 93.3,
      "Households with electricity in percentage DLHS-4": 100,
      "Villages with Primary Health Centre within 10km in percentage DLHS-4": 73.7,
      "Births to women aged 15-19years out of Total births in percentage DLHS-4": 0.7,
      "Prevalence of Anaemia in women aged 15-49years in percentage DLHS-4": 85,
      "Marginal Workers Agricultural Labourers worked for 3 - 6 moths during last year - Persons": 32999,
      "Main Workers Household Industry - Males": 6137,
      "Scheduled Tribe Females": 42819,
      "Marginal Workers worked for 0 - 3 moths during last year - Males": 46001,
      "Marginal Workers Other worked for 3 - 6 moths during last year - Males": 40379,
      "Primary Net Enrolment Ratio in percentage DISE": 76.9,
      "Total": 85.67,
      "Mean age at marriage for boys DLHS-4": 27.4,
      "Number of District Hospitals  DLHS-4": 1,
      "0-6 Age Group Females": 76866,
      "Marginal Workers Agricultural Labourers worked for 0 - 3 moths during last year - Persons": 10728,
      "Marginal Workers Household Industry worked for 0 - 3 moths during last year - Males": 853,
      "Total Workers  Females": 271414,
      "Marginal Workers worked for 3 - 6 moths during last year - Females": 126733,
      "Institutional Deliveries in percentage DLHS-4": 81,
      "Marginal Workers Other - Males": 51689,
      "Total Workers  Males": 403756,
      "Main Workers - Females": 68204,
      "Primary Gross Enrolment Ratio in percentage DISE": 92.7,
      "Main Workers Cultivators - Persons": 69424,
      "Marginal Workers Household Industry worked for 0 - 3 moths during last year - Females": 1376,
      "Upper Primary Net Enrolment Ratio in percentage DISE": 71.1,
      "Primary New Government Schools since 2003 in percentage DISE": 1.3,
      "Tier": "Total",
      "Marginal Workers Household Industry - Females": 3706,
      "Primary Schools with electricity in percentage DISE": 97.3,
      "Main Workers Other - Persons": 225711,
      "Marginal Workers Household Industry worked for 3 - 6 moths during last year - Females": 2330,
      "Main Workers Cultivators - Males": 43628,
      "Main Workers Household Industry - Persons": 7658,
      "Marginal Workers Cultivators worked for 0 - 3 moths during last year - Persons": 88528,
      "Scheduled Caste Males": 159697,
      "Marginal Workers - Persons": 361255,
      "Deliveries at home conducted by skilled health personnel in percentage DLHS-4": 14.7,
      "Villages with Sub-Health Centres within 3km in percentage DLHS-4": 86.6,
      "Upper Primary New Government Schools since 2003 in percentage DISE": 38.6,
      "0-6 Age Group Males": 87741,
      "Primary Schools with drinking water facility in percentage DISE": 100,
      "Non Workers - Persons": 834905,
      "Person Literates": 1152640,
      "State": "HIMACHAL PRADESH",
      "Total Female Population": 759484,
      "Marginal Workers worked for 0 - 3 moths during last year - Persons": 122478,
      "Marginal Workers Cultivators - Females": 156068,
      "Marginal Workers Other - Persons": 75941,
      "Sex Ratio": 1012,
      "Scheduled Tribe Persons": 84564,
      "Marginal Workers Household Industry worked for 3 - 6 moths during last year - Males": 3445,
      "Marginal Workers Agricultural Labourers - Females": 19184,
      "Mean age at marriage for girls DLHS-4": 22.1,
      "Households with solar energy as main source of lighting  Houselisting and Housing Census Data Tables- District Level , Census of India__4": 221,
      "District": "KANGRA",
      "Households receiving treated tap water within premises in percentage Houselisting and Housing Census Data Tables- District Level , Census of India__1": 56.36981395,
      "Total Workers  Persons": 675170,
      "Households receiving treated tap water within premises  Houselisting and Housing Census Data Tables- District Level , Census of India__4": 189632,
      "Primary Female Teachers in percentage DISE": 51,
      "Number of Households": 338887,
      "Main Workers Agricultural Labourers - Persons": 11122
    }
  ],
  "Rural": [
    {
      "Marginal Workers Agricultural Labourers - Persons": 43257,
      "Marginal Workers Other - Females": 23512,
      "Marginal Workers Other worked for 0 - 3 moths during last year - Females": 9584,
      "Upper Primary Schools with boys toilet in percentage DISE": "NA",
      "Total Population": 1423794,
      "Households with electricity as main source of lighting in percentage Houselisting and Housing Census Data Tables- District Level , Census of India": 98.13001116,
      "Primary Girl's Enrolment in percentage DISE": "NA",
      "Marginal Workers worked for 3 - 6 moths during last year - Males": 109574,
      "Prevalence of Acute illness in percentage DLHS-4": 1.7,
      "Main Workers - Persons": 288085,
      "Main Workers Cultivators - Females": 25732,
      "Marginal Workers Agricultural Labourers worked for 3 - 6 moths during last year - Females": 13426,
      "Marginal Workers Other worked for 0 - 3 moths during last year - Males": 10984,
      "Upper Primary Schools with drinking water facility in percentage DISE": "NA",
      "Primary Schools with girls toilet in percentage DISE": "NA",
      "Marginal Workers worked for 3 - 6 moths during last year - Persons": 235351,
      "Upper Primary Drop Out Rate in percentage DISE": "NA",
      "Prevalence of Anaemia in pregnant women aged 15-49years in percentage DLHS-4": 84.1,
      "Current use of any modern method of family planning in percentage DLHS-4": 56,
      "Marginal Workers Agricultural Labourers - Males": 24191,
      "Upper Primary Female Teachers in percentage DISE": "NA",
      "Marginal Workers - Females": 202011,
      "Marginal Workers Other worked for 3 - 6 moths during last year - Persons": 52359,
      "Main Workers Agricultural Labourers - Females": 2559,
      "Marginal Workers Cultivators worked for 3 - 6 moths during last year - Females": 96169,
      "Households with no lighting  Houselisting and Housing Census Data Tables- District Level , Census of India__5": 315,
      "Prevalence of Severe Anaemia  in percentage DLHS-4": 31.3,
      "Total unmet need for family planning in percentage DLHS-4": 27.7,
      "Main Workers Other - Males": 168396,
      "Children who received full vaccination in percentage DLHS-4": 42.6,
      "Marginal Workers Household Industry - Persons": 7791,
      "Primary Pupil-Teacher Ratio in percentage DISE": "NA",
      "Marginal Workers Agricultural Labourers worked for 3 - 6 moths during last year - Males": 19195,
      "Scheduled Caste Females": 152616,
      "Marginal Workers Cultivators - Males": 77312,
      "Marginal Workers - Males": 155085,
      "Marginal Workers worked for 0 - 3 moths during last year - Females": 76234,
      "Households with main source of drinking water within premises in percentage Houselisting and Housing Census Data Tables- District Level , Census of India": 58.27715782,
      "Marginal Workers Household Industry worked for 3 - 6 moths during last year - Persons": 5578,
      "Upper Primary Girl's Enrolment in percentage DISE": "NA",
      "Prevalence of Severe Anaemia in women aged 15-49years in percentage DLHS-4": 23.3,
      "Marginal Workers Agricultural Labourers worked for 0 - 3 moths during last year - Males": 4996,
      "Households with electricity as main source of lighting  Houselisting and Housing Census Data Tables- District Level , Census of India__3": 310502,
      "Households with computer or laptop with internet connection in percentage": 1.95,
      "PHCs functioning on a 24x7hours basis in percentage DLHS-4": "Not applicable",
      "Non Workers - Males": 324637,
      "Total Households in District Houselisting and Housing Census Data Tables- District Level , Census of India": 316419,
      "Upper Primary Schools with girls toilet in percentage DISE": "NA",
      "Households with mobile phone in percentage": 60.42,
      "Households receiving untreated tap water within premises in percentage Houselisting and Housing Census Data Tables- District Level , Census of India__2": 1.153533764,
      "Marginal Workers Cultivators worked for 3 - 6 moths during last year - Males": 48624,
      "Prevalence of Anaemia  in percentage DLHS-4": 84.4,
      "Prevalence of Chronic illness in percentage DLHS-4": 2.2,
      "Households with solar energy as main source of lighting in percentage Houselisting and Housing Census Data Tables- District Level , Census of India__1": 0.0629,
      "Marginal Workers Agricultural Labourers worked for 0 - 3 moths during last year - Females": 5640,
      "Main Workers - Males": 225643,
      "Female": "NA",
      "Sno": 598,
      "Marginal Workers Other worked for 3 - 6 moths during last year - Females": 13928,
      "Marginal Workers Cultivators worked for 0 - 3 moths during last year - Females": 59640,
      "Scheduled Tribe Males": 39498,
      "Male Illiterates": 136801,
      "Prevalence of Severe Anaemia in pregnant women aged 15-49years in percentage DLHS-4": 20.5,
      "0-6 Age Group Persons": 156586,
      "Upper Primary Student-Classroom Ratio in percentage DISE": "NA",
      "Currently married men married below 21years of age in percentage DLHS-4": 0,
      "Male Literates": 568564,
      "Households with no lighting in percentage Houselisting and Housing Census Data Tables- District Level , Census of India__2": 0.0996,
      "Primary Drop Out Rate in percentage DISE": "NA",
      "Marginal Workers Household Industry - Males": 4167,
      "Female Illiterates": 204551,
      "Main Workers Other - Females": 32735,
      "Marginal Workers Cultivators - Persons": 233121,
      "Upper Primary Gross Enrolment Ratio in percentage DISE": "NA",
      "Scheduled Caste Persons": 304802,
      "Marginal Workers Cultivators worked for 3 - 6 moths during last year - Persons": 144793,
      "Households with landline phone in percentage": 8.33,
      "Total Households in District  Houselisting and Housing Census Data Tables- District Level , Census of India": 316419,
      "Upper Primary Pupil-Teacher Ratio in percentage DISE": "NA",
      "Primary Student-Classroom Ratio in percentage DISE": "NA",
      "Primary Schools with boys toilet in percentage DISE": "NA",
      "Mean number of children ever born to women aged 40-49years  DLHS-4": 2.3,
      "Households receiving untreated tap water within premises  Houselisting and Housing Census Data Tables- District Level , Census of India__5": 3650,
      "Marginal Workers Household Industry worked for 0 - 3 moths during last year - Persons": 2213,
      "Total Male Population": 705365,
      "Non Workers - Females": 453976,
      "Current use of family planning methods in percentage DLHS-4": 57,
      "Households with main source of drinking water within premises  Houselisting and Housing Census Data Tables- District Level , Census of India__3": 184400,
      "Main Workers Agricultural Labourers - Males": 8258,
      "Marginal Workers Other worked for 0 - 3 moths during last year - Persons": 20568,
      "Currently married women married below 18years of age in percentage DLHS-4": 0,
      "Person Illiterates": 341352,
      "Main Workers Household Industry - Females": 1416,
      "Female Literates": 513878,
      "Marginal Workers Cultivators worked for 0 - 3 moths during last year - Males": 28688,
      "Male": "NA",
      "Households with improved source of drinking water in percentage DLHS-4": 98.5,
      "Upper Primary Schools with electricity in percentage DISE": "NA",
      "Households with electricity in percentage DLHS-4": 100,
      "Villages with Primary Health Centre within 10km in percentage DLHS-4": "Not applicable",
      "Births to women aged 15-19years out of Total births in percentage DLHS-4": 0.7,
      "Prevalence of Anaemia in women aged 15-49years in percentage DLHS-4": 84.7,
      "Marginal Workers Agricultural Labourers worked for 3 - 6 moths during last year - Persons": 32621,
      "Main Workers Household Industry - Males": 5710,
      "Scheduled Tribe Females": 40736,
      "Marginal Workers worked for 0 - 3 moths during last year - Males": 45511,
      "Marginal Workers Other worked for 3 - 6 moths during last year - Males": 38431,
      "Primary Net Enrolment Ratio in percentage DISE": "NA",
      "Total": "NA",
      "Mean age at marriage for boys DLHS-4": 27.3,
      "Number of District Hospitals  DLHS-4": "Not applicable",
      "0-6 Age Group Females": 73167,
      "Marginal Workers Agricultural Labourers worked for 0 - 3 moths during last year - Persons": 10636,
      "Marginal Workers Household Industry worked for 0 - 3 moths during last year - Males": 843,
      "Total Workers  Females": 264453,
      "Marginal Workers worked for 3 - 6 moths during last year - Females": 125777,
      "Institutional Deliveries in percentage DLHS-4": 80,
      "Marginal Workers Other - Males": 49415,
      "Total Workers  Males": 380728,
      "Main Workers - Females": 62442,
      "Primary Gross Enrolment Ratio in percentage DISE": "NA",
      "Main Workers Cultivators - Persons": 69011,
      "Marginal Workers Household Industry worked for 0 - 3 moths during last year - Females": 1370,
      "Upper Primary Net Enrolment Ratio in percentage DISE": "NA",
      "Primary New Government Schools since 2003 in percentage DISE": "NA",
      "Tier": "Rural",
      "Marginal Workers Household Industry - Females": 3624,
      "Primary Schools with electricity in percentage DISE": "NA",
      "Main Workers Other - Persons": 201131,
      "Marginal Workers Household Industry worked for 3 - 6 moths during last year - Females": 2254,
      "Main Workers Cultivators - Males": 43279,
      "Main Workers Household Industry - Persons": 7126,
      "Marginal Workers Cultivators worked for 0 - 3 moths during last year - Persons": 88328,
      "Scheduled Caste Males": 152186,
      "Marginal Workers - Persons": 357096,
      "Deliveries at home conducted by skilled health personnel in percentage DLHS-4": 15.5,
      "Villages with Sub-Health Centres within 3km in percentage DLHS-4": "Not applicable",
      "Upper Primary New Government Schools since 2003 in percentage DISE": "NA",
      "0-6 Age Group Males": 83419,
      "Primary Schools with drinking water facility in percentage DISE": "NA",
      "Non Workers - Persons": 778613,
      "Person Literates": 1082442,
      "State": "HIMACHAL PRADESH",
      "Total Female Population": 718429,
      "Marginal Workers worked for 0 - 3 moths during last year - Persons": 121745,
      "Marginal Workers Cultivators - Females": 155809,
      "Marginal Workers Other - Persons": 72927,
      "Sex Ratio": 1019,
      "Scheduled Tribe Persons": 80234,
      "Marginal Workers Household Industry worked for 3 - 6 moths during last year - Males": 3324,
      "Marginal Workers Agricultural Labourers - Females": 19066,
      "Mean age at marriage for girls DLHS-4": 22.1,
      "Households with solar energy as main source of lighting  Houselisting and Housing Census Data Tables- District Level , Census of India__4": 199,
      "District": "KANGRA",
      "Households receiving treated tap water within premises in percentage Houselisting and Housing Census Data Tables- District Level , Census of India__1": 54.97109845,
      "Total Workers  Persons": 645181,
      "Households receiving treated tap water within premises  Houselisting and Housing Census Data Tables- District Level , Census of India__4": 173939,
      "Primary Female Teachers in percentage DISE": "NA",
      "Number of Households": 318379,
      "Main Workers Agricultural Labourers - Persons": 10817
    }
  ],
  "Urban": [
    {
      "Marginal Workers Agricultural Labourers - Persons": 470,
      "Marginal Workers Other - Females": 740,
      "Marginal Workers Other worked for 0 - 3 moths during last year - Females": 99,
      "Upper Primary Schools with boys toilet in percentage DISE": "NA",
      "Total Population": 86281,
      "Households with electricity as main source of lighting in percentage Houselisting and Housing Census Data Tables- District Level , Census of India": 97.95377226,
      "Primary Girl's Enrolment in percentage DISE": "NA",
      "Marginal Workers worked for 3 - 6 moths during last year - Males": 2470,
      "Prevalence of Acute illness in percentage DLHS-4": "Not available",
      "Main Workers - Persons": 25830,
      "Main Workers Cultivators - Females": 64,
      "Marginal Workers Agricultural Labourers worked for 3 - 6 moths during last year - Females": 103,
      "Marginal Workers Other worked for 0 - 3 moths during last year - Males": 326,
      "Upper Primary Schools with drinking water facility in percentage DISE": "NA",
      "Primary Schools with girls toilet in percentage DISE": "NA",
      "Marginal Workers worked for 3 - 6 moths during last year - Persons": 3426,
      "Upper Primary Drop Out Rate in percentage DISE": "NA",
      "Prevalence of Anaemia in pregnant women aged 15-49years in percentage DLHS-4": "Not available",
      "Current use of any modern method of family planning in percentage DLHS-4": "Not available",
      "Marginal Workers Agricultural Labourers - Males": 352,
      "Upper Primary Female Teachers in percentage DISE": "NA",
      "Marginal Workers - Females": 1199,
      "Marginal Workers Other worked for 3 - 6 moths during last year - Persons": 2589,
      "Main Workers Agricultural Labourers - Females": 160,
      "Marginal Workers Cultivators worked for 3 - 6 moths during last year - Females": 136,
      "Households with no lighting  Houselisting and Housing Census Data Tables- District Level , Census of India__5": 11,
      "Prevalence of Severe Anaemia  in percentage DLHS-4": "Not available",
      "Total unmet need for family planning in percentage DLHS-4": "Not available",
      "Main Workers Other - Males": 19147,
      "Children who received full vaccination in percentage DLHS-4": "Not available",
      "Marginal Workers Household Industry - Persons": 213,
      "Primary Pupil-Teacher Ratio in percentage DISE": "NA",
      "Marginal Workers Agricultural Labourers worked for 3 - 6 moths during last year - Males": 275,
      "Scheduled Caste Females": 7072,
      "Marginal Workers Cultivators - Males": 203,
      "Marginal Workers - Males": 2960,
      "Marginal Workers worked for 0 - 3 moths during last year - Females": 243,
      "Households with main source of drinking water within premises in percentage Houselisting and Housing Census Data Tables- District Level , Census of India": 81.06864118,
      "Marginal Workers Household Industry worked for 3 - 6 moths during last year - Persons": 197,
      "Upper Primary Girl's Enrolment in percentage DISE": "NA",
      "Prevalence of Severe Anaemia in women aged 15-49years in percentage DLHS-4": "Not available",
      "Marginal Workers Agricultural Labourers worked for 0 - 3 moths during last year - Males": 77,
      "Households with electricity as main source of lighting  Houselisting and Housing Census Data Tables- District Level , Census of India__3": 19579,
      "Households with computer or laptop with internet connection in percentage": 9.43,
      "PHCs functioning on a 24x7hours basis in percentage DLHS-4": 0,
      "Non Workers - Males": 22198,
      "Total Households in District Houselisting and Housing Census Data Tables- District Level , Census of India": 19988,
      "Upper Primary Schools with girls toilet in percentage DISE": "NA",
      "Households with mobile phone in percentage": 60.33,
      "Households receiving untreated tap water within premises in percentage Houselisting and Housing Census Data Tables- District Level , Census of India__2": 1.015609366,
      "Marginal Workers Cultivators worked for 3 - 6 moths during last year - Males": 126,
      "Prevalence of Anaemia  in percentage DLHS-4": "Not available",
      "Prevalence of Chronic illness in percentage DLHS-4": "Not available",
      "Households with solar energy as main source of lighting in percentage Houselisting and Housing Census Data Tables- District Level , Census of India__1": 0.11006604,
      "Marginal Workers Agricultural Labourers worked for 0 - 3 moths during last year - Females": 15,
      "Main Workers - Males": 20068,
      "Female": "NA",
      "Sno": 600,
      "Marginal Workers Other worked for 3 - 6 moths during last year - Females": 641,
      "Marginal Workers Cultivators worked for 0 - 3 moths during last year - Females": 123,
      "Scheduled Tribe Males": 2247,
      "Male Illiterates": 7347,
      "Prevalence of Severe Anaemia in pregnant women aged 15-49years in percentage DLHS-4": "Not available",
      "0-6 Age Group Persons": 8021,
      "Upper Primary Student-Classroom Ratio in percentage DISE": "NA",
      "Currently married men married below 21years of age in percentage DLHS-4": "Not available",
      "Male Literates": 37879,
      "Households with no lighting in percentage Houselisting and Housing Census Data Tables- District Level , Census of India__2": 0.055,
      "Primary Drop Out Rate in percentage DISE": "NA",
      "Marginal Workers Household Industry - Males": 131,
      "Female Illiterates": 8736,
      "Main Workers Other - Females": 5433,
      "Marginal Workers Cultivators - Persons": 462,
      "Upper Primary Gross Enrolment Ratio in percentage DISE": "NA",
      "Scheduled Caste Persons": 14583,
      "Marginal Workers Cultivators worked for 3 - 6 moths during last year - Persons": 262,
      "Households with landline phone in percentage": 7.19,
      "Total Households in District  Houselisting and Housing Census Data Tables- District Level , Census of India": 19988,
      "Upper Primary Pupil-Teacher Ratio in percentage DISE": "NA",
      "Primary Student-Classroom Ratio in percentage DISE": "NA",
      "Primary Schools with boys toilet in percentage DISE": "NA",
      "Mean number of children ever born to women aged 40-49years  DLHS-4": "Not available",
      "Households receiving untreated tap water within premises  Houselisting and Housing Census Data Tables- District Level , Census of India__5": 203,
      "Marginal Workers Household Industry worked for 0 - 3 moths during last year - Persons": 16,
      "Total Male Population": 45226,
      "Non Workers - Females": 34094,
      "Current use of family planning methods in percentage DLHS-4": "Not available",
      "Households with main source of drinking water within premises  Houselisting and Housing Census Data Tables- District Level , Census of India__3": 16204,
      "Main Workers Agricultural Labourers - Males": 145,
      "Marginal Workers Other worked for 0 - 3 moths during last year - Persons": 425,
      "Currently married women married below 18years of age in percentage DLHS-4": "Not available",
      "Person Illiterates": 16083,
      "Main Workers Household Industry - Females": 105,
      "Female Literates": 32319,
      "Marginal Workers Cultivators worked for 0 - 3 moths during last year - Males": 77,
      "Male": "NA",
      "Households with improved source of drinking water in percentage DLHS-4": "Not available",
      "Upper Primary Schools with electricity in percentage DISE": "NA",
      "Households with electricity in percentage DLHS-4": "Not available",
      "Villages with Primary Health Centre within 10km in percentage DLHS-4": 0,
      "Births to women aged 15-19years out of Total births in percentage DLHS-4": "Not available",
      "Prevalence of Anaemia in women aged 15-49years in percentage DLHS-4": "Not available",
      "Marginal Workers Agricultural Labourers worked for 3 - 6 moths during last year - Persons": 378,
      "Main Workers Household Industry - Males": 427,
      "Scheduled Tribe Females": 2083,
      "Marginal Workers worked for 0 - 3 moths during last year - Males": 490,
      "Marginal Workers Other worked for 3 - 6 moths during last year - Males": 1948,
      "Primary Net Enrolment Ratio in percentage DISE": "NA",
      "Total": "NA",
      "Mean age at marriage for boys DLHS-4": "Not available",
      "Number of District Hospitals  DLHS-4": 0,
      "0-6 Age Group Females": 3699,
      "Marginal Workers Agricultural Labourers worked for 0 - 3 moths during last year - Persons": 92,
      "Marginal Workers Household Industry worked for 0 - 3 moths during last year - Males": 10,
      "Total Workers  Females": 6961,
      "Marginal Workers worked for 3 - 6 moths during last year - Females": 956,
      "Institutional Deliveries in percentage DLHS-4": "Not available",
      "Marginal Workers Other - Males": 2274,
      "Total Workers  Males": 23028,
      "Main Workers - Females": 5762,
      "Primary Gross Enrolment Ratio in percentage DISE": "NA",
      "Main Workers Cultivators - Persons": 413,
      "Marginal Workers Household Industry worked for 0 - 3 moths during last year - Females": 6,
      "Upper Primary Net Enrolment Ratio in percentage DISE": "NA",
      "Primary New Government Schools since 2003 in percentage DISE": "NA",
      "Tier": "Urban",
      "Marginal Workers Household Industry - Females": 82,
      "Primary Schools with electricity in percentage DISE": "NA",
      "Main Workers Other - Persons": 24580,
      "Marginal Workers Household Industry worked for 3 - 6 moths during last year - Females": 76,
      "Main Workers Cultivators - Males": 349,
      "Main Workers Household Industry - Persons": 532,
      "Marginal Workers Cultivators worked for 0 - 3 moths during last year - Persons": 200,
      "Scheduled Caste Males": 7511,
      "Marginal Workers - Persons": 4159,
      "Deliveries at home conducted by skilled health personnel in percentage DLHS-4": "Not available",
      "Villages with Sub-Health Centres within 3km in percentage DLHS-4": 0,
      "Upper Primary New Government Schools since 2003 in percentage DISE": "NA",
      "0-6 Age Group Males": 4322,
      "Primary Schools with drinking water facility in percentage DISE": "NA",
      "Non Workers - Persons": 56292,
      "Person Literates": 70198,
      "State": "HIMACHAL PRADESH",
      "Total Female Population": 41055,
      "Marginal Workers worked for 0 - 3 moths during last year - Persons": 733,
      "Marginal Workers Cultivators - Females": 259,
      "Marginal Workers Other - Persons": 3014,
      "Sex Ratio": 908,
      "Scheduled Tribe Persons": 4330,
      "Marginal Workers Household Industry worked for 3 - 6 moths during last year - Males": 121,
      "Marginal Workers Agricultural Labourers - Females": 118,
      "Mean age at marriage for girls DLHS-4": "Not available",
      "Households with solar energy as main source of lighting  Houselisting and Housing Census Data Tables- District Level , Census of India__4": 22,
      "District": "KANGRA",
      "Households receiving treated tap water within premises in percentage Houselisting and Housing Census Data Tables- District Level , Census of India__1": 78.51210726,
      "Total Workers  Persons": 29989,
      "Households receiving treated tap water within premises  Houselisting and Housing Census Data Tables- District Level , Census of India__4": 15693,
      "Primary Female Teachers in percentage DISE": "NA",
      "Number of Households": 20508,
      "Main Workers Agricultural Labourers - Persons": 305
    }
  ]
}