{
  "Total": [
    {
      "Marginal Workers Agricultural Labourers - Persons": 4777,
      "Marginal Workers Other - Females": 3651,
      "Marginal Workers Other worked for 0 - 3 moths during last year - Females": 743,
      "Upper Primary Schools with boys toilet in percentage DISE": 83.3,
      "Total Population": 529855,
      "Households with electricity as main source of lighting in percentage Houselisting and Housing Census Data Tables- District Level , Census of India": 94.2517252,
      "Primary Girl's Enrolment in percentage DISE": 49.7,
      "Marginal Workers worked for 3 - 6 moths during last year - Males": 21361,
      "Prevalence of Acute illness in percentage DLHS-4": 2.3,
      "Main Workers - Persons": 193906,
      "Main Workers Cultivators - Females": 44409,
      "Marginal Workers Agricultural Labourers worked for 3 - 6 moths during last year - Females": 1676,
      "Marginal Workers Other worked for 0 - 3 moths during last year - Males": 1491,
      "Upper Primary Schools with drinking water facility in percentage DISE": 91.6,
      "Primary Schools with girls toilet in percentage DISE": 97,
      "Marginal Workers worked for 3 - 6 moths during last year - Persons": 58009,
      "Upper Primary Drop Out Rate in percentage DISE": 2.66,
      "Prevalence of Anaemia in pregnant women aged 15-49years in percentage DLHS-4": 52.2,
      "Current use of any modern method of family planning in percentage DLHS-4": 66.7,
      "Marginal Workers Agricultural Labourers - Males": 2532,
      "Upper Primary Female Teachers in percentage DISE": 25.3,
      "Marginal Workers - Females": 51730,
      "Marginal Workers Other worked for 3 - 6 moths during last year - Persons": 9564,
      "Main Workers Agricultural Labourers - Females": 1728,
      "Marginal Workers Cultivators worked for 3 - 6 moths during last year - Females": 30916,
      "Households with no lighting  Houselisting and Housing Census Data Tables- District Level , Census of India__5": 160,
      "Prevalence of Severe Anaemia  in percentage DLHS-4": 9.7,
      "Total unmet need for family planning in percentage DLHS-4": 20.9,
      "Main Workers Other - Males": 56965,
      "Children who received full vaccination in percentage DLHS-4": 52.6,
      "Marginal Workers Household Industry - Persons": 2636,
      "Primary Pupil-Teacher Ratio in percentage DISE": 16,
      "Marginal Workers Agricultural Labourers worked for 3 - 6 moths during last year - Males": 2033,
      "Scheduled Caste Females": 77728,
      "Marginal Workers Cultivators - Males": 22715,
      "Marginal Workers - Males": 34447,
      "Marginal Workers worked for 0 - 3 moths during last year - Females": 15082,
      "Households with main source of drinking water within premises in percentage Houselisting and Housing Census Data Tables- District Level , Census of India": 40.84766711,
      "Marginal Workers Household Industry worked for 3 - 6 moths during last year - Persons": 1914,
      "Upper Primary Girl's Enrolment in percentage DISE": 50.3,
      "Prevalence of Severe Anaemia in women aged 15-49years in percentage DLHS-4": 5.2,
      "Marginal Workers Agricultural Labourers worked for 0 - 3 moths during last year - Males": 499,
      "Households with electricity as main source of lighting  Houselisting and Housing Census Data Tables- District Level , Census of India__3": 91509,
      "Households with computer or laptop with internet connection in percentage": 2.29,
      "PHCs functioning on a 24x7hours basis in percentage DLHS-4": 18.2,
      "Non Workers - Males": 106890,
      "Total Households in District Houselisting and Housing Census Data Tables- District Level , Census of India": 97090,
      "Upper Primary Schools with girls toilet in percentage DISE": 87.7,
      "Households with mobile phone in percentage": 64.26,
      "Households receiving untreated tap water within premises in percentage Houselisting and Housing Census Data Tables- District Level , Census of India__2": 2.823153775,
      "Marginal Workers Cultivators worked for 3 - 6 moths during last year - Males": 11906,
      "Prevalence of Anaemia  in percentage DLHS-4": 51.6,
      "Prevalence of Chronic illness in percentage DLHS-4": 2.1,
      "Households with solar energy as main source of lighting in percentage Houselisting and Housing Census Data Tables- District Level , Census of India__1": 0.0865,
      "Marginal Workers Agricultural Labourers worked for 0 - 3 moths during last year - Females": 569,
      "Main Workers - Males": 134952,
      "Female": 71.36,
      "Sno": 617,
      "Marginal Workers Other worked for 3 - 6 moths during last year - Females": 2908,
      "Marginal Workers Cultivators worked for 0 - 3 moths during last year - Females": 13335,
      "Scheduled Tribe Males": 5912,
      "Male Illiterates": 70672,
      "Prevalence of Severe Anaemia in pregnant women aged 15-49years in percentage DLHS-4": 0,
      "0-6 Age Group Persons": 69620,
      "Upper Primary Student-Classroom Ratio in percentage DISE": 14,
      "Currently married men married below 21years of age in percentage DLHS-4": 8.9,
      "Male Literates": 205617,
      "Households with no lighting in percentage Houselisting and Housing Census Data Tables- District Level , Census of India__2": 0.164795551,
      "Primary Drop Out Rate in percentage DISE": 0.8,
      "Marginal Workers Household Industry - Males": 1053,
      "Female Illiterates": 96538,
      "Main Workers Other - Females": 12319,
      "Marginal Workers Cultivators - Persons": 66966,
      "Upper Primary Gross Enrolment Ratio in percentage DISE": 97.5,
      "Scheduled Caste Persons": 160745,
      "Marginal Workers Cultivators worked for 3 - 6 moths during last year - Persons": 42822,
      "Households with landline phone in percentage": 5.39,
      "Total Households in District  Houselisting and Housing Census Data Tables- District Level , Census of India": 97090,
      "Upper Primary Pupil-Teacher Ratio in percentage DISE": 12,
      "Primary Student-Classroom Ratio in percentage DISE": 13,
      "Primary Schools with boys toilet in percentage DISE": 94,
      "Mean number of children ever born to women aged 40-49years  DLHS-4": 2.72,
      "Households receiving untreated tap water within premises  Houselisting and Housing Census Data Tables- District Level , Census of India__5": 2741,
      "Marginal Workers Household Industry worked for 0 - 3 moths during last year - Persons": 722,
      "Total Male Population": 276289,
      "Non Workers - Females": 142882,
      "Current use of family planning methods in percentage DLHS-4": 67.1,
      "Households with main source of drinking water within premises  Houselisting and Housing Census Data Tables- District Level , Census of India__3": 39659,
      "Main Workers Agricultural Labourers - Males": 4225,
      "Marginal Workers Other worked for 0 - 3 moths during last year - Persons": 2234,
      "Currently married women married below 18years of age in percentage DLHS-4": 0,
      "Person Illiterates": 167210,
      "Main Workers Household Industry - Females": 498,
      "Female Literates": 157028,
      "Marginal Workers Cultivators worked for 0 - 3 moths during last year - Males": 10809,
      "Male": 85.61,
      "Households with improved source of drinking water in percentage DLHS-4": 98,
      "Upper Primary Schools with electricity in percentage DISE": 76.4,
      "Households with electricity in percentage DLHS-4": 99.8,
      "Villages with Primary Health Centre within 10km in percentage DLHS-4": 61.1,
      "Births to women aged 15-19years out of Total births in percentage DLHS-4": 1.9,
      "Prevalence of Anaemia in women aged 15-49years in percentage DLHS-4": 49.2,
      "Marginal Workers Agricultural Labourers worked for 3 - 6 moths during last year - Persons": 3709,
      "Main Workers Household Industry - Males": 2179,
      "Scheduled Tribe Females": 5350,
      "Marginal Workers worked for 0 - 3 moths during last year - Males": 13086,
      "Marginal Workers Other worked for 3 - 6 moths during last year - Males": 6656,
      "Primary Net Enrolment Ratio in percentage DISE": 91.6,
      "Total": 78.8,
      "Mean age at marriage for boys DLHS-4": 24.2,
      "Number of District Hospitals  DLHS-4": 1,
      "0-6 Age Group Females": 33513,
      "Marginal Workers Agricultural Labourers worked for 0 - 3 moths during last year - Persons": 1068,
      "Marginal Workers Household Industry worked for 0 - 3 moths during last year - Males": 287,
      "Total Workers  Females": 110684,
      "Marginal Workers worked for 3 - 6 moths during last year - Females": 36648,
      "Institutional Deliveries in percentage DLHS-4": 66.5,
      "Marginal Workers Other - Males": 8147,
      "Total Workers  Males": 169399,
      "Main Workers - Females": 58954,
      "Primary Gross Enrolment Ratio in percentage DISE": 108.6,
      "Main Workers Cultivators - Persons": 115992,
      "Marginal Workers Household Industry worked for 0 - 3 moths during last year - Females": 435,
      "Upper Primary Net Enrolment Ratio in percentage DISE": 76.3,
      "Primary New Government Schools since 2003 in percentage DISE": 4.5,
      "Tier": "Total",
      "Marginal Workers Household Industry - Females": 1583,
      "Primary Schools with electricity in percentage DISE": 86.1,
      "Main Workers Other - Persons": 69284,
      "Marginal Workers Household Industry worked for 3 - 6 moths during last year - Females": 1148,
      "Main Workers Cultivators - Males": 71583,
      "Main Workers Household Industry - Persons": 2677,
      "Marginal Workers Cultivators worked for 0 - 3 moths during last year - Persons": 24144,
      "Scheduled Caste Males": 83017,
      "Marginal Workers - Persons": 86177,
      "Deliveries at home conducted by skilled health personnel in percentage DLHS-4": 24.2,
      "Villages with Sub-Health Centres within 3km in percentage DLHS-4": 86.1,
      "Upper Primary New Government Schools since 2003 in percentage DISE": 62.6,
      "0-6 Age Group Males": 36107,
      "Primary Schools with drinking water facility in percentage DISE": 94,
      "Non Workers - Persons": 249772,
      "Person Literates": 362645,
      "State": "HIMACHAL PRADESH",
      "Total Female Population": 253566,
      "Marginal Workers worked for 0 - 3 moths during last year - Persons": 28168,
      "Marginal Workers Cultivators - Females": 44251,
      "Marginal Workers Other - Persons": 11798,
      "Sex Ratio": 918,
      "Scheduled Tribe Persons": 11262,
      "Marginal Workers Household Industry worked for 3 - 6 moths during last year - Males": 766,
      "Marginal Workers Agricultural Labourers - Females": 2245,
      "Mean age at marriage for girls DLHS-4": 23.3,
      "Households with solar energy as main source of lighting  Houselisting and Housing Census Data Tables- District Level , Census of India__4": 84,
      "District": "SIRMAUR",
      "Households receiving treated tap water within premises in percentage Houselisting and Housing Census Data Tables- District Level , Census of India__1": 35.13441137,
      "Total Workers  Persons": 280083,
      "Households receiving treated tap water within premises  Houselisting and Housing Census Data Tables- District Level , Census of India__4": 34112,
      "Primary Female Teachers in percentage DISE": 35.4,
      "Number of Households": 98208,
      "Main Workers Agricultural Labourers - Persons": 5953
    }
  ],
  "Rural": [
    {
      "Marginal Workers Agricultural Labourers - Persons": 4709,
      "Marginal Workers Other - Females": 3174,
      "Marginal Workers Other worked for 0 - 3 moths during last year - Females": 702,
      "Upper Primary Schools with boys toilet in percentage DISE": "NA",
      "Total Population": 472690,
      "Households with electricity as main source of lighting in percentage Houselisting and Housing Census Data Tables- District Level , Census of India": 93.55527355,
      "Primary Girl's Enrolment in percentage DISE": "NA",
      "Marginal Workers worked for 3 - 6 moths during last year - Males": 20310,
      "Prevalence of Acute illness in percentage DLHS-4": 2.4,
      "Main Workers - Persons": 175818,
      "Main Workers Cultivators - Females": 44345,
      "Marginal Workers Agricultural Labourers worked for 3 - 6 moths during last year - Females": 1662,
      "Marginal Workers Other worked for 0 - 3 moths during last year - Males": 1400,
      "Upper Primary Schools with drinking water facility in percentage DISE": "NA",
      "Primary Schools with girls toilet in percentage DISE": "NA",
      "Marginal Workers worked for 3 - 6 moths during last year - Persons": 56455,
      "Upper Primary Drop Out Rate in percentage DISE": "NA",
      "Prevalence of Anaemia in pregnant women aged 15-49years in percentage DLHS-4": 52.2,
      "Current use of any modern method of family planning in percentage DLHS-4": 67,
      "Marginal Workers Agricultural Labourers - Males": 2483,
      "Upper Primary Female Teachers in percentage DISE": "NA",
      "Marginal Workers - Females": 51152,
      "Marginal Workers Other worked for 3 - 6 moths during last year - Persons": 8193,
      "Main Workers Agricultural Labourers - Females": 1692,
      "Marginal Workers Cultivators worked for 3 - 6 moths during last year - Females": 30879,
      "Households with no lighting  Houselisting and Housing Census Data Tables- District Level , Census of India__5": 157,
      "Prevalence of Severe Anaemia  in percentage DLHS-4": 12.5,
      "Total unmet need for family planning in percentage DLHS-4": 20.7,
      "Main Workers Other - Males": 43447,
      "Children who received full vaccination in percentage DLHS-4": 53.6,
      "Marginal Workers Household Industry - Persons": 2581,
      "Primary Pupil-Teacher Ratio in percentage DISE": "NA",
      "Marginal Workers Agricultural Labourers worked for 3 - 6 moths during last year - Males": 1989,
      "Scheduled Caste Females": 72352,
      "Marginal Workers Cultivators - Males": 22667,
      "Marginal Workers - Males": 33293,
      "Marginal Workers worked for 0 - 3 moths during last year - Females": 15007,
      "Households with main source of drinking water within premises in percentage Houselisting and Housing Census Data Tables- District Level , Census of India": 33.43572471,
      "Marginal Workers Household Industry worked for 3 - 6 moths during last year - Persons": 1868,
      "Upper Primary Girl's Enrolment in percentage DISE": "NA",
      "Prevalence of Severe Anaemia in women aged 15-49years in percentage DLHS-4": 4.7,
      "Marginal Workers Agricultural Labourers worked for 0 - 3 moths during last year - Males": 494,
      "Households with electricity as main source of lighting  Houselisting and Housing Census Data Tables- District Level , Census of India__3": 78883,
      "Households with computer or laptop with internet connection in percentage": 1.1,
      "PHCs functioning on a 24x7hours basis in percentage DLHS-4": "Not applicable",
      "Non Workers - Males": 92497,
      "Total Households in District Houselisting and Housing Census Data Tables- District Level , Census of India": 84317,
      "Upper Primary Schools with girls toilet in percentage DISE": "NA",
      "Households with mobile phone in percentage": 64.26,
      "Households receiving untreated tap water within premises in percentage Houselisting and Housing Census Data Tables- District Level , Census of India__2": 3.128669189,
      "Marginal Workers Cultivators worked for 3 - 6 moths during last year - Males": 11864,
      "Prevalence of Anaemia  in percentage DLHS-4": 62.5,
      "Prevalence of Chronic illness in percentage DLHS-4": 2.3,
      "Households with solar energy as main source of lighting in percentage Houselisting and Housing Census Data Tables- District Level , Census of India__1": 0.089,
      "Marginal Workers Agricultural Labourers worked for 0 - 3 moths during last year - Females": 564,
      "Main Workers - Males": 120385,
      "Female": "NA",
      "Sno": 616,
      "Marginal Workers Other worked for 3 - 6 moths during last year - Females": 2472,
      "Marginal Workers Cultivators worked for 0 - 3 moths during last year - Females": 13314,
      "Scheduled Tribe Males": 5702,
      "Male Illiterates": 65564,
      "Prevalence of Severe Anaemia in pregnant women aged 15-49years in percentage DLHS-4": 0,
      "0-6 Age Group Persons": 63387,
      "Upper Primary Student-Classroom Ratio in percentage DISE": "NA",
      "Currently married men married below 21years of age in percentage DLHS-4": 9.5,
      "Male Literates": 180611,
      "Households with no lighting in percentage Houselisting and Housing Census Data Tables- District Level , Census of India__2": 0.186202071,
      "Primary Drop Out Rate in percentage DISE": "NA",
      "Marginal Workers Household Industry - Males": 1022,
      "Female Illiterates": 90690,
      "Main Workers Other - Females": 8998,
      "Marginal Workers Cultivators - Persons": 66860,
      "Upper Primary Gross Enrolment Ratio in percentage DISE": "NA",
      "Scheduled Caste Persons": 149719,
      "Marginal Workers Cultivators worked for 3 - 6 moths during last year - Persons": 42743,
      "Households with landline phone in percentage": 4.83,
      "Total Households in District  Houselisting and Housing Census Data Tables- District Level , Census of India": 84317,
      "Upper Primary Pupil-Teacher Ratio in percentage DISE": "NA",
      "Primary Student-Classroom Ratio in percentage DISE": "NA",
      "Primary Schools with boys toilet in percentage DISE": "NA",
      "Mean number of children ever born to women aged 40-49years  DLHS-4": 2.76,
      "Households receiving untreated tap water within premises  Houselisting and Housing Census Data Tables- District Level , Census of India__5": 2638,
      "Marginal Workers Household Industry worked for 0 - 3 moths during last year - Persons": 713,
      "Total Male Population": 246175,
      "Non Workers - Females": 119930,
      "Current use of family planning methods in percentage DLHS-4": 67.2,
      "Households with main source of drinking water within premises  Houselisting and Housing Census Data Tables- District Level , Census of India__3": 28192,
      "Main Workers Agricultural Labourers - Males": 4059,
      "Marginal Workers Other worked for 0 - 3 moths during last year - Persons": 2102,
      "Currently married women married below 18years of age in percentage DLHS-4": 0,
      "Person Illiterates": 156254,
      "Main Workers Household Industry - Females": 398,
      "Female Literates": 135825,
      "Marginal Workers Cultivators worked for 0 - 3 moths during last year - Males": 10803,
      "Male": "NA",
      "Households with improved source of drinking water in percentage DLHS-4": 97.9,
      "Upper Primary Schools with electricity in percentage DISE": "NA",
      "Households with electricity in percentage DLHS-4": 99.8,
      "Villages with Primary Health Centre within 10km in percentage DLHS-4": "Not applicable",
      "Births to women aged 15-19years out of Total births in percentage DLHS-4": 1.3,
      "Prevalence of Anaemia in women aged 15-49years in percentage DLHS-4": 49.4,
      "Marginal Workers Agricultural Labourers worked for 3 - 6 moths during last year - Persons": 3651,
      "Main Workers Household Industry - Males": 1550,
      "Scheduled Tribe Females": 5213,
      "Marginal Workers worked for 0 - 3 moths during last year - Males": 12983,
      "Marginal Workers Other worked for 3 - 6 moths during last year - Males": 5721,
      "Primary Net Enrolment Ratio in percentage DISE": "NA",
      "Total": "NA",
      "Mean age at marriage for boys DLHS-4": 24.3,
      "Number of District Hospitals  DLHS-4": "Not applicable",
      "0-6 Age Group Females": 30607,
      "Marginal Workers Agricultural Labourers worked for 0 - 3 moths during last year - Persons": 1058,
      "Marginal Workers Household Industry worked for 0 - 3 moths during last year - Males": 286,
      "Total Workers  Females": 106585,
      "Marginal Workers worked for 3 - 6 moths during last year - Females": 36145,
      "Institutional Deliveries in percentage DLHS-4": 66.7,
      "Marginal Workers Other - Males": 7121,
      "Total Workers  Males": 153678,
      "Main Workers - Females": 55433,
      "Primary Gross Enrolment Ratio in percentage DISE": "NA",
      "Main Workers Cultivators - Persons": 115674,
      "Marginal Workers Household Industry worked for 0 - 3 moths during last year - Females": 427,
      "Upper Primary Net Enrolment Ratio in percentage DISE": "NA",
      "Primary New Government Schools since 2003 in percentage DISE": "NA",
      "Tier": "Rural",
      "Marginal Workers Household Industry - Females": 1559,
      "Primary Schools with electricity in percentage DISE": "NA",
      "Main Workers Other - Persons": 52445,
      "Marginal Workers Household Industry worked for 3 - 6 moths during last year - Females": 1132,
      "Main Workers Cultivators - Males": 71329,
      "Main Workers Household Industry - Persons": 1948,
      "Marginal Workers Cultivators worked for 0 - 3 moths during last year - Persons": 24117,
      "Scheduled Caste Males": 77367,
      "Marginal Workers - Persons": 84445,
      "Deliveries at home conducted by skilled health personnel in percentage DLHS-4": 23.6,
      "Villages with Sub-Health Centres within 3km in percentage DLHS-4": "Not applicable",
      "Upper Primary New Government Schools since 2003 in percentage DISE": "NA",
      "0-6 Age Group Males": 32780,
      "Primary Schools with drinking water facility in percentage DISE": "NA",
      "Non Workers - Persons": 212427,
      "Person Literates": 316436,
      "State": "HIMACHAL PRADESH",
      "Total Female Population": 226515,
      "Marginal Workers worked for 0 - 3 moths during last year - Persons": 27990,
      "Marginal Workers Cultivators - Females": 44193,
      "Marginal Workers Other - Persons": 10295,
      "Sex Ratio": 920,
      "Scheduled Tribe Persons": 10915,
      "Marginal Workers Household Industry worked for 3 - 6 moths during last year - Males": 736,
      "Marginal Workers Agricultural Labourers - Females": 2226,
      "Mean age at marriage for girls DLHS-4": 23.3,
      "Households with solar energy as main source of lighting  Houselisting and Housing Census Data Tables- District Level , Census of India__4": 75,
      "District": "SIRMAUR",
      "Households receiving treated tap water within premises in percentage Houselisting and Housing Census Data Tables- District Level , Census of India__1": 27.29342837,
      "Total Workers  Persons": 260263,
      "Households receiving treated tap water within premises  Houselisting and Housing Census Data Tables- District Level , Census of India__4": 23013,
      "Primary Female Teachers in percentage DISE": "NA",
      "Number of Households": 85087,
      "Main Workers Agricultural Labourers - Persons": 5751
    }
  ],
  "Urban": [
    {
      "Marginal Workers Agricultural Labourers - Persons": 68,
      "Marginal Workers Other - Females": 477,
      "Marginal Workers Other worked for 0 - 3 moths during last year - Females": 41,
      "Upper Primary Schools with boys toilet in percentage DISE": "NA",
      "Total Population": 57165,
      "Households with electricity as main source of lighting in percentage Houselisting and Housing Census Data Tables- District Level , Census of India": 98.84913489,
      "Primary Girl's Enrolment in percentage DISE": "NA",
      "Marginal Workers worked for 3 - 6 moths during last year - Males": 1051,
      "Prevalence of Acute illness in percentage DLHS-4": "Not available",
      "Main Workers - Persons": 18088,
      "Main Workers Cultivators - Females": 64,
      "Marginal Workers Agricultural Labourers worked for 3 - 6 moths during last year - Females": 14,
      "Marginal Workers Other worked for 0 - 3 moths during last year - Males": 91,
      "Upper Primary Schools with drinking water facility in percentage DISE": "NA",
      "Primary Schools with girls toilet in percentage DISE": "NA",
      "Marginal Workers worked for 3 - 6 moths during last year - Persons": 1554,
      "Upper Primary Drop Out Rate in percentage DISE": "NA",
      "Prevalence of Anaemia in pregnant women aged 15-49years in percentage DLHS-4": "Not available",
      "Current use of any modern method of family planning in percentage DLHS-4": "Not available",
      "Marginal Workers Agricultural Labourers - Males": 49,
      "Upper Primary Female Teachers in percentage DISE": "NA",
      "Marginal Workers - Females": 578,
      "Marginal Workers Other worked for 3 - 6 moths during last year - Persons": 1371,
      "Main Workers Agricultural Labourers - Females": 36,
      "Marginal Workers Cultivators worked for 3 - 6 moths during last year - Females": 37,
      "Households with no lighting  Houselisting and Housing Census Data Tables- District Level , Census of India__5": 3,
      "Prevalence of Severe Anaemia  in percentage DLHS-4": "Not available",
      "Total unmet need for family planning in percentage DLHS-4": "Not available",
      "Main Workers Other - Males": 13518,
      "Children who received full vaccination in percentage DLHS-4": "Not available",
      "Marginal Workers Household Industry - Persons": 55,
      "Primary Pupil-Teacher Ratio in percentage DISE": "NA",
      "Marginal Workers Agricultural Labourers worked for 3 - 6 moths during last year - Males": 44,
      "Scheduled Caste Females": 5376,
      "Marginal Workers Cultivators - Males": 48,
      "Marginal Workers - Males": 1154,
      "Marginal Workers worked for 0 - 3 moths during last year - Females": 75,
      "Households with main source of drinking water within premises in percentage Houselisting and Housing Census Data Tables- District Level , Census of India": 89.77530729,
      "Marginal Workers Household Industry worked for 3 - 6 moths during last year - Persons": 46,
      "Upper Primary Girl's Enrolment in percentage DISE": "NA",
      "Prevalence of Severe Anaemia in women aged 15-49years in percentage DLHS-4": "Not available",
      "Marginal Workers Agricultural Labourers worked for 0 - 3 moths during last year - Males": 5,
      "Households with electricity as main source of lighting  Houselisting and Housing Census Data Tables- District Level , Census of India__3": 12626,
      "Households with computer or laptop with internet connection in percentage": 10.09,
      "PHCs functioning on a 24x7hours basis in percentage DLHS-4": 0,
      "Non Workers - Males": 14393,
      "Total Households in District Houselisting and Housing Census Data Tables- District Level , Census of India": 12773,
      "Upper Primary Schools with girls toilet in percentage DISE": "NA",
      "Households with mobile phone in percentage": 64.29,
      "Households receiving untreated tap water within premises in percentage Houselisting and Housing Census Data Tables- District Level , Census of India__2": 0.806388476,
      "Marginal Workers Cultivators worked for 3 - 6 moths during last year - Males": 42,
      "Prevalence of Anaemia  in percentage DLHS-4": "Not available",
      "Prevalence of Chronic illness in percentage DLHS-4": "Not available",
      "Households with solar energy as main source of lighting in percentage Houselisting and Housing Census Data Tables- District Level , Census of India__1": 0.0705,
      "Marginal Workers Agricultural Labourers worked for 0 - 3 moths during last year - Females": 5,
      "Main Workers - Males": 14567,
      "Female": "NA",
      "Sno": 618,
      "Marginal Workers Other worked for 3 - 6 moths during last year - Females": 436,
      "Marginal Workers Cultivators worked for 0 - 3 moths during last year - Females": 21,
      "Scheduled Tribe Males": 210,
      "Male Illiterates": 5108,
      "Prevalence of Severe Anaemia in pregnant women aged 15-49years in percentage DLHS-4": "Not available",
      "0-6 Age Group Persons": 6233,
      "Upper Primary Student-Classroom Ratio in percentage DISE": "NA",
      "Currently married men married below 21years of age in percentage DLHS-4": "Not available",
      "Male Literates": 25006,
      "Households with no lighting in percentage Houselisting and Housing Census Data Tables- District Level , Census of India__2": 0.0235,
      "Primary Drop Out Rate in percentage DISE": "NA",
      "Marginal Workers Household Industry - Males": 31,
      "Female Illiterates": 5848,
      "Main Workers Other - Females": 3321,
      "Marginal Workers Cultivators - Persons": 106,
      "Upper Primary Gross Enrolment Ratio in percentage DISE": "NA",
      "Scheduled Caste Persons": 11026,
      "Marginal Workers Cultivators worked for 3 - 6 moths during last year - Persons": 79,
      "Households with landline phone in percentage": 9.03,
      "Total Households in District  Houselisting and Housing Census Data Tables- District Level , Census of India": 12773,
      "Upper Primary Pupil-Teacher Ratio in percentage DISE": "NA",
      "Primary Student-Classroom Ratio in percentage DISE": "NA",
      "Primary Schools with boys toilet in percentage DISE": "NA",
      "Mean number of children ever born to women aged 40-49years  DLHS-4": "Not available",
      "Households receiving untreated tap water within premises  Houselisting and Housing Census Data Tables- District Level , Census of India__5": 103,
      "Marginal Workers Household Industry worked for 0 - 3 moths during last year - Persons": 9,
      "Total Male Population": 30114,
      "Non Workers - Females": 22952,
      "Current use of family planning methods in percentage DLHS-4": "Not available",
      "Households with main source of drinking water within premises  Houselisting and Housing Census Data Tables- District Level , Census of India__3": 11467,
      "Main Workers Agricultural Labourers - Males": 166,
      "Marginal Workers Other worked for 0 - 3 moths during last year - Persons": 132,
      "Currently married women married below 18years of age in percentage DLHS-4": "Not available",
      "Person Illiterates": 10956,
      "Main Workers Household Industry - Females": 100,
      "Female Literates": 21203,
      "Marginal Workers Cultivators worked for 0 - 3 moths during last year - Males": 6,
      "Male": "NA",
      "Households with improved source of drinking water in percentage DLHS-4": "Not available",
      "Upper Primary Schools with electricity in percentage DISE": "NA",
      "Households with electricity in percentage DLHS-4": "Not available",
      "Villages with Primary Health Centre within 10km in percentage DLHS-4": 0,
      "Births to women aged 15-19years out of Total births in percentage DLHS-4": "Not available",
      "Prevalence of Anaemia in women aged 15-49years in percentage DLHS-4": "Not available",
      "Marginal Workers Agricultural Labourers worked for 3 - 6 moths during last year - Persons": 58,
      "Main Workers Household Industry - Males": 629,
      "Scheduled Tribe Females": 137,
      "Marginal Workers worked for 0 - 3 moths during last year - Males": 103,
      "Marginal Workers Other worked for 3 - 6 moths during last year - Males": 935,
      "Primary Net Enrolment Ratio in percentage DISE": "NA",
      "Total": "NA",
      "Mean age at marriage for boys DLHS-4": "Not available",
      "Number of District Hospitals  DLHS-4": 0,
      "0-6 Age Group Females": 2906,
      "Marginal Workers Agricultural Labourers worked for 0 - 3 moths during last year - Persons": 10,
      "Marginal Workers Household Industry worked for 0 - 3 moths during last year - Males": 1,
      "Total Workers  Females": 4099,
      "Marginal Workers worked for 3 - 6 moths during last year - Females": 503,
      "Institutional Deliveries in percentage DLHS-4": "Not available",
      "Marginal Workers Other - Males": 1026,
      "Total Workers  Males": 15721,
      "Main Workers - Females": 3521,
      "Primary Gross Enrolment Ratio in percentage DISE": "NA",
      "Main Workers Cultivators - Persons": 318,
      "Marginal Workers Household Industry worked for 0 - 3 moths during last year - Females": 8,
      "Upper Primary Net Enrolment Ratio in percentage DISE": "NA",
      "Primary New Government Schools since 2003 in percentage DISE": "NA",
      "Tier": "Urban",
      "Marginal Workers Household Industry - Females": 24,
      "Primary Schools with electricity in percentage DISE": "NA",
      "Main Workers Other - Persons": 16839,
      "Marginal Workers Household Industry worked for 3 - 6 moths during last year - Females": 16,
      "Main Workers Cultivators - Males": 254,
      "Main Workers Household Industry - Persons": 729,
      "Marginal Workers Cultivators worked for 0 - 3 moths during last year - Persons": 27,
      "Scheduled Caste Males": 5650,
      "Marginal Workers - Persons": 1732,
      "Deliveries at home conducted by skilled health personnel in percentage DLHS-4": "Not available",
      "Villages with Sub-Health Centres within 3km in percentage DLHS-4": 0,
      "Upper Primary New Government Schools since 2003 in percentage DISE": "NA",
      "0-6 Age Group Males": 3327,
      "Primary Schools with drinking water facility in percentage DISE": "NA",
      "Non Workers - Persons": 37345,
      "Person Literates": 46209,
      "State": "HIMACHAL PRADESH",
      "Total Female Population": 27051,
      "Marginal Workers worked for 0 - 3 moths during last year - Persons": 178,
      "Marginal Workers Cultivators - Females": 58,
      "Marginal Workers Other - Persons": 1503,
      "Sex Ratio": 898,
      "Scheduled Tribe Persons": 347,
      "Marginal Workers Household Industry worked for 3 - 6 moths during last year - Males": 30,
      "Marginal Workers Agricultural Labourers - Females": 19,
      "Mean age at marriage for girls DLHS-4": "Not available",
      "Households with solar energy as main source of lighting  Houselisting and Housing Census Data Tables- District Level , Census of India__4": 9,
      "District": "SIRMAUR",
      "Households receiving treated tap water within premises in percentage Houselisting and Housing Census Data Tables- District Level , Census of India__1": 86.89423002,
      "Total Workers  Persons": 19820,
      "Households receiving treated tap water within premises  Houselisting and Housing Census Data Tables- District Level , Census of India__4": 11099,
      "Primary Female Teachers in percentage DISE": "NA",
      "Number of Households": 13121,
      "Main Workers Agricultural Labourers - Persons": 202
    }
  ]
}