{
  "Marginal Workers Agricultural Labourers - Persons": "420434",
  "Marginal Workers Agricultural Labourers worked for 3 - 6 moths during last year - Females": "130964",
  "Main Workers - Females": "1186305",
  "Total Population": "27743338",
  "Households with electricity as main source of lighting in percentage Houselisting and Housing Census Data Tables- District Level , Census of India": "1930",
  "Primary Girl's Enrolment in percentage DISE": "47.74",
  "Marginal Workers worked for 3 - 6 moths during last year - Males": "33076.30",
  "Prevalence of Acute illness in percentage DLHS-4": "4.11",
  "Main Workers - Persons": "8450936",
  "Main Workers Cultivators - Females": "112083",
  "Marginal Workers Other worked for 0 - 3 moths during last year - Males": "81639",
  "Marginal Workers Cultivators worked for 3 - 6 moths during last year - Persons": "98849",
  "Currently married women married below 18years of age in percentage DLHS-4": "3.61",
  "Primary Schools with girls toilet in percentage DISE": "97.59",
  "Marginal Workers worked for 3 - 6 moths during last year - Persons": "1150415",
  "Upper Primary Drop Out Rate in percentage DISE": "3.61",
  "Prevalence of Anaemia in pregnant women aged 15-49years in percentage DLHS-4": "56.24",
  "Current use of any modern method of family planning in percentage DLHS-4": "60.00",
  "Marginal Workers Other - Males": "489155",
  "Upper Primary Female Teachers in percentage DISE": "54.70",
  "Marginal Workers - Females": "636900",
  "Marginal Workers Household Industry - Persons": "4265.00",
  "Marginal Workers Cultivators worked for 3 - 6 moths during last year - Females": "48395",
  "Households with no lighting  Houselisting and Housing Census Data Tables- District Level , Census of India__5": "37196",
  "Mean age at marriage for girls DLHS-4": "21.89",
  "Total unmet need for family planning in percentage DLHS-4": "15.32",
  "Marginal Workers Other - Females": "320886",
  "Children who received full vaccination in percentage DLHS-4": "69.56",
  "Households with main source of drinking water within premises  Houselisting and Housing Census Data Tables- District Level , Census of India__3": "4648254",
  "Primary Pupil-Teacher Ratio in percentage DISE": "25.36",
  "Marginal Workers Agricultural Labourers worked for 3 - 6 moths during last year - Males": "178294",
  "Marginal Workers worked for 0 - 3 moths during last year - Persons": "296011",
  "Scheduled Caste Females": "4220304",
  "Marginal Workers Cultivators - Males": "61582",
  "Marginal Workers Agricultural Labourers - Males": "11273.30",
  "Marginal Workers worked for 0 - 3 moths during last year - Females": "7400.55",
  "Households with main source of drinking water within premises in percentage Houselisting and Housing Census Data Tables- District Level , Census of India": "84.40",
  "Marginal Workers worked for 0 - 3 moths during last year - Males": "148000",
  "Female Literates": "8271081",
  "working population": "N/A",
  "Upper Primary Girl's Enrolment in percentage DISE": "46.39",
  "Prevalence of Severe Anaemia in women aged 15-49years in percentage DLHS-4": "3.80",
  "Marginal Workers Agricultural Labourers worked for 0 - 3 moths during last year - Males": "47172",
  "Marginal Workers Household Industry worked for 0 - 3 moths during last year - Males": "8061",
  "Marginal Workers Household Industry - Females": "51977",
  "Current use of family planning methods in percentage DLHS-4": "64.69",
  "Non Workers - Males": "6565308",
  "Total Households in District Houselisting and Housing Census Data Tables- District Level , Census of India": "5409699",
  "Upper Primary Schools with girls toilet in percentage DISE": "98.62",
  "Primary Schools with drinking water facility in percentage DISE": "99.81",
  "Upper Primary Schools with boys toilet in percentage DISE": "96.11",
  "Households receiving untreated tap water within premises in percentage Houselisting and Housing Census Data Tables- District Level , Census of India__2": "148",
  "Marginal Workers Cultivators worked for 3 - 6 moths during last year - Males": "50454",
  "Prevalence of Anaemia  in percentage DLHS-4": "68.55",
  "Prevalence of Chronic illness in percentage DLHS-4": "10.27",
  "Households with solar energy as main source of lighting in percentage Houselisting and Housing Census Data Tables- District Level , Census of India__1": "2",
  "Marginal Workers Agricultural Labourers worked for 0 - 3 moths during last year - Females": "3200.20",
  "Female": "1388",
  "Total Male Population": "14639465",
  "Marginal Workers Cultivators worked for 0 - 3 moths during last year - Females": "20674",
  "Scheduled Tribe Males": "0",
  "Male Illiterates": "4203409",
  "Prevalence of Severe Anaemia in pregnant women aged 15-49years in percentage DLHS-4": "5.69",
  "0-6 Age Group Persons": "3076219",
  "Marginal Workers - Persons": "1446426",
  "Currently married men married below 21years of age in percentage DLHS-4": "11.31",
  "Male Literates": "10436056",
  "Households with improved source of drinking water in percentage DLHS-4": "1970",
  "Primary Drop Out Rate in percentage DISE": "2.99",
  "Marginal Workers Household Industry - Males": "33323",
  "Female Illiterates": "4832792",
  "Main Workers Other - Females": "41774.55",
  "Upper Primary Gross Enrolment Ratio in percentage DISE": "84.46",
  "Scheduled Caste Persons": "443008.95",
  "Upper Primary Schools with electricity in percentage DISE": "2200",
  "Number of Households": "5513071",
  "Marginal Workers - Males": "809526",
  "Total Households in District  Houselisting and Housing Census Data Tables- District Level , Census of India": "5409699",
  "Upper Primary Pupil-Teacher Ratio in percentage DISE": "17.00",
  "Primary Student-Classroom Ratio in percentage DISE": "21.64",
  "Primary Schools with boys toilet in percentage DISE": "95.34",
  "Mean number of children ever born to women aged 40-49years  DLHS-4": "2.78",
  "Households receiving untreated tap water within premises  Houselisting and Housing Census Data Tables- District Level , Census of India__5": "410980",
  "Marginal Workers Household Industry worked for 0 - 3 moths during last year - Persons": "19813",
  "Marginal Workers Household Industry worked for 3 - 6 moths during last year - Persons": "3274.35",
  "sexratio": "N/A",
  "Marginal Workers Cultivators - Persons": "6532.55",
  "Marginal Workers Other worked for 3 - 6 moths during last year - Females": "269305",
  "Main Workers Agricultural Labourers - Males": "1013979",
  "Upper Primary Schools with drinking water facility in percentage DISE": "99.65",
  "Main Workers Agricultural Labourers - Persons": "1168021",
  "Person Illiterates": "9036201",
  "Main Workers Household Industry - Females": "84689",
  "Primary Net Enrolment Ratio in percentage DISE": "78.12",
  "Marginal Workers Cultivators worked for 0 - 3 moths during last year - Males": "11128",
  "Male": "1588",
  "Households with no lighting in percentage Houselisting and Housing Census Data Tables- District Level , Census of India__2": "2520",
  "Main Workers Other - Males": "4342904",
  "Marginal Workers Other worked for 3 - 6 moths during last year - Persons": "33841.05",
  "Households with electricity in percentage DLHS-4": "1981",
  "Villages with Primary Health Centre within 10km in percentage DLHS-4": "76.49",
  "Births to women aged 15-19years out of Total births in percentage DLHS-4": "1.82",
  "Prevalence of Anaemia in women aged 15-49years in percentage DLHS-4": "52.81",
  "Main Workers Household Industry - Males": "10798.55",
  "Scheduled Tribe Females": "0",
  "PHCs functioning on a 24x7hours basis in percentage DLHS-4": "56.38",
  "Marginal Workers Other worked for 3 - 6 moths during last year - Males": "407516",
  "Marginal Workers Other worked for 0 - 3 moths during last year - Females": "51581",
  "Households with computer/laptop with internet connection in percentage": "N/A",
  "enrollment rate of education": "N/A",
  "Mean age at marriage for boys DLHS-4": "24.77",
  "Number of District Hospitals  DLHS-4": "20",
  "0-6 Age Group Females": "70511.25",
  "Total": "1493",
  "Households with electricity as main source of lighting  Houselisting and Housing Census Data Tables- District Level , Census of India__3": "5225793",
  "Total Workers  Females": "1823205",
  "Marginal Workers Agricultural Labourers worked for 0 - 3 moths during last year - Persons": "111176",
  "Marginal Workers worked for 3 - 6 moths during last year - Females": "488889",
  "Institutional Deliveries in percentage DLHS-4": "83.02",
  "Upper Primary Net Enrolment Ratio in percentage DISE": "62.24",
  "Marginal Workers Agricultural Labourers worked for 3 - 6 moths during last year - Persons": "309258",
  "Total Workers  Males": "8074157",
  "Primary Gross Enrolment Ratio in percentage DISE": "95.67",
  "Main Workers Cultivators - Persons": "1803860",
  "Marginal Workers Household Industry worked for 0 - 3 moths during last year - Females": "11752",
  "Households with landline phone in percentage": "125",
  "Primary New Government Schools since 2003 in percentage DISE": "3.41",
  "Tier": "N/A",
  "Households with mobile phone in percentage": "1253",
  "Primary Schools with electricity in percentage DISE": "99.93",
  "Main Workers Other - Persons": "258919.75",
  "Marginal Workers Household Industry worked for 3 - 6 moths during last year - Females": "40225",
  "Households receiving treated tap water within premises in percentage Houselisting and Housing Census Data Tables- District Level , Census of India__1": "710",
  "Main Workers Agricultural Labourers - Females": "154042",
  "Marginal Workers Cultivators worked for 0 - 3 moths during last year - Persons": "31802",
  "Scheduled Caste Males": "4639875",
  "Marginal Workers Other worked for 0 - 3 moths during last year - Persons": "133220",
  "Deliveries at home conducted by skilled health personnel in percentage DLHS-4": "14.00",
  "Villages with Sub-Health Centres within 3km in percentage DLHS-4": "80.11",
  "Upper Primary New Government Schools since 2003 in percentage DISE": "44.82",
  "0-6 Age Group Males": "1665994",
  "Non Workers - Females": "11280668",
  "Non Workers - Persons": "17845976",
  "Person Literates": "18707137",
  "enrolment rate": "N/A",
  "State": "N/A",
  "Main Workers - Males": "7264631",
  "Total Female Population": "13103873",
  "Marginal Workers Cultivators - Females": "3453.45",
  "Marginal Workers Other - Persons": "40502.05",
  "Sex Ratio": "896.95",
  "Scheduled Tribe Persons": "0",
  "Marginal Workers Household Industry worked for 3 - 6 moths during last year - Males": "1263.10",
  "Marginal Workers Agricultural Labourers - Females": "194968",
  "Prevalence of Severe Anaemia  in percentage DLHS-4": "12.31",
  "Upper Primary Student-Classroom Ratio in percentage DISE": "22.05",
  "Main Workers Household Industry - Persons": "15033.00",
  "Households with solar energy as main source of lighting  Houselisting and Housing Census Data Tables- District Level , Census of India__4": "5754",
  "District": "N/A",
  "Main Workers Cultivators - Males": "1691777",
  "Total Workers  Persons": "9897362",
  "Households receiving treated tap water within premises  Houselisting and Housing Census Data Tables- District Level , Census of India__4": "1983520",
  "Primary Female Teachers in percentage DISE": "67.23"
}