{
  "Total": [
    {
      "Marginal Workers Agricultural Labourers - Persons": 74344,
      "Marginal Workers Other - Females": 17316,
      "Marginal Workers Other worked for 0 - 3 moths during last year - Females": 4739,
      "Upper Primary Schools with boys toilet in percentage DISE": 100,
      "Total Population": 2029074,
      "Households with electricity as main source of lighting in percentage Houselisting and Housing Census Data Tables- District Level , Census of India": 93.45078534,
      "Primary Girl's Enrolment in percentage DISE": 47.5,
      "Marginal Workers worked for 3 - 6 moths during last year - Males": 41415,
      "Prevalence of Acute illness in percentage DLHS-4": 3.5,
      "Main Workers - Persons": 618362,
      "Main Workers Cultivators - Females": 10852,
      "Marginal Workers Agricultural Labourers worked for 3 - 6 moths during last year - Females": 27442,
      "Marginal Workers Other worked for 0 - 3 moths during last year - Males": 4654,
      "Upper Primary Schools with drinking water facility in percentage DISE": 100,
      "Primary Schools with girls toilet in percentage DISE": 99.7,
      "Marginal Workers worked for 3 - 6 moths during last year - Persons": 91341,
      "Upper Primary Drop Out Rate in percentage DISE": 3.49,
      "Prevalence of Anaemia in pregnant women aged 15-49years in percentage DLHS-4": 64.4,
      "Current use of any modern method of family planning in percentage DLHS-4": 53.7,
      "Marginal Workers Agricultural Labourers - Males": 25563,
      "Upper Primary Female Teachers in percentage DISE": 58.9,
      "Marginal Workers - Females": 83421,
      "Marginal Workers Other worked for 3 - 6 moths during last year - Persons": 30407,
      "Main Workers Agricultural Labourers - Females": 22526,
      "Marginal Workers Cultivators worked for 3 - 6 moths during last year - Females": 8189,
      "Households with no lighting  Houselisting and Housing Census Data Tables- District Level , Census of India__5": 5052,
      "Prevalence of Severe Anaemia  in percentage DLHS-4": 14.1,
      "Total unmet need for family planning in percentage DLHS-4": 22.7,
      "Main Workers Other - Males": 242223,
      "Children who received full vaccination in percentage DLHS-4": 61.1,
      "Marginal Workers Household Industry - Persons": 3497,
      "Primary Pupil-Teacher Ratio in percentage DISE": 29,
      "Marginal Workers Agricultural Labourers worked for 3 - 6 moths during last year - Males": 18948,
      "Scheduled Caste Females": 410265,
      "Marginal Workers Cultivators - Males": 5719,
      "Marginal Workers - Males": 54912,
      "Marginal Workers worked for 0 - 3 moths during last year - Females": 33495,
      "Households with main source of drinking water within premises in percentage Houselisting and Housing Census Data Tables- District Level , Census of India": 76.63930812,
      "Marginal Workers Household Industry worked for 3 - 6 moths during last year - Persons": 2576,
      "Upper Primary Girl's Enrolment in percentage DISE": 46.6,
      "Prevalence of Severe Anaemia in women aged 15-49years in percentage DLHS-4": 3.8,
      "Marginal Workers Agricultural Labourers worked for 0 - 3 moths during last year - Males": 6615,
      "Households with electricity as main source of lighting  Houselisting and Housing Census Data Tables- District Level , Census of India__3": 349662,
      "Households with computer or laptop with internet connection in percentage": 2.68,
      "PHCs functioning on a 24x7hours basis in percentage DLHS-4": 50,
      "Non Workers - Males": 475231,
      "Total Households in District Houselisting and Housing Census Data Tables- District Level , Census of India": 374167,
      "Upper Primary Schools with girls toilet in percentage DISE": 100,
      "Households with mobile phone in percentage": 64.54,
      "Households receiving untreated tap water within premises in percentage Houselisting and Housing Census Data Tables- District Level , Census of India__2": 9.50030334,
      "Marginal Workers Cultivators worked for 3 - 6 moths during last year - Males": 3779,
      "Prevalence of Anaemia  in percentage DLHS-4": 79.9,
      "Prevalence of Chronic illness in percentage DLHS-4": 7.3,
      "Households with solar energy as main source of lighting in percentage Houselisting and Housing Census Data Tables- District Level , Census of India__1": 0.167037713,
      "Marginal Workers Agricultural Labourers worked for 0 - 3 moths during last year - Females": 21339,
      "Main Workers - Males": 541494,
      "Female": 61.69,
      "Sno": 1394,
      "Marginal Workers Other worked for 3 - 6 moths during last year - Females": 12577,
      "Marginal Workers Cultivators worked for 0 - 3 moths during last year - Females": 6784,
      "Scheduled Tribe Males": 0,
      "Male Illiterates": 364567,
      "Prevalence of Severe Anaemia in pregnant women aged 15-49years in percentage DLHS-4": 8.5,
      "0-6 Age Group Persons": 248103,
      "Upper Primary Student-Classroom Ratio in percentage DISE": 24,
      "Currently married men married below 21years of age in percentage DLHS-4": 21,
      "Male Literates": 707070,
      "Households with no lighting in percentage Houselisting and Housing Census Data Tables- District Level , Census of India__2": 1.350199243,
      "Primary Drop Out Rate in percentage DISE": 2.7,
      "Marginal Workers Household Industry - Males": 1146,
      "Female Illiterates": 436996,
      "Main Workers Other - Females": 40337,
      "Marginal Workers Cultivators - Persons": 20692,
      "Upper Primary Gross Enrolment Ratio in percentage DISE": 43.5,
      "Scheduled Caste Persons": 855726,
      "Marginal Workers Cultivators worked for 3 - 6 moths during last year - Persons": 11968,
      "Households with landline phone in percentage": 3.78,
      "Total Households in District  Houselisting and Housing Census Data Tables- District Level , Census of India": 374167,
      "Upper Primary Pupil-Teacher Ratio in percentage DISE": 21,
      "Primary Student-Classroom Ratio in percentage DISE": 21,
      "Primary Schools with boys toilet in percentage DISE": 99.4,
      "Mean number of children ever born to women aged 40-49years  DLHS-4": 3.1,
      "Households receiving untreated tap water within premises  Houselisting and Housing Census Data Tables- District Level , Census of India__5": 35547,
      "Marginal Workers Household Industry worked for 0 - 3 moths during last year - Persons": 921,
      "Total Male Population": 1071637,
      "Non Workers - Females": 797148,
      "Current use of family planning methods in percentage DLHS-4": 57.8,
      "Households with main source of drinking water within premises  Houselisting and Housing Census Data Tables- District Level , Census of India__3": 286759,
      "Main Workers Agricultural Labourers - Males": 131101,
      "Marginal Workers Other worked for 0 - 3 moths during last year - Persons": 9393,
      "Currently married women married below 18years of age in percentage DLHS-4": 6,
      "Person Illiterates": 801563,
      "Main Workers Household Industry - Females": 3153,
      "Female Literates": 520441,
      "Marginal Workers Cultivators worked for 0 - 3 moths during last year - Males": 1940,
      "Male": 75.44,
      "Households with improved source of drinking water in percentage DLHS-4": 97.7,
      "Upper Primary Schools with electricity in percentage DISE": 100,
      "Households with electricity in percentage DLHS-4": 97.6,
      "Villages with Primary Health Centre within 10km in percentage DLHS-4": 75,
      "Births to women aged 15-19years out of Total births in percentage DLHS-4": 5.1,
      "Prevalence of Anaemia in women aged 15-49years in percentage DLHS-4": 57.2,
      "Marginal Workers Agricultural Labourers worked for 3 - 6 moths during last year - Persons": 46390,
      "Main Workers Household Industry - Males": 8029,
      "Scheduled Tribe Females": 0,
      "Marginal Workers worked for 0 - 3 moths during last year - Males": 13497,
      "Marginal Workers Other worked for 3 - 6 moths during last year - Males": 17830,
      "Primary Net Enrolment Ratio in percentage DISE": 39.4,
      "Total": 68.92,
      "Mean age at marriage for boys DLHS-4": 22.6,
      "Number of District Hospitals  DLHS-4": 1,
      "0-6 Age Group Females": 113784,
      "Marginal Workers Agricultural Labourers worked for 0 - 3 moths during last year - Persons": 27954,
      "Marginal Workers Household Industry worked for 0 - 3 moths during last year - Males": 288,
      "Total Workers  Females": 160289,
      "Marginal Workers worked for 3 - 6 moths during last year - Females": 49926,
      "Institutional Deliveries in percentage DLHS-4": 74.2,
      "Marginal Workers Other - Males": 22484,
      "Total Workers  Males": 596406,
      "Main Workers - Females": 76868,
      "Primary Gross Enrolment Ratio in percentage DISE": 50.2,
      "Main Workers Cultivators - Persons": 170993,
      "Marginal Workers Household Industry worked for 0 - 3 moths during last year - Females": 633,
      "Upper Primary Net Enrolment Ratio in percentage DISE": 31.3,
      "Primary New Government Schools since 2003 in percentage DISE": 3.1,
      "Tier": "Total",
      "Marginal Workers Household Industry - Females": 2351,
      "Primary Schools with electricity in percentage DISE": 100,
      "Main Workers Other - Persons": 282560,
      "Marginal Workers Household Industry worked for 3 - 6 moths during last year - Females": 1718,
      "Main Workers Cultivators - Males": 160141,
      "Main Workers Household Industry - Persons": 11182,
      "Marginal Workers Cultivators worked for 0 - 3 moths during last year - Persons": 8724,
      "Scheduled Caste Males": 445461,
      "Marginal Workers - Persons": 138333,
      "Deliveries at home conducted by skilled health personnel in percentage DLHS-4": 20.8,
      "Villages with Sub-Health Centres within 3km in percentage DLHS-4": 79.6,
      "Upper Primary New Government Schools since 2003 in percentage DISE": 495.9,
      "0-6 Age Group Males": 134319,
      "Primary Schools with drinking water facility in percentage DISE": 99.9,
      "Non Workers - Persons": 1272379,
      "Person Literates": 1227511,
      "State": "PUNJAB",
      "Total Female Population": 957437,
      "Marginal Workers worked for 0 - 3 moths during last year - Persons": 46992,
      "Marginal Workers Cultivators - Females": 14973,
      "Marginal Workers Other - Persons": 39800,
      "Sex Ratio": 893,
      "Scheduled Tribe Persons": 0,
      "Marginal Workers Household Industry worked for 3 - 6 moths during last year - Males": 858,
      "Marginal Workers Agricultural Labourers - Females": 48781,
      "Mean age at marriage for girls DLHS-4": 20.7,
      "Households with solar energy as main source of lighting  Houselisting and Housing Census Data Tables- District Level , Census of India__4": 625,
      "District": "FIROZPUR",
      "Households receiving treated tap water within premises in percentage Houselisting and Housing Census Data Tables- District Level , Census of India__1": 25.74331782,
      "Total Workers  Persons": 756695,
      "Households receiving treated tap water within premises  Houselisting and Housing Census Data Tables- District Level , Census of India__4": 96323,
      "Primary Female Teachers in percentage DISE": 58.3,
      "Number of Households": 385994,
      "Main Workers Agricultural Labourers - Persons": 153627
    }
  ],
  "Rural": [
    {
      "Marginal Workers Agricultural Labourers - Persons": 72651,
      "Marginal Workers Other - Females": 13214,
      "Marginal Workers Other worked for 0 - 3 moths during last year - Females": 3831,
      "Upper Primary Schools with boys toilet in percentage DISE": "NA",
      "Total Population": 1476518,
      "Households with electricity as main source of lighting in percentage Houselisting and Housing Census Data Tables- District Level , Census of India": 91.93366625,
      "Primary Girl's Enrolment in percentage DISE": "NA",
      "Marginal Workers worked for 3 - 6 moths during last year - Males": 33208,
      "Prevalence of Acute illness in percentage DLHS-4": 3.8,
      "Main Workers - Persons": 443096,
      "Main Workers Cultivators - Females": 10535,
      "Marginal Workers Agricultural Labourers worked for 3 - 6 moths during last year - Females": 27024,
      "Marginal Workers Other worked for 0 - 3 moths during last year - Males": 2992,
      "Upper Primary Schools with drinking water facility in percentage DISE": "NA",
      "Primary Schools with girls toilet in percentage DISE": "NA",
      "Marginal Workers worked for 3 - 6 moths during last year - Persons": 79086,
      "Upper Primary Drop Out Rate in percentage DISE": "NA",
      "Prevalence of Anaemia in pregnant women aged 15-49years in percentage DLHS-4": 67.3,
      "Current use of any modern method of family planning in percentage DLHS-4": 54.5,
      "Marginal Workers Agricultural Labourers - Males": 24610,
      "Upper Primary Female Teachers in percentage DISE": "NA",
      "Marginal Workers - Females": 78022,
      "Marginal Workers Other worked for 3 - 6 moths during last year - Persons": 20169,
      "Main Workers Agricultural Labourers - Females": 21889,
      "Marginal Workers Cultivators worked for 3 - 6 moths during last year - Females": 8084,
      "Households with no lighting  Houselisting and Housing Census Data Tables- District Level , Census of India__5": 4466,
      "Prevalence of Severe Anaemia  in percentage DLHS-4": 13.9,
      "Total unmet need for family planning in percentage DLHS-4": 24,
      "Main Workers Other - Males": 104768,
      "Children who received full vaccination in percentage DLHS-4": 58.7,
      "Marginal Workers Household Industry - Persons": 2719,
      "Primary Pupil-Teacher Ratio in percentage DISE": "NA",
      "Marginal Workers Agricultural Labourers worked for 3 - 6 moths during last year - Males": 18217,
      "Scheduled Caste Females": 340886,
      "Marginal Workers Cultivators - Males": 5540,
      "Marginal Workers - Males": 44733,
      "Marginal Workers worked for 0 - 3 moths during last year - Females": 32144,
      "Households with main source of drinking water within premises in percentage Houselisting and Housing Census Data Tables- District Level , Census of India": 71.77943256,
      "Marginal Workers Household Industry worked for 3 - 6 moths during last year - Persons": 1968,
      "Upper Primary Girl's Enrolment in percentage DISE": "NA",
      "Prevalence of Severe Anaemia in women aged 15-49years in percentage DLHS-4": 4.3,
      "Marginal Workers Agricultural Labourers worked for 0 - 3 moths during last year - Males": 6393,
      "Households with electricity as main source of lighting  Houselisting and Housing Census Data Tables- District Level , Census of India__3": 249633,
      "Households with computer or laptop with internet connection in percentage": 1.35,
      "PHCs functioning on a 24x7hours basis in percentage DLHS-4": "Not applicable",
      "Non Workers - Males": 342253,
      "Total Households in District Houselisting and Housing Census Data Tables- District Level , Census of India": 271536,
      "Upper Primary Schools with girls toilet in percentage DISE": "NA",
      "Households with mobile phone in percentage": 65,
      "Households receiving untreated tap water within premises in percentage Houselisting and Housing Census Data Tables- District Level , Census of India__2": 7.252813623,
      "Marginal Workers Cultivators worked for 3 - 6 moths during last year - Males": 3624,
      "Prevalence of Anaemia  in percentage DLHS-4": 82,
      "Prevalence of Chronic illness in percentage DLHS-4": 7.1,
      "Households with solar energy as main source of lighting in percentage Houselisting and Housing Census Data Tables- District Level , Census of India__1": 0.206970715,
      "Marginal Workers Agricultural Labourers worked for 0 - 3 moths during last year - Females": 21017,
      "Main Workers - Males": 389222,
      "Female": "NA",
      "Sno": 1393,
      "Marginal Workers Other worked for 3 - 6 moths during last year - Females": 9383,
      "Marginal Workers Cultivators worked for 0 - 3 moths during last year - Females": 6769,
      "Scheduled Tribe Males": 0,
      "Male Illiterates": 286746,
      "Prevalence of Severe Anaemia in pregnant women aged 15-49years in percentage DLHS-4": 9.7,
      "0-6 Age Group Persons": 185699,
      "Upper Primary Student-Classroom Ratio in percentage DISE": "NA",
      "Currently married men married below 21years of age in percentage DLHS-4": 25.1,
      "Male Literates": 489462,
      "Households with no lighting in percentage Houselisting and Housing Census Data Tables- District Level , Census of India__2": 1.644717459,
      "Primary Drop Out Rate in percentage DISE": "NA",
      "Marginal Workers Household Industry - Males": 805,
      "Female Illiterates": 348952,
      "Main Workers Other - Females": 19095,
      "Marginal Workers Cultivators - Persons": 20393,
      "Upper Primary Gross Enrolment Ratio in percentage DISE": "NA",
      "Scheduled Caste Persons": 709922,
      "Marginal Workers Cultivators worked for 3 - 6 moths during last year - Persons": 11708,
      "Households with landline phone in percentage": 3.57,
      "Total Households in District  Houselisting and Housing Census Data Tables- District Level , Census of India": 271536,
      "Upper Primary Pupil-Teacher Ratio in percentage DISE": "NA",
      "Primary Student-Classroom Ratio in percentage DISE": "NA",
      "Primary Schools with boys toilet in percentage DISE": "NA",
      "Mean number of children ever born to women aged 40-49years  DLHS-4": 3.3,
      "Households receiving untreated tap water within premises  Houselisting and Housing Census Data Tables- District Level , Census of India__5": 19694,
      "Marginal Workers Household Industry worked for 0 - 3 moths during last year - Persons": 751,
      "Total Male Population": 776208,
      "Non Workers - Females": 568414,
      "Current use of family planning methods in percentage DLHS-4": 57.6,
      "Households with main source of drinking water within premises  Houselisting and Housing Census Data Tables- District Level , Census of India__3": 194907,
      "Main Workers Agricultural Labourers - Males": 125938,
      "Marginal Workers Other worked for 0 - 3 moths during last year - Persons": 6823,
      "Currently married women married below 18years of age in percentage DLHS-4": 7.9,
      "Person Illiterates": 635698,
      "Main Workers Household Industry - Females": 2355,
      "Female Literates": 351358,
      "Marginal Workers Cultivators worked for 0 - 3 moths during last year - Males": 1916,
      "Male": "NA",
      "Households with improved source of drinking water in percentage DLHS-4": 96.6,
      "Upper Primary Schools with electricity in percentage DISE": "NA",
      "Households with electricity in percentage DLHS-4": 96.6,
      "Villages with Primary Health Centre within 10km in percentage DLHS-4": "Not applicable",
      "Births to women aged 15-19years out of Total births in percentage DLHS-4": 4.9,
      "Prevalence of Anaemia in women aged 15-49years in percentage DLHS-4": 58,
      "Marginal Workers Agricultural Labourers worked for 3 - 6 moths during last year - Persons": 45241,
      "Main Workers Household Industry - Males": 5057,
      "Scheduled Tribe Females": 0,
      "Marginal Workers worked for 0 - 3 moths during last year - Males": 11525,
      "Marginal Workers Other worked for 3 - 6 moths during last year - Males": 10786,
      "Primary Net Enrolment Ratio in percentage DISE": "NA",
      "Total": "NA",
      "Mean age at marriage for boys DLHS-4": 21.8,
      "Number of District Hospitals  DLHS-4": "Not applicable",
      "0-6 Age Group Females": 85194,
      "Marginal Workers Agricultural Labourers worked for 0 - 3 moths during last year - Persons": 27410,
      "Marginal Workers Household Industry worked for 0 - 3 moths during last year - Males": 224,
      "Total Workers  Females": 131896,
      "Marginal Workers worked for 3 - 6 moths during last year - Females": 45878,
      "Institutional Deliveries in percentage DLHS-4": 71.1,
      "Marginal Workers Other - Males": 13778,
      "Total Workers  Males": 433955,
      "Main Workers - Females": 53874,
      "Primary Gross Enrolment Ratio in percentage DISE": "NA",
      "Main Workers Cultivators - Persons": 163994,
      "Marginal Workers Household Industry worked for 0 - 3 moths during last year - Females": 527,
      "Upper Primary Net Enrolment Ratio in percentage DISE": "NA",
      "Primary New Government Schools since 2003 in percentage DISE": "NA",
      "Tier": "Rural",
      "Marginal Workers Household Industry - Females": 1914,
      "Primary Schools with electricity in percentage DISE": "NA",
      "Main Workers Other - Persons": 123863,
      "Marginal Workers Household Industry worked for 3 - 6 moths during last year - Females": 1387,
      "Main Workers Cultivators - Males": 153459,
      "Main Workers Household Industry - Persons": 7412,
      "Marginal Workers Cultivators worked for 0 - 3 moths during last year - Persons": 8685,
      "Scheduled Caste Males": 369036,
      "Marginal Workers - Persons": 122755,
      "Deliveries at home conducted by skilled health personnel in percentage DLHS-4": 23.8,
      "Villages with Sub-Health Centres within 3km in percentage DLHS-4": "Not applicable",
      "Upper Primary New Government Schools since 2003 in percentage DISE": "NA",
      "0-6 Age Group Males": 100505,
      "Primary Schools with drinking water facility in percentage DISE": "NA",
      "Non Workers - Persons": 910667,
      "Person Literates": 840820,
      "State": "PUNJAB",
      "Total Female Population": 700310,
      "Marginal Workers worked for 0 - 3 moths during last year - Persons": 43669,
      "Marginal Workers Cultivators - Females": 14853,
      "Marginal Workers Other - Persons": 26992,
      "Sex Ratio": 902,
      "Scheduled Tribe Persons": 0,
      "Marginal Workers Household Industry worked for 3 - 6 moths during last year - Males": 581,
      "Marginal Workers Agricultural Labourers - Females": 48041,
      "Mean age at marriage for girls DLHS-4": 19.9,
      "Households with solar energy as main source of lighting  Houselisting and Housing Census Data Tables- District Level , Census of India__4": 562,
      "District": "FIROZPUR",
      "Households receiving treated tap water within premises in percentage Houselisting and Housing Census Data Tables- District Level , Census of India__1": 14.96560309,
      "Total Workers  Persons": 565851,
      "Households receiving treated tap water within premises  Houselisting and Housing Census Data Tables- District Level , Census of India__4": 40637,
      "Primary Female Teachers in percentage DISE": "NA",
      "Number of Households": 276967,
      "Main Workers Agricultural Labourers - Persons": 147827
    }
  ],
  "Urban": [
    {
      "Marginal Workers Agricultural Labourers - Persons": 1693,
      "Marginal Workers Other - Females": 4102,
      "Marginal Workers Other worked for 0 - 3 moths during last year - Females": 908,
      "Upper Primary Schools with boys toilet in percentage DISE": "NA",
      "Total Population": 552556,
      "Households with electricity as main source of lighting in percentage Houselisting and Housing Census Data Tables- District Level , Census of India": 97.46470365,
      "Primary Girl's Enrolment in percentage DISE": "NA",
      "Marginal Workers worked for 3 - 6 moths during last year - Males": 8207,
      "Prevalence of Acute illness in percentage DLHS-4": "Not available",
      "Main Workers - Persons": 175266,
      "Main Workers Cultivators - Females": 317,
      "Marginal Workers Agricultural Labourers worked for 3 - 6 moths during last year - Females": 418,
      "Marginal Workers Other worked for 0 - 3 moths during last year - Males": 1662,
      "Upper Primary Schools with drinking water facility in percentage DISE": "NA",
      "Primary Schools with girls toilet in percentage DISE": "NA",
      "Marginal Workers worked for 3 - 6 moths during last year - Persons": 12255,
      "Upper Primary Drop Out Rate in percentage DISE": "NA",
      "Prevalence of Anaemia in pregnant women aged 15-49years in percentage DLHS-4": "Not available",
      "Current use of any modern method of family planning in percentage DLHS-4": "Not available",
      "Marginal Workers Agricultural Labourers - Males": 953,
      "Upper Primary Female Teachers in percentage DISE": "NA",
      "Marginal Workers - Females": 5399,
      "Marginal Workers Other worked for 3 - 6 moths during last year - Persons": 10238,
      "Main Workers Agricultural Labourers - Females": 637,
      "Marginal Workers Cultivators worked for 3 - 6 moths during last year - Females": 105,
      "Households with no lighting  Houselisting and Housing Census Data Tables- District Level , Census of India__5": 586,
      "Prevalence of Severe Anaemia  in percentage DLHS-4": "Not available",
      "Total unmet need for family planning in percentage DLHS-4": "Not available",
      "Main Workers Other - Males": 137455,
      "Children who received full vaccination in percentage DLHS-4": "Not available",
      "Marginal Workers Household Industry - Persons": 778,
      "Primary Pupil-Teacher Ratio in percentage DISE": "NA",
      "Marginal Workers Agricultural Labourers worked for 3 - 6 moths during last year - Males": 731,
      "Scheduled Caste Females": 69379,
      "Marginal Workers Cultivators - Males": 179,
      "Marginal Workers - Males": 10179,
      "Marginal Workers worked for 0 - 3 moths during last year - Females": 1351,
      "Households with main source of drinking water within premises in percentage Houselisting and Housing Census Data Tables- District Level , Census of India": 89.49732537,
      "Marginal Workers Household Industry worked for 3 - 6 moths during last year - Persons": 608,
      "Upper Primary Girl's Enrolment in percentage DISE": "NA",
      "Prevalence of Severe Anaemia in women aged 15-49years in percentage DLHS-4": "Not available",
      "Marginal Workers Agricultural Labourers worked for 0 - 3 moths during last year - Males": 222,
      "Households with electricity as main source of lighting  Houselisting and Housing Census Data Tables- District Level , Census of India__3": 100029,
      "Households with computer or laptop with internet connection in percentage": 6.22,
      "PHCs functioning on a 24x7hours basis in percentage DLHS-4": 0,
      "Non Workers - Males": 132978,
      "Total Households in District Houselisting and Housing Census Data Tables- District Level , Census of India": 102631,
      "Upper Primary Schools with girls toilet in percentage DISE": "NA",
      "Households with mobile phone in percentage": 63.3,
      "Households receiving untreated tap water within premises in percentage Houselisting and Housing Census Data Tables- District Level , Census of India__2": 15.44659996,
      "Marginal Workers Cultivators worked for 3 - 6 moths during last year - Males": 155,
      "Prevalence of Anaemia  in percentage DLHS-4": "Not available",
      "Prevalence of Chronic illness in percentage DLHS-4": "Not available",
      "Households with solar energy as main source of lighting in percentage Houselisting and Housing Census Data Tables- District Level , Census of India__1": 0.0614,
      "Marginal Workers Agricultural Labourers worked for 0 - 3 moths during last year - Females": 322,
      "Main Workers - Males": 152272,
      "Female": "NA",
      "Sno": 1395,
      "Marginal Workers Other worked for 3 - 6 moths during last year - Females": 3194,
      "Marginal Workers Cultivators worked for 0 - 3 moths during last year - Females": 15,
      "Scheduled Tribe Males": 0,
      "Male Illiterates": 77821,
      "Prevalence of Severe Anaemia in pregnant women aged 15-49years in percentage DLHS-4": "Not available",
      "0-6 Age Group Persons": 62404,
      "Upper Primary Student-Classroom Ratio in percentage DISE": "NA",
      "Currently married men married below 21years of age in percentage DLHS-4": "Not available",
      "Male Literates": 217608,
      "Households with no lighting in percentage Houselisting and Housing Census Data Tables- District Level , Census of India__2": 0.57097758,
      "Primary Drop Out Rate in percentage DISE": "NA",
      "Marginal Workers Household Industry - Males": 341,
      "Female Illiterates": 88044,
      "Main Workers Other - Females": 21242,
      "Marginal Workers Cultivators - Persons": 299,
      "Upper Primary Gross Enrolment Ratio in percentage DISE": "NA",
      "Scheduled Caste Persons": 145804,
      "Marginal Workers Cultivators worked for 3 - 6 moths during last year - Persons": 260,
      "Households with landline phone in percentage": 4.34,
      "Total Households in District  Houselisting and Housing Census Data Tables- District Level , Census of India": 102631,
      "Upper Primary Pupil-Teacher Ratio in percentage DISE": "NA",
      "Primary Student-Classroom Ratio in percentage DISE": "NA",
      "Primary Schools with boys toilet in percentage DISE": "NA",
      "Mean number of children ever born to women aged 40-49years  DLHS-4": "Not available",
      "Households receiving untreated tap water within premises  Houselisting and Housing Census Data Tables- District Level , Census of India__5": 15853,
      "Marginal Workers Household Industry worked for 0 - 3 moths during last year - Persons": 170,
      "Total Male Population": 295429,
      "Non Workers - Females": 228734,
      "Current use of family planning methods in percentage DLHS-4": "Not available",
      "Households with main source of drinking water within premises  Houselisting and Housing Census Data Tables- District Level , Census of India__3": 91852,
      "Main Workers Agricultural Labourers - Males": 5163,
      "Marginal Workers Other worked for 0 - 3 moths during last year - Persons": 2570,
      "Currently married women married below 18years of age in percentage DLHS-4": "Not available",
      "Person Illiterates": 165865,
      "Main Workers Household Industry - Females": 798,
      "Female Literates": 169083,
      "Marginal Workers Cultivators worked for 0 - 3 moths during last year - Males": 24,
      "Male": "NA",
      "Households with improved source of drinking water in percentage DLHS-4": "Not available",
      "Upper Primary Schools with electricity in percentage DISE": "NA",
      "Households with electricity in percentage DLHS-4": "Not available",
      "Villages with Primary Health Centre within 10km in percentage DLHS-4": 0,
      "Births to women aged 15-19years out of Total births in percentage DLHS-4": "Not available",
      "Prevalence of Anaemia in women aged 15-49years in percentage DLHS-4": "Not available",
      "Marginal Workers Agricultural Labourers worked for 3 - 6 moths during last year - Persons": 1149,
      "Main Workers Household Industry - Males": 2972,
      "Scheduled Tribe Females": 0,
      "Marginal Workers worked for 0 - 3 moths during last year - Males": 1972,
      "Marginal Workers Other worked for 3 - 6 moths during last year - Males": 7044,
      "Primary Net Enrolment Ratio in percentage DISE": "NA",
      "Total": "NA",
      "Mean age at marriage for boys DLHS-4": "Not available",
      "Number of District Hospitals  DLHS-4": 0,
      "0-6 Age Group Females": 28590,
      "Marginal Workers Agricultural Labourers worked for 0 - 3 moths during last year - Persons": 544,
      "Marginal Workers Household Industry worked for 0 - 3 moths during last year - Males": 64,
      "Total Workers  Females": 28393,
      "Marginal Workers worked for 3 - 6 moths during last year - Females": 4048,
      "Institutional Deliveries in percentage DLHS-4": "Not available",
      "Marginal Workers Other - Males": 8706,
      "Total Workers  Males": 162451,
      "Main Workers - Females": 22994,
      "Primary Gross Enrolment Ratio in percentage DISE": "NA",
      "Main Workers Cultivators - Persons": 6999,
      "Marginal Workers Household Industry worked for 0 - 3 moths during last year - Females": 106,
      "Upper Primary Net Enrolment Ratio in percentage DISE": "NA",
      "Primary New Government Schools since 2003 in percentage DISE": "NA",
      "Tier": "Urban",
      "Marginal Workers Household Industry - Females": 437,
      "Primary Schools with electricity in percentage DISE": "NA",
      "Main Workers Other - Persons": 158697,
      "Marginal Workers Household Industry worked for 3 - 6 moths during last year - Females": 331,
      "Main Workers Cultivators - Males": 6682,
      "Main Workers Household Industry - Persons": 3770,
      "Marginal Workers Cultivators worked for 0 - 3 moths during last year - Persons": 39,
      "Scheduled Caste Males": 76425,
      "Marginal Workers - Persons": 15578,
      "Deliveries at home conducted by skilled health personnel in percentage DLHS-4": "Not available",
      "Villages with Sub-Health Centres within 3km in percentage DLHS-4": 0,
      "Upper Primary New Government Schools since 2003 in percentage DISE": "NA",
      "0-6 Age Group Males": 33814,
      "Primary Schools with drinking water facility in percentage DISE": "NA",
      "Non Workers - Persons": 361712,
      "Person Literates": 386691,
      "State": "PUNJAB",
      "Total Female Population": 257127,
      "Marginal Workers worked for 0 - 3 moths during last year - Persons": 3323,
      "Marginal Workers Cultivators - Females": 120,
      "Marginal Workers Other - Persons": 12808,
      "Sex Ratio": 870,
      "Scheduled Tribe Persons": 0,
      "Marginal Workers Household Industry worked for 3 - 6 moths during last year - Males": 277,
      "Marginal Workers Agricultural Labourers - Females": 740,
      "Mean age at marriage for girls DLHS-4": "Not available",
      "Households with solar energy as main source of lighting  Houselisting and Housing Census Data Tables- District Level , Census of India__4": 63,
      "District": "FIROZPUR",
      "Households receiving treated tap water within premises in percentage Houselisting and Housing Census Data Tables- District Level , Census of India__1": 54.25845992,
      "Total Workers  Persons": 190844,
      "Households receiving treated tap water within premises  Houselisting and Housing Census Data Tables- District Level , Census of India__4": 55686,
      "Primary Female Teachers in percentage DISE": "NA",
      "Number of Households": 109027,
      "Main Workers Agricultural Labourers - Persons": 5800
    }
  ]
}