{
  "Total": [
    {
      "Marginal Workers Agricultural Labourers - Persons": 29917,
      "Marginal Workers Other - Females": 26009,
      "Marginal Workers Other worked for 0 - 3 moths during last year - Females": 3388,
      "Upper Primary Schools with boys toilet in percentage DISE": 98.3,
      "Total Population": 2298323,
      "Households with electricity as main source of lighting in percentage Houselisting and Housing Census Data Tables- District Level , Census of India": 95.36283777,
      "Primary Girl's Enrolment in percentage DISE": 48.4,
      "Marginal Workers worked for 3 - 6 moths during last year - Males": 73141,
      "Prevalence of Acute illness in percentage DLHS-4": 4.7,
      "Main Workers - Persons": 625778,
      "Main Workers Cultivators - Females": 9359,
      "Marginal Workers Agricultural Labourers worked for 3 - 6 moths during last year - Females": 4688,
      "Marginal Workers Other worked for 0 - 3 moths during last year - Males": 8720,
      "Upper Primary Schools with drinking water facility in percentage DISE": 100,
      "Primary Schools with girls toilet in percentage DISE": 91.4,
      "Marginal Workers worked for 3 - 6 moths during last year - Persons": 108126,
      "Upper Primary Drop Out Rate in percentage DISE": 1.08,
      "Prevalence of Anaemia in pregnant women aged 15-49years in percentage DLHS-4": 58.7,
      "Current use of any modern method of family planning in percentage DLHS-4": 57.9,
      "Marginal Workers Agricultural Labourers - Males": 23736,
      "Upper Primary Female Teachers in percentage DISE": 56.9,
      "Marginal Workers - Females": 42384,
      "Marginal Workers Other worked for 3 - 6 moths during last year - Persons": 68369,
      "Main Workers Agricultural Labourers - Females": 6682,
      "Marginal Workers Cultivators worked for 3 - 6 moths during last year - Females": 3666,
      "Households with no lighting  Houselisting and Housing Census Data Tables- District Level , Census of India__5": 3376,
      "Prevalence of Severe Anaemia  in percentage DLHS-4": 9.5,
      "Total unmet need for family planning in percentage DLHS-4": 16.3,
      "Main Workers Other - Males": 342306,
      "Children who received full vaccination in percentage DLHS-4": 65.5,
      "Marginal Workers Household Industry - Persons": 9605,
      "Primary Pupil-Teacher Ratio in percentage DISE": 18,
      "Marginal Workers Agricultural Labourers worked for 3 - 6 moths during last year - Males": 18693,
      "Scheduled Caste Females": 275682,
      "Marginal Workers Cultivators - Males": 6540,
      "Marginal Workers - Males": 88976,
      "Marginal Workers worked for 0 - 3 moths during last year - Females": 7399,
      "Households with main source of drinking water within premises in percentage Houselisting and Housing Census Data Tables- District Level , Census of India": 91.21128354,
      "Marginal Workers Household Industry worked for 3 - 6 moths during last year - Persons": 7082,
      "Upper Primary Girl's Enrolment in percentage DISE": 48.8,
      "Prevalence of Severe Anaemia in women aged 15-49years in percentage DLHS-4": 6,
      "Marginal Workers Agricultural Labourers worked for 0 - 3 moths during last year - Males": 5043,
      "Households with electricity as main source of lighting  Houselisting and Housing Census Data Tables- District Level , Census of India__3": 411216,
      "Households with computer or laptop with internet connection in percentage": 3.35,
      "PHCs functioning on a 24x7hours basis in percentage DLHS-4": "Not applicable",
      "Non Workers - Males": 574965,
      "Total Households in District Houselisting and Housing Census Data Tables- District Level , Census of India": 431212,
      "Upper Primary Schools with girls toilet in percentage DISE": 95.7,
      "Households with mobile phone in percentage": 54.72,
      "Households receiving untreated tap water within premises in percentage Houselisting and Housing Census Data Tables- District Level , Census of India__2": 3.730879475,
      "Marginal Workers Cultivators worked for 3 - 6 moths during last year - Males": 5628,
      "Prevalence of Anaemia  in percentage DLHS-4": 50.3,
      "Prevalence of Chronic illness in percentage DLHS-4": 8,
      "Households with solar energy as main source of lighting in percentage Houselisting and Housing Census Data Tables- District Level , Census of India__1": 0.147723162,
      "Marginal Workers Agricultural Labourers worked for 0 - 3 moths during last year - Females": 1493,
      "Main Workers - Males": 548676,
      "Female": 74.85,
      "Sno": 1397,
      "Marginal Workers Other worked for 3 - 6 moths during last year - Females": 22621,
      "Marginal Workers Cultivators worked for 0 - 3 moths during last year - Females": 1155,
      "Scheduled Tribe Males": 0,
      "Male Illiterates": 304957,
      "Prevalence of Severe Anaemia in pregnant women aged 15-49years in percentage DLHS-4": 10.9,
      "0-6 Age Group Persons": 253579,
      "Upper Primary Student-Classroom Ratio in percentage DISE": 21,
      "Currently married men married below 21years of age in percentage DLHS-4": 8.4,
      "Male Literates": 907660,
      "Households with no lighting in percentage Houselisting and Housing Census Data Tables- District Level , Census of India__2": 0.782909567,
      "Primary Drop Out Rate in percentage DISE": 0.5,
      "Marginal Workers Household Industry - Males": 4232,
      "Female Illiterates": 358647,
      "Main Workers Other - Females": 54856,
      "Marginal Workers Cultivators - Persons": 11361,
      "Upper Primary Gross Enrolment Ratio in percentage DISE": 70.2,
      "Scheduled Caste Persons": 580576,
      "Marginal Workers Cultivators worked for 3 - 6 moths during last year - Persons": 9294,
      "Households with landline phone in percentage": 11.76,
      "Total Households in District  Houselisting and Housing Census Data Tables- District Level , Census of India": 431212,
      "Upper Primary Pupil-Teacher Ratio in percentage DISE": 13,
      "Primary Student-Classroom Ratio in percentage DISE": 17,
      "Primary Schools with boys toilet in percentage DISE": 96.1,
      "Mean number of children ever born to women aged 40-49years  DLHS-4": 2.6,
      "Households receiving untreated tap water within premises  Houselisting and Housing Census Data Tables- District Level , Census of India__5": 16088,
      "Marginal Workers Household Industry worked for 0 - 3 moths during last year - Persons": 2523,
      "Total Male Population": 1212617,
      "Non Workers - Females": 966220,
      "Current use of family planning methods in percentage DLHS-4": 62.1,
      "Households with main source of drinking water within premises  Houselisting and Housing Census Data Tables- District Level , Census of India__3": 393314,
      "Main Workers Agricultural Labourers - Males": 64085,
      "Marginal Workers Other worked for 0 - 3 moths during last year - Persons": 12108,
      "Currently married women married below 18years of age in percentage DLHS-4": 3.3,
      "Person Illiterates": 663604,
      "Main Workers Household Industry - Females": 6205,
      "Female Literates": 727059,
      "Marginal Workers Cultivators worked for 0 - 3 moths during last year - Males": 912,
      "Male": 84.56,
      "Households with improved source of drinking water in percentage DLHS-4": 99.9,
      "Upper Primary Schools with electricity in percentage DISE": 100,
      "Households with electricity in percentage DLHS-4": 99.8,
      "Villages with Primary Health Centre within 10km in percentage DLHS-4": 81.8,
      "Births to women aged 15-19years out of Total births in percentage DLHS-4": 0.5,
      "Prevalence of Anaemia in women aged 15-49years in percentage DLHS-4": 50.3,
      "Marginal Workers Agricultural Labourers worked for 3 - 6 moths during last year - Persons": 23381,
      "Main Workers Household Industry - Males": 15093,
      "Scheduled Tribe Females": 0,
      "Marginal Workers worked for 0 - 3 moths during last year - Males": 15835,
      "Marginal Workers Other worked for 3 - 6 moths during last year - Males": 45748,
      "Primary Net Enrolment Ratio in percentage DISE": 63.7,
      "Total": 79.95,
      "Mean age at marriage for boys DLHS-4": 25.9,
      "Number of District Hospitals  DLHS-4": 1,
      "0-6 Age Group Females": 114318,
      "Marginal Workers Agricultural Labourers worked for 0 - 3 moths during last year - Persons": 6536,
      "Marginal Workers Household Industry worked for 0 - 3 moths during last year - Males": 1160,
      "Total Workers  Females": 119486,
      "Marginal Workers worked for 3 - 6 moths during last year - Females": 34985,
      "Institutional Deliveries in percentage DLHS-4": 78.8,
      "Marginal Workers Other - Males": 54468,
      "Total Workers  Males": 637652,
      "Main Workers - Females": 77102,
      "Primary Gross Enrolment Ratio in percentage DISE": 77.3,
      "Main Workers Cultivators - Persons": 136551,
      "Marginal Workers Household Industry worked for 0 - 3 moths during last year - Females": 1363,
      "Upper Primary Net Enrolment Ratio in percentage DISE": 51.3,
      "Primary New Government Schools since 2003 in percentage DISE": 1.3,
      "Tier": "Total",
      "Marginal Workers Household Industry - Females": 5373,
      "Primary Schools with electricity in percentage DISE": 100,
      "Main Workers Other - Persons": 397162,
      "Marginal Workers Household Industry worked for 3 - 6 moths during last year - Females": 4010,
      "Main Workers Cultivators - Males": 127192,
      "Main Workers Household Industry - Persons": 21298,
      "Marginal Workers Cultivators worked for 0 - 3 moths during last year - Persons": 2067,
      "Scheduled Caste Males": 304894,
      "Marginal Workers - Persons": 131360,
      "Deliveries at home conducted by skilled health personnel in percentage DLHS-4": 19.6,
      "Villages with Sub-Health Centres within 3km in percentage DLHS-4": 63.6,
      "Upper Primary New Government Schools since 2003 in percentage DISE": 33.1,
      "0-6 Age Group Males": 139261,
      "Primary Schools with drinking water facility in percentage DISE": 100,
      "Non Workers - Persons": 1541185,
      "Person Literates": 1634719,
      "State": "PUNJAB",
      "Total Female Population": 1085706,
      "Marginal Workers worked for 0 - 3 moths during last year - Persons": 23234,
      "Marginal Workers Cultivators - Females": 4821,
      "Marginal Workers Other - Persons": 80477,
      "Sex Ratio": 895,
      "Scheduled Tribe Persons": 0,
      "Marginal Workers Household Industry worked for 3 - 6 moths during last year - Males": 3072,
      "Marginal Workers Agricultural Labourers - Females": 6181,
      "Mean age at marriage for girls DLHS-4": 22.1,
      "Households with solar energy as main source of lighting  Houselisting and Housing Census Data Tables- District Level , Census of India__4": 637,
      "District": "GURDASPUR",
      "Households receiving treated tap water within premises in percentage Houselisting and Housing Census Data Tables- District Level , Census of India__1": 20.02472102,
      "Total Workers  Persons": 757138,
      "Households receiving treated tap water within premises  Houselisting and Housing Census Data Tables- District Level , Census of India__4": 86349,
      "Primary Female Teachers in percentage DISE": 68,
      "Number of Households": 443666,
      "Main Workers Agricultural Labourers - Persons": 70767
    }
  ],
  "Rural": [
    {
      "Marginal Workers Agricultural Labourers - Persons": 28159,
      "Marginal Workers Other - Females": 18351,
      "Marginal Workers Other worked for 0 - 3 moths during last year - Females": 2525,
      "Upper Primary Schools with boys toilet in percentage DISE": "NA",
      "Total Population": 1639004,
      "Households with electricity as main source of lighting in percentage Houselisting and Housing Census Data Tables- District Level , Census of India": 94.28876598,
      "Primary Girl's Enrolment in percentage DISE": "NA",
      "Marginal Workers worked for 3 - 6 moths during last year - Males": 57360,
      "Prevalence of Acute illness in percentage DLHS-4": 4.4,
      "Main Workers - Persons": 423761,
      "Main Workers Cultivators - Females": 9051,
      "Marginal Workers Agricultural Labourers worked for 3 - 6 moths during last year - Females": 4497,
      "Marginal Workers Other worked for 0 - 3 moths during last year - Males": 6298,
      "Upper Primary Schools with drinking water facility in percentage DISE": "NA",
      "Primary Schools with girls toilet in percentage DISE": "NA",
      "Marginal Workers worked for 3 - 6 moths during last year - Persons": 84505,
      "Upper Primary Drop Out Rate in percentage DISE": "NA",
      "Prevalence of Anaemia in pregnant women aged 15-49years in percentage DLHS-4": 64.2,
      "Current use of any modern method of family planning in percentage DLHS-4": 58.9,
      "Marginal Workers Agricultural Labourers - Males": 22228,
      "Upper Primary Female Teachers in percentage DISE": "NA",
      "Marginal Workers - Females": 33458,
      "Marginal Workers Other worked for 3 - 6 moths during last year - Persons": 47886,
      "Main Workers Agricultural Labourers - Females": 6045,
      "Marginal Workers Cultivators worked for 3 - 6 moths during last year - Females": 3440,
      "Households with no lighting  Houselisting and Housing Census Data Tables- District Level , Census of India__5": 3022,
      "Prevalence of Severe Anaemia  in percentage DLHS-4": 7.1,
      "Total unmet need for family planning in percentage DLHS-4": 15.8,
      "Main Workers Other - Males": 178939,
      "Children who received full vaccination in percentage DLHS-4": 64.3,
      "Marginal Workers Household Industry - Persons": 7887,
      "Primary Pupil-Teacher Ratio in percentage DISE": "NA",
      "Marginal Workers Agricultural Labourers worked for 3 - 6 moths during last year - Males": 17664,
      "Scheduled Caste Females": 207389,
      "Marginal Workers Cultivators - Males": 6147,
      "Marginal Workers - Males": 70033,
      "Marginal Workers worked for 0 - 3 moths during last year - Females": 6313,
      "Households with main source of drinking water within premises in percentage Houselisting and Housing Census Data Tables- District Level , Census of India": 90.91927021,
      "Marginal Workers Household Industry worked for 3 - 6 moths during last year - Persons": 5752,
      "Upper Primary Girl's Enrolment in percentage DISE": "NA",
      "Prevalence of Severe Anaemia in women aged 15-49years in percentage DLHS-4": 5.9,
      "Marginal Workers Agricultural Labourers worked for 0 - 3 moths during last year - Males": 4564,
      "Households with electricity as main source of lighting  Houselisting and Housing Census Data Tables- District Level , Census of India__3": 292199,
      "Households with computer or laptop with internet connection in percentage": 1.74,
      "PHCs functioning on a 24x7hours basis in percentage DLHS-4": "Not applicable",
      "Non Workers - Males": 412335,
      "Total Households in District Houselisting and Housing Census Data Tables- District Level , Census of India": 309898,
      "Upper Primary Schools with girls toilet in percentage DISE": "NA",
      "Households with mobile phone in percentage": 54.58,
      "Households receiving untreated tap water within premises in percentage Houselisting and Housing Census Data Tables- District Level , Census of India__2": 2.724444817,
      "Marginal Workers Cultivators worked for 3 - 6 moths during last year - Males": 5266,
      "Prevalence of Anaemia  in percentage DLHS-4": 48.2,
      "Prevalence of Chronic illness in percentage DLHS-4": 7.8,
      "Households with solar energy as main source of lighting in percentage Houselisting and Housing Census Data Tables- District Level , Census of India__1": 0.17650969,
      "Marginal Workers Agricultural Labourers worked for 0 - 3 moths during last year - Females": 1434,
      "Main Workers - Males": 373416,
      "Female": "NA",
      "Sno": 1396,
      "Marginal Workers Other worked for 3 - 6 moths during last year - Females": 15826,
      "Marginal Workers Cultivators worked for 0 - 3 moths during last year - Females": 1149,
      "Scheduled Tribe Males": 0,
      "Male Illiterates": 238932,
      "Prevalence of Severe Anaemia in pregnant women aged 15-49years in percentage DLHS-4": 10.6,
      "0-6 Age Group Persons": 188167,
      "Upper Primary Student-Classroom Ratio in percentage DISE": "NA",
      "Currently married men married below 21years of age in percentage DLHS-4": 9.9,
      "Male Literates": 616852,
      "Households with no lighting in percentage Houselisting and Housing Census Data Tables- District Level , Census of India__2": 0.975159569,
      "Primary Drop Out Rate in percentage DISE": "NA",
      "Marginal Workers Household Industry - Males": 3300,
      "Female Illiterates": 283535,
      "Main Workers Other - Females": 30127,
      "Marginal Workers Cultivators - Persons": 10736,
      "Upper Primary Gross Enrolment Ratio in percentage DISE": "NA",
      "Scheduled Caste Persons": 435930,
      "Marginal Workers Cultivators worked for 3 - 6 moths during last year - Persons": 8706,
      "Households with landline phone in percentage": 11.87,
      "Total Households in District  Houselisting and Housing Census Data Tables- District Level , Census of India": 309898,
      "Upper Primary Pupil-Teacher Ratio in percentage DISE": "NA",
      "Primary Student-Classroom Ratio in percentage DISE": "NA",
      "Primary Schools with boys toilet in percentage DISE": "NA",
      "Mean number of children ever born to women aged 40-49years  DLHS-4": 2.7,
      "Households receiving untreated tap water within premises  Houselisting and Housing Census Data Tables- District Level , Census of India__5": 8443,
      "Marginal Workers Household Industry worked for 0 - 3 moths during last year - Persons": 2135,
      "Total Male Population": 855784,
      "Non Workers - Females": 699417,
      "Current use of family planning methods in percentage DLHS-4": 62.6,
      "Households with main source of drinking water within premises  Houselisting and Housing Census Data Tables- District Level , Census of India__3": 281757,
      "Main Workers Agricultural Labourers - Males": 59609,
      "Marginal Workers Other worked for 0 - 3 moths during last year - Persons": 8823,
      "Currently married women married below 18years of age in percentage DLHS-4": 5.2,
      "Person Illiterates": 522467,
      "Main Workers Household Industry - Females": 5122,
      "Female Literates": 499685,
      "Marginal Workers Cultivators worked for 0 - 3 moths during last year - Males": 881,
      "Male": "NA",
      "Households with improved source of drinking water in percentage DLHS-4": 100,
      "Upper Primary Schools with electricity in percentage DISE": "NA",
      "Households with electricity in percentage DLHS-4": 99.8,
      "Villages with Primary Health Centre within 10km in percentage DLHS-4": "Not applicable",
      "Births to women aged 15-19years out of Total births in percentage DLHS-4": 0.8,
      "Prevalence of Anaemia in women aged 15-49years in percentage DLHS-4": 51,
      "Marginal Workers Agricultural Labourers worked for 3 - 6 moths during last year - Persons": 22161,
      "Main Workers Household Industry - Males": 11392,
      "Scheduled Tribe Females": 0,
      "Marginal Workers worked for 0 - 3 moths during last year - Males": 12673,
      "Marginal Workers Other worked for 3 - 6 moths during last year - Males": 32060,
      "Primary Net Enrolment Ratio in percentage DISE": "NA",
      "Total": "NA",
      "Mean age at marriage for boys DLHS-4": 25.6,
      "Number of District Hospitals  DLHS-4": "Not applicable",
      "0-6 Age Group Females": 84851,
      "Marginal Workers Agricultural Labourers worked for 0 - 3 moths during last year - Persons": 5998,
      "Marginal Workers Household Industry worked for 0 - 3 moths during last year - Males": 930,
      "Total Workers  Females": 83803,
      "Marginal Workers worked for 3 - 6 moths during last year - Females": 27145,
      "Institutional Deliveries in percentage DLHS-4": 79.5,
      "Marginal Workers Other - Males": 38358,
      "Total Workers  Males": 443449,
      "Main Workers - Females": 50345,
      "Primary Gross Enrolment Ratio in percentage DISE": "NA",
      "Main Workers Cultivators - Persons": 132527,
      "Marginal Workers Household Industry worked for 0 - 3 moths during last year - Females": 1205,
      "Upper Primary Net Enrolment Ratio in percentage DISE": "NA",
      "Primary New Government Schools since 2003 in percentage DISE": "NA",
      "Tier": "Rural",
      "Marginal Workers Household Industry - Females": 4587,
      "Primary Schools with electricity in percentage DISE": "NA",
      "Main Workers Other - Persons": 209066,
      "Marginal Workers Household Industry worked for 3 - 6 moths during last year - Females": 3382,
      "Main Workers Cultivators - Males": 123476,
      "Main Workers Household Industry - Persons": 16514,
      "Marginal Workers Cultivators worked for 0 - 3 moths during last year - Persons": 2030,
      "Scheduled Caste Males": 228541,
      "Marginal Workers - Persons": 103491,
      "Deliveries at home conducted by skilled health personnel in percentage DLHS-4": 18.1,
      "Villages with Sub-Health Centres within 3km in percentage DLHS-4": "Not applicable",
      "Upper Primary New Government Schools since 2003 in percentage DISE": "NA",
      "0-6 Age Group Males": 103316,
      "Primary Schools with drinking water facility in percentage DISE": "NA",
      "Non Workers - Persons": 1111752,
      "Person Literates": 1116537,
      "State": "PUNJAB",
      "Total Female Population": 783220,
      "Marginal Workers worked for 0 - 3 moths during last year - Persons": 18986,
      "Marginal Workers Cultivators - Females": 4589,
      "Marginal Workers Other - Persons": 56709,
      "Sex Ratio": 915,
      "Scheduled Tribe Persons": 0,
      "Marginal Workers Household Industry worked for 3 - 6 moths during last year - Males": 2370,
      "Marginal Workers Agricultural Labourers - Females": 5931,
      "Mean age at marriage for girls DLHS-4": 21.9,
      "Households with solar energy as main source of lighting  Houselisting and Housing Census Data Tables- District Level , Census of India__4": 547,
      "District": "GURDASPUR",
      "Households receiving treated tap water within premises in percentage Houselisting and Housing Census Data Tables- District Level , Census of India__1": 10.76838185,
      "Total Workers  Persons": 527252,
      "Households receiving treated tap water within premises  Houselisting and Housing Census Data Tables- District Level , Census of India__4": 33371,
      "Primary Female Teachers in percentage DISE": "NA",
      "Number of Households": 312300,
      "Main Workers Agricultural Labourers - Persons": 65654
    }
  ],
  "Urban": [
    {
      "Marginal Workers Agricultural Labourers - Persons": 1758,
      "Marginal Workers Other - Females": 7658,
      "Marginal Workers Other worked for 0 - 3 moths during last year - Females": 863,
      "Upper Primary Schools with boys toilet in percentage DISE": "NA",
      "Total Population": 659319,
      "Households with electricity as main source of lighting in percentage Houselisting and Housing Census Data Tables- District Level , Census of India": 98.10656643,
      "Primary Girl's Enrolment in percentage DISE": "NA",
      "Marginal Workers worked for 3 - 6 moths during last year - Males": 15781,
      "Prevalence of Acute illness in percentage DLHS-4": "Not available",
      "Main Workers - Persons": 202017,
      "Main Workers Cultivators - Females": 308,
      "Marginal Workers Agricultural Labourers worked for 3 - 6 moths during last year - Females": 191,
      "Marginal Workers Other worked for 0 - 3 moths during last year - Males": 2422,
      "Upper Primary Schools with drinking water facility in percentage DISE": "NA",
      "Primary Schools with girls toilet in percentage DISE": "NA",
      "Marginal Workers worked for 3 - 6 moths during last year - Persons": 23621,
      "Upper Primary Drop Out Rate in percentage DISE": "NA",
      "Prevalence of Anaemia in pregnant women aged 15-49years in percentage DLHS-4": "Not available",
      "Current use of any modern method of family planning in percentage DLHS-4": "Not available",
      "Marginal Workers Agricultural Labourers - Males": 1508,
      "Upper Primary Female Teachers in percentage DISE": "NA",
      "Marginal Workers - Females": 8926,
      "Marginal Workers Other worked for 3 - 6 moths during last year - Persons": 20483,
      "Main Workers Agricultural Labourers - Females": 637,
      "Marginal Workers Cultivators worked for 3 - 6 moths during last year - Females": 226,
      "Households with no lighting  Houselisting and Housing Census Data Tables- District Level , Census of India__5": 354,
      "Prevalence of Severe Anaemia  in percentage DLHS-4": "Not available",
      "Total unmet need for family planning in percentage DLHS-4": "Not available",
      "Main Workers Other - Males": 163367,
      "Children who received full vaccination in percentage DLHS-4": "Not available",
      "Marginal Workers Household Industry - Persons": 1718,
      "Primary Pupil-Teacher Ratio in percentage DISE": "NA",
      "Marginal Workers Agricultural Labourers worked for 3 - 6 moths during last year - Males": 1029,
      "Scheduled Caste Females": 68293,
      "Marginal Workers Cultivators - Males": 393,
      "Marginal Workers - Males": 18943,
      "Marginal Workers worked for 0 - 3 moths during last year - Females": 1086,
      "Households with main source of drinking water within premises in percentage Houselisting and Housing Census Data Tables- District Level , Census of India": 91.95723494,
      "Marginal Workers Household Industry worked for 3 - 6 moths during last year - Persons": 1330,
      "Upper Primary Girl's Enrolment in percentage DISE": "NA",
      "Prevalence of Severe Anaemia in women aged 15-49years in percentage DLHS-4": "Not available",
      "Marginal Workers Agricultural Labourers worked for 0 - 3 moths during last year - Males": 479,
      "Households with electricity as main source of lighting  Houselisting and Housing Census Data Tables- District Level , Census of India__3": 119017,
      "Households with computer or laptop with internet connection in percentage": 7.44,
      "PHCs functioning on a 24x7hours basis in percentage DLHS-4": 0,
      "Non Workers - Males": 162630,
      "Total Households in District Houselisting and Housing Census Data Tables- District Level , Census of India": 121314,
      "Upper Primary Schools with girls toilet in percentage DISE": "NA",
      "Households with mobile phone in percentage": 55.07,
      "Households receiving untreated tap water within premises in percentage Houselisting and Housing Census Data Tables- District Level , Census of India__2": 6.301828313,
      "Marginal Workers Cultivators worked for 3 - 6 moths during last year - Males": 362,
      "Prevalence of Anaemia  in percentage DLHS-4": "Not available",
      "Prevalence of Chronic illness in percentage DLHS-4": "Not available",
      "Households with solar energy as main source of lighting in percentage Houselisting and Housing Census Data Tables- District Level , Census of India__1": 0.0742,
      "Marginal Workers Agricultural Labourers worked for 0 - 3 moths during last year - Females": 59,
      "Main Workers - Males": 175260,
      "Female": "NA",
      "Sno": 1398,
      "Marginal Workers Other worked for 3 - 6 moths during last year - Females": 6795,
      "Marginal Workers Cultivators worked for 0 - 3 moths during last year - Females": 6,
      "Scheduled Tribe Males": 0,
      "Male Illiterates": 66025,
      "Prevalence of Severe Anaemia in pregnant women aged 15-49years in percentage DLHS-4": "Not available",
      "0-6 Age Group Persons": 65412,
      "Upper Primary Student-Classroom Ratio in percentage DISE": "NA",
      "Currently married men married below 21years of age in percentage DLHS-4": "Not available",
      "Male Literates": 290808,
      "Households with no lighting in percentage Houselisting and Housing Census Data Tables- District Level , Census of India__2": 0.291804738,
      "Primary Drop Out Rate in percentage DISE": "NA",
      "Marginal Workers Household Industry - Males": 932,
      "Female Illiterates": 75112,
      "Main Workers Other - Females": 24729,
      "Marginal Workers Cultivators - Persons": 625,
      "Upper Primary Gross Enrolment Ratio in percentage DISE": "NA",
      "Scheduled Caste Persons": 144646,
      "Marginal Workers Cultivators worked for 3 - 6 moths during last year - Persons": 588,
      "Households with landline phone in percentage": 11.5,
      "Total Households in District  Houselisting and Housing Census Data Tables- District Level , Census of India": 121314,
      "Upper Primary Pupil-Teacher Ratio in percentage DISE": "NA",
      "Primary Student-Classroom Ratio in percentage DISE": "NA",
      "Primary Schools with boys toilet in percentage DISE": "NA",
      "Mean number of children ever born to women aged 40-49years  DLHS-4": "Not available",
      "Households receiving untreated tap water within premises  Houselisting and Housing Census Data Tables- District Level , Census of India__5": 7645,
      "Marginal Workers Household Industry worked for 0 - 3 moths during last year - Persons": 388,
      "Total Male Population": 356833,
      "Non Workers - Females": 266803,
      "Current use of family planning methods in percentage DLHS-4": "Not available",
      "Households with main source of drinking water within premises  Houselisting and Housing Census Data Tables- District Level , Census of India__3": 111557,
      "Main Workers Agricultural Labourers - Males": 4476,
      "Marginal Workers Other worked for 0 - 3 moths during last year - Persons": 3285,
      "Currently married women married below 18years of age in percentage DLHS-4": "Not available",
      "Person Illiterates": 141137,
      "Main Workers Household Industry - Females": 1083,
      "Female Literates": 227374,
      "Marginal Workers Cultivators worked for 0 - 3 moths during last year - Males": 31,
      "Male": "NA",
      "Households with improved source of drinking water in percentage DLHS-4": "Not available",
      "Upper Primary Schools with electricity in percentage DISE": "NA",
      "Households with electricity in percentage DLHS-4": "Not available",
      "Villages with Primary Health Centre within 10km in percentage DLHS-4": 0,
      "Births to women aged 15-19years out of Total births in percentage DLHS-4": "Not available",
      "Prevalence of Anaemia in women aged 15-49years in percentage DLHS-4": "Not available",
      "Marginal Workers Agricultural Labourers worked for 3 - 6 moths during last year - Persons": 1220,
      "Main Workers Household Industry - Males": 3701,
      "Scheduled Tribe Females": 0,
      "Marginal Workers worked for 0 - 3 moths during last year - Males": 3162,
      "Marginal Workers Other worked for 3 - 6 moths during last year - Males": 13688,
      "Primary Net Enrolment Ratio in percentage DISE": "NA",
      "Total": "NA",
      "Mean age at marriage for boys DLHS-4": "Not available",
      "Number of District Hospitals  DLHS-4": 0,
      "0-6 Age Group Females": 29467,
      "Marginal Workers Agricultural Labourers worked for 0 - 3 moths during last year - Persons": 538,
      "Marginal Workers Household Industry worked for 0 - 3 moths during last year - Males": 230,
      "Total Workers  Females": 35683,
      "Marginal Workers worked for 3 - 6 moths during last year - Females": 7840,
      "Institutional Deliveries in percentage DLHS-4": "Not available",
      "Marginal Workers Other - Males": 16110,
      "Total Workers  Males": 194203,
      "Main Workers - Females": 26757,
      "Primary Gross Enrolment Ratio in percentage DISE": "NA",
      "Main Workers Cultivators - Persons": 4024,
      "Marginal Workers Household Industry worked for 0 - 3 moths during last year - Females": 158,
      "Upper Primary Net Enrolment Ratio in percentage DISE": "NA",
      "Primary New Government Schools since 2003 in percentage DISE": "NA",
      "Tier": "Urban",
      "Marginal Workers Household Industry - Females": 786,
      "Primary Schools with electricity in percentage DISE": "NA",
      "Main Workers Other - Persons": 188096,
      "Marginal Workers Household Industry worked for 3 - 6 moths during last year - Females": 628,
      "Main Workers Cultivators - Males": 3716,
      "Main Workers Household Industry - Persons": 4784,
      "Marginal Workers Cultivators worked for 0 - 3 moths during last year - Persons": 37,
      "Scheduled Caste Males": 76353,
      "Marginal Workers - Persons": 27869,
      "Deliveries at home conducted by skilled health personnel in percentage DLHS-4": "Not available",
      "Villages with Sub-Health Centres within 3km in percentage DLHS-4": 0,
      "Upper Primary New Government Schools since 2003 in percentage DISE": "NA",
      "0-6 Age Group Males": 35945,
      "Primary Schools with drinking water facility in percentage DISE": "NA",
      "Non Workers - Persons": 429433,
      "Person Literates": 518182,
      "State": "PUNJAB",
      "Total Female Population": 302486,
      "Marginal Workers worked for 0 - 3 moths during last year - Persons": 4248,
      "Marginal Workers Cultivators - Females": 232,
      "Marginal Workers Other - Persons": 23768,
      "Sex Ratio": 848,
      "Scheduled Tribe Persons": 0,
      "Marginal Workers Household Industry worked for 3 - 6 moths during last year - Males": 702,
      "Marginal Workers Agricultural Labourers - Females": 250,
      "Mean age at marriage for girls DLHS-4": "Not available",
      "Households with solar energy as main source of lighting  Houselisting and Housing Census Data Tables- District Level , Census of India__4": 90,
      "District": "GURDASPUR",
      "Households receiving treated tap water within premises in percentage Houselisting and Housing Census Data Tables- District Level , Census of India__1": 43.67014524,
      "Total Workers  Persons": 229886,
      "Households receiving treated tap water within premises  Houselisting and Housing Census Data Tables- District Level , Census of India__4": 52978,
      "Primary Female Teachers in percentage DISE": "NA",
      "Number of Households": 131366,
      "Main Workers Agricultural Labourers - Persons": 5113
    }
  ]
}