{
  "Total": [
    {
      "Marginal Workers Agricultural Labourers - Persons": 18182,
      "Marginal Workers Other - Females": 11646,
      "Marginal Workers Other worked for 0 - 3 moths during last year - Females": 1541,
      "Upper Primary Schools with boys toilet in percentage DISE": 98.8,
      "Total Population": 995746,
      "Households with electricity as main source of lighting in percentage Houselisting and Housing Census Data Tables- District Level , Census of India": 95.90436547,
      "Primary Girl's Enrolment in percentage DISE": 47.5,
      "Marginal Workers worked for 3 - 6 moths during last year - Males": 26545,
      "Prevalence of Acute illness in percentage DLHS-4": 3.6,
      "Main Workers - Persons": 304880,
      "Main Workers Cultivators - Females": 4161,
      "Marginal Workers Agricultural Labourers worked for 3 - 6 moths during last year - Females": 3358,
      "Marginal Workers Other worked for 0 - 3 moths during last year - Males": 2381,
      "Upper Primary Schools with drinking water facility in percentage DISE": 97.6,
      "Primary Schools with girls toilet in percentage DISE": 99.5,
      "Marginal Workers worked for 3 - 6 moths during last year - Persons": 43371,
      "Upper Primary Drop Out Rate in percentage DISE": 4.08,
      "Prevalence of Anaemia in pregnant women aged 15-49years in percentage DLHS-4": 63.2,
      "Current use of any modern method of family planning in percentage DLHS-4": 61.7,
      "Marginal Workers Agricultural Labourers - Males": 13091,
      "Upper Primary Female Teachers in percentage DISE": 45,
      "Marginal Workers - Females": 21539,
      "Marginal Workers Other worked for 3 - 6 moths during last year - Persons": 22645,
      "Main Workers Agricultural Labourers - Females": 6663,
      "Marginal Workers Cultivators worked for 3 - 6 moths during last year - Females": 1374,
      "Households with no lighting  Houselisting and Housing Census Data Tables- District Level , Census of India__5": 2536,
      "Prevalence of Severe Anaemia  in percentage DLHS-4": 20.1,
      "Total unmet need for family planning in percentage DLHS-4": 13.1,
      "Main Workers Other - Males": 111117,
      "Children who received full vaccination in percentage DLHS-4": 64,
      "Marginal Workers Household Industry - Persons": 4580,
      "Primary Pupil-Teacher Ratio in percentage DISE": 32,
      "Marginal Workers Agricultural Labourers worked for 3 - 6 moths during last year - Males": 10219,
      "Scheduled Caste Females": 170999,
      "Marginal Workers Cultivators - Males": 3104,
      "Marginal Workers - Males": 32753,
      "Marginal Workers worked for 0 - 3 moths during last year - Females": 4713,
      "Households with main source of drinking water within premises in percentage Houselisting and Housing Census Data Tables- District Level , Census of India": 79.44861631,
      "Marginal Workers Household Industry worked for 3 - 6 moths during last year - Persons": 3196,
      "Upper Primary Girl's Enrolment in percentage DISE": 47.1,
      "Prevalence of Severe Anaemia in women aged 15-49years in percentage DLHS-4": 5.4,
      "Marginal Workers Agricultural Labourers worked for 0 - 3 moths during last year - Males": 2872,
      "Households with electricity as main source of lighting  Houselisting and Housing Census Data Tables- District Level , Census of India__3": 183396,
      "Households with computer or laptop with internet connection in percentage": 4.13,
      "PHCs functioning on a 24x7hours basis in percentage DLHS-4": 52.6,
      "Non Workers - Males": 233541,
      "Total Households in District Houselisting and Housing Census Data Tables- District Level , Census of India": 191228,
      "Upper Primary Schools with girls toilet in percentage DISE": 98.8,
      "Households with mobile phone in percentage": 64.35,
      "Households receiving untreated tap water within premises in percentage Houselisting and Housing Census Data Tables- District Level , Census of India__2": 12.55621562,
      "Marginal Workers Cultivators worked for 3 - 6 moths during last year - Males": 2579,
      "Prevalence of Anaemia  in percentage DLHS-4": 82.2,
      "Prevalence of Chronic illness in percentage DLHS-4": 12.3,
      "Households with solar energy as main source of lighting in percentage Houselisting and Housing Census Data Tables- District Level , Census of India__1": 0.133348673,
      "Marginal Workers Agricultural Labourers worked for 0 - 3 moths during last year - Females": 1733,
      "Main Workers - Males": 259626,
      "Female": 66.48,
      "Sno": 1415,
      "Marginal Workers Other worked for 3 - 6 moths during last year - Females": 10105,
      "Marginal Workers Cultivators worked for 0 - 3 moths during last year - Females": 485,
      "Scheduled Tribe Males": 0,
      "Male Illiterates": 177371,
      "Prevalence of Severe Anaemia in pregnant women aged 15-49years in percentage DLHS-4": 8.5,
      "0-6 Age Group Persons": 107336,
      "Upper Primary Student-Classroom Ratio in percentage DISE": 22,
      "Currently married men married below 21years of age in percentage DLHS-4": 13.1,
      "Male Literates": 348549,
      "Households with no lighting in percentage Houselisting and Housing Census Data Tables- District Level , Census of India__2": 1.326165624,
      "Primary Drop Out Rate in percentage DISE": 3.5,
      "Marginal Workers Household Industry - Males": 1637,
      "Female Illiterates": 190486,
      "Main Workers Other - Females": 29371,
      "Marginal Workers Cultivators - Persons": 4963,
      "Upper Primary Gross Enrolment Ratio in percentage DISE": 95.2,
      "Scheduled Caste Persons": 363417,
      "Marginal Workers Cultivators worked for 3 - 6 moths during last year - Persons": 3953,
      "Households with landline phone in percentage": 5.29,
      "Total Households in District  Houselisting and Housing Census Data Tables- District Level , Census of India": 191228,
      "Upper Primary Pupil-Teacher Ratio in percentage DISE": 17,
      "Primary Student-Classroom Ratio in percentage DISE": 26,
      "Primary Schools with boys toilet in percentage DISE": 95.1,
      "Mean number of children ever born to women aged 40-49years  DLHS-4": 3.1,
      "Households receiving untreated tap water within premises  Houselisting and Housing Census Data Tables- District Level , Census of India__5": 24011,
      "Marginal Workers Household Industry worked for 0 - 3 moths during last year - Persons": 1384,
      "Total Male Population": 525920,
      "Non Workers - Females": 403033,
      "Current use of family planning methods in percentage DLHS-4": 65.8,
      "Households with main source of drinking water within premises  Houselisting and Housing Census Data Tables- District Level , Census of India__3": 151928,
      "Main Workers Agricultural Labourers - Males": 57552,
      "Marginal Workers Other worked for 0 - 3 moths during last year - Persons": 3922,
      "Currently married women married below 18years of age in percentage DLHS-4": 3.5,
      "Person Illiterates": 367857,
      "Main Workers Household Industry - Females": 5059,
      "Female Literates": 279340,
      "Marginal Workers Cultivators worked for 0 - 3 moths during last year - Males": 525,
      "Male": 74.44,
      "Households with improved source of drinking water in percentage DLHS-4": 96.1,
      "Upper Primary Schools with electricity in percentage DISE": 100,
      "Households with electricity in percentage DLHS-4": 98.6,
      "Villages with Primary Health Centre within 10km in percentage DLHS-4": 75,
      "Births to women aged 15-19years out of Total births in percentage DLHS-4": 1.8,
      "Prevalence of Anaemia in women aged 15-49years in percentage DLHS-4": 57.8,
      "Marginal Workers Agricultural Labourers worked for 3 - 6 moths during last year - Persons": 13577,
      "Main Workers Household Industry - Males": 8459,
      "Scheduled Tribe Females": 0,
      "Marginal Workers worked for 0 - 3 moths during last year - Males": 6208,
      "Marginal Workers Other worked for 3 - 6 moths during last year - Males": 12540,
      "Primary Net Enrolment Ratio in percentage DISE": 90.6,
      "Total": 70.68,
      "Mean age at marriage for boys DLHS-4": 25,
      "Number of District Hospitals  DLHS-4": 1,
      "0-6 Age Group Females": 49642,
      "Marginal Workers Agricultural Labourers worked for 0 - 3 moths during last year - Persons": 4605,
      "Marginal Workers Household Industry worked for 0 - 3 moths during last year - Males": 430,
      "Total Workers  Females": 66793,
      "Marginal Workers worked for 3 - 6 moths during last year - Females": 16826,
      "Institutional Deliveries in percentage DLHS-4": 80,
      "Marginal Workers Other - Males": 14921,
      "Total Workers  Males": 292379,
      "Main Workers - Females": 45254,
      "Primary Gross Enrolment Ratio in percentage DISE": 111.8,
      "Main Workers Cultivators - Persons": 86659,
      "Marginal Workers Household Industry worked for 0 - 3 moths during last year - Females": 954,
      "Upper Primary Net Enrolment Ratio in percentage DISE": 68,
      "Primary New Government Schools since 2003 in percentage DISE": 1.6,
      "Tier": "Total",
      "Marginal Workers Household Industry - Females": 2943,
      "Primary Schools with electricity in percentage DISE": 100,
      "Main Workers Other - Persons": 140488,
      "Marginal Workers Household Industry worked for 3 - 6 moths during last year - Females": 1989,
      "Main Workers Cultivators - Males": 82498,
      "Main Workers Household Industry - Persons": 13518,
      "Marginal Workers Cultivators worked for 0 - 3 moths during last year - Persons": 1010,
      "Scheduled Caste Males": 192418,
      "Marginal Workers - Persons": 54292,
      "Deliveries at home conducted by skilled health personnel in percentage DLHS-4": 18.1,
      "Villages with Sub-Health Centres within 3km in percentage DLHS-4": 97.7,
      "Upper Primary New Government Schools since 2003 in percentage DISE": 10.7,
      "0-6 Age Group Males": 57694,
      "Primary Schools with drinking water facility in percentage DISE": 98.5,
      "Non Workers - Persons": 636574,
      "Person Literates": 627889,
      "State": "PUNJAB",
      "Total Female Population": 469826,
      "Marginal Workers worked for 0 - 3 moths during last year - Persons": 10921,
      "Marginal Workers Cultivators - Females": 1859,
      "Marginal Workers Other - Persons": 26567,
      "Sex Ratio": 893,
      "Scheduled Tribe Persons": 0,
      "Marginal Workers Household Industry worked for 3 - 6 moths during last year - Males": 1207,
      "Marginal Workers Agricultural Labourers - Females": 5091,
      "Mean age at marriage for girls DLHS-4": 21.7,
      "Households with solar energy as main source of lighting  Houselisting and Housing Census Data Tables- District Level , Census of India__4": 255,
      "District": "MOGA",
      "Households receiving treated tap water within premises in percentage Houselisting and Housing Census Data Tables- District Level , Census of India__1": 25.94389943,
      "Total Workers  Persons": 359172,
      "Households receiving treated tap water within premises  Houselisting and Housing Census Data Tables- District Level , Census of India__4": 49612,
      "Primary Female Teachers in percentage DISE": 65.4,
      "Number of Households": 193256,
      "Main Workers Agricultural Labourers - Persons": 64215
    }
  ],
  "Rural": [
    {
      "Marginal Workers Agricultural Labourers - Persons": 17822,
      "Marginal Workers Other - Females": 8156,
      "Marginal Workers Other worked for 0 - 3 moths during last year - Females": 1096,
      "Upper Primary Schools with boys toilet in percentage DISE": "NA",
      "Total Population": 768500,
      "Households with electricity as main source of lighting in percentage Houselisting and Housing Census Data Tables- District Level , Census of India": 95.5988456,
      "Primary Girl's Enrolment in percentage DISE": "NA",
      "Marginal Workers worked for 3 - 6 moths during last year - Males": 22016,
      "Prevalence of Acute illness in percentage DLHS-4": 3.8,
      "Main Workers - Persons": 229916,
      "Main Workers Cultivators - Females": 3943,
      "Marginal Workers Agricultural Labourers worked for 3 - 6 moths during last year - Females": 3290,
      "Marginal Workers Other worked for 0 - 3 moths during last year - Males": 1539,
      "Upper Primary Schools with drinking water facility in percentage DISE": "NA",
      "Primary Schools with girls toilet in percentage DISE": "NA",
      "Marginal Workers worked for 3 - 6 moths during last year - Persons": 35325,
      "Upper Primary Drop Out Rate in percentage DISE": "NA",
      "Prevalence of Anaemia in pregnant women aged 15-49years in percentage DLHS-4": 61.9,
      "Current use of any modern method of family planning in percentage DLHS-4": 62.1,
      "Marginal Workers Agricultural Labourers - Males": 12812,
      "Upper Primary Female Teachers in percentage DISE": "NA",
      "Marginal Workers - Females": 17407,
      "Marginal Workers Other worked for 3 - 6 moths during last year - Persons": 15621,
      "Main Workers Agricultural Labourers - Females": 6213,
      "Marginal Workers Cultivators worked for 3 - 6 moths during last year - Females": 1288,
      "Households with no lighting  Houselisting and Housing Census Data Tables- District Level , Census of India__5": 2045,
      "Prevalence of Severe Anaemia  in percentage DLHS-4": 18.5,
      "Total unmet need for family planning in percentage DLHS-4": 12.8,
      "Main Workers Other - Males": 56663,
      "Children who received full vaccination in percentage DLHS-4": 59,
      "Marginal Workers Household Industry - Persons": 3842,
      "Primary Pupil-Teacher Ratio in percentage DISE": "NA",
      "Marginal Workers Agricultural Labourers worked for 3 - 6 moths during last year - Males": 9982,
      "Scheduled Caste Females": 144474,
      "Marginal Workers Cultivators - Males": 2980,
      "Marginal Workers - Males": 27265,
      "Marginal Workers worked for 0 - 3 moths during last year - Females": 4098,
      "Households with main source of drinking water within premises in percentage Houselisting and Housing Census Data Tables- District Level , Census of India": 76.62956092,
      "Marginal Workers Household Industry worked for 3 - 6 moths during last year - Persons": 2681,
      "Upper Primary Girl's Enrolment in percentage DISE": "NA",
      "Prevalence of Severe Anaemia in women aged 15-49years in percentage DLHS-4": 5.4,
      "Marginal Workers Agricultural Labourers worked for 0 - 3 moths during last year - Males": 2830,
      "Households with electricity as main source of lighting  Houselisting and Housing Census Data Tables- District Level , Census of India__3": 139125,
      "Households with computer or laptop with internet connection in percentage": 2.58,
      "PHCs functioning on a 24x7hours basis in percentage DLHS-4": "Not applicable",
      "Non Workers - Males": 180771,
      "Total Households in District Houselisting and Housing Census Data Tables- District Level , Census of India": 145530,
      "Upper Primary Schools with girls toilet in percentage DISE": "NA",
      "Households with mobile phone in percentage": 64.74,
      "Households receiving untreated tap water within premises in percentage Houselisting and Housing Census Data Tables- District Level , Census of India__2": 11.84223184,
      "Marginal Workers Cultivators worked for 3 - 6 moths during last year - Males": 2463,
      "Prevalence of Anaemia  in percentage DLHS-4": 79.4,
      "Prevalence of Chronic illness in percentage DLHS-4": 11.8,
      "Households with solar energy as main source of lighting in percentage Houselisting and Housing Census Data Tables- District Level , Census of India__1": 0.149797293,
      "Marginal Workers Agricultural Labourers worked for 0 - 3 moths during last year - Females": 1720,
      "Main Workers - Males": 197668,
      "Female": "NA",
      "Sno": 1414,
      "Marginal Workers Other worked for 3 - 6 moths during last year - Females": 7060,
      "Marginal Workers Cultivators worked for 0 - 3 moths during last year - Females": 484,
      "Scheduled Tribe Males": 0,
      "Male Illiterates": 144979,
      "Prevalence of Severe Anaemia in pregnant women aged 15-49years in percentage DLHS-4": 6.5,
      "0-6 Age Group Persons": 82614,
      "Upper Primary Student-Classroom Ratio in percentage DISE": "NA",
      "Currently married men married below 21years of age in percentage DLHS-4": 16.2,
      "Male Literates": 260725,
      "Households with no lighting in percentage Houselisting and Housing Census Data Tables- District Level , Census of India__2": 1.405208548,
      "Primary Drop Out Rate in percentage DISE": "NA",
      "Marginal Workers Household Industry - Males": 1373,
      "Female Illiterates": 155518,
      "Main Workers Other - Females": 17829,
      "Marginal Workers Cultivators - Persons": 4752,
      "Upper Primary Gross Enrolment Ratio in percentage DISE": "NA",
      "Scheduled Caste Persons": 307098,
      "Marginal Workers Cultivators worked for 3 - 6 moths during last year - Persons": 3751,
      "Households with landline phone in percentage": 5.09,
      "Total Households in District  Houselisting and Housing Census Data Tables- District Level , Census of India": 145530,
      "Upper Primary Pupil-Teacher Ratio in percentage DISE": "NA",
      "Primary Student-Classroom Ratio in percentage DISE": "NA",
      "Primary Schools with boys toilet in percentage DISE": "NA",
      "Mean number of children ever born to women aged 40-49years  DLHS-4": 3.2,
      "Households receiving untreated tap water within premises  Houselisting and Housing Census Data Tables- District Level , Census of India__5": 17234,
      "Marginal Workers Household Industry worked for 0 - 3 moths during last year - Persons": 1161,
      "Total Male Population": 405704,
      "Non Workers - Females": 313141,
      "Current use of family planning methods in percentage DLHS-4": 65.5,
      "Households with main source of drinking water within premises  Houselisting and Housing Census Data Tables- District Level , Census of India__3": 111519,
      "Main Workers Agricultural Labourers - Males": 54617,
      "Marginal Workers Other worked for 0 - 3 moths during last year - Persons": 2635,
      "Currently married women married below 18years of age in percentage DLHS-4": 4.6,
      "Person Illiterates": 300497,
      "Main Workers Household Industry - Females": 4263,
      "Female Literates": 207278,
      "Marginal Workers Cultivators worked for 0 - 3 moths during last year - Males": 517,
      "Male": "NA",
      "Households with improved source of drinking water in percentage DLHS-4": 95.1,
      "Upper Primary Schools with electricity in percentage DISE": "NA",
      "Households with electricity in percentage DLHS-4": 98.5,
      "Villages with Primary Health Centre within 10km in percentage DLHS-4": "Not applicable",
      "Births to women aged 15-19years out of Total births in percentage DLHS-4": 1.8,
      "Prevalence of Anaemia in women aged 15-49years in percentage DLHS-4": 59.3,
      "Marginal Workers Agricultural Labourers worked for 3 - 6 moths during last year - Persons": 13272,
      "Main Workers Household Industry - Males": 6516,
      "Scheduled Tribe Females": 0,
      "Marginal Workers worked for 0 - 3 moths during last year - Males": 5249,
      "Marginal Workers Other worked for 3 - 6 moths during last year - Males": 8561,
      "Primary Net Enrolment Ratio in percentage DISE": "NA",
      "Total": "NA",
      "Mean age at marriage for boys DLHS-4": 24.7,
      "Number of District Hospitals  DLHS-4": "Not applicable",
      "0-6 Age Group Females": 38263,
      "Marginal Workers Agricultural Labourers worked for 0 - 3 moths during last year - Persons": 4550,
      "Marginal Workers Household Industry worked for 0 - 3 moths during last year - Males": 363,
      "Total Workers  Females": 49655,
      "Marginal Workers worked for 3 - 6 moths during last year - Females": 13309,
      "Institutional Deliveries in percentage DLHS-4": 76.4,
      "Marginal Workers Other - Males": 10100,
      "Total Workers  Males": 224933,
      "Main Workers - Females": 32248,
      "Primary Gross Enrolment Ratio in percentage DISE": "NA",
      "Main Workers Cultivators - Persons": 83815,
      "Marginal Workers Household Industry worked for 0 - 3 moths during last year - Females": 798,
      "Upper Primary Net Enrolment Ratio in percentage DISE": "NA",
      "Primary New Government Schools since 2003 in percentage DISE": "NA",
      "Tier": "Rural",
      "Marginal Workers Household Industry - Females": 2469,
      "Primary Schools with electricity in percentage DISE": "NA",
      "Main Workers Other - Persons": 74492,
      "Marginal Workers Household Industry worked for 3 - 6 moths during last year - Females": 1671,
      "Main Workers Cultivators - Males": 79872,
      "Main Workers Household Industry - Persons": 10779,
      "Marginal Workers Cultivators worked for 0 - 3 moths during last year - Persons": 1001,
      "Scheduled Caste Males": 162624,
      "Marginal Workers - Persons": 44672,
      "Deliveries at home conducted by skilled health personnel in percentage DLHS-4": 21.3,
      "Villages with Sub-Health Centres within 3km in percentage DLHS-4": "Not applicable",
      "Upper Primary New Government Schools since 2003 in percentage DISE": "NA",
      "0-6 Age Group Males": 44351,
      "Primary Schools with drinking water facility in percentage DISE": "NA",
      "Non Workers - Persons": 493912,
      "Person Literates": 468003,
      "State": "PUNJAB",
      "Total Female Population": 362796,
      "Marginal Workers worked for 0 - 3 moths during last year - Persons": 9347,
      "Marginal Workers Cultivators - Females": 1772,
      "Marginal Workers Other - Persons": 18256,
      "Sex Ratio": 894,
      "Scheduled Tribe Persons": 0,
      "Marginal Workers Household Industry worked for 3 - 6 moths during last year - Males": 1010,
      "Marginal Workers Agricultural Labourers - Females": 5010,
      "Mean age at marriage for girls DLHS-4": 21,
      "Households with solar energy as main source of lighting  Houselisting and Housing Census Data Tables- District Level , Census of India__4": 218,
      "District": "MOGA",
      "Households receiving treated tap water within premises in percentage Houselisting and Housing Census Data Tables- District Level , Census of India__1": 17.32976019,
      "Total Workers  Persons": 274588,
      "Households receiving treated tap water within premises  Houselisting and Housing Census Data Tables- District Level , Census of India__4": 25220,
      "Primary Female Teachers in percentage DISE": "NA",
      "Number of Households": 147298,
      "Main Workers Agricultural Labourers - Persons": 60830
    }
  ],
  "Urban": [
    {
      "Marginal Workers Agricultural Labourers - Persons": 360,
      "Marginal Workers Other - Females": 3490,
      "Marginal Workers Other worked for 0 - 3 moths during last year - Females": 445,
      "Upper Primary Schools with boys toilet in percentage DISE": "NA",
      "Total Population": 227246,
      "Households with electricity as main source of lighting in percentage Houselisting and Housing Census Data Tables- District Level , Census of India": 96.87732505,
      "Primary Girl's Enrolment in percentage DISE": "NA",
      "Marginal Workers worked for 3 - 6 moths during last year - Males": 4529,
      "Prevalence of Acute illness in percentage DLHS-4": "Not available",
      "Main Workers - Persons": 74964,
      "Main Workers Cultivators - Females": 218,
      "Marginal Workers Agricultural Labourers worked for 3 - 6 moths during last year - Females": 68,
      "Marginal Workers Other worked for 0 - 3 moths during last year - Males": 842,
      "Upper Primary Schools with drinking water facility in percentage DISE": "NA",
      "Primary Schools with girls toilet in percentage DISE": "NA",
      "Marginal Workers worked for 3 - 6 moths during last year - Persons": 8046,
      "Upper Primary Drop Out Rate in percentage DISE": "NA",
      "Prevalence of Anaemia in pregnant women aged 15-49years in percentage DLHS-4": "Not available",
      "Current use of any modern method of family planning in percentage DLHS-4": "Not available",
      "Marginal Workers Agricultural Labourers - Males": 279,
      "Upper Primary Female Teachers in percentage DISE": "NA",
      "Marginal Workers - Females": 4132,
      "Marginal Workers Other worked for 3 - 6 moths during last year - Persons": 7024,
      "Main Workers Agricultural Labourers - Females": 450,
      "Marginal Workers Cultivators worked for 3 - 6 moths during last year - Females": 86,
      "Households with no lighting  Houselisting and Housing Census Data Tables- District Level , Census of India__5": 491,
      "Prevalence of Severe Anaemia  in percentage DLHS-4": "Not available",
      "Total unmet need for family planning in percentage DLHS-4": "Not available",
      "Main Workers Other - Males": 54454,
      "Children who received full vaccination in percentage DLHS-4": "Not available",
      "Marginal Workers Household Industry - Persons": 738,
      "Primary Pupil-Teacher Ratio in percentage DISE": "NA",
      "Marginal Workers Agricultural Labourers worked for 3 - 6 moths during last year - Males": 237,
      "Scheduled Caste Females": 26525,
      "Marginal Workers Cultivators - Males": 124,
      "Marginal Workers - Males": 5488,
      "Marginal Workers worked for 0 - 3 moths during last year - Females": 615,
      "Households with main source of drinking water within premises in percentage Houselisting and Housing Census Data Tables- District Level , Census of India": 88.42618933,
      "Marginal Workers Household Industry worked for 3 - 6 moths during last year - Persons": 515,
      "Upper Primary Girl's Enrolment in percentage DISE": "NA",
      "Prevalence of Severe Anaemia in women aged 15-49years in percentage DLHS-4": "Not available",
      "Marginal Workers Agricultural Labourers worked for 0 - 3 moths during last year - Males": 42,
      "Households with electricity as main source of lighting  Houselisting and Housing Census Data Tables- District Level , Census of India__3": 44271,
      "Households with computer or laptop with internet connection in percentage": 9.06,
      "PHCs functioning on a 24x7hours basis in percentage DLHS-4": 0,
      "Non Workers - Males": 52770,
      "Total Households in District Houselisting and Housing Census Data Tables- District Level , Census of India": 45698,
      "Upper Primary Schools with girls toilet in percentage DISE": "NA",
      "Households with mobile phone in percentage": 63.12,
      "Households receiving untreated tap water within premises in percentage Houselisting and Housing Census Data Tables- District Level , Census of India__2": 14.82997068,
      "Marginal Workers Cultivators worked for 3 - 6 moths during last year - Males": 116,
      "Prevalence of Anaemia  in percentage DLHS-4": "Not available",
      "Prevalence of Chronic illness in percentage DLHS-4": "Not available",
      "Households with solar energy as main source of lighting in percentage Houselisting and Housing Census Data Tables- District Level , Census of India__1": 0.081,
      "Marginal Workers Agricultural Labourers worked for 0 - 3 moths during last year - Females": 13,
      "Main Workers - Males": 61958,
      "Female": "NA",
      "Sno": 1416,
      "Marginal Workers Other worked for 3 - 6 moths during last year - Females": 3045,
      "Marginal Workers Cultivators worked for 0 - 3 moths during last year - Females": 1,
      "Scheduled Tribe Males": 0,
      "Male Illiterates": 32392,
      "Prevalence of Severe Anaemia in pregnant women aged 15-49years in percentage DLHS-4": "Not available",
      "0-6 Age Group Persons": 24722,
      "Upper Primary Student-Classroom Ratio in percentage DISE": "NA",
      "Currently married men married below 21years of age in percentage DLHS-4": "Not available",
      "Male Literates": 87824,
      "Households with no lighting in percentage Houselisting and Housing Census Data Tables- District Level , Census of India__2": 1.074445271,
      "Primary Drop Out Rate in percentage DISE": "NA",
      "Marginal Workers Household Industry - Males": 264,
      "Female Illiterates": 34968,
      "Main Workers Other - Females": 11542,
      "Marginal Workers Cultivators - Persons": 211,
      "Upper Primary Gross Enrolment Ratio in percentage DISE": "NA",
      "Scheduled Caste Persons": 56319,
      "Marginal Workers Cultivators worked for 3 - 6 moths during last year - Persons": 202,
      "Households with landline phone in percentage": 5.91,
      "Total Households in District  Houselisting and Housing Census Data Tables- District Level , Census of India": 45698,
      "Upper Primary Pupil-Teacher Ratio in percentage DISE": "NA",
      "Primary Student-Classroom Ratio in percentage DISE": "NA",
      "Primary Schools with boys toilet in percentage DISE": "NA",
      "Mean number of children ever born to women aged 40-49years  DLHS-4": "Not available",
      "Households receiving untreated tap water within premises  Houselisting and Housing Census Data Tables- District Level , Census of India__5": 6777,
      "Marginal Workers Household Industry worked for 0 - 3 moths during last year - Persons": 223,
      "Total Male Population": 120216,
      "Non Workers - Females": 89892,
      "Current use of family planning methods in percentage DLHS-4": "Not available",
      "Households with main source of drinking water within premises  Houselisting and Housing Census Data Tables- District Level , Census of India__3": 40409,
      "Main Workers Agricultural Labourers - Males": 2935,
      "Marginal Workers Other worked for 0 - 3 moths during last year - Persons": 1287,
      "Currently married women married below 18years of age in percentage DLHS-4": "Not available",
      "Person Illiterates": 67360,
      "Main Workers Household Industry - Females": 796,
      "Female Literates": 72062,
      "Marginal Workers Cultivators worked for 0 - 3 moths during last year - Males": 8,
      "Male": "NA",
      "Households with improved source of drinking water in percentage DLHS-4": "Not available",
      "Upper Primary Schools with electricity in percentage DISE": "NA",
      "Households with electricity in percentage DLHS-4": "Not available",
      "Villages with Primary Health Centre within 10km in percentage DLHS-4": 0,
      "Births to women aged 15-19years out of Total births in percentage DLHS-4": "Not available",
      "Prevalence of Anaemia in women aged 15-49years in percentage DLHS-4": "Not available",
      "Marginal Workers Agricultural Labourers worked for 3 - 6 moths during last year - Persons": 305,
      "Main Workers Household Industry - Males": 1943,
      "Scheduled Tribe Females": 0,
      "Marginal Workers worked for 0 - 3 moths during last year - Males": 959,
      "Marginal Workers Other worked for 3 - 6 moths during last year - Males": 3979,
      "Primary Net Enrolment Ratio in percentage DISE": "NA",
      "Total": "NA",
      "Mean age at marriage for boys DLHS-4": "Not available",
      "Number of District Hospitals  DLHS-4": 0,
      "0-6 Age Group Females": 11379,
      "Marginal Workers Agricultural Labourers worked for 0 - 3 moths during last year - Persons": 55,
      "Marginal Workers Household Industry worked for 0 - 3 moths during last year - Males": 67,
      "Total Workers  Females": 17138,
      "Marginal Workers worked for 3 - 6 moths during last year - Females": 3517,
      "Institutional Deliveries in percentage DLHS-4": "Not available",
      "Marginal Workers Other - Males": 4821,
      "Total Workers  Males": 67446,
      "Main Workers - Females": 13006,
      "Primary Gross Enrolment Ratio in percentage DISE": "NA",
      "Main Workers Cultivators - Persons": 2844,
      "Marginal Workers Household Industry worked for 0 - 3 moths during last year - Females": 156,
      "Upper Primary Net Enrolment Ratio in percentage DISE": "NA",
      "Primary New Government Schools since 2003 in percentage DISE": "NA",
      "Tier": "Urban",
      "Marginal Workers Household Industry - Females": 474,
      "Primary Schools with electricity in percentage DISE": "NA",
      "Main Workers Other - Persons": 65996,
      "Marginal Workers Household Industry worked for 3 - 6 moths during last year - Females": 318,
      "Main Workers Cultivators - Males": 2626,
      "Main Workers Household Industry - Persons": 2739,
      "Marginal Workers Cultivators worked for 0 - 3 moths during last year - Persons": 9,
      "Scheduled Caste Males": 29794,
      "Marginal Workers - Persons": 9620,
      "Deliveries at home conducted by skilled health personnel in percentage DLHS-4": "Not available",
      "Villages with Sub-Health Centres within 3km in percentage DLHS-4": 0,
      "Upper Primary New Government Schools since 2003 in percentage DISE": "NA",
      "0-6 Age Group Males": 13343,
      "Primary Schools with drinking water facility in percentage DISE": "NA",
      "Non Workers - Persons": 142662,
      "Person Literates": 159886,
      "State": "PUNJAB",
      "Total Female Population": 107030,
      "Marginal Workers worked for 0 - 3 moths during last year - Persons": 1574,
      "Marginal Workers Cultivators - Females": 87,
      "Marginal Workers Other - Persons": 8311,
      "Sex Ratio": 890,
      "Scheduled Tribe Persons": 0,
      "Marginal Workers Household Industry worked for 3 - 6 moths during last year - Males": 197,
      "Marginal Workers Agricultural Labourers - Females": 81,
      "Mean age at marriage for girls DLHS-4": "Not available",
      "Households with solar energy as main source of lighting  Houselisting and Housing Census Data Tables- District Level , Census of India__4": 37,
      "District": "MOGA",
      "Households receiving treated tap water within premises in percentage Houselisting and Housing Census Data Tables- District Level , Census of India__1": 53.37651538,
      "Total Workers  Persons": 84584,
      "Households receiving treated tap water within premises  Houselisting and Housing Census Data Tables- District Level , Census of India__4": 24392,
      "Primary Female Teachers in percentage DISE": "NA",
      "Number of Households": 45958,
      "Main Workers Agricultural Labourers - Persons": 3385
    }
  ]
}