{
  "Marginal Workers Agricultural Labourers - Persons": "15912",
  "Marginal Workers Agricultural Labourers worked for 3 - 6 moths during last year - Females": "7851",
  "Main Workers - Females": "177612",
  "Total Population": "1383727",
  "Households with electricity as main source of lighting in percentage Houselisting and Housing Census Data Tables- District Level , Census of India": "1027",
  "Primary Girl's Enrolment in percentage DISE": "49.69",
  "Marginal Workers worked for 3 - 6 moths during last year - Males": "2521.38",
  "Prevalence of Acute illness in percentage DLHS-4": "18.24",
  "Main Workers - Persons": "478721",
  "Main Workers Cultivators - Females": "118112",
  "Marginal Workers Other worked for 0 - 3 moths during last year - Males": "2708",
  "Marginal Workers Cultivators worked for 3 - 6 moths during last year - Persons": "43835",
  "Currently married women married below 18years of age in percentage DLHS-4": "14.58",
  "Primary Schools with girls toilet in percentage DISE": "71.25",
  "Marginal Workers worked for 3 - 6 moths during last year - Persons": "89305",
  "Upper Primary Drop Out Rate in percentage DISE": "7.91",
  "Prevalence of Anaemia in pregnant women aged 15-49years in percentage DLHS-4": "61.21",
  "Current use of any modern method of family planning in percentage DLHS-4": "43.13",
  "Marginal Workers Other - Males": "18477",
  "Upper Primary Female Teachers in percentage DISE": "42.50",
  "Marginal Workers - Females": "59772",
  "Marginal Workers Household Industry - Persons": "227.31",
  "Marginal Workers Cultivators worked for 3 - 6 moths during last year - Females": "25342",
  "Households with no lighting  Houselisting and Housing Census Data Tables- District Level , Census of India__5": "27367",
  "Mean age at marriage for girls DLHS-4": "21.32",
  "Total unmet need for family planning in percentage DLHS-4": "32.97",
  "Marginal Workers Other - Females": "16307",
  "Children who received full vaccination in percentage DLHS-4": "47.91",
  "Households with main source of drinking water within premises  Houselisting and Housing Census Data Tables- District Level , Census of India__3": "107429",
  "Primary Pupil-Teacher Ratio in percentage DISE": "15.88",
  "Marginal Workers Agricultural Labourers worked for 3 - 6 moths during last year - Males": "5097",
  "Marginal Workers worked for 0 - 3 moths during last year - Persons": "19631",
  "Scheduled Caste Females": "0",
  "Marginal Workers Cultivators - Males": "22855",
  "Marginal Workers Agricultural Labourers - Males": "403.50",
  "Marginal Workers worked for 0 - 3 moths during last year - Females": "675.56",
  "Households with main source of drinking water within premises in percentage Houselisting and Housing Census Data Tables- District Level , Census of India": "39.00",
  "Marginal Workers worked for 0 - 3 moths during last year - Males": "8822",
  "Female Literates": "326137",
  "working population": "N/A",
  "Upper Primary Girl's Enrolment in percentage DISE": "74.76",
  "Prevalence of Severe Anaemia in women aged 15-49years in percentage DLHS-4": "4.11",
  "Marginal Workers Agricultural Labourers worked for 0 - 3 moths during last year - Males": "1359",
  "Marginal Workers Household Industry worked for 0 - 3 moths during last year - Males": "393",
  "Marginal Workers Household Industry - Females": "2261",
  "Current use of family planning methods in percentage DLHS-4": "48.08",
  "Non Workers - Males": "363639",
  "Total Households in District Houselisting and Housing Census Data Tables- District Level , Census of India": "261614",
  "Upper Primary Schools with girls toilet in percentage DISE": "75.00",
  "Primary Schools with drinking water facility in percentage DISE": "76.92",
  "Upper Primary Schools with boys toilet in percentage DISE": "0.00",
  "Households receiving untreated tap water within premises in percentage Houselisting and Housing Census Data Tables- District Level , Census of India__2": "285",
  "Marginal Workers Cultivators worked for 3 - 6 moths during last year - Males": "18493",
  "Prevalence of Anaemia  in percentage DLHS-4": "63.97",
  "Prevalence of Chronic illness in percentage DLHS-4": "7.61",
  "Households with solar energy as main source of lighting in percentage Houselisting and Housing Census Data Tables- District Level , Census of India__1": "80",
  "Marginal Workers Agricultural Labourers worked for 0 - 3 moths during last year - Females": "100.31",
  "Female": "894",
  "Total Male Population": "713912",
  "Marginal Workers Cultivators worked for 0 - 3 moths during last year - Females": "6406",
  "Scheduled Tribe Males": "468390",
  "Male Illiterates": "274044",
  "Prevalence of Severe Anaemia in pregnant women aged 15-49years in percentage DLHS-4": "5.16",
  "0-6 Age Group Persons": "212188",
  "Marginal Workers - Persons": "108936",
  "Currently married men married below 21years of age in percentage DLHS-4": "19.20",
  "Male Literates": "439868",
  "Households with improved source of drinking water in percentage DLHS-4": "1447",
  "Primary Drop Out Rate in percentage DISE": "13.69",
  "Marginal Workers Household Industry - Males": "1376",
  "Female Illiterates": "343678",
  "Main Workers Other - Females": "3075.38",
  "Upper Primary Gross Enrolment Ratio in percentage DISE": "93.07",
  "Scheduled Caste Persons": "0.00",
  "Upper Primary Schools with electricity in percentage DISE": "780",
  "Number of Households": "270577",
  "Marginal Workers - Males": "49164",
  "Total Households in District  Houselisting and Housing Census Data Tables- District Level , Census of India": "261614",
  "Upper Primary Pupil-Teacher Ratio in percentage DISE": "10.00",
  "Primary Student-Classroom Ratio in percentage DISE": "10.38",
  "Primary Schools with boys toilet in percentage DISE": "38.96",
  "Mean number of children ever born to women aged 40-49years  DLHS-4": "3.86",
  "Households receiving untreated tap water within premises  Houselisting and Housing Census Data Tables- District Level , Census of India__5": "42274",
  "Marginal Workers Household Industry worked for 0 - 3 moths during last year - Persons": "1023",
  "Marginal Workers Household Industry worked for 3 - 6 moths during last year - Persons": "163.38",
  "sexratio": "N/A",
  "Marginal Workers Cultivators - Persons": "3412.69",
  "Marginal Workers Other worked for 3 - 6 moths during last year - Females": "14139",
  "Main Workers Agricultural Labourers - Males": "11921",
  "Upper Primary Schools with drinking water facility in percentage DISE": "72.19",
  "Main Workers Agricultural Labourers - Persons": "20259",
  "Person Illiterates": "617722",
  "Main Workers Household Industry - Females": "1956",
  "Primary Net Enrolment Ratio in percentage DISE": "95.86",
  "Marginal Workers Cultivators worked for 0 - 3 moths during last year - Males": "4362",
  "Male": "1057",
  "Households with no lighting in percentage Houselisting and Housing Census Data Tables- District Level , Census of India__2": "179",
  "Main Workers Other - Males": "156408",
  "Marginal Workers Other worked for 3 - 6 moths during last year - Persons": "1869.25",
  "Households with electricity in percentage DLHS-4": "1335",
  "Villages with Primary Health Centre within 10km in percentage DLHS-4": "60.67",
  "Births to women aged 15-19years out of Total births in percentage DLHS-4": "4.12",
  "Prevalence of Anaemia in women aged 15-49years in percentage DLHS-4": "56.39",
  "Main Workers Household Industry - Males": "173.25",
  "Scheduled Tribe Females": "483431",
  "PHCs functioning on a 24x7hours basis in percentage DLHS-4": "76.71",
  "Marginal Workers Other worked for 3 - 6 moths during last year - Males": "15769",
  "Marginal Workers Other worked for 0 - 3 moths during last year - Females": "2168",
  "Households with computer/laptop with internet connection in percentage": "N/A",
  "enrollment rate of education": "N/A",
  "Mean age at marriage for boys DLHS-4": "24.56",
  "Number of District Hospitals  DLHS-4": "15",
  "0-6 Age Group Females": "6535.25",
  "Total": "1021",
  "Households with electricity as main source of lighting  Houselisting and Housing Census Data Tables- District Level , Census of India__3": "171821",
  "Total Workers  Females": "237384",
  "Marginal Workers Agricultural Labourers worked for 0 - 3 moths during last year - Persons": "2964",
  "Marginal Workers worked for 3 - 6 moths during last year - Females": "48963",
  "Institutional Deliveries in percentage DLHS-4": "46.82",
  "Upper Primary Net Enrolment Ratio in percentage DISE": "72.28",
  "Marginal Workers Agricultural Labourers worked for 3 - 6 moths during last year - Persons": "12948",
  "Total Workers  Males": "350273",
  "Primary Gross Enrolment Ratio in percentage DISE": "131.22",
  "Main Workers Cultivators - Persons": "248120",
  "Marginal Workers Household Industry worked for 0 - 3 moths during last year - Females": "630",
  "Households with landline phone in percentage": "46",
  "Primary New Government Schools since 2003 in percentage DISE": "57.59",
  "Tier": "N/A",
  "Households with mobile phone in percentage": "592",
  "Primary Schools with electricity in percentage DISE": "17.78",
  "Main Workers Other - Persons": "12850.88",
  "Marginal Workers Household Industry worked for 3 - 6 moths during last year - Females": "1631",
  "Households receiving treated tap water within premises in percentage Houselisting and Housing Census Data Tables- District Level , Census of India__1": "243",
  "Main Workers Agricultural Labourers - Females": "8338",
  "Marginal Workers Cultivators worked for 0 - 3 moths during last year - Persons": "10768",
  "Scheduled Caste Males": "0",
  "Marginal Workers Other worked for 0 - 3 moths during last year - Persons": "4876",
  "Deliveries at home conducted by skilled health personnel in percentage DLHS-4": "3.11",
  "Villages with Sub-Health Centres within 3km in percentage DLHS-4": "59.13",
  "Upper Primary New Government Schools since 2003 in percentage DISE": "73.96",
  "0-6 Age Group Males": "107624",
  "Non Workers - Females": "432431",
  "Non Workers - Persons": "796070",
  "Person Literates": "766005",
  "enrolment rate": "N/A",
  "State": "N/A",
  "Main Workers - Males": "301109",
  "Total Female Population": "669815",
  "Marginal Workers Cultivators - Females": "1984.25",
  "Marginal Workers Other - Persons": "2174.00",
  "Sex Ratio": "912.33",
  "Scheduled Tribe Persons": "951821",
  "Marginal Workers Household Industry worked for 3 - 6 moths during last year - Males": "61.44",
  "Marginal Workers Agricultural Labourers - Females": "9456",
  "Prevalence of Severe Anaemia  in percentage DLHS-4": "5.40",
  "Upper Primary Student-Classroom Ratio in percentage DISE": "20.06",
  "Main Workers Household Industry - Persons": "295.50",
  "Households with solar energy as main source of lighting  Houselisting and Housing Census Data Tables- District Level , Census of India__4": "7597",
  "District": "N/A",
  "Main Workers Cultivators - Males": "130008",
  "Total Workers  Persons": "587657",
  "Households receiving treated tap water within premises  Houselisting and Housing Census Data Tables- District Level , Census of India__4": "41146",
  "Primary Female Teachers in percentage DISE": "38.03"
}