{
  "Total": [
    {
      "Marginal Workers Agricultural Labourers - Persons": 55,
      "Marginal Workers Other - Females": 142,
      "Marginal Workers Other worked for 0 - 3 moths during last year - Females": 46,
      "Upper Primary Schools with boys toilet in percentage DISE": 0,
      "Total Population": 8004,
      "Households with electricity as main source of lighting in percentage Houselisting and Housing Census Data Tables- District Level , Census of India": 57.40245858,
      "Primary Girl's Enrolment in percentage DISE": 47.7,
      "Marginal Workers worked for 3 - 6 moths during last year - Males": 455,
      "Prevalence of Acute illness in percentage DLHS-4": 15.2,
      "Main Workers - Persons": 2525,
      "Main Workers Cultivators - Females": 374,
      "Marginal Workers Agricultural Labourers worked for 3 - 6 moths during last year - Females": 15,
      "Marginal Workers Other worked for 0 - 3 moths during last year - Males": 61,
      "Upper Primary Schools with drinking water facility in percentage DISE": 0,
      "Primary Schools with girls toilet in percentage DISE": 48.6,
      "Marginal Workers worked for 3 - 6 moths during last year - Persons": 779,
      "Upper Primary Drop Out Rate in percentage DISE": 14.22,
      "Prevalence of Anaemia in pregnant women aged 15-49years in percentage DLHS-4": 58.5,
      "Current use of any modern method of family planning in percentage DLHS-4": 44.3,
      "Marginal Workers Agricultural Labourers - Males": 36,
      "Upper Primary Female Teachers in percentage DISE": 0,
      "Marginal Workers - Females": 444,
      "Marginal Workers Other worked for 3 - 6 moths during last year - Persons": 334,
      "Main Workers Agricultural Labourers - Females": 6,
      "Marginal Workers Cultivators worked for 3 - 6 moths during last year - Females": 183,
      "Households with no lighting  Houselisting and Housing Census Data Tables- District Level , Census of India__5": 307,
      "Prevalence of Severe Anaemia  in percentage DLHS-4": 2.3,
      "Total unmet need for family planning in percentage DLHS-4": 34.7,
      "Main Workers Other - Males": 1150,
      "Children who received full vaccination in percentage DLHS-4": 58.5,
      "Marginal Workers Household Industry - Persons": 51,
      "Primary Pupil-Teacher Ratio in percentage DISE": 9,
      "Marginal Workers Agricultural Labourers worked for 3 - 6 moths during last year - Males": 32,
      "Scheduled Caste Females": 0,
      "Marginal Workers Cultivators - Males": 234,
      "Marginal Workers - Males": 586,
      "Marginal Workers worked for 0 - 3 moths during last year - Females": 120,
      "Households with main source of drinking water within premises in percentage Houselisting and Housing Census Data Tables- District Level , Census of India": 49.81293426,
      "Marginal Workers Household Industry worked for 3 - 6 moths during last year - Persons": 43,
      "Upper Primary Girl's Enrolment in percentage DISE": 0,
      "Prevalence of Severe Anaemia in women aged 15-49years in percentage DLHS-4": 1.2,
      "Marginal Workers Agricultural Labourers worked for 0 - 3 moths during last year - Males": 4,
      "Households with electricity as main source of lighting  Houselisting and Housing Census Data Tables- District Level , Census of India__3": 1074,
      "Households with computer or laptop with internet connection in percentage": 0.91,
      "PHCs functioning on a 24x7hours basis in percentage DLHS-4": 100,
      "Non Workers - Males": 2186,
      "Total Households in District Houselisting and Housing Census Data Tables- District Level , Census of India": 1871,
      "Upper Primary Schools with girls toilet in percentage DISE": 0,
      "Households with mobile phone in percentage": 35.38,
      "Households receiving untreated tap water within premises in percentage Houselisting and Housing Census Data Tables- District Level , Census of India__2": 38.53554249,
      "Marginal Workers Cultivators worked for 3 - 6 moths during last year - Males": 172,
      "Prevalence of Anaemia  in percentage DLHS-4": 53.5,
      "Prevalence of Chronic illness in percentage DLHS-4": 7.5,
      "Households with solar energy as main source of lighting in percentage Houselisting and Housing Census Data Tables- District Level , Census of India__1": 11.38428648,
      "Marginal Workers Agricultural Labourers worked for 0 - 3 moths during last year - Females": 4,
      "Main Workers - Males": 1642,
      "Female": 59.16,
      "Sno": 56,
      "Marginal Workers Other worked for 3 - 6 moths during last year - Females": 96,
      "Marginal Workers Cultivators worked for 0 - 3 moths during last year - Females": 66,
      "Scheduled Tribe Males": 2850,
      "Male Illiterates": 1800,
      "Prevalence of Severe Anaemia in pregnant women aged 15-49years in percentage DLHS-4": 1.5,
      "0-6 Age Group Persons": 1084,
      "Upper Primary Student-Classroom Ratio in percentage DISE": 0,
      "Currently married men married below 21years of age in percentage DLHS-4": 11.7,
      "Male Literates": 2614,
      "Households with no lighting in percentage Houselisting and Housing Census Data Tables- District Level , Census of India__2": 16.40833779,
      "Primary Drop Out Rate in percentage DISE": 7.7,
      "Marginal Workers Household Industry - Males": 17,
      "Female Illiterates": 1768,
      "Main Workers Other - Females": 500,
      "Marginal Workers Cultivators - Persons": 483,
      "Upper Primary Gross Enrolment Ratio in percentage DISE": 77,
      "Scheduled Caste Persons": 0,
      "Marginal Workers Cultivators worked for 3 - 6 moths during last year - Persons": 355,
      "Households with landline phone in percentage": 3.21,
      "Total Households in District  Houselisting and Housing Census Data Tables- District Level , Census of India": 1871,
      "Upper Primary Pupil-Teacher Ratio in percentage DISE": 10,
      "Primary Student-Classroom Ratio in percentage DISE": 9,
      "Primary Schools with boys toilet in percentage DISE": 48.6,
      "Mean number of children ever born to women aged 40-49years  DLHS-4": 4.2,
      "Households receiving untreated tap water within premises  Houselisting and Housing Census Data Tables- District Level , Census of India__5": 721,
      "Marginal Workers Household Industry worked for 0 - 3 moths during last year - Persons": 8,
      "Total Male Population": 4414,
      "Non Workers - Females": 2263,
      "Current use of family planning methods in percentage DLHS-4": 45.4,
      "Households with main source of drinking water within premises  Houselisting and Housing Census Data Tables- District Level , Census of India__3": 932,
      "Main Workers Agricultural Labourers - Males": 45,
      "Marginal Workers Other worked for 0 - 3 moths during last year - Persons": 107,
      "Currently married women married below 18years of age in percentage DLHS-4": 5.7,
      "Person Illiterates": 3568,
      "Main Workers Household Industry - Females": 3,
      "Female Literates": 1822,
      "Marginal Workers Cultivators worked for 0 - 3 moths during last year - Males": 62,
      "Male": 68.07,
      "Households with improved source of drinking water in percentage DLHS-4": 97.7,
      "Upper Primary Schools with electricity in percentage DISE": 0,
      "Households with electricity in percentage DLHS-4": 96,
      "Villages with Primary Health Centre within 10km in percentage DLHS-4": 46.7,
      "Births to women aged 15-19years out of Total births in percentage DLHS-4": 3.1,
      "Prevalence of Anaemia in women aged 15-49years in percentage DLHS-4": 38.2,
      "Marginal Workers Agricultural Labourers worked for 3 - 6 moths during last year - Persons": 47,
      "Main Workers Household Industry - Males": 14,
      "Scheduled Tribe Females": 2851,
      "Marginal Workers worked for 0 - 3 moths during last year - Males": 131,
      "Marginal Workers Other worked for 3 - 6 moths during last year - Males": 238,
      "Primary Net Enrolment Ratio in percentage DISE": 100,
      "Total": 64.1,
      "Mean age at marriage for boys DLHS-4": 25.5,
      "Number of District Hospitals  DLHS-4": 1,
      "0-6 Age Group Females": 510,
      "Marginal Workers Agricultural Labourers worked for 0 - 3 moths during last year - Persons": 8,
      "Marginal Workers Household Industry worked for 0 - 3 moths during last year - Males": 4,
      "Total Workers  Females": 1327,
      "Marginal Workers worked for 3 - 6 moths during last year - Females": 324,
      "Institutional Deliveries in percentage DLHS-4": 52.5,
      "Marginal Workers Other - Males": 299,
      "Total Workers  Males": 2228,
      "Main Workers - Females": 883,
      "Primary Gross Enrolment Ratio in percentage DISE": 108.7,
      "Main Workers Cultivators - Persons": 807,
      "Marginal Workers Household Industry worked for 0 - 3 moths during last year - Females": 4,
      "Upper Primary Net Enrolment Ratio in percentage DISE": 68,
      "Primary New Government Schools since 2003 in percentage DISE": 47.1,
      "Tier": "Total",
      "Marginal Workers Household Industry - Females": 34,
      "Primary Schools with electricity in percentage DISE": 20,
      "Main Workers Other - Persons": 1650,
      "Marginal Workers Household Industry worked for 3 - 6 moths during last year - Females": 30,
      "Main Workers Cultivators - Males": 433,
      "Main Workers Household Industry - Persons": 17,
      "Marginal Workers Cultivators worked for 0 - 3 moths during last year - Persons": 128,
      "Scheduled Caste Males": 0,
      "Marginal Workers - Persons": 1030,
      "Deliveries at home conducted by skilled health personnel in percentage DLHS-4": 3.4,
      "Villages with Sub-Health Centres within 3km in percentage DLHS-4": 40,
      "Upper Primary New Government Schools since 2003 in percentage DISE": 0,
      "0-6 Age Group Males": 574,
      "Primary Schools with drinking water facility in percentage DISE": 100,
      "Non Workers - Persons": 4449,
      "Person Literates": 4436,
      "State": "ARUNACHAL PRADESH",
      "Total Female Population": 3590,
      "Marginal Workers worked for 0 - 3 moths during last year - Persons": 251,
      "Marginal Workers Cultivators - Females": 249,
      "Marginal Workers Other - Persons": 441,
      "Sex Ratio": 813,
      "Scheduled Tribe Persons": 5701,
      "Marginal Workers Household Industry worked for 3 - 6 moths during last year - Males": 13,
      "Marginal Workers Agricultural Labourers - Females": 19,
      "Mean age at marriage for girls DLHS-4": 22.4,
      "Households with solar energy as main source of lighting  Houselisting and Housing Census Data Tables- District Level , Census of India__4": 213,
      "District": "DIBANG VALLEY",
      "Households receiving treated tap water within premises in percentage Houselisting and Housing Census Data Tables- District Level , Census of India__1": 10.90326029,
      "Total Workers  Persons": 3555,
      "Households receiving treated tap water within premises  Houselisting and Housing Census Data Tables- District Level , Census of India__4": 204,
      "Primary Female Teachers in percentage DISE": 45,
      "Number of Households": 1952,
      "Main Workers Agricultural Labourers - Persons": 51
    }
  ],
  "Rural": [
    {
      "Marginal Workers Agricultural Labourers - Persons": 47,
      "Marginal Workers Other - Females": 94,
      "Marginal Workers Other worked for 0 - 3 moths during last year - Females": 20,
      "Upper Primary Schools with boys toilet in percentage DISE": "NA",
      "Total Population": 5620,
      "Households with electricity as main source of lighting in percentage Houselisting and Housing Census Data Tables- District Level , Census of India": 40.40092521,
      "Primary Girl's Enrolment in percentage DISE": "NA",
      "Marginal Workers worked for 3 - 6 moths during last year - Males": 358,
      "Prevalence of Acute illness in percentage DLHS-4": 15.2,
      "Main Workers - Persons": 1819,
      "Main Workers Cultivators - Females": 371,
      "Marginal Workers Agricultural Labourers worked for 3 - 6 moths during last year - Females": 15,
      "Marginal Workers Other worked for 0 - 3 moths during last year - Males": 38,
      "Upper Primary Schools with drinking water facility in percentage DISE": "NA",
      "Primary Schools with girls toilet in percentage DISE": "NA",
      "Marginal Workers worked for 3 - 6 moths during last year - Persons": 621,
      "Upper Primary Drop Out Rate in percentage DISE": "NA",
      "Prevalence of Anaemia in pregnant women aged 15-49years in percentage DLHS-4": 58.5,
      "Current use of any modern method of family planning in percentage DLHS-4": 44.3,
      "Marginal Workers Agricultural Labourers - Males": 29,
      "Upper Primary Female Teachers in percentage DISE": "NA",
      "Marginal Workers - Females": 356,
      "Marginal Workers Other worked for 3 - 6 moths during last year - Persons": 247,
      "Main Workers Agricultural Labourers - Females": 5,
      "Marginal Workers Cultivators worked for 3 - 6 moths during last year - Females": 162,
      "Households with no lighting  Houselisting and Housing Census Data Tables- District Level , Census of India__5": 307,
      "Prevalence of Severe Anaemia  in percentage DLHS-4": 2.3,
      "Total unmet need for family planning in percentage DLHS-4": 34.7,
      "Main Workers Other - Males": 682,
      "Children who received full vaccination in percentage DLHS-4": 58.5,
      "Marginal Workers Household Industry - Persons": 29,
      "Primary Pupil-Teacher Ratio in percentage DISE": "NA",
      "Marginal Workers Agricultural Labourers worked for 3 - 6 moths during last year - Males": 25,
      "Scheduled Caste Females": 0,
      "Marginal Workers Cultivators - Males": 212,
      "Marginal Workers - Males": 465,
      "Marginal Workers worked for 0 - 3 moths during last year - Females": 93,
      "Households with main source of drinking water within premises in percentage Houselisting and Housing Census Data Tables- District Level , Census of India": 40.16962221,
      "Marginal Workers Household Industry worked for 3 - 6 moths during last year - Persons": 22,
      "Upper Primary Girl's Enrolment in percentage DISE": "NA",
      "Prevalence of Severe Anaemia in women aged 15-49years in percentage DLHS-4": 1.2,
      "Marginal Workers Agricultural Labourers worked for 0 - 3 moths during last year - Males": 4,
      "Households with electricity as main source of lighting  Houselisting and Housing Census Data Tables- District Level , Census of India__3": 524,
      "Households with computer or laptop with internet connection in percentage": 0.54,
      "PHCs functioning on a 24x7hours basis in percentage DLHS-4": "Not applicable",
      "Non Workers - Males": 1482,
      "Total Households in District Houselisting and Housing Census Data Tables- District Level , Census of India": 1297,
      "Upper Primary Schools with girls toilet in percentage DISE": "NA",
      "Households with mobile phone in percentage": 24.52,
      "Households receiving untreated tap water within premises in percentage Houselisting and Housing Census Data Tables- District Level , Census of India__2": 30.76329992,
      "Marginal Workers Cultivators worked for 3 - 6 moths during last year - Males": 150,
      "Prevalence of Anaemia  in percentage DLHS-4": 53.5,
      "Prevalence of Chronic illness in percentage DLHS-4": 7.5,
      "Households with solar energy as main source of lighting in percentage Houselisting and Housing Census Data Tables- District Level , Census of India__1": 16.42251349,
      "Marginal Workers Agricultural Labourers worked for 0 - 3 moths during last year - Females": 3,
      "Main Workers - Males": 1151,
      "Female": "NA",
      "Sno": 55,
      "Marginal Workers Other worked for 3 - 6 moths during last year - Females": 74,
      "Marginal Workers Cultivators worked for 0 - 3 moths during last year - Females": 66,
      "Scheduled Tribe Males": 2285,
      "Male Illiterates": 1511,
      "Prevalence of Severe Anaemia in pregnant women aged 15-49years in percentage DLHS-4": 1.5,
      "0-6 Age Group Persons": 775,
      "Upper Primary Student-Classroom Ratio in percentage DISE": "NA",
      "Currently married men married below 21years of age in percentage DLHS-4": 11.7,
      "Male Literates": 1587,
      "Households with no lighting in percentage Houselisting and Housing Census Data Tables- District Level , Census of India__2": 23.67000771,
      "Primary Drop Out Rate in percentage DISE": "NA",
      "Marginal Workers Household Industry - Males": 13,
      "Female Illiterates": 1417,
      "Main Workers Other - Females": 290,
      "Marginal Workers Cultivators - Persons": 440,
      "Upper Primary Gross Enrolment Ratio in percentage DISE": "NA",
      "Scheduled Caste Persons": 0,
      "Marginal Workers Cultivators worked for 3 - 6 moths during last year - Persons": 312,
      "Households with landline phone in percentage": 2.08,
      "Total Households in District  Houselisting and Housing Census Data Tables- District Level , Census of India": 1297,
      "Upper Primary Pupil-Teacher Ratio in percentage DISE": "NA",
      "Primary Student-Classroom Ratio in percentage DISE": "NA",
      "Primary Schools with boys toilet in percentage DISE": "NA",
      "Mean number of children ever born to women aged 40-49years  DLHS-4": 4.2,
      "Households receiving untreated tap water within premises  Houselisting and Housing Census Data Tables- District Level , Census of India__5": 399,
      "Marginal Workers Household Industry worked for 0 - 3 moths during last year - Persons": 7,
      "Total Male Population": 3098,
      "Non Workers - Females": 1498,
      "Current use of family planning methods in percentage DLHS-4": 45.4,
      "Households with main source of drinking water within premises  Houselisting and Housing Census Data Tables- District Level , Census of India__3": 521,
      "Main Workers Agricultural Labourers - Males": 37,
      "Marginal Workers Other worked for 0 - 3 moths during last year - Persons": 58,
      "Currently married women married below 18years of age in percentage DLHS-4": 5.7,
      "Person Illiterates": 2928,
      "Main Workers Household Industry - Females": 2,
      "Female Literates": 1105,
      "Marginal Workers Cultivators worked for 0 - 3 moths during last year - Males": 62,
      "Male": "NA",
      "Households with improved source of drinking water in percentage DLHS-4": 97.7,
      "Upper Primary Schools with electricity in percentage DISE": "NA",
      "Households with electricity in percentage DLHS-4": 96,
      "Villages with Primary Health Centre within 10km in percentage DLHS-4": "Not applicable",
      "Births to women aged 15-19years out of Total births in percentage DLHS-4": 3.1,
      "Prevalence of Anaemia in women aged 15-49years in percentage DLHS-4": 38.2,
      "Marginal Workers Agricultural Labourers worked for 3 - 6 moths during last year - Persons": 40,
      "Main Workers Household Industry - Males": 5,
      "Scheduled Tribe Females": 2195,
      "Marginal Workers worked for 0 - 3 moths during last year - Males": 107,
      "Marginal Workers Other worked for 3 - 6 moths during last year - Males": 173,
      "Primary Net Enrolment Ratio in percentage DISE": "NA",
      "Total": "NA",
      "Mean age at marriage for boys DLHS-4": 25.5,
      "Number of District Hospitals  DLHS-4": "Not applicable",
      "0-6 Age Group Females": 366,
      "Marginal Workers Agricultural Labourers worked for 0 - 3 moths during last year - Persons": 7,
      "Marginal Workers Household Industry worked for 0 - 3 moths during last year - Males": 3,
      "Total Workers  Females": 1024,
      "Marginal Workers worked for 3 - 6 moths during last year - Females": 263,
      "Institutional Deliveries in percentage DLHS-4": 52.5,
      "Marginal Workers Other - Males": 211,
      "Total Workers  Males": 1616,
      "Main Workers - Females": 668,
      "Primary Gross Enrolment Ratio in percentage DISE": "NA",
      "Main Workers Cultivators - Persons": 798,
      "Marginal Workers Household Industry worked for 0 - 3 moths during last year - Females": 4,
      "Upper Primary Net Enrolment Ratio in percentage DISE": "NA",
      "Primary New Government Schools since 2003 in percentage DISE": "NA",
      "Tier": "Rural",
      "Marginal Workers Household Industry - Females": 16,
      "Primary Schools with electricity in percentage DISE": "NA",
      "Main Workers Other - Persons": 972,
      "Marginal Workers Household Industry worked for 3 - 6 moths during last year - Females": 12,
      "Main Workers Cultivators - Males": 427,
      "Main Workers Household Industry - Persons": 7,
      "Marginal Workers Cultivators worked for 0 - 3 moths during last year - Persons": 128,
      "Scheduled Caste Males": 0,
      "Marginal Workers - Persons": 821,
      "Deliveries at home conducted by skilled health personnel in percentage DLHS-4": 3.4,
      "Villages with Sub-Health Centres within 3km in percentage DLHS-4": "Not applicable",
      "Upper Primary New Government Schools since 2003 in percentage DISE": "NA",
      "0-6 Age Group Males": 409,
      "Primary Schools with drinking water facility in percentage DISE": "NA",
      "Non Workers - Persons": 2980,
      "Person Literates": 2692,
      "State": "ARUNACHAL PRADESH",
      "Total Female Population": 2522,
      "Marginal Workers worked for 0 - 3 moths during last year - Persons": 200,
      "Marginal Workers Cultivators - Females": 228,
      "Marginal Workers Other - Persons": 305,
      "Sex Ratio": 814,
      "Scheduled Tribe Persons": 4480,
      "Marginal Workers Household Industry worked for 3 - 6 moths during last year - Males": 10,
      "Marginal Workers Agricultural Labourers - Females": 18,
      "Mean age at marriage for girls DLHS-4": 22.4,
      "Households with solar energy as main source of lighting  Houselisting and Housing Census Data Tables- District Level , Census of India__4": 213,
      "District": "DIBANG VALLEY",
      "Households receiving treated tap water within premises in percentage Houselisting and Housing Census Data Tables- District Level , Census of India__1": 8.866615266,
      "Total Workers  Persons": 2640,
      "Households receiving treated tap water within premises  Houselisting and Housing Census Data Tables- District Level , Census of India__4": 115,
      "Primary Female Teachers in percentage DISE": "NA",
      "Number of Households": 1331,
      "Main Workers Agricultural Labourers - Persons": 42
    }
  ],
  "Urban": [
    {
      "Marginal Workers Agricultural Labourers - Persons": 8,
      "Marginal Workers Other - Females": 48,
      "Marginal Workers Other worked for 0 - 3 moths during last year - Females": 26,
      "Upper Primary Schools with boys toilet in percentage DISE": "NA",
      "Total Population": 2384,
      "Households with electricity as main source of lighting in percentage Houselisting and Housing Census Data Tables- District Level , Census of India": 95.81881533,
      "Primary Girl's Enrolment in percentage DISE": "NA",
      "Marginal Workers worked for 3 - 6 moths during last year - Males": 97,
      "Prevalence of Acute illness in percentage DLHS-4": "Not available",
      "Main Workers - Persons": 706,
      "Main Workers Cultivators - Females": 3,
      "Marginal Workers Agricultural Labourers worked for 3 - 6 moths during last year - Females": 0,
      "Marginal Workers Other worked for 0 - 3 moths during last year - Males": 23,
      "Upper Primary Schools with drinking water facility in percentage DISE": "NA",
      "Primary Schools with girls toilet in percentage DISE": "NA",
      "Marginal Workers worked for 3 - 6 moths during last year - Persons": 158,
      "Upper Primary Drop Out Rate in percentage DISE": "NA",
      "Prevalence of Anaemia in pregnant women aged 15-49years in percentage DLHS-4": "Not available",
      "Current use of any modern method of family planning in percentage DLHS-4": "Not available",
      "Marginal Workers Agricultural Labourers - Males": 7,
      "Upper Primary Female Teachers in percentage DISE": "NA",
      "Marginal Workers - Females": 88,
      "Marginal Workers Other worked for 3 - 6 moths during last year - Persons": 87,
      "Main Workers Agricultural Labourers - Females": 1,
      "Marginal Workers Cultivators worked for 3 - 6 moths during last year - Females": 21,
      "Households with no lighting  Houselisting and Housing Census Data Tables- District Level , Census of India__5": 0,
      "Prevalence of Severe Anaemia  in percentage DLHS-4": "Not available",
      "Total unmet need for family planning in percentage DLHS-4": "Not available",
      "Main Workers Other - Males": 468,
      "Children who received full vaccination in percentage DLHS-4": "Not available",
      "Marginal Workers Household Industry - Persons": 22,
      "Primary Pupil-Teacher Ratio in percentage DISE": "NA",
      "Marginal Workers Agricultural Labourers worked for 3 - 6 moths during last year - Males": 7,
      "Scheduled Caste Females": 0,
      "Marginal Workers Cultivators - Males": 22,
      "Marginal Workers - Males": 121,
      "Marginal Workers worked for 0 - 3 moths during last year - Females": 27,
      "Households with main source of drinking water within premises in percentage Houselisting and Housing Census Data Tables- District Level , Census of India": 71.60278746,
      "Marginal Workers Household Industry worked for 3 - 6 moths during last year - Persons": 21,
      "Upper Primary Girl's Enrolment in percentage DISE": "NA",
      "Prevalence of Severe Anaemia in women aged 15-49years in percentage DLHS-4": "Not available",
      "Marginal Workers Agricultural Labourers worked for 0 - 3 moths during last year - Males": 0,
      "Households with electricity as main source of lighting  Houselisting and Housing Census Data Tables- District Level , Census of India__3": 550,
      "Households with computer or laptop with internet connection in percentage": 1.74,
      "PHCs functioning on a 24x7hours basis in percentage DLHS-4": 0,
      "Non Workers - Males": 704,
      "Total Households in District Houselisting and Housing Census Data Tables- District Level , Census of India": 574,
      "Upper Primary Schools with girls toilet in percentage DISE": "NA",
      "Households with mobile phone in percentage": 59.93,
      "Households receiving untreated tap water within premises in percentage Houselisting and Housing Census Data Tables- District Level , Census of India__2": 56.09756098,
      "Marginal Workers Cultivators worked for 3 - 6 moths during last year - Males": 22,
      "Prevalence of Anaemia  in percentage DLHS-4": "Not available",
      "Prevalence of Chronic illness in percentage DLHS-4": "Not available",
      "Households with solar energy as main source of lighting in percentage Houselisting and Housing Census Data Tables- District Level , Census of India__1": 0,
      "Marginal Workers Agricultural Labourers worked for 0 - 3 moths during last year - Females": 1,
      "Main Workers - Males": 491,
      "Female": "NA",
      "Sno": 57,
      "Marginal Workers Other worked for 3 - 6 moths during last year - Females": 22,
      "Marginal Workers Cultivators worked for 0 - 3 moths during last year - Females": 0,
      "Scheduled Tribe Males": 565,
      "Male Illiterates": 289,
      "Prevalence of Severe Anaemia in pregnant women aged 15-49years in percentage DLHS-4": "Not available",
      "0-6 Age Group Persons": 309,
      "Upper Primary Student-Classroom Ratio in percentage DISE": "NA",
      "Currently married men married below 21years of age in percentage DLHS-4": "Not available",
      "Male Literates": 1027,
      "Households with no lighting in percentage Houselisting and Housing Census Data Tables- District Level , Census of India__2": 0,
      "Primary Drop Out Rate in percentage DISE": "NA",
      "Marginal Workers Household Industry - Males": 4,
      "Female Illiterates": 351,
      "Main Workers Other - Females": 210,
      "Marginal Workers Cultivators - Persons": 43,
      "Upper Primary Gross Enrolment Ratio in percentage DISE": "NA",
      "Scheduled Caste Persons": 0,
      "Marginal Workers Cultivators worked for 3 - 6 moths during last year - Persons": 43,
      "Households with landline phone in percentage": 5.75,
      "Total Households in District  Houselisting and Housing Census Data Tables- District Level , Census of India": 574,
      "Upper Primary Pupil-Teacher Ratio in percentage DISE": "NA",
      "Primary Student-Classroom Ratio in percentage DISE": "NA",
      "Primary Schools with boys toilet in percentage DISE": "NA",
      "Mean number of children ever born to women aged 40-49years  DLHS-4": "Not available",
      "Households receiving untreated tap water within premises  Houselisting and Housing Census Data Tables- District Level , Census of India__5": 322,
      "Marginal Workers Household Industry worked for 0 - 3 moths during last year - Persons": 1,
      "Total Male Population": 1316,
      "Non Workers - Females": 765,
      "Current use of family planning methods in percentage DLHS-4": "Not available",
      "Households with main source of drinking water within premises  Houselisting and Housing Census Data Tables- District Level , Census of India__3": 411,
      "Main Workers Agricultural Labourers - Males": 8,
      "Marginal Workers Other worked for 0 - 3 moths during last year - Persons": 49,
      "Currently married women married below 18years of age in percentage DLHS-4": "Not available",
      "Person Illiterates": 640,
      "Main Workers Household Industry - Females": 1,
      "Female Literates": 717,
      "Marginal Workers Cultivators worked for 0 - 3 moths during last year - Males": 0,
      "Male": "NA",
      "Households with improved source of drinking water in percentage DLHS-4": "Not available",
      "Upper Primary Schools with electricity in percentage DISE": "NA",
      "Households with electricity in percentage DLHS-4": "Not available",
      "Villages with Primary Health Centre within 10km in percentage DLHS-4": 0,
      "Births to women aged 15-19years out of Total births in percentage DLHS-4": "Not available",
      "Prevalence of Anaemia in women aged 15-49years in percentage DLHS-4": "Not available",
      "Marginal Workers Agricultural Labourers worked for 3 - 6 moths during last year - Persons": 7,
      "Main Workers Household Industry - Males": 9,
      "Scheduled Tribe Females": 656,
      "Marginal Workers worked for 0 - 3 moths during last year - Males": 24,
      "Marginal Workers Other worked for 3 - 6 moths during last year - Males": 65,
      "Primary Net Enrolment Ratio in percentage DISE": "NA",
      "Total": "NA",
      "Mean age at marriage for boys DLHS-4": "Not available",
      "Number of District Hospitals  DLHS-4": 0,
      "0-6 Age Group Females": 144,
      "Marginal Workers Agricultural Labourers worked for 0 - 3 moths during last year - Persons": 1,
      "Marginal Workers Household Industry worked for 0 - 3 moths during last year - Males": 1,
      "Total Workers  Females": 303,
      "Marginal Workers worked for 3 - 6 moths during last year - Females": 61,
      "Institutional Deliveries in percentage DLHS-4": "Not available",
      "Marginal Workers Other - Males": 88,
      "Total Workers  Males": 612,
      "Main Workers - Females": 215,
      "Primary Gross Enrolment Ratio in percentage DISE": "NA",
      "Main Workers Cultivators - Persons": 9,
      "Marginal Workers Household Industry worked for 0 - 3 moths during last year - Females": 0,
      "Upper Primary Net Enrolment Ratio in percentage DISE": "NA",
      "Primary New Government Schools since 2003 in percentage DISE": "NA",
      "Tier": "Urban",
      "Marginal Workers Household Industry - Females": 18,
      "Primary Schools with electricity in percentage DISE": "NA",
      "Main Workers Other - Persons": 678,
      "Marginal Workers Household Industry worked for 3 - 6 moths during last year - Females": 18,
      "Main Workers Cultivators - Males": 6,
      "Main Workers Household Industry - Persons": 10,
      "Marginal Workers Cultivators worked for 0 - 3 moths during last year - Persons": 0,
      "Scheduled Caste Males": 0,
      "Marginal Workers - Persons": 209,
      "Deliveries at home conducted by skilled health personnel in percentage DLHS-4": "Not available",
      "Villages with Sub-Health Centres within 3km in percentage DLHS-4": 0,
      "Upper Primary New Government Schools since 2003 in percentage DISE": "NA",
      "0-6 Age Group Males": 165,
      "Primary Schools with drinking water facility in percentage DISE": "NA",
      "Non Workers - Persons": 1469,
      "Person Literates": 1744,
      "State": "ARUNACHAL PRADESH",
      "Total Female Population": 1068,
      "Marginal Workers worked for 0 - 3 moths during last year - Persons": 51,
      "Marginal Workers Cultivators - Females": 21,
      "Marginal Workers Other - Persons": 136,
      "Sex Ratio": 812,
      "Scheduled Tribe Persons": 1221,
      "Marginal Workers Household Industry worked for 3 - 6 moths during last year - Males": 3,
      "Marginal Workers Agricultural Labourers - Females": 1,
      "Mean age at marriage for girls DLHS-4": "Not available",
      "Households with solar energy as main source of lighting  Houselisting and Housing Census Data Tables- District Level , Census of India__4": 0,
      "District": "DIBANG VALLEY",
      "Households receiving treated tap water within premises in percentage Houselisting and Housing Census Data Tables- District Level , Census of India__1": 15.50522648,
      "Total Workers  Persons": 915,
      "Households receiving treated tap water within premises  Houselisting and Housing Census Data Tables- District Level , Census of India__4": 89,
      "Primary Female Teachers in percentage DISE": "NA",
      "Number of Households": 621,
      "Main Workers Agricultural Labourers - Persons": 9
    }
  ]
}