{
  "Total": [
    {
      "Marginal Workers Agricultural Labourers - Persons": 795,
      "Marginal Workers Other - Females": 285,
      "Marginal Workers Other worked for 0 - 3 moths during last year - Females": 41,
      "Upper Primary Schools with boys toilet in percentage DISE": 0,
      "Total Population": 54080,
      "Households with electricity as main source of lighting in percentage Houselisting and Housing Census Data Tables- District Level , Census of India": 54.50702931,
      "Primary Girl's Enrolment in percentage DISE": 50.1,
      "Marginal Workers worked for 3 - 6 moths during last year - Males": 911,
      "Prevalence of Acute illness in percentage DLHS-4": 12.1,
      "Main Workers - Persons": 19829,
      "Main Workers Cultivators - Females": 3775,
      "Marginal Workers Agricultural Labourers worked for 3 - 6 moths during last year - Females": 492,
      "Marginal Workers Other worked for 0 - 3 moths during last year - Males": 68,
      "Upper Primary Schools with drinking water facility in percentage DISE": 100,
      "Primary Schools with girls toilet in percentage DISE": 100,
      "Marginal Workers worked for 3 - 6 moths during last year - Persons": 2136,
      "Upper Primary Drop Out Rate in percentage DISE": 11.36,
      "Prevalence of Anaemia in pregnant women aged 15-49years in percentage DLHS-4": 84,
      "Current use of any modern method of family planning in percentage DLHS-4": 40.1,
      "Marginal Workers Agricultural Labourers - Males": 200,
      "Upper Primary Female Teachers in percentage DISE": 55.6,
      "Marginal Workers - Females": 1446,
      "Marginal Workers Other worked for 3 - 6 moths during last year - Persons": 643,
      "Main Workers Agricultural Labourers - Females": 975,
      "Marginal Workers Cultivators worked for 3 - 6 moths during last year - Females": 458,
      "Households with no lighting  Houselisting and Housing Census Data Tables- District Level , Census of India__5": 340,
      "Prevalence of Severe Anaemia  in percentage DLHS-4": 3.5,
      "Total unmet need for family planning in percentage DLHS-4": 31.4,
      "Main Workers Other - Males": 6332,
      "Children who received full vaccination in percentage DLHS-4": 64.9,
      "Marginal Workers Household Industry - Persons": 71,
      "Primary Pupil-Teacher Ratio in percentage DISE": 13,
      "Marginal Workers Agricultural Labourers worked for 3 - 6 moths during last year - Males": 174,
      "Scheduled Caste Females": 0,
      "Marginal Workers Cultivators - Males": 361,
      "Marginal Workers - Males": 1051,
      "Marginal Workers worked for 0 - 3 moths during last year - Females": 221,
      "Households with main source of drinking water within premises in percentage Houselisting and Housing Census Data Tables- District Level , Census of India": 49.76568961,
      "Marginal Workers Household Industry worked for 3 - 6 moths during last year - Persons": 49,
      "Upper Primary Girl's Enrolment in percentage DISE": 100,
      "Prevalence of Severe Anaemia in women aged 15-49years in percentage DLHS-4": 5.6,
      "Marginal Workers Agricultural Labourers worked for 0 - 3 moths during last year - Males": 26,
      "Households with electricity as main source of lighting  Houselisting and Housing Census Data Tables- District Level , Census of India__3": 5932,
      "Households with computer or laptop with internet connection in percentage": 1.9,
      "PHCs functioning on a 24x7hours basis in percentage DLHS-4": 75,
      "Non Workers - Males": 13951,
      "Total Households in District Houselisting and Housing Census Data Tables- District Level , Census of India": 10883,
      "Upper Primary Schools with girls toilet in percentage DISE": 100,
      "Households with mobile phone in percentage": 53.33,
      "Households receiving untreated tap water within premises in percentage Houselisting and Housing Census Data Tables- District Level , Census of India__2": 29.85390058,
      "Marginal Workers Cultivators worked for 3 - 6 moths during last year - Males": 320,
      "Prevalence of Anaemia  in percentage DLHS-4": 85.8,
      "Prevalence of Chronic illness in percentage DLHS-4": 3.4,
      "Households with solar energy as main source of lighting in percentage Houselisting and Housing Census Data Tables- District Level , Census of India__1": 11.23771019,
      "Marginal Workers Agricultural Labourers worked for 0 - 3 moths during last year - Females": 103,
      "Main Workers - Males": 13051,
      "Female": 62.19,
      "Sno": 74,
      "Marginal Workers Other worked for 3 - 6 moths during last year - Females": 244,
      "Marginal Workers Cultivators worked for 0 - 3 moths during last year - Females": 60,
      "Scheduled Tribe Males": 12649,
      "Male Illiterates": 9966,
      "Prevalence of Severe Anaemia in pregnant women aged 15-49years in percentage DLHS-4": 5,
      "0-6 Age Group Persons": 8009,
      "Upper Primary Student-Classroom Ratio in percentage DISE": 11,
      "Currently married men married below 21years of age in percentage DLHS-4": 15.1,
      "Male Literates": 18087,
      "Households with no lighting in percentage Houselisting and Housing Census Data Tables- District Level , Census of India__2": 3.124138565,
      "Primary Drop Out Rate in percentage DISE": 13.7,
      "Marginal Workers Household Industry - Males": 23,
      "Female Illiterates": 12265,
      "Main Workers Other - Females": 1968,
      "Marginal Workers Cultivators - Persons": 879,
      "Upper Primary Gross Enrolment Ratio in percentage DISE": 93,
      "Scheduled Caste Persons": 0,
      "Marginal Workers Cultivators worked for 3 - 6 moths during last year - Persons": 778,
      "Households with landline phone in percentage": 1.99,
      "Total Households in District  Houselisting and Housing Census Data Tables- District Level , Census of India": 10883,
      "Upper Primary Pupil-Teacher Ratio in percentage DISE": 4,
      "Primary Student-Classroom Ratio in percentage DISE": 11,
      "Primary Schools with boys toilet in percentage DISE": 75.3,
      "Mean number of children ever born to women aged 40-49years  DLHS-4": 3.4,
      "Households receiving untreated tap water within premises  Houselisting and Housing Census Data Tables- District Level , Census of India__5": 3249,
      "Marginal Workers Household Industry worked for 0 - 3 moths during last year - Persons": 22,
      "Total Male Population": 28053,
      "Non Workers - Females": 17803,
      "Current use of family planning methods in percentage DLHS-4": 51.7,
      "Households with main source of drinking water within premises  Houselisting and Housing Census Data Tables- District Level , Census of India__3": 5416,
      "Main Workers Agricultural Labourers - Males": 1584,
      "Marginal Workers Other worked for 0 - 3 moths during last year - Persons": 109,
      "Currently married women married below 18years of age in percentage DLHS-4": 20,
      "Person Illiterates": 22231,
      "Main Workers Household Industry - Females": 60,
      "Female Literates": 13762,
      "Marginal Workers Cultivators worked for 0 - 3 moths during last year - Males": 41,
      "Male": 75.55,
      "Households with improved source of drinking water in percentage DLHS-4": 96.2,
      "Upper Primary Schools with electricity in percentage DISE": 0,
      "Households with electricity in percentage DLHS-4": 69.8,
      "Villages with Primary Health Centre within 10km in percentage DLHS-4": 64.5,
      "Births to women aged 15-19years out of Total births in percentage DLHS-4": 1.6,
      "Prevalence of Anaemia in women aged 15-49years in percentage DLHS-4": 77.7,
      "Marginal Workers Agricultural Labourers worked for 3 - 6 moths during last year - Persons": 666,
      "Main Workers Household Industry - Males": 102,
      "Scheduled Tribe Females": 13325,
      "Marginal Workers worked for 0 - 3 moths during last year - Males": 140,
      "Marginal Workers Other worked for 3 - 6 moths during last year - Males": 399,
      "Primary Net Enrolment Ratio in percentage DISE": 100,
      "Total": 69.13,
      "Mean age at marriage for boys DLHS-4": 24.1,
      "Number of District Hospitals  DLHS-4": 1,
      "0-6 Age Group Females": 3897,
      "Marginal Workers Agricultural Labourers worked for 0 - 3 moths during last year - Persons": 129,
      "Marginal Workers Household Industry worked for 0 - 3 moths during last year - Males": 5,
      "Total Workers  Females": 8224,
      "Marginal Workers worked for 3 - 6 moths during last year - Females": 1225,
      "Institutional Deliveries in percentage DLHS-4": 60.3,
      "Marginal Workers Other - Males": 467,
      "Total Workers  Males": 14102,
      "Main Workers - Females": 6778,
      "Primary Gross Enrolment Ratio in percentage DISE": 138.2,
      "Main Workers Cultivators - Persons": 8808,
      "Marginal Workers Household Industry worked for 0 - 3 moths during last year - Females": 17,
      "Upper Primary Net Enrolment Ratio in percentage DISE": 67.8,
      "Primary New Government Schools since 2003 in percentage DISE": 83.9,
      "Tier": "Total",
      "Marginal Workers Household Industry - Females": 48,
      "Primary Schools with electricity in percentage DISE": 26,
      "Main Workers Other - Persons": 8300,
      "Marginal Workers Household Industry worked for 3 - 6 moths during last year - Females": 31,
      "Main Workers Cultivators - Males": 5033,
      "Main Workers Household Industry - Persons": 162,
      "Marginal Workers Cultivators worked for 0 - 3 moths during last year - Persons": 101,
      "Scheduled Caste Males": 0,
      "Marginal Workers - Persons": 2497,
      "Deliveries at home conducted by skilled health personnel in percentage DLHS-4": 2.6,
      "Villages with Sub-Health Centres within 3km in percentage DLHS-4": 48.4,
      "Upper Primary New Government Schools since 2003 in percentage DISE": 100,
      "0-6 Age Group Males": 4112,
      "Primary Schools with drinking water facility in percentage DISE": 94.5,
      "Non Workers - Persons": 31754,
      "Person Literates": 31849,
      "State": "ARUNACHAL PRADESH",
      "Total Female Population": 26027,
      "Marginal Workers worked for 0 - 3 moths during last year - Persons": 361,
      "Marginal Workers Cultivators - Females": 518,
      "Marginal Workers Other - Persons": 752,
      "Sex Ratio": 928,
      "Scheduled Tribe Persons": 25974,
      "Marginal Workers Household Industry worked for 3 - 6 moths during last year - Males": 18,
      "Marginal Workers Agricultural Labourers - Females": 595,
      "Mean age at marriage for girls DLHS-4": 21.6,
      "Households with solar energy as main source of lighting  Houselisting and Housing Census Data Tables- District Level , Census of India__4": 1223,
      "District": "LOWER DIBANG VALLEY",
      "Households receiving treated tap water within premises in percentage Houselisting and Housing Census Data Tables- District Level , Census of India__1": 7.41523477,
      "Total Workers  Persons": 22326,
      "Households receiving treated tap water within premises  Houselisting and Housing Census Data Tables- District Level , Census of India__4": 807,
      "Primary Female Teachers in percentage DISE": 50.6,
      "Number of Households": 11600,
      "Main Workers Agricultural Labourers - Persons": 2559
    }
  ],
  "Rural": [
    {
      "Marginal Workers Agricultural Labourers - Persons": 785,
      "Marginal Workers Other - Females": 242,
      "Marginal Workers Other worked for 0 - 3 moths during last year - Females": 38,
      "Upper Primary Schools with boys toilet in percentage DISE": "NA",
      "Total Population": 42691,
      "Households with electricity as main source of lighting in percentage Houselisting and Housing Census Data Tables- District Level , Census of India": 43.32251333,
      "Primary Girl's Enrolment in percentage DISE": "NA",
      "Marginal Workers worked for 3 - 6 moths during last year - Males": 854,
      "Prevalence of Acute illness in percentage DLHS-4": 11.8,
      "Main Workers - Persons": 16123,
      "Main Workers Cultivators - Females": 3763,
      "Marginal Workers Agricultural Labourers worked for 3 - 6 moths during last year - Females": 491,
      "Marginal Workers Other worked for 0 - 3 moths during last year - Males": 58,
      "Upper Primary Schools with drinking water facility in percentage DISE": "NA",
      "Primary Schools with girls toilet in percentage DISE": "NA",
      "Marginal Workers worked for 3 - 6 moths during last year - Persons": 2034,
      "Upper Primary Drop Out Rate in percentage DISE": "NA",
      "Prevalence of Anaemia in pregnant women aged 15-49years in percentage DLHS-4": 82.7,
      "Current use of any modern method of family planning in percentage DLHS-4": 40.1,
      "Marginal Workers Agricultural Labourers - Males": 191,
      "Upper Primary Female Teachers in percentage DISE": "NA",
      "Marginal Workers - Females": 1396,
      "Marginal Workers Other worked for 3 - 6 moths during last year - Persons": 559,
      "Main Workers Agricultural Labourers - Females": 961,
      "Marginal Workers Cultivators worked for 3 - 6 moths during last year - Females": 457,
      "Households with no lighting  Houselisting and Housing Census Data Tables- District Level , Census of India__5": 338,
      "Prevalence of Severe Anaemia  in percentage DLHS-4": 3.9,
      "Total unmet need for family planning in percentage DLHS-4": 31.4,
      "Main Workers Other - Males": 3369,
      "Children who received full vaccination in percentage DLHS-4": 62.8,
      "Marginal Workers Household Industry - Persons": 63,
      "Primary Pupil-Teacher Ratio in percentage DISE": "NA",
      "Marginal Workers Agricultural Labourers worked for 3 - 6 moths during last year - Males": 166,
      "Scheduled Caste Females": 0,
      "Marginal Workers Cultivators - Males": 359,
      "Marginal Workers - Males": 983,
      "Marginal Workers worked for 0 - 3 moths during last year - Females": 216,
      "Households with main source of drinking water within premises in percentage Houselisting and Housing Census Data Tables- District Level , Census of India": 42.44145606,
      "Marginal Workers Household Industry worked for 3 - 6 moths during last year - Persons": 43,
      "Upper Primary Girl's Enrolment in percentage DISE": "NA",
      "Prevalence of Severe Anaemia in women aged 15-49years in percentage DLHS-4": 4.8,
      "Marginal Workers Agricultural Labourers worked for 0 - 3 moths during last year - Males": 25,
      "Households with electricity as main source of lighting  Houselisting and Housing Census Data Tables- District Level , Census of India__3": 3737,
      "Households with computer or laptop with internet connection in percentage": 1.28,
      "PHCs functioning on a 24x7hours basis in percentage DLHS-4": "Not applicable",
      "Non Workers - Males": 10971,
      "Total Households in District Houselisting and Housing Census Data Tables- District Level , Census of India": 8626,
      "Upper Primary Schools with girls toilet in percentage DISE": "NA",
      "Households with mobile phone in percentage": 48.42,
      "Households receiving untreated tap water within premises in percentage Houselisting and Housing Census Data Tables- District Level , Census of India__2": 18.47901693,
      "Marginal Workers Cultivators worked for 3 - 6 moths during last year - Males": 318,
      "Prevalence of Anaemia  in percentage DLHS-4": 86.3,
      "Prevalence of Chronic illness in percentage DLHS-4": 3,
      "Households with solar energy as main source of lighting in percentage Houselisting and Housing Census Data Tables- District Level , Census of India__1": 14.16647345,
      "Marginal Workers Agricultural Labourers worked for 0 - 3 moths during last year - Females": 103,
      "Main Workers - Males": 10035,
      "Female": "NA",
      "Sno": 73,
      "Marginal Workers Other worked for 3 - 6 moths during last year - Females": 204,
      "Marginal Workers Cultivators worked for 0 - 3 moths during last year - Females": 60,
      "Scheduled Tribe Males": 11024,
      "Male Illiterates": 8910,
      "Prevalence of Severe Anaemia in pregnant women aged 15-49years in percentage DLHS-4": 6.1,
      "0-6 Age Group Persons": 6852,
      "Upper Primary Student-Classroom Ratio in percentage DISE": "NA",
      "Currently married men married below 21years of age in percentage DLHS-4": 15.1,
      "Male Literates": 13079,
      "Households with no lighting in percentage Houselisting and Housing Census Data Tables- District Level , Census of India__2": 3.918386274,
      "Primary Drop Out Rate in percentage DISE": "NA",
      "Marginal Workers Household Industry - Males": 20,
      "Female Illiterates": 10976,
      "Main Workers Other - Females": 1308,
      "Marginal Workers Cultivators - Persons": 876,
      "Upper Primary Gross Enrolment Ratio in percentage DISE": "NA",
      "Scheduled Caste Persons": 0,
      "Marginal Workers Cultivators worked for 3 - 6 moths during last year - Persons": 775,
      "Households with landline phone in percentage": 1.99,
      "Total Households in District  Houselisting and Housing Census Data Tables- District Level , Census of India": 8626,
      "Upper Primary Pupil-Teacher Ratio in percentage DISE": "NA",
      "Primary Student-Classroom Ratio in percentage DISE": "NA",
      "Primary Schools with boys toilet in percentage DISE": "NA",
      "Mean number of children ever born to women aged 40-49years  DLHS-4": 3.5,
      "Households receiving untreated tap water within premises  Houselisting and Housing Census Data Tables- District Level , Census of India__5": 1594,
      "Marginal Workers Household Industry worked for 0 - 3 moths during last year - Persons": 20,
      "Total Male Population": 21989,
      "Non Workers - Females": 13218,
      "Current use of family planning methods in percentage DLHS-4": 51.7,
      "Households with main source of drinking water within premises  Houselisting and Housing Census Data Tables- District Level , Census of India__3": 3661,
      "Main Workers Agricultural Labourers - Males": 1554,
      "Marginal Workers Other worked for 0 - 3 moths during last year - Persons": 96,
      "Currently married women married below 18years of age in percentage DLHS-4": 20,
      "Person Illiterates": 19886,
      "Main Workers Household Industry - Females": 56,
      "Female Literates": 9726,
      "Marginal Workers Cultivators worked for 0 - 3 moths during last year - Males": 41,
      "Male": "NA",
      "Households with improved source of drinking water in percentage DLHS-4": 95.6,
      "Upper Primary Schools with electricity in percentage DISE": "NA",
      "Households with electricity in percentage DLHS-4": 69.8,
      "Villages with Primary Health Centre within 10km in percentage DLHS-4": "Not applicable",
      "Births to women aged 15-19years out of Total births in percentage DLHS-4": 1.9,
      "Prevalence of Anaemia in women aged 15-49years in percentage DLHS-4": 75,
      "Marginal Workers Agricultural Labourers worked for 3 - 6 moths during last year - Persons": 657,
      "Main Workers Household Industry - Males": 98,
      "Scheduled Tribe Females": 11555,
      "Marginal Workers worked for 0 - 3 moths during last year - Males": 129,
      "Marginal Workers Other worked for 3 - 6 moths during last year - Males": 355,
      "Primary Net Enrolment Ratio in percentage DISE": "NA",
      "Total": "NA",
      "Mean age at marriage for boys DLHS-4": 24.3,
      "Number of District Hospitals  DLHS-4": "Not applicable",
      "0-6 Age Group Females": 3357,
      "Marginal Workers Agricultural Labourers worked for 0 - 3 moths during last year - Persons": 128,
      "Marginal Workers Household Industry worked for 0 - 3 moths during last year - Males": 5,
      "Total Workers  Females": 7484,
      "Marginal Workers worked for 3 - 6 moths during last year - Females": 1180,
      "Institutional Deliveries in percentage DLHS-4": 60.3,
      "Marginal Workers Other - Males": 413,
      "Total Workers  Males": 11018,
      "Main Workers - Females": 6088,
      "Primary Gross Enrolment Ratio in percentage DISE": "NA",
      "Main Workers Cultivators - Persons": 8777,
      "Marginal Workers Household Industry worked for 0 - 3 moths during last year - Females": 15,
      "Upper Primary Net Enrolment Ratio in percentage DISE": "NA",
      "Primary New Government Schools since 2003 in percentage DISE": "NA",
      "Tier": "Rural",
      "Marginal Workers Household Industry - Females": 43,
      "Primary Schools with electricity in percentage DISE": "NA",
      "Main Workers Other - Persons": 4677,
      "Marginal Workers Household Industry worked for 3 - 6 moths during last year - Females": 28,
      "Main Workers Cultivators - Males": 5014,
      "Main Workers Household Industry - Persons": 154,
      "Marginal Workers Cultivators worked for 0 - 3 moths during last year - Persons": 101,
      "Scheduled Caste Males": 0,
      "Marginal Workers - Persons": 2379,
      "Deliveries at home conducted by skilled health personnel in percentage DLHS-4": 2.6,
      "Villages with Sub-Health Centres within 3km in percentage DLHS-4": "Not applicable",
      "Upper Primary New Government Schools since 2003 in percentage DISE": "NA",
      "0-6 Age Group Males": 3495,
      "Primary Schools with drinking water facility in percentage DISE": "NA",
      "Non Workers - Persons": 24189,
      "Person Literates": 22805,
      "State": "ARUNACHAL PRADESH",
      "Total Female Population": 20702,
      "Marginal Workers worked for 0 - 3 moths during last year - Persons": 345,
      "Marginal Workers Cultivators - Females": 517,
      "Marginal Workers Other - Persons": 655,
      "Sex Ratio": 941,
      "Scheduled Tribe Persons": 22579,
      "Marginal Workers Household Industry worked for 3 - 6 moths during last year - Males": 15,
      "Marginal Workers Agricultural Labourers - Females": 594,
      "Mean age at marriage for girls DLHS-4": 21.9,
      "Households with solar energy as main source of lighting  Houselisting and Housing Census Data Tables- District Level , Census of India__4": 1222,
      "District": "LOWER DIBANG VALLEY",
      "Households receiving treated tap water within premises in percentage Houselisting and Housing Census Data Tables- District Level , Census of India__1": 8.196151171,
      "Total Workers  Persons": 18502,
      "Households receiving treated tap water within premises  Houselisting and Housing Census Data Tables- District Level , Census of India__4": 707,
      "Primary Female Teachers in percentage DISE": "NA",
      "Number of Households": 8983,
      "Main Workers Agricultural Labourers - Persons": 2515
    }
  ],
  "Urban": [
    {
      "Marginal Workers Agricultural Labourers - Persons": 10,
      "Marginal Workers Other - Females": 43,
      "Marginal Workers Other worked for 0 - 3 moths during last year - Females": 3,
      "Upper Primary Schools with boys toilet in percentage DISE": "NA",
      "Total Population": 11389,
      "Households with electricity as main source of lighting in percentage Houselisting and Housing Census Data Tables- District Level , Census of India": 97.2529907,
      "Primary Girl's Enrolment in percentage DISE": "NA",
      "Marginal Workers worked for 3 - 6 moths during last year - Males": 57,
      "Prevalence of Acute illness in percentage DLHS-4": "Not available",
      "Main Workers - Persons": 3706,
      "Main Workers Cultivators - Females": 12,
      "Marginal Workers Agricultural Labourers worked for 3 - 6 moths during last year - Females": 1,
      "Marginal Workers Other worked for 0 - 3 moths during last year - Males": 10,
      "Upper Primary Schools with drinking water facility in percentage DISE": "NA",
      "Primary Schools with girls toilet in percentage DISE": "NA",
      "Marginal Workers worked for 3 - 6 moths during last year - Persons": 102,
      "Upper Primary Drop Out Rate in percentage DISE": "NA",
      "Prevalence of Anaemia in pregnant women aged 15-49years in percentage DLHS-4": "Not available",
      "Current use of any modern method of family planning in percentage DLHS-4": "Not available",
      "Marginal Workers Agricultural Labourers - Males": 9,
      "Upper Primary Female Teachers in percentage DISE": "NA",
      "Marginal Workers - Females": 50,
      "Marginal Workers Other worked for 3 - 6 moths during last year - Persons": 84,
      "Main Workers Agricultural Labourers - Females": 14,
      "Marginal Workers Cultivators worked for 3 - 6 moths during last year - Females": 1,
      "Households with no lighting  Houselisting and Housing Census Data Tables- District Level , Census of India__5": 2,
      "Prevalence of Severe Anaemia  in percentage DLHS-4": "Not available",
      "Total unmet need for family planning in percentage DLHS-4": "Not available",
      "Main Workers Other - Males": 2963,
      "Children who received full vaccination in percentage DLHS-4": "Not available",
      "Marginal Workers Household Industry - Persons": 8,
      "Primary Pupil-Teacher Ratio in percentage DISE": "NA",
      "Marginal Workers Agricultural Labourers worked for 3 - 6 moths during last year - Males": 8,
      "Scheduled Caste Females": 0,
      "Marginal Workers Cultivators - Males": 2,
      "Marginal Workers - Males": 68,
      "Marginal Workers worked for 0 - 3 moths during last year - Females": 5,
      "Households with main source of drinking water within premises in percentage Houselisting and Housing Census Data Tables- District Level , Census of India": 77.75808595,
      "Marginal Workers Household Industry worked for 3 - 6 moths during last year - Persons": 6,
      "Upper Primary Girl's Enrolment in percentage DISE": "NA",
      "Prevalence of Severe Anaemia in women aged 15-49years in percentage DLHS-4": "Not available",
      "Marginal Workers Agricultural Labourers worked for 0 - 3 moths during last year - Males": 1,
      "Households with electricity as main source of lighting  Houselisting and Housing Census Data Tables- District Level , Census of India__3": 2195,
      "Households with computer or laptop with internet connection in percentage": 4.3,
      "PHCs functioning on a 24x7hours basis in percentage DLHS-4": 0,
      "Non Workers - Males": 2980,
      "Total Households in District Houselisting and Housing Census Data Tables- District Level , Census of India": 2257,
      "Upper Primary Schools with girls toilet in percentage DISE": "NA",
      "Households with mobile phone in percentage": 72.09,
      "Households receiving untreated tap water within premises in percentage Houselisting and Housing Census Data Tables- District Level , Census of India__2": 73.32742579,
      "Marginal Workers Cultivators worked for 3 - 6 moths during last year - Males": 2,
      "Prevalence of Anaemia  in percentage DLHS-4": "Not available",
      "Prevalence of Chronic illness in percentage DLHS-4": "Not available",
      "Households with solar energy as main source of lighting in percentage Houselisting and Housing Census Data Tables- District Level , Census of India__1": 0.0443,
      "Marginal Workers Agricultural Labourers worked for 0 - 3 moths during last year - Females": 0,
      "Main Workers - Males": 3016,
      "Female": "NA",
      "Sno": 75,
      "Marginal Workers Other worked for 3 - 6 moths during last year - Females": 40,
      "Marginal Workers Cultivators worked for 0 - 3 moths during last year - Females": 0,
      "Scheduled Tribe Males": 1625,
      "Male Illiterates": 1056,
      "Prevalence of Severe Anaemia in pregnant women aged 15-49years in percentage DLHS-4": "Not available",
      "0-6 Age Group Persons": 1157,
      "Upper Primary Student-Classroom Ratio in percentage DISE": "NA",
      "Currently married men married below 21years of age in percentage DLHS-4": "Not available",
      "Male Literates": 5008,
      "Households with no lighting in percentage Houselisting and Housing Census Data Tables- District Level , Census of India__2": 0.0886,
      "Primary Drop Out Rate in percentage DISE": "NA",
      "Marginal Workers Household Industry - Males": 3,
      "Female Illiterates": 1289,
      "Main Workers Other - Females": 660,
      "Marginal Workers Cultivators - Persons": 3,
      "Upper Primary Gross Enrolment Ratio in percentage DISE": "NA",
      "Scheduled Caste Persons": 0,
      "Marginal Workers Cultivators worked for 3 - 6 moths during last year - Persons": 3,
      "Households with landline phone in percentage": 1.99,
      "Total Households in District  Houselisting and Housing Census Data Tables- District Level , Census of India": 2257,
      "Upper Primary Pupil-Teacher Ratio in percentage DISE": "NA",
      "Primary Student-Classroom Ratio in percentage DISE": "NA",
      "Primary Schools with boys toilet in percentage DISE": "NA",
      "Mean number of children ever born to women aged 40-49years  DLHS-4": "Not available",
      "Households receiving untreated tap water within premises  Houselisting and Housing Census Data Tables- District Level , Census of India__5": 1655,
      "Marginal Workers Household Industry worked for 0 - 3 moths during last year - Persons": 2,
      "Total Male Population": 6064,
      "Non Workers - Females": 4585,
      "Current use of family planning methods in percentage DLHS-4": "Not available",
      "Households with main source of drinking water within premises  Houselisting and Housing Census Data Tables- District Level , Census of India__3": 1755,
      "Main Workers Agricultural Labourers - Males": 30,
      "Marginal Workers Other worked for 0 - 3 moths during last year - Persons": 13,
      "Currently married women married below 18years of age in percentage DLHS-4": "Not available",
      "Person Illiterates": 2345,
      "Main Workers Household Industry - Females": 4,
      "Female Literates": 4036,
      "Marginal Workers Cultivators worked for 0 - 3 moths during last year - Males": 0,
      "Male": "NA",
      "Households with improved source of drinking water in percentage DLHS-4": "Not available",
      "Upper Primary Schools with electricity in percentage DISE": "NA",
      "Households with electricity in percentage DLHS-4": "Not available",
      "Villages with Primary Health Centre within 10km in percentage DLHS-4": 0,
      "Births to women aged 15-19years out of Total births in percentage DLHS-4": "Not available",
      "Prevalence of Anaemia in women aged 15-49years in percentage DLHS-4": "Not available",
      "Marginal Workers Agricultural Labourers worked for 3 - 6 moths during last year - Persons": 9,
      "Main Workers Household Industry - Males": 4,
      "Scheduled Tribe Females": 1770,
      "Marginal Workers worked for 0 - 3 moths during last year - Males": 11,
      "Marginal Workers Other worked for 3 - 6 moths during last year - Males": 44,
      "Primary Net Enrolment Ratio in percentage DISE": "NA",
      "Total": "NA",
      "Mean age at marriage for boys DLHS-4": "Not available",
      "Number of District Hospitals  DLHS-4": 0,
      "0-6 Age Group Females": 540,
      "Marginal Workers Agricultural Labourers worked for 0 - 3 moths during last year - Persons": 1,
      "Marginal Workers Household Industry worked for 0 - 3 moths during last year - Males": 0,
      "Total Workers  Females": 740,
      "Marginal Workers worked for 3 - 6 moths during last year - Females": 45,
      "Institutional Deliveries in percentage DLHS-4": "Not available",
      "Marginal Workers Other - Males": 54,
      "Total Workers  Males": 3084,
      "Main Workers - Females": 690,
      "Primary Gross Enrolment Ratio in percentage DISE": "NA",
      "Main Workers Cultivators - Persons": 31,
      "Marginal Workers Household Industry worked for 0 - 3 moths during last year - Females": 2,
      "Upper Primary Net Enrolment Ratio in percentage DISE": "NA",
      "Primary New Government Schools since 2003 in percentage DISE": "NA",
      "Tier": "Urban",
      "Marginal Workers Household Industry - Females": 5,
      "Primary Schools with electricity in percentage DISE": "NA",
      "Main Workers Other - Persons": 3623,
      "Marginal Workers Household Industry worked for 3 - 6 moths during last year - Females": 3,
      "Main Workers Cultivators - Males": 19,
      "Main Workers Household Industry - Persons": 8,
      "Marginal Workers Cultivators worked for 0 - 3 moths during last year - Persons": 0,
      "Scheduled Caste Males": 0,
      "Marginal Workers - Persons": 118,
      "Deliveries at home conducted by skilled health personnel in percentage DLHS-4": "Not available",
      "Villages with Sub-Health Centres within 3km in percentage DLHS-4": 0,
      "Upper Primary New Government Schools since 2003 in percentage DISE": "NA",
      "0-6 Age Group Males": 617,
      "Primary Schools with drinking water facility in percentage DISE": "NA",
      "Non Workers - Persons": 7565,
      "Person Literates": 9044,
      "State": "ARUNACHAL PRADESH",
      "Total Female Population": 5325,
      "Marginal Workers worked for 0 - 3 moths during last year - Persons": 16,
      "Marginal Workers Cultivators - Females": 1,
      "Marginal Workers Other - Persons": 97,
      "Sex Ratio": 878,
      "Scheduled Tribe Persons": 3395,
      "Marginal Workers Household Industry worked for 3 - 6 moths during last year - Males": 3,
      "Marginal Workers Agricultural Labourers - Females": 1,
      "Mean age at marriage for girls DLHS-4": "Not available",
      "Households with solar energy as main source of lighting  Houselisting and Housing Census Data Tables- District Level , Census of India__4": 1,
      "District": "LOWER DIBANG VALLEY",
      "Households receiving treated tap water within premises in percentage Houselisting and Housing Census Data Tables- District Level , Census of India__1": 4.430660168,
      "Total Workers  Persons": 3824,
      "Households receiving treated tap water within premises  Houselisting and Housing Census Data Tables- District Level , Census of India__4": 100,
      "Primary Female Teachers in percentage DISE": "NA",
      "Number of Households": 2617,
      "Main Workers Agricultural Labourers - Persons": 44
    }
  ]
}