{
  "Total": [
    {
      "Marginal Workers Agricultural Labourers - Persons": 767,
      "Marginal Workers Other - Females": 999,
      "Marginal Workers Other worked for 0 - 3 moths during last year - Females": 236,
      "Upper Primary Schools with boys toilet in percentage DISE": 0,
      "Total Population": 112274,
      "Households with electricity as main source of lighting in percentage Houselisting and Housing Census Data Tables- District Level , Census of India": 69.37579369,
      "Primary Girl's Enrolment in percentage DISE": 50.5,
      "Marginal Workers worked for 3 - 6 moths during last year - Males": 2368,
      "Prevalence of Acute illness in percentage DLHS-4": 17.2,
      "Main Workers - Persons": 43000,
      "Main Workers Cultivators - Females": 13061,
      "Marginal Workers Agricultural Labourers worked for 3 - 6 moths during last year - Females": 340,
      "Marginal Workers Other worked for 0 - 3 moths during last year - Males": 357,
      "Upper Primary Schools with drinking water facility in percentage DISE": 100,
      "Primary Schools with girls toilet in percentage DISE": 42.1,
      "Marginal Workers worked for 3 - 6 moths during last year - Persons": 4736,
      "Upper Primary Drop Out Rate in percentage DISE": 8.02,
      "Prevalence of Anaemia in pregnant women aged 15-49years in percentage DLHS-4": 68.7,
      "Current use of any modern method of family planning in percentage DLHS-4": 55.2,
      "Marginal Workers Agricultural Labourers - Males": 356,
      "Upper Primary Female Teachers in percentage DISE": 50,
      "Marginal Workers - Females": 3066,
      "Marginal Workers Other worked for 3 - 6 moths during last year - Persons": 1763,
      "Main Workers Agricultural Labourers - Females": 239,
      "Marginal Workers Cultivators worked for 3 - 6 moths during last year - Females": 1236,
      "Households with no lighting  Houselisting and Housing Census Data Tables- District Level , Census of India__5": 2407,
      "Prevalence of Severe Anaemia  in percentage DLHS-4": 10.5,
      "Total unmet need for family planning in percentage DLHS-4": 24.8,
      "Main Workers Other - Males": 12726,
      "Children who received full vaccination in percentage DLHS-4": 50,
      "Marginal Workers Household Industry - Persons": 85,
      "Primary Pupil-Teacher Ratio in percentage DISE": 12,
      "Marginal Workers Agricultural Labourers worked for 3 - 6 moths during last year - Males": 325,
      "Scheduled Caste Females": 0,
      "Marginal Workers Cultivators - Males": 1356,
      "Marginal Workers - Males": 3111,
      "Marginal Workers worked for 0 - 3 moths during last year - Females": 698,
      "Households with main source of drinking water within premises in percentage Houselisting and Housing Census Data Tables- District Level , Census of India": 47.30389763,
      "Marginal Workers Household Industry worked for 3 - 6 moths during last year - Persons": 50,
      "Upper Primary Girl's Enrolment in percentage DISE": 100,
      "Prevalence of Severe Anaemia in women aged 15-49years in percentage DLHS-4": 4.3,
      "Marginal Workers Agricultural Labourers worked for 0 - 3 moths during last year - Males": 31,
      "Households with electricity as main source of lighting  Houselisting and Housing Census Data Tables- District Level , Census of India__3": 14204,
      "Households with computer or laptop with internet connection in percentage": 1.48,
      "PHCs functioning on a 24x7hours basis in percentage DLHS-4": 25,
      "Non Workers - Males": 29012,
      "Total Households in District Houselisting and Housing Census Data Tables- District Level , Census of India": 20474,
      "Upper Primary Schools with girls toilet in percentage DISE": 100,
      "Households with mobile phone in percentage": 37.73,
      "Households receiving untreated tap water within premises in percentage Houselisting and Housing Census Data Tables- District Level , Census of India__2": 31.7133926,
      "Marginal Workers Cultivators worked for 3 - 6 moths during last year - Males": 1022,
      "Prevalence of Anaemia  in percentage DLHS-4": 73.3,
      "Prevalence of Chronic illness in percentage DLHS-4": 11.1,
      "Households with solar energy as main source of lighting in percentage Houselisting and Housing Census Data Tables- District Level , Census of India__1": 6.569307414,
      "Marginal Workers Agricultural Labourers worked for 0 - 3 moths during last year - Females": 71,
      "Main Workers - Males": 26045,
      "Female": 59.63,
      "Sno": 98,
      "Marginal Workers Other worked for 3 - 6 moths during last year - Females": 763,
      "Marginal Workers Cultivators worked for 0 - 3 moths during last year - Females": 377,
      "Scheduled Tribe Males": 45746,
      "Male Illiterates": 21391,
      "Prevalence of Severe Anaemia in pregnant women aged 15-49years in percentage DLHS-4": 7.1,
      "0-6 Age Group Persons": 14855,
      "Upper Primary Student-Classroom Ratio in percentage DISE": 30,
      "Currently married men married below 21years of age in percentage DLHS-4": 18.5,
      "Male Literates": 36777,
      "Households with no lighting in percentage Houselisting and Housing Census Data Tables- District Level , Census of India__2": 11.75637394,
      "Primary Drop Out Rate in percentage DISE": 12.3,
      "Marginal Workers Household Industry - Males": 42,
      "Female Illiterates": 26137,
      "Main Workers Other - Females": 3561,
      "Marginal Workers Cultivators - Persons": 2969,
      "Upper Primary Gross Enrolment Ratio in percentage DISE": 107.4,
      "Scheduled Caste Persons": 0,
      "Marginal Workers Cultivators worked for 3 - 6 moths during last year - Persons": 2258,
      "Households with landline phone in percentage": 4.24,
      "Total Households in District  Houselisting and Housing Census Data Tables- District Level , Census of India": 20474,
      "Upper Primary Pupil-Teacher Ratio in percentage DISE": 18,
      "Primary Student-Classroom Ratio in percentage DISE": 7,
      "Primary Schools with boys toilet in percentage DISE": 41.1,
      "Mean number of children ever born to women aged 40-49years  DLHS-4": 3.8,
      "Households receiving untreated tap water within premises  Houselisting and Housing Census Data Tables- District Level , Census of India__5": 6493,
      "Marginal Workers Household Industry worked for 0 - 3 moths during last year - Persons": 35,
      "Total Male Population": 58168,
      "Non Workers - Females": 34085,
      "Current use of family planning methods in percentage DLHS-4": 61.3,
      "Households with main source of drinking water within premises  Houselisting and Housing Census Data Tables- District Level , Census of India__3": 9685,
      "Main Workers Agricultural Labourers - Males": 378,
      "Marginal Workers Other worked for 0 - 3 moths during last year - Persons": 593,
      "Currently married women married below 18years of age in percentage DLHS-4": 6.5,
      "Person Illiterates": 47528,
      "Main Workers Household Industry - Females": 94,
      "Female Literates": 27969,
      "Marginal Workers Cultivators worked for 0 - 3 moths during last year - Males": 334,
      "Male": 72.81,
      "Households with improved source of drinking water in percentage DLHS-4": 96.5,
      "Upper Primary Schools with electricity in percentage DISE": 50,
      "Households with electricity in percentage DLHS-4": 94.7,
      "Villages with Primary Health Centre within 10km in percentage DLHS-4": 70,
      "Births to women aged 15-19years out of Total births in percentage DLHS-4": 4,
      "Prevalence of Anaemia in women aged 15-49years in percentage DLHS-4": 62.2,
      "Marginal Workers Agricultural Labourers worked for 3 - 6 moths during last year - Persons": 665,
      "Main Workers Household Industry - Males": 119,
      "Scheduled Tribe Females": 47037,
      "Marginal Workers worked for 0 - 3 moths during last year - Males": 743,
      "Marginal Workers Other worked for 3 - 6 moths during last year - Males": 1000,
      "Primary Net Enrolment Ratio in percentage DISE": 100,
      "Total": 66.46,
      "Mean age at marriage for boys DLHS-4": 25.7,
      "Number of District Hospitals  DLHS-4": 1,
      "0-6 Age Group Females": 7200,
      "Marginal Workers Agricultural Labourers worked for 0 - 3 moths during last year - Persons": 102,
      "Marginal Workers Household Industry worked for 0 - 3 moths during last year - Males": 21,
      "Total Workers  Females": 20021,
      "Marginal Workers worked for 3 - 6 moths during last year - Females": 2368,
      "Institutional Deliveries in percentage DLHS-4": 58.6,
      "Marginal Workers Other - Males": 1357,
      "Total Workers  Males": 29156,
      "Main Workers - Females": 16955,
      "Primary Gross Enrolment Ratio in percentage DISE": 158.8,
      "Main Workers Cultivators - Persons": 25883,
      "Marginal Workers Household Industry worked for 0 - 3 moths during last year - Females": 14,
      "Upper Primary Net Enrolment Ratio in percentage DISE": 100,
      "Primary New Government Schools since 2003 in percentage DISE": 28.6,
      "Tier": "Total",
      "Marginal Workers Household Industry - Females": 43,
      "Primary Schools with electricity in percentage DISE": 15,
      "Main Workers Other - Persons": 16287,
      "Marginal Workers Household Industry worked for 3 - 6 moths during last year - Females": 29,
      "Main Workers Cultivators - Males": 12822,
      "Main Workers Household Industry - Persons": 213,
      "Marginal Workers Cultivators worked for 0 - 3 moths during last year - Persons": 711,
      "Scheduled Caste Males": 0,
      "Marginal Workers - Persons": 6177,
      "Deliveries at home conducted by skilled health personnel in percentage DLHS-4": 0.7,
      "Villages with Sub-Health Centres within 3km in percentage DLHS-4": 66.7,
      "Upper Primary New Government Schools since 2003 in percentage DISE": 100,
      "0-6 Age Group Males": 7655,
      "Primary Schools with drinking water facility in percentage DISE": 71,
      "Non Workers - Persons": 63097,
      "Person Literates": 64746,
      "State": "ARUNACHAL PRADESH",
      "Total Female Population": 54106,
      "Marginal Workers worked for 0 - 3 moths during last year - Persons": 1441,
      "Marginal Workers Cultivators - Females": 1613,
      "Marginal Workers Other - Persons": 2356,
      "Sex Ratio": 930,
      "Scheduled Tribe Persons": 92783,
      "Marginal Workers Household Industry worked for 3 - 6 moths during last year - Males": 21,
      "Marginal Workers Agricultural Labourers - Females": 411,
      "Mean age at marriage for girls DLHS-4": 23,
      "Households with solar energy as main source of lighting  Houselisting and Housing Census Data Tables- District Level , Census of India__4": 1345,
      "District": "WEST SIANG",
      "Households receiving treated tap water within premises in percentage Houselisting and Housing Census Data Tables- District Level , Census of India__1": 13.50493309,
      "Total Workers  Persons": 49177,
      "Households receiving treated tap water within premises  Houselisting and Housing Census Data Tables- District Level , Census of India__4": 2765,
      "Primary Female Teachers in percentage DISE": 34.5,
      "Number of Households": 21231,
      "Main Workers Agricultural Labourers - Persons": 617
    }
  ],
  "Rural": [
    {
      "Marginal Workers Agricultural Labourers - Persons": 723,
      "Marginal Workers Other - Females": 621,
      "Marginal Workers Other worked for 0 - 3 moths during last year - Females": 196,
      "Upper Primary Schools with boys toilet in percentage DISE": "NA",
      "Total Population": 87306,
      "Households with electricity as main source of lighting in percentage Houselisting and Housing Census Data Tables- District Level , Census of India": 59.60876064,
      "Primary Girl's Enrolment in percentage DISE": "NA",
      "Marginal Workers worked for 3 - 6 moths during last year - Males": 1960,
      "Prevalence of Acute illness in percentage DLHS-4": 17.6,
      "Main Workers - Persons": 34879,
      "Main Workers Cultivators - Females": 12980,
      "Marginal Workers Agricultural Labourers worked for 3 - 6 moths during last year - Females": 325,
      "Marginal Workers Other worked for 0 - 3 moths during last year - Males": 291,
      "Upper Primary Schools with drinking water facility in percentage DISE": "NA",
      "Primary Schools with girls toilet in percentage DISE": "NA",
      "Marginal Workers worked for 3 - 6 moths during last year - Persons": 3941,
      "Upper Primary Drop Out Rate in percentage DISE": "NA",
      "Prevalence of Anaemia in pregnant women aged 15-49years in percentage DLHS-4": 67.1,
      "Current use of any modern method of family planning in percentage DLHS-4": 55.6,
      "Marginal Workers Agricultural Labourers - Males": 336,
      "Upper Primary Female Teachers in percentage DISE": "NA",
      "Marginal Workers - Females": 2618,
      "Marginal Workers Other worked for 3 - 6 moths during last year - Persons": 1068,
      "Main Workers Agricultural Labourers - Females": 208,
      "Marginal Workers Cultivators worked for 3 - 6 moths during last year - Females": 1212,
      "Households with no lighting  Houselisting and Housing Census Data Tables- District Level , Census of India__5": 2406,
      "Prevalence of Severe Anaemia  in percentage DLHS-4": 10.8,
      "Total unmet need for family planning in percentage DLHS-4": 25.7,
      "Main Workers Other - Males": 6523,
      "Children who received full vaccination in percentage DLHS-4": 46.7,
      "Marginal Workers Household Industry - Persons": 60,
      "Primary Pupil-Teacher Ratio in percentage DISE": "NA",
      "Marginal Workers Agricultural Labourers worked for 3 - 6 moths during last year - Males": 308,
      "Scheduled Caste Females": 0,
      "Marginal Workers Cultivators - Males": 1327,
      "Marginal Workers - Males": 2628,
      "Marginal Workers worked for 0 - 3 moths during last year - Females": 637,
      "Households with main source of drinking water within premises in percentage Houselisting and Housing Census Data Tables- District Level , Census of India": 37.42119971,
      "Marginal Workers Household Industry worked for 3 - 6 moths during last year - Persons": 32,
      "Upper Primary Girl's Enrolment in percentage DISE": "NA",
      "Prevalence of Severe Anaemia in women aged 15-49years in percentage DLHS-4": 5.2,
      "Marginal Workers Agricultural Labourers worked for 0 - 3 moths during last year - Males": 28,
      "Households with electricity as main source of lighting  Houselisting and Housing Census Data Tables- District Level , Census of India__3": 9172,
      "Households with computer or laptop with internet connection in percentage": 0.62,
      "PHCs functioning on a 24x7hours basis in percentage DLHS-4": "Not applicable",
      "Non Workers - Males": 22444,
      "Total Households in District Houselisting and Housing Census Data Tables- District Level , Census of India": 15387,
      "Upper Primary Schools with girls toilet in percentage DISE": "NA",
      "Households with mobile phone in percentage": 30.62,
      "Households receiving untreated tap water within premises in percentage Houselisting and Housing Census Data Tables- District Level , Census of India__2": 24.70267109,
      "Marginal Workers Cultivators worked for 3 - 6 moths during last year - Males": 996,
      "Prevalence of Anaemia  in percentage DLHS-4": 73.6,
      "Prevalence of Chronic illness in percentage DLHS-4": 11.8,
      "Households with solar energy as main source of lighting in percentage Houselisting and Housing Census Data Tables- District Level , Census of India__1": 8.73464613,
      "Marginal Workers Agricultural Labourers worked for 0 - 3 moths during last year - Females": 62,
      "Main Workers - Males": 19615,
      "Female": "NA",
      "Sno": 97,
      "Marginal Workers Other worked for 3 - 6 moths during last year - Females": 425,
      "Marginal Workers Cultivators worked for 0 - 3 moths during last year - Females": 369,
      "Scheduled Tribe Males": 38874,
      "Male Illiterates": 18754,
      "Prevalence of Severe Anaemia in pregnant women aged 15-49years in percentage DLHS-4": 8.2,
      "0-6 Age Group Persons": 11992,
      "Upper Primary Student-Classroom Ratio in percentage DISE": "NA",
      "Currently married men married below 21years of age in percentage DLHS-4": 16.8,
      "Male Literates": 25933,
      "Households with no lighting in percentage Houselisting and Housing Census Data Tables- District Level , Census of India__2": 15.63657633,
      "Primary Drop Out Rate in percentage DISE": "NA",
      "Marginal Workers Household Industry - Males": 31,
      "Female Illiterates": 22678,
      "Main Workers Other - Females": 1994,
      "Marginal Workers Cultivators - Persons": 2908,
      "Upper Primary Gross Enrolment Ratio in percentage DISE": "NA",
      "Scheduled Caste Persons": 0,
      "Marginal Workers Cultivators worked for 3 - 6 moths during last year - Persons": 2208,
      "Households with landline phone in percentage": 3.63,
      "Total Households in District  Houselisting and Housing Census Data Tables- District Level , Census of India": 15387,
      "Upper Primary Pupil-Teacher Ratio in percentage DISE": "NA",
      "Primary Student-Classroom Ratio in percentage DISE": "NA",
      "Primary Schools with boys toilet in percentage DISE": "NA",
      "Mean number of children ever born to women aged 40-49years  DLHS-4": 3.9,
      "Households receiving untreated tap water within premises  Houselisting and Housing Census Data Tables- District Level , Census of India__5": 3801,
      "Marginal Workers Household Industry worked for 0 - 3 moths during last year - Persons": 28,
      "Total Male Population": 44687,
      "Non Workers - Females": 24737,
      "Current use of family planning methods in percentage DLHS-4": 61.3,
      "Households with main source of drinking water within premises  Houselisting and Housing Census Data Tables- District Level , Census of India__3": 5758,
      "Main Workers Agricultural Labourers - Males": 317,
      "Marginal Workers Other worked for 0 - 3 moths during last year - Persons": 487,
      "Currently married women married below 18years of age in percentage DLHS-4": 4.9,
      "Person Illiterates": 41432,
      "Main Workers Household Industry - Females": 82,
      "Female Literates": 19941,
      "Marginal Workers Cultivators worked for 0 - 3 moths during last year - Males": 331,
      "Male": "NA",
      "Households with improved source of drinking water in percentage DLHS-4": 96.3,
      "Upper Primary Schools with electricity in percentage DISE": "NA",
      "Households with electricity in percentage DLHS-4": 93.7,
      "Villages with Primary Health Centre within 10km in percentage DLHS-4": "Not applicable",
      "Births to women aged 15-19years out of Total births in percentage DLHS-4": 3.1,
      "Prevalence of Anaemia in women aged 15-49years in percentage DLHS-4": 61.8,
      "Marginal Workers Agricultural Labourers worked for 3 - 6 moths during last year - Persons": 633,
      "Main Workers Household Industry - Males": 83,
      "Scheduled Tribe Females": 39386,
      "Marginal Workers worked for 0 - 3 moths during last year - Males": 668,
      "Marginal Workers Other worked for 3 - 6 moths during last year - Males": 643,
      "Primary Net Enrolment Ratio in percentage DISE": "NA",
      "Total": "NA",
      "Mean age at marriage for boys DLHS-4": 26,
      "Number of District Hospitals  DLHS-4": "Not applicable",
      "0-6 Age Group Females": 5813,
      "Marginal Workers Agricultural Labourers worked for 0 - 3 moths during last year - Persons": 90,
      "Marginal Workers Household Industry worked for 0 - 3 moths during last year - Males": 18,
      "Total Workers  Females": 17882,
      "Marginal Workers worked for 3 - 6 moths during last year - Females": 1981,
      "Institutional Deliveries in percentage DLHS-4": 48.6,
      "Marginal Workers Other - Males": 934,
      "Total Workers  Males": 22243,
      "Main Workers - Females": 15264,
      "Primary Gross Enrolment Ratio in percentage DISE": "NA",
      "Main Workers Cultivators - Persons": 25672,
      "Marginal Workers Household Industry worked for 0 - 3 moths during last year - Females": 10,
      "Upper Primary Net Enrolment Ratio in percentage DISE": "NA",
      "Primary New Government Schools since 2003 in percentage DISE": "NA",
      "Tier": "Rural",
      "Marginal Workers Household Industry - Females": 29,
      "Primary Schools with electricity in percentage DISE": "NA",
      "Main Workers Other - Persons": 8517,
      "Marginal Workers Household Industry worked for 3 - 6 moths during last year - Females": 19,
      "Main Workers Cultivators - Males": 12692,
      "Main Workers Household Industry - Persons": 165,
      "Marginal Workers Cultivators worked for 0 - 3 moths during last year - Persons": 700,
      "Scheduled Caste Males": 0,
      "Marginal Workers - Persons": 5246,
      "Deliveries at home conducted by skilled health personnel in percentage DLHS-4": 0.9,
      "Villages with Sub-Health Centres within 3km in percentage DLHS-4": "Not applicable",
      "Upper Primary New Government Schools since 2003 in percentage DISE": "NA",
      "0-6 Age Group Males": 6179,
      "Primary Schools with drinking water facility in percentage DISE": "NA",
      "Non Workers - Persons": 47181,
      "Person Literates": 45874,
      "State": "ARUNACHAL PRADESH",
      "Total Female Population": 42619,
      "Marginal Workers worked for 0 - 3 moths during last year - Persons": 1305,
      "Marginal Workers Cultivators - Females": 1581,
      "Marginal Workers Other - Persons": 1555,
      "Sex Ratio": 954,
      "Scheduled Tribe Persons": 78260,
      "Marginal Workers Household Industry worked for 3 - 6 moths during last year - Males": 13,
      "Marginal Workers Agricultural Labourers - Females": 387,
      "Mean age at marriage for girls DLHS-4": 23.1,
      "Households with solar energy as main source of lighting  Houselisting and Housing Census Data Tables- District Level , Census of India__4": 1344,
      "District": "WEST SIANG",
      "Households receiving treated tap water within premises in percentage Houselisting and Housing Census Data Tables- District Level , Census of India__1": 12.15961526,
      "Total Workers  Persons": 40125,
      "Households receiving treated tap water within premises  Houselisting and Housing Census Data Tables- District Level , Census of India__4": 1871,
      "Primary Female Teachers in percentage DISE": "NA",
      "Number of Households": 15771,
      "Main Workers Agricultural Labourers - Persons": 525
    }
  ],
  "Urban": [
    {
      "Marginal Workers Agricultural Labourers - Persons": 44,
      "Marginal Workers Other - Females": 378,
      "Marginal Workers Other worked for 0 - 3 moths during last year - Females": 40,
      "Upper Primary Schools with boys toilet in percentage DISE": "NA",
      "Total Population": 24968,
      "Households with electricity as main source of lighting in percentage Houselisting and Housing Census Data Tables- District Level , Census of India": 98.91881266,
      "Primary Girl's Enrolment in percentage DISE": "NA",
      "Marginal Workers worked for 3 - 6 moths during last year - Males": 408,
      "Prevalence of Acute illness in percentage DLHS-4": "Not available",
      "Main Workers - Persons": 8121,
      "Main Workers Cultivators - Females": 81,
      "Marginal Workers Agricultural Labourers worked for 3 - 6 moths during last year - Females": 15,
      "Marginal Workers Other worked for 0 - 3 moths during last year - Males": 66,
      "Upper Primary Schools with drinking water facility in percentage DISE": "NA",
      "Primary Schools with girls toilet in percentage DISE": "NA",
      "Marginal Workers worked for 3 - 6 moths during last year - Persons": 795,
      "Upper Primary Drop Out Rate in percentage DISE": "NA",
      "Prevalence of Anaemia in pregnant women aged 15-49years in percentage DLHS-4": "Not available",
      "Current use of any modern method of family planning in percentage DLHS-4": "Not available",
      "Marginal Workers Agricultural Labourers - Males": 20,
      "Upper Primary Female Teachers in percentage DISE": "NA",
      "Marginal Workers - Females": 448,
      "Marginal Workers Other worked for 3 - 6 moths during last year - Persons": 695,
      "Main Workers Agricultural Labourers - Females": 31,
      "Marginal Workers Cultivators worked for 3 - 6 moths during last year - Females": 24,
      "Households with no lighting  Houselisting and Housing Census Data Tables- District Level , Census of India__5": 1,
      "Prevalence of Severe Anaemia  in percentage DLHS-4": "Not available",
      "Total unmet need for family planning in percentage DLHS-4": "Not available",
      "Main Workers Other - Males": 6203,
      "Children who received full vaccination in percentage DLHS-4": "Not available",
      "Marginal Workers Household Industry - Persons": 25,
      "Primary Pupil-Teacher Ratio in percentage DISE": "NA",
      "Marginal Workers Agricultural Labourers worked for 3 - 6 moths during last year - Males": 17,
      "Scheduled Caste Females": 0,
      "Marginal Workers Cultivators - Males": 29,
      "Marginal Workers - Males": 483,
      "Marginal Workers worked for 0 - 3 moths during last year - Females": 61,
      "Households with main source of drinking water within premises in percentage Houselisting and Housing Census Data Tables- District Level , Census of India": 77.1967761,
      "Marginal Workers Household Industry worked for 3 - 6 moths during last year - Persons": 18,
      "Upper Primary Girl's Enrolment in percentage DISE": "NA",
      "Prevalence of Severe Anaemia in women aged 15-49years in percentage DLHS-4": "Not available",
      "Marginal Workers Agricultural Labourers worked for 0 - 3 moths during last year - Males": 3,
      "Households with electricity as main source of lighting  Houselisting and Housing Census Data Tables- District Level , Census of India__3": 5032,
      "Households with computer or laptop with internet connection in percentage": 4.07,
      "PHCs functioning on a 24x7hours basis in percentage DLHS-4": "NA",
      "Non Workers - Males": 6568,
      "Total Households in District Houselisting and Housing Census Data Tables- District Level , Census of India": 5087,
      "Upper Primary Schools with girls toilet in percentage DISE": "NA",
      "Households with mobile phone in percentage": 59.23,
      "Households receiving untreated tap water within premises in percentage Houselisting and Housing Census Data Tables- District Level , Census of India__2": 52.91920582,
      "Marginal Workers Cultivators worked for 3 - 6 moths during last year - Males": 26,
      "Prevalence of Anaemia  in percentage DLHS-4": "Not available",
      "Prevalence of Chronic illness in percentage DLHS-4": "Not available",
      "Households with solar energy as main source of lighting in percentage Houselisting and Housing Census Data Tables- District Level , Census of India__1": 0.0197,
      "Marginal Workers Agricultural Labourers worked for 0 - 3 moths during last year - Females": 9,
      "Main Workers - Males": 6430,
      "Female": "NA",
      "Sno": 99,
      "Marginal Workers Other worked for 3 - 6 moths during last year - Females": 338,
      "Marginal Workers Cultivators worked for 0 - 3 moths during last year - Females": 8,
      "Scheduled Tribe Males": 6872,
      "Male Illiterates": 2637,
      "Prevalence of Severe Anaemia in pregnant women aged 15-49years in percentage DLHS-4": "Not available",
      "0-6 Age Group Persons": 2863,
      "Upper Primary Student-Classroom Ratio in percentage DISE": "NA",
      "Currently married men married below 21years of age in percentage DLHS-4": "Not available",
      "Male Literates": 10844,
      "Households with no lighting in percentage Houselisting and Housing Census Data Tables- District Level , Census of India__2": 0.0197,
      "Primary Drop Out Rate in percentage DISE": "NA",
      "Marginal Workers Household Industry - Males": 11,
      "Female Illiterates": 3459,
      "Main Workers Other - Females": 1567,
      "Marginal Workers Cultivators - Persons": 61,
      "Upper Primary Gross Enrolment Ratio in percentage DISE": "NA",
      "Scheduled Caste Persons": 0,
      "Marginal Workers Cultivators worked for 3 - 6 moths during last year - Persons": 50,
      "Households with landline phone in percentage": 6.11,
      "Total Households in District  Houselisting and Housing Census Data Tables- District Level , Census of India": 5087,
      "Upper Primary Pupil-Teacher Ratio in percentage DISE": "NA",
      "Primary Student-Classroom Ratio in percentage DISE": "NA",
      "Primary Schools with boys toilet in percentage DISE": "NA",
      "Mean number of children ever born to women aged 40-49years  DLHS-4": "Not available",
      "Households receiving untreated tap water within premises  Houselisting and Housing Census Data Tables- District Level , Census of India__5": 2692,
      "Marginal Workers Household Industry worked for 0 - 3 moths during last year - Persons": 7,
      "Total Male Population": 13481,
      "Non Workers - Females": 9348,
      "Current use of family planning methods in percentage DLHS-4": "Not available",
      "Households with main source of drinking water within premises  Houselisting and Housing Census Data Tables- District Level , Census of India__3": 3927,
      "Main Workers Agricultural Labourers - Males": 61,
      "Marginal Workers Other worked for 0 - 3 moths during last year - Persons": 106,
      "Currently married women married below 18years of age in percentage DLHS-4": "Not available",
      "Person Illiterates": 6096,
      "Main Workers Household Industry - Females": 12,
      "Female Literates": 8028,
      "Marginal Workers Cultivators worked for 0 - 3 moths during last year - Males": 3,
      "Male": "NA",
      "Households with improved source of drinking water in percentage DLHS-4": "Not available",
      "Upper Primary Schools with electricity in percentage DISE": "NA",
      "Households with electricity in percentage DLHS-4": "Not available",
      "Villages with Primary Health Centre within 10km in percentage DLHS-4": "NA",
      "Births to women aged 15-19years out of Total births in percentage DLHS-4": "Not available",
      "Prevalence of Anaemia in women aged 15-49years in percentage DLHS-4": "Not available",
      "Marginal Workers Agricultural Labourers worked for 3 - 6 moths during last year - Persons": 32,
      "Main Workers Household Industry - Males": 36,
      "Scheduled Tribe Females": 7651,
      "Marginal Workers worked for 0 - 3 moths during last year - Males": 75,
      "Marginal Workers Other worked for 3 - 6 moths during last year - Males": 357,
      "Primary Net Enrolment Ratio in percentage DISE": "NA",
      "Total": "NA",
      "Mean age at marriage for boys DLHS-4": "Not available",
      "Number of District Hospitals  DLHS-4": "NA",
      "0-6 Age Group Females": 1387,
      "Marginal Workers Agricultural Labourers worked for 0 - 3 moths during last year - Persons": 12,
      "Marginal Workers Household Industry worked for 0 - 3 moths during last year - Males": 3,
      "Total Workers  Females": 2139,
      "Marginal Workers worked for 3 - 6 moths during last year - Females": 387,
      "Institutional Deliveries in percentage DLHS-4": "Not available",
      "Marginal Workers Other - Males": 423,
      "Total Workers  Males": 6913,
      "Main Workers - Females": 1691,
      "Primary Gross Enrolment Ratio in percentage DISE": "NA",
      "Main Workers Cultivators - Persons": 211,
      "Marginal Workers Household Industry worked for 0 - 3 moths during last year - Females": 4,
      "Upper Primary Net Enrolment Ratio in percentage DISE": "NA",
      "Primary New Government Schools since 2003 in percentage DISE": "NA",
      "Tier": "Urban",
      "Marginal Workers Household Industry - Females": 14,
      "Primary Schools with electricity in percentage DISE": "NA",
      "Main Workers Other - Persons": 7770,
      "Marginal Workers Household Industry worked for 3 - 6 moths during last year - Females": 10,
      "Main Workers Cultivators - Males": 130,
      "Main Workers Household Industry - Persons": 48,
      "Marginal Workers Cultivators worked for 0 - 3 moths during last year - Persons": 11,
      "Scheduled Caste Males": 0,
      "Marginal Workers - Persons": 931,
      "Deliveries at home conducted by skilled health personnel in percentage DLHS-4": "Not available",
      "Villages with Sub-Health Centres within 3km in percentage DLHS-4": "NA",
      "Upper Primary New Government Schools since 2003 in percentage DISE": "NA",
      "0-6 Age Group Males": 1476,
      "Primary Schools with drinking water facility in percentage DISE": "NA",
      "Non Workers - Persons": 15916,
      "Person Literates": 18872,
      "State": "ARUNACHAL PRADESH",
      "Total Female Population": 11487,
      "Marginal Workers worked for 0 - 3 moths during last year - Persons": 136,
      "Marginal Workers Cultivators - Females": 32,
      "Marginal Workers Other - Persons": 801,
      "Sex Ratio": 852,
      "Scheduled Tribe Persons": 14523,
      "Marginal Workers Household Industry worked for 3 - 6 moths during last year - Males": 8,
      "Marginal Workers Agricultural Labourers - Females": 24,
      "Mean age at marriage for girls DLHS-4": "Not available",
      "Households with solar energy as main source of lighting  Houselisting and Housing Census Data Tables- District Level , Census of India__4": 1,
      "District": "WEST SIANG",
      "Households receiving treated tap water within premises in percentage Houselisting and Housing Census Data Tables- District Level , Census of India__1": 17.57420877,
      "Total Workers  Persons": 9052,
      "Households receiving treated tap water within premises  Houselisting and Housing Census Data Tables- District Level , Census of India__4": 894,
      "Primary Female Teachers in percentage DISE": "NA",
      "Number of Households": 5460,
      "Main Workers Agricultural Labourers - Persons": 92
    }
  ]
}