{
  "Marginal Workers Agricultural Labourers - Persons": "2420101",
  "Marginal Workers Agricultural Labourers worked for 3 - 6 moths during last year - Females": "1331529",
  "Main Workers - Females": "6342044",
  "Total Population": "49386799",
  "Households with electricity as main source of lighting in percentage Houselisting and Housing Census Data Tables- District Level , Census of India": "1194",
  "Primary Girl's Enrolment in percentage DISE": "49.05",
  "Marginal Workers worked for 3 - 6 moths during last year - Males": "104537.31",
  "Prevalence of Acute illness in percentage DLHS-4": "9.79",
  "Main Workers - Persons": "19231167",
  "Main Workers Cultivators - Females": "838980",
  "Marginal Workers Other worked for 0 - 3 moths during last year - Males": "71955",
  "Marginal Workers Cultivators worked for 3 - 6 moths during last year - Persons": "209214",
  "Currently married women married below 18years of age in percentage DLHS-4": "14.65",
  "Primary Schools with girls toilet in percentage DISE": "77.67",
  "Marginal Workers worked for 3 - 6 moths during last year - Persons": "3219581",
  "Upper Primary Drop Out Rate in percentage DISE": "4.18",
  "Prevalence of Anaemia in pregnant women aged 15-49years in percentage DLHS-4": "70.66",
  "Current use of any modern method of family planning in percentage DLHS-4": "70.17",
  "Marginal Workers Other - Males": "537492",
  "Upper Primary Female Teachers in percentage DISE": "20.77",
  "Marginal Workers - Females": "2177691",
  "Marginal Workers Household Industry - Persons": "10266.38",
  "Marginal Workers Cultivators worked for 3 - 6 moths during last year - Females": "124849",
  "Households with no lighting  Houselisting and Housing Census Data Tables- District Level , Census of India__5": "38638",
  "Mean age at marriage for girls DLHS-4": "20.48",
  "Total unmet need for family planning in percentage DLHS-4": "16.27",
  "Marginal Workers Other - Females": "402551",
  "Children who received full vaccination in percentage DLHS-4": "60.47",
  "Households with main source of drinking water within premises  Houselisting and Housing Census Data Tables- District Level , Census of India__3": "4529585",
  "Primary Pupil-Teacher Ratio in percentage DISE": "25.08",
  "Marginal Workers Agricultural Labourers worked for 3 - 6 moths during last year - Males": "769905",
  "Marginal Workers worked for 0 - 3 moths during last year - Persons": "519158",
  "Scheduled Caste Females": "4237283",
  "Marginal Workers Cultivators - Males": "99933",
  "Marginal Workers Agricultural Labourers - Males": "67309.69",
  "Marginal Workers worked for 0 - 3 moths during last year - Females": "24391.92",
  "Households with main source of drinking water within premises in percentage Houselisting and Housing Census Data Tables- District Level , Census of India": "33.92",
  "Marginal Workers worked for 0 - 3 moths during last year - Males": "202063",
  "Female Literates": "13270542",
  "working population": "N/A",
  "Upper Primary Girl's Enrolment in percentage DISE": "8.97",
  "Prevalence of Severe Anaemia in women aged 15-49years in percentage DLHS-4": "9.22",
  "Marginal Workers Agricultural Labourers worked for 0 - 3 moths during last year - Males": "105121",
  "Marginal Workers Household Industry worked for 0 - 3 moths during last year - Males": "9419",
  "Marginal Workers Household Industry - Females": "84866",
  "Current use of family planning methods in percentage DLHS-4": "70.45",
  "Non Workers - Males": "10287897",
  "Total Households in District Houselisting and Housing Census Data Tables- District Level , Census of India": "12603872",
  "Upper Primary Schools with girls toilet in percentage DISE": "30.77",
  "Primary Schools with drinking water facility in percentage DISE": "88.85",
  "Upper Primary Schools with boys toilet in percentage DISE": "19.23",
  "Households receiving untreated tap water within premises in percentage Houselisting and Housing Census Data Tables- District Level , Census of India__2": "66",
  "Marginal Workers Cultivators worked for 3 - 6 moths during last year - Males": "84365",
  "Prevalence of Anaemia  in percentage DLHS-4": "78.03",
  "Prevalence of Chronic illness in percentage DLHS-4": "12.21",
  "Households with solar energy as main source of lighting in percentage Houselisting and Housing Census Data Tables- District Level , Census of India__1": "2",
  "Marginal Workers Agricultural Labourers worked for 0 - 3 moths during last year - Females": "16426.62",
  "Female": "768",
  "Total Male Population": "24738068",
  "Marginal Workers Cultivators worked for 0 - 3 moths during last year - Females": "20350",
  "Scheduled Tribe Males": "1309399",
  "Male Illiterates": "8236078",
  "Prevalence of Severe Anaemia in pregnant women aged 15-49years in percentage DLHS-4": "11.26",
  "0-6 Age Group Persons": "5222384",
  "Marginal Workers - Persons": "3738739",
  "Currently married men married below 21years of age in percentage DLHS-4": "13.05",
  "Male Literates": "16501990",
  "Households with improved source of drinking water in percentage DLHS-4": "1265",
  "Primary Drop Out Rate in percentage DISE": "2.45",
  "Marginal Workers Household Industry - Males": "48597",
  "Female Illiterates": "11378189",
  "Main Workers Other - Females": "109874.46",
  "Upper Primary Gross Enrolment Ratio in percentage DISE": "78.38",
  "Scheduled Caste Persons": "649646.00",
  "Upper Primary Schools with electricity in percentage DISE": "400",
  "Number of Households": "12664762",
  "Marginal Workers - Males": "1561048",
  "Total Households in District  Houselisting and Housing Census Data Tables- District Level , Census of India": "12603872",
  "Upper Primary Pupil-Teacher Ratio in percentage DISE": "2.31",
  "Primary Student-Classroom Ratio in percentage DISE": "22.62",
  "Primary Schools with boys toilet in percentage DISE": "55.73",
  "Mean number of children ever born to women aged 40-49years  DLHS-4": "2.51",
  "Households receiving untreated tap water within premises  Houselisting and Housing Census Data Tables- District Level , Census of India__5": "634251",
  "Marginal Workers Household Industry worked for 0 - 3 moths during last year - Persons": "26766",
  "Marginal Workers Household Industry worked for 3 - 6 moths during last year - Persons": "8207.46",
  "sexratio": "N/A",
  "Marginal Workers Cultivators - Persons": "18856.31",
  "Marginal Workers Other worked for 3 - 6 moths during last year - Females": "336699",
  "Main Workers Agricultural Labourers - Males": "4688650",
  "Upper Primary Schools with drinking water facility in percentage DISE": "30.77",
  "Main Workers Agricultural Labourers - Persons": "8557567",
  "Person Illiterates": "19614267",
  "Main Workers Household Industry - Females": "205779",
  "Primary Net Enrolment Ratio in percentage DISE": "78.48",
  "Marginal Workers Cultivators worked for 0 - 3 moths during last year - Males": "15568",
  "Male": "896",
  "Households with no lighting in percentage Houselisting and Housing Census Data Tables- District Level , Census of India__2": "3",
  "Main Workers Other - Males": "5646652",
  "Marginal Workers Other worked for 3 - 6 moths during last year - Persons": "61710.46",
  "Households with electricity in percentage DLHS-4": "1283",
  "Villages with Primary Health Centre within 10km in percentage DLHS-4": "75.40",
  "Births to women aged 15-19years out of Total births in percentage DLHS-4": "9.65",
  "Prevalence of Anaemia in women aged 15-49years in percentage DLHS-4": "67.77",
  "Main Workers Household Industry - Males": "24775.23",
  "Scheduled Tribe Females": "1321746",
  "PHCs functioning on a 24x7hours basis in percentage DLHS-4": "42.55",
  "Marginal Workers Other worked for 3 - 6 moths during last year - Males": "465537",
  "Marginal Workers Other worked for 0 - 3 moths during last year - Females": "65852",
  "Households with computer/laptop with internet connection in percentage": "N/A",
  "enrollment rate of education": "N/A",
  "Mean age at marriage for boys DLHS-4": "24.05",
  "Number of District Hospitals  DLHS-4": "16",
  "0-6 Age Group Females": "195071.62",
  "Total": "868",
  "Households with electricity as main source of lighting  Houselisting and Housing Census Data Tables- District Level , Census of India__3": "11608999",
  "Total Workers  Females": "8519735",
  "Marginal Workers Agricultural Labourers worked for 0 - 3 moths during last year - Persons": "318667",
  "Marginal Workers worked for 3 - 6 moths during last year - Females": "1860596",
  "Institutional Deliveries in percentage DLHS-4": "90.25",
  "Upper Primary Net Enrolment Ratio in percentage DISE": "57.70",
  "Marginal Workers Agricultural Labourers worked for 3 - 6 moths during last year - Persons": "2101434",
  "Total Workers  Males": "14450171",
  "Primary Gross Enrolment Ratio in percentage DISE": "96.46",
  "Main Workers Cultivators - Persons": "3070723",
  "Marginal Workers Household Industry worked for 0 - 3 moths during last year - Females": "17347",
  "Households with landline phone in percentage": "46",
  "Primary New Government Schools since 2003 in percentage DISE": "4.23",
  "Tier": "N/A",
  "Households with mobile phone in percentage": "646",
  "Primary Schools with electricity in percentage DISE": "87.31",
  "Main Workers Other - Persons": "544232.31",
  "Marginal Workers Household Industry worked for 3 - 6 moths during last year - Females": "67519",
  "Households receiving treated tap water within premises in percentage Houselisting and Housing Census Data Tables- District Level , Census of India__1": "269",
  "Main Workers Agricultural Labourers - Females": "3868917",
  "Marginal Workers Cultivators worked for 0 - 3 moths during last year - Persons": "35918",
  "Scheduled Caste Males": "4208115",
  "Marginal Workers Other worked for 0 - 3 moths during last year - Persons": "137807",
  "Deliveries at home conducted by skilled health personnel in percentage DLHS-4": "4.50",
  "Villages with Sub-Health Centres within 3km in percentage DLHS-4": "82.88",
  "Upper Primary New Government Schools since 2003 in percentage DISE": "0.00",
  "0-6 Age Group Males": "2686453",
  "Non Workers - Females": "16128996",
  "Non Workers - Persons": "26416893",
  "Person Literates": "29772532",
  "enrolment rate": "N/A",
  "State": "N/A",
  "Main Workers - Males": "12889123",
  "Total Female Population": "24648731",
  "Marginal Workers Cultivators - Females": "11169.15",
  "Marginal Workers Other - Persons": "72311.00",
  "Sex Ratio": "996.77",
  "Scheduled Tribe Persons": "2631145",
  "Marginal Workers Household Industry worked for 3 - 6 moths during last year - Males": "3013.69",
  "Marginal Workers Agricultural Labourers - Females": "1545075",
  "Prevalence of Severe Anaemia  in percentage DLHS-4": "19.45",
  "Upper Primary Student-Classroom Ratio in percentage DISE": "3.54",
  "Main Workers Household Industry - Persons": "40604.38",
  "Households with solar energy as main source of lighting  Houselisting and Housing Census Data Tables- District Level , Census of India__4": "29444",
  "District": "N/A",
  "Main Workers Cultivators - Males": "2231743",
  "Total Workers  Persons": "22969906",
  "Households receiving treated tap water within premises  Houselisting and Housing Census Data Tables- District Level , Census of India__4": "2793808",
  "Primary Female Teachers in percentage DISE": "49.07"
}