{
  "Total": [
    {
      "Marginal Workers Agricultural Labourers - Persons": 172972,
      "Marginal Workers Other - Females": 25773,
      "Marginal Workers Other worked for 0 - 3 moths during last year - Females": 5877,
      "Upper Primary Schools with boys toilet in percentage DISE": 100,
      "Total Population": 3936966,
      "Households with electricity as main source of lighting in percentage Houselisting and Housing Census Data Tables- District Level , Census of India": 94.58885646,
      "Primary Girl's Enrolment in percentage DISE": 50,
      "Marginal Workers worked for 3 - 6 moths during last year - Males": 86481,
      "Prevalence of Acute illness in percentage DLHS-4": 8.8,
      "Main Workers - Persons": 1534166,
      "Main Workers Cultivators - Females": 11300,
      "Marginal Workers Agricultural Labourers worked for 3 - 6 moths during last year - Females": 85903,
      "Marginal Workers Other worked for 0 - 3 moths during last year - Males": 3570,
      "Upper Primary Schools with drinking water facility in percentage DISE": 100,
      "Primary Schools with girls toilet in percentage DISE": 64.6,
      "Marginal Workers worked for 3 - 6 moths during last year - Persons": 198892,
      "Upper Primary Drop Out Rate in percentage DISE": "Not available",
      "Prevalence of Anaemia in pregnant women aged 15-49years in percentage DLHS-4": 60.9,
      "Current use of any modern method of family planning in percentage DLHS-4": 71,
      "Marginal Workers Agricultural Labourers - Males": 67484,
      "Upper Primary Female Teachers in percentage DISE": 100,
      "Marginal Workers - Females": 139866,
      "Marginal Workers Other worked for 3 - 6 moths during last year - Persons": 42514,
      "Main Workers Agricultural Labourers - Females": 324542,
      "Marginal Workers Cultivators worked for 3 - 6 moths during last year - Females": 2133,
      "Households with no lighting  Houselisting and Housing Census Data Tables- District Level , Census of India__5": 3176,
      "Prevalence of Severe Anaemia  in percentage DLHS-4": 18.3,
      "Total unmet need for family planning in percentage DLHS-4": 19.5,
      "Main Workers Other - Males": 381006,
      "Children who received full vaccination in percentage DLHS-4": 51.6,
      "Marginal Workers Household Industry - Persons": 8158,
      "Primary Pupil-Teacher Ratio in percentage DISE": 24,
      "Marginal Workers Agricultural Labourers worked for 3 - 6 moths during last year - Males": 59207,
      "Scheduled Caste Females": 408005,
      "Marginal Workers Cultivators - Males": 3283,
      "Marginal Workers - Males": 99080,
      "Marginal Workers worked for 0 - 3 moths during last year - Females": 27455,
      "Households with main source of drinking water within premises in percentage Houselisting and Housing Census Data Tables- District Level , Census of India": 55.14705609,
      "Marginal Workers Household Industry worked for 3 - 6 moths during last year - Persons": 6179,
      "Upper Primary Girl's Enrolment in percentage DISE": 37.5,
      "Prevalence of Severe Anaemia in women aged 15-49years in percentage DLHS-4": 8.8,
      "Marginal Workers Agricultural Labourers worked for 0 - 3 moths during last year - Males": 8277,
      "Households with electricity as main source of lighting  Houselisting and Housing Census Data Tables- District Level , Census of India__3": 1017568,
      "Households with computer or laptop with internet connection in percentage": 1.12,
      "PHCs functioning on a 24x7hours basis in percentage DLHS-4": 35,
      "Non Workers - Males": 765580,
      "Total Households in District Houselisting and Housing Census Data Tables- District Level , Census of India": 1075780,
      "Upper Primary Schools with girls toilet in percentage DISE": 100,
      "Households with mobile phone in percentage": 44.44,
      "Households receiving untreated tap water within premises in percentage Houselisting and Housing Census Data Tables- District Level , Census of India__2": 5.74076484,
      "Marginal Workers Cultivators worked for 3 - 6 moths during last year - Males": 2956,
      "Prevalence of Anaemia  in percentage DLHS-4": 75.3,
      "Prevalence of Chronic illness in percentage DLHS-4": 11.3,
      "Households with solar energy as main source of lighting in percentage Houselisting and Housing Census Data Tables- District Level , Census of India__1": 0.0954,
      "Marginal Workers Agricultural Labourers worked for 0 - 3 moths during last year - Females": 19585,
      "Main Workers - Males": 1100258,
      "Female": 71.36,
      "Sno": 47,
      "Marginal Workers Other worked for 3 - 6 moths during last year - Females": 19896,
      "Marginal Workers Cultivators worked for 0 - 3 moths during last year - Females": 439,
      "Scheduled Tribe Males": 53367,
      "Male Illiterates": 585695,
      "Prevalence of Severe Anaemia in pregnant women aged 15-49years in percentage DLHS-4": 12,
      "0-6 Age Group Persons": 382887,
      "Upper Primary Student-Classroom Ratio in percentage DISE": 2,
      "Currently married men married below 21years of age in percentage DLHS-4": 14.6,
      "Male Literates": 1379223,
      "Households with no lighting in percentage Houselisting and Housing Census Data Tables- District Level , Census of India__2": 0.295227649,
      "Primary Drop Out Rate in percentage DISE": 3,
      "Marginal Workers Household Industry - Males": 2125,
      "Female Illiterates": 698882,
      "Main Workers Other - Females": 89222,
      "Marginal Workers Cultivators - Persons": 5855,
      "Upper Primary Gross Enrolment Ratio in percentage DISE": 83.1,
      "Scheduled Caste Persons": 811698,
      "Marginal Workers Cultivators worked for 3 - 6 moths during last year - Persons": 5089,
      "Households with landline phone in percentage": 5.27,
      "Total Households in District  Houselisting and Housing Census Data Tables- District Level , Census of India": 1075780,
      "Upper Primary Pupil-Teacher Ratio in percentage DISE": 4,
      "Primary Student-Classroom Ratio in percentage DISE": 23,
      "Primary Schools with boys toilet in percentage DISE": 77.6,
      "Mean number of children ever born to women aged 40-49years  DLHS-4": 2.3,
      "Households receiving untreated tap water within premises  Houselisting and Housing Census Data Tables- District Level , Census of India__5": 61758,
      "Marginal Workers Household Industry worked for 0 - 3 moths during last year - Persons": 1979,
      "Total Male Population": 1964918,
      "Non Workers - Females": 1398274,
      "Current use of family planning methods in percentage DLHS-4": 71.2,
      "Households with main source of drinking water within premises  Houselisting and Housing Census Data Tables- District Level , Census of India__3": 593261,
      "Main Workers Agricultural Labourers - Males": 564273,
      "Marginal Workers Other worked for 0 - 3 moths during last year - Persons": 9447,
      "Currently married women married below 18years of age in percentage DLHS-4": 14.7,
      "Person Illiterates": 1284577,
      "Main Workers Household Industry - Females": 8844,
      "Female Literates": 1273166,
      "Marginal Workers Cultivators worked for 0 - 3 moths during last year - Males": 327,
      "Male": 77.92,
      "Households with improved source of drinking water in percentage DLHS-4": 99.2,
      "Upper Primary Schools with electricity in percentage DISE": 100,
      "Households with electricity in percentage DLHS-4": 99.2,
      "Villages with Primary Health Centre within 10km in percentage DLHS-4": 84,
      "Births to women aged 15-19years out of Total births in percentage DLHS-4": 5.6,
      "Prevalence of Anaemia in women aged 15-49years in percentage DLHS-4": 66.7,
      "Marginal Workers Agricultural Labourers worked for 3 - 6 moths during last year - Persons": 145110,
      "Main Workers Household Industry - Males": 16859,
      "Scheduled Tribe Females": 55705,
      "Marginal Workers worked for 0 - 3 moths during last year - Males": 12599,
      "Marginal Workers Other worked for 3 - 6 moths during last year - Males": 22618,
      "Primary Net Enrolment Ratio in percentage DISE": 77.8,
      "Total": 74.63,
      "Mean age at marriage for boys DLHS-4": 22.9,
      "Number of District Hospitals  DLHS-4": 1,
      "0-6 Age Group Females": 187927,
      "Marginal Workers Agricultural Labourers worked for 0 - 3 moths during last year - Persons": 27862,
      "Marginal Workers Household Industry worked for 0 - 3 moths during last year - Males": 425,
      "Total Workers  Females": 573774,
      "Marginal Workers worked for 3 - 6 moths during last year - Females": 112411,
      "Institutional Deliveries in percentage DLHS-4": 97.8,
      "Marginal Workers Other - Males": 26188,
      "Total Workers  Males": 1199338,
      "Main Workers - Females": 433908,
      "Primary Gross Enrolment Ratio in percentage DISE": 93.4,
      "Main Workers Cultivators - Persons": 149420,
      "Marginal Workers Household Industry worked for 0 - 3 moths during last year - Females": 1554,
      "Upper Primary Net Enrolment Ratio in percentage DISE": 62.3,
      "Primary New Government Schools since 2003 in percentage DISE": 2.6,
      "Tier": "Total",
      "Marginal Workers Household Industry - Females": 6033,
      "Primary Schools with electricity in percentage DISE": 93,
      "Main Workers Other - Persons": 470228,
      "Marginal Workers Household Industry worked for 3 - 6 moths during last year - Females": 4479,
      "Main Workers Cultivators - Males": 138120,
      "Main Workers Household Industry - Persons": 25703,
      "Marginal Workers Cultivators worked for 0 - 3 moths during last year - Persons": 766,
      "Scheduled Caste Males": 403693,
      "Marginal Workers - Persons": 238946,
      "Deliveries at home conducted by skilled health personnel in percentage DLHS-4": 2.2,
      "Villages with Sub-Health Centres within 3km in percentage DLHS-4": 88,
      "Upper Primary New Government Schools since 2003 in percentage DISE": 0,
      "0-6 Age Group Males": 194960,
      "Primary Schools with drinking water facility in percentage DISE": 99,
      "Non Workers - Persons": 2163854,
      "Person Literates": 2652389,
      "State": "ANDHRA PRADESH",
      "Total Female Population": 1972048,
      "Marginal Workers worked for 0 - 3 moths during last year - Persons": 40054,
      "Marginal Workers Cultivators - Females": 2572,
      "Marginal Workers Other - Persons": 51961,
      "Sex Ratio": 1004,
      "Scheduled Tribe Persons": 109072,
      "Marginal Workers Household Industry worked for 3 - 6 moths during last year - Males": 1700,
      "Marginal Workers Agricultural Labourers - Females": 105488,
      "Mean age at marriage for girls DLHS-4": 19.6,
      "Households with solar energy as main source of lighting  Houselisting and Housing Census Data Tables- District Level , Census of India__4": 1026,
      "District": "WEST GODAVARI",
      "Households receiving treated tap water within premises in percentage Houselisting and Housing Census Data Tables- District Level , Census of India__1": 40.19948317,
      "Total Workers  Persons": 1773112,
      "Households receiving treated tap water within premises  Houselisting and Housing Census Data Tables- District Level , Census of India__4": 432458,
      "Primary Female Teachers in percentage DISE": 52.6,
      "Number of Households": 1091525,
      "Main Workers Agricultural Labourers - Persons": 888815
    }
  ],
  "Rural": [
    {
      "Marginal Workers Agricultural Labourers - Persons": 163991,
      "Marginal Workers Other - Females": 18901,
      "Marginal Workers Other worked for 0 - 3 moths during last year - Females": 4550,
      "Upper Primary Schools with boys toilet in percentage DISE": "NA",
      "Total Population": 3128189,
      "Households with electricity as main source of lighting in percentage Houselisting and Housing Census Data Tables- District Level , Census of India": 93.90390842,
      "Primary Girl's Enrolment in percentage DISE": "NA",
      "Marginal Workers worked for 3 - 6 moths during last year - Males": 73075,
      "Prevalence of Acute illness in percentage DLHS-4": 11.1,
      "Main Workers - Persons": 1274245,
      "Main Workers Cultivators - Females": 11055,
      "Marginal Workers Agricultural Labourers worked for 3 - 6 moths during last year - Females": 82477,
      "Marginal Workers Other worked for 0 - 3 moths during last year - Males": 2118,
      "Upper Primary Schools with drinking water facility in percentage DISE": "NA",
      "Primary Schools with girls toilet in percentage DISE": "NA",
      "Marginal Workers worked for 3 - 6 moths during last year - Persons": 175918,
      "Upper Primary Drop Out Rate in percentage DISE": "NA",
      "Prevalence of Anaemia in pregnant women aged 15-49years in percentage DLHS-4": 59,
      "Current use of any modern method of family planning in percentage DLHS-4": 72.3,
      "Marginal Workers Agricultural Labourers - Males": 62816,
      "Upper Primary Female Teachers in percentage DISE": "NA",
      "Marginal Workers - Females": 127879,
      "Marginal Workers Other worked for 3 - 6 moths during last year - Persons": 28026,
      "Main Workers Agricultural Labourers - Females": 311555,
      "Marginal Workers Cultivators worked for 3 - 6 moths during last year - Females": 2053,
      "Households with no lighting  Houselisting and Housing Census Data Tables- District Level , Census of India__5": 2745,
      "Prevalence of Severe Anaemia  in percentage DLHS-4": 16,
      "Total unmet need for family planning in percentage DLHS-4": 17.4,
      "Main Workers Other - Males": 212886,
      "Children who received full vaccination in percentage DLHS-4": 54.5,
      "Marginal Workers Household Industry - Persons": 6851,
      "Primary Pupil-Teacher Ratio in percentage DISE": "NA",
      "Marginal Workers Agricultural Labourers worked for 3 - 6 moths during last year - Males": 55367,
      "Scheduled Caste Females": 355549,
      "Marginal Workers Cultivators - Males": 3091,
      "Marginal Workers - Males": 83237,
      "Marginal Workers worked for 0 - 3 moths during last year - Females": 25036,
      "Households with main source of drinking water within premises in percentage Houselisting and Housing Census Data Tables- District Level , Census of India": 51.3839195,
      "Marginal Workers Household Industry worked for 3 - 6 moths during last year - Persons": 5223,
      "Upper Primary Girl's Enrolment in percentage DISE": "NA",
      "Prevalence of Severe Anaemia in women aged 15-49years in percentage DLHS-4": 6.5,
      "Marginal Workers Agricultural Labourers worked for 0 - 3 moths during last year - Males": 7449,
      "Households with electricity as main source of lighting  Houselisting and Housing Census Data Tables- District Level , Census of India__3": 817534,
      "Households with computer or laptop with internet connection in percentage": 0.53,
      "PHCs functioning on a 24x7hours basis in percentage DLHS-4": "Not applicable",
      "Non Workers - Males": 592368,
      "Total Households in District Houselisting and Housing Census Data Tables- District Level , Census of India": 870607,
      "Upper Primary Schools with girls toilet in percentage DISE": "NA",
      "Households with mobile phone in percentage": 41.99,
      "Households receiving untreated tap water within premises in percentage Houselisting and Housing Census Data Tables- District Level , Census of India__2": 6.610789943,
      "Marginal Workers Cultivators worked for 3 - 6 moths during last year - Males": 2772,
      "Prevalence of Anaemia  in percentage DLHS-4": 73.7,
      "Prevalence of Chronic illness in percentage DLHS-4": 11.8,
      "Households with solar energy as main source of lighting in percentage Houselisting and Housing Census Data Tables- District Level , Census of India__1": 0.0933,
      "Marginal Workers Agricultural Labourers worked for 0 - 3 moths during last year - Females": 18698,
      "Main Workers - Males": 891408,
      "Female": "NA",
      "Sno": 46,
      "Marginal Workers Other worked for 3 - 6 moths during last year - Females": 14351,
      "Marginal Workers Cultivators worked for 0 - 3 moths during last year - Females": 436,
      "Scheduled Tribe Males": 48661,
      "Male Illiterates": 503338,
      "Prevalence of Severe Anaemia in pregnant women aged 15-49years in percentage DLHS-4": 11.5,
      "0-6 Age Group Persons": 309636,
      "Upper Primary Student-Classroom Ratio in percentage DISE": "NA",
      "Currently married men married below 21years of age in percentage DLHS-4": 18.3,
      "Male Literates": 1063675,
      "Households with no lighting in percentage Houselisting and Housing Census Data Tables- District Level , Census of India__2": 0.315297258,
      "Primary Drop Out Rate in percentage DISE": "NA",
      "Marginal Workers Household Industry - Males": 1537,
      "Female Illiterates": 589221,
      "Main Workers Other - Females": 53090,
      "Marginal Workers Cultivators - Persons": 5580,
      "Upper Primary Gross Enrolment Ratio in percentage DISE": "NA",
      "Scheduled Caste Persons": 710703,
      "Marginal Workers Cultivators worked for 3 - 6 moths during last year - Persons": 4825,
      "Households with landline phone in percentage": 5.25,
      "Total Households in District  Houselisting and Housing Census Data Tables- District Level , Census of India": 870607,
      "Upper Primary Pupil-Teacher Ratio in percentage DISE": "NA",
      "Primary Student-Classroom Ratio in percentage DISE": "NA",
      "Primary Schools with boys toilet in percentage DISE": "NA",
      "Mean number of children ever born to women aged 40-49years  DLHS-4": 2.3,
      "Households receiving untreated tap water within premises  Houselisting and Housing Census Data Tables- District Level , Census of India__5": 57554,
      "Marginal Workers Household Industry worked for 0 - 3 moths during last year - Persons": 1628,
      "Total Male Population": 1567013,
      "Non Workers - Females": 1050460,
      "Current use of family planning methods in percentage DLHS-4": 72.5,
      "Households with main source of drinking water within premises  Houselisting and Housing Census Data Tables- District Level , Census of India__3": 447352,
      "Main Workers Agricultural Labourers - Males": 532724,
      "Marginal Workers Other worked for 0 - 3 moths during last year - Persons": 6668,
      "Currently married women married below 18years of age in percentage DLHS-4": 11,
      "Person Illiterates": 1092559,
      "Main Workers Household Industry - Females": 7137,
      "Female Literates": 971955,
      "Marginal Workers Cultivators worked for 0 - 3 moths during last year - Males": 319,
      "Male": "NA",
      "Households with improved source of drinking water in percentage DLHS-4": 98.8,
      "Upper Primary Schools with electricity in percentage DISE": "NA",
      "Households with electricity in percentage DLHS-4": 98.5,
      "Villages with Primary Health Centre within 10km in percentage DLHS-4": "Not applicable",
      "Births to women aged 15-19years out of Total births in percentage DLHS-4": 4,
      "Prevalence of Anaemia in women aged 15-49years in percentage DLHS-4": 57.6,
      "Marginal Workers Agricultural Labourers worked for 3 - 6 moths during last year - Persons": 137844,
      "Main Workers Household Industry - Males": 13329,
      "Scheduled Tribe Females": 50998,
      "Marginal Workers worked for 0 - 3 moths during last year - Males": 10162,
      "Marginal Workers Other worked for 3 - 6 moths during last year - Males": 13675,
      "Primary Net Enrolment Ratio in percentage DISE": "NA",
      "Total": "NA",
      "Mean age at marriage for boys DLHS-4": 21.4,
      "Number of District Hospitals  DLHS-4": "Not applicable",
      "0-6 Age Group Females": 152056,
      "Marginal Workers Agricultural Labourers worked for 0 - 3 moths during last year - Persons": 26147,
      "Marginal Workers Household Industry worked for 0 - 3 moths during last year - Males": 276,
      "Total Workers  Females": 510716,
      "Marginal Workers worked for 3 - 6 moths during last year - Females": 102843,
      "Institutional Deliveries in percentage DLHS-4": 96.7,
      "Marginal Workers Other - Males": 15793,
      "Total Workers  Males": 974645,
      "Main Workers - Females": 382837,
      "Primary Gross Enrolment Ratio in percentage DISE": "NA",
      "Main Workers Cultivators - Persons": 143524,
      "Marginal Workers Household Industry worked for 0 - 3 moths during last year - Females": 1352,
      "Upper Primary Net Enrolment Ratio in percentage DISE": "NA",
      "Primary New Government Schools since 2003 in percentage DISE": "NA",
      "Tier": "Rural",
      "Marginal Workers Household Industry - Females": 5314,
      "Primary Schools with electricity in percentage DISE": "NA",
      "Main Workers Other - Persons": 265976,
      "Marginal Workers Household Industry worked for 3 - 6 moths during last year - Females": 3962,
      "Main Workers Cultivators - Males": 132469,
      "Main Workers Household Industry - Persons": 20466,
      "Marginal Workers Cultivators worked for 0 - 3 moths during last year - Persons": 755,
      "Scheduled Caste Males": 355154,
      "Marginal Workers - Persons": 211116,
      "Deliveries at home conducted by skilled health personnel in percentage DLHS-4": 3.3,
      "Villages with Sub-Health Centres within 3km in percentage DLHS-4": "Not applicable",
      "Upper Primary New Government Schools since 2003 in percentage DISE": "NA",
      "0-6 Age Group Males": 157580,
      "Primary Schools with drinking water facility in percentage DISE": "NA",
      "Non Workers - Persons": 1642828,
      "Person Literates": 2035630,
      "State": "ANDHRA PRADESH",
      "Total Female Population": 1561176,
      "Marginal Workers worked for 0 - 3 moths during last year - Persons": 35198,
      "Marginal Workers Cultivators - Females": 2489,
      "Marginal Workers Other - Persons": 34694,
      "Sex Ratio": 996,
      "Scheduled Tribe Persons": 99659,
      "Marginal Workers Household Industry worked for 3 - 6 moths during last year - Males": 1261,
      "Marginal Workers Agricultural Labourers - Females": 101175,
      "Mean age at marriage for girls DLHS-4": 19.5,
      "Households with solar energy as main source of lighting  Houselisting and Housing Census Data Tables- District Level , Census of India__4": 812,
      "District": "WEST GODAVARI",
      "Households receiving treated tap water within premises in percentage Houselisting and Housing Census Data Tables- District Level , Census of India__1": 35.25103749,
      "Total Workers  Persons": 1485361,
      "Households receiving treated tap water within premises  Houselisting and Housing Census Data Tables- District Level , Census of India__4": 306898,
      "Primary Female Teachers in percentage DISE": "NA",
      "Number of Households": 877207,
      "Main Workers Agricultural Labourers - Persons": 844279
    }
  ],
  "Urban": [
    {
      "Marginal Workers Agricultural Labourers - Persons": 8981,
      "Marginal Workers Other - Females": 6872,
      "Marginal Workers Other worked for 0 - 3 moths during last year - Females": 1327,
      "Upper Primary Schools with boys toilet in percentage DISE": "NA",
      "Total Population": 808777,
      "Households with electricity as main source of lighting in percentage Houselisting and Housing Census Data Tables- District Level , Census of India": 97.49528447,
      "Primary Girl's Enrolment in percentage DISE": "NA",
      "Marginal Workers worked for 3 - 6 moths during last year - Males": 13406,
      "Prevalence of Acute illness in percentage DLHS-4": "Not available",
      "Main Workers - Persons": 259921,
      "Main Workers Cultivators - Females": 245,
      "Marginal Workers Agricultural Labourers worked for 3 - 6 moths during last year - Females": 3426,
      "Marginal Workers Other worked for 0 - 3 moths during last year - Males": 1452,
      "Upper Primary Schools with drinking water facility in percentage DISE": "NA",
      "Primary Schools with girls toilet in percentage DISE": "NA",
      "Marginal Workers worked for 3 - 6 moths during last year - Persons": 22974,
      "Upper Primary Drop Out Rate in percentage DISE": "NA",
      "Prevalence of Anaemia in pregnant women aged 15-49years in percentage DLHS-4": "Not available",
      "Current use of any modern method of family planning in percentage DLHS-4": "Not available",
      "Marginal Workers Agricultural Labourers - Males": 4668,
      "Upper Primary Female Teachers in percentage DISE": "NA",
      "Marginal Workers - Females": 11987,
      "Marginal Workers Other worked for 3 - 6 moths during last year - Persons": 14488,
      "Main Workers Agricultural Labourers - Females": 12987,
      "Marginal Workers Cultivators worked for 3 - 6 moths during last year - Females": 80,
      "Households with no lighting  Houselisting and Housing Census Data Tables- District Level , Census of India__5": 431,
      "Prevalence of Severe Anaemia  in percentage DLHS-4": "Not available",
      "Total unmet need for family planning in percentage DLHS-4": "Not available",
      "Main Workers Other - Males": 168120,
      "Children who received full vaccination in percentage DLHS-4": "Not available",
      "Marginal Workers Household Industry - Persons": 1307,
      "Primary Pupil-Teacher Ratio in percentage DISE": "NA",
      "Marginal Workers Agricultural Labourers worked for 3 - 6 moths during last year - Males": 3840,
      "Scheduled Caste Females": 52456,
      "Marginal Workers Cultivators - Males": 192,
      "Marginal Workers - Males": 15843,
      "Marginal Workers worked for 0 - 3 moths during last year - Females": 2419,
      "Households with main source of drinking water within premises in percentage Houselisting and Housing Census Data Tables- District Level , Census of India": 71.11510774,
      "Marginal Workers Household Industry worked for 3 - 6 moths during last year - Persons": 956,
      "Upper Primary Girl's Enrolment in percentage DISE": "NA",
      "Prevalence of Severe Anaemia in women aged 15-49years in percentage DLHS-4": "Not available",
      "Marginal Workers Agricultural Labourers worked for 0 - 3 moths during last year - Males": 828,
      "Households with electricity as main source of lighting  Houselisting and Housing Census Data Tables- District Level , Census of India__3": 200034,
      "Households with computer or laptop with internet connection in percentage": 3.61,
      "PHCs functioning on a 24x7hours basis in percentage DLHS-4": "Not available",
      "Non Workers - Males": 173212,
      "Total Households in District Houselisting and Housing Census Data Tables- District Level , Census of India": 205173,
      "Upper Primary Schools with girls toilet in percentage DISE": "NA",
      "Households with mobile phone in percentage": 54.83,
      "Households receiving untreated tap water within premises in percentage Houselisting and Housing Census Data Tables- District Level , Census of India__2": 2.049002549,
      "Marginal Workers Cultivators worked for 3 - 6 moths during last year - Males": 184,
      "Prevalence of Anaemia  in percentage DLHS-4": "Not available",
      "Prevalence of Chronic illness in percentage DLHS-4": "Not available",
      "Households with solar energy as main source of lighting in percentage Houselisting and Housing Census Data Tables- District Level , Census of India__1": 0.104302223,
      "Marginal Workers Agricultural Labourers worked for 0 - 3 moths during last year - Females": 887,
      "Main Workers - Males": 208850,
      "Female": "NA",
      "Sno": 48,
      "Marginal Workers Other worked for 3 - 6 moths during last year - Females": 5545,
      "Marginal Workers Cultivators worked for 0 - 3 moths during last year - Females": 3,
      "Scheduled Tribe Males": 4706,
      "Male Illiterates": 82357,
      "Prevalence of Severe Anaemia in pregnant women aged 15-49years in percentage DLHS-4": "Not available",
      "0-6 Age Group Persons": 73251,
      "Upper Primary Student-Classroom Ratio in percentage DISE": "NA",
      "Currently married men married below 21years of age in percentage DLHS-4": "Not available",
      "Male Literates": 315548,
      "Households with no lighting in percentage Houselisting and Housing Census Data Tables- District Level , Census of India__2": 0.210066627,
      "Primary Drop Out Rate in percentage DISE": "NA",
      "Marginal Workers Household Industry - Males": 588,
      "Female Illiterates": 109661,
      "Main Workers Other - Females": 36132,
      "Marginal Workers Cultivators - Persons": 275,
      "Upper Primary Gross Enrolment Ratio in percentage DISE": "NA",
      "Scheduled Caste Persons": 100995,
      "Marginal Workers Cultivators worked for 3 - 6 moths during last year - Persons": 264,
      "Households with landline phone in percentage": 5.33,
      "Total Households in District  Houselisting and Housing Census Data Tables- District Level , Census of India": 205173,
      "Upper Primary Pupil-Teacher Ratio in percentage DISE": "NA",
      "Primary Student-Classroom Ratio in percentage DISE": "NA",
      "Primary Schools with boys toilet in percentage DISE": "NA",
      "Mean number of children ever born to women aged 40-49years  DLHS-4": "Not available",
      "Households receiving untreated tap water within premises  Houselisting and Housing Census Data Tables- District Level , Census of India__5": 4204,
      "Marginal Workers Household Industry worked for 0 - 3 moths during last year - Persons": 351,
      "Total Male Population": 397905,
      "Non Workers - Females": 347814,
      "Current use of family planning methods in percentage DLHS-4": "Not available",
      "Households with main source of drinking water within premises  Houselisting and Housing Census Data Tables- District Level , Census of India__3": 145909,
      "Main Workers Agricultural Labourers - Males": 31549,
      "Marginal Workers Other worked for 0 - 3 moths during last year - Persons": 2779,
      "Currently married women married below 18years of age in percentage DLHS-4": "Not available",
      "Person Illiterates": 192018,
      "Main Workers Household Industry - Females": 1707,
      "Female Literates": 301211,
      "Marginal Workers Cultivators worked for 0 - 3 moths during last year - Males": 8,
      "Male": "NA",
      "Households with improved source of drinking water in percentage DLHS-4": "Not available",
      "Upper Primary Schools with electricity in percentage DISE": "NA",
      "Households with electricity in percentage DLHS-4": "Not available",
      "Villages with Primary Health Centre within 10km in percentage DLHS-4": "Not available",
      "Births to women aged 15-19years out of Total births in percentage DLHS-4": "Not available",
      "Prevalence of Anaemia in women aged 15-49years in percentage DLHS-4": "Not available",
      "Marginal Workers Agricultural Labourers worked for 3 - 6 moths during last year - Persons": 7266,
      "Main Workers Household Industry - Males": 3530,
      "Scheduled Tribe Females": 4707,
      "Marginal Workers worked for 0 - 3 moths during last year - Males": 2437,
      "Marginal Workers Other worked for 3 - 6 moths during last year - Males": 8943,
      "Primary Net Enrolment Ratio in percentage DISE": "NA",
      "Total": "NA",
      "Mean age at marriage for boys DLHS-4": "Not available",
      "Number of District Hospitals  DLHS-4": "Not available",
      "0-6 Age Group Females": 35871,
      "Marginal Workers Agricultural Labourers worked for 0 - 3 moths during last year - Persons": 1715,
      "Marginal Workers Household Industry worked for 0 - 3 moths during last year - Males": 149,
      "Total Workers  Females": 63058,
      "Marginal Workers worked for 3 - 6 moths during last year - Females": 9568,
      "Institutional Deliveries in percentage DLHS-4": "Not available",
      "Marginal Workers Other - Males": 10395,
      "Total Workers  Males": 224693,
      "Main Workers - Females": 51071,
      "Primary Gross Enrolment Ratio in percentage DISE": "NA",
      "Main Workers Cultivators - Persons": 5896,
      "Marginal Workers Household Industry worked for 0 - 3 moths during last year - Females": 202,
      "Upper Primary Net Enrolment Ratio in percentage DISE": "NA",
      "Primary New Government Schools since 2003 in percentage DISE": "NA",
      "Tier": "Urban",
      "Marginal Workers Household Industry - Females": 719,
      "Primary Schools with electricity in percentage DISE": "NA",
      "Main Workers Other - Persons": 204252,
      "Marginal Workers Household Industry worked for 3 - 6 moths during last year - Females": 517,
      "Main Workers Cultivators - Males": 5651,
      "Main Workers Household Industry - Persons": 5237,
      "Marginal Workers Cultivators worked for 0 - 3 moths during last year - Persons": 11,
      "Scheduled Caste Males": 48539,
      "Marginal Workers - Persons": 27830,
      "Deliveries at home conducted by skilled health personnel in percentage DLHS-4": "Not available",
      "Villages with Sub-Health Centres within 3km in percentage DLHS-4": "Not available",
      "Upper Primary New Government Schools since 2003 in percentage DISE": "NA",
      "0-6 Age Group Males": 37380,
      "Primary Schools with drinking water facility in percentage DISE": "NA",
      "Non Workers - Persons": 521026,
      "Person Literates": 616759,
      "State": "ANDHRA PRADESH",
      "Total Female Population": 410872,
      "Marginal Workers worked for 0 - 3 moths during last year - Persons": 4856,
      "Marginal Workers Cultivators - Females": 83,
      "Marginal Workers Other - Persons": 17267,
      "Sex Ratio": 1033,
      "Scheduled Tribe Persons": 9413,
      "Marginal Workers Household Industry worked for 3 - 6 moths during last year - Males": 439,
      "Marginal Workers Agricultural Labourers - Females": 4313,
      "Mean age at marriage for girls DLHS-4": "Not available",
      "Households with solar energy as main source of lighting  Houselisting and Housing Census Data Tables- District Level , Census of India__4": 214,
      "District": "WEST GODAVARI",
      "Households receiving treated tap water within premises in percentage Houselisting and Housing Census Data Tables- District Level , Census of India__1": 61.19713608,
      "Total Workers  Persons": 287751,
      "Households receiving treated tap water within premises  Houselisting and Housing Census Data Tables- District Level , Census of India__4": 125560,
      "Primary Female Teachers in percentage DISE": "NA",
      "Number of Households": 214318,
      "Main Workers Agricultural Labourers - Persons": 44536
    }
  ]
}